"tick","total"
0,0
1,0
2,0
3,0
4,0
5,0
6,0
7,0
8,0
9,0
10,0
11,0
12,0
13,0
14,0
15,0
16,0
17,0
18,0
19,0
20,0
21,0
22,0
23,0
24,0
25,0
26,0
27,0
28,0
29,0
30,0
31,0
32,0
33,0
34,0
35,0
36,0
37,0
38,0
39,0
40,0
41,0
42,0
43,0
44,0
45,0
46,0
47,0
48,0
49,0
50,0
51,0
52,0
53,0
54,0
55,0
56,0
57,0
58,0
59,0
60,0
61,0
62,0
63,0
64,0
65,0
66,0
67,0
68,0
69,0
70,0
71,0
72,0
73,0
74,0
75,0
76,0
77,0
78,0
79,0
80,0
81,0
82,0
83,0
84,0
85,0
86,0
87,0
88,0
89,0
90,0
91,0
92,0
93,0
94,0
95,0
96,0
97,0
98,0
99,0
100,0
101,0
102,0
103,0
104,0
105,0
106,0
107,0
108,0
109,0
110,0
111,0
112,0
113,0
114,0
115,0
116,0
117,0
118,0
119,0
120,0
121,0
122,0
123,0
124,0
125,0
126,0
127,0
128,0
129,0
130,0
131,0
132,0
133,0
134,0
135,0
136,0
137,0
138,0
139,0
140,0
141,0
142,0
143,0
144,0
145,0
146,0
147,0
148,0
149,0
150,0
151,0
152,0
153,0
154,0
155,0
156,0
157,0
158,0
159,0
160,0
161,0
162,0
163,0
164,0
165,0
166,0
167,0
168,0
169,0
170,0
171,0
172,0
173,0
174,0
175,0
176,0
177,0
178,0
179,0
180,0
181,0
182,0
183,0
184,0
185,0
186,0
187,0
188,0
189,0
190,0
191,0
192,0
193,0
194,0
195,0
196,0
197,0
198,0
199,0
200,0
201,0
202,0
203,0
204,1
205,1
206,1
207,1
208,1
209,1
210,1
211,1
212,1
213,1
214,1
215,1
216,1
217,1
218,1
219,1
220,1
221,1
222,1
223,1
224,1
225,1
226,1
227,1
228,1
229,1
230,1
231,1
232,1
233,1
234,1
235,1
236,1
237,1
238,1
239,1
240,1
241,2
242,2
243,2
244,2
245,2
246,3
247,3
248,3
249,3
250,3
251,4
252,4
253,4
254,4
255,4
256,4
257,4
258,4
259,4
260,4
261,4
262,4
263,4
264,4
265,5
266,6
267,6
268,6
269,6
270,6
271,6
272,6
273,7
274,7
275,7
276,8
277,8
278,8
279,8
280,8
281,8
282,8
283,8
284,8
285,8
286,8
287,8
288,8
289,8
290,8
291,8
292,8
293,8
294,8
295,8
296,8
297,8
298,8
299,10
300,10
301,10
302,10
303,11
304,11
305,11
306,11
307,11
308,11
309,11
310,11
311,11
312,11
313,11
314,11
315,11
316,12
317,12
318,12
319,12
320,12
321,12
322,12
323,12
324,12
325,12
326,12
327,12
328,12
329,13
330,14
331,16
332,17
333,17
334,17
335,17
336,17
337,17
338,17
339,17
340,17
341,17
342,17
343,17
344,17
345,17
346,17
347,17
348,17
349,17
350,17
351,17
352,18
353,18
354,18
355,18
356,18
357,18
358,18
359,18
360,18
361,18
362,18
363,18
364,18
365,18
366,18
367,18
368,18
369,19
370,19
371,19
372,19
373,19
374,19
375,19
376,19
377,19
378,19
379,19
380,19
381,20
382,20
383,20
384,20
385,20
386,20
387,20
388,20
389,20
390,20
391,21
392,21
393,21
394,21
395,21
396,21
397,21
398,22
399,23
400,23
401,23
402,23
403,23
404,23
405,23
406,23
407,23
408,23
409,23
410,23
411,24
412,24
413,24
414,25
415,25
416,25
417,26
418,26
419,26
420,26
421,27
422,27
423,27
424,27
425,27
426,27
427,27
428,27
429,27
430,27
431,27
432,27
433,27
434,27
435,27
436,27
437,27
438,27
439,27
440,27
441,27
442,27
443,27
444,27
445,27
446,27
447,27
448,27
449,27
450,27
451,27
452,27
453,27
454,27
455,28
456,28
457,28
458,28
459,28
460,28
461,28
462,28
463,28
464,28
465,28
466,28
467,28
468,28
469,28
470,28
471,28
472,28
473,28
474,28
475,28
476,28
477,28
478,28
479,28
480,28
481,28
482,28
483,28
484,28
485,29
486,29
487,29
488,29
489,29
490,29
491,29
492,29
493,29
494,29
495,29
496,30
497,30
498,30
499,30
500,30
501,30
502,30
503,30
504,30
505,31
506,31
507,31
508,32
509,32
510,32
511,32
512,32
513,32
514,33
515,33
516,33
517,33
518,33
519,33
520,33
521,33
522,33
523,33
524,33
525,33
526,34
527,34
528,34
529,34
530,34
531,34
532,34
533,34
534,34
535,34
536,34
537,34
538,34
539,34
540,34
541,34
542,34
543,34
544,34
545,34
546,34
547,34
548,34
549,34
550,34
551,34
552,34
553,34
554,34
555,34
556,34
557,34
558,34
559,34
560,34
561,34
562,34
563,34
564,34
565,34
566,34
567,34
568,34
569,34
570,34
571,34
572,34
573,34
574,34
575,34
576,34
577,34
578,34
579,34
580,34
581,34
582,34
583,34
584,34
585,34
586,34
587,34
588,34
589,34
590,34
591,34
592,34
593,34
594,34
595,34
596,34
597,34
598,34
599,34
600,34
601,34
602,34
603,34
604,34
605,34
606,34
607,34
608,34
609,34
610,34
611,34
612,34
613,34
614,34
615,34
616,34
617,34
618,34
619,34
620,34
621,34
622,34
623,34
624,34
625,34
626,34
627,34
628,34
629,34
630,34
631,34
632,34
633,34
634,34
635,34
636,34
637,34
638,34
639,34
640,34
641,34
642,34
643,34
644,34
645,34
646,35
647,35
648,35
649,35
650,35
651,35
652,35
653,35
654,35
655,35
656,35
657,35
658,36
659,36
660,36
661,36
662,36
663,36
664,36
665,36
666,36
667,36
668,36
669,36
670,36
671,36
672,36
673,36
674,36
675,37
676,37
677,37
678,37
679,38
680,38
681,38
682,38
683,39
684,39
685,39
686,39
687,39
688,39
689,40
690,40
691,40
692,41
693,41
694,41
695,42
696,42
697,42
698,42
699,42
700,42
701,42
702,42
703,42
704,42
705,42
706,42
707,42
708,42
709,42
710,42
711,42
712,42
713,42
714,42
715,42
716,42
717,42
718,42
719,42
720,42
721,42
722,42
723,42
724,42
725,42
726,42
727,42
728,42
729,42
730,42
731,42
732,42
733,43
734,43
735,43
736,44
737,44
738,44
739,44
740,44
741,44
742,44
743,44
744,44
745,45
746,45
747,45
748,45
749,45
750,45
751,45
752,45
753,45
754,45
755,45
756,45
757,45
758,45
759,45
760,45
761,45
762,45
763,45
764,45
765,45
766,47
767,47
768,47
769,47
770,47
771,47
772,47
773,47
774,47
775,47
776,48
777,48
778,48
779,48
780,48
781,48
782,48
783,48
784,48
785,48
786,48
787,48
788,48
789,48
790,48
791,48
792,48
793,48
794,48
795,48
796,48
797,48
798,48
799,48
800,48
801,48
802,48
803,48
804,48
805,48
806,48
807,48
808,48
809,48
810,48
811,48
812,48
813,48
814,48
815,48
816,48
817,48
818,48
819,48
820,48
821,48
822,48
823,48
824,48
825,48
826,48
827,48
828,48
829,48
830,48
831,48
832,48
833,48
834,48
835,48
836,48
837,48
838,48
839,48
840,48
841,48
842,48
843,48
844,48
845,48
846,48
847,48
848,48
849,48
850,48
851,48
852,48
853,48
854,48
855,48
856,48
857,49
858,49
859,49
860,49
861,49
862,49
863,49
864,49
865,49
866,49
867,49
868,49
869,49
870,50
871,50
872,50
873,50
874,50
875,50
876,50
877,50
878,50
879,50
880,50
881,50
882,50
883,50
884,50
885,50
886,50
887,50
888,50
889,50
890,50
891,50
892,50
893,50
894,50
895,50
896,50
897,50
898,50
899,50
900,51
901,51
902,51
903,51
904,51
905,51
906,51
907,51
908,51
909,51
910,51
911,51
912,51
913,51
914,51
915,51
916,51
917,51
918,51
919,51
920,51
921,51
922,51
923,51
924,51
925,51
926,51
927,51
928,51
929,51
930,51
931,51
932,51
933,51
934,51
935,51
936,51
937,51
938,51
939,51
940,51
941,51
942,51
943,51
944,51
945,51
946,51
947,51
948,51
949,51
950,51
951,51
952,51
953,51
954,51
955,51
956,51
957,51
958,51
959,51
960,51
961,51
962,51
963,51
964,51
965,51
966,51
967,51
968,51
969,51
970,51
971,51
972,51
973,51
974,51
975,51
976,51
977,51
978,51
979,51
980,51
981,51
982,51
983,51
984,51
985,51
986,51
987,51
988,51
989,51
990,51
991,51
992,51
993,51
994,51
995,51
996,51
997,51
998,51
999,51
1000,51
1001,51
1002,51
1003,51
1004,51
1005,51
1006,51
1007,51
1008,52
1009,52
1010,52
1011,52
1012,53
1013,54
1014,54
1015,54
1016,54
1017,54
1018,54
1019,54
1020,54
1021,54
1022,54
1023,54
1024,54
1025,54
1026,54
1027,54
1028,54
1029,54
1030,54
1031,54
1032,54
1033,54
1034,54
1035,54
1036,54
1037,54
1038,54
1039,54
1040,54
1041,54
1042,54
1043,54
1044,54
1045,54
1046,54
1047,54
1048,54
1049,54
1050,54
1051,54
1052,54
1053,54
1054,54
1055,54
1056,54
1057,54
1058,54
1059,54
1060,54
1061,54
1062,54
1063,54
1064,54
1065,54
1066,54
1067,54
1068,54
1069,54
1070,54
1071,54
1072,54
1073,54
1074,54
1075,54
1076,54
1077,54
1078,54
1079,54
1080,54
1081,54
1082,54
1083,54
1084,54
1085,54
1086,54
1087,54
1088,54
1089,54
1090,54
1091,54
1092,55
1093,55
1094,55
1095,55
1096,55
1097,55
1098,55
1099,55
1100,55
1101,55
1102,55
1103,55
1104,55
1105,55
1106,55
1107,55
1108,55
1109,55
1110,55
1111,55
1112,55
1113,55
1114,55
1115,55
1116,55
1117,55
1118,55
1119,55
1120,55
1121,55
1122,55
1123,55
1124,55
1125,55
1126,55
1127,55
1128,55
1129,55
1130,55
1131,55
1132,55
1133,55
1134,55
1135,55
1136,55
1137,55
1138,55
1139,55
1140,56
1141,57
1142,57
1143,57
1144,57
1145,57
1146,57
1147,57
1148,57
1149,58
1150,58
1151,58
1152,58
1153,59
1154,59
1155,59
1156,59
1157,59
1158,59
1159,59
1160,59
1161,59
1162,59
1163,59
1164,59
1165,59
1166,59
1167,59
1168,59
1169,59
1170,59
1171,60
1172,60
1173,60
1174,60
1175,60
1176,60
1177,60
1178,60
1179,60
1180,60
1181,60
1182,60
1183,60
1184,60
1185,60
1186,60
1187,60
1188,60
1189,60
1190,60
1191,60
1192,60
1193,60
1194,60
1195,60
1196,60
1197,60
1198,60
1199,60
1200,60
1201,60
1202,60
1203,60
1204,60
1205,60
1206,60
1207,60
1208,60
1209,60
1210,60
1211,60
1212,60
1213,60
1214,60
1215,60
1216,60
1217,60
1218,60
1219,60
1220,60
1221,60
1222,60
1223,60
1224,60
1225,60
1226,60
1227,60
1228,61
1229,61
1230,61
1231,61
1232,61
1233,61
1234,61
1235,61
1236,61
1237,61
1238,61
1239,61
1240,61
1241,61
1242,61
1243,61
1244,61
1245,61
1246,61
1247,61
1248,62
1249,62
1250,62
1251,62
1252,62
1253,62
1254,62
1255,63
1256,63
1257,63
1258,64
1259,64
1260,64
1261,64
1262,64
1263,64
1264,64
1265,64
1266,64
1267,64
1268,64
1269,64
1270,64
1271,64
1272,64
1273,64
1274,64
1275,65
1276,65
1277,65
1278,65
1279,65
1280,65
1281,65
1282,65
1283,65
1284,65
1285,65
1286,65
1287,65
1288,65
1289,65
1290,65
1291,65
1292,65
1293,65
1294,65
1295,65
1296,65
1297,65
1298,65
1299,65
1300,65
1301,65
1302,65
1303,65
1304,65
1305,65
1306,65
1307,65
1308,65
1309,65
1310,65
1311,65
1312,65
1313,65
1314,65
1315,65
1316,65
1317,65
1318,65
1319,65
1320,65
1321,65
1322,65
1323,65
1324,65
1325,65
1326,65
1327,65
1328,65
1329,65
1330,65
1331,65
1332,65
1333,65
1334,65
1335,65
1336,65
1337,65
1338,65
1339,65
1340,65
1341,65
1342,65
1343,65
1344,65
1345,65
1346,65
1347,65
1348,65
1349,65
1350,65
1351,65
1352,65
1353,66
1354,66
1355,66
1356,66
1357,66
1358,66
1359,66
1360,66
1361,66
1362,66
1363,66
1364,66
1365,66
1366,66
1367,67
1368,67
1369,67
1370,67
1371,67
1372,67
1373,67
1374,67
1375,67
1376,67
1377,67
1378,67
1379,67
1380,67
1381,67
1382,67
1383,67
1384,67
1385,67
1386,67
1387,67
1388,67
1389,67
1390,67
1391,67
1392,67
1393,67
1394,67
1395,67
1396,67
1397,67
1398,68
1399,68
1400,68
1401,68
1402,69
1403,69
1404,69
1405,69
1406,69
1407,69
1408,69
1409,69
1410,69
1411,69
1412,70
1413,70
1414,70
1415,70
1416,70
1417,70
1418,70
1419,70
1420,70
1421,70
1422,70
1423,70
1424,70
1425,70
1426,71
1427,71
1428,71
1429,71
1430,73
1431,73
1432,73
1433,73
1434,73
1435,73
1436,73
1437,73
1438,73
1439,73
1440,73
1441,73
1442,73
1443,73
1444,73
1445,73
1446,73
1447,73
1448,73
1449,73
1450,73
1451,73
1452,73
1453,73
1454,73
1455,73
1456,73
1457,73
1458,73
1459,73
1460,73
1461,73
1462,73
1463,73
1464,73
1465,73
1466,73
1467,73
1468,73
1469,73
1470,73
1471,73
1472,73
1473,73
1474,73
1475,73
1476,73
1477,73
1478,73
1479,73
1480,74
1481,74
1482,74
1483,74
1484,74
1485,74
1486,74
1487,74
1488,74
1489,74
1490,74
1491,74
1492,75
1493,75
1494,75
1495,75
1496,75
1497,75
1498,75
1499,75
1500,75
1501,75
1502,75
1503,75
1504,75
1505,75
1506,75
1507,75
1508,75
1509,75
1510,75
1511,75
1512,75
1513,75
1514,75
1515,75
1516,75
1517,75
1518,75
1519,75
1520,75
1521,75
1522,75
1523,75
1524,75
1525,75
1526,75
1527,75
1528,75
1529,75
1530,75
1531,76
1532,76
1533,76
1534,76
1535,76
1536,76
1537,76
1538,76
1539,76
1540,76
1541,76
1542,76
1543,76
1544,76
1545,76
1546,76
1547,76
1548,76
1549,76
1550,76
1551,76
1552,76
1553,76
1554,76
1555,76
1556,76
1557,76
1558,76
1559,76
1560,76
1561,76
1562,76
1563,76
1564,76
1565,76
1566,76
1567,76
1568,76
1569,76
1570,76
1571,76
1572,76
1573,76
1574,76
1575,76
1576,76
1577,76
1578,76
1579,76
1580,76
1581,76
1582,77
1583,77
1584,77
1585,77
1586,77
1587,77
1588,77
1589,77
1590,77
1591,77
1592,77
1593,77
1594,77
1595,77
1596,77
1597,77
1598,77
1599,77
1600,77
1601,77
1602,77
1603,77
1604,77
1605,78
1606,78
1607,78
1608,78
1609,78
1610,78
1611,78
1612,78
1613,78
1614,78
1615,78
1616,78
1617,78
1618,78
1619,78
1620,78
1621,78
1622,78
1623,78
1624,78
1625,78
1626,78
1627,78
1628,78
1629,78
1630,78
1631,78
1632,78
1633,78
1634,78
1635,78
1636,78
1637,78
1638,78
1639,78
1640,78
1641,78
1642,78
1643,78
1644,78
1645,78
1646,78
1647,78
1648,78
1649,78
1650,78
1651,78
1652,79
1653,79
1654,79
1655,79
1656,79
1657,79
1658,79
1659,79
1660,79
1661,79
1662,79
1663,79
1664,79
1665,79
1666,79
1667,79
1668,79
1669,79
1670,79
1671,79
1672,79
1673,79
1674,79
1675,79
1676,79
1677,79
1678,79
1679,79
1680,79
1681,79
1682,79
1683,79
1684,79
1685,79
1686,79
1687,79
1688,79
1689,79
1690,79
1691,79
1692,79
1693,80
1694,80
1695,80
1696,80
1697,80
1698,80
1699,80
1700,80
1701,80
1702,80
1703,80
1704,80
1705,80
1706,80
1707,80
1708,80
1709,80
1710,80
1711,80
1712,80
1713,80
1714,80
1715,80
1716,80
1717,80
1718,80
1719,80
1720,80
1721,80
1722,80
1723,80
1724,80
1725,80
1726,80
1727,80
1728,80
1729,80
1730,80
1731,80
1732,80
1733,80
1734,80
1735,80
1736,80
1737,80
1738,80
1739,80
1740,80
1741,80
1742,80
1743,80
1744,80
1745,80
1746,80
1747,80
1748,80
1749,80
1750,80
1751,80
1752,80
1753,80
1754,80
1755,80
1756,80
1757,80
1758,80
1759,80
1760,80
1761,80
1762,80
1763,80
1764,80
1765,80
1766,80
1767,80
1768,80
1769,80
1770,80
1771,80
1772,80
1773,80
1774,80
1775,80
1776,80
1777,80
1778,80
1779,80
1780,80
1781,80
1782,80
1783,80
1784,80
1785,80
1786,80
1787,80
1788,80
1789,80
1790,80
1791,80
1792,81
1793,81
1794,81
1795,81
1796,81
1797,81
1798,81
1799,81
1800,81
1801,81
1802,81
1803,81
1804,81
1805,81
1806,81
1807,81
1808,81
1809,81
1810,81
1811,81
1812,81
1813,81
1814,81
1815,81
1816,81
1817,81
1818,81
1819,81
1820,81
1821,81
1822,81
1823,81
1824,81
1825,81
1826,81
1827,81
1828,81
1829,81
1830,81
1831,81
1832,81
1833,81
1834,81
1835,81
1836,81
1837,81
1838,81
1839,81
1840,81
1841,81
1842,82
1843,82
1844,82
1845,82
1846,82
1847,82
1848,82
1849,82
1850,82
1851,82
1852,82
1853,82
1854,82
1855,82
1856,82
1857,82
1858,82
1859,82
1860,82
1861,82
1862,82
1863,82
1864,82
1865,82
1866,82
1867,82
1868,82
1869,82
1870,82
1871,82
1872,82
1873,82
1874,82
1875,82
1876,82
1877,82
1878,82
1879,82
1880,82
1881,82
1882,82
1883,82
1884,82
1885,82
1886,82
1887,82
1888,82
1889,83
1890,83
1891,83
1892,83
1893,83
1894,83
1895,83
1896,83
1897,83
1898,83
1899,84
1900,84
1901,84
1902,84
1903,84
1904,84
1905,84
1906,84
1907,85
1908,85
1909,85
1910,85
1911,85
1912,85
1913,85
1914,85
1915,85
1916,85
1917,85
1918,85
1919,85
1920,86
1921,86
1922,86
1923,86
1924,87
1925,88
1926,88
1927,88
1928,88
1929,88
1930,88
1931,88
1932,88
1933,88
1934,88
1935,88
1936,88
1937,88
1938,88
1939,88
1940,88
1941,88
1942,88
1943,88
1944,88
1945,88
1946,88
1947,88
1948,88
1949,88
1950,88
1951,88
1952,88
1953,88
1954,88
1955,88
1956,88
1957,88
1958,88
1959,88
1960,88
1961,88
1962,88
1963,88
1964,88
1965,88
1966,88
1967,88
1968,88
1969,88
1970,88
1971,88
1972,88
1973,88
1974,88
1975,88
1976,88
1977,88
1978,89
1979,89
1980,89
1981,89
1982,89
1983,89
1984,89
1985,89
1986,89
1987,89
1988,89
1989,89
1990,89
1991,90
1992,90
1993,90
1994,90
1995,90
1996,90
1997,90
1998,90
1999,90
2000,90
