"tick","total"
0,0
1,0
2,0
3,0
4,0
5,0
6,0
7,0
8,0
9,0
10,0
11,0
12,0
13,0
14,0
15,0
16,0
17,0
18,0
19,0
20,0
21,0
22,0
23,0
24,0
25,0
26,0
27,0
28,0
29,0
30,0
31,0
32,0
33,0
34,0
35,0
36,0
37,0
38,0
39,0
40,0
41,0
42,0
43,0
44,0
45,0
46,0
47,0
48,0
49,0
50,0
51,0
52,0
53,0
54,0
55,0
56,0
57,0
58,0
59,0
60,0
61,0
62,0
63,0
64,0
65,0
66,0
67,0
68,0
69,0
70,0
71,0
72,0
73,0
74,0
75,0
76,0
77,0
78,0
79,0
80,0
81,0
82,0
83,0
84,0
85,0
86,0
87,0
88,0
89,0
90,0
91,0
92,0
93,0
94,0
95,0
96,0
97,0
98,0
99,0
100,0
101,0
102,0
103,0
104,0
105,0
106,0
107,0
108,0
109,0
110,0
111,0
112,0
113,0
114,0
115,0
116,0
117,0
118,0
119,0
120,0
121,0
122,0
123,0
124,0
125,0
126,0
127,0
128,0
129,0
130,0
131,0
132,0
133,0
134,0
135,0
136,0
137,0
138,0
139,0
140,0
141,0
142,0
143,0
144,0
145,0
146,0
147,0
148,0
149,0
150,0
151,0
152,0
153,0
154,0
155,0
156,0
157,0
158,0
159,0
160,0
161,0
162,0
163,0
164,0
165,0
166,0
167,0
168,0
169,0
170,0
171,0
172,0
173,0
174,0
175,0
176,0
177,0
178,0
179,0
180,0
181,0
182,0
183,0
184,0
185,0
186,0
187,0
188,0
189,0
190,0
191,0
192,0
193,0
194,0
195,0
196,0
197,0
198,0
199,0
200,0
201,0
202,0
203,0
204,0
205,0
206,0
207,0
208,0
209,0
210,0
211,0
212,2
213,2
214,2
215,2
216,2
217,2
218,2
219,2
220,2
221,2
222,2
223,2
224,2
225,2
226,2
227,2
228,2
229,2
230,2
231,2
232,2
233,2
234,2
235,2
236,2
237,2
238,2
239,2
240,2
241,2
242,2
243,2
244,2
245,3
246,3
247,3
248,3
249,3
250,3
251,3
252,3
253,3
254,3
255,3
256,3
257,3
258,3
259,3
260,4
261,4
262,5
263,5
264,5
265,5
266,5
267,5
268,5
269,5
270,5
271,5
272,5
273,5
274,5
275,5
276,5
277,5
278,5
279,5
280,5
281,5
282,5
283,5
284,5
285,7
286,7
287,7
288,8
289,9
290,9
291,10
292,10
293,10
294,10
295,10
296,10
297,10
298,10
299,10
300,10
301,10
302,10
303,10
304,10
305,10
306,11
307,11
308,11
309,11
310,11
311,11
312,11
313,11
314,11
315,12
316,12
317,12
318,12
319,12
320,12
321,13
322,13
323,13
324,13
325,13
326,13
327,13
328,13
329,13
330,13
331,13
332,13
333,13
334,13
335,13
336,13
337,13
338,13
339,13
340,13
341,13
342,14
343,14
344,14
345,14
346,14
347,14
348,14
349,14
350,14
351,14
352,14
353,14
354,14
355,14
356,14
357,14
358,14
359,14
360,14
361,14
362,14
363,14
364,14
365,14
366,14
367,14
368,16
369,16
370,16
371,16
372,16
373,16
374,17
375,17
376,18
377,18
378,18
379,18
380,18
381,18
382,18
383,18
384,18
385,18
386,18
387,18
388,18
389,19
390,19
391,19
392,19
393,19
394,19
395,19
396,19
397,19
398,20
399,20
400,20
401,20
402,20
403,20
404,21
405,21
406,21
407,21
408,22
409,22
410,22
411,22
412,22
413,22
414,22
415,22
416,22
417,22
418,22
419,22
420,22
421,22
422,22
423,22
424,22
425,22
426,22
427,22
428,22
429,22
430,22
431,22
432,22
433,22
434,23
435,23
436,23
437,23
438,23
439,23
440,23
441,23
442,24
443,24
444,24
445,24
446,24
447,24
448,24
449,24
450,24
451,24
452,24
453,24
454,24
455,24
456,24
457,24
458,24
459,24
460,24
461,24
462,24
463,24
464,24
465,24
466,25
467,25
468,25
469,25
470,25
471,25
472,25
473,25
474,25
475,25
476,25
477,25
478,25
479,25
480,25
481,25
482,25
483,25
484,25
485,26
486,26
487,26
488,26
489,26
490,27
491,27
492,27
493,27
494,27
495,27
496,27
497,27
498,27
499,27
500,27
501,27
502,27
503,27
504,27
505,27
506,27
507,27
508,27
509,27
510,27
511,27
512,27
513,27
514,27
515,27
516,27
517,28
518,28
519,28
520,28
521,28
522,28
523,28
524,28
525,28
526,28
527,28
528,28
529,28
530,28
531,28
532,28
533,28
534,28
535,28
536,28
537,28
538,28
539,28
540,28
541,28
542,28
543,28
544,28
545,29
546,30
547,30
548,30
549,30
550,30
551,30
552,30
553,30
554,30
555,30
556,30
557,31
558,31
559,31
560,31
561,32
562,32
563,32
564,32
565,32
566,32
567,32
568,32
569,32
570,32
571,32
572,32
573,32
574,32
575,32
576,32
577,32
578,32
579,32
580,32
581,32
582,33
583,33
584,33
585,33
586,33
587,33
588,33
589,33
590,33
591,33
592,33
593,33
594,33
595,33
596,33
597,33
598,33
599,33
600,33
601,33
602,33
603,33
604,33
605,34
606,34
607,34
608,34
609,34
610,34
611,34
612,34
613,34
614,34
615,34
616,34
617,34
618,34
619,34
620,34
621,34
622,34
623,34
624,34
625,34
626,34
627,34
628,34
629,34
630,34
631,34
632,34
633,34
634,34
635,34
636,34
637,34
638,34
639,34
640,34
641,34
642,34
643,34
644,34
645,34
646,34
647,34
648,34
649,34
650,34
651,34
652,34
653,34
654,34
655,34
656,34
657,34
658,34
659,34
660,34
661,34
662,34
663,34
664,34
665,34
666,34
667,34
668,34
669,34
670,34
671,34
672,34
673,34
674,34
675,34
676,34
677,34
678,34
679,34
680,34
681,34
682,34
683,34
684,34
685,34
686,34
687,34
688,34
689,34
690,35
691,35
692,35
693,35
694,35
695,35
696,35
697,35
698,35
699,35
700,35
701,35
702,35
703,35
704,36
705,36
706,36
707,36
708,36
709,36
710,36
711,36
712,37
713,37
714,37
715,37
716,37
717,37
718,37
719,37
720,37
721,37
722,37
723,37
724,37
725,37
726,38
727,38
728,39
729,39
730,39
731,39
732,39
733,39
734,39
735,40
736,41
737,41
738,41
739,41
740,41
741,41
742,41
743,41
744,41
745,41
746,41
747,41
748,41
749,41
750,41
751,41
752,41
753,41
754,41
755,42
756,42
757,42
758,42
759,42
760,42
761,42
762,42
763,42
764,42
765,42
766,42
767,42
768,42
769,42
770,42
771,42
772,42
773,42
774,42
775,42
776,42
777,42
778,42
779,42
780,42
781,43
782,44
783,44
784,44
785,44
786,44
787,44
788,44
789,44
790,44
791,44
792,44
793,44
794,44
795,44
796,44
797,44
798,44
799,45
800,45
801,45
802,45
803,45
804,45
805,45
806,45
807,45
808,47
809,48
810,48
811,49
812,49
813,49
814,49
815,50
816,50
817,50
818,50
819,50
820,50
821,50
822,50
823,50
824,50
825,50
826,50
827,50
828,50
829,50
830,50
831,50
832,50
833,50
834,50
835,50
836,50
837,50
838,50
839,50
840,51
841,51
842,51
843,51
844,51
845,51
846,51
847,51
848,51
849,52
850,52
851,52
852,52
853,52
854,52
855,52
856,52
857,52
858,52
859,52
860,52
861,52
862,52
863,52
864,52
865,52
866,52
867,52
868,52
869,52
870,52
871,52
872,53
873,53
874,53
875,53
876,53
877,53
878,53
879,53
880,53
881,53
882,53
883,53
884,53
885,53
886,54
887,54
888,54
889,54
890,54
891,54
892,54
893,54
894,54
895,54
896,54
897,54
898,54
899,54
900,54
901,54
902,54
903,54
904,54
905,54
906,54
907,54
908,54
909,54
910,54
911,54
912,54
913,54
914,54
915,54
916,54
917,54
918,54
919,54
920,54
921,54
922,54
923,54
924,54
925,54
926,54
927,54
928,54
929,54
930,54
931,54
932,54
933,54
934,54
935,54
936,54
937,54
938,54
939,54
940,54
941,54
942,54
943,54
944,54
945,54
946,54
947,54
948,54
949,54
950,54
951,54
952,54
953,54
954,54
955,55
956,55
957,55
958,55
959,55
960,55
961,55
962,55
963,55
964,55
965,55
966,55
967,55
968,55
969,55
970,55
971,55
972,55
973,55
974,55
975,55
976,55
977,55
978,55
979,55
980,55
981,55
982,55
983,55
984,55
985,55
986,55
987,55
988,55
989,56
990,56
991,56
992,56
993,56
994,56
995,56
996,56
997,56
998,56
999,56
1000,56
1001,56
1002,56
1003,57
1004,57
1005,57
1006,57
1007,57
1008,57
1009,57
1010,57
1011,57
1012,57
1013,57
1014,57
1015,57
1016,57
1017,57
1018,57
1019,57
1020,57
1021,58
1022,58
1023,58
1024,58
1025,58
1026,58
1027,58
1028,58
1029,58
1030,58
1031,58
1032,58
1033,58
1034,58
1035,58
1036,59
1037,59
1038,59
1039,59
1040,59
1041,59
1042,59
1043,59
1044,59
1045,59
1046,59
1047,59
1048,59
1049,59
1050,59
1051,59
1052,59
1053,59
1054,59
1055,59
1056,59
1057,59
1058,60
1059,60
1060,60
1061,60
1062,60
1063,60
1064,60
1065,60
1066,60
1067,60
1068,60
1069,60
1070,60
1071,60
1072,60
1073,60
1074,60
1075,60
1076,60
1077,60
1078,61
1079,61
1080,61
1081,61
1082,61
1083,61
1084,61
1085,61
1086,61
1087,61
1088,61
1089,61
1090,61
1091,61
1092,61
1093,61
1094,61
1095,61
1096,61
1097,61
1098,61
1099,61
1100,61
1101,61
1102,61
1103,61
1104,61
1105,61
1106,61
1107,61
1108,61
1109,61
1110,61
1111,61
1112,61
1113,61
1114,61
1115,61
1116,61
1117,61
1118,61
1119,61
1120,61
1121,61
1122,61
1123,61
1124,61
1125,61
1126,61
1127,61
1128,61
1129,61
1130,61
1131,61
1132,61
1133,61
1134,61
1135,61
1136,61
1137,61
1138,61
1139,61
1140,61
1141,61
1142,61
1143,61
1144,61
1145,61
1146,61
1147,61
1148,62
1149,62
1150,62
1151,62
1152,62
1153,62
1154,62
1155,62
1156,62
1157,63
1158,63
1159,63
1160,63
1161,63
1162,63
1163,63
1164,63
1165,63
1166,63
1167,63
1168,63
1169,63
1170,63
1171,63
1172,63
1173,63
1174,63
1175,63
1176,63
1177,63
1178,63
1179,63
1180,63
1181,63
1182,63
1183,63
1184,63
1185,63
1186,63
1187,63
1188,63
1189,63
1190,63
1191,63
1192,63
1193,63
1194,63
1195,64
1196,64
1197,64
1198,64
1199,64
1200,64
1201,64
1202,64
1203,64
1204,64
1205,64
1206,64
1207,64
1208,64
1209,64
1210,64
1211,64
1212,64
1213,64
1214,64
1215,64
1216,64
1217,64
1218,64
1219,64
1220,64
1221,64
1222,64
1223,64
1224,64
1225,64
1226,64
1227,64
1228,64
1229,64
1230,64
1231,65
1232,65
1233,65
1234,65
1235,65
1236,66
1237,66
1238,66
1239,66
1240,67
1241,68
1242,68
1243,68
1244,68
1245,68
1246,68
1247,68
1248,68
1249,69
1250,69
1251,69
1252,69
1253,69
1254,69
1255,69
1256,69
1257,69
1258,69
1259,69
1260,69
1261,69
1262,69
1263,69
1264,69
1265,69
1266,69
1267,69
1268,69
1269,69
1270,69
1271,69
1272,69
1273,69
1274,69
1275,69
1276,69
1277,69
1278,69
1279,69
1280,69
1281,69
1282,69
1283,69
1284,69
1285,69
1286,69
1287,69
1288,69
1289,69
1290,69
1291,69
1292,69
1293,69
1294,69
1295,69
1296,69
1297,70
1298,70
1299,70
1300,70
1301,70
1302,70
1303,70
1304,70
1305,70
1306,71
1307,71
1308,71
1309,71
1310,71
1311,71
1312,72
1313,72
1314,72
1315,72
1316,72
1317,72
1318,72
1319,73
1320,73
1321,73
1322,73
1323,73
1324,73
1325,73
1326,73
1327,73
1328,73
1329,73
1330,73
1331,73
1332,73
1333,73
1334,73
1335,73
1336,73
1337,73
1338,74
1339,74
1340,74
1341,74
1342,74
1343,74
1344,74
1345,74
1346,74
1347,74
1348,74
1349,74
1350,74
1351,74
1352,74
1353,74
1354,74
1355,74
1356,74
1357,74
1358,74
1359,74
1360,74
1361,75
1362,76
1363,76
1364,76
1365,76
1366,76
1367,76
1368,76
1369,76
1370,76
1371,76
1372,76
1373,76
1374,76
1375,76
1376,76
1377,76
1378,76
1379,76
1380,76
1381,76
1382,76
1383,76
1384,76
1385,76
1386,76
1387,76
1388,76
1389,76
1390,76
1391,76
1392,76
1393,76
1394,77
1395,77
1396,77
1397,77
1398,77
1399,77
1400,77
1401,77
1402,77
1403,77
1404,77
1405,78
1406,78
1407,78
1408,78
1409,78
1410,78
1411,78
1412,78
1413,78
1414,78
1415,79
1416,79
1417,79
1418,79
1419,79
1420,79
1421,79
1422,80
1423,80
1424,80
1425,80
1426,80
1427,80
1428,80
1429,80
1430,81
1431,82
1432,82
1433,82
1434,82
1435,82
1436,82
1437,82
1438,82
1439,82
1440,82
1441,82
1442,82
1443,82
1444,82
1445,82
1446,82
1447,82
1448,82
1449,82
1450,82
1451,82
1452,82
1453,83
1454,83
1455,83
1456,83
1457,83
1458,83
1459,83
1460,83
1461,83
1462,83
1463,83
1464,83
1465,83
1466,83
1467,83
1468,83
1469,83
1470,83
1471,83
1472,83
1473,83
1474,83
1475,83
1476,83
1477,83
1478,83
1479,83
1480,83
1481,83
1482,83
1483,83
1484,83
1485,83
1486,83
1487,84
1488,84
1489,84
1490,84
1491,84
1492,84
1493,84
1494,84
1495,84
1496,84
1497,84
1498,84
1499,84
1500,84
1501,84
1502,84
1503,84
1504,84
1505,84
1506,84
1507,84
1508,84
1509,84
1510,84
1511,84
1512,84
1513,84
1514,85
1515,85
1516,85
1517,85
1518,85
1519,85
1520,85
1521,85
1522,85
1523,85
1524,85
1525,85
1526,85
1527,85
1528,85
1529,85
1530,85
1531,85
1532,85
1533,85
1534,85
1535,85
1536,85
1537,85
1538,85
1539,85
1540,85
1541,85
1542,85
1543,85
1544,85
1545,85
1546,85
1547,85
1548,85
1549,85
1550,85
1551,85
1552,85
1553,85
1554,85
1555,85
1556,85
1557,85
1558,85
1559,85
1560,85
1561,85
1562,85
1563,85
1564,85
1565,85
1566,86
1567,87
1568,87
1569,87
1570,87
1571,87
1572,87
1573,87
1574,87
1575,87
1576,87
1577,88
1578,88
1579,88
1580,88
1581,89
1582,89
1583,89
1584,89
1585,89
1586,89
1587,89
1588,89
1589,89
1590,89
1591,89
1592,89
1593,90
1594,90
1595,90
1596,90
1597,90
1598,90
1599,90
1600,91
1601,91
1602,91
1603,91
1604,91
1605,91
1606,91
1607,91
1608,91
1609,91
1610,91
1611,91
1612,91
1613,91
1614,92
1615,92
1616,92
1617,92
1618,93
1619,93
1620,93
1621,93
1622,93
1623,93
1624,93
1625,93
1626,93
1627,93
1628,93
1629,93
1630,93
1631,93
1632,93
1633,93
1634,93
1635,93
1636,93
1637,93
1638,93
1639,94
1640,94
1641,94
1642,94
1643,94
1644,94
1645,94
1646,94
1647,94
1648,95
1649,95
1650,95
1651,96
1652,96
1653,96
1654,96
1655,96
1656,96
1657,96
1658,96
1659,96
1660,96
1661,96
1662,96
1663,96
1664,96
1665,96
1666,96
1667,96
1668,96
1669,96
1670,97
1671,97
1672,97
1673,97
1674,97
1675,97
1676,97
1677,97
1678,97
1679,97
1680,97
1681,97
1682,97
1683,97
1684,97
1685,97
1686,97
1687,97
1688,97
1689,97
1690,97
1691,97
1692,97
1693,97
1694,97
1695,97
1696,97
1697,97
1698,97
1699,97
1700,97
1701,97
1702,97
1703,97
1704,97
1705,97
1706,98
1707,98
1708,98
1709,98
1710,98
1711,98
1712,98
1713,98
1714,98
1715,98
1716,98
1717,98
1718,99
1719,99
1720,99
1721,99
1722,99
1723,99
1724,99
1725,99
1726,99
1727,99
1728,99
1729,99
1730,99
1731,99
1732,99
1733,99
1734,99
1735,99
1736,99
1737,99
1738,99
1739,99
1740,99
1741,99
1742,99
1743,100
1744,100
1745,100
1746,100
1747,100
1748,100
1749,100
1750,100
1751,100
1752,100
1753,100
1754,100
1755,100
1756,100
1757,100
1758,100
1759,100
1760,100
1761,100
1762,100
1763,100
1764,100
1765,100
1766,100
1767,100
1768,100
1769,100
1770,100
1771,100
1772,100
1773,100
1774,100
1775,100
1776,100
1777,100
1778,100
1779,100
1780,100
1781,100
1782,100
1783,101
1784,101
1785,101
1786,101
1787,101
1788,101
1789,101
1790,101
1791,101
1792,101
1793,102
1794,102
1795,102
1796,102
1797,102
1798,103
1799,103
1800,103
1801,103
1802,103
1803,103
1804,103
1805,103
1806,103
1807,103
1808,103
1809,104
1810,104
1811,104
1812,104
1813,104
1814,104
1815,104
1816,104
1817,104
1818,104
1819,104
1820,104
1821,104
1822,105
1823,106
1824,106
1825,106
1826,106
1827,106
1828,106
1829,107
1830,107
1831,107
1832,107
1833,107
1834,107
1835,107
1836,107
1837,107
1838,107
1839,107
1840,107
1841,107
1842,107
1843,107
1844,107
1845,107
1846,107
1847,107
1848,107
1849,107
1850,107
1851,107
1852,107
1853,107
1854,107
1855,107
1856,107
1857,107
1858,107
1859,108
1860,108
1861,108
1862,108
1863,108
1864,108
1865,108
1866,108
1867,108
1868,108
1869,108
1870,108
1871,108
1872,108
1873,108
1874,108
1875,108
1876,108
1877,108
1878,109
1879,110
1880,110
1881,110
1882,110
1883,110
1884,110
1885,110
1886,110
1887,110
1888,110
1889,110
1890,110
1891,110
1892,110
1893,110
1894,110
1895,110
1896,110
1897,110
1898,110
1899,110
1900,110
1901,110
1902,110
1903,110
1904,110
1905,110
1906,110
1907,110
1908,110
1909,110
1910,111
1911,111
1912,111
1913,111
1914,111
1915,111
1916,111
1917,111
1918,111
1919,111
1920,111
1921,111
1922,111
1923,111
1924,111
1925,112
1926,112
1927,112
1928,112
1929,112
1930,112
1931,112
1932,112
1933,112
1934,112
1935,112
1936,112
1937,112
1938,112
1939,112
1940,112
1941,112
1942,112
1943,112
1944,112
1945,112
1946,112
1947,112
1948,112
1949,112
1950,112
1951,112
1952,112
1953,112
1954,112
1955,112
1956,112
1957,112
1958,112
1959,112
1960,112
1961,112
1962,112
1963,112
1964,112
1965,113
1966,113
1967,113
1968,113
1969,113
1970,113
1971,113
1972,113
1973,113
1974,113
1975,113
1976,113
1977,113
1978,113
1979,113
1980,113
1981,113
1982,113
1983,113
1984,113
1985,113
1986,113
1987,114
1988,114
1989,114
1990,114
1991,114
1992,114
1993,114
1994,114
1995,114
1996,114
1997,114
1998,115
1999,115
2000,115
