"tick","susceptible","exposed","infectious","recovered"
0,99,1,0,0
1,99,1,0,0
2,99,1,0,0
3,99,1,0,0
4,99,1,0,0
5,99,1,0,0
6,99,1,0,0
7,99,1,0,0
8,99,1,0,0
9,99,1,0,0
10,99,1,0,0
11,99,1,0,0
12,99,1,0,0
13,99,1,0,0
14,99,1,0,0
15,99,1,0,0
16,99,1,0,0
17,99,1,0,0
18,99,1,0,0
19,99,1,0,0
20,99,1,0,0
21,99,1,0,0
22,99,1,0,0
23,99,1,0,0
24,99,1,0,0
25,99,1,0,0
26,99,1,0,0
27,99,1,0,0
28,99,1,0,0
29,99,1,0,0
30,99,1,0,0
31,99,1,0,0
32,99,1,0,0
33,99,1,0,0
34,99,1,0,0
35,99,1,0,0
36,99,1,0,0
37,99,1,0,0
38,99,1,0,0
39,99,1,0,0
40,99,1,0,0
41,99,1,0,0
42,99,1,0,0
43,99,1,0,0
44,99,1,0,0
45,99,1,0,0
46,99,1,0,0
47,99,1,0,0
48,99,1,0,0
49,99,1,0,0
50,99,1,0,0
51,99,1,0,0
52,99,1,0,0
53,99,1,0,0
54,99,1,0,0
55,99,1,0,0
56,99,1,0,0
57,99,1,0,0
58,99,1,0,0
59,99,1,0,0
60,99,1,0,0
61,99,1,0,0
62,99,1,0,0
63,99,1,0,0
64,99,1,0,0
65,99,1,0,0
66,99,1,0,0
67,99,1,0,0
68,99,1,0,0
69,99,1,0,0
70,99,1,0,0
71,99,1,0,0
72,99,1,0,0
73,99,1,0,0
74,99,1,0,0
75,99,1,0,0
76,99,1,0,0
77,99,1,0,0
78,99,1,0,0
79,99,1,0,0
80,99,1,0,0
81,99,1,0,0
82,99,1,0,0
83,99,1,0,0
84,99,1,0,0
85,99,1,0,0
86,99,1,0,0
87,99,1,0,0
88,99,1,0,0
89,99,1,0,0
90,99,1,0,0
91,99,1,0,0
92,99,1,0,0
93,99,1,0,0
94,99,1,0,0
95,99,1,0,0
96,99,1,0,0
97,99,1,0,0
98,99,1,0,0
99,99,1,0,0
100,99,1,0,0
101,99,1,0,0
102,99,1,0,0
103,99,1,0,0
104,99,1,0,0
105,99,1,0,0
106,99,1,0,0
107,99,1,0,0
108,99,1,0,0
109,99,1,0,0
110,99,1,0,0
111,99,1,0,0
112,99,1,0,0
113,99,1,0,0
114,99,1,0,0
115,99,1,0,0
116,99,1,0,0
117,99,1,0,0
118,99,1,0,0
119,99,1,0,0
120,99,1,0,0
121,99,1,0,0
122,99,1,0,0
123,99,1,0,0
124,99,1,0,0
125,99,1,0,0
126,99,1,0,0
127,99,1,0,0
128,99,1,0,0
129,99,1,0,0
130,99,1,0,0
131,99,1,0,0
132,99,1,0,0
133,99,1,0,0
134,99,1,0,0
135,99,1,0,0
136,99,1,0,0
137,99,1,0,0
138,99,1,0,0
139,99,1,0,0
140,99,1,0,0
141,99,1,0,0
142,99,1,0,0
143,99,1,0,0
144,99,1,0,0
145,99,1,0,0
146,99,1,0,0
147,99,1,0,0
148,99,1,0,0
149,99,1,0,0
150,99,1,0,0
151,99,1,0,0
152,99,1,0,0
153,99,1,0,0
154,99,1,0,0
155,99,1,0,0
156,99,1,0,0
157,99,1,0,0
158,99,1,0,0
159,99,1,0,0
160,99,1,0,0
161,99,1,0,0
162,99,1,0,0
163,99,1,0,0
164,99,1,0,0
165,99,1,0,0
166,99,1,0,0
167,99,1,0,0
168,99,1,0,0
169,99,1,0,0
170,99,1,0,0
171,99,1,0,0
172,99,1,0,0
173,99,1,0,0
174,99,1,0,0
175,99,1,0,0
176,99,1,0,0
177,99,1,0,0
178,99,1,0,0
179,99,1,0,0
180,99,1,0,0
181,99,1,0,0
182,99,1,0,0
183,99,1,0,0
184,99,1,0,0
185,99,1,0,0
186,99,1,0,0
187,99,1,0,0
188,99,1,0,0
189,99,1,0,0
190,99,1,0,0
191,99,1,0,0
192,99,1,0,0
193,99,1,0,0
194,99,1,0,0
195,99,1,0,0
196,99,1,0,0
197,99,1,0,0
198,99,1,0,0
199,99,1,0,0
200,99,1,0,0
201,99,0,1,0
202,99,0,1,0
203,99,0,1,0
204,99,0,1,0
205,99,0,1,0
206,99,0,1,0
207,99,0,1,0
208,99,0,1,0
209,99,0,1,0
210,99,0,1,0
211,99,0,1,0
212,99,0,1,0
213,99,0,1,0
214,99,0,1,0
215,99,0,1,0
216,99,0,1,0
217,99,0,1,0
218,99,0,1,0
219,99,0,1,0
220,99,0,1,0
221,99,0,1,0
222,99,0,1,0
223,99,0,1,0
224,99,0,1,0
225,99,0,1,0
226,99,0,1,0
227,99,0,1,0
228,99,0,1,0
229,99,0,1,0
230,99,0,1,0
231,99,0,1,0
232,99,0,1,0
233,99,0,1,0
234,99,0,1,0
235,99,0,1,0
236,99,0,1,0
237,99,0,1,0
238,99,0,1,0
239,99,0,1,0
240,99,0,1,0
241,99,0,1,0
242,99,0,1,0
243,99,0,1,0
244,99,0,1,0
245,99,0,1,0
246,99,0,1,0
247,99,0,1,0
248,99,0,1,0
249,99,0,1,0
250,99,0,1,0
251,99,0,1,0
252,99,0,1,0
253,99,0,1,0
254,99,0,1,0
255,99,0,1,0
256,99,0,1,0
257,99,0,1,0
258,99,0,1,0
259,99,0,1,0
260,99,0,1,0
261,99,0,1,0
262,99,0,1,0
263,99,0,1,0
264,99,0,1,0
265,99,0,1,0
266,99,0,1,0
267,99,0,1,0
268,99,0,1,0
269,99,0,1,0
270,99,0,1,0
271,98,1,1,0
272,98,1,1,0
273,98,1,1,0
274,98,1,1,0
275,98,1,1,0
276,98,1,1,0
277,98,1,1,0
278,98,1,1,0
279,98,1,1,0
280,98,1,1,0
281,98,1,1,0
282,98,1,1,0
283,98,1,1,0
284,98,1,1,0
285,98,1,1,0
286,98,1,1,0
287,98,1,1,0
288,98,1,1,0
289,98,1,1,0
290,98,1,1,0
291,98,1,1,0
292,98,1,1,0
293,98,1,1,0
294,98,1,1,0
295,98,1,1,0
296,98,1,1,0
297,98,1,1,0
298,98,1,1,0
299,98,1,1,0
300,98,1,1,0
301,98,1,1,0
302,98,1,1,0
303,98,1,1,0
304,98,1,1,0
305,98,1,1,0
306,98,1,1,0
307,98,1,1,0
308,98,1,1,0
309,98,1,1,0
310,98,1,1,0
311,98,1,1,0
312,98,1,1,0
313,98,1,1,0
314,98,1,1,0
315,98,1,1,0
316,98,1,1,0
317,98,1,1,0
318,98,1,1,0
319,98,1,1,0
320,98,1,1,0
321,98,1,1,0
322,98,1,1,0
323,98,1,1,0
324,98,1,1,0
325,98,1,1,0
326,98,1,1,0
327,98,1,1,0
328,98,1,1,0
329,97,2,1,0
330,97,2,1,0
331,97,2,1,0
332,97,2,1,0
333,97,2,1,0
334,97,2,1,0
335,97,2,1,0
336,97,2,1,0
337,97,2,1,0
338,97,2,1,0
339,97,2,1,0
340,97,2,1,0
341,97,2,1,0
342,97,2,1,0
343,97,2,1,0
344,97,2,1,0
345,97,2,1,0
346,97,2,1,0
347,97,2,1,0
348,97,2,1,0
349,97,2,1,0
350,97,2,1,0
351,97,2,1,0
352,97,2,1,0
353,97,2,1,0
354,97,2,1,0
355,97,2,1,0
356,97,2,1,0
357,97,2,1,0
358,97,2,1,0
359,97,2,1,0
360,97,2,1,0
361,97,2,1,0
362,97,2,1,0
363,97,2,1,0
364,97,2,1,0
365,97,2,1,0
366,97,2,1,0
367,97,2,1,0
368,97,2,1,0
369,97,2,1,0
370,97,2,1,0
371,97,2,1,0
372,97,2,1,0
373,97,2,1,0
374,97,2,1,0
375,97,2,1,0
376,97,2,1,0
377,97,2,1,0
378,97,2,1,0
379,97,2,1,0
380,97,2,1,0
381,97,2,1,0
382,97,2,1,0
383,97,2,1,0
384,97,2,1,0
385,97,2,1,0
386,97,2,1,0
387,97,2,1,0
388,97,2,1,0
389,97,2,1,0
390,97,2,1,0
391,97,2,1,0
392,97,2,1,0
393,97,2,1,0
394,97,2,1,0
395,97,2,1,0
396,97,2,1,0
397,97,2,1,0
398,97,2,1,0
399,97,2,1,0
400,97,2,1,0
401,97,2,1,0
402,97,2,0,1
403,97,2,0,1
404,97,2,0,1
405,97,2,0,1
406,97,2,0,1
407,97,2,0,1
408,97,2,0,1
409,97,2,0,1
410,97,2,0,1
411,97,2,0,1
412,97,2,0,1
413,97,2,0,1
414,97,2,0,1
415,97,2,0,1
416,97,2,0,1
417,97,2,0,1
418,97,2,0,1
419,97,2,0,1
420,97,2,0,1
421,97,2,0,1
422,97,2,0,1
423,97,2,0,1
424,97,2,0,1
425,97,2,0,1
426,97,2,0,1
427,97,2,0,1
428,97,2,0,1
429,97,2,0,1
430,97,2,0,1
431,97,2,0,1
432,97,2,0,1
433,97,2,0,1
434,97,2,0,1
435,97,2,0,1
436,97,2,0,1
437,97,2,0,1
438,97,2,0,1
439,97,2,0,1
440,97,2,0,1
441,97,2,0,1
442,97,2,0,1
443,97,2,0,1
444,97,2,0,1
445,97,2,0,1
446,97,2,0,1
447,97,2,0,1
448,97,2,0,1
449,97,2,0,1
450,97,2,0,1
451,97,2,0,1
452,97,2,0,1
453,97,2,0,1
454,97,2,0,1
455,97,2,0,1
456,97,2,0,1
457,97,2,0,1
458,97,2,0,1
459,97,2,0,1
460,97,2,0,1
461,97,2,0,1
462,97,2,0,1
463,97,2,0,1
464,97,2,0,1
465,97,2,0,1
466,97,2,0,1
467,97,2,0,1
468,97,2,0,1
469,97,2,0,1
470,97,2,0,1
471,97,2,0,1
472,96,2,1,1
473,93,5,1,1
474,92,6,1,1
475,92,6,1,1
476,91,7,1,1
477,90,8,1,1
478,89,9,1,1
479,89,9,1,1
480,89,9,1,1
481,89,9,1,1
482,89,9,1,1
483,89,9,1,1
484,89,9,1,1
485,89,9,1,1
486,89,9,1,1
487,89,9,1,1
488,89,9,1,1
489,89,9,1,1
490,88,10,1,1
491,88,10,1,1
492,88,10,1,1
493,88,10,1,1
494,88,10,1,1
495,88,10,1,1
496,88,10,1,1
497,88,10,1,1
498,88,10,1,1
499,88,10,1,1
500,88,10,1,1
501,87,11,1,1
502,87,11,1,1
503,87,11,1,1
504,87,11,1,1
505,87,11,1,1
506,87,11,1,1
507,87,11,1,1
508,87,11,1,1
509,87,11,1,1
510,87,11,1,1
511,86,12,1,1
512,86,12,1,1
513,86,12,1,1
514,86,12,1,1
515,86,12,1,1
516,86,12,1,1
517,86,12,1,1
518,86,12,1,1
519,86,12,1,1
520,86,12,1,1
521,86,12,1,1
522,86,12,1,1
523,86,12,1,1
524,86,12,1,1
525,86,12,1,1
526,86,12,1,1
527,86,12,1,1
528,86,12,1,1
529,86,12,1,1
530,86,11,2,1
531,86,11,2,1
532,86,11,2,1
533,86,11,2,1
534,86,11,2,1
535,86,11,2,1
536,86,11,2,1
537,86,11,2,1
538,86,11,2,1
539,86,11,2,1
540,86,11,2,1
541,86,11,2,1
542,86,11,2,1
543,86,11,2,1
544,86,11,2,1
545,86,11,2,1
546,86,11,2,1
547,86,11,2,1
548,86,11,2,1
549,86,11,2,1
550,86,11,2,1
551,86,11,2,1
552,86,11,2,1
553,86,11,2,1
554,86,11,2,1
555,86,11,2,1
556,86,11,2,1
557,86,11,2,1
558,86,11,2,1
559,86,11,2,1
560,86,11,2,1
561,86,11,2,1
562,86,11,2,1
563,86,11,2,1
564,86,11,2,1
565,86,11,2,1
566,86,11,2,1
567,86,11,2,1
568,86,11,2,1
569,86,11,2,1
570,86,11,2,1
571,86,11,2,1
572,86,11,2,1
573,86,11,2,1
574,86,11,2,1
575,86,11,2,1
576,86,11,2,1
577,86,11,2,1
578,86,11,2,1
579,86,11,2,1
580,86,11,2,1
581,86,11,2,1
582,86,11,2,1
583,86,11,2,1
584,86,11,2,1
585,86,11,2,1
586,86,11,2,1
587,86,11,2,1
588,86,11,2,1
589,86,11,2,1
590,86,11,2,1
591,86,11,2,1
592,86,11,2,1
593,86,11,2,1
594,86,11,2,1
595,86,11,2,1
596,86,11,2,1
597,86,11,2,1
598,86,11,2,1
599,86,11,2,1
600,86,11,2,1
601,86,11,2,1
602,86,11,2,1
603,86,11,2,1
604,86,11,2,1
605,86,11,2,1
606,86,11,2,1
607,86,11,2,1
608,86,11,2,1
609,86,11,2,1
610,86,11,2,1
611,86,11,2,1
612,86,11,2,1
613,86,11,2,1
614,86,11,2,1
615,86,11,2,1
616,86,11,2,1
617,86,11,2,1
618,86,11,2,1
619,86,11,2,1
620,86,11,2,1
621,86,11,2,1
622,86,11,2,1
623,86,11,2,1
624,86,11,2,1
625,86,11,2,1
626,86,11,2,1
627,86,11,2,1
628,86,11,2,1
629,86,11,2,1
630,86,11,2,1
631,86,11,2,1
632,86,11,2,1
633,86,11,2,1
634,86,11,2,1
635,86,11,2,1
636,86,11,2,1
637,86,11,2,1
638,86,11,2,1
639,86,11,2,1
640,86,11,2,1
641,86,11,2,1
642,86,11,2,1
643,86,11,2,1
644,86,11,2,1
645,86,11,2,1
646,86,11,2,1
647,86,11,2,1
648,86,11,2,1
649,86,11,2,1
650,86,11,2,1
651,86,11,2,1
652,86,11,2,1
653,86,11,2,1
654,86,11,2,1
655,86,11,2,1
656,86,11,2,1
657,86,11,2,1
658,86,11,2,1
659,86,11,2,1
660,86,11,2,1
661,86,11,2,1
662,86,11,2,1
663,86,11,2,1
664,86,11,2,1
665,86,11,2,1
666,86,11,2,1
667,86,11,2,1
668,86,11,2,1
669,86,11,2,1
670,86,11,2,1
671,86,11,2,1
672,86,11,2,1
673,86,10,2,2
674,85,8,5,2
675,84,8,6,2
676,83,9,6,2
677,80,11,7,2
678,79,11,8,2
679,79,10,9,2
680,79,10,9,2
681,78,11,9,2
682,77,12,9,2
683,75,14,9,2
684,75,14,9,2
685,75,14,9,2
686,74,15,9,2
687,73,16,9,2
688,73,16,9,2
689,73,16,9,2
690,72,17,9,2
691,72,16,10,2
692,72,16,10,2
693,71,17,10,2
694,71,17,10,2
695,71,17,10,2
696,71,17,10,2
697,71,17,10,2
698,71,17,10,2
699,71,17,10,2
700,71,17,10,2
701,70,18,10,2
702,70,17,11,2
703,70,17,11,2
704,70,17,11,2
705,70,17,11,2
706,70,17,11,2
707,70,17,11,2
708,70,17,11,2
709,70,17,11,2
710,70,17,11,2
711,70,17,11,2
712,70,16,12,2
713,70,16,12,2
714,70,16,12,2
715,70,16,12,2
716,70,16,12,2
717,70,16,12,2
718,70,16,12,2
719,70,16,12,2
720,70,16,12,2
721,70,16,12,2
722,69,17,12,2
723,69,17,12,2
724,69,17,12,2
725,69,17,12,2
726,69,17,12,2
727,69,17,12,2
728,68,18,12,2
729,68,18,12,2
730,68,18,12,2
731,68,18,11,3
732,68,18,11,3
733,68,18,11,3
734,68,18,11,3
735,67,19,11,3
736,67,19,11,3
737,67,19,11,3
738,66,20,11,3
739,66,20,11,3
740,66,20,11,3
741,66,20,11,3
742,66,20,11,3
743,65,21,11,3
744,65,21,11,3
745,65,21,11,3
746,65,21,11,3
747,64,22,11,3
748,64,22,11,3
749,64,22,11,3
750,64,22,11,3
751,64,22,11,3
752,64,22,11,3
753,64,22,11,3
754,64,22,11,3
755,64,22,11,3
756,64,22,11,3
757,64,22,11,3
758,64,22,11,3
759,64,22,11,3
760,64,22,11,3
761,64,22,11,3
762,64,22,11,3
763,64,22,11,3
764,64,22,11,3
765,64,22,11,3
766,63,23,11,3
767,62,24,11,3
768,62,24,11,3
769,62,24,11,3
770,62,24,11,3
771,62,24,11,3
772,62,24,11,3
773,61,25,11,3
774,61,25,11,3
775,61,25,11,3
776,61,25,11,3
777,61,25,11,3
778,61,25,11,3
779,61,25,11,3
780,60,26,11,3
781,60,26,11,3
782,60,26,11,3
783,60,26,11,3
784,60,26,11,3
785,60,26,11,3
786,60,26,11,3
787,60,26,11,3
788,60,26,11,3
789,60,26,11,3
790,60,26,11,3
791,60,26,11,3
792,60,26,11,3
793,60,26,11,3
794,59,27,11,3
795,59,27,11,3
796,59,27,11,3
797,59,27,11,3
798,59,27,11,3
799,59,27,11,3
800,59,27,11,3
801,59,27,11,3
802,59,27,11,3
803,59,27,11,3
804,59,27,11,3
805,59,27,11,3
806,59,27,11,3
807,59,27,11,3
808,59,27,11,3
809,59,27,11,3
810,59,27,11,3
811,59,27,11,3
812,59,27,11,3
813,59,27,11,3
814,59,27,11,3
815,59,27,11,3
816,59,27,11,3
817,59,27,11,3
818,59,27,11,3
819,59,27,11,3
820,59,27,11,3
821,59,27,11,3
822,59,27,11,3
823,59,27,11,3
824,59,27,11,3
825,59,27,11,3
826,59,27,11,3
827,59,27,11,3
828,59,27,11,3
829,59,27,11,3
830,59,27,11,3
831,59,27,11,3
832,59,27,11,3
833,59,27,11,3
834,58,28,11,3
835,58,28,11,3
836,58,28,11,3
837,58,28,11,3
838,58,28,11,3
839,58,28,11,3
840,58,28,11,3
841,57,29,11,3
842,56,30,11,3
843,56,30,11,3
844,56,30,11,3
845,56,30,11,3
846,56,30,11,3
847,56,30,11,3
848,56,30,11,3
849,56,30,11,3
850,56,30,11,3
851,56,30,11,3
852,56,30,11,3
853,56,30,11,3
854,56,30,11,3
855,56,30,11,3
856,56,30,11,3
857,56,30,11,3
858,56,30,11,3
859,56,30,11,3
860,56,30,11,3
861,56,30,11,3
862,55,31,11,3
863,55,31,11,3
864,55,31,11,3
865,55,31,11,3
866,55,31,11,3
867,55,31,11,3
868,55,31,11,3
869,55,31,11,3
870,55,31,11,3
871,55,31,11,3
872,55,31,11,3
873,55,31,11,3
874,55,31,10,4
875,55,30,8,7
876,55,29,8,8
877,55,28,9,8
878,55,25,11,9
879,54,25,11,10
880,54,25,10,11
881,53,26,10,11
882,53,25,11,11
883,53,24,12,11
884,53,22,14,11
885,53,22,14,11
886,53,22,14,11
887,53,21,15,11
888,53,20,16,11
889,52,21,16,11
890,52,21,16,11
891,52,20,17,11
892,52,20,16,12
893,51,21,16,12
894,51,20,17,12
895,50,21,17,12
896,50,21,17,12
897,50,21,17,12
898,50,21,17,12
899,50,21,17,12
900,49,22,17,12
901,48,23,17,12
902,47,23,18,12
903,47,23,17,13
904,47,23,17,13
905,46,24,17,13
906,46,24,17,13
907,46,24,17,13
908,45,25,17,13
909,45,25,17,13
910,44,26,17,13
911,44,26,17,13
912,44,26,17,13
913,44,26,16,14
914,43,27,16,14
915,43,27,16,14
916,43,27,16,14
917,43,27,16,14
918,42,28,16,14
919,42,28,16,14
920,42,28,16,14
921,42,28,16,14
922,41,29,16,14
923,41,28,17,14
924,41,28,17,14
925,40,29,17,14
926,40,29,17,14
927,40,29,17,14
928,39,30,17,14
929,39,29,18,14
930,38,30,18,14
931,38,30,18,14
932,38,30,18,14
933,38,30,18,14
934,38,30,18,14
935,38,30,18,14
936,37,30,19,14
937,37,30,19,14
938,37,30,19,14
939,37,29,20,14
940,37,29,20,14
941,36,30,20,14
942,36,30,20,14
943,36,30,20,14
944,36,29,21,14
945,36,29,21,14
946,36,29,21,14
947,34,31,21,14
948,34,30,22,14
949,34,30,22,14
950,34,30,22,14
951,34,30,22,14
952,34,30,22,14
953,34,30,22,14
954,33,31,22,14
955,33,31,22,14
956,33,31,22,14
957,33,31,22,14
958,33,31,22,14
959,33,31,22,14
960,32,32,22,14
961,32,32,22,14
962,32,32,22,14
963,32,32,22,14
964,32,32,22,14
965,32,32,22,14
966,32,32,22,14
967,32,31,23,14
968,32,30,24,14
969,32,30,24,14
970,32,30,24,14
971,32,30,24,14
972,32,30,24,14
973,32,30,24,14
974,31,30,25,14
975,31,30,25,14
976,31,30,25,14
977,31,30,25,14
978,31,30,25,14
979,31,30,25,14
980,31,30,25,14
981,31,29,26,14
982,31,29,26,14
983,31,29,26,14
984,31,29,26,14
985,31,29,26,14
986,31,29,26,14
987,31,29,26,14
988,31,29,26,14
989,31,29,26,14
990,30,30,26,14
991,30,30,26,14
992,30,30,26,14
993,30,30,26,14
994,30,30,26,14
995,30,29,27,14
996,30,29,27,14
997,30,29,27,14
998,30,29,27,14
999,29,30,27,14
1000,28,31,27,14
1001,28,31,27,14
1002,28,31,27,14
1003,28,31,27,14
1004,28,31,27,14
1005,28,31,27,14
1006,28,31,27,14
1007,28,31,27,14
1008,27,32,27,14
1009,27,32,27,14
1010,27,32,27,14
1011,26,33,27,14
1012,26,33,27,14
1013,26,33,27,14
1014,26,33,27,14
1015,26,33,27,14
1016,26,33,27,14
1017,25,34,27,14
1018,25,34,27,14
1019,25,34,27,14
1020,25,34,27,14
1021,25,34,27,14
1022,25,34,27,14
1023,25,34,27,14
1024,25,34,27,14
1025,25,34,27,14
1026,25,34,27,14
1027,25,34,27,14
1028,25,34,27,14
1029,25,34,27,14
1030,25,34,27,14
1031,25,34,27,14
1032,25,34,27,14
1033,25,34,27,14
1034,25,34,27,14
1035,25,33,28,14
1036,25,33,28,14
1037,25,33,28,14
1038,25,33,28,14
1039,25,33,28,14
1040,25,33,28,14
1041,24,34,28,14
1042,24,33,29,14
1043,23,33,30,14
1044,23,33,30,14
1045,23,33,30,14
1046,23,33,30,14
1047,23,33,30,14
1048,23,33,30,14
1049,23,33,30,14
1050,23,33,30,14
1051,23,33,30,14
1052,23,33,30,14
1053,23,33,30,14
1054,23,33,30,14
1055,23,33,30,14
1056,22,34,30,14
1057,22,34,30,14
1058,22,34,30,14
1059,22,34,30,14
1060,22,34,30,14
1061,22,34,30,14
1062,22,34,30,14
1063,22,33,31,14
1064,22,33,31,14
1065,22,33,31,14
1066,22,33,31,14
1067,22,33,31,14
1068,22,33,31,14
1069,22,33,31,14
1070,22,33,31,14
1071,22,33,31,14
1072,22,33,31,14
1073,22,33,31,14
1074,22,33,31,14
1075,22,33,31,14
1076,22,33,30,15
1077,21,34,29,16
1078,21,34,28,17
1079,21,34,25,20
1080,21,33,25,21
1081,21,33,25,21
1082,21,32,26,21
1083,21,32,25,22
1084,21,32,24,23
1085,21,32,22,25
1086,21,32,22,25
1087,21,32,22,25
1088,21,32,21,26
1089,21,32,20,27
1090,21,31,21,27
1091,21,31,21,27
1092,20,32,20,28
1093,20,32,20,28
1094,20,31,21,28
1095,20,31,20,29
1096,20,30,21,29
1097,20,30,21,29
1098,20,30,21,29
1099,20,30,21,29
1100,20,30,21,29
1101,20,29,22,29
1102,20,28,23,29
1103,20,27,23,30
1104,20,27,23,30
1105,20,27,23,30
1106,20,26,24,30
1107,20,26,24,30
1108,20,26,24,30
1109,20,25,25,30
1110,20,25,25,30
1111,20,24,26,30
1112,20,24,26,30
1113,20,24,26,30
1114,20,24,26,30
1115,20,23,27,30
1116,20,23,27,30
1117,20,23,27,30
1118,20,23,27,30
1119,20,22,28,30
1120,20,22,28,30
1121,20,22,28,30
1122,20,22,28,30
1123,20,21,29,30
1124,20,21,28,31
1125,20,21,28,31
1126,20,20,29,31
1127,19,21,29,31
1128,19,21,29,31
1129,19,20,30,31
1130,19,20,29,32
1131,19,19,30,32
1132,19,19,30,32
1133,19,19,30,32
1134,19,19,30,32
1135,19,19,30,32
1136,19,19,30,32
1137,19,18,30,33
1138,18,19,30,33
1139,18,19,30,33
1140,18,19,29,34
1141,18,19,29,34
1142,18,18,30,34
1143,18,18,30,34
1144,18,18,30,34
1145,18,18,29,35
1146,18,18,29,35
1147,18,18,29,35
1148,18,16,31,35
1149,18,16,30,36
1150,18,16,30,36
1151,18,16,30,36
1152,18,16,30,36
1153,18,16,30,36
1154,18,16,30,36
1155,18,15,31,36
1156,18,15,31,36
1157,18,15,31,36
1158,18,15,31,36
1159,18,15,31,36
1160,18,15,31,36
1161,18,14,32,36
1162,18,14,32,36
1163,18,14,32,36
1164,18,14,32,36
1165,18,14,32,36
1166,18,14,32,36
1167,18,14,32,36
1168,18,14,31,37
1169,17,15,30,38
1170,17,15,30,38
1171,17,15,30,38
1172,17,15,30,38
1173,17,15,30,38
1174,17,15,30,38
1175,17,14,30,39
1176,17,14,30,39
1177,17,14,30,39
1178,16,15,30,39
1179,16,15,30,39
1180,16,15,30,39
1181,16,15,30,39
1182,15,16,29,40
1183,15,16,29,40
1184,15,16,29,40
1185,15,16,29,40
1186,15,16,29,40
1187,15,16,29,40
1188,15,16,29,40
1189,15,16,29,40
1190,15,16,29,40
1191,15,15,30,40
1192,15,15,30,40
1193,15,15,30,40
1194,15,15,30,40
1195,15,15,30,40
1196,15,15,29,41
1197,15,15,29,41
1198,15,15,29,41
1199,15,15,29,41
1200,15,14,30,41
1201,15,13,31,41
1202,15,13,31,41
1203,15,13,31,41
1204,14,14,31,41
1205,14,14,31,41
1206,14,14,31,41
1207,14,14,31,41
1208,14,14,31,41
1209,14,13,32,41
1210,14,13,32,41
1211,14,13,32,41
1212,14,12,33,41
1213,14,12,33,41
1214,14,12,33,41
1215,14,12,33,41
1216,14,12,33,41
1217,14,12,33,41
1218,14,11,34,41
1219,14,11,34,41
1220,14,11,34,41
1221,14,11,34,41
1222,14,11,34,41
1223,14,11,34,41
1224,14,11,34,41
1225,14,11,34,41
1226,13,12,34,41
1227,13,12,34,41
1228,13,12,34,41
1229,13,12,34,41
1230,13,12,34,41
1231,13,12,34,41
1232,13,12,34,41
1233,13,12,34,41
1234,13,12,34,41
1235,13,12,34,41
1236,13,12,33,42
1237,13,12,33,42
1238,13,12,33,42
1239,13,12,33,42
1240,13,12,33,42
1241,13,12,33,42
1242,13,11,34,42
1243,13,11,33,43
1244,13,10,33,44
1245,13,10,33,44
1246,13,10,33,44
1247,13,10,33,44
1248,13,10,33,44
1249,13,10,33,44
1250,13,10,33,44
1251,13,10,33,44
1252,13,10,33,44
1253,13,10,33,44
1254,13,10,33,44
1255,13,10,33,44
1256,13,10,33,44
1257,13,9,34,44
1258,13,9,34,44
1259,13,9,34,44
1260,13,9,34,44
1261,13,9,34,44
1262,12,10,34,44
1263,12,10,34,44
1264,12,10,33,45
1265,12,10,33,45
1266,12,10,33,45
1267,12,10,33,45
1268,12,10,33,45
1269,12,10,33,45
1270,12,10,33,45
1271,12,10,33,45
1272,12,10,33,45
1273,12,10,33,45
1274,12,10,33,45
1275,12,10,33,45
1276,12,10,33,45
1277,12,10,33,45
1278,12,9,34,45
1279,12,9,34,45
1280,12,9,34,45
1281,12,9,33,46
1282,12,9,33,46
1283,12,9,32,47
1284,12,9,32,47
1285,12,9,32,47
1286,12,9,32,47
1287,12,9,32,47
1288,12,9,32,47
1289,12,9,32,47
1290,12,9,32,47
1291,11,10,31,48
1292,11,10,31,48
1293,11,9,32,48
1294,11,9,32,48
1295,11,9,31,49
1296,11,9,31,49
1297,11,9,30,50
1298,11,9,30,50
1299,11,9,30,50
1300,11,9,30,50
1301,11,9,30,50
1302,11,9,29,51
1303,11,9,28,52
1304,11,9,27,53
1305,11,9,27,53
1306,11,9,27,53
1307,11,9,26,54
1308,11,9,26,54
1309,11,9,26,54
1310,11,9,25,55
1311,11,9,25,55
1312,11,9,24,56
1313,11,9,24,56
1314,11,9,24,56
1315,10,10,24,56
1316,9,11,23,57
1317,9,11,23,57
1318,9,11,23,57
1319,9,11,23,57
1320,9,11,22,58
1321,9,11,22,58
1322,9,11,22,58
1323,9,11,22,58
1324,9,11,21,59
1325,9,11,21,59
1326,9,11,21,59
1327,9,11,20,60
1328,9,10,21,60
1329,9,10,21,60
1330,9,10,20,61
1331,9,10,20,61
1332,9,10,19,62
1333,9,10,19,62
1334,9,10,19,62
1335,9,10,19,62
1336,9,10,19,62
1337,9,10,19,62
1338,9,10,18,63
1339,9,9,19,63
1340,9,9,19,63
1341,9,9,19,63
1342,9,9,19,63
1343,9,9,18,64
1344,9,9,18,64
1345,9,9,18,64
1346,9,9,18,64
1347,9,9,18,64
1348,9,9,18,64
1349,9,9,16,66
1350,9,9,16,66
1351,9,9,16,66
1352,9,9,16,66
1353,8,10,16,66
1354,8,10,16,66
1355,8,10,16,66
1356,8,10,15,67
1357,8,10,15,67
1358,8,10,15,67
1359,8,10,15,67
1360,8,10,15,67
1361,8,10,15,67
1362,8,10,14,68
1363,8,10,14,68
1364,8,10,14,68
1365,8,10,14,68
1366,8,10,14,68
1367,8,10,14,68
1368,8,10,14,68
1369,8,10,14,68
1370,8,9,15,68
1371,8,9,15,68
1372,8,9,15,68
1373,8,9,15,68
1374,8,9,15,68
1375,8,9,15,68
1376,8,9,14,69
1377,8,9,14,69
1378,8,9,14,69
1379,8,8,15,69
1380,8,8,15,69
1381,8,8,15,69
1382,8,8,15,69
1383,8,7,16,69
1384,8,7,16,69
1385,8,7,16,69
1386,8,7,16,69
1387,8,7,16,69
1388,8,7,16,69
1389,8,7,16,69
1390,8,7,16,69
1391,8,7,16,69
1392,8,7,15,70
1393,8,7,15,70
1394,8,7,15,70
1395,8,7,15,70
1396,8,7,15,70
1397,8,7,15,70
1398,8,7,15,70
1399,8,7,15,70
1400,8,7,15,70
1401,8,7,14,71
1402,8,7,13,72
1403,8,7,13,72
1404,8,7,13,72
1405,8,6,14,72
1406,8,6,14,72
1407,8,6,14,72
1408,8,6,14,72
1409,8,6,14,72
1410,8,6,13,73
1411,8,6,13,73
1412,8,6,13,73
1413,8,6,12,74
1414,8,6,12,74
1415,8,6,12,74
1416,8,6,12,74
1417,8,6,12,74
1418,8,6,12,74
1419,8,6,11,75
1420,8,6,11,75
1421,8,6,11,75
1422,8,6,11,75
1423,8,6,11,75
1424,8,6,11,75
1425,7,7,11,75
1426,7,7,11,75
1427,7,6,12,75
1428,7,6,12,75
1429,7,6,12,75
1430,7,6,12,75
1431,7,6,12,75
1432,7,6,12,75
1433,7,6,12,75
1434,7,6,12,75
1435,7,6,12,75
1436,7,6,12,75
1437,7,6,12,75
1438,6,7,12,75
1439,6,7,12,75
1440,6,7,12,75
1441,6,7,12,75
1442,6,7,12,75
1443,6,7,11,76
1444,5,8,11,76
1445,5,8,10,77
1446,5,8,10,77
1447,5,8,10,77
1448,5,8,10,77
1449,5,8,10,77
1450,5,8,10,77
1451,5,8,10,77
1452,5,8,10,77
1453,5,8,10,77
1454,5,8,10,77
1455,5,8,10,77
1456,5,8,10,77
1457,5,8,10,77
1458,5,8,9,78
1459,5,8,9,78
1460,5,8,9,78
1461,5,8,9,78
1462,5,8,9,78
1463,5,7,10,78
1464,5,7,10,78
1465,5,7,10,78
1466,5,7,10,78
1467,5,7,10,78
1468,5,7,10,78
1469,5,7,10,78
1470,5,7,10,78
1471,5,7,10,78
1472,5,7,10,78
1473,5,7,10,78
1474,5,7,10,78
1475,5,7,10,78
1476,5,7,10,78
1477,5,7,10,78
1478,5,7,10,78
1479,5,7,9,79
1480,5,7,9,79
1481,5,7,9,79
1482,5,7,9,79
1483,5,7,9,79
1484,5,7,9,79
1485,5,7,9,79
1486,5,7,9,79
1487,5,7,9,79
1488,5,7,9,79
1489,5,7,9,79
1490,5,7,9,79
1491,5,7,9,79
1492,5,6,10,79
1493,5,6,10,79
1494,5,6,9,80
1495,5,6,9,80
1496,5,6,9,80
1497,5,6,9,80
1498,5,6,9,80
1499,5,6,9,80
1500,5,6,9,80
1501,5,6,9,80
1502,5,6,9,80
1503,5,6,9,80
1504,5,6,9,80
1505,5,6,9,80
1506,5,6,9,80
1507,5,6,9,80
1508,5,6,9,80
1509,5,6,9,80
1510,5,6,9,80
1511,5,6,9,80
1512,5,6,9,80
1513,5,6,9,80
1514,5,6,9,80
1515,5,6,9,80
1516,5,5,10,80
1517,5,4,11,80
1518,5,4,11,80
1519,5,4,11,80
1520,5,4,11,80
1521,5,4,11,80
1522,5,4,11,80
1523,5,4,11,80
1524,5,4,11,80
1525,5,4,11,80
1526,5,4,11,80
1527,5,4,11,80
1528,5,4,11,80
1529,5,4,10,81
1530,5,4,10,81
1531,5,4,10,81
1532,5,4,10,81
1533,5,4,10,81
1534,5,4,10,81
1535,5,4,10,81
1536,5,4,10,81
1537,5,4,10,81
1538,5,4,10,81
1539,5,4,10,81
1540,5,4,9,82
1541,5,4,9,82
1542,5,4,9,82
1543,5,4,9,82
1544,5,4,9,82
1545,5,4,9,82
1546,5,4,9,82
1547,5,4,9,82
1548,5,4,9,82
1549,5,4,9,82
1550,5,4,9,82
1551,5,4,9,82
1552,5,4,9,82
1553,5,4,9,82
1554,5,3,10,82
1555,5,3,10,82
1556,4,4,10,82
1557,4,4,10,82
1558,4,4,10,82
1559,4,4,10,82
1560,4,4,10,82
1561,4,4,10,82
1562,4,4,10,82
1563,3,5,10,82
1564,2,6,10,82
1565,2,6,10,82
1566,2,6,10,82
1567,2,6,10,82
1568,2,6,10,82
1569,2,6,10,82
1570,2,6,10,82
1571,2,6,9,83
1572,2,6,9,83
1573,2,6,9,83
1574,2,6,9,83
1575,2,6,9,83
1576,2,6,9,83
1577,2,6,9,83
1578,2,6,9,83
1579,2,6,9,83
1580,2,6,8,84
1581,2,6,8,84
1582,2,6,8,84
1583,2,6,8,84
1584,2,6,7,85
1585,2,6,7,85
1586,2,6,7,85
1587,2,6,7,85
1588,2,6,7,85
1589,2,6,7,85
1590,2,6,7,85
1591,2,6,7,85
1592,2,6,7,85
1593,2,6,7,85
1594,2,6,7,85
1595,2,6,7,85
1596,2,6,7,85
1597,2,6,7,85
1598,2,6,7,85
1599,2,6,7,85
1600,2,6,7,85
1601,2,6,7,85
1602,2,6,7,85
1603,2,6,7,85
1604,2,6,7,85
1605,2,6,7,85
1606,2,6,6,86
1607,2,6,6,86
1608,2,6,6,86
1609,2,6,6,86
1610,2,6,6,86
1611,2,6,6,86
1612,2,6,6,86
1613,2,6,6,86
1614,2,6,6,86
1615,2,6,6,86
1616,2,6,6,86
1617,2,6,6,86
1618,2,6,6,86
1619,2,6,6,86
1620,2,6,6,86
1621,2,6,6,86
1622,2,6,6,86
1623,2,6,6,86
1624,2,6,6,86
1625,2,6,6,86
1626,2,5,7,86
1627,2,5,7,86
1628,2,5,6,87
1629,2,5,6,87
1630,2,5,6,87
1631,2,5,6,87
1632,2,5,6,87
1633,2,5,6,87
1634,2,5,6,87
1635,2,5,6,87
1636,2,5,6,87
1637,2,5,6,87
1638,2,5,6,87
1639,2,4,7,87
1640,2,4,7,87
1641,2,4,7,87
1642,2,4,7,87
1643,2,4,7,87
1644,2,4,7,87
1645,2,3,8,87
1646,2,3,8,87
1647,2,3,8,87
1648,2,3,8,87
1649,2,3,8,87
1650,2,3,8,87
1651,2,3,8,87
1652,2,3,8,87
1653,2,3,8,87
1654,2,3,8,87
1655,2,3,8,87
1656,2,3,8,87
1657,2,3,8,87
1658,2,3,8,87
1659,2,3,8,87
1660,2,3,8,87
1661,2,3,8,87
1662,2,3,8,87
1663,2,3,8,87
1664,2,3,7,88
1665,2,3,7,88
1666,2,3,7,88
1667,2,3,7,88
1668,2,3,7,88
1669,2,3,7,88
1670,2,3,7,88
1671,2,3,7,88
1672,2,3,7,88
1673,2,3,7,88
1674,2,3,7,88
1675,2,3,7,88
1676,2,3,7,88
1677,2,3,7,88
1678,2,3,7,88
1679,2,3,7,88
1680,2,3,7,88
1681,2,3,7,88
1682,2,3,7,88
1683,2,3,7,88
1684,2,3,7,88
1685,2,3,7,88
1686,2,3,7,88
1687,2,3,7,88
1688,2,3,7,88
1689,2,3,7,88
1690,2,3,7,88
1691,2,3,7,88
1692,2,3,7,88
1693,2,3,6,89
1694,2,3,6,89
1695,2,3,6,89
1696,2,3,6,89
1697,2,3,6,89
1698,2,3,6,89
1699,2,3,6,89
1700,2,3,6,89
1701,2,3,6,89
1702,2,3,6,89
1703,2,3,6,89
1704,2,3,6,89
1705,2,3,6,89
1706,2,3,6,89
1707,2,3,6,89
1708,2,3,6,89
1709,2,3,6,89
1710,2,3,6,89
1711,2,3,6,89
1712,2,3,6,89
1713,2,3,6,89
1714,2,3,6,89
1715,2,3,6,89
1716,2,3,6,89
1717,2,3,5,90
1718,2,3,4,91
1719,2,3,4,91
1720,2,3,4,91
1721,2,3,4,91
1722,2,3,4,91
1723,2,3,4,91
1724,2,3,4,91
1725,2,3,4,91
1726,2,3,4,91
1727,2,3,4,91
1728,2,3,4,91
1729,2,3,4,91
1730,2,3,4,91
1731,2,3,4,91
1732,2,3,4,91
1733,2,3,4,91
1734,2,3,4,91
1735,2,3,4,91
1736,2,3,4,91
1737,2,3,4,91
1738,2,3,4,91
1739,2,3,4,91
1740,2,3,4,91
1741,2,3,4,91
1742,2,3,4,91
1743,2,3,4,91
1744,2,3,4,91
1745,2,3,4,91
1746,2,3,4,91
1747,2,3,4,91
1748,2,3,4,91
1749,2,3,4,91
1750,2,3,4,91
1751,2,3,4,91
1752,2,3,4,91
1753,2,3,4,91
1754,2,3,4,91
1755,2,3,3,92
1756,2,3,3,92
1757,2,2,4,92
1758,2,2,4,92
1759,2,2,4,92
1760,2,2,4,92
1761,2,2,4,92
1762,2,2,4,92
1763,2,2,4,92
1764,2,1,5,92
1765,2,0,6,92
1766,2,0,6,92
1767,2,0,6,92
1768,2,0,6,92
1769,2,0,6,92
1770,2,0,6,92
1771,2,0,6,92
1772,2,0,6,92
1773,2,0,6,92
1774,2,0,6,92
1775,2,0,6,92
1776,2,0,6,92
1777,2,0,6,92
1778,2,0,6,92
1779,2,0,6,92
1780,2,0,6,92
1781,2,0,6,92
1782,2,0,6,92
1783,2,0,6,92
1784,2,0,6,92
1785,2,0,6,92
1786,2,0,6,92
1787,2,0,6,92
1788,2,0,6,92
1789,2,0,6,92
1790,2,0,6,92
1791,2,0,6,92
1792,2,0,6,92
1793,2,0,6,92
1794,2,0,6,92
1795,2,0,6,92
1796,2,0,6,92
1797,2,0,6,92
1798,2,0,6,92
1799,2,0,6,92
1800,2,0,6,92
1801,2,0,6,92
1802,2,0,6,92
1803,2,0,6,92
1804,2,0,6,92
1805,2,0,6,92
1806,2,0,6,92
1807,2,0,6,92
1808,2,0,6,92
1809,2,0,6,92
1810,2,0,6,92
1811,2,0,6,92
1812,2,0,6,92
1813,2,0,6,92
1814,2,0,6,92
1815,2,0,6,92
1816,2,0,6,92
1817,2,0,6,92
1818,2,0,6,92
1819,2,0,6,92
1820,2,0,6,92
1821,2,0,6,92
1822,2,0,6,92
1823,2,0,6,92
1824,2,0,6,92
1825,2,0,6,92
1826,2,0,6,92
1827,2,0,5,93
1828,2,0,5,93
1829,2,0,5,93
1830,2,0,5,93
1831,2,0,5,93
1832,2,0,5,93
1833,2,0,5,93
1834,2,0,5,93
1835,2,0,5,93
1836,2,0,5,93
1837,2,0,5,93
1838,2,0,5,93
1839,2,0,5,93
1840,2,0,4,94
1841,2,0,4,94
1842,2,0,4,94
1843,2,0,4,94
1844,2,0,4,94
1845,2,0,4,94
1846,2,0,3,95
1847,2,0,3,95
1848,2,0,3,95
1849,2,0,3,95
1850,2,0,3,95
1851,2,0,3,95
1852,2,0,3,95
1853,2,0,3,95
1854,2,0,3,95
1855,2,0,3,95
1856,2,0,3,95
1857,2,0,3,95
1858,2,0,3,95
1859,2,0,3,95
1860,2,0,3,95
1861,2,0,3,95
1862,2,0,3,95
1863,2,0,3,95
1864,2,0,3,95
1865,2,0,3,95
1866,2,0,3,95
1867,2,0,3,95
1868,2,0,3,95
1869,2,0,3,95
1870,2,0,3,95
1871,2,0,3,95
1872,2,0,3,95
1873,2,0,3,95
1874,2,0,3,95
1875,2,0,3,95
1876,2,0,3,95
1877,2,0,3,95
1878,2,0,3,95
1879,2,0,3,95
1880,2,0,3,95
1881,2,0,3,95
1882,2,0,3,95
1883,2,0,3,95
1884,2,0,3,95
1885,2,0,3,95
1886,2,0,3,95
1887,2,0,3,95
1888,2,0,3,95
1889,2,0,3,95
1890,2,0,3,95
1891,2,0,3,95
1892,2,0,3,95
1893,2,0,3,95
1894,2,0,3,95
1895,2,0,3,95
1896,2,0,3,95
1897,2,0,3,95
1898,2,0,3,95
1899,2,0,3,95
1900,2,0,3,95
1901,2,0,3,95
1902,2,0,3,95
1903,2,0,3,95
1904,2,0,3,95
1905,2,0,3,95
1906,2,0,3,95
1907,2,0,3,95
1908,2,0,3,95
1909,2,0,3,95
1910,2,0,3,95
1911,2,0,3,95
1912,2,0,3,95
1913,2,0,3,95
1914,2,0,3,95
1915,2,0,3,95
1916,2,0,3,95
1917,2,0,3,95
1918,2,0,3,95
1919,2,0,3,95
1920,2,0,3,95
1921,2,0,3,95
1922,2,0,3,95
1923,2,0,3,95
1924,2,0,3,95
1925,2,0,3,95
1926,2,0,3,95
1927,2,0,3,95
1928,2,0,3,95
1929,2,0,3,95
1930,2,0,3,95
1931,2,0,3,95
1932,2,0,3,95
1933,2,0,3,95
1934,2,0,3,95
1935,2,0,3,95
1936,2,0,3,95
1937,2,0,3,95
1938,2,0,3,95
1939,2,0,3,95
1940,2,0,3,95
1941,2,0,3,95
1942,2,0,3,95
1943,2,0,3,95
1944,2,0,3,95
1945,2,0,3,95
1946,2,0,3,95
1947,2,0,3,95
1948,2,0,3,95
1949,2,0,3,95
1950,2,0,3,95
1951,2,0,3,95
1952,2,0,3,95
1953,2,0,3,95
1954,2,0,3,95
1955,2,0,3,95
1956,2,0,3,95
1957,2,0,3,95
1958,2,0,2,96
1959,2,0,2,96
1960,2,0,2,96
1961,2,0,2,96
1962,2,0,2,96
1963,2,0,2,96
1964,2,0,2,96
1965,2,0,1,97
1966,2,0,0,98
1967,2,0,0,98
1968,2,0,0,98
1969,2,0,0,98
1970,2,0,0,98
1971,2,0,0,98
1972,2,0,0,98
1973,2,0,0,98
1974,2,0,0,98
1975,2,0,0,98
1976,2,0,0,98
1977,2,0,0,98
1978,2,0,0,98
1979,2,0,0,98
1980,2,0,0,98
1981,2,0,0,98
1982,2,0,0,98
1983,2,0,0,98
1984,2,0,0,98
1985,2,0,0,98
1986,2,0,0,98
1987,2,0,0,98
1988,2,0,0,98
1989,2,0,0,98
1990,2,0,0,98
1991,2,0,0,98
1992,2,0,0,98
1993,2,0,0,98
1994,2,0,0,98
1995,2,0,0,98
1996,2,0,0,98
1997,2,0,0,98
1998,2,0,0,98
1999,2,0,0,98
2000,2,0,0,98
