"tick","total"
0,0
1,0
2,0
3,0
4,0
5,0
6,0
7,0
8,0
9,0
10,0
11,0
12,0
13,0
14,0
15,0
16,0
17,0
18,0
19,0
20,0
21,0
22,0
23,0
24,0
25,0
26,0
27,0
28,0
29,0
30,0
31,0
32,0
33,0
34,0
35,0
36,0
37,0
38,0
39,0
40,0
41,0
42,0
43,0
44,0
45,0
46,0
47,0
48,0
49,0
50,0
51,0
52,0
53,0
54,0
55,0
56,0
57,0
58,0
59,0
60,0
61,0
62,0
63,0
64,0
65,0
66,0
67,0
68,0
69,0
70,0
71,0
72,0
73,0
74,0
75,0
76,0
77,0
78,0
79,0
80,0
81,0
82,0
83,0
84,0
85,0
86,0
87,0
88,0
89,0
90,0
91,0
92,0
93,0
94,0
95,0
96,0
97,0
98,0
99,0
100,0
101,0
102,0
103,0
104,0
105,0
106,0
107,0
108,0
109,0
110,0
111,0
112,0
113,0
114,0
115,0
116,0
117,0
118,0
119,0
120,0
121,0
122,0
123,0
124,0
125,0
126,0
127,0
128,0
129,0
130,0
131,0
132,0
133,0
134,0
135,0
136,0
137,0
138,0
139,0
140,0
141,0
142,0
143,0
144,0
145,0
146,0
147,0
148,0
149,0
150,0
151,0
152,0
153,0
154,0
155,0
156,0
157,0
158,0
159,0
160,0
161,0
162,0
163,0
164,0
165,0
166,0
167,0
168,0
169,0
170,0
171,0
172,0
173,0
174,0
175,0
176,0
177,0
178,0
179,0
180,0
181,0
182,0
183,0
184,0
185,0
186,0
187,0
188,0
189,0
190,0
191,0
192,0
193,0
194,0
195,0
196,0
197,0
198,0
199,0
200,0
201,0
202,0
203,0
204,0
205,0
206,0
207,0
208,0
209,0
210,0
211,0
212,0
213,0
214,0
215,1
216,1
217,1
218,1
219,1
220,1
221,1
222,1
223,1
224,1
225,1
226,1
227,1
228,1
229,1
230,1
231,2
232,2
233,2
234,2
235,2
236,2
237,2
238,2
239,2
240,2
241,2
242,2
243,2
244,2
245,2
246,2
247,2
248,2
249,2
250,2
251,2
252,2
253,2
254,2
255,2
256,2
257,2
258,2
259,2
260,2
261,3
262,3
263,3
264,3
265,3
266,3
267,3
268,3
269,3
270,4
271,4
272,4
273,4
274,4
275,4
276,4
277,4
278,4
279,4
280,4
281,4
282,4
283,4
284,4
285,4
286,4
287,4
288,4
289,4
290,4
291,5
292,6
293,7
294,7
295,7
296,8
297,8
298,8
299,8
300,9
301,9
302,9
303,9
304,9
305,9
306,9
307,9
308,9
309,10
310,10
311,10
312,10
313,10
314,10
315,11
316,11
317,11
318,11
319,11
320,11
321,11
322,11
323,11
324,11
325,11
326,11
327,11
328,11
329,11
330,11
331,11
332,12
333,12
334,12
335,13
336,13
337,13
338,13
339,13
340,13
341,13
342,13
343,13
344,13
345,13
346,13
347,13
348,13
349,13
350,13
351,13
352,13
353,13
354,13
355,13
356,13
357,13
358,13
359,13
360,14
361,14
362,14
363,14
364,14
365,14
366,15
367,15
368,15
369,15
370,15
371,15
372,15
373,15
374,15
375,15
376,15
377,15
378,16
379,16
380,16
381,16
382,16
383,16
384,17
385,17
386,17
387,17
388,17
389,17
390,17
391,17
392,17
393,17
394,17
395,17
396,17
397,17
398,17
399,17
400,17
401,17
402,17
403,17
404,17
405,17
406,17
407,17
408,18
409,18
410,18
411,18
412,18
413,18
414,18
415,18
416,18
417,18
418,18
419,18
420,18
421,19
422,19
423,19
424,19
425,19
426,19
427,19
428,19
429,19
430,19
431,19
432,19
433,19
434,19
435,19
436,19
437,19
438,19
439,20
440,20
441,20
442,20
443,20
444,20
445,20
446,21
447,21
448,21
449,21
450,21
451,21
452,21
453,22
454,22
455,22
456,22
457,22
458,22
459,22
460,22
461,22
462,22
463,22
464,22
465,22
466,22
467,22
468,22
469,22
470,22
471,22
472,22
473,22
474,22
475,22
476,22
477,24
478,24
479,24
480,24
481,24
482,24
483,24
484,24
485,24
486,25
487,25
488,25
489,25
490,27
491,27
492,27
493,27
494,27
495,27
496,27
497,27
498,27
499,27
500,27
501,27
502,27
503,27
504,27
505,27
506,27
507,27
508,27
509,27
510,27
511,27
512,27
513,28
514,28
515,28
516,28
517,28
518,28
519,28
520,28
521,28
522,28
523,28
524,28
525,28
526,29
527,29
528,29
529,29
530,29
531,29
532,29
533,29
534,29
535,29
536,29
537,29
538,29
539,29
540,30
541,30
542,30
543,30
544,30
545,30
546,30
547,30
548,30
549,30
550,30
551,30
552,30
553,30
554,30
555,30
556,30
557,30
558,31
559,31
560,31
561,31
562,31
563,31
564,31
565,31
566,31
567,31
568,31
569,31
570,31
571,31
572,31
573,31
574,31
575,31
576,31
577,31
578,31
579,31
580,31
581,31
582,31
583,31
584,31
585,31
586,31
587,31
588,31
589,31
590,31
591,31
592,32
593,32
594,32
595,32
596,32
597,32
598,32
599,32
600,32
601,32
602,32
603,32
604,32
605,32
606,32
607,32
608,32
609,32
610,32
611,32
612,32
613,32
614,32
615,32
616,32
617,32
618,32
619,32
620,32
621,32
622,32
623,32
624,32
625,32
626,32
627,32
628,32
629,32
630,32
631,32
632,32
633,32
634,32
635,32
636,32
637,32
638,32
639,32
640,32
641,32
642,32
643,32
644,32
645,32
646,32
647,32
648,32
649,32
650,32
651,32
652,32
653,32
654,32
655,32
656,32
657,32
658,32
659,32
660,32
661,32
662,32
663,32
664,32
665,32
666,32
667,32
668,32
669,32
670,32
671,32
672,32
673,33
674,33
675,33
676,33
677,34
678,34
679,34
680,34
681,34
682,35
683,35
684,35
685,35
686,36
687,36
688,36
689,36
690,36
691,36
692,36
693,36
694,36
695,36
696,36
697,36
698,36
699,36
700,36
701,36
702,36
703,36
704,36
705,36
706,36
707,36
708,36
709,36
710,36
711,36
712,36
713,36
714,36
715,36
716,36
717,36
718,36
719,36
720,36
721,36
722,36
723,36
724,36
725,37
726,37
727,37
728,37
729,37
730,37
731,37
732,37
733,37
734,37
735,37
736,37
737,37
738,37
739,37
740,37
741,37
742,37
743,37
744,37
745,37
746,37
747,37
748,37
749,37
750,37
751,37
752,37
753,37
754,37
755,37
756,37
757,37
758,37
759,37
760,37
761,37
762,38
763,38
764,38
765,38
766,38
767,38
768,38
769,38
770,38
771,38
772,38
773,38
774,38
775,39
776,39
777,39
778,39
779,39
780,39
781,39
782,39
783,39
784,39
785,39
786,39
787,39
788,39
789,39
790,39
791,39
792,39
793,40
794,40
795,40
796,40
797,40
798,40
799,41
800,41
801,41
802,41
803,41
804,41
805,41
806,41
807,41
808,41
809,42
810,42
811,42
812,42
813,43
814,43
815,43
816,43
817,44
818,44
819,44
820,44
821,44
822,44
823,44
824,44
825,44
826,44
827,44
828,45
829,45
830,45
831,45
832,45
833,45
834,45
835,45
836,45
837,45
838,45
839,45
840,45
841,45
842,45
843,45
844,45
845,45
846,45
847,45
848,46
849,46
850,47
851,47
852,47
853,47
854,47
855,47
856,47
857,47
858,47
859,47
860,47
861,47
862,47
863,47
864,47
865,47
866,47
867,47
868,47
869,47
870,47
871,47
872,47
873,47
874,47
875,47
876,47
877,47
878,47
879,47
880,47
881,47
882,47
883,47
884,47
885,47
886,47
887,47
888,47
889,47
890,47
891,47
892,47
893,47
894,47
895,47
896,47
897,47
898,47
899,47
900,47
901,47
902,47
903,47
904,47
905,47
906,47
907,47
908,47
909,47
910,47
911,47
912,47
913,47
914,47
915,47
916,47
917,47
918,47
919,47
920,47
921,48
922,48
923,48
924,48
925,48
926,48
927,48
928,48
929,48
930,48
931,48
932,48
933,48
934,48
935,48
936,48
937,48
938,48
939,48
940,48
941,48
942,48
943,48
944,48
945,48
946,48
947,48
948,48
949,48
950,48
951,49
952,49
953,49
954,50
955,50
956,50
957,50
958,50
959,51
960,52
961,52
962,52
963,52
964,52
965,52
966,52
967,52
968,52
969,52
970,52
971,52
972,52
973,52
974,52
975,52
976,52
977,52
978,52
979,52
980,52
981,52
982,52
983,52
984,53
985,53
986,53
987,53
988,53
989,53
990,54
991,54
992,54
993,54
994,54
995,55
996,55
997,55
998,55
999,55
1000,55
1001,55
1002,55
1003,55
1004,55
1005,55
1006,55
1007,55
1008,55
1009,55
1010,55
1011,55
1012,55
1013,55
1014,55
1015,55
1016,55
1017,55
1018,55
1019,55
1020,55
1021,55
1022,55
1023,55
1024,55
1025,55
1026,55
1027,55
1028,55
1029,55
1030,55
1031,55
1032,55
1033,55
1034,55
1035,55
1036,55
1037,55
1038,55
1039,55
1040,55
1041,55
1042,55
1043,55
1044,55
1045,55
1046,55
1047,55
1048,55
1049,56
1050,56
1051,56
1052,56
1053,56
1054,56
1055,56
1056,56
1057,56
1058,56
1059,56
1060,56
1061,57
1062,57
1063,57
1064,57
1065,57
1066,57
1067,57
1068,57
1069,58
1070,58
1071,59
1072,59
1073,59
1074,59
1075,59
1076,59
1077,59
1078,59
1079,59
1080,59
1081,59
1082,59
1083,59
1084,59
1085,59
1086,60
1087,60
1088,60
1089,60
1090,60
1091,60
1092,60
1093,60
1094,60
1095,60
1096,60
1097,60
1098,60
1099,60
1100,60
1101,60
1102,60
1103,60
1104,60
1105,61
1106,61
1107,61
1108,61
1109,61
1110,61
1111,61
1112,61
1113,62
1114,62
1115,62
1116,63
1117,63
1118,63
1119,63
1120,63
1121,63
1122,63
1123,63
1124,63
1125,63
1126,63
1127,63
1128,63
1129,63
1130,63
1131,63
1132,63
1133,63
1134,63
1135,63
1136,63
1137,63
1138,63
1139,63
1140,63
1141,63
1142,63
1143,63
1144,63
1145,63
1146,63
1147,63
1148,63
1149,63
1150,63
1151,63
1152,63
1153,63
1154,63
1155,63
1156,63
1157,63
1158,63
1159,63
1160,64
1161,65
1162,65
1163,65
1164,65
1165,65
1166,66
1167,66
1168,66
1169,67
1170,67
1171,67
1172,67
1173,67
1174,67
1175,67
1176,68
1177,68
1178,68
1179,68
1180,68
1181,68
1182,68
1183,68
1184,69
1185,69
1186,69
1187,69
1188,69
1189,69
1190,69
1191,69
1192,69
1193,69
1194,69
1195,69
1196,69
1197,69
1198,69
1199,69
1200,69
1201,69
1202,69
1203,69
1204,69
1205,69
1206,69
1207,69
1208,69
1209,69
1210,69
1211,69
1212,69
1213,69
1214,69
1215,69
1216,69
1217,69
1218,69
1219,69
1220,69
1221,69
1222,69
1223,69
1224,69
1225,69
1226,69
1227,69
1228,69
1229,69
1230,69
1231,69
1232,69
1233,69
1234,69
1235,69
1236,69
1237,69
1238,69
1239,69
1240,69
1241,69
1242,69
1243,69
1244,70
1245,70
1246,70
1247,70
1248,70
1249,70
1250,70
1251,70
1252,70
1253,70
1254,70
1255,70
1256,70
1257,70
1258,70
1259,70
1260,70
1261,70
1262,70
1263,70
1264,70
1265,70
1266,70
1267,70
1268,70
1269,70
1270,70
1271,70
1272,70
1273,70
1274,70
1275,70
1276,70
1277,70
1278,70
1279,70
1280,70
1281,70
1282,70
1283,70
1284,70
1285,70
1286,70
1287,70
1288,70
1289,70
1290,70
1291,70
1292,70
1293,70
1294,70
1295,70
1296,70
1297,70
1298,70
1299,70
1300,70
1301,70
1302,70
1303,70
1304,70
1305,70
1306,70
1307,70
1308,70
1309,70
1310,70
1311,70
1312,70
1313,70
1314,70
1315,70
1316,70
1317,70
1318,70
1319,70
1320,70
1321,70
1322,70
1323,70
1324,70
1325,70
1326,70
1327,70
1328,70
1329,70
1330,70
1331,70
1332,70
1333,70
1334,70
1335,70
1336,70
1337,70
1338,70
1339,70
1340,70
1341,70
1342,70
1343,70
1344,70
1345,70
1346,70
1347,70
1348,70
1349,70
1350,70
1351,70
1352,70
1353,70
1354,70
1355,70
1356,70
1357,70
1358,70
1359,70
1360,70
1361,70
1362,70
1363,70
1364,70
1365,70
1366,70
1367,70
1368,70
1369,70
1370,70
1371,70
1372,70
1373,70
1374,70
1375,70
1376,70
1377,70
1378,70
1379,70
1380,70
1381,70
1382,70
1383,70
1384,70
1385,70
1386,70
1387,70
1388,70
1389,70
1390,70
1391,70
1392,70
1393,70
1394,70
1395,70
1396,70
1397,70
1398,70
1399,70
1400,70
1401,70
1402,70
1403,70
1404,70
1405,70
1406,70
1407,70
1408,70
1409,70
1410,70
1411,70
1412,70
1413,70
1414,70
1415,70
1416,70
1417,70
1418,70
1419,70
1420,70
1421,70
1422,70
1423,70
1424,70
1425,70
1426,70
1427,70
1428,70
1429,70
1430,70
1431,70
1432,70
1433,70
1434,70
1435,70
1436,70
1437,70
1438,70
1439,70
1440,70
1441,70
1442,70
1443,70
1444,71
1445,71
1446,71
1447,71
1448,71
1449,71
1450,71
1451,71
1452,71
1453,72
1454,72
1455,72
1456,72
1457,72
1458,72
1459,73
1460,73
1461,74
1462,75
1463,75
1464,75
1465,75
1466,75
1467,75
1468,75
1469,75
1470,76
1471,76
1472,76
1473,76
1474,76
1475,76
1476,76
1477,76
1478,76
1479,76
1480,76
1481,76
1482,76
1483,76
1484,76
1485,76
1486,76
1487,76
1488,76
1489,76
1490,76
1491,76
1492,76
1493,77
1494,77
1495,77
1496,77
1497,77
1498,77
1499,77
1500,77
1501,78
1502,78
1503,78
1504,78
1505,78
1506,78
1507,78
1508,78
1509,78
1510,78
1511,79
1512,79
1513,79
1514,79
1515,79
1516,79
1517,79
1518,79
1519,80
1520,80
1521,80
1522,80
1523,80
1524,80
1525,80
1526,80
1527,80
1528,80
1529,80
1530,80
1531,80
1532,80
1533,80
1534,80
1535,80
1536,80
1537,80
1538,80
1539,80
1540,80
1541,80
1542,80
1543,80
1544,80
1545,80
1546,80
1547,80
1548,80
1549,80
1550,80
1551,80
1552,80
1553,80
1554,80
1555,80
1556,80
1557,80
1558,80
1559,80
1560,80
1561,80
1562,80
1563,80
1564,80
1565,80
1566,80
1567,80
1568,80
1569,80
1570,80
1571,80
1572,80
1573,80
1574,81
1575,81
1576,81
1577,81
1578,81
1579,81
1580,81
1581,83
1582,83
1583,84
1584,84
1585,84
1586,85
1587,85
1588,85
1589,85
1590,85
1591,85
1592,85
1593,85
1594,85
1595,85
1596,85
1597,85
1598,86
1599,86
1600,86
1601,86
1602,86
1603,86
1604,86
1605,86
1606,86
1607,86
1608,86
1609,86
1610,86
1611,86
1612,86
1613,86
1614,86
1615,86
1616,86
1617,86
1618,86
1619,86
1620,86
1621,86
1622,87
1623,87
1624,87
1625,87
1626,88
1627,88
1628,88
1629,88
1630,88
1631,88
1632,88
1633,88
1634,88
1635,88
1636,88
1637,88
1638,88
1639,88
1640,88
1641,88
1642,88
1643,88
1644,88
1645,88
1646,88
1647,88
1648,88
1649,88
1650,88
1651,88
1652,88
1653,88
1654,88
1655,89
1656,89
1657,89
1658,89
1659,89
1660,89
1661,89
1662,89
1663,89
1664,89
1665,89
1666,89
1667,89
1668,89
1669,89
1670,89
1671,89
1672,89
1673,89
1674,89
1675,90
1676,90
1677,90
1678,90
1679,90
1680,90
1681,90
1682,90
1683,90
1684,90
1685,90
1686,90
1687,90
1688,90
1689,90
1690,90
1691,90
1692,90
1693,90
1694,90
1695,90
1696,90
1697,90
1698,90
1699,91
1700,91
1701,91
1702,91
1703,91
1704,91
1705,91
1706,91
1707,91
1708,91
1709,91
1710,91
1711,92
1712,93
1713,93
1714,93
1715,93
1716,93
1717,93
1718,93
1719,93
1720,93
1721,93
1722,93
1723,93
1724,93
1725,93
1726,93
1727,93
1728,93
1729,94
1730,94
1731,94
1732,94
1733,94
1734,94
1735,94
1736,94
1737,94
1738,94
1739,94
1740,94
1741,95
1742,95
1743,95
1744,95
1745,95
1746,95
1747,95
1748,95
1749,95
1750,95
1751,95
1752,95
1753,95
1754,95
1755,95
1756,95
1757,96
1758,96
1759,96
1760,96
1761,96
1762,96
1763,96
1764,96
1765,96
1766,96
1767,96
1768,96
1769,96
1770,96
1771,96
1772,96
1773,96
1774,96
1775,96
1776,96
1777,96
1778,96
1779,96
1780,96
1781,96
1782,96
1783,96
1784,96
1785,96
1786,96
1787,96
1788,96
1789,96
1790,96
1791,96
1792,96
1793,96
1794,96
1795,96
1796,96
1797,96
1798,96
1799,96
1800,96
1801,96
1802,96
1803,96
1804,96
1805,96
1806,96
1807,96
1808,96
1809,96
1810,96
1811,96
1812,96
1813,96
1814,96
1815,96
1816,96
1817,96
1818,96
1819,96
1820,96
1821,96
1822,96
1823,96
1824,96
1825,96
1826,96
1827,96
1828,96
1829,96
1830,96
1831,96
1832,96
1833,96
1834,96
1835,96
1836,96
1837,96
1838,96
1839,96
1840,96
1841,97
1842,97
1843,97
1844,97
1845,97
1846,97
1847,97
1848,98
1849,98
1850,98
1851,99
1852,99
1853,99
1854,99
1855,99
1856,100
1857,100
1858,100
1859,100
1860,100
1861,100
1862,100
1863,100
1864,100
1865,100
1866,100
1867,100
1868,100
1869,100
1870,100
1871,100
1872,100
1873,100
1874,100
1875,100
1876,100
1877,100
1878,100
1879,100
1880,100
1881,100
1882,101
1883,101
1884,101
1885,101
1886,101
1887,101
1888,101
1889,101
1890,101
1891,101
1892,101
1893,101
1894,101
1895,101
1896,101
1897,101
1898,101
1899,101
1900,101
1901,101
1902,101
1903,101
1904,101
1905,101
1906,101
1907,101
1908,101
1909,101
1910,101
1911,101
1912,101
1913,101
1914,101
1915,101
1916,102
1917,102
1918,102
1919,102
1920,102
1921,102
1922,102
1923,102
1924,102
1925,102
1926,102
1927,102
1928,102
1929,102
1930,102
1931,102
1932,102
1933,102
1934,102
1935,102
1936,102
1937,102
1938,102
1939,102
1940,102
1941,102
1942,102
1943,102
1944,102
1945,102
1946,102
1947,102
1948,102
1949,102
1950,102
1951,102
1952,103
1953,103
1954,103
1955,103
1956,103
1957,103
1958,103
1959,103
1960,103
1961,103
1962,103
1963,103
1964,103
1965,103
1966,103
1967,103
1968,103
1969,103
1970,103
1971,104
1972,105
1973,105
1974,105
1975,105
1976,105
1977,105
1978,105
1979,105
1980,105
1981,105
1982,105
1983,105
1984,105
1985,105
1986,105
1987,105
1988,105
1989,105
1990,105
1991,105
1992,105
1993,105
1994,105
1995,105
1996,105
1997,105
1998,105
1999,105
2000,105
