"tick","total"
0,0
1,0
2,0
3,0
4,0
5,0
6,0
7,0
8,0
9,0
10,0
11,0
12,0
13,0
14,0
15,0
16,0
17,0
18,0
19,0
20,0
21,0
22,0
23,0
24,0
25,0
26,0
27,0
28,0
29,0
30,0
31,0
32,0
33,0
34,0
35,0
36,0
37,0
38,0
39,0
40,0
41,0
42,0
43,0
44,0
45,0
46,0
47,0
48,0
49,0
50,0
51,0
52,0
53,0
54,0
55,0
56,0
57,0
58,0
59,0
60,0
61,0
62,0
63,0
64,0
65,0
66,0
67,0
68,0
69,0
70,0
71,0
72,0
73,0
74,0
75,0
76,0
77,0
78,0
79,0
80,0
81,0
82,0
83,0
84,0
85,0
86,0
87,0
88,0
89,0
90,0
91,0
92,0
93,0
94,0
95,0
96,0
97,0
98,0
99,0
100,0
101,0
102,0
103,0
104,0
105,0
106,0
107,0
108,0
109,0
110,0
111,0
112,0
113,0
114,0
115,0
116,0
117,0
118,0
119,0
120,0
121,0
122,0
123,0
124,0
125,0
126,0
127,0
128,0
129,0
130,0
131,0
132,0
133,0
134,0
135,0
136,0
137,0
138,0
139,0
140,0
141,0
142,0
143,0
144,0
145,0
146,0
147,0
148,0
149,0
150,0
151,0
152,0
153,0
154,0
155,0
156,0
157,0
158,0
159,0
160,0
161,0
162,0
163,0
164,0
165,0
166,0
167,0
168,0
169,0
170,0
171,0
172,0
173,0
174,0
175,0
176,0
177,0
178,0
179,0
180,0
181,0
182,0
183,0
184,0
185,0
186,0
187,0
188,0
189,0
190,0
191,0
192,0
193,0
194,0
195,0
196,0
197,0
198,0
199,0
200,0
201,0
202,0
203,0
204,0
205,0
206,0
207,0
208,0
209,0
210,0
211,0
212,0
213,0
214,0
215,0
216,0
217,0
218,0
219,0
220,0
221,0
222,0
223,0
224,0
225,0
226,0
227,0
228,0
229,0
230,0
231,0
232,0
233,0
234,0
235,1
236,1
237,1
238,1
239,1
240,1
241,1
242,1
243,2
244,2
245,2
246,2
247,2
248,2
249,3
250,3
251,3
252,3
253,3
254,3
255,3
256,3
257,3
258,3
259,3
260,3
261,3
262,3
263,3
264,3
265,3
266,3
267,3
268,3
269,4
270,5
271,5
272,5
273,6
274,6
275,7
276,7
277,7
278,7
279,7
280,7
281,7
282,8
283,8
284,8
285,8
286,8
287,8
288,8
289,8
290,8
291,8
292,8
293,8
294,9
295,9
296,9
297,9
298,9
299,9
300,9
301,9
302,9
303,9
304,9
305,9
306,9
307,9
308,9
309,9
310,9
311,9
312,9
313,9
314,9
315,9
316,10
317,10
318,10
319,10
320,10
321,10
322,10
323,10
324,10
325,10
326,10
327,10
328,10
329,10
330,10
331,10
332,10
333,10
334,10
335,10
336,10
337,10
338,10
339,10
340,10
341,10
342,10
343,11
344,11
345,11
346,11
347,11
348,11
349,11
350,11
351,11
352,11
353,11
354,11
355,11
356,12
357,12
358,12
359,12
360,12
361,12
362,12
363,12
364,12
365,13
366,14
367,14
368,14
369,14
370,14
371,14
372,14
373,14
374,14
375,14
376,14
377,14
378,14
379,14
380,15
381,15
382,15
383,15
384,15
385,15
386,15
387,15
388,16
389,16
390,16
391,16
392,16
393,16
394,17
395,17
396,17
397,17
398,17
399,17
400,17
401,17
402,17
403,17
404,17
405,17
406,17
407,17
408,17
409,17
410,18
411,18
412,18
413,18
414,18
415,19
416,19
417,19
418,19
419,20
420,20
421,20
422,21
423,21
424,21
425,21
426,21
427,21
428,21
429,21
430,21
431,21
432,21
433,21
434,21
435,21
436,21
437,21
438,21
439,21
440,21
441,21
442,21
443,22
444,22
445,22
446,22
447,22
448,22
449,22
450,23
451,23
452,23
453,23
454,23
455,23
456,23
457,23
458,23
459,23
460,23
461,23
462,23
463,23
464,23
465,23
466,23
467,23
468,23
469,24
470,24
471,24
472,24
473,24
474,24
475,24
476,24
477,24
478,24
479,25
480,25
481,25
482,25
483,25
484,25
485,25
486,25
487,25
488,25
489,25
490,25
491,25
492,25
493,25
494,25
495,25
496,25
497,25
498,25
499,26
500,26
501,26
502,26
503,26
504,26
505,26
506,26
507,26
508,26
509,26
510,28
511,28
512,28
513,28
514,28
515,28
516,28
517,28
518,28
519,28
520,28
521,28
522,28
523,29
524,29
525,29
526,29
527,29
528,29
529,29
530,29
531,30
532,30
533,30
534,30
535,30
536,30
537,30
538,30
539,30
540,30
541,30
542,30
543,30
544,30
545,30
546,30
547,30
548,30
549,30
550,30
551,30
552,30
553,30
554,30
555,30
556,30
557,30
558,30
559,30
560,30
561,31
562,31
563,31
564,31
565,31
566,31
567,31
568,31
569,31
570,31
571,31
572,31
573,31
574,31
575,31
576,31
577,31
578,31
579,31
580,31
581,31
582,31
583,31
584,31
585,31
586,31
587,31
588,31
589,31
590,31
591,31
592,31
593,31
594,31
595,31
596,31
597,31
598,31
599,31
600,31
601,31
602,31
603,31
604,31
605,31
606,31
607,31
608,31
609,31
610,31
611,31
612,31
613,31
614,31
615,31
616,31
617,31
618,31
619,32
620,32
621,32
622,32
623,32
624,32
625,32
626,32
627,32
628,32
629,32
630,32
631,32
632,32
633,32
634,32
635,32
636,32
637,32
638,32
639,32
640,32
641,32
642,32
643,32
644,32
645,32
646,32
647,32
648,32
649,32
650,32
651,32
652,32
653,32
654,32
655,32
656,32
657,32
658,32
659,32
660,32
661,32
662,32
663,32
664,32
665,32
666,32
667,32
668,32
669,32
670,33
671,33
672,33
673,33
674,33
675,33
676,33
677,33
678,33
679,33
680,33
681,33
682,33
683,34
684,34
685,34
686,34
687,34
688,34
689,34
690,34
691,34
692,34
693,34
694,34
695,34
696,34
697,34
698,34
699,34
700,34
701,34
702,34
703,34
704,34
705,34
706,34
707,34
708,34
709,34
710,34
711,34
712,34
713,34
714,34
715,34
716,34
717,34
718,34
719,34
720,34
721,34
722,35
723,35
724,35
725,35
726,35
727,35
728,35
729,35
730,35
731,35
732,35
733,35
734,35
735,35
736,35
737,35
738,35
739,35
740,35
741,35
742,35
743,35
744,35
745,35
746,35
747,35
748,35
749,35
750,35
751,35
752,35
753,35
754,35
755,35
756,35
757,35
758,35
759,35
760,35
761,35
762,35
763,35
764,35
765,35
766,35
767,35
768,35
769,35
770,35
771,35
772,35
773,35
774,36
775,36
776,36
777,36
778,36
779,36
780,36
781,36
782,36
783,36
784,36
785,36
786,36
787,36
788,36
789,36
790,36
791,36
792,36
793,36
794,36
795,36
796,36
797,36
798,36
799,36
800,36
801,36
802,36
803,36
804,36
805,36
806,36
807,36
808,36
809,36
810,36
811,36
812,36
813,36
814,36
815,36
816,36
817,36
818,36
819,36
820,37
821,37
822,37
823,37
824,37
825,37
826,37
827,37
828,37
829,37
830,37
831,37
832,37
833,37
834,37
835,37
836,37
837,37
838,38
839,38
840,38
841,38
842,38
843,38
844,38
845,38
846,38
847,38
848,38
849,38
850,39
851,39
852,39
853,39
854,39
855,39
856,40
857,40
858,40
859,40
860,40
861,40
862,41
863,41
864,41
865,41
866,41
867,41
868,41
869,41
870,41
871,41
872,41
873,41
874,41
875,41
876,41
877,41
878,41
879,41
880,41
881,41
882,41
883,41
884,41
885,41
886,41
887,41
888,41
889,41
890,41
891,41
892,41
893,41
894,41
895,41
896,41
897,41
898,41
899,41
900,41
901,41
902,41
903,41
904,41
905,41
906,41
907,41
908,41
909,41
910,41
911,41
912,41
913,41
914,41
915,41
916,41
917,41
918,41
919,41
920,41
921,41
922,41
923,41
924,41
925,41
926,41
927,41
928,41
929,41
930,41
931,41
932,41
933,41
934,41
935,41
936,41
937,41
938,41
939,41
940,41
941,41
942,41
943,41
944,41
945,41
946,41
947,41
948,41
949,41
950,41
951,41
952,41
953,42
954,42
955,42
956,42
957,42
958,42
959,42
960,42
961,42
962,42
963,42
964,42
965,42
966,42
967,42
968,42
969,42
970,42
971,42
972,42
973,42
974,42
975,42
976,42
977,42
978,42
979,42
980,42
981,42
982,42
983,43
984,43
985,43
986,43
987,43
988,43
989,43
990,43
991,43
992,43
993,43
994,43
995,43
996,43
997,43
998,43
999,43
1000,43
1001,43
1002,43
1003,43
1004,43
1005,43
1006,43
1007,43
1008,43
1009,43
1010,43
1011,43
1012,43
1013,43
1014,43
1015,43
1016,43
1017,43
1018,43
1019,43
1020,43
1021,43
1022,43
1023,43
1024,43
1025,43
1026,43
1027,43
1028,43
1029,43
1030,43
1031,43
1032,43
1033,43
1034,43
1035,43
1036,43
1037,43
1038,44
1039,44
1040,44
1041,44
1042,44
1043,44
1044,44
1045,44
1046,44
1047,44
1048,44
1049,44
1050,44
1051,44
1052,44
1053,44
1054,44
1055,44
1056,44
1057,44
1058,44
1059,44
1060,44
1061,44
1062,44
1063,44
1064,44
1065,44
1066,44
1067,44
1068,44
1069,44
1070,44
1071,44
1072,44
1073,45
1074,45
1075,45
1076,45
1077,45
1078,45
1079,45
1080,45
1081,45
1082,47
1083,47
1084,47
1085,47
1086,47
1087,47
1088,47
1089,48
1090,48
1091,48
1092,49
1093,49
1094,49
1095,49
1096,49
1097,49
1098,49
1099,49
1100,49
1101,49
1102,49
1103,49
1104,49
1105,49
1106,49
1107,49
1108,49
1109,50
1110,50
1111,50
1112,50
1113,50
1114,50
1115,50
1116,50
1117,50
1118,50
1119,51
1120,51
1121,51
1122,51
1123,51
1124,52
1125,52
1126,52
1127,52
1128,52
1129,52
1130,52
1131,52
1132,52
1133,52
1134,52
1135,52
1136,52
1137,52
1138,52
1139,52
1140,52
1141,52
1142,52
1143,52
1144,52
1145,52
1146,52
1147,52
1148,52
1149,52
1150,52
1151,52
1152,52
1153,52
1154,52
1155,52
1156,52
1157,52
1158,52
1159,52
1160,52
1161,52
1162,52
1163,52
1164,52
1165,52
1166,52
1167,53
1168,53
1169,53
1170,53
1171,53
1172,53
1173,53
1174,53
1175,53
1176,53
1177,53
1178,54
1179,54
1180,54
1181,54
1182,54
1183,54
1184,54
1185,54
1186,54
1187,54
1188,54
1189,54
1190,54
1191,54
1192,54
1193,54
1194,54
1195,54
1196,54
1197,54
1198,54
1199,54
1200,54
1201,54
1202,54
1203,54
1204,54
1205,54
1206,54
1207,54
1208,54
1209,54
1210,54
1211,54
1212,54
1213,54
1214,54
1215,54
1216,54
1217,54
1218,54
1219,54
1220,54
1221,55
1222,55
1223,56
1224,56
1225,56
1226,57
1227,58
1228,58
1229,58
1230,58
1231,58
1232,58
1233,58
1234,58
1235,58
1236,58
1237,58
1238,58
1239,58
1240,58
1241,58
1242,58
1243,58
1244,58
1245,59
1246,59
1247,59
1248,59
1249,59
1250,59
1251,59
1252,59
1253,59
1254,59
1255,59
1256,59
1257,59
1258,59
1259,59
1260,59
1261,59
1262,59
1263,59
1264,59
1265,59
1266,59
1267,59
1268,59
1269,59
1270,61
1271,61
1272,61
1273,61
1274,61
1275,61
1276,61
1277,61
1278,61
1279,61
1280,61
1281,61
1282,61
1283,61
1284,61
1285,61
1286,61
1287,62
1288,62
1289,62
1290,62
1291,62
1292,62
1293,62
1294,62
1295,62
1296,62
1297,62
1298,62
1299,62
1300,62
1301,62
1302,62
1303,62
1304,62
1305,62
1306,62
1307,62
1308,62
1309,62
1310,62
1311,62
1312,62
1313,62
1314,62
1315,62
1316,62
1317,62
1318,62
1319,62
1320,62
1321,62
1322,62
1323,62
1324,62
1325,62
1326,62
1327,62
1328,62
1329,62
1330,62
1331,62
1332,62
1333,62
1334,62
1335,62
1336,62
1337,62
1338,63
1339,63
1340,63
1341,63
1342,63
1343,63
1344,63
1345,63
1346,63
1347,63
1348,63
1349,63
1350,63
1351,63
1352,63
1353,63
1354,64
1355,64
1356,64
1357,64
1358,64
1359,64
1360,64
1361,66
1362,66
1363,66
1364,66
1365,66
1366,67
1367,67
1368,67
1369,67
1370,67
1371,67
1372,67
1373,67
1374,67
1375,67
1376,67
1377,67
1378,67
1379,67
1380,67
1381,67
1382,67
1383,67
1384,67
1385,67
1386,67
1387,67
1388,67
1389,67
1390,67
1391,67
1392,67
1393,67
1394,67
1395,67
1396,67
1397,67
1398,67
1399,67
1400,67
1401,67
1402,67
1403,67
1404,67
1405,68
1406,69
1407,69
1408,69
1409,69
1410,69
1411,69
1412,69
1413,69
1414,69
1415,69
1416,69
1417,69
1418,69
1419,69
1420,69
1421,69
1422,69
1423,69
1424,69
1425,69
1426,69
1427,69
1428,69
1429,69
1430,69
1431,69
1432,69
1433,69
1434,69
1435,69
1436,69
1437,69
1438,69
1439,69
1440,69
1441,69
1442,69
1443,69
1444,69
1445,69
1446,69
1447,69
1448,69
1449,69
1450,69
1451,70
1452,70
1453,70
1454,70
1455,70
1456,70
1457,70
1458,70
1459,70
1460,70
1461,70
1462,70
1463,70
1464,70
1465,70
1466,70
1467,70
1468,70
1469,70
1470,70
1471,70
1472,70
1473,70
1474,70
1475,70
1476,70
1477,70
1478,70
1479,70
1480,70
1481,70
1482,70
1483,70
1484,70
1485,70
1486,70
1487,70
1488,70
1489,70
1490,70
1491,70
1492,70
1493,70
1494,70
1495,70
1496,70
1497,70
1498,70
1499,70
1500,70
1501,70
1502,70
1503,70
1504,70
1505,70
1506,70
1507,70
1508,70
1509,70
1510,70
1511,70
1512,70
1513,70
1514,70
1515,70
1516,70
1517,70
1518,70
1519,70
1520,70
1521,70
1522,70
1523,70
1524,70
1525,70
1526,70
1527,70
1528,70
1529,70
1530,70
1531,70
1532,70
1533,70
1534,70
1535,70
1536,70
1537,70
1538,70
1539,70
1540,70
1541,70
1542,70
1543,70
1544,70
1545,70
1546,70
1547,70
1548,70
1549,70
1550,70
1551,70
1552,70
1553,70
1554,70
1555,71
1556,71
1557,71
1558,71
1559,71
1560,71
1561,71
1562,71
1563,71
1564,71
1565,71
1566,71
1567,72
1568,72
1569,72
1570,72
1571,72
1572,72
1573,72
1574,72
1575,72
1576,72
1577,72
1578,72
1579,72
1580,72
1581,72
1582,72
1583,72
1584,72
1585,72
1586,72
1587,72
1588,72
1589,72
1590,72
1591,72
1592,72
1593,72
1594,72
1595,72
1596,72
1597,72
1598,72
1599,72
1600,72
1601,72
1602,72
1603,73
1604,73
1605,73
1606,73
1607,73
1608,73
1609,73
1610,73
1611,73
1612,73
1613,73
1614,73
1615,73
1616,73
1617,73
1618,73
1619,73
1620,73
1621,73
1622,73
1623,73
1624,73
1625,73
1626,73
1627,73
1628,73
1629,73
1630,73
1631,73
1632,73
1633,73
1634,73
1635,73
1636,73
1637,73
1638,73
1639,73
1640,73
1641,73
1642,73
1643,73
1644,73
1645,73
1646,73
1647,73
1648,73
1649,73
1650,74
1651,74
1652,74
1653,74
1654,74
1655,74
1656,74
1657,74
1658,74
1659,74
1660,74
1661,74
1662,74
1663,74
1664,74
1665,74
1666,74
1667,74
1668,74
1669,74
1670,74
1671,74
1672,74
1673,74
1674,74
1675,74
1676,74
1677,74
1678,74
1679,74
1680,74
1681,74
1682,74
1683,74
1684,74
1685,74
1686,74
1687,74
1688,74
1689,74
1690,74
1691,74
1692,74
1693,74
1694,74
1695,74
1696,74
1697,75
1698,75
1699,75
1700,75
1701,75
1702,75
1703,75
1704,75
1705,75
1706,75
1707,75
1708,75
1709,75
1710,75
1711,75
1712,75
1713,75
1714,76
1715,76
1716,76
1717,76
1718,76
1719,76
1720,76
1721,76
1722,76
1723,77
1724,77
1725,77
1726,77
1727,77
1728,77
1729,77
1730,78
1731,78
1732,79
1733,79
1734,79
1735,79
1736,79
1737,79
1738,80
1739,80
1740,80
1741,80
1742,80
1743,80
1744,81
1745,81
1746,81
1747,81
1748,81
1749,81
1750,81
1751,81
1752,81
1753,81
1754,81
1755,81
1756,81
1757,81
1758,82
1759,82
1760,82
1761,82
1762,82
1763,82
1764,82
1765,82
1766,82
1767,82
1768,82
1769,82
1770,82
1771,82
1772,82
1773,82
1774,82
1775,82
1776,82
1777,82
1778,82
1779,82
1780,82
1781,82
1782,82
1783,82
1784,82
1785,82
1786,82
1787,82
1788,82
1789,82
1790,82
1791,82
1792,82
1793,82
1794,82
1795,82
1796,82
1797,83
1798,83
1799,83
1800,83
1801,84
1802,84
1803,84
1804,84
1805,84
1806,84
1807,85
1808,85
1809,85
1810,85
1811,85
1812,85
1813,85
1814,85
1815,85
1816,85
1817,85
1818,85
1819,85
1820,85
1821,86
1822,86
1823,86
1824,86
1825,86
1826,86
1827,86
1828,87
1829,87
1830,87
1831,87
1832,87
1833,87
1834,88
1835,88
1836,88
1837,88
1838,88
1839,88
1840,88
1841,88
1842,88
1843,88
1844,88
1845,88
1846,88
1847,88
1848,88
1849,88
1850,88
1851,88
1852,88
1853,88
1854,88
1855,88
1856,88
1857,88
1858,88
1859,88
1860,88
1861,88
1862,88
1863,88
1864,88
1865,88
1866,88
1867,88
1868,88
1869,88
1870,88
1871,88
1872,88
1873,89
1874,89
1875,89
1876,89
1877,89
1878,89
1879,89
1880,89
1881,89
1882,89
1883,89
1884,89
1885,89
1886,89
1887,89
1888,89
1889,89
1890,89
1891,89
1892,89
1893,89
1894,89
1895,89
1896,89
1897,89
1898,89
1899,89
1900,89
1901,89
1902,89
1903,89
1904,89
1905,89
1906,89
1907,89
1908,89
1909,89
1910,89
1911,89
1912,89
1913,89
1914,90
1915,90
1916,90
1917,90
1918,90
1919,90
1920,90
1921,90
1922,90
1923,90
1924,90
1925,90
1926,90
1927,90
1928,90
1929,90
1930,91
1931,91
1932,91
1933,91
1934,91
1935,91
1936,91
1937,91
1938,91
1939,91
1940,91
1941,91
1942,91
1943,91
1944,91
1945,91
1946,91
1947,91
1948,91
1949,91
1950,91
1951,91
1952,91
1953,92
1954,92
1955,92
1956,92
1957,92
1958,92
1959,92
1960,92
1961,92
1962,92
1963,92
1964,92
1965,92
1966,92
1967,92
1968,92
1969,92
1970,92
1971,92
1972,92
1973,92
1974,92
1975,92
1976,92
1977,93
1978,93
1979,93
1980,93
1981,93
1982,93
1983,93
1984,93
1985,93
1986,93
1987,93
1988,94
1989,94
1990,94
1991,94
1992,94
1993,94
1994,94
1995,94
1996,94
1997,95
1998,95
1999,95
2000,95
