"tick","total"
0,0
1,0
2,0
3,0
4,0
5,0
6,0
7,0
8,0
9,0
10,0
11,0
12,0
13,0
14,0
15,0
16,0
17,0
18,0
19,0
20,0
21,0
22,0
23,0
24,0
25,0
26,0
27,0
28,0
29,0
30,0
31,0
32,0
33,0
34,0
35,0
36,0
37,0
38,0
39,0
40,0
41,0
42,0
43,0
44,0
45,0
46,0
47,0
48,0
49,0
50,0
51,0
52,0
53,0
54,0
55,0
56,0
57,0
58,0
59,0
60,0
61,0
62,0
63,0
64,0
65,0
66,0
67,0
68,0
69,0
70,0
71,0
72,0
73,0
74,0
75,0
76,0
77,0
78,0
79,0
80,0
81,0
82,0
83,0
84,0
85,0
86,0
87,0
88,0
89,0
90,0
91,0
92,0
93,0
94,0
95,0
96,0
97,0
98,0
99,0
100,0
101,0
102,0
103,0
104,0
105,0
106,0
107,0
108,0
109,0
110,0
111,0
112,0
113,0
114,0
115,0
116,0
117,0
118,0
119,0
120,0
121,0
122,0
123,0
124,0
125,0
126,0
127,0
128,0
129,0
130,0
131,0
132,0
133,0
134,0
135,0
136,0
137,0
138,0
139,0
140,0
141,0
142,0
143,0
144,0
145,0
146,0
147,0
148,0
149,0
150,0
151,0
152,0
153,0
154,0
155,0
156,0
157,0
158,0
159,0
160,0
161,0
162,0
163,0
164,0
165,0
166,0
167,0
168,0
169,0
170,0
171,0
172,0
173,0
174,0
175,0
176,0
177,0
178,0
179,0
180,0
181,0
182,0
183,0
184,0
185,0
186,0
187,0
188,0
189,0
190,0
191,0
192,0
193,0
194,0
195,0
196,0
197,0
198,0
199,0
200,0
201,0
202,0
203,0
204,0
205,0
206,0
207,0
208,0
209,0
210,0
211,0
212,0
213,0
214,0
215,1
216,1
217,1
218,1
219,1
220,1
221,1
222,1
223,1
224,1
225,3
226,3
227,3
228,3
229,3
230,3
231,3
232,3
233,3
234,3
235,3
236,3
237,3
238,3
239,3
240,3
241,3
242,3
243,4
244,5
245,5
246,5
247,5
248,5
249,5
250,5
251,6
252,6
253,6
254,6
255,6
256,6
257,6
258,6
259,6
260,6
261,6
262,6
263,6
264,7
265,7
266,7
267,7
268,7
269,7
270,7
271,7
272,7
273,7
274,8
275,8
276,8
277,9
278,9
279,9
280,10
281,10
282,11
283,11
284,11
285,11
286,11
287,11
288,11
289,11
290,11
291,11
292,11
293,11
294,11
295,11
296,11
297,11
298,11
299,11
300,11
301,13
302,13
303,13
304,13
305,13
306,13
307,13
308,13
309,13
310,13
311,13
312,13
313,13
314,13
315,13
316,14
317,14
318,14
319,14
320,15
321,16
322,16
323,16
324,16
325,16
326,16
327,16
328,16
329,16
330,16
331,16
332,17
333,17
334,17
335,17
336,18
337,18
338,18
339,18
340,18
341,18
342,18
343,18
344,18
345,18
346,18
347,18
348,18
349,18
350,18
351,19
352,19
353,19
354,19
355,19
356,19
357,19
358,19
359,19
360,19
361,19
362,19
363,19
364,19
365,19
366,19
367,19
368,19
369,19
370,19
371,19
372,19
373,19
374,19
375,19
376,19
377,19
378,19
379,19
380,19
381,19
382,19
383,19
384,19
385,19
386,19
387,19
388,19
389,19
390,19
391,19
392,19
393,19
394,19
395,19
396,19
397,19
398,19
399,19
400,19
401,19
402,19
403,20
404,20
405,20
406,20
407,20
408,20
409,20
410,20
411,20
412,20
413,20
414,20
415,20
416,20
417,20
418,20
419,20
420,21
421,21
422,21
423,21
424,21
425,21
426,21
427,22
428,22
429,22
430,22
431,22
432,22
433,22
434,22
435,22
436,22
437,22
438,22
439,22
440,22
441,22
442,23
443,23
444,24
445,24
446,25
447,25
448,25
449,25
450,26
451,26
452,26
453,26
454,26
455,26
456,26
457,26
458,26
459,26
460,26
461,26
462,26
463,26
464,26
465,26
466,26
467,26
468,26
469,27
470,27
471,27
472,27
473,27
474,27
475,27
476,27
477,27
478,27
479,27
480,27
481,27
482,27
483,27
484,27
485,27
486,27
487,27
488,27
489,27
490,27
491,27
492,27
493,27
494,28
495,28
496,28
497,28
498,28
499,28
500,28
501,28
502,28
503,28
504,28
505,28
506,28
507,28
508,28
509,28
510,28
511,28
512,28
513,28
514,28
515,28
516,28
517,29
518,29
519,29
520,29
521,29
522,29
523,29
524,29
525,29
526,29
527,29
528,29
529,29
530,29
531,29
532,29
533,29
534,29
535,29
536,29
537,29
538,29
539,29
540,29
541,29
542,29
543,29
544,29
545,29
546,29
547,30
548,30
549,30
550,30
551,30
552,30
553,30
554,30
555,30
556,30
557,30
558,30
559,30
560,30
561,30
562,30
563,30
564,30
565,30
566,30
567,30
568,30
569,30
570,30
571,30
572,30
573,30
574,30
575,30
576,30
577,30
578,30
579,30
580,30
581,30
582,30
583,30
584,30
585,30
586,30
587,30
588,30
589,30
590,30
591,30
592,30
593,30
594,31
595,31
596,31
597,31
598,31
599,32
600,32
601,32
602,32
603,32
604,32
605,32
606,32
607,32
608,32
609,32
610,32
611,32
612,32
613,32
614,32
615,32
616,32
617,32
618,32
619,32
620,32
621,32
622,33
623,33
624,33
625,33
626,33
627,33
628,33
629,33
630,33
631,33
632,33
633,33
634,33
635,33
636,33
637,33
638,33
639,33
640,33
641,33
642,33
643,33
644,33
645,33
646,33
647,33
648,33
649,33
650,33
651,33
652,33
653,33
654,33
655,33
656,33
657,33
658,33
659,33
660,33
661,34
662,34
663,34
664,34
665,34
666,34
667,34
668,34
669,34
670,34
671,34
672,34
673,34
674,34
675,34
676,34
677,34
678,34
679,34
680,34
681,34
682,34
683,34
684,34
685,34
686,34
687,34
688,34
689,34
690,34
691,34
692,34
693,34
694,34
695,34
696,34
697,34
698,34
699,34
700,34
701,34
702,34
703,34
704,34
705,34
706,34
707,34
708,35
709,35
710,35
711,35
712,35
713,35
714,36
715,36
716,36
717,36
718,36
719,36
720,38
721,38
722,38
723,38
724,38
725,38
726,38
727,38
728,38
729,38
730,38
731,38
732,38
733,38
734,38
735,38
736,38
737,38
738,38
739,38
740,38
741,38
742,38
743,38
744,38
745,38
746,38
747,38
748,38
749,38
750,38
751,38
752,38
753,38
754,38
755,38
756,38
757,38
758,38
759,38
760,38
761,38
762,38
763,38
764,38
765,38
766,39
767,39
768,39
769,39
770,39
771,39
772,39
773,39
774,39
775,40
776,40
777,40
778,40
779,40
780,40
781,40
782,40
783,40
784,40
785,40
786,40
787,40
788,40
789,40
790,40
791,40
792,40
793,40
794,40
795,40
796,40
797,40
798,40
799,40
800,40
801,40
802,40
803,40
804,40
805,40
806,41
807,41
808,41
809,41
810,41
811,41
812,41
813,41
814,41
815,41
816,41
817,41
818,41
819,42
820,42
821,42
822,42
823,43
824,43
825,43
826,43
827,43
828,43
829,43
830,43
831,43
832,43
833,43
834,43
835,43
836,43
837,43
838,43
839,43
840,43
841,43
842,43
843,43
844,43
845,43
846,43
847,43
848,43
849,43
850,43
851,43
852,43
853,43
854,43
855,43
856,43
857,43
858,43
859,43
860,43
861,43
862,43
863,43
864,44
865,44
866,44
867,44
868,44
869,44
870,44
871,44
872,44
873,45
874,45
875,45
876,45
877,45
878,45
879,45
880,45
881,45
882,45
883,45
884,45
885,45
886,45
887,45
888,45
889,45
890,45
891,45
892,45
893,45
894,46
895,47
896,47
897,47
898,47
899,47
900,47
901,47
902,47
903,47
904,47
905,47
906,48
907,48
908,48
909,48
910,48
911,48
912,48
913,48
914,49
915,50
916,50
917,50
918,50
919,50
920,50
921,50
922,50
923,50
924,50
925,50
926,50
927,50
928,50
929,50
930,50
931,50
932,50
933,50
934,50
935,50
936,50
937,50
938,50
939,50
940,50
941,50
942,50
943,50
944,50
945,50
946,50
947,50
948,50
949,50
950,50
951,51
952,51
953,51
954,51
955,51
956,51
957,51
958,51
959,51
960,51
961,51
962,51
963,51
964,51
965,51
966,52
967,52
968,52
969,52
970,52
971,52
972,52
973,52
974,52
975,52
976,52
977,52
978,52
979,53
980,53
981,53
982,53
983,53
984,53
985,54
986,54
987,54
988,54
989,54
990,54
991,54
992,54
993,54
994,54
995,54
996,54
997,54
998,54
999,54
1000,54
1001,54
1002,54
1003,54
1004,54
1005,54
1006,54
1007,54
1008,54
1009,54
1010,54
1011,54
1012,54
1013,54
1014,54
1015,54
1016,54
1017,54
1018,54
1019,54
1020,54
1021,54
1022,54
1023,54
1024,54
1025,54
1026,54
1027,54
1028,54
1029,54
1030,54
1031,54
1032,54
1033,54
1034,54
1035,54
1036,54
1037,54
1038,54
1039,54
1040,54
1041,54
1042,54
1043,54
1044,54
1045,54
1046,54
1047,54
1048,54
1049,54
1050,54
1051,54
1052,54
1053,54
1054,54
1055,54
1056,54
1057,54
1058,54
1059,54
1060,54
1061,54
1062,54
1063,54
1064,54
1065,54
1066,54
1067,54
1068,55
1069,55
1070,55
1071,55
1072,55
1073,55
1074,55
1075,55
1076,55
1077,55
1078,56
1079,56
1080,56
1081,56
1082,56
1083,56
1084,56
1085,56
1086,56
1087,56
1088,56
1089,56
1090,56
1091,56
1092,56
1093,56
1094,56
1095,57
1096,57
1097,57
1098,57
1099,57
1100,57
1101,57
1102,57
1103,57
1104,57
1105,57
1106,57
1107,57
1108,57
1109,57
1110,57
1111,57
1112,57
1113,57
1114,57
1115,57
1116,57
1117,57
1118,57
1119,57
1120,58
1121,58
1122,58
1123,58
1124,58
1125,58
1126,58
1127,58
1128,58
1129,58
1130,58
1131,58
1132,58
1133,58
1134,58
1135,58
1136,58
1137,58
1138,58
1139,59
1140,59
1141,59
1142,59
1143,59
1144,60
1145,60
1146,60
1147,60
1148,60
1149,60
1150,60
1151,60
1152,60
1153,60
1154,60
1155,60
1156,60
1157,60
1158,60
1159,60
1160,60
1161,60
1162,60
1163,60
1164,60
1165,60
1166,60
1167,60
1168,60
1169,60
1170,60
1171,60
1172,60
1173,60
1174,61
1175,61
1176,61
1177,61
1178,61
1179,61
1180,61
1181,61
1182,61
1183,61
1184,62
1185,62
1186,62
1187,62
1188,62
1189,62
1190,62
1191,62
1192,63
1193,63
1194,63
1195,63
1196,63
1197,63
1198,63
1199,63
1200,63
1201,63
1202,63
1203,63
1204,63
1205,63
1206,63
1207,63
1208,63
1209,63
1210,63
1211,64
1212,64
1213,64
1214,64
1215,64
1216,64
1217,64
1218,64
1219,64
1220,64
1221,64
1222,64
1223,64
1224,64
1225,64
1226,64
1227,64
1228,64
1229,64
1230,64
1231,64
1232,64
1233,64
1234,64
1235,64
1236,64
1237,64
1238,64
1239,64
1240,64
1241,64
1242,64
1243,64
1244,64
1245,64
1246,64
1247,64
1248,64
1249,64
1250,64
1251,64
1252,64
1253,64
1254,64
1255,64
1256,64
1257,64
1258,64
1259,64
1260,64
1261,64
1262,64
1263,64
1264,64
1265,64
1266,64
1267,64
1268,64
1269,64
1270,64
1271,64
1272,64
1273,64
1274,64
1275,64
1276,64
1277,64
1278,64
1279,64
1280,64
1281,64
1282,64
1283,64
1284,64
1285,64
1286,64
1287,64
1288,64
1289,64
1290,64
1291,64
1292,64
1293,64
1294,64
1295,64
1296,64
1297,64
1298,64
1299,64
1300,64
1301,64
1302,64
1303,64
1304,64
1305,64
1306,64
1307,64
1308,64
1309,64
1310,64
1311,64
1312,64
1313,64
1314,64
1315,64
1316,64
1317,64
1318,64
1319,64
1320,64
1321,64
1322,64
1323,64
1324,64
1325,64
1326,64
1327,64
1328,64
1329,64
1330,64
1331,64
1332,64
1333,65
1334,65
1335,65
1336,65
1337,65
1338,65
1339,65
1340,65
1341,65
1342,65
1343,65
1344,65
1345,65
1346,65
1347,65
1348,65
1349,65
1350,65
1351,65
1352,65
1353,65
1354,65
1355,65
1356,65
1357,66
1358,66
1359,66
1360,66
1361,66
1362,66
1363,66
1364,66
1365,66
1366,66
1367,66
1368,66
1369,66
1370,66
1371,66
1372,66
1373,66
1374,66
1375,66
1376,66
1377,66
1378,66
1379,66
1380,66
1381,66
1382,66
1383,66
1384,66
1385,66
1386,66
1387,67
1388,67
1389,67
1390,67
1391,67
1392,67
1393,67
1394,68
1395,68
1396,68
1397,68
1398,68
1399,68
1400,68
1401,68
1402,68
1403,68
1404,68
1405,68
1406,68
1407,68
1408,68
1409,68
1410,68
1411,68
1412,68
1413,68
1414,68
1415,68
1416,68
1417,69
1418,69
1419,69
1420,69
1421,69
1422,69
1423,69
1424,69
1425,69
1426,69
1427,69
1428,69
1429,69
1430,69
1431,69
1432,70
1433,70
1434,70
1435,70
1436,70
1437,70
1438,70
1439,70
1440,70
1441,70
1442,70
1443,70
1444,70
1445,70
1446,70
1447,70
1448,70
1449,70
1450,70
1451,70
1452,70
1453,70
1454,70
1455,70
1456,70
1457,70
1458,70
1459,70
1460,70
1461,70
1462,70
1463,70
1464,70
1465,70
1466,70
1467,70
1468,70
1469,70
1470,70
1471,70
1472,70
1473,70
1474,70
1475,71
1476,71
1477,71
1478,71
1479,71
1480,71
1481,71
1482,71
1483,71
1484,72
1485,73
1486,73
1487,73
1488,73
1489,73
1490,73
1491,73
1492,73
1493,73
1494,73
1495,73
1496,73
1497,73
1498,74
1499,74
1500,74
1501,74
1502,74
1503,74
1504,74
1505,74
1506,74
1507,74
1508,74
1509,74
1510,74
1511,74
1512,74
1513,75
1514,75
1515,75
1516,75
1517,75
1518,75
1519,75
1520,75
1521,75
1522,75
1523,75
1524,75
1525,75
1526,75
1527,75
1528,75
1529,75
1530,75
1531,75
1532,75
1533,75
1534,75
1535,75
1536,75
1537,75
1538,75
1539,75
1540,75
1541,75
1542,75
1543,75
1544,75
1545,75
1546,75
1547,75
1548,75
1549,75
1550,75
1551,76
1552,76
1553,76
1554,76
1555,76
1556,76
1557,76
1558,76
1559,76
1560,76
1561,76
1562,76
1563,76
1564,76
1565,76
1566,77
1567,77
1568,77
1569,77
1570,77
1571,77
1572,78
1573,78
1574,78
1575,78
1576,78
1577,78
1578,78
1579,78
1580,78
1581,78
1582,78
1583,78
1584,78
1585,78
1586,78
1587,78
1588,79
1589,79
1590,79
1591,79
1592,79
1593,79
1594,79
1595,79
1596,79
1597,79
1598,79
1599,79
1600,79
1601,79
1602,79
1603,79
1604,79
1605,79
1606,79
1607,79
1608,79
1609,79
1610,79
1611,79
1612,79
1613,80
1614,80
1615,80
1616,80
1617,80
1618,80
1619,80
1620,80
1621,80
1622,80
1623,80
1624,80
1625,80
1626,80
1627,80
1628,80
1629,80
1630,80
1631,80
1632,80
1633,80
1634,81
1635,81
1636,81
1637,81
1638,81
1639,81
1640,81
1641,81
1642,81
1643,81
1644,81
1645,81
1646,81
1647,81
1648,81
1649,81
1650,81
1651,81
1652,81
1653,81
1654,81
1655,81
1656,81
1657,81
1658,81
1659,81
1660,81
1661,81
1662,81
1663,81
1664,81
1665,82
1666,82
1667,82
1668,82
1669,82
1670,82
1671,82
1672,82
1673,82
1674,82
1675,82
1676,82
1677,82
1678,82
1679,82
1680,82
1681,82
1682,82
1683,82
1684,82
1685,82
1686,82
1687,82
1688,82
1689,82
1690,82
1691,82
1692,82
1693,82
1694,82
1695,82
1696,82
1697,82
1698,82
1699,82
1700,82
1701,82
1702,82
1703,82
1704,82
1705,82
1706,82
1707,82
1708,82
1709,82
1710,82
1711,82
1712,82
1713,82
1714,82
1715,82
1716,82
1717,82
1718,82
1719,82
1720,82
1721,82
1722,82
1723,82
1724,82
1725,82
1726,82
1727,82
1728,82
1729,82
1730,82
1731,82
1732,82
1733,82
1734,82
1735,82
1736,82
1737,82
1738,82
1739,82
1740,82
1741,82
1742,82
1743,82
1744,82
1745,82
1746,82
1747,82
1748,82
1749,82
1750,82
1751,82
1752,82
1753,82
1754,82
1755,82
1756,82
1757,82
1758,82
1759,82
1760,82
1761,82
1762,82
1763,82
1764,82
1765,82
1766,82
1767,82
1768,82
1769,82
1770,82
1771,82
1772,82
1773,82
1774,82
1775,82
1776,82
1777,82
1778,82
1779,82
1780,82
1781,82
1782,82
1783,82
1784,82
1785,82
1786,82
1787,82
1788,82
1789,82
1790,82
1791,82
1792,82
1793,82
1794,82
1795,82
1796,82
1797,82
1798,82
1799,82
1800,82
1801,82
1802,82
1803,83
1804,83
1805,83
1806,83
1807,83
1808,83
1809,83
1810,83
1811,83
1812,83
1813,83
1814,83
1815,83
1816,83
1817,83
1818,83
1819,83
1820,83
1821,83
1822,83
1823,83
1824,83
1825,83
1826,83
1827,83
1828,83
1829,83
1830,83
1831,83
1832,84
1833,85
1834,85
1835,85
1836,85
1837,85
1838,85
1839,85
1840,85
1841,85
1842,85
1843,85
1844,85
1845,85
1846,85
1847,85
1848,85
1849,85
1850,85
1851,85
1852,85
1853,85
1854,85
1855,85
1856,85
1857,85
1858,85
1859,85
1860,85
1861,85
1862,85
1863,85
1864,85
1865,85
1866,85
1867,85
1868,85
1869,85
1870,85
1871,85
1872,86
1873,86
1874,86
1875,87
1876,87
1877,87
1878,87
1879,87
1880,87
1881,87
1882,87
1883,87
1884,87
1885,87
1886,87
1887,87
1888,87
1889,87
1890,87
1891,87
1892,87
1893,87
1894,88
1895,88
1896,88
1897,88
1898,88
1899,88
1900,88
1901,88
1902,88
1903,88
1904,88
1905,88
1906,88
1907,88
1908,88
1909,88
1910,88
1911,89
1912,89
1913,90
1914,90
1915,90
1916,90
1917,90
1918,90
1919,90
1920,90
1921,90
1922,90
1923,90
1924,90
1925,90
1926,90
1927,90
1928,90
1929,91
1930,91
1931,91
1932,91
1933,91
1934,91
1935,91
1936,91
1937,92
1938,92
1939,92
1940,92
1941,92
1942,92
1943,92
1944,92
1945,92
1946,92
1947,92
1948,92
1949,92
1950,92
1951,92
1952,93
1953,94
1954,94
1955,95
1956,96
1957,96
1958,96
1959,96
1960,96
1961,96
1962,96
1963,96
1964,96
1965,96
1966,96
1967,97
1968,97
1969,97
1970,97
1971,97
1972,97
1973,97
1974,97
1975,97
1976,97
1977,97
1978,97
1979,97
1980,97
1981,97
1982,97
1983,97
1984,97
1985,97
1986,97
1987,97
1988,97
1989,97
1990,97
1991,97
1992,97
1993,97
1994,97
1995,97
1996,97
1997,97
1998,97
1999,97
2000,97
