"tick","total"
0,0
1,0
2,0
3,0
4,0
5,0
6,0
7,0
8,0
9,0
10,0
11,0
12,0
13,0
14,0
15,0
16,0
17,0
18,0
19,0
20,0
21,0
22,0
23,0
24,0
25,0
26,0
27,0
28,0
29,0
30,0
31,0
32,0
33,0
34,0
35,0
36,0
37,0
38,0
39,0
40,0
41,0
42,0
43,0
44,0
45,0
46,0
47,0
48,0
49,0
50,0
51,0
52,0
53,0
54,0
55,0
56,0
57,0
58,0
59,0
60,0
61,0
62,0
63,0
64,0
65,0
66,0
67,0
68,0
69,0
70,0
71,0
72,0
73,0
74,0
75,0
76,0
77,0
78,0
79,0
80,0
81,0
82,0
83,0
84,0
85,0
86,0
87,0
88,0
89,0
90,0
91,0
92,0
93,0
94,0
95,0
96,0
97,0
98,0
99,0
100,0
101,0
102,0
103,0
104,0
105,0
106,0
107,0
108,0
109,0
110,0
111,0
112,0
113,0
114,0
115,0
116,0
117,0
118,0
119,0
120,0
121,0
122,0
123,0
124,0
125,0
126,0
127,0
128,0
129,0
130,0
131,0
132,0
133,0
134,0
135,0
136,0
137,0
138,0
139,0
140,0
141,0
142,0
143,0
144,0
145,0
146,0
147,0
148,0
149,0
150,0
151,0
152,0
153,0
154,0
155,0
156,0
157,0
158,0
159,0
160,0
161,0
162,0
163,0
164,0
165,0
166,0
167,0
168,0
169,0
170,0
171,0
172,0
173,0
174,0
175,0
176,0
177,0
178,0
179,0
180,0
181,0
182,0
183,0
184,0
185,0
186,0
187,0
188,0
189,0
190,0
191,0
192,0
193,0
194,0
195,0
196,0
197,0
198,0
199,0
200,0
201,0
202,0
203,0
204,0
205,0
206,0
207,0
208,0
209,0
210,0
211,0
212,0
213,0
214,0
215,0
216,1
217,1
218,1
219,1
220,1
221,1
222,1
223,1
224,1
225,1
226,1
227,1
228,1
229,1
230,1
231,1
232,1
233,1
234,1
235,1
236,1
237,1
238,1
239,1
240,1
241,1
242,1
243,1
244,1
245,1
246,1
247,1
248,1
249,1
250,2
251,2
252,2
253,2
254,2
255,2
256,2
257,2
258,2
259,2
260,2
261,2
262,2
263,2
264,2
265,2
266,2
267,2
268,2
269,2
270,2
271,2
272,2
273,2
274,2
275,2
276,3
277,3
278,3
279,3
280,3
281,3
282,3
283,3
284,3
285,4
286,4
287,4
288,4
289,4
290,4
291,4
292,4
293,4
294,4
295,4
296,4
297,5
298,5
299,5
300,5
301,5
302,6
303,6
304,6
305,8
306,8
307,8
308,8
309,8
310,8
311,8
312,8
313,8
314,9
315,9
316,9
317,10
318,10
319,11
320,11
321,11
322,11
323,11
324,11
325,11
326,11
327,11
328,11
329,11
330,11
331,11
332,11
333,11
334,11
335,11
336,11
337,11
338,11
339,11
340,11
341,11
342,11
343,11
344,11
345,11
346,11
347,12
348,12
349,12
350,12
351,12
352,12
353,12
354,12
355,12
356,12
357,12
358,13
359,13
360,13
361,13
362,13
363,13
364,13
365,13
366,13
367,13
368,13
369,13
370,13
371,13
372,13
373,14
374,15
375,17
376,17
377,17
378,17
379,17
380,17
381,17
382,17
383,17
384,17
385,17
386,17
387,18
388,18
389,18
390,18
391,18
392,18
393,18
394,18
395,18
396,18
397,18
398,18
399,18
400,18
401,18
402,18
403,18
404,18
405,18
406,19
407,19
408,20
409,20
410,20
411,20
412,20
413,20
414,20
415,20
416,20
417,20
418,20
419,20
420,20
421,20
422,22
423,22
424,22
425,22
426,23
427,23
428,23
429,23
430,23
431,24
432,24
433,24
434,24
435,24
436,24
437,24
438,24
439,24
440,24
441,24
442,24
443,24
444,24
445,24
446,24
447,24
448,24
449,24
450,24
451,24
452,24
453,24
454,24
455,24
456,24
457,24
458,24
459,24
460,24
461,24
462,24
463,24
464,24
465,25
466,25
467,25
468,25
469,25
470,25
471,25
472,25
473,25
474,25
475,25
476,25
477,25
478,25
479,25
480,25
481,25
482,25
483,25
484,25
485,25
486,25
487,26
488,26
489,26
490,26
491,26
492,26
493,26
494,27
495,28
496,28
497,28
498,28
499,28
500,28
501,28
502,29
503,29
504,29
505,29
506,29
507,29
508,29
509,29
510,29
511,29
512,29
513,29
514,29
515,29
516,29
517,29
518,29
519,29
520,29
521,29
522,29
523,29
524,29
525,29
526,29
527,29
528,29
529,29
530,29
531,29
532,29
533,29
534,29
535,29
536,29
537,29
538,29
539,29
540,29
541,29
542,29
543,29
544,29
545,29
546,29
547,29
548,29
549,29
550,29
551,29
552,29
553,29
554,29
555,29
556,29
557,29
558,29
559,29
560,29
561,29
562,29
563,29
564,29
565,29
566,29
567,29
568,29
569,29
570,29
571,30
572,30
573,30
574,30
575,30
576,30
577,30
578,30
579,30
580,30
581,30
582,30
583,30
584,30
585,30
586,30
587,30
588,30
589,30
590,30
591,30
592,30
593,30
594,30
595,30
596,30
597,30
598,30
599,30
600,30
601,31
602,31
603,31
604,31
605,31
606,31
607,31
608,31
609,31
610,31
611,31
612,31
613,31
614,31
615,31
616,31
617,31
618,31
619,31
620,31
621,31
622,31
623,31
624,31
625,31
626,31
627,31
628,31
629,31
630,31
631,31
632,31
633,31
634,31
635,31
636,31
637,31
638,31
639,31
640,31
641,31
642,31
643,31
644,31
645,31
646,31
647,31
648,31
649,31
650,31
651,31
652,31
653,31
654,31
655,31
656,31
657,31
658,31
659,31
660,31
661,31
662,31
663,31
664,31
665,31
666,31
667,31
668,31
669,31
670,31
671,31
672,31
673,31
674,31
675,32
676,32
677,32
678,34
679,34
680,34
681,34
682,34
683,34
684,34
685,34
686,34
687,34
688,34
689,34
690,35
691,35
692,35
693,35
694,35
695,35
696,35
697,35
698,35
699,35
700,35
701,35
702,35
703,35
704,35
705,35
706,35
707,35
708,35
709,35
710,35
711,35
712,35
713,35
714,35
715,35
716,35
717,35
718,35
719,35
720,35
721,35
722,35
723,35
724,35
725,35
726,35
727,35
728,35
729,35
730,35
731,35
732,35
733,35
734,35
735,35
736,35
737,35
738,35
739,35
740,35
741,35
742,35
743,35
744,35
745,35
746,35
747,35
748,35
749,35
750,35
751,35
752,35
753,35
754,35
755,35
756,35
757,35
758,35
759,35
760,35
761,35
762,35
763,35
764,35
765,35
766,35
767,35
768,35
769,35
770,35
771,35
772,35
773,35
774,35
775,35
776,35
777,35
778,35
779,35
780,35
781,35
782,35
783,35
784,35
785,35
786,35
787,35
788,35
789,35
790,35
791,35
792,35
793,35
794,35
795,35
796,35
797,35
798,35
799,35
800,35
801,35
802,35
803,35
804,35
805,35
806,35
807,35
808,35
809,35
810,35
811,35
812,35
813,35
814,35
815,35
816,35
817,35
818,35
819,35
820,35
821,35
822,35
823,35
824,35
825,35
826,35
827,35
828,35
829,35
830,35
831,35
832,35
833,35
834,35
835,35
836,35
837,35
838,35
839,35
840,35
841,35
842,35
843,35
844,35
845,35
846,35
847,35
848,35
849,35
850,35
851,35
852,35
853,35
854,35
855,36
856,36
857,36
858,36
859,36
860,36
861,36
862,36
863,36
864,36
865,36
866,36
867,36
868,36
869,36
870,36
871,36
872,36
873,36
874,36
875,36
876,36
877,36
878,36
879,36
880,36
881,36
882,36
883,36
884,36
885,36
886,36
887,37
888,37
889,37
890,37
891,37
892,37
893,37
894,37
895,37
896,37
897,37
898,37
899,37
900,37
901,37
902,37
903,37
904,37
905,37
906,37
907,37
908,37
909,37
910,37
911,37
912,37
913,37
914,37
915,37
916,37
917,37
918,37
919,37
920,37
921,37
922,37
923,37
924,37
925,37
926,37
927,37
928,37
929,37
930,37
931,37
932,37
933,37
934,37
935,37
936,37
937,37
938,37
939,37
940,37
941,37
942,37
943,37
944,37
945,37
946,37
947,37
948,37
949,37
950,37
951,37
952,37
953,37
954,37
955,37
956,37
957,37
958,37
959,37
960,37
961,37
962,37
963,37
964,37
965,37
966,37
967,38
968,38
969,38
970,38
971,38
972,38
973,38
974,38
975,38
976,38
977,38
978,38
979,38
980,38
981,38
982,38
983,38
984,38
985,38
986,38
987,38
988,38
989,38
990,38
991,38
992,38
993,38
994,38
995,38
996,38
997,38
998,38
999,38
1000,39
1001,39
1002,39
1003,39
1004,39
1005,39
1006,39
1007,39
1008,39
1009,39
1010,39
1011,39
1012,39
1013,39
1014,39
1015,39
1016,39
1017,39
1018,39
1019,39
1020,40
1021,40
1022,40
1023,40
1024,40
1025,40
1026,40
1027,40
1028,41
1029,41
1030,41
1031,41
1032,41
1033,41
1034,41
1035,41
1036,41
1037,41
1038,41
1039,41
1040,41
1041,41
1042,41
1043,41
1044,41
1045,41
1046,41
1047,41
1048,41
1049,41
1050,41
1051,41
1052,41
1053,41
1054,41
1055,41
1056,41
1057,41
1058,41
1059,41
1060,41
1061,41
1062,41
1063,41
1064,41
1065,41
1066,41
1067,41
1068,41
1069,41
1070,41
1071,41
1072,41
1073,41
1074,41
1075,41
1076,41
1077,41
1078,41
1079,41
1080,41
1081,41
1082,41
1083,41
1084,41
1085,41
1086,41
1087,41
1088,41
1089,41
1090,41
1091,41
1092,41
1093,41
1094,41
1095,41
1096,41
1097,41
1098,41
1099,41
1100,41
1101,41
1102,41
1103,41
1104,41
1105,41
1106,41
1107,41
1108,41
1109,41
1110,41
1111,41
1112,41
1113,41
1114,41
1115,41
1116,41
1117,41
1118,41
1119,41
1120,41
1121,41
1122,41
1123,41
1124,41
1125,41
1126,41
1127,41
1128,41
1129,41
1130,41
1131,41
1132,41
1133,41
1134,41
1135,41
1136,41
1137,41
1138,41
1139,41
1140,42
1141,42
1142,42
1143,42
1144,42
1145,42
1146,42
1147,42
1148,42
1149,42
1150,42
1151,42
1152,42
1153,42
1154,43
1155,43
1156,43
1157,43
1158,43
1159,43
1160,43
1161,43
1162,43
1163,43
1164,43
1165,43
1166,43
1167,44
1168,44
1169,44
1170,44
1171,44
1172,44
1173,44
1174,44
1175,44
1176,44
1177,44
1178,44
1179,44
1180,44
1181,44
1182,44
1183,44
1184,44
1185,44
1186,44
1187,45
1188,45
1189,45
1190,45
1191,45
1192,45
1193,45
1194,45
1195,45
1196,45
1197,46
1198,46
1199,47
1200,47
1201,47
1202,47
1203,48
1204,48
1205,48
1206,48
1207,48
1208,49
1209,49
1210,49
1211,49
1212,49
1213,49
1214,49
1215,49
1216,49
1217,49
1218,49
1219,49
1220,49
1221,50
1222,50
1223,50
1224,50
1225,50
1226,50
1227,50
1228,50
1229,50
1230,50
1231,51
1232,51
1233,51
1234,51
1235,51
1236,51
1237,51
1238,51
1239,51
1240,51
1241,51
1242,51
1243,51
1244,51
1245,51
1246,52
1247,52
1248,52
1249,52
1250,52
1251,52
1252,53
1253,53
1254,53
1255,53
1256,53
1257,53
1258,53
1259,53
1260,53
1261,53
1262,53
1263,53
1264,53
1265,53
1266,53
1267,53
1268,53
1269,53
1270,53
1271,53
1272,53
1273,53
1274,53
1275,53
1276,53
1277,53
1278,53
1279,53
1280,53
1281,53
1282,53
1283,53
1284,53
1285,53
1286,53
1287,53
1288,53
1289,54
1290,54
1291,54
1292,54
1293,54
1294,54
1295,54
1296,54
1297,54
1298,54
1299,54
1300,54
1301,54
1302,54
1303,54
1304,54
1305,54
1306,54
1307,54
1308,54
1309,54
1310,54
1311,54
1312,54
1313,54
1314,54
1315,54
1316,54
1317,54
1318,54
1319,54
1320,54
1321,54
1322,54
1323,54
1324,54
1325,54
1326,54
1327,54
1328,54
1329,54
1330,54
1331,54
1332,54
1333,54
1334,54
1335,54
1336,54
1337,54
1338,54
1339,54
1340,54
1341,54
1342,54
1343,54
1344,54
1345,54
1346,54
1347,54
1348,55
1349,55
1350,55
1351,55
1352,55
1353,55
1354,55
1355,55
1356,55
1357,55
1358,55
1359,55
1360,55
1361,55
1362,55
1363,55
1364,55
1365,55
1366,55
1367,55
1368,55
1369,55
1370,55
1371,55
1372,55
1373,55
1374,55
1375,55
1376,56
1377,56
1378,56
1379,57
1380,57
1381,57
1382,57
1383,57
1384,58
1385,58
1386,59
1387,60
1388,60
1389,60
1390,60
1391,60
1392,60
1393,60
1394,60
1395,60
1396,60
1397,60
1398,60
1399,60
1400,60
1401,60
1402,60
1403,60
1404,60
1405,60
1406,60
1407,60
1408,60
1409,60
1410,60
1411,60
1412,60
1413,60
1414,60
1415,60
1416,60
1417,60
1418,60
1419,60
1420,60
1421,61
1422,61
1423,61
1424,62
1425,62
1426,62
1427,62
1428,62
1429,62
1430,62
1431,62
1432,62
1433,62
1434,62
1435,62
1436,62
1437,62
1438,62
1439,62
1440,62
1441,62
1442,62
1443,62
1444,62
1445,62
1446,62
1447,62
1448,62
1449,62
1450,62
1451,62
1452,62
1453,62
1454,62
1455,62
1456,62
1457,62
1458,62
1459,62
1460,62
1461,62
1462,62
1463,62
1464,62
1465,62
1466,62
1467,62
1468,62
1469,62
1470,62
1471,62
1472,62
1473,62
1474,62
1475,62
1476,62
1477,62
1478,62
1479,62
1480,62
1481,62
1482,62
1483,62
1484,62
1485,62
1486,62
1487,62
1488,62
1489,62
1490,62
1491,62
1492,62
1493,62
1494,62
1495,62
1496,62
1497,62
1498,62
1499,64
1500,64
1501,64
1502,64
1503,64
1504,64
1505,64
1506,64
1507,64
1508,64
1509,64
1510,65
1511,65
1512,65
1513,65
1514,65
1515,65
1516,65
1517,65
1518,65
1519,65
1520,65
1521,65
1522,65
1523,65
1524,65
1525,65
1526,65
1527,65
1528,65
1529,65
1530,65
1531,65
1532,65
1533,65
1534,65
1535,65
1536,65
1537,65
1538,65
1539,65
1540,65
1541,65
1542,65
1543,65
1544,65
1545,65
1546,65
1547,65
1548,65
1549,65
1550,65
1551,65
1552,65
1553,65
1554,65
1555,65
1556,66
1557,66
1558,66
1559,66
1560,66
1561,66
1562,67
1563,67
1564,67
1565,67
1566,67
1567,67
1568,67
1569,67
1570,67
1571,67
1572,67
1573,67
1574,67
1575,67
1576,68
1577,68
1578,68
1579,68
1580,68
1581,68
1582,68
1583,68
1584,68
1585,68
1586,68
1587,68
1588,68
1589,68
1590,68
1591,68
1592,68
1593,68
1594,68
1595,68
1596,68
1597,68
1598,68
1599,68
1600,68
1601,69
1602,69
1603,69
1604,69
1605,69
1606,70
1607,70
1608,70
1609,71
1610,71
1611,71
1612,71
1613,71
1614,71
1615,71
1616,71
1617,72
1618,72
1619,72
1620,72
1621,72
1622,72
1623,72
1624,73
1625,73
1626,73
1627,73
1628,73
1629,73
1630,73
1631,73
1632,73
1633,73
1634,73
1635,73
1636,73
1637,73
1638,73
1639,73
1640,74
1641,74
1642,74
1643,74
1644,74
1645,74
1646,74
1647,74
1648,74
1649,74
1650,75
1651,75
1652,75
1653,75
1654,75
1655,75
1656,75
1657,75
1658,75
1659,75
1660,75
1661,75
1662,75
1663,75
1664,75
1665,75
1666,75
1667,75
1668,75
1669,75
1670,75
1671,75
1672,75
1673,75
1674,75
1675,75
1676,76
1677,76
1678,76
1679,76
1680,77
1681,77
1682,78
1683,78
1684,78
1685,78
1686,78
1687,78
1688,78
1689,78
1690,78
1691,78
1692,78
1693,78
1694,78
1695,78
1696,78
1697,78
1698,78
1699,78
1700,79
1701,80
1702,80
1703,81
1704,81
1705,81
1706,81
1707,81
1708,81
1709,81
1710,81
1711,81
1712,81
1713,81
1714,81
1715,82
1716,82
1717,82
1718,82
1719,82
1720,82
1721,82
1722,82
1723,82
1724,82
1725,82
1726,82
1727,82
1728,82
1729,82
1730,83
1731,83
1732,84
1733,84
1734,84
1735,84
1736,84
1737,84
1738,84
1739,84
1740,84
1741,84
1742,84
1743,84
1744,84
1745,84
1746,84
1747,84
1748,84
1749,84
1750,84
1751,84
1752,84
1753,84
1754,84
1755,85
1756,85
1757,85
1758,85
1759,85
1760,85
1761,85
1762,85
1763,85
1764,85
1765,85
1766,86
1767,86
1768,86
1769,86
1770,86
1771,86
1772,86
1773,86
1774,86
1775,86
1776,86
1777,86
1778,86
1779,86
1780,86
1781,86
1782,86
1783,86
1784,86
1785,86
1786,86
1787,86
1788,86
1789,86
1790,86
1791,86
1792,86
1793,86
1794,86
1795,86
1796,86
1797,86
1798,86
1799,86
1800,86
1801,86
1802,86
1803,87
1804,88
1805,88
1806,88
1807,88
1808,88
1809,88
1810,88
1811,88
1812,88
1813,88
1814,88
1815,88
1816,88
1817,88
1818,88
1819,88
1820,88
1821,88
1822,88
1823,88
1824,88
1825,88
1826,88
1827,88
1828,88
1829,88
1830,89
1831,89
1832,89
1833,89
1834,89
1835,89
1836,89
1837,90
1838,90
1839,90
1840,90
1841,90
1842,90
1843,90
1844,90
1845,90
1846,90
1847,90
1848,90
1849,90
1850,90
1851,90
1852,90
1853,90
1854,90
1855,90
1856,90
1857,91
1858,91
1859,91
1860,91
1861,91
1862,91
1863,91
1864,91
1865,91
1866,91
1867,91
1868,91
1869,91
1870,91
1871,91
1872,91
1873,91
1874,91
1875,91
1876,91
1877,91
1878,91
1879,91
1880,91
1881,92
1882,92
1883,92
1884,92
1885,92
1886,92
1887,92
1888,92
1889,92
1890,92
1891,92
1892,92
1893,92
1894,92
1895,92
1896,92
1897,92
1898,92
1899,92
1900,92
1901,92
1902,92
1903,92
1904,92
1905,92
1906,93
1907,93
1908,93
1909,93
1910,93
1911,93
1912,93
1913,93
1914,93
1915,93
1916,93
1917,93
1918,93
1919,93
1920,93
1921,93
1922,93
1923,93
1924,93
1925,94
1926,94
1927,94
1928,94
1929,94
1930,94
1931,94
1932,94
1933,94
1934,94
1935,94
1936,94
1937,94
1938,94
1939,94
1940,94
1941,94
1942,94
1943,94
1944,94
1945,94
1946,94
1947,94
1948,94
1949,94
1950,94
1951,94
1952,94
1953,94
1954,94
1955,94
1956,94
1957,94
1958,94
1959,94
1960,94
1961,94
1962,94
1963,94
1964,94
1965,94
1966,94
1967,94
1968,94
1969,94
1970,94
1971,94
1972,94
1973,94
1974,94
1975,94
1976,94
1977,94
1978,94
1979,94
1980,94
1981,94
1982,94
1983,95
1984,95
1985,95
1986,95
1987,95
1988,95
1989,95
1990,95
1991,95
1992,95
1993,95
1994,96
1995,96
1996,96
1997,96
1998,96
1999,96
2000,96
