"tick","susceptible","exposed","infectious","recovered"
0,99,1,0,0
1,99,1,0,0
2,99,1,0,0
3,99,1,0,0
4,99,1,0,0
5,99,1,0,0
6,99,1,0,0
7,99,1,0,0
8,99,1,0,0
9,99,1,0,0
10,99,1,0,0
11,99,1,0,0
12,99,1,0,0
13,99,1,0,0
14,99,1,0,0
15,99,1,0,0
16,99,1,0,0
17,99,1,0,0
18,99,1,0,0
19,99,1,0,0
20,99,1,0,0
21,99,1,0,0
22,99,1,0,0
23,99,1,0,0
24,99,1,0,0
25,99,1,0,0
26,99,1,0,0
27,99,1,0,0
28,99,1,0,0
29,99,1,0,0
30,99,1,0,0
31,99,1,0,0
32,99,1,0,0
33,99,1,0,0
34,99,1,0,0
35,99,1,0,0
36,99,1,0,0
37,99,1,0,0
38,99,1,0,0
39,99,1,0,0
40,99,1,0,0
41,99,1,0,0
42,99,1,0,0
43,99,1,0,0
44,99,1,0,0
45,99,1,0,0
46,99,1,0,0
47,99,1,0,0
48,99,1,0,0
49,99,1,0,0
50,99,1,0,0
51,99,1,0,0
52,99,1,0,0
53,99,1,0,0
54,99,1,0,0
55,99,1,0,0
56,99,1,0,0
57,99,1,0,0
58,99,1,0,0
59,99,1,0,0
60,99,1,0,0
61,99,1,0,0
62,99,1,0,0
63,99,1,0,0
64,99,1,0,0
65,99,1,0,0
66,99,1,0,0
67,99,1,0,0
68,99,1,0,0
69,99,1,0,0
70,99,1,0,0
71,99,1,0,0
72,99,1,0,0
73,99,1,0,0
74,99,1,0,0
75,99,1,0,0
76,99,1,0,0
77,99,1,0,0
78,99,1,0,0
79,99,1,0,0
80,99,1,0,0
81,99,1,0,0
82,99,1,0,0
83,99,1,0,0
84,99,1,0,0
85,99,1,0,0
86,99,1,0,0
87,99,1,0,0
88,99,1,0,0
89,99,1,0,0
90,99,1,0,0
91,99,1,0,0
92,99,1,0,0
93,99,1,0,0
94,99,1,0,0
95,99,1,0,0
96,99,1,0,0
97,99,1,0,0
98,99,1,0,0
99,99,1,0,0
100,99,1,0,0
101,99,1,0,0
102,99,1,0,0
103,99,1,0,0
104,99,1,0,0
105,99,1,0,0
106,99,1,0,0
107,99,1,0,0
108,99,1,0,0
109,99,1,0,0
110,99,1,0,0
111,99,1,0,0
112,99,1,0,0
113,99,1,0,0
114,99,1,0,0
115,99,1,0,0
116,99,1,0,0
117,99,1,0,0
118,99,1,0,0
119,99,1,0,0
120,99,1,0,0
121,99,1,0,0
122,99,1,0,0
123,99,1,0,0
124,99,1,0,0
125,99,1,0,0
126,99,1,0,0
127,99,1,0,0
128,99,1,0,0
129,99,1,0,0
130,99,1,0,0
131,99,1,0,0
132,99,1,0,0
133,99,1,0,0
134,99,1,0,0
135,99,1,0,0
136,99,1,0,0
137,99,1,0,0
138,99,1,0,0
139,99,1,0,0
140,99,1,0,0
141,99,1,0,0
142,99,1,0,0
143,99,1,0,0
144,99,1,0,0
145,99,1,0,0
146,99,1,0,0
147,99,1,0,0
148,99,1,0,0
149,99,1,0,0
150,99,1,0,0
151,99,1,0,0
152,99,1,0,0
153,99,1,0,0
154,99,1,0,0
155,99,1,0,0
156,99,1,0,0
157,99,1,0,0
158,99,1,0,0
159,99,1,0,0
160,99,1,0,0
161,99,1,0,0
162,99,1,0,0
163,99,1,0,0
164,99,1,0,0
165,99,1,0,0
166,99,1,0,0
167,99,1,0,0
168,99,1,0,0
169,99,1,0,0
170,99,1,0,0
171,99,1,0,0
172,99,1,0,0
173,99,1,0,0
174,99,1,0,0
175,99,1,0,0
176,99,1,0,0
177,99,1,0,0
178,99,1,0,0
179,99,1,0,0
180,99,1,0,0
181,99,1,0,0
182,99,1,0,0
183,99,1,0,0
184,99,1,0,0
185,99,1,0,0
186,99,1,0,0
187,99,1,0,0
188,99,1,0,0
189,99,1,0,0
190,99,1,0,0
191,99,1,0,0
192,99,1,0,0
193,99,1,0,0
194,99,1,0,0
195,99,1,0,0
196,99,1,0,0
197,99,1,0,0
198,99,1,0,0
199,99,1,0,0
200,99,1,0,0
201,99,0,1,0
202,99,0,1,0
203,99,0,1,0
204,99,0,1,0
205,99,0,1,0
206,99,0,1,0
207,99,0,1,0
208,99,0,1,0
209,99,0,1,0
210,99,0,1,0
211,99,0,1,0
212,99,0,1,0
213,99,0,1,0
214,99,0,1,0
215,99,0,1,0
216,99,0,1,0
217,99,0,1,0
218,99,0,1,0
219,99,0,1,0
220,99,0,1,0
221,99,0,1,0
222,99,0,1,0
223,99,0,1,0
224,99,0,1,0
225,99,0,1,0
226,99,0,1,0
227,99,0,1,0
228,99,0,1,0
229,99,0,1,0
230,99,0,1,0
231,99,0,1,0
232,99,0,1,0
233,99,0,1,0
234,99,0,1,0
235,99,0,1,0
236,99,0,1,0
237,99,0,1,0
238,99,0,1,0
239,99,0,1,0
240,99,0,1,0
241,99,0,1,0
242,99,0,1,0
243,99,0,1,0
244,99,0,1,0
245,99,0,1,0
246,99,0,1,0
247,99,0,1,0
248,99,0,1,0
249,99,0,1,0
250,99,0,1,0
251,99,0,1,0
252,99,0,1,0
253,99,0,1,0
254,99,0,1,0
255,99,0,1,0
256,99,0,1,0
257,99,0,1,0
258,99,0,1,0
259,99,0,1,0
260,99,0,1,0
261,99,0,1,0
262,99,0,1,0
263,99,0,1,0
264,99,0,1,0
265,99,0,1,0
266,99,0,1,0
267,99,0,1,0
268,99,0,1,0
269,99,0,1,0
270,99,0,1,0
271,99,0,1,0
272,99,0,1,0
273,99,0,1,0
274,99,0,1,0
275,99,0,1,0
276,99,0,1,0
277,99,0,1,0
278,99,0,1,0
279,99,0,1,0
280,99,0,1,0
281,99,0,1,0
282,99,0,1,0
283,99,0,1,0
284,99,0,1,0
285,99,0,1,0
286,99,0,1,0
287,99,0,1,0
288,99,0,1,0
289,99,0,1,0
290,99,0,1,0
291,99,0,1,0
292,99,0,1,0
293,99,0,1,0
294,99,0,1,0
295,99,0,1,0
296,99,0,1,0
297,99,0,1,0
298,99,0,1,0
299,99,0,1,0
300,99,0,1,0
301,99,0,1,0
302,99,0,1,0
303,99,0,1,0
304,99,0,1,0
305,99,0,1,0
306,99,0,1,0
307,99,0,1,0
308,99,0,1,0
309,99,0,1,0
310,99,0,1,0
311,99,0,1,0
312,99,0,1,0
313,99,0,1,0
314,99,0,1,0
315,99,0,1,0
316,99,0,1,0
317,99,0,1,0
318,99,0,1,0
319,98,1,1,0
320,97,2,1,0
321,97,2,1,0
322,97,2,1,0
323,95,4,1,0
324,95,4,1,0
325,94,5,1,0
326,93,6,1,0
327,92,7,1,0
328,91,8,1,0
329,91,8,1,0
330,90,9,1,0
331,89,10,1,0
332,88,11,1,0
333,88,11,1,0
334,88,11,1,0
335,88,11,1,0
336,88,11,1,0
337,88,11,1,0
338,87,12,1,0
339,87,12,1,0
340,87,12,1,0
341,87,12,1,0
342,87,12,1,0
343,87,12,1,0
344,87,12,1,0
345,87,12,1,0
346,87,12,1,0
347,86,13,1,0
348,86,13,1,0
349,86,13,1,0
350,86,13,1,0
351,86,13,1,0
352,86,13,1,0
353,86,13,1,0
354,86,13,1,0
355,85,14,1,0
356,85,14,1,0
357,85,14,1,0
358,85,14,1,0
359,85,14,1,0
360,85,14,1,0
361,85,14,1,0
362,85,14,1,0
363,84,15,1,0
364,84,15,1,0
365,84,15,1,0
366,84,15,1,0
367,84,15,1,0
368,84,15,1,0
369,84,15,1,0
370,84,15,1,0
371,84,15,1,0
372,84,15,1,0
373,84,15,1,0
374,84,15,1,0
375,84,15,1,0
376,84,15,1,0
377,84,15,1,0
378,84,15,1,0
379,84,15,1,0
380,84,15,1,0
381,84,15,1,0
382,84,15,1,0
383,84,15,1,0
384,84,15,1,0
385,84,15,1,0
386,84,15,1,0
387,84,15,1,0
388,84,15,1,0
389,84,15,1,0
390,84,15,1,0
391,84,15,1,0
392,84,15,1,0
393,84,15,1,0
394,84,15,1,0
395,84,15,1,0
396,84,15,1,0
397,84,15,1,0
398,84,15,1,0
399,84,15,1,0
400,84,15,1,0
401,84,15,1,0
402,84,15,0,1
403,84,15,0,1
404,84,15,0,1
405,84,15,0,1
406,84,15,0,1
407,84,15,0,1
408,84,15,0,1
409,84,15,0,1
410,84,15,0,1
411,84,15,0,1
412,84,15,0,1
413,84,15,0,1
414,84,15,0,1
415,84,15,0,1
416,84,15,0,1
417,84,15,0,1
418,84,15,0,1
419,84,15,0,1
420,84,15,0,1
421,84,15,0,1
422,84,15,0,1
423,84,15,0,1
424,84,15,0,1
425,84,15,0,1
426,84,15,0,1
427,84,15,0,1
428,84,15,0,1
429,84,15,0,1
430,84,15,0,1
431,84,15,0,1
432,84,15,0,1
433,84,15,0,1
434,84,15,0,1
435,84,15,0,1
436,84,15,0,1
437,84,15,0,1
438,84,15,0,1
439,84,15,0,1
440,84,15,0,1
441,84,15,0,1
442,84,15,0,1
443,84,15,0,1
444,84,15,0,1
445,84,15,0,1
446,84,15,0,1
447,84,15,0,1
448,84,15,0,1
449,84,15,0,1
450,84,15,0,1
451,84,15,0,1
452,84,15,0,1
453,84,15,0,1
454,84,15,0,1
455,84,15,0,1
456,84,15,0,1
457,84,15,0,1
458,84,15,0,1
459,84,15,0,1
460,84,15,0,1
461,84,15,0,1
462,84,15,0,1
463,84,15,0,1
464,84,15,0,1
465,84,15,0,1
466,84,15,0,1
467,84,15,0,1
468,84,15,0,1
469,84,15,0,1
470,84,15,0,1
471,84,15,0,1
472,84,15,0,1
473,84,15,0,1
474,84,15,0,1
475,84,15,0,1
476,84,15,0,1
477,84,15,0,1
478,84,15,0,1
479,84,15,0,1
480,84,15,0,1
481,84,15,0,1
482,84,15,0,1
483,84,15,0,1
484,84,15,0,1
485,84,15,0,1
486,84,15,0,1
487,84,15,0,1
488,84,15,0,1
489,84,15,0,1
490,84,15,0,1
491,84,15,0,1
492,84,15,0,1
493,84,15,0,1
494,84,15,0,1
495,84,15,0,1
496,84,15,0,1
497,84,15,0,1
498,84,15,0,1
499,84,15,0,1
500,84,15,0,1
501,84,15,0,1
502,84,15,0,1
503,84,15,0,1
504,84,15,0,1
505,84,15,0,1
506,84,15,0,1
507,84,15,0,1
508,84,15,0,1
509,84,15,0,1
510,84,15,0,1
511,84,15,0,1
512,84,15,0,1
513,84,15,0,1
514,84,15,0,1
515,84,15,0,1
516,84,15,0,1
517,84,15,0,1
518,84,15,0,1
519,84,15,0,1
520,84,14,1,1
521,84,13,2,1
522,84,13,2,1
523,83,14,2,1
524,82,13,4,1
525,82,13,4,1
526,82,12,5,1
527,80,13,6,1
528,80,12,7,1
529,80,11,8,1
530,80,11,8,1
531,80,10,9,1
532,80,9,10,1
533,79,9,11,1
534,79,9,11,1
535,79,9,11,1
536,79,9,11,1
537,79,9,11,1
538,79,9,11,1
539,78,9,12,1
540,78,9,12,1
541,77,10,12,1
542,77,10,12,1
543,77,10,12,1
544,75,12,12,1
545,75,12,12,1
546,75,12,12,1
547,75,12,12,1
548,75,11,13,1
549,75,11,13,1
550,74,12,13,1
551,74,12,13,1
552,74,12,13,1
553,74,12,13,1
554,74,12,13,1
555,74,12,13,1
556,74,11,14,1
557,74,11,14,1
558,73,12,14,1
559,73,12,14,1
560,73,12,14,1
561,73,12,14,1
562,73,12,14,1
563,73,12,14,1
564,73,11,15,1
565,73,11,15,1
566,72,12,15,1
567,72,12,15,1
568,72,12,15,1
569,70,14,15,1
570,70,14,15,1
571,70,14,15,1
572,70,14,15,1
573,69,15,15,1
574,69,15,15,1
575,69,15,15,1
576,69,15,15,1
577,67,17,15,1
578,66,18,15,1
579,66,18,15,1
580,66,18,15,1
581,66,18,15,1
582,66,18,15,1
583,66,18,15,1
584,66,18,15,1
585,66,18,15,1
586,66,18,15,1
587,66,18,15,1
588,66,18,15,1
589,64,20,15,1
590,64,20,15,1
591,64,20,15,1
592,64,20,15,1
593,64,20,15,1
594,64,20,15,1
595,64,20,15,1
596,64,20,15,1
597,64,20,15,1
598,64,20,15,1
599,64,20,15,1
600,64,20,15,1
601,64,20,15,1
602,64,20,15,1
603,64,20,15,1
604,63,21,15,1
605,63,21,15,1
606,63,21,15,1
607,63,21,15,1
608,63,21,15,1
609,63,21,15,1
610,62,22,15,1
611,62,22,15,1
612,62,22,15,1
613,62,22,15,1
614,62,22,15,1
615,62,22,15,1
616,61,23,15,1
617,61,23,15,1
618,61,23,15,1
619,61,23,15,1
620,60,24,15,1
621,59,25,15,1
622,59,25,15,1
623,59,25,15,1
624,59,25,15,1
625,59,25,15,1
626,59,25,15,1
627,58,26,15,1
628,58,26,15,1
629,58,26,15,1
630,57,27,15,1
631,57,27,15,1
632,57,27,15,1
633,57,27,15,1
634,57,27,15,1
635,57,27,15,1
636,57,27,15,1
637,57,27,15,1
638,57,27,15,1
639,57,27,15,1
640,57,27,15,1
641,57,27,15,1
642,57,27,15,1
643,57,27,15,1
644,57,27,15,1
645,57,27,15,1
646,57,27,15,1
647,57,27,15,1
648,57,27,15,1
649,57,27,15,1
650,57,27,15,1
651,56,28,15,1
652,56,28,15,1
653,56,28,15,1
654,55,29,15,1
655,55,29,15,1
656,55,29,15,1
657,54,30,15,1
658,54,30,15,1
659,54,30,15,1
660,54,30,15,1
661,54,30,15,1
662,54,30,15,1
663,54,30,15,1
664,54,30,15,1
665,54,30,15,1
666,54,30,15,1
667,54,30,15,1
668,54,30,15,1
669,54,30,15,1
670,54,30,15,1
671,54,30,15,1
672,54,30,15,1
673,54,30,15,1
674,54,30,15,1
675,54,30,15,1
676,54,30,15,1
677,54,30,15,1
678,54,30,15,1
679,54,30,15,1
680,54,30,15,1
681,54,30,15,1
682,54,30,15,1
683,54,30,15,1
684,54,30,15,1
685,54,30,15,1
686,54,30,15,1
687,53,31,15,1
688,53,31,15,1
689,53,31,15,1
690,53,31,15,1
691,53,31,15,1
692,53,31,15,1
693,53,31,15,1
694,53,31,15,1
695,52,32,15,1
696,52,32,15,1
697,51,33,15,1
698,51,33,15,1
699,51,33,15,1
700,51,33,15,1
701,51,33,15,1
702,51,33,15,1
703,51,33,15,1
704,51,33,15,1
705,51,33,15,1
706,51,33,15,1
707,51,33,15,1
708,51,33,15,1
709,51,33,15,1
710,51,33,15,1
711,50,34,15,1
712,50,34,15,1
713,50,34,15,1
714,50,34,15,1
715,50,34,15,1
716,50,34,15,1
717,49,35,15,1
718,49,35,15,1
719,49,35,15,1
720,49,35,15,1
721,49,35,14,2
722,48,36,13,3
723,48,36,13,3
724,48,35,14,3
725,48,34,13,5
726,48,34,13,5
727,48,34,12,6
728,48,32,13,7
729,48,32,12,8
730,48,32,11,9
731,48,32,11,9
732,48,32,10,10
733,48,32,9,11
734,48,31,9,12
735,48,31,9,12
736,48,31,9,12
737,48,31,9,12
738,48,31,9,12
739,48,31,9,12
740,48,30,9,13
741,48,30,9,13
742,48,29,10,13
743,48,29,10,13
744,47,30,10,13
745,47,28,12,13
746,47,28,12,13
747,47,28,12,13
748,47,28,12,13
749,46,29,11,14
750,46,29,11,14
751,46,28,12,14
752,46,28,12,14
753,46,28,12,14
754,46,28,12,14
755,46,28,12,14
756,46,28,12,14
757,46,28,11,15
758,46,28,11,15
759,46,27,12,15
760,46,27,12,15
761,46,27,12,15
762,46,27,12,15
763,46,27,12,15
764,46,27,12,15
765,46,27,11,16
766,46,27,11,16
767,45,27,12,16
768,45,27,12,16
769,45,27,12,16
770,45,25,14,16
771,44,26,14,16
772,43,27,14,16
773,43,27,14,16
774,43,26,15,16
775,43,26,15,16
776,43,26,15,16
777,43,26,15,16
778,43,24,17,16
779,43,23,18,16
780,43,23,18,16
781,42,24,18,16
782,42,24,18,16
783,42,24,18,16
784,42,24,18,16
785,42,24,18,16
786,42,24,18,16
787,42,24,18,16
788,42,24,18,16
789,42,24,18,16
790,41,23,20,16
791,41,23,20,16
792,40,24,20,16
793,39,25,20,16
794,39,25,20,16
795,39,25,20,16
796,39,25,20,16
797,39,25,20,16
798,39,25,20,16
799,39,25,20,16
800,39,25,20,16
801,39,25,20,16
802,39,25,20,16
803,39,25,20,16
804,39,25,20,16
805,39,24,21,16
806,39,24,21,16
807,39,24,21,16
808,39,24,21,16
809,39,24,21,16
810,38,25,21,16
811,38,24,22,16
812,38,24,22,16
813,38,24,22,16
814,38,24,22,16
815,37,25,22,16
816,36,26,22,16
817,36,25,23,16
818,36,25,23,16
819,36,25,23,16
820,36,25,23,16
821,36,24,24,16
822,36,23,25,16
823,36,23,25,16
824,36,23,25,16
825,36,23,25,16
826,36,23,25,16
827,36,23,25,16
828,36,22,26,16
829,36,22,26,16
830,36,22,26,16
831,36,21,27,16
832,36,21,27,16
833,36,21,27,16
834,36,21,27,16
835,36,21,27,16
836,36,21,27,16
837,36,21,27,16
838,36,21,27,16
839,36,21,27,16
840,36,21,27,16
841,36,21,27,16
842,36,21,27,16
843,36,21,27,16
844,36,21,27,16
845,36,21,27,16
846,36,21,27,16
847,36,21,27,16
848,36,21,27,16
849,35,22,27,16
850,35,22,27,16
851,35,22,27,16
852,35,21,28,16
853,35,21,28,16
854,35,21,28,16
855,35,20,29,16
856,35,20,29,16
857,35,20,29,16
858,35,19,30,16
859,35,19,30,16
860,35,19,30,16
861,34,20,30,16
862,34,20,30,16
863,34,20,30,16
864,34,20,30,16
865,34,20,30,16
866,34,20,30,16
867,34,20,30,16
868,34,20,30,16
869,34,20,30,16
870,34,20,30,16
871,34,20,30,16
872,34,20,30,16
873,33,21,30,16
874,33,21,30,16
875,33,21,30,16
876,33,21,30,16
877,33,21,30,16
878,33,21,30,16
879,33,21,30,16
880,33,21,30,16
881,33,21,30,16
882,33,21,30,16
883,33,21,30,16
884,33,21,30,16
885,33,21,30,16
886,33,21,30,16
887,33,21,30,16
888,33,20,31,16
889,30,23,31,16
890,30,23,31,16
891,30,23,31,16
892,30,23,31,16
893,30,23,31,16
894,30,23,31,16
895,30,23,31,16
896,29,23,32,16
897,29,23,32,16
898,29,22,33,16
899,29,22,33,16
900,29,22,33,16
901,29,22,33,16
902,29,22,33,16
903,29,22,33,16
904,29,22,33,16
905,29,22,33,16
906,29,22,33,16
907,29,22,33,16
908,29,22,33,16
909,29,22,33,16
910,29,22,33,16
911,28,23,33,16
912,28,22,34,16
913,28,22,34,16
914,28,22,34,16
915,28,22,34,16
916,28,22,34,16
917,27,23,34,16
918,27,22,35,16
919,27,22,35,16
920,27,22,35,16
921,27,22,35,16
922,27,22,35,16
923,26,22,36,16
924,26,22,36,16
925,26,22,35,17
926,25,23,34,18
927,25,23,34,18
928,25,23,34,18
929,25,23,32,20
930,25,23,32,20
931,25,23,32,20
932,25,23,32,20
933,24,24,32,20
934,23,25,32,20
935,23,25,31,21
936,23,25,31,21
937,23,25,31,21
938,23,25,31,21
939,23,25,31,21
940,23,25,31,21
941,23,25,30,22
942,23,25,30,22
943,23,25,29,23
944,23,25,29,23
945,23,24,30,23
946,23,24,28,25
947,23,24,28,25
948,23,24,28,25
949,23,24,28,25
950,23,23,29,25
951,23,23,29,25
952,23,23,28,26
953,21,25,28,26
954,21,25,28,26
955,21,25,28,26
956,21,25,28,26
957,21,25,28,26
958,21,25,28,26
959,21,25,28,26
960,21,25,27,27
961,21,25,27,27
962,21,25,27,27
963,20,26,27,27
964,20,26,27,27
965,20,26,27,27
966,20,26,27,27
967,20,26,27,27
968,20,25,27,28
969,20,25,27,28
970,20,25,27,28
971,20,25,25,30
972,20,24,26,30
973,20,23,27,30
974,20,23,27,30
975,19,24,26,31
976,19,24,26,31
977,19,24,26,31
978,19,24,26,31
979,19,24,24,33
980,19,24,23,34
981,18,25,23,34
982,18,24,24,34
983,18,24,24,34
984,18,24,24,34
985,18,24,24,34
986,18,24,24,34
987,18,24,24,34
988,18,24,24,34
989,17,25,24,34
990,17,25,24,34
991,17,24,23,36
992,17,24,23,36
993,17,23,24,36
994,17,22,25,36
995,17,22,25,36
996,17,22,25,36
997,17,22,25,36
998,17,22,25,36
999,17,22,25,36
1000,17,22,25,36
1001,17,22,25,36
1002,17,22,25,36
1003,17,22,25,36
1004,17,22,25,36
1005,16,23,25,36
1006,16,23,24,37
1007,16,23,24,37
1008,15,24,24,37
1009,15,24,24,37
1010,15,24,24,37
1011,15,23,25,37
1012,15,23,24,38
1013,15,23,24,38
1014,15,23,24,38
1015,15,23,24,38
1016,15,22,25,38
1017,15,21,26,38
1018,15,21,25,39
1019,15,21,25,39
1020,15,21,25,39
1021,15,21,25,39
1022,15,21,24,40
1023,15,21,23,41
1024,15,21,23,41
1025,15,21,23,41
1026,15,21,23,41
1027,14,22,23,41
1028,14,22,23,41
1029,14,22,22,42
1030,14,22,22,42
1031,14,22,22,42
1032,14,22,21,43
1033,14,22,21,43
1034,14,22,21,43
1035,14,22,21,43
1036,14,22,21,43
1037,14,22,21,43
1038,14,22,21,43
1039,14,22,21,43
1040,14,22,21,43
1041,14,22,21,43
1042,14,22,21,43
1043,14,22,21,43
1044,14,22,21,43
1045,14,22,21,43
1046,14,22,21,43
1047,14,22,21,43
1048,14,22,21,43
1049,14,22,21,43
1050,14,21,22,43
1051,14,21,22,43
1052,14,21,22,43
1053,14,21,21,44
1054,14,21,21,44
1055,14,21,21,44
1056,14,21,20,45
1057,14,21,20,45
1058,14,21,20,45
1059,14,21,19,46
1060,14,21,19,46
1061,14,21,19,46
1062,14,20,20,46
1063,13,21,20,46
1064,12,22,20,46
1065,12,22,20,46
1066,12,22,20,46
1067,12,22,20,46
1068,11,23,20,46
1069,11,23,20,46
1070,11,23,20,46
1071,11,23,20,46
1072,11,23,20,46
1073,11,23,20,46
1074,11,22,21,46
1075,11,22,21,46
1076,11,22,21,46
1077,11,22,21,46
1078,11,22,21,46
1079,11,22,21,46
1080,11,22,21,46
1081,11,22,21,46
1082,11,22,21,46
1083,11,22,21,46
1084,11,22,21,46
1085,11,22,21,46
1086,11,22,21,46
1087,11,22,21,46
1088,11,22,21,46
1089,11,22,20,47
1090,11,19,23,47
1091,11,19,23,47
1092,11,19,23,47
1093,11,19,23,47
1094,11,19,23,47
1095,11,19,23,47
1096,11,19,23,47
1097,11,18,23,48
1098,11,18,23,48
1099,11,18,22,49
1100,11,18,22,49
1101,11,18,22,49
1102,11,18,22,49
1103,11,18,22,49
1104,11,18,22,49
1105,11,18,22,49
1106,11,18,22,49
1107,11,18,22,49
1108,11,18,22,49
1109,11,18,22,49
1110,11,18,22,49
1111,11,18,22,49
1112,11,17,23,49
1113,11,17,22,50
1114,11,17,22,50
1115,11,17,22,50
1116,11,17,22,50
1117,11,17,22,50
1118,11,16,23,50
1119,11,16,22,51
1120,11,16,22,51
1121,11,16,22,51
1122,11,16,22,51
1123,11,16,22,51
1124,11,15,22,52
1125,11,15,22,52
1126,11,15,22,52
1127,11,14,23,52
1128,11,14,23,52
1129,10,15,23,52
1130,10,15,23,52
1131,10,15,23,52
1132,10,15,23,52
1133,10,15,23,52
1134,10,14,24,52
1135,10,13,25,52
1136,10,13,25,52
1137,10,13,25,52
1138,10,13,25,52
1139,10,13,25,52
1140,10,13,25,52
1141,10,13,25,52
1142,10,13,25,52
1143,10,13,25,52
1144,10,13,25,52
1145,10,13,25,52
1146,10,13,24,53
1147,10,13,24,53
1148,10,13,24,53
1149,10,13,24,53
1150,9,14,24,53
1151,9,14,23,54
1152,9,14,23,54
1153,9,14,23,54
1154,9,12,25,54
1155,9,12,25,54
1156,9,12,25,54
1157,9,12,25,54
1158,8,13,25,54
1159,8,13,25,54
1160,8,13,25,54
1161,8,13,25,54
1162,8,13,25,54
1163,8,13,25,54
1164,8,12,26,54
1165,8,12,26,54
1166,8,12,26,54
1167,8,12,26,54
1168,8,12,26,54
1169,8,12,25,55
1170,8,12,25,55
1171,8,12,25,55
1172,8,12,25,55
1173,8,12,24,56
1174,8,12,23,57
1175,8,12,23,57
1176,8,11,24,57
1177,8,11,24,57
1178,8,11,24,57
1179,8,11,24,57
1180,8,11,24,57
1181,8,11,24,57
1182,8,10,25,57
1183,8,10,24,58
1184,8,10,24,58
1185,8,10,24,58
1186,8,10,24,58
1187,8,10,24,58
1188,8,10,24,58
1189,8,10,24,58
1190,8,9,25,58
1191,8,9,25,58
1192,8,9,24,59
1193,8,9,24,59
1194,8,9,23,60
1195,8,9,22,61
1196,8,9,22,61
1197,8,9,22,61
1198,8,9,22,61
1199,8,9,22,61
1200,8,9,22,61
1201,8,9,22,61
1202,8,9,22,61
1203,8,9,22,61
1204,8,9,22,61
1205,7,10,22,61
1206,7,9,23,61
1207,7,9,23,61
1208,7,9,23,61
1209,7,8,24,61
1210,7,8,24,61
1211,7,8,24,61
1212,7,8,23,62
1213,7,8,23,62
1214,7,8,23,62
1215,7,8,23,62
1216,7,8,23,62
1217,7,8,22,63
1218,7,8,21,64
1219,7,8,21,64
1220,7,8,21,64
1221,7,8,21,64
1222,7,8,21,64
1223,7,8,21,64
1224,7,8,21,64
1225,7,8,21,64
1226,6,9,21,64
1227,6,9,21,64
1228,6,8,22,64
1229,6,8,22,64
1230,6,8,22,64
1231,6,8,22,64
1232,6,8,22,64
1233,6,8,22,64
1234,6,8,22,64
1235,6,8,22,64
1236,6,8,22,64
1237,6,8,22,64
1238,6,8,22,64
1239,6,8,22,64
1240,6,8,22,64
1241,6,8,22,64
1242,6,8,22,64
1243,6,8,22,64
1244,6,8,22,64
1245,6,8,22,64
1246,6,8,22,64
1247,6,8,22,64
1248,6,8,22,64
1249,6,8,22,64
1250,6,8,22,64
1251,6,8,21,65
1252,6,8,21,65
1253,6,8,21,65
1254,6,8,21,65
1255,6,8,21,65
1256,6,8,21,65
1257,6,8,21,65
1258,6,8,21,65
1259,6,8,21,65
1260,6,8,21,65
1261,6,8,21,65
1262,6,8,21,65
1263,6,8,20,66
1264,6,7,21,66
1265,6,6,22,66
1266,6,6,22,66
1267,6,6,22,66
1268,6,6,22,66
1269,6,5,23,66
1270,6,5,23,66
1271,6,5,23,66
1272,6,5,23,66
1273,6,5,23,66
1274,6,5,23,66
1275,6,5,22,67
1276,6,5,22,67
1277,6,5,22,67
1278,6,5,22,67
1279,6,5,22,67
1280,6,5,22,67
1281,6,5,22,67
1282,6,5,22,67
1283,6,5,22,67
1284,6,5,22,67
1285,6,5,22,67
1286,6,5,22,67
1287,6,5,22,67
1288,6,5,22,67
1289,6,5,22,67
1290,6,5,22,67
1291,6,5,19,70
1292,6,5,19,70
1293,6,5,19,70
1294,5,6,19,70
1295,5,6,19,70
1296,5,6,19,70
1297,5,6,19,70
1298,5,6,18,71
1299,5,6,18,71
1300,5,6,18,71
1301,5,6,18,71
1302,5,6,18,71
1303,5,6,18,71
1304,5,6,18,71
1305,5,6,18,71
1306,5,6,18,71
1307,5,6,18,71
1308,5,6,18,71
1309,5,6,18,71
1310,5,6,18,71
1311,5,6,18,71
1312,5,6,18,71
1313,5,6,17,72
1314,5,6,17,72
1315,5,6,17,72
1316,5,6,17,72
1317,5,6,17,72
1318,5,6,17,72
1319,5,6,16,73
1320,5,6,16,73
1321,5,6,16,73
1322,5,6,16,73
1323,5,6,16,73
1324,5,6,16,73
1325,5,6,15,74
1326,5,6,15,74
1327,5,6,15,74
1328,5,6,14,75
1329,5,6,14,75
1330,5,5,15,75
1331,5,5,15,75
1332,5,5,15,75
1333,5,5,15,75
1334,5,5,15,75
1335,5,5,14,76
1336,5,5,13,77
1337,5,5,13,77
1338,5,5,13,77
1339,5,5,13,77
1340,5,5,13,77
1341,5,5,13,77
1342,5,5,13,77
1343,5,5,13,77
1344,5,5,13,77
1345,5,5,13,77
1346,5,5,13,77
1347,5,5,13,77
1348,5,5,13,77
1349,5,5,13,77
1350,5,5,13,77
1351,5,4,14,77
1352,4,5,14,77
1353,4,5,14,77
1354,4,5,14,77
1355,4,5,12,79
1356,4,5,12,79
1357,4,5,12,79
1358,4,5,12,79
1359,4,4,13,79
1360,4,4,13,79
1361,4,4,13,79
1362,4,4,13,79
1363,4,4,13,79
1364,4,4,13,79
1365,4,4,12,80
1366,4,4,12,80
1367,4,4,12,80
1368,4,4,12,80
1369,4,4,12,80
1370,4,4,12,80
1371,4,4,12,80
1372,4,4,12,80
1373,4,4,12,80
1374,4,4,12,80
1375,4,4,12,80
1376,4,4,12,80
1377,4,4,11,81
1378,4,4,11,81
1379,4,4,11,81
1380,4,4,11,81
1381,4,4,11,81
1382,4,4,11,81
1383,4,4,10,82
1384,4,4,10,82
1385,4,4,10,82
1386,4,4,10,82
1387,4,4,10,82
1388,4,4,10,82
1389,4,4,10,82
1390,4,4,10,82
1391,4,4,9,83
1392,4,4,9,83
1393,4,4,9,83
1394,4,4,9,83
1395,4,4,9,83
1396,4,4,9,83
1397,4,4,9,83
1398,4,4,9,83
1399,4,4,9,83
1400,4,4,9,83
1401,4,4,9,83
1402,4,4,9,83
1403,4,4,9,83
1404,4,4,9,83
1405,4,4,9,83
1406,4,3,10,83
1407,4,3,9,84
1408,4,3,9,84
1409,4,3,9,84
1410,4,3,8,85
1411,4,3,8,85
1412,4,3,8,85
1413,4,3,8,85
1414,4,3,8,85
1415,4,3,8,85
1416,4,3,8,85
1417,4,3,8,85
1418,4,3,8,85
1419,4,3,8,85
1420,4,3,8,85
1421,4,3,8,85
1422,4,3,8,85
1423,4,3,8,85
1424,4,3,8,85
1425,4,3,8,85
1426,4,3,8,85
1427,4,2,9,85
1428,4,2,9,85
1429,4,2,8,86
1430,4,2,8,86
1431,4,2,8,86
1432,4,2,8,86
1433,4,2,8,86
1434,4,2,8,86
1435,4,2,8,86
1436,4,2,8,86
1437,4,2,8,86
1438,4,2,8,86
1439,4,2,8,86
1440,4,2,8,86
1441,4,2,8,86
1442,4,2,8,86
1443,4,2,8,86
1444,4,2,8,86
1445,4,2,8,86
1446,4,2,8,86
1447,4,2,8,86
1448,4,2,8,86
1449,4,2,8,86
1450,4,2,8,86
1451,4,2,8,86
1452,4,2,8,86
1453,3,3,8,86
1454,3,3,8,86
1455,3,3,8,86
1456,3,3,8,86
1457,3,3,8,86
1458,3,3,8,86
1459,3,3,8,86
1460,3,3,8,86
1461,3,3,8,86
1462,3,3,8,86
1463,3,3,8,86
1464,3,3,8,86
1465,3,3,7,87
1466,3,3,6,88
1467,3,3,6,88
1468,3,3,6,88
1469,3,3,6,88
1470,3,3,5,89
1471,3,3,5,89
1472,3,3,5,89
1473,3,3,5,89
1474,3,3,5,89
1475,3,3,5,89
1476,3,3,5,89
1477,3,3,5,89
1478,3,3,5,89
1479,3,3,5,89
1480,3,3,5,89
1481,3,3,5,89
1482,3,3,5,89
1483,3,3,5,89
1484,3,3,5,89
1485,3,3,5,89
1486,3,3,5,89
1487,3,3,5,89
1488,3,3,5,89
1489,3,3,5,89
1490,3,3,5,89
1491,3,3,5,89
1492,3,3,5,89
1493,3,3,5,89
1494,3,3,5,89
1495,3,2,6,89
1496,3,2,6,89
1497,3,2,6,89
1498,3,2,6,89
1499,3,2,6,89
1500,3,2,6,89
1501,3,2,6,89
1502,3,2,6,89
1503,3,2,6,89
1504,3,2,6,89
1505,3,2,6,89
1506,3,2,6,89
1507,3,2,6,89
1508,3,2,6,89
1509,3,2,6,89
1510,3,2,6,89
1511,3,2,6,89
1512,3,2,6,89
1513,3,2,6,89
1514,3,2,6,89
1515,3,2,6,89
1516,3,2,6,89
1517,3,2,6,89
1518,3,2,6,89
1519,3,2,6,89
1520,3,2,6,89
1521,3,2,6,89
1522,3,2,6,89
1523,3,2,6,89
1524,3,2,6,89
1525,3,2,6,89
1526,3,2,6,89
1527,3,2,6,89
1528,3,2,6,89
1529,3,2,6,89
1530,3,2,6,89
1531,3,2,5,90
1532,3,2,5,90
1533,3,2,5,90
1534,3,2,5,90
1535,3,2,5,90
1536,3,2,5,90
1537,3,2,5,90
1538,3,2,5,90
1539,3,2,5,90
1540,3,2,5,90
1541,3,2,5,90
1542,3,2,5,90
1543,3,2,5,90
1544,3,2,5,90
1545,3,2,5,90
1546,3,2,5,90
1547,3,2,5,90
1548,3,2,5,90
1549,3,2,5,90
1550,3,2,5,90
1551,3,2,5,90
1552,3,2,4,91
1553,3,1,5,91
1554,3,1,5,91
1555,3,1,5,91
1556,3,1,5,91
1557,3,1,5,91
1558,3,1,5,91
1559,3,1,5,91
1560,3,1,4,92
1561,3,1,4,92
1562,3,1,4,92
1563,3,1,4,92
1564,3,1,4,92
1565,3,1,4,92
1566,3,1,4,92
1567,3,1,4,92
1568,3,1,4,92
1569,3,1,4,92
1570,3,1,4,92
1571,3,1,4,92
1572,3,1,4,92
1573,3,1,4,92
1574,3,1,4,92
1575,3,1,4,92
1576,3,1,4,92
1577,3,1,4,92
1578,3,1,4,92
1579,3,1,4,92
1580,3,1,4,92
1581,3,1,4,92
1582,3,1,4,92
1583,3,1,4,92
1584,3,1,4,92
1585,3,1,4,92
1586,3,1,4,92
1587,3,1,4,92
1588,3,1,4,92
1589,3,1,4,92
1590,3,1,4,92
1591,3,1,4,92
1592,3,1,4,92
1593,3,1,4,92
1594,3,1,4,92
1595,3,1,4,92
1596,3,1,4,92
1597,3,1,4,92
1598,3,1,4,92
1599,3,1,4,92
1600,3,1,4,92
1601,3,1,4,92
1602,3,1,4,92
1603,3,1,4,92
1604,3,1,4,92
1605,3,1,4,92
1606,3,1,4,92
1607,3,1,3,93
1608,3,1,3,93
1609,3,1,3,93
1610,3,1,3,93
1611,3,1,3,93
1612,3,1,3,93
1613,3,1,3,93
1614,3,1,3,93
1615,3,1,3,93
1616,3,1,3,93
1617,3,1,3,93
1618,3,1,3,93
1619,3,1,3,93
1620,3,1,3,93
1621,3,1,3,93
1622,3,1,3,93
1623,3,1,3,93
1624,3,1,3,93
1625,3,1,3,93
1626,3,1,3,93
1627,3,1,3,93
1628,3,1,2,94
1629,3,1,2,94
1630,3,1,2,94
1631,3,1,2,94
1632,3,1,2,94
1633,3,1,2,94
1634,3,1,2,94
1635,3,1,2,94
1636,3,1,2,94
1637,3,1,2,94
1638,3,1,2,94
1639,3,1,2,94
1640,3,1,2,94
1641,3,1,2,94
1642,3,1,2,94
1643,3,1,2,94
1644,3,1,2,94
1645,3,1,2,94
1646,3,1,2,94
1647,3,1,2,94
1648,3,1,2,94
1649,3,1,2,94
1650,3,1,2,94
1651,3,1,2,94
1652,3,1,2,94
1653,3,1,2,94
1654,3,0,3,94
1655,3,0,3,94
1656,3,0,3,94
1657,3,0,3,94
1658,3,0,3,94
1659,3,0,3,94
1660,3,0,3,94
1661,3,0,3,94
1662,3,0,3,94
1663,3,0,3,94
1664,3,0,3,94
1665,3,0,3,94
1666,3,0,3,94
1667,3,0,3,94
1668,3,0,3,94
1669,3,0,3,94
1670,3,0,3,94
1671,3,0,3,94
1672,3,0,3,94
1673,3,0,3,94
1674,3,0,3,94
1675,3,0,3,94
1676,3,0,3,94
1677,3,0,3,94
1678,3,0,3,94
1679,3,0,3,94
1680,3,0,3,94
1681,3,0,3,94
1682,3,0,3,94
1683,3,0,3,94
1684,3,0,3,94
1685,3,0,3,94
1686,3,0,3,94
1687,3,0,3,94
1688,3,0,3,94
1689,3,0,3,94
1690,3,0,3,94
1691,3,0,3,94
1692,3,0,3,94
1693,3,0,3,94
1694,3,0,3,94
1695,3,0,3,94
1696,3,0,2,95
1697,3,0,2,95
1698,3,0,2,95
1699,3,0,2,95
1700,3,0,2,95
1701,3,0,2,95
1702,3,0,2,95
1703,3,0,2,95
1704,3,0,2,95
1705,3,0,2,95
1706,3,0,2,95
1707,3,0,2,95
1708,3,0,2,95
1709,3,0,2,95
1710,3,0,2,95
1711,3,0,2,95
1712,3,0,2,95
1713,3,0,2,95
1714,3,0,2,95
1715,3,0,2,95
1716,3,0,2,95
1717,3,0,2,95
1718,3,0,2,95
1719,3,0,2,95
1720,3,0,2,95
1721,3,0,2,95
1722,3,0,2,95
1723,3,0,2,95
1724,3,0,2,95
1725,3,0,2,95
1726,3,0,2,95
1727,3,0,2,95
1728,3,0,2,95
1729,3,0,2,95
1730,3,0,2,95
1731,3,0,2,95
1732,3,0,2,95
1733,3,0,2,95
1734,3,0,2,95
1735,3,0,2,95
1736,3,0,2,95
1737,3,0,2,95
1738,3,0,2,95
1739,3,0,2,95
1740,3,0,2,95
1741,3,0,2,95
1742,3,0,2,95
1743,3,0,2,95
1744,3,0,2,95
1745,3,0,2,95
1746,3,0,2,95
1747,3,0,2,95
1748,3,0,2,95
1749,3,0,2,95
1750,3,0,2,95
1751,3,0,2,95
1752,3,0,2,95
1753,3,0,2,95
1754,3,0,1,96
1755,3,0,1,96
1756,3,0,1,96
1757,3,0,1,96
1758,3,0,1,96
1759,3,0,1,96
1760,3,0,1,96
1761,3,0,1,96
1762,3,0,1,96
1763,3,0,1,96
1764,3,0,1,96
1765,3,0,1,96
1766,3,0,1,96
1767,3,0,1,96
1768,3,0,1,96
1769,3,0,1,96
1770,3,0,1,96
1771,3,0,1,96
1772,3,0,1,96
1773,3,0,1,96
1774,3,0,1,96
1775,3,0,1,96
1776,3,0,1,96
1777,3,0,1,96
1778,3,0,1,96
1779,3,0,1,96
1780,3,0,1,96
1781,3,0,1,96
1782,3,0,1,96
1783,3,0,1,96
1784,3,0,1,96
1785,3,0,1,96
1786,3,0,1,96
1787,3,0,1,96
1788,3,0,1,96
1789,3,0,1,96
1790,3,0,1,96
1791,3,0,1,96
1792,3,0,1,96
1793,3,0,1,96
1794,3,0,1,96
1795,3,0,1,96
1796,3,0,1,96
1797,3,0,1,96
1798,3,0,1,96
1799,3,0,1,96
1800,3,0,1,96
1801,3,0,1,96
1802,3,0,1,96
1803,3,0,1,96
1804,3,0,1,96
1805,3,0,1,96
1806,3,0,1,96
1807,3,0,1,96
1808,3,0,1,96
1809,3,0,1,96
1810,3,0,1,96
1811,3,0,1,96
1812,3,0,1,96
1813,3,0,1,96
1814,3,0,1,96
1815,3,0,1,96
1816,3,0,1,96
1817,3,0,1,96
1818,3,0,1,96
1819,3,0,1,96
1820,3,0,1,96
1821,3,0,1,96
1822,3,0,1,96
1823,3,0,1,96
1824,3,0,1,96
1825,3,0,1,96
1826,3,0,1,96
1827,3,0,1,96
1828,3,0,1,96
1829,3,0,1,96
1830,3,0,1,96
1831,3,0,1,96
1832,3,0,1,96
1833,3,0,1,96
1834,3,0,1,96
1835,3,0,1,96
1836,3,0,1,96
1837,3,0,1,96
1838,3,0,1,96
1839,3,0,1,96
1840,3,0,1,96
1841,3,0,1,96
1842,3,0,1,96
1843,3,0,1,96
1844,3,0,1,96
1845,3,0,1,96
1846,3,0,1,96
1847,3,0,1,96
1848,3,0,1,96
1849,3,0,1,96
1850,3,0,1,96
1851,3,0,1,96
1852,3,0,1,96
1853,3,0,1,96
1854,3,0,1,96
1855,3,0,0,97
1856,3,0,0,97
1857,3,0,0,97
1858,3,0,0,97
1859,3,0,0,97
1860,3,0,0,97
1861,3,0,0,97
1862,3,0,0,97
1863,3,0,0,97
1864,3,0,0,97
1865,3,0,0,97
1866,3,0,0,97
1867,3,0,0,97
1868,3,0,0,97
1869,3,0,0,97
1870,3,0,0,97
1871,3,0,0,97
1872,3,0,0,97
1873,3,0,0,97
1874,3,0,0,97
1875,3,0,0,97
1876,3,0,0,97
1877,3,0,0,97
1878,3,0,0,97
1879,3,0,0,97
1880,3,0,0,97
1881,3,0,0,97
1882,3,0,0,97
1883,3,0,0,97
1884,3,0,0,97
1885,3,0,0,97
1886,3,0,0,97
1887,3,0,0,97
1888,3,0,0,97
1889,3,0,0,97
1890,3,0,0,97
1891,3,0,0,97
1892,3,0,0,97
1893,3,0,0,97
1894,3,0,0,97
1895,3,0,0,97
1896,3,0,0,97
1897,3,0,0,97
1898,3,0,0,97
1899,3,0,0,97
1900,3,0,0,97
1901,3,0,0,97
1902,3,0,0,97
1903,3,0,0,97
1904,3,0,0,97
1905,3,0,0,97
1906,3,0,0,97
1907,3,0,0,97
1908,3,0,0,97
1909,3,0,0,97
1910,3,0,0,97
1911,3,0,0,97
1912,3,0,0,97
1913,3,0,0,97
1914,3,0,0,97
1915,3,0,0,97
1916,3,0,0,97
1917,3,0,0,97
1918,3,0,0,97
1919,3,0,0,97
1920,3,0,0,97
1921,3,0,0,97
1922,3,0,0,97
1923,3,0,0,97
1924,3,0,0,97
1925,3,0,0,97
1926,3,0,0,97
1927,3,0,0,97
1928,3,0,0,97
1929,3,0,0,97
1930,3,0,0,97
1931,3,0,0,97
1932,3,0,0,97
1933,3,0,0,97
1934,3,0,0,97
1935,3,0,0,97
1936,3,0,0,97
1937,3,0,0,97
1938,3,0,0,97
1939,3,0,0,97
1940,3,0,0,97
1941,3,0,0,97
1942,3,0,0,97
1943,3,0,0,97
1944,3,0,0,97
1945,3,0,0,97
1946,3,0,0,97
1947,3,0,0,97
1948,3,0,0,97
1949,3,0,0,97
1950,3,0,0,97
1951,3,0,0,97
1952,3,0,0,97
1953,3,0,0,97
1954,3,0,0,97
1955,3,0,0,97
1956,3,0,0,97
1957,3,0,0,97
1958,3,0,0,97
1959,3,0,0,97
1960,3,0,0,97
1961,3,0,0,97
1962,3,0,0,97
1963,3,0,0,97
1964,3,0,0,97
1965,3,0,0,97
1966,3,0,0,97
1967,3,0,0,97
1968,3,0,0,97
1969,3,0,0,97
1970,3,0,0,97
1971,3,0,0,97
1972,3,0,0,97
1973,3,0,0,97
1974,3,0,0,97
1975,3,0,0,97
1976,3,0,0,97
1977,3,0,0,97
1978,3,0,0,97
1979,3,0,0,97
1980,3,0,0,97
1981,3,0,0,97
1982,3,0,0,97
1983,3,0,0,97
1984,3,0,0,97
1985,3,0,0,97
1986,3,0,0,97
1987,3,0,0,97
1988,3,0,0,97
1989,3,0,0,97
1990,3,0,0,97
1991,3,0,0,97
1992,3,0,0,97
1993,3,0,0,97
1994,3,0,0,97
1995,3,0,0,97
1996,3,0,0,97
1997,3,0,0,97
1998,3,0,0,97
1999,3,0,0,97
2000,3,0,0,97
