"tick","total"
0,0
1,0
2,0
3,0
4,0
5,0
6,0
7,0
8,0
9,0
10,0
11,0
12,0
13,0
14,0
15,0
16,0
17,0
18,0
19,0
20,0
21,0
22,0
23,0
24,0
25,0
26,0
27,0
28,0
29,0
30,0
31,0
32,0
33,0
34,0
35,0
36,0
37,0
38,0
39,0
40,0
41,0
42,0
43,0
44,0
45,0
46,0
47,0
48,0
49,0
50,0
51,0
52,0
53,0
54,0
55,0
56,0
57,0
58,0
59,0
60,0
61,0
62,0
63,0
64,0
65,0
66,0
67,0
68,0
69,0
70,0
71,0
72,0
73,0
74,0
75,0
76,0
77,0
78,0
79,0
80,0
81,0
82,0
83,0
84,0
85,0
86,0
87,0
88,0
89,0
90,0
91,0
92,0
93,0
94,0
95,0
96,0
97,0
98,0
99,0
100,0
101,0
102,0
103,0
104,0
105,0
106,0
107,0
108,0
109,0
110,0
111,0
112,0
113,0
114,0
115,0
116,0
117,0
118,0
119,0
120,0
121,0
122,0
123,0
124,0
125,0
126,0
127,0
128,0
129,0
130,0
131,0
132,0
133,0
134,0
135,0
136,0
137,0
138,0
139,0
140,0
141,0
142,0
143,0
144,0
145,0
146,0
147,0
148,0
149,0
150,0
151,0
152,0
153,0
154,0
155,0
156,0
157,0
158,0
159,0
160,0
161,0
162,0
163,0
164,0
165,0
166,0
167,0
168,0
169,0
170,0
171,0
172,0
173,0
174,0
175,0
176,0
177,0
178,0
179,0
180,0
181,0
182,0
183,0
184,0
185,0
186,0
187,0
188,0
189,0
190,0
191,0
192,0
193,0
194,0
195,0
196,0
197,0
198,0
199,0
200,0
201,0
202,0
203,0
204,0
205,0
206,0
207,0
208,0
209,0
210,0
211,0
212,0
213,0
214,0
215,0
216,0
217,0
218,0
219,0
220,0
221,0
222,0
223,0
224,0
225,0
226,0
227,0
228,0
229,0
230,0
231,0
232,0
233,0
234,0
235,0
236,0
237,0
238,0
239,0
240,0
241,0
242,0
243,1
244,1
245,1
246,1
247,1
248,1
249,1
250,1
251,1
252,2
253,2
254,3
255,4
256,5
257,6
258,7
259,8
260,9
261,10
262,11
263,11
264,11
265,11
266,11
267,11
268,11
269,11
270,11
271,11
272,12
273,12
274,12
275,12
276,12
277,12
278,12
279,12
280,12
281,12
282,12
283,12
284,13
285,13
286,13
287,13
288,13
289,13
290,14
291,14
292,14
293,15
294,15
295,15
296,15
297,15
298,15
299,15
300,15
301,16
302,16
303,16
304,16
305,16
306,16
307,16
308,16
309,16
310,16
311,17
312,17
313,17
314,17
315,17
316,17
317,17
318,17
319,17
320,17
321,17
322,17
323,17
324,17
325,17
326,17
327,17
328,17
329,17
330,17
331,17
332,17
333,17
334,18
335,18
336,18
337,18
338,18
339,18
340,18
341,18
342,19
343,19
344,19
345,19
346,19
347,19
348,19
349,19
350,19
351,19
352,19
353,19
354,19
355,19
356,19
357,19
358,19
359,19
360,19
361,19
362,19
363,19
364,19
365,19
366,19
367,20
368,20
369,20
370,20
371,21
372,21
373,21
374,21
375,21
376,21
377,21
378,21
379,21
380,21
381,21
382,21
383,21
384,21
385,21
386,21
387,21
388,21
389,21
390,21
391,21
392,21
393,21
394,21
395,21
396,21
397,21
398,21
399,21
400,21
401,21
402,21
403,21
404,21
405,21
406,22
407,22
408,22
409,22
410,22
411,22
412,22
413,22
414,22
415,22
416,22
417,22
418,22
419,22
420,22
421,22
422,22
423,22
424,22
425,22
426,22
427,22
428,22
429,22
430,22
431,22
432,22
433,22
434,22
435,22
436,22
437,22
438,22
439,22
440,22
441,22
442,22
443,22
444,22
445,22
446,22
447,22
448,23
449,23
450,23
451,23
452,23
453,23
454,24
455,24
456,24
457,24
458,24
459,24
460,24
461,24
462,24
463,24
464,24
465,24
466,24
467,24
468,24
469,24
470,24
471,24
472,24
473,24
474,24
475,24
476,24
477,24
478,24
479,24
480,24
481,24
482,24
483,24
484,24
485,24
486,24
487,25
488,25
489,25
490,25
491,26
492,27
493,27
494,27
495,27
496,27
497,27
498,27
499,27
500,27
501,27
502,27
503,27
504,27
505,27
506,27
507,27
508,27
509,28
510,28
511,28
512,28
513,28
514,28
515,28
516,28
517,28
518,29
519,29
520,29
521,29
522,29
523,29
524,29
525,29
526,29
527,29
528,29
529,29
530,29
531,29
532,29
533,29
534,29
535,29
536,31
537,31
538,32
539,32
540,32
541,32
542,32
543,32
544,32
545,32
546,32
547,32
548,33
549,33
550,33
551,33
552,33
553,33
554,33
555,33
556,33
557,33
558,33
559,33
560,33
561,33
562,33
563,33
564,33
565,33
566,33
567,33
568,33
569,33
570,34
571,34
572,34
573,34
574,34
575,34
576,34
577,34
578,34
579,34
580,34
581,34
582,34
583,34
584,34
585,34
586,34
587,34
588,34
589,34
590,34
591,34
592,34
593,34
594,34
595,34
596,34
597,35
598,35
599,35
600,35
601,36
602,36
603,36
604,36
605,36
606,36
607,36
608,36
609,37
610,37
611,37
612,37
613,37
614,37
615,37
616,37
617,37
618,37
619,37
620,37
621,37
622,37
623,37
624,37
625,37
626,37
627,37
628,37
629,37
630,37
631,37
632,37
633,37
634,37
635,37
636,37
637,37
638,37
639,37
640,37
641,38
642,38
643,38
644,38
645,38
646,38
647,38
648,38
649,38
650,38
651,38
652,38
653,38
654,38
655,38
656,38
657,38
658,38
659,38
660,38
661,38
662,38
663,38
664,38
665,38
666,38
667,38
668,38
669,38
670,38
671,38
672,38
673,38
674,38
675,39
676,39
677,39
678,39
679,39
680,39
681,39
682,39
683,39
684,39
685,39
686,39
687,39
688,39
689,39
690,39
691,39
692,39
693,39
694,39
695,39
696,39
697,39
698,39
699,39
700,39
701,39
702,39
703,39
704,39
705,39
706,39
707,39
708,39
709,39
710,39
711,39
712,39
713,39
714,39
715,39
716,39
717,39
718,39
719,39
720,39
721,39
722,39
723,39
724,39
725,39
726,39
727,39
728,40
729,40
730,40
731,40
732,40
733,40
734,40
735,40
736,40
737,40
738,40
739,40
740,40
741,40
742,40
743,40
744,40
745,40
746,40
747,40
748,40
749,40
750,40
751,40
752,40
753,40
754,40
755,40
756,40
757,40
758,40
759,40
760,40
761,40
762,40
763,40
764,40
765,40
766,40
767,41
768,41
769,41
770,41
771,41
772,41
773,41
774,41
775,41
776,41
777,41
778,41
779,41
780,41
781,41
782,41
783,41
784,41
785,41
786,41
787,41
788,41
789,41
790,41
791,41
792,41
793,41
794,41
795,41
796,41
797,41
798,41
799,41
800,41
801,41
802,41
803,41
804,41
805,41
806,41
807,41
808,41
809,41
810,41
811,41
812,41
813,41
814,41
815,41
816,41
817,41
818,41
819,41
820,41
821,41
822,41
823,41
824,41
825,41
826,41
827,41
828,41
829,41
830,41
831,41
832,41
833,41
834,41
835,41
836,41
837,41
838,41
839,41
840,41
841,41
842,41
843,41
844,42
845,42
846,42
847,42
848,42
849,42
850,42
851,42
852,42
853,42
854,42
855,42
856,42
857,42
858,42
859,42
860,42
861,42
862,42
863,42
864,42
865,43
866,43
867,43
868,43
869,43
870,43
871,43
872,43
873,43
874,43
875,43
876,43
877,43
878,43
879,43
880,43
881,43
882,43
883,43
884,43
885,43
886,43
887,43
888,43
889,43
890,43
891,43
892,43
893,43
894,43
895,43
896,43
897,43
898,43
899,43
900,43
901,43
902,43
903,43
904,43
905,43
906,43
907,43
908,43
909,43
910,43
911,43
912,43
913,43
914,43
915,43
916,43
917,43
918,43
919,43
920,43
921,43
922,43
923,43
924,43
925,43
926,43
927,43
928,43
929,43
930,43
931,43
932,43
933,44
934,45
935,45
936,45
937,46
938,47
939,47
940,47
941,47
942,47
943,47
944,47
945,47
946,47
947,47
948,47
949,47
950,47
951,47
952,47
953,47
954,47
955,47
956,47
957,47
958,47
959,47
960,47
961,48
962,48
963,48
964,48
965,48
966,48
967,48
968,48
969,48
970,48
971,48
972,48
973,48
974,48
975,48
976,48
977,48
978,48
979,48
980,48
981,48
982,48
983,48
984,48
985,49
986,49
987,49
988,49
989,49
990,49
991,49
992,49
993,49
994,49
995,49
996,49
997,49
998,49
999,49
1000,49
1001,49
1002,49
1003,49
1004,49
1005,49
1006,49
1007,49
1008,49
1009,49
1010,49
1011,49
1012,49
1013,49
1014,49
1015,49
1016,49
1017,50
1018,50
1019,50
1020,50
1021,50
1022,50
1023,50
1024,50
1025,50
1026,50
1027,50
1028,50
1029,50
1030,50
1031,50
1032,50
1033,50
1034,50
1035,50
1036,50
1037,50
1038,50
1039,50
1040,50
1041,50
1042,50
1043,50
1044,51
1045,51
1046,51
1047,51
1048,51
1049,51
1050,51
1051,51
1052,51
1053,52
1054,53
1055,53
1056,53
1057,53
1058,53
1059,53
1060,53
1061,53
1062,53
1063,53
1064,53
1065,53
1066,53
1067,53
1068,53
1069,53
1070,53
1071,53
1072,53
1073,53
1074,53
1075,54
1076,54
1077,54
1078,54
1079,54
1080,54
1081,54
1082,54
1083,54
1084,54
1085,54
1086,54
1087,54
1088,54
1089,54
1090,54
1091,54
1092,54
1093,54
1094,54
1095,54
1096,54
1097,54
1098,54
1099,54
1100,54
1101,54
1102,54
1103,54
1104,54
1105,54
1106,54
1107,54
1108,54
1109,54
1110,54
1111,54
1112,54
1113,54
1114,54
1115,55
1116,55
1117,55
1118,55
1119,55
1120,55
1121,55
1122,55
1123,55
1124,55
1125,55
1126,55
1127,55
1128,55
1129,55
1130,55
1131,55
1132,55
1133,55
1134,55
1135,55
1136,55
1137,55
1138,55
1139,55
1140,55
1141,55
1142,55
1143,55
1144,55
1145,55
1146,55
1147,56
1148,56
1149,56
1150,56
1151,56
1152,56
1153,56
1154,56
1155,56
1156,56
1157,56
1158,56
1159,56
1160,56
1161,56
1162,56
1163,56
1164,56
1165,56
1166,56
1167,56
1168,56
1169,56
1170,56
1171,56
1172,56
1173,56
1174,56
1175,56
1176,56
1177,56
1178,56
1179,56
1180,56
1181,56
1182,56
1183,56
1184,56
1185,56
1186,56
1187,56
1188,56
1189,56
1190,56
1191,56
1192,56
1193,56
1194,56
1195,56
1196,56
1197,56
1198,56
1199,56
1200,56
1201,56
1202,56
1203,56
1204,56
1205,56
1206,56
1207,56
1208,56
1209,56
1210,56
1211,56
1212,56
1213,56
1214,56
1215,56
1216,56
1217,56
1218,56
1219,56
1220,56
1221,56
1222,56
1223,56
1224,56
1225,56
1226,56
1227,56
1228,56
1229,56
1230,56
1231,56
1232,56
1233,56
1234,56
1235,56
1236,56
1237,56
1238,56
1239,56
1240,56
1241,56
1242,56
1243,56
1244,56
1245,56
1246,56
1247,56
1248,56
1249,56
1250,56
1251,56
1252,56
1253,56
1254,56
1255,56
1256,56
1257,56
1258,56
1259,56
1260,56
1261,56
1262,56
1263,56
1264,56
1265,56
1266,56
1267,56
1268,57
1269,57
1270,57
1271,57
1272,57
1273,57
1274,57
1275,57
1276,57
1277,57
1278,57
1279,57
1280,57
1281,57
1282,57
1283,57
1284,57
1285,57
1286,57
1287,57
1288,57
1289,57
1290,57
1291,57
1292,57
1293,57
1294,57
1295,57
1296,57
1297,58
1298,58
1299,58
1300,58
1301,58
1302,58
1303,58
1304,58
1305,58
1306,58
1307,58
1308,58
1309,58
1310,58
1311,58
1312,58
1313,58
1314,58
1315,58
1316,58
1317,58
1318,58
1319,58
1320,59
1321,59
1322,59
1323,59
1324,59
1325,59
1326,59
1327,59
1328,59
1329,59
1330,59
1331,59
1332,59
1333,59
1334,59
1335,59
1336,59
1337,59
1338,59
1339,59
1340,59
1341,59
1342,59
1343,59
1344,59
1345,59
1346,59
1347,59
1348,59
1349,59
1350,59
1351,59
1352,59
1353,59
1354,59
1355,59
1356,59
1357,59
1358,59
1359,59
1360,59
1361,59
1362,59
1363,59
1364,59
1365,59
1366,59
1367,59
1368,59
1369,59
1370,59
1371,59
1372,59
1373,59
1374,59
1375,59
1376,59
1377,59
1378,59
1379,59
1380,59
1381,59
1382,59
1383,59
1384,59
1385,59
1386,60
1387,60
1388,60
1389,60
1390,60
1391,60
1392,60
1393,60
1394,60
1395,60
1396,60
1397,60
1398,60
1399,60
1400,60
1401,60
1402,60
1403,61
1404,62
1405,62
1406,62
1407,62
1408,62
1409,62
1410,62
1411,62
1412,62
1413,62
1414,62
1415,62
1416,62
1417,62
1418,62
1419,62
1420,62
1421,62
1422,62
1423,62
1424,62
1425,62
1426,62
1427,62
1428,62
1429,62
1430,62
1431,62
1432,62
1433,62
1434,62
1435,62
1436,62
1437,63
1438,63
1439,64
1440,64
1441,64
1442,64
1443,64
1444,64
1445,64
1446,64
1447,64
1448,64
1449,64
1450,64
1451,64
1452,64
1453,64
1454,64
1455,64
1456,64
1457,64
1458,64
1459,64
1460,64
1461,65
1462,65
1463,65
1464,65
1465,66
1466,66
1467,66
1468,66
1469,66
1470,66
1471,66
1472,66
1473,66
1474,66
1475,66
1476,66
1477,66
1478,66
1479,66
1480,66
1481,66
1482,66
1483,66
1484,66
1485,66
1486,66
1487,66
1488,66
1489,66
1490,66
1491,66
1492,66
1493,66
1494,66
1495,66
1496,66
1497,66
1498,66
1499,66
1500,66
1501,66
1502,66
1503,66
1504,66
1505,66
1506,66
1507,66
1508,66
1509,66
1510,67
1511,67
1512,67
1513,67
1514,67
1515,67
1516,67
1517,67
1518,67
1519,68
1520,69
1521,69
1522,69
1523,69
1524,69
1525,69
1526,69
1527,69
1528,69
1529,69
1530,69
1531,69
1532,69
1533,69
1534,69
1535,69
1536,69
1537,69
1538,69
1539,69
1540,69
1541,69
1542,69
1543,69
1544,70
1545,70
1546,70
1547,70
1548,70
1549,70
1550,70
1551,70
1552,70
1553,70
1554,70
1555,70
1556,70
1557,70
1558,70
1559,70
1560,70
1561,70
1562,70
1563,70
1564,70
1565,70
1566,70
1567,70
1568,70
1569,70
1570,70
1571,70
1572,70
1573,70
1574,70
1575,70
1576,70
1577,70
1578,71
1579,71
1580,71
1581,71
1582,71
1583,72
1584,72
1585,72
1586,72
1587,72
1588,72
1589,72
1590,72
1591,72
1592,72
1593,72
1594,72
1595,72
1596,72
1597,72
1598,72
1599,72
1600,72
1601,72
1602,72
1603,72
1604,72
1605,72
1606,72
1607,72
1608,72
1609,72
1610,72
1611,72
1612,72
1613,72
1614,72
1615,72
1616,72
1617,72
1618,72
1619,72
1620,72
1621,72
1622,72
1623,72
1624,72
1625,72
1626,72
1627,72
1628,72
1629,72
1630,73
1631,73
1632,73
1633,73
1634,73
1635,73
1636,73
1637,73
1638,73
1639,73
1640,74
1641,74
1642,74
1643,74
1644,74
1645,74
1646,74
1647,74
1648,74
1649,74
1650,74
1651,74
1652,74
1653,74
1654,74
1655,74
1656,74
1657,74
1658,74
1659,74
1660,74
1661,74
1662,74
1663,75
1664,76
1665,76
1666,76
1667,76
1668,76
1669,76
1670,76
1671,76
1672,76
1673,76
1674,76
1675,76
1676,76
1677,76
1678,76
1679,76
1680,76
1681,76
1682,76
1683,76
1684,76
1685,76
1686,76
1687,76
1688,76
1689,76
1690,76
1691,76
1692,76
1693,76
1694,76
1695,76
1696,76
1697,76
1698,76
1699,76
1700,76
1701,76
1702,76
1703,76
1704,76
1705,76
1706,76
1707,76
1708,76
1709,76
1710,76
1711,76
1712,76
1713,76
1714,76
1715,76
1716,76
1717,76
1718,76
1719,76
1720,76
1721,76
1722,76
1723,76
1724,76
1725,76
1726,76
1727,76
1728,76
1729,76
1730,76
1731,76
1732,76
1733,76
1734,76
1735,77
1736,77
1737,77
1738,77
1739,77
1740,77
1741,77
1742,77
1743,77
1744,77
1745,77
1746,77
1747,77
1748,77
1749,77
1750,77
1751,77
1752,77
1753,77
1754,77
1755,77
1756,77
1757,77
1758,77
1759,77
1760,77
1761,77
1762,77
1763,77
1764,77
1765,77
1766,77
1767,77
1768,77
1769,77
1770,77
1771,77
1772,77
1773,77
1774,77
1775,77
1776,77
1777,77
1778,77
1779,77
1780,77
1781,77
1782,77
1783,77
1784,77
1785,77
1786,77
1787,77
1788,77
1789,77
1790,77
1791,77
1792,77
1793,77
1794,77
1795,77
1796,77
1797,77
1798,77
1799,77
1800,77
1801,77
1802,77
1803,77
1804,77
1805,77
1806,77
1807,78
1808,78
1809,78
1810,78
1811,78
1812,78
1813,78
1814,78
1815,78
1816,78
1817,78
1818,78
1819,78
1820,78
1821,78
1822,78
1823,78
1824,78
1825,78
1826,78
1827,78
1828,78
1829,78
1830,78
1831,78
1832,78
1833,78
1834,78
1835,78
1836,78
1837,78
1838,78
1839,78
1840,78
1841,78
1842,78
1843,78
1844,78
1845,78
1846,78
1847,78
1848,78
1849,78
1850,78
1851,78
1852,78
1853,78
1854,78
1855,78
1856,78
1857,78
1858,78
1859,78
1860,78
1861,78
1862,78
1863,78
1864,78
1865,78
1866,78
1867,78
1868,78
1869,78
1870,78
1871,78
1872,78
1873,79
1874,79
1875,79
1876,79
1877,79
1878,79
1879,79
1880,79
1881,79
1882,79
1883,79
1884,79
1885,79
1886,79
1887,79
1888,79
1889,79
1890,79
1891,79
1892,79
1893,79
1894,79
1895,79
1896,79
1897,79
1898,79
1899,79
1900,79
1901,79
1902,79
1903,79
1904,79
1905,79
1906,79
1907,79
1908,79
1909,79
1910,79
1911,79
1912,79
1913,79
1914,79
1915,79
1916,79
1917,79
1918,79
1919,79
1920,79
1921,79
1922,79
1923,79
1924,79
1925,79
1926,79
1927,79
1928,79
1929,79
1930,79
1931,79
1932,79
1933,79
1934,79
1935,79
1936,79
1937,79
1938,79
1939,79
1940,79
1941,79
1942,79
1943,79
1944,79
1945,79
1946,79
1947,79
1948,79
1949,79
1950,80
1951,80
1952,80
1953,80
1954,80
1955,80
1956,80
1957,80
1958,80
1959,80
1960,80
1961,80
1962,80
1963,80
1964,80
1965,80
1966,80
1967,80
1968,80
1969,80
1970,80
1971,80
1972,80
1973,80
1974,80
1975,80
1976,80
1977,80
1978,80
1979,80
1980,80
1981,80
1982,80
1983,80
1984,80
1985,80
1986,80
1987,80
1988,80
1989,80
1990,80
1991,80
1992,80
1993,80
1994,80
1995,80
1996,80
1997,80
1998,80
1999,80
2000,80
