"tick","total"
0,0
1,0
2,0
3,0
4,0
5,0
6,0
7,0
8,0
9,0
10,0
11,0
12,0
13,0
14,0
15,0
16,0
17,0
18,0
19,0
20,0
21,0
22,0
23,0
24,0
25,0
26,0
27,0
28,0
29,0
30,0
31,0
32,0
33,0
34,0
35,0
36,0
37,0
38,0
39,0
40,0
41,0
42,0
43,0
44,0
45,0
46,0
47,0
48,0
49,0
50,0
51,0
52,0
53,0
54,0
55,0
56,0
57,0
58,0
59,0
60,0
61,0
62,0
63,0
64,0
65,0
66,0
67,0
68,0
69,0
70,0
71,0
72,0
73,0
74,0
75,0
76,0
77,0
78,0
79,0
80,0
81,0
82,0
83,0
84,0
85,0
86,0
87,0
88,0
89,0
90,0
91,0
92,0
93,0
94,0
95,0
96,0
97,0
98,0
99,0
100,0
101,0
102,0
103,0
104,0
105,0
106,0
107,0
108,0
109,0
110,0
111,0
112,0
113,0
114,0
115,1
116,2
117,2
118,2
119,2
120,2
121,2
122,2
123,2
124,2
125,2
126,2
127,2
128,2
129,4
130,4
131,4
132,4
133,4
134,4
135,5
136,5
137,5
138,5
139,6
140,6
141,7
142,7
143,7
144,7
145,7
146,7
147,7
148,7
149,7
150,7
151,7
152,7
153,7
154,7
155,7
156,7
157,7
158,7
159,7
160,7
161,7
162,7
163,7
164,7
165,7
166,7
167,7
168,8
169,8
170,8
171,8
172,8
173,8
174,9
175,9
176,9
177,9
178,9
179,10
180,10
181,10
182,10
183,10
184,10
185,10
186,10
187,11
188,11
189,11
190,12
191,13
192,14
193,14
194,14
195,14
196,14
197,14
198,15
199,15
200,15
201,15
202,15
203,15
204,15
205,15
206,15
207,15
208,15
209,15
210,15
211,15
212,16
213,17
214,17
215,17
216,17
217,17
218,18
219,18
220,18
221,18
222,18
223,19
224,19
225,19
226,19
227,19
228,19
229,19
230,19
231,20
232,20
233,20
234,20
235,20
236,20
237,20
238,20
239,20
240,20
241,20
242,20
243,20
244,20
245,20
246,20
247,20
248,20
249,20
250,21
251,21
252,21
253,21
254,21
255,21
256,21
257,21
258,22
259,22
260,23
261,23
262,23
263,23
264,24
265,24
266,24
267,24
268,24
269,24
270,24
271,24
272,24
273,25
274,25
275,25
276,26
277,26
278,26
279,26
280,26
281,26
282,26
283,26
284,26
285,26
286,26
287,26
288,26
289,26
290,26
291,26
292,26
293,26
294,26
295,26
296,26
297,26
298,26
299,26
300,27
301,27
302,27
303,27
304,27
305,27
306,27
307,27
308,27
309,27
310,27
311,27
312,27
313,27
314,27
315,27
316,27
317,27
318,27
319,27
320,27
321,27
322,27
323,27
324,27
325,27
326,27
327,28
328,28
329,28
330,28
331,28
332,28
333,28
334,28
335,28
336,28
337,28
338,28
339,29
340,29
341,29
342,29
343,29
344,29
345,29
346,29
347,29
348,29
349,29
350,29
351,29
352,29
353,29
354,29
355,29
356,29
357,30
358,30
359,30
360,30
361,30
362,30
363,30
364,30
365,30
366,30
367,30
368,30
369,30
370,30
371,30
372,30
373,30
374,30
375,30
376,30
377,30
378,30
379,30
380,30
381,30
382,30
383,30
384,30
385,30
386,30
387,30
388,30
389,30
390,30
391,30
392,30
393,30
394,30
395,31
396,31
397,31
398,31
399,31
400,31
401,31
402,31
403,31
404,31
405,31
406,31
407,31
408,31
409,31
410,31
411,31
412,32
413,32
414,32
415,32
416,32
417,32
418,32
419,32
420,32
421,32
422,32
423,32
424,32
425,32
426,32
427,32
428,32
429,32
430,32
431,32
432,32
433,32
434,32
435,32
436,32
437,32
438,32
439,32
440,32
441,32
442,32
443,32
444,32
445,33
446,33
447,33
448,34
449,34
450,34
451,34
452,34
453,34
454,34
455,34
456,34
457,34
458,34
459,36
460,37
461,37
462,37
463,37
464,37
465,37
466,37
467,37
468,37
469,37
470,37
471,37
472,37
473,37
474,37
475,37
476,37
477,37
478,37
479,37
480,37
481,37
482,37
483,38
484,38
485,38
486,38
487,38
488,38
489,38
490,38
491,38
492,38
493,38
494,38
495,38
496,38
497,38
498,38
499,38
500,38
501,38
502,38
503,38
504,38
505,39
506,40
507,40
508,40
509,40
510,40
511,40
512,40
513,40
514,40
515,40
516,40
517,40
518,40
519,40
520,40
521,41
522,41
523,41
524,41
525,41
526,41
527,41
528,42
529,42
530,43
531,43
532,43
533,43
534,43
535,43
536,43
537,43
538,43
539,43
540,43
541,43
542,43
543,43
544,43
545,43
546,43
547,43
548,44
549,44
550,44
551,45
552,45
553,45
554,45
555,45
556,45
557,45
558,45
559,45
560,46
561,46
562,46
563,46
564,46
565,46
566,46
567,46
568,46
569,46
570,46
571,46
572,46
573,46
574,46
575,47
576,47
577,47
578,47
579,47
580,47
581,47
582,47
583,47
584,47
585,47
586,47
587,47
588,47
589,47
590,47
591,47
592,47
593,47
594,47
595,47
596,47
597,48
598,48
599,48
600,48
601,48
602,48
603,48
604,48
605,48
606,48
607,48
608,48
609,48
610,48
611,48
612,48
613,48
614,48
615,48
616,48
617,48
618,48
619,48
620,48
621,48
622,48
623,48
624,48
625,48
626,48
627,48
628,48
629,48
630,48
631,49
632,49
633,49
634,49
635,49
636,49
637,49
638,50
639,50
640,50
641,50
642,50
643,50
644,50
645,50
646,51
647,51
648,51
649,52
650,52
651,52
652,52
653,52
654,52
655,52
656,52
657,52
658,52
659,52
660,53
661,53
662,55
663,55
664,55
665,55
666,55
667,55
668,55
669,55
670,55
671,55
672,55
673,55
674,55
675,55
676,55
677,56
678,56
679,56
680,56
681,56
682,56
683,56
684,56
685,56
686,56
687,56
688,56
689,56
690,56
691,56
692,56
693,56
694,56
695,56
696,56
697,56
698,56
699,56
700,56
701,56
702,56
703,56
704,56
705,56
706,56
707,56
708,56
709,56
710,56
711,56
712,56
713,56
714,56
715,56
716,56
717,56
718,56
719,56
720,56
721,56
722,56
723,56
724,56
725,56
726,56
727,56
728,56
729,56
730,56
731,56
732,56
733,56
734,56
735,56
736,56
737,56
738,56
739,56
740,56
741,56
742,56
743,56
744,56
745,56
746,56
747,56
748,56
749,56
750,56
751,56
752,56
753,56
754,56
755,56
756,56
757,56
758,56
759,56
760,56
761,56
762,56
763,56
764,56
765,56
766,56
767,56
768,56
769,56
770,56
771,56
772,56
773,56
774,56
775,56
776,56
777,56
778,56
779,56
780,56
781,56
782,56
783,56
784,56
785,56
786,56
787,56
788,56
789,56
790,56
791,56
792,56
793,56
794,56
795,56
796,56
797,56
798,57
799,58
800,58
801,58
802,58
803,58
804,58
805,58
806,58
807,58
808,58
809,58
810,58
811,58
812,58
813,58
814,58
815,58
816,58
817,58
818,58
819,58
820,59
821,59
822,59
823,59
824,59
825,59
826,59
827,60
828,60
829,61
830,61
831,61
832,61
833,61
834,61
835,61
836,61
837,61
838,61
839,61
840,61
841,61
842,61
843,61
844,62
845,62
846,62
847,62
848,62
849,63
850,63
851,63
852,63
853,64
854,64
855,65
856,65
857,65
858,65
859,65
860,65
861,65
862,66
863,66
864,66
865,66
866,66
867,66
868,66
869,66
870,66
871,66
872,66
873,66
874,67
875,67
876,67
877,67
878,67
879,68
880,69
881,69
882,69
883,69
884,69
885,69
886,69
887,69
888,69
889,69
890,69
891,69
892,69
893,69
894,69
895,69
896,69
897,69
898,69
899,69
900,69
901,69
902,69
903,69
904,69
905,69
906,69
907,69
908,69
909,69
910,69
911,69
912,69
913,69
914,69
915,69
916,69
917,69
918,69
919,69
920,69
921,69
922,69
923,69
924,69
925,69
926,69
927,69
928,69
929,69
930,69
931,69
932,69
933,69
934,69
935,69
936,69
937,69
938,69
939,69
940,70
941,70
942,70
943,70
944,70
945,70
946,71
947,71
948,71
949,71
950,71
951,71
952,71
953,71
954,71
955,72
956,72
957,72
958,72
959,72
960,72
961,72
962,72
963,72
964,72
965,72
966,72
967,72
968,72
969,72
970,72
971,72
972,72
973,72
974,72
975,72
976,72
977,72
978,72
979,72
980,72
981,72
982,72
983,72
984,72
985,72
986,72
987,72
988,72
989,72
990,72
991,72
992,73
993,73
994,73
995,73
996,73
997,73
998,73
999,73
1000,73
1001,73
1002,73
1003,73
1004,73
1005,73
1006,73
1007,73
1008,73
1009,73
1010,73
1011,73
1012,73
1013,73
1014,73
1015,73
1016,73
1017,73
1018,73
1019,73
1020,74
1021,74
1022,74
1023,74
1024,74
1025,74
1026,74
1027,75
1028,76
1029,76
1030,76
1031,76
1032,76
1033,76
1034,76
1035,76
1036,76
1037,76
1038,76
1039,77
1040,77
1041,79
1042,79
1043,79
1044,79
1045,79
1046,79
1047,79
1048,79
1049,79
1050,79
1051,79
1052,80
1053,80
1054,80
1055,80
1056,80
1057,80
1058,80
1059,80
1060,80
1061,81
1062,81
1063,81
1064,81
1065,81
1066,81
1067,81
1068,81
1069,81
1070,81
1071,81
1072,81
1073,81
1074,81
1075,81
1076,81
1077,81
1078,81
1079,81
1080,81
1081,81
1082,81
1083,81
1084,81
1085,81
1086,82
1087,82
1088,82
1089,82
1090,82
1091,82
1092,82
1093,82
1094,82
1095,82
1096,82
1097,82
1098,82
1099,82
1100,82
1101,82
1102,82
1103,82
1104,82
1105,82
1106,82
1107,82
1108,82
1109,82
1110,82
1111,82
1112,82
1113,83
1114,83
1115,83
1116,83
1117,83
1118,83
1119,83
1120,83
1121,83
1122,83
1123,83
1124,83
1125,83
1126,83
1127,83
1128,83
1129,83
1130,83
1131,83
1132,83
1133,83
1134,83
1135,83
1136,83
1137,83
1138,83
1139,83
1140,83
1141,83
1142,84
1143,84
1144,84
1145,84
1146,84
1147,84
1148,84
1149,84
1150,84
1151,84
1152,84
1153,84
1154,84
1155,84
1156,84
1157,84
1158,84
1159,84
1160,84
1161,84
1162,84
1163,84
1164,84
1165,84
1166,84
1167,84
1168,84
1169,84
1170,84
1171,84
1172,84
1173,84
1174,84
1175,84
1176,84
1177,85
1178,85
1179,85
1180,85
1181,85
1182,85
1183,85
1184,85
1185,86
1186,86
1187,86
1188,86
1189,86
1190,86
1191,86
1192,86
1193,86
1194,86
1195,86
1196,86
1197,86
1198,86
1199,86
1200,86
1201,86
1202,86
1203,86
1204,86
1205,86
1206,86
1207,86
1208,87
1209,87
1210,87
1211,87
1212,87
1213,87
1214,87
1215,88
1216,88
1217,88
1218,88
1219,88
1220,88
1221,88
1222,88
1223,88
1224,88
1225,88
1226,88
1227,88
1228,88
1229,88
1230,88
1231,88
1232,88
1233,88
1234,88
1235,88
1236,88
1237,88
1238,88
1239,88
1240,88
1241,88
1242,88
1243,88
1244,88
1245,88
1246,88
1247,88
1248,88
1249,88
1250,88
1251,88
1252,88
1253,88
1254,89
1255,89
1256,89
1257,89
1258,90
1259,90
1260,90
1261,90
1262,90
1263,90
1264,90
1265,90
1266,90
1267,90
1268,90
1269,90
1270,91
1271,91
1272,91
1273,91
1274,92
1275,92
1276,92
1277,92
1278,92
1279,92
1280,92
1281,92
1282,93
1283,93
1284,93
1285,93
1286,93
1287,93
1288,93
1289,93
1290,93
1291,93
1292,93
1293,93
1294,93
1295,93
1296,93
1297,93
1298,93
1299,93
1300,93
1301,93
1302,93
1303,94
1304,94
1305,94
1306,94
1307,94
1308,94
1309,94
1310,94
1311,94
1312,94
1313,95
1314,95
1315,95
1316,95
1317,95
1318,95
1319,95
1320,95
1321,95
1322,95
1323,95
1324,95
1325,95
1326,95
1327,95
1328,96
1329,96
1330,96
1331,96
1332,96
1333,96
1334,96
1335,96
1336,97
1337,97
1338,97
1339,97
1340,97
1341,97
1342,97
1343,97
1344,97
1345,97
1346,97
1347,97
1348,97
1349,97
1350,98
1351,98
1352,98
1353,98
1354,98
1355,98
1356,98
1357,98
1358,98
1359,98
1360,98
1361,99
1362,99
1363,99
1364,99
1365,99
1366,99
1367,99
1368,99
1369,99
1370,99
1371,99
1372,99
1373,99
1374,99
1375,99
1376,99
1377,100
1378,100
1379,100
1380,100
1381,100
1382,100
1383,100
1384,101
1385,101
1386,101
1387,101
1388,101
1389,101
1390,101
1391,101
1392,101
1393,101
1394,101
1395,101
1396,101
1397,101
1398,101
1399,101
1400,101
1401,101
1402,101
1403,101
1404,101
1405,101
1406,101
1407,101
1408,101
1409,101
1410,102
1411,102
1412,102
1413,102
1414,102
1415,103
1416,103
1417,103
1418,103
1419,103
1420,103
1421,104
1422,104
1423,104
1424,104
1425,104
1426,104
1427,104
1428,105
1429,105
1430,105
1431,105
1432,105
1433,105
1434,105
1435,105
1436,105
1437,105
1438,105
1439,105
1440,105
1441,105
1442,105
1443,105
1444,105
1445,105
1446,105
1447,105
1448,105
1449,105
1450,105
1451,105
1452,105
1453,105
1454,105
1455,105
1456,105
1457,105
1458,105
1459,105
1460,105
1461,105
1462,105
1463,105
1464,105
1465,105
1466,105
1467,105
1468,105
1469,105
1470,105
1471,105
1472,105
1473,105
1474,105
1475,105
1476,105
1477,105
1478,105
1479,105
1480,105
1481,105
1482,105
1483,105
1484,105
1485,105
1486,105
1487,105
1488,105
1489,105
1490,105
1491,105
1492,105
1493,105
1494,105
1495,105
1496,105
1497,105
1498,105
1499,105
1500,105
1501,105
1502,105
1503,105
1504,105
1505,105
1506,105
1507,105
1508,105
1509,105
1510,105
1511,105
1512,105
1513,105
1514,105
1515,105
1516,105
1517,105
1518,105
1519,105
1520,105
1521,105
1522,105
1523,105
1524,105
1525,105
1526,105
1527,105
1528,105
1529,105
1530,105
1531,105
1532,105
1533,106
1534,106
1535,106
1536,106
1537,106
1538,106
1539,106
1540,106
1541,106
1542,106
1543,106
1544,106
1545,106
1546,106
1547,106
1548,107
1549,107
1550,107
1551,107
1552,107
1553,107
1554,107
1555,107
1556,107
1557,107
1558,107
1559,107
1560,107
1561,107
1562,107
1563,107
1564,107
1565,107
1566,107
1567,107
1568,107
1569,108
1570,108
1571,108
1572,108
1573,108
1574,108
1575,108
1576,110
1577,110
1578,110
1579,110
1580,110
1581,110
1582,110
1583,110
1584,110
1585,110
1586,110
1587,110
1588,110
1589,110
1590,110
1591,110
1592,111
1593,111
1594,112
1595,112
1596,112
1597,112
1598,112
1599,112
1600,112
1601,112
1602,112
1603,112
1604,112
1605,112
1606,112
1607,112
1608,112
1609,112
1610,112
1611,112
1612,112
1613,112
1614,112
1615,112
1616,112
1617,112
1618,112
1619,112
1620,112
1621,112
1622,112
1623,112
1624,112
1625,112
1626,112
1627,112
1628,112
1629,112
1630,113
1631,113
1632,113
1633,113
1634,114
1635,114
1636,114
1637,114
1638,114
1639,114
1640,114
1641,114
1642,114
1643,114
1644,114
1645,114
1646,115
1647,115
1648,115
1649,115
1650,115
1651,115
1652,115
1653,115
1654,115
1655,115
1656,115
1657,115
1658,115
1659,115
1660,115
1661,115
1662,115
1663,115
1664,115
1665,115
1666,115
1667,115
1668,115
1669,115
1670,115
1671,115
1672,115
1673,116
1674,116
1675,116
1676,117
1677,117
1678,117
1679,117
1680,117
1681,117
1682,117
1683,117
1684,117
1685,117
1686,117
1687,117
1688,117
1689,118
1690,119
1691,119
1692,119
1693,119
1694,119
1695,119
1696,119
1697,119
1698,119
1699,119
1700,119
1701,120
1702,120
1703,120
1704,120
1705,120
1706,120
1707,120
1708,120
1709,120
1710,120
1711,120
1712,120
1713,120
1714,120
1715,120
1716,120
1717,120
1718,120
1719,120
1720,120
1721,120
1722,120
1723,120
1724,121
1725,122
1726,122
1727,122
1728,122
1729,122
1730,122
1731,122
1732,122
1733,122
1734,122
1735,122
1736,122
1737,122
1738,122
1739,122
1740,122
1741,122
1742,122
1743,122
1744,122
1745,122
1746,122
1747,122
1748,122
1749,122
1750,122
1751,122
1752,122
1753,122
1754,122
1755,122
1756,122
1757,122
1758,123
1759,123
1760,123
1761,123
1762,123
1763,123
1764,123
1765,123
1766,123
1767,123
1768,123
1769,124
1770,124
1771,124
1772,124
1773,125
1774,125
1775,125
1776,125
1777,125
1778,125
1779,125
1780,125
1781,125
1782,125
1783,125
1784,125
1785,125
1786,125
1787,125
1788,125
1789,125
1790,125
1791,125
1792,125
1793,125
1794,125
1795,125
1796,125
1797,125
1798,125
1799,125
1800,125
1801,125
1802,125
1803,125
1804,125
1805,125
1806,125
1807,126
1808,126
1809,126
1810,126
1811,126
1812,126
1813,126
1814,126
1815,126
1816,126
1817,126
1818,126
1819,126
1820,126
1821,127
1822,127
1823,127
1824,127
1825,127
1826,127
1827,127
1828,127
1829,127
1830,127
1831,127
1832,127
1833,127
1834,127
1835,127
1836,127
1837,127
1838,127
1839,127
1840,127
1841,128
1842,128
1843,128
1844,128
1845,128
1846,128
1847,128
1848,128
1849,128
1850,128
1851,128
1852,128
1853,128
1854,128
1855,128
1856,128
1857,128
1858,128
1859,128
1860,128
1861,128
1862,128
1863,128
1864,128
1865,128
1866,128
1867,128
1868,128
1869,128
1870,128
1871,128
1872,128
1873,128
1874,128
1875,128
1876,128
1877,128
1878,128
1879,128
1880,128
1881,128
1882,128
1883,128
1884,128
1885,129
1886,129
1887,129
1888,129
1889,129
1890,129
1891,129
1892,129
1893,129
1894,129
1895,129
1896,129
1897,129
1898,129
1899,129
1900,129
1901,129
1902,129
1903,129
1904,129
1905,129
1906,129
1907,129
1908,129
1909,130
1910,131
1911,131
1912,131
1913,131
1914,132
1915,132
1916,132
1917,132
1918,132
1919,132
1920,132
1921,132
1922,132
1923,132
1924,132
1925,132
1926,132
1927,132
1928,132
1929,132
1930,132
1931,132
1932,132
1933,132
1934,132
1935,132
1936,132
1937,132
1938,132
1939,132
1940,132
1941,132
1942,132
1943,132
1944,132
1945,132
1946,132
1947,132
1948,132
1949,132
1950,132
1951,132
1952,132
1953,132
1954,132
1955,132
1956,132
1957,132
1958,132
1959,132
1960,132
1961,132
1962,132
1963,132
1964,132
1965,132
1966,132
1967,132
1968,132
1969,132
1970,132
1971,133
1972,134
1973,134
1974,134
1975,134
1976,134
1977,135
1978,135
1979,135
1980,135
1981,135
1982,135
1983,136
1984,136
1985,136
1986,136
1987,136
1988,136
1989,136
1990,136
1991,136
1992,136
1993,136
1994,136
1995,136
1996,136
1997,136
1998,136
1999,136
2000,136
