"tick","susceptible","exposed","infectious","recovered"
0,99,1,0,0
1,99,1,0,0
2,99,1,0,0
3,99,1,0,0
4,99,1,0,0
5,99,1,0,0
6,99,1,0,0
7,99,1,0,0
8,99,1,0,0
9,99,1,0,0
10,99,1,0,0
11,99,1,0,0
12,99,1,0,0
13,99,1,0,0
14,99,1,0,0
15,99,1,0,0
16,99,1,0,0
17,99,1,0,0
18,99,1,0,0
19,99,1,0,0
20,99,1,0,0
21,99,1,0,0
22,99,1,0,0
23,99,1,0,0
24,99,1,0,0
25,99,1,0,0
26,99,1,0,0
27,99,1,0,0
28,99,1,0,0
29,99,1,0,0
30,99,1,0,0
31,99,1,0,0
32,99,1,0,0
33,99,1,0,0
34,99,1,0,0
35,99,1,0,0
36,99,1,0,0
37,99,1,0,0
38,99,1,0,0
39,99,1,0,0
40,99,1,0,0
41,99,1,0,0
42,99,1,0,0
43,99,1,0,0
44,99,1,0,0
45,99,1,0,0
46,99,1,0,0
47,99,1,0,0
48,99,1,0,0
49,99,1,0,0
50,99,1,0,0
51,99,1,0,0
52,99,1,0,0
53,99,1,0,0
54,99,1,0,0
55,99,1,0,0
56,99,1,0,0
57,99,1,0,0
58,99,1,0,0
59,99,1,0,0
60,99,1,0,0
61,99,1,0,0
62,99,1,0,0
63,99,1,0,0
64,99,1,0,0
65,99,1,0,0
66,99,1,0,0
67,99,1,0,0
68,99,1,0,0
69,99,1,0,0
70,99,1,0,0
71,99,1,0,0
72,99,1,0,0
73,99,1,0,0
74,99,1,0,0
75,99,1,0,0
76,99,1,0,0
77,99,1,0,0
78,99,1,0,0
79,99,1,0,0
80,99,1,0,0
81,99,1,0,0
82,99,1,0,0
83,99,1,0,0
84,99,1,0,0
85,99,1,0,0
86,99,1,0,0
87,99,1,0,0
88,99,1,0,0
89,99,1,0,0
90,99,1,0,0
91,99,1,0,0
92,99,1,0,0
93,99,1,0,0
94,99,1,0,0
95,99,1,0,0
96,99,1,0,0
97,99,1,0,0
98,99,1,0,0
99,99,1,0,0
100,99,1,0,0
101,99,1,0,0
102,99,1,0,0
103,99,1,0,0
104,99,1,0,0
105,99,1,0,0
106,99,1,0,0
107,99,1,0,0
108,99,1,0,0
109,99,1,0,0
110,99,1,0,0
111,99,1,0,0
112,99,1,0,0
113,99,1,0,0
114,99,1,0,0
115,99,1,0,0
116,99,1,0,0
117,99,1,0,0
118,99,1,0,0
119,99,1,0,0
120,99,1,0,0
121,99,1,0,0
122,99,1,0,0
123,99,1,0,0
124,99,1,0,0
125,99,1,0,0
126,99,1,0,0
127,99,1,0,0
128,99,1,0,0
129,99,1,0,0
130,99,1,0,0
131,99,1,0,0
132,99,1,0,0
133,99,1,0,0
134,99,1,0,0
135,99,1,0,0
136,99,1,0,0
137,99,1,0,0
138,99,1,0,0
139,99,1,0,0
140,99,1,0,0
141,99,1,0,0
142,99,1,0,0
143,99,1,0,0
144,99,1,0,0
145,99,1,0,0
146,99,1,0,0
147,99,1,0,0
148,99,1,0,0
149,99,1,0,0
150,99,1,0,0
151,99,1,0,0
152,99,1,0,0
153,99,1,0,0
154,99,1,0,0
155,99,1,0,0
156,99,1,0,0
157,99,1,0,0
158,99,1,0,0
159,99,1,0,0
160,99,1,0,0
161,99,1,0,0
162,99,1,0,0
163,99,1,0,0
164,99,1,0,0
165,99,1,0,0
166,99,1,0,0
167,99,1,0,0
168,99,1,0,0
169,99,1,0,0
170,99,1,0,0
171,99,1,0,0
172,99,1,0,0
173,99,1,0,0
174,99,1,0,0
175,99,1,0,0
176,99,1,0,0
177,99,1,0,0
178,99,1,0,0
179,99,1,0,0
180,99,1,0,0
181,99,1,0,0
182,99,1,0,0
183,99,1,0,0
184,99,1,0,0
185,99,1,0,0
186,99,1,0,0
187,99,1,0,0
188,99,1,0,0
189,99,1,0,0
190,99,1,0,0
191,99,1,0,0
192,99,1,0,0
193,99,1,0,0
194,99,1,0,0
195,99,1,0,0
196,99,1,0,0
197,99,1,0,0
198,99,1,0,0
199,99,1,0,0
200,99,1,0,0
201,99,0,1,0
202,99,0,1,0
203,99,0,1,0
204,99,0,1,0
205,99,0,1,0
206,99,0,1,0
207,99,0,1,0
208,99,0,1,0
209,99,0,1,0
210,99,0,1,0
211,99,0,1,0
212,99,0,1,0
213,99,0,1,0
214,99,0,1,0
215,99,0,1,0
216,99,0,1,0
217,99,0,1,0
218,99,0,1,0
219,99,0,1,0
220,99,0,1,0
221,99,0,1,0
222,99,0,1,0
223,99,0,1,0
224,99,0,1,0
225,99,0,1,0
226,99,0,1,0
227,99,0,1,0
228,99,0,1,0
229,99,0,1,0
230,99,0,1,0
231,99,0,1,0
232,99,0,1,0
233,99,0,1,0
234,99,0,1,0
235,99,0,1,0
236,99,0,1,0
237,99,0,1,0
238,99,0,1,0
239,99,0,1,0
240,99,0,1,0
241,99,0,1,0
242,99,0,1,0
243,99,0,1,0
244,99,0,1,0
245,99,0,1,0
246,99,0,1,0
247,99,0,1,0
248,99,0,1,0
249,99,0,1,0
250,99,0,1,0
251,99,0,1,0
252,99,0,1,0
253,99,0,1,0
254,99,0,1,0
255,99,0,1,0
256,99,0,1,0
257,99,0,1,0
258,99,0,1,0
259,99,0,1,0
260,99,0,1,0
261,99,0,1,0
262,99,0,1,0
263,99,0,1,0
264,99,0,1,0
265,99,0,1,0
266,99,0,1,0
267,99,0,1,0
268,99,0,1,0
269,99,0,1,0
270,99,0,1,0
271,99,0,1,0
272,99,0,1,0
273,99,0,1,0
274,99,0,1,0
275,99,0,1,0
276,99,0,1,0
277,99,0,1,0
278,99,0,1,0
279,99,0,1,0
280,99,0,1,0
281,99,0,1,0
282,99,0,1,0
283,99,0,1,0
284,99,0,1,0
285,99,0,1,0
286,99,0,1,0
287,99,0,1,0
288,99,0,1,0
289,99,0,1,0
290,99,0,1,0
291,99,0,1,0
292,99,0,1,0
293,98,1,1,0
294,98,1,1,0
295,98,1,1,0
296,98,1,1,0
297,98,1,1,0
298,98,1,1,0
299,98,1,1,0
300,98,1,1,0
301,98,1,1,0
302,98,1,1,0
303,98,1,1,0
304,98,1,1,0
305,98,1,1,0
306,98,1,1,0
307,98,1,1,0
308,98,1,1,0
309,98,1,1,0
310,98,1,1,0
311,98,1,1,0
312,98,1,1,0
313,98,1,1,0
314,98,1,1,0
315,98,1,1,0
316,98,1,1,0
317,98,1,1,0
318,98,1,1,0
319,98,1,1,0
320,98,1,1,0
321,98,1,1,0
322,98,1,1,0
323,98,1,1,0
324,98,1,1,0
325,98,1,1,0
326,98,1,1,0
327,98,1,1,0
328,98,1,1,0
329,98,1,1,0
330,98,1,1,0
331,98,1,1,0
332,98,1,1,0
333,98,1,1,0
334,98,1,1,0
335,98,1,1,0
336,98,1,1,0
337,98,1,1,0
338,98,1,1,0
339,98,1,1,0
340,98,1,1,0
341,98,1,1,0
342,98,1,1,0
343,98,1,1,0
344,98,1,1,0
345,98,1,1,0
346,98,1,1,0
347,98,1,1,0
348,98,1,1,0
349,98,1,1,0
350,98,1,1,0
351,98,1,1,0
352,98,1,1,0
353,98,1,1,0
354,98,1,1,0
355,98,1,1,0
356,98,1,1,0
357,98,1,1,0
358,98,1,1,0
359,98,1,1,0
360,98,1,1,0
361,98,1,1,0
362,98,1,1,0
363,98,1,1,0
364,98,1,1,0
365,98,1,1,0
366,98,1,1,0
367,98,1,1,0
368,98,1,1,0
369,98,1,1,0
370,98,1,1,0
371,98,1,1,0
372,98,1,1,0
373,98,1,1,0
374,98,1,1,0
375,98,1,1,0
376,98,1,1,0
377,98,1,1,0
378,98,1,1,0
379,98,1,1,0
380,98,1,1,0
381,98,1,1,0
382,98,1,1,0
383,98,1,1,0
384,98,1,1,0
385,98,1,1,0
386,98,1,1,0
387,98,1,1,0
388,98,1,1,0
389,98,1,1,0
390,98,1,1,0
391,98,1,1,0
392,98,1,1,0
393,98,1,1,0
394,98,1,1,0
395,98,1,1,0
396,98,1,1,0
397,98,1,1,0
398,98,1,1,0
399,98,1,1,0
400,98,1,1,0
401,98,1,1,0
402,98,1,0,1
403,98,1,0,1
404,98,1,0,1
405,98,1,0,1
406,98,1,0,1
407,98,1,0,1
408,98,1,0,1
409,98,1,0,1
410,98,1,0,1
411,98,1,0,1
412,98,1,0,1
413,98,1,0,1
414,98,1,0,1
415,98,1,0,1
416,98,1,0,1
417,98,1,0,1
418,98,1,0,1
419,98,1,0,1
420,98,1,0,1
421,98,1,0,1
422,98,1,0,1
423,98,1,0,1
424,98,1,0,1
425,98,1,0,1
426,98,1,0,1
427,98,1,0,1
428,98,1,0,1
429,98,1,0,1
430,98,1,0,1
431,98,1,0,1
432,98,1,0,1
433,98,1,0,1
434,98,1,0,1
435,98,1,0,1
436,98,1,0,1
437,98,1,0,1
438,98,1,0,1
439,98,1,0,1
440,98,1,0,1
441,98,1,0,1
442,98,1,0,1
443,98,1,0,1
444,98,1,0,1
445,98,1,0,1
446,98,1,0,1
447,98,1,0,1
448,98,1,0,1
449,98,1,0,1
450,98,1,0,1
451,98,1,0,1
452,98,1,0,1
453,98,1,0,1
454,98,1,0,1
455,98,1,0,1
456,98,1,0,1
457,98,1,0,1
458,98,1,0,1
459,98,1,0,1
460,98,1,0,1
461,98,1,0,1
462,98,1,0,1
463,98,1,0,1
464,98,1,0,1
465,98,1,0,1
466,98,1,0,1
467,98,1,0,1
468,98,1,0,1
469,98,1,0,1
470,98,1,0,1
471,98,1,0,1
472,98,1,0,1
473,98,1,0,1
474,98,1,0,1
475,98,1,0,1
476,98,1,0,1
477,98,1,0,1
478,98,1,0,1
479,98,1,0,1
480,98,1,0,1
481,98,1,0,1
482,98,1,0,1
483,98,1,0,1
484,98,1,0,1
485,98,1,0,1
486,98,1,0,1
487,98,1,0,1
488,98,1,0,1
489,98,1,0,1
490,98,1,0,1
491,98,1,0,1
492,98,1,0,1
493,98,1,0,1
494,98,0,1,1
495,98,0,1,1
496,98,0,1,1
497,98,0,1,1
498,98,0,1,1
499,98,0,1,1
500,98,0,1,1
501,98,0,1,1
502,98,0,1,1
503,98,0,1,1
504,98,0,1,1
505,98,0,1,1
506,98,0,1,1
507,98,0,1,1
508,98,0,1,1
509,98,0,1,1
510,98,0,1,1
511,98,0,1,1
512,98,0,1,1
513,98,0,1,1
514,98,0,1,1
515,98,0,1,1
516,98,0,1,1
517,98,0,1,1
518,98,0,1,1
519,98,0,1,1
520,98,0,1,1
521,98,0,1,1
522,98,0,1,1
523,98,0,1,1
524,98,0,1,1
525,98,0,1,1
526,98,0,1,1
527,98,0,1,1
528,98,0,1,1
529,98,0,1,1
530,98,0,1,1
531,98,0,1,1
532,98,0,1,1
533,98,0,1,1
534,98,0,1,1
535,98,0,1,1
536,98,0,1,1
537,98,0,1,1
538,98,0,1,1
539,98,0,1,1
540,98,0,1,1
541,98,0,1,1
542,98,0,1,1
543,98,0,1,1
544,98,0,1,1
545,98,0,1,1
546,98,0,1,1
547,98,0,1,1
548,98,0,1,1
549,98,0,1,1
550,98,0,1,1
551,98,0,1,1
552,98,0,1,1
553,98,0,1,1
554,98,0,1,1
555,98,0,1,1
556,98,0,1,1
557,98,0,1,1
558,98,0,1,1
559,98,0,1,1
560,98,0,1,1
561,98,0,1,1
562,98,0,1,1
563,98,0,1,1
564,98,0,1,1
565,98,0,1,1
566,98,0,1,1
567,98,0,1,1
568,98,0,1,1
569,98,0,1,1
570,98,0,1,1
571,98,0,1,1
572,98,0,1,1
573,98,0,1,1
574,98,0,1,1
575,98,0,1,1
576,98,0,1,1
577,98,0,1,1
578,98,0,1,1
579,98,0,1,1
580,98,0,1,1
581,98,0,1,1
582,98,0,1,1
583,98,0,1,1
584,98,0,1,1
585,98,0,1,1
586,98,0,1,1
587,98,0,1,1
588,98,0,1,1
589,98,0,1,1
590,98,0,1,1
591,98,0,1,1
592,98,0,1,1
593,98,0,1,1
594,98,0,1,1
595,98,0,1,1
596,98,0,1,1
597,98,0,1,1
598,98,0,1,1
599,98,0,1,1
600,98,0,1,1
601,98,0,1,1
602,98,0,1,1
603,98,0,1,1
604,98,0,1,1
605,98,0,1,1
606,98,0,1,1
607,98,0,1,1
608,98,0,1,1
609,98,0,1,1
610,98,0,1,1
611,98,0,1,1
612,98,0,1,1
613,98,0,1,1
614,98,0,1,1
615,98,0,1,1
616,98,0,1,1
617,98,0,1,1
618,98,0,1,1
619,98,0,1,1
620,98,0,1,1
621,98,0,1,1
622,98,0,1,1
623,98,0,1,1
624,98,0,1,1
625,98,0,1,1
626,98,0,1,1
627,98,0,1,1
628,98,0,1,1
629,98,0,1,1
630,98,0,1,1
631,98,0,1,1
632,98,0,1,1
633,98,0,1,1
634,98,0,1,1
635,98,0,1,1
636,98,0,1,1
637,98,0,1,1
638,98,0,1,1
639,98,0,1,1
640,98,0,1,1
641,98,0,1,1
642,98,0,1,1
643,98,0,1,1
644,98,0,1,1
645,98,0,1,1
646,98,0,1,1
647,98,0,1,1
648,98,0,1,1
649,98,0,1,1
650,98,0,1,1
651,98,0,1,1
652,98,0,1,1
653,98,0,1,1
654,98,0,1,1
655,98,0,1,1
656,98,0,1,1
657,98,0,1,1
658,98,0,1,1
659,98,0,1,1
660,98,0,1,1
661,98,0,1,1
662,98,0,1,1
663,98,0,1,1
664,98,0,1,1
665,98,0,1,1
666,98,0,1,1
667,98,0,1,1
668,98,0,1,1
669,98,0,1,1
670,98,0,1,1
671,98,0,1,1
672,98,0,1,1
673,98,0,1,1
674,98,0,1,1
675,98,0,1,1
676,98,0,1,1
677,98,0,1,1
678,98,0,1,1
679,98,0,1,1
680,98,0,1,1
681,98,0,1,1
682,98,0,1,1
683,98,0,1,1
684,98,0,1,1
685,98,0,1,1
686,98,0,1,1
687,98,0,1,1
688,98,0,1,1
689,98,0,1,1
690,98,0,1,1
691,98,0,1,1
692,98,0,1,1
693,98,0,1,1
694,98,0,1,1
695,98,0,0,2
696,98,0,0,2
697,98,0,0,2
698,98,0,0,2
699,98,0,0,2
700,98,0,0,2
701,98,0,0,2
702,98,0,0,2
703,98,0,0,2
704,98,0,0,2
705,98,0,0,2
706,98,0,0,2
707,98,0,0,2
708,98,0,0,2
709,98,0,0,2
710,98,0,0,2
711,98,0,0,2
712,98,0,0,2
713,98,0,0,2
714,98,0,0,2
715,98,0,0,2
716,98,0,0,2
717,98,0,0,2
718,98,0,0,2
719,98,0,0,2
720,98,0,0,2
721,98,0,0,2
722,98,0,0,2
723,98,0,0,2
724,98,0,0,2
725,98,0,0,2
726,98,0,0,2
727,98,0,0,2
728,98,0,0,2
729,98,0,0,2
730,98,0,0,2
731,98,0,0,2
732,98,0,0,2
733,98,0,0,2
734,98,0,0,2
735,98,0,0,2
736,98,0,0,2
737,98,0,0,2
738,98,0,0,2
739,98,0,0,2
740,98,0,0,2
741,98,0,0,2
742,98,0,0,2
743,98,0,0,2
744,98,0,0,2
745,98,0,0,2
746,98,0,0,2
747,98,0,0,2
748,98,0,0,2
749,98,0,0,2
750,98,0,0,2
751,98,0,0,2
752,98,0,0,2
753,98,0,0,2
754,98,0,0,2
755,98,0,0,2
756,98,0,0,2
757,98,0,0,2
758,98,0,0,2
759,98,0,0,2
760,98,0,0,2
761,98,0,0,2
762,98,0,0,2
763,98,0,0,2
764,98,0,0,2
765,98,0,0,2
766,98,0,0,2
767,98,0,0,2
768,98,0,0,2
769,98,0,0,2
770,98,0,0,2
771,98,0,0,2
772,98,0,0,2
773,98,0,0,2
774,98,0,0,2
775,98,0,0,2
776,98,0,0,2
777,98,0,0,2
778,98,0,0,2
779,98,0,0,2
780,98,0,0,2
781,98,0,0,2
782,98,0,0,2
783,98,0,0,2
784,98,0,0,2
785,98,0,0,2
786,98,0,0,2
787,98,0,0,2
788,98,0,0,2
789,98,0,0,2
790,98,0,0,2
791,98,0,0,2
792,98,0,0,2
793,98,0,0,2
794,98,0,0,2
795,98,0,0,2
796,98,0,0,2
797,98,0,0,2
798,98,0,0,2
799,98,0,0,2
800,98,0,0,2
801,98,0,0,2
802,98,0,0,2
803,98,0,0,2
804,98,0,0,2
805,98,0,0,2
806,98,0,0,2
807,98,0,0,2
808,98,0,0,2
809,98,0,0,2
810,98,0,0,2
811,98,0,0,2
812,98,0,0,2
813,98,0,0,2
814,98,0,0,2
815,98,0,0,2
816,98,0,0,2
817,98,0,0,2
818,98,0,0,2
819,98,0,0,2
820,98,0,0,2
821,98,0,0,2
822,98,0,0,2
823,98,0,0,2
824,98,0,0,2
825,98,0,0,2
826,98,0,0,2
827,98,0,0,2
828,98,0,0,2
829,98,0,0,2
830,98,0,0,2
831,98,0,0,2
832,98,0,0,2
833,98,0,0,2
834,98,0,0,2
835,98,0,0,2
836,98,0,0,2
837,98,0,0,2
838,98,0,0,2
839,98,0,0,2
840,98,0,0,2
841,98,0,0,2
842,98,0,0,2
843,98,0,0,2
844,98,0,0,2
845,98,0,0,2
846,98,0,0,2
847,98,0,0,2
848,98,0,0,2
849,98,0,0,2
850,98,0,0,2
851,98,0,0,2
852,98,0,0,2
853,98,0,0,2
854,98,0,0,2
855,98,0,0,2
856,98,0,0,2
857,98,0,0,2
858,98,0,0,2
859,98,0,0,2
860,98,0,0,2
861,98,0,0,2
862,98,0,0,2
863,98,0,0,2
864,98,0,0,2
865,98,0,0,2
866,98,0,0,2
867,98,0,0,2
868,98,0,0,2
869,98,0,0,2
870,98,0,0,2
871,98,0,0,2
872,98,0,0,2
873,98,0,0,2
874,98,0,0,2
875,98,0,0,2
876,98,0,0,2
877,98,0,0,2
878,98,0,0,2
879,98,0,0,2
880,98,0,0,2
881,98,0,0,2
882,98,0,0,2
883,98,0,0,2
884,98,0,0,2
885,98,0,0,2
886,98,0,0,2
887,98,0,0,2
888,98,0,0,2
889,98,0,0,2
890,98,0,0,2
891,98,0,0,2
892,98,0,0,2
893,98,0,0,2
894,98,0,0,2
895,98,0,0,2
896,98,0,0,2
897,98,0,0,2
898,98,0,0,2
899,98,0,0,2
900,98,0,0,2
901,98,0,0,2
902,98,0,0,2
903,98,0,0,2
904,98,0,0,2
905,98,0,0,2
906,98,0,0,2
907,98,0,0,2
908,98,0,0,2
909,98,0,0,2
910,98,0,0,2
911,98,0,0,2
912,98,0,0,2
913,98,0,0,2
914,98,0,0,2
915,98,0,0,2
916,98,0,0,2
917,98,0,0,2
918,98,0,0,2
919,98,0,0,2
920,98,0,0,2
921,98,0,0,2
922,98,0,0,2
923,98,0,0,2
924,98,0,0,2
925,98,0,0,2
926,98,0,0,2
927,98,0,0,2
928,98,0,0,2
929,98,0,0,2
930,98,0,0,2
931,98,0,0,2
932,98,0,0,2
933,98,0,0,2
934,98,0,0,2
935,98,0,0,2
936,98,0,0,2
937,98,0,0,2
938,98,0,0,2
939,98,0,0,2
940,98,0,0,2
941,98,0,0,2
942,98,0,0,2
943,98,0,0,2
944,98,0,0,2
945,98,0,0,2
946,98,0,0,2
947,98,0,0,2
948,98,0,0,2
949,98,0,0,2
950,98,0,0,2
951,98,0,0,2
952,98,0,0,2
953,98,0,0,2
954,98,0,0,2
955,98,0,0,2
956,98,0,0,2
957,98,0,0,2
958,98,0,0,2
959,98,0,0,2
960,98,0,0,2
961,98,0,0,2
962,98,0,0,2
963,98,0,0,2
964,98,0,0,2
965,98,0,0,2
966,98,0,0,2
967,98,0,0,2
968,98,0,0,2
969,98,0,0,2
970,98,0,0,2
971,98,0,0,2
972,98,0,0,2
973,98,0,0,2
974,98,0,0,2
975,98,0,0,2
976,98,0,0,2
977,98,0,0,2
978,98,0,0,2
979,98,0,0,2
980,98,0,0,2
981,98,0,0,2
982,98,0,0,2
983,98,0,0,2
984,98,0,0,2
985,98,0,0,2
986,98,0,0,2
987,98,0,0,2
988,98,0,0,2
989,98,0,0,2
990,98,0,0,2
991,98,0,0,2
992,98,0,0,2
993,98,0,0,2
994,98,0,0,2
995,98,0,0,2
996,98,0,0,2
997,98,0,0,2
998,98,0,0,2
999,98,0,0,2
1000,98,0,0,2
1001,98,0,0,2
1002,98,0,0,2
1003,98,0,0,2
1004,98,0,0,2
1005,98,0,0,2
1006,98,0,0,2
1007,98,0,0,2
1008,98,0,0,2
1009,98,0,0,2
1010,98,0,0,2
1011,98,0,0,2
1012,98,0,0,2
1013,98,0,0,2
1014,98,0,0,2
1015,98,0,0,2
1016,98,0,0,2
1017,98,0,0,2
1018,98,0,0,2
1019,98,0,0,2
1020,98,0,0,2
1021,98,0,0,2
1022,98,0,0,2
1023,98,0,0,2
1024,98,0,0,2
1025,98,0,0,2
1026,98,0,0,2
1027,98,0,0,2
1028,98,0,0,2
1029,98,0,0,2
1030,98,0,0,2
1031,98,0,0,2
1032,98,0,0,2
1033,98,0,0,2
1034,98,0,0,2
1035,98,0,0,2
1036,98,0,0,2
1037,98,0,0,2
1038,98,0,0,2
1039,98,0,0,2
1040,98,0,0,2
1041,98,0,0,2
1042,98,0,0,2
1043,98,0,0,2
1044,98,0,0,2
1045,98,0,0,2
1046,98,0,0,2
1047,98,0,0,2
1048,98,0,0,2
1049,98,0,0,2
1050,98,0,0,2
1051,98,0,0,2
1052,98,0,0,2
1053,98,0,0,2
1054,98,0,0,2
1055,98,0,0,2
1056,98,0,0,2
1057,98,0,0,2
1058,98,0,0,2
1059,98,0,0,2
1060,98,0,0,2
1061,98,0,0,2
1062,98,0,0,2
1063,98,0,0,2
1064,98,0,0,2
1065,98,0,0,2
1066,98,0,0,2
1067,98,0,0,2
1068,98,0,0,2
1069,98,0,0,2
1070,98,0,0,2
1071,98,0,0,2
1072,98,0,0,2
1073,98,0,0,2
1074,98,0,0,2
1075,98,0,0,2
1076,98,0,0,2
1077,98,0,0,2
1078,98,0,0,2
1079,98,0,0,2
1080,98,0,0,2
1081,98,0,0,2
1082,98,0,0,2
1083,98,0,0,2
1084,98,0,0,2
1085,98,0,0,2
1086,98,0,0,2
1087,98,0,0,2
1088,98,0,0,2
1089,98,0,0,2
1090,98,0,0,2
1091,98,0,0,2
1092,98,0,0,2
1093,98,0,0,2
1094,98,0,0,2
1095,98,0,0,2
1096,98,0,0,2
1097,98,0,0,2
1098,98,0,0,2
1099,98,0,0,2
1100,98,0,0,2
1101,98,0,0,2
1102,98,0,0,2
1103,98,0,0,2
1104,98,0,0,2
1105,98,0,0,2
1106,98,0,0,2
1107,98,0,0,2
1108,98,0,0,2
1109,98,0,0,2
1110,98,0,0,2
1111,98,0,0,2
1112,98,0,0,2
1113,98,0,0,2
1114,98,0,0,2
1115,98,0,0,2
1116,98,0,0,2
1117,98,0,0,2
1118,98,0,0,2
1119,98,0,0,2
1120,98,0,0,2
1121,98,0,0,2
1122,98,0,0,2
1123,98,0,0,2
1124,98,0,0,2
1125,98,0,0,2
1126,98,0,0,2
1127,98,0,0,2
1128,98,0,0,2
1129,98,0,0,2
1130,98,0,0,2
1131,98,0,0,2
1132,98,0,0,2
1133,98,0,0,2
1134,98,0,0,2
1135,98,0,0,2
1136,98,0,0,2
1137,98,0,0,2
1138,98,0,0,2
1139,98,0,0,2
1140,98,0,0,2
1141,98,0,0,2
1142,98,0,0,2
1143,98,0,0,2
1144,98,0,0,2
1145,98,0,0,2
1146,98,0,0,2
1147,98,0,0,2
1148,98,0,0,2
1149,98,0,0,2
1150,98,0,0,2
1151,98,0,0,2
1152,98,0,0,2
1153,98,0,0,2
1154,98,0,0,2
1155,98,0,0,2
1156,98,0,0,2
1157,98,0,0,2
1158,98,0,0,2
1159,98,0,0,2
1160,98,0,0,2
1161,98,0,0,2
1162,98,0,0,2
1163,98,0,0,2
1164,98,0,0,2
1165,98,0,0,2
1166,98,0,0,2
1167,98,0,0,2
1168,98,0,0,2
1169,98,0,0,2
1170,98,0,0,2
1171,98,0,0,2
1172,98,0,0,2
1173,98,0,0,2
1174,98,0,0,2
1175,98,0,0,2
1176,98,0,0,2
1177,98,0,0,2
1178,98,0,0,2
1179,98,0,0,2
1180,98,0,0,2
1181,98,0,0,2
1182,98,0,0,2
1183,98,0,0,2
1184,98,0,0,2
1185,98,0,0,2
1186,98,0,0,2
1187,98,0,0,2
1188,98,0,0,2
1189,98,0,0,2
1190,98,0,0,2
1191,98,0,0,2
1192,98,0,0,2
1193,98,0,0,2
1194,98,0,0,2
1195,98,0,0,2
1196,98,0,0,2
1197,98,0,0,2
1198,98,0,0,2
1199,98,0,0,2
1200,98,0,0,2
1201,98,0,0,2
1202,98,0,0,2
1203,98,0,0,2
1204,98,0,0,2
1205,98,0,0,2
1206,98,0,0,2
1207,98,0,0,2
1208,98,0,0,2
1209,98,0,0,2
1210,98,0,0,2
1211,98,0,0,2
1212,98,0,0,2
1213,98,0,0,2
1214,98,0,0,2
1215,98,0,0,2
1216,98,0,0,2
1217,98,0,0,2
1218,98,0,0,2
1219,98,0,0,2
1220,98,0,0,2
1221,98,0,0,2
1222,98,0,0,2
1223,98,0,0,2
1224,98,0,0,2
1225,98,0,0,2
1226,98,0,0,2
1227,98,0,0,2
1228,98,0,0,2
1229,98,0,0,2
1230,98,0,0,2
1231,98,0,0,2
1232,98,0,0,2
1233,98,0,0,2
1234,98,0,0,2
1235,98,0,0,2
1236,98,0,0,2
1237,98,0,0,2
1238,98,0,0,2
1239,98,0,0,2
1240,98,0,0,2
1241,98,0,0,2
1242,98,0,0,2
1243,98,0,0,2
1244,98,0,0,2
1245,98,0,0,2
1246,98,0,0,2
1247,98,0,0,2
1248,98,0,0,2
1249,98,0,0,2
1250,98,0,0,2
1251,98,0,0,2
1252,98,0,0,2
1253,98,0,0,2
1254,98,0,0,2
1255,98,0,0,2
1256,98,0,0,2
1257,98,0,0,2
1258,98,0,0,2
1259,98,0,0,2
1260,98,0,0,2
1261,98,0,0,2
1262,98,0,0,2
1263,98,0,0,2
1264,98,0,0,2
1265,98,0,0,2
1266,98,0,0,2
1267,98,0,0,2
1268,98,0,0,2
1269,98,0,0,2
1270,98,0,0,2
1271,98,0,0,2
1272,98,0,0,2
1273,98,0,0,2
1274,98,0,0,2
1275,98,0,0,2
1276,98,0,0,2
1277,98,0,0,2
1278,98,0,0,2
1279,98,0,0,2
1280,98,0,0,2
1281,98,0,0,2
1282,98,0,0,2
1283,98,0,0,2
1284,98,0,0,2
1285,98,0,0,2
1286,98,0,0,2
1287,98,0,0,2
1288,98,0,0,2
1289,98,0,0,2
1290,98,0,0,2
1291,98,0,0,2
1292,98,0,0,2
1293,98,0,0,2
1294,98,0,0,2
1295,98,0,0,2
1296,98,0,0,2
1297,98,0,0,2
1298,98,0,0,2
1299,98,0,0,2
1300,98,0,0,2
1301,98,0,0,2
1302,98,0,0,2
1303,98,0,0,2
1304,98,0,0,2
1305,98,0,0,2
1306,98,0,0,2
1307,98,0,0,2
1308,98,0,0,2
1309,98,0,0,2
1310,98,0,0,2
1311,98,0,0,2
1312,98,0,0,2
1313,98,0,0,2
1314,98,0,0,2
1315,98,0,0,2
1316,98,0,0,2
1317,98,0,0,2
1318,98,0,0,2
1319,98,0,0,2
1320,98,0,0,2
1321,98,0,0,2
1322,98,0,0,2
1323,98,0,0,2
1324,98,0,0,2
1325,98,0,0,2
1326,98,0,0,2
1327,98,0,0,2
1328,98,0,0,2
1329,98,0,0,2
1330,98,0,0,2
1331,98,0,0,2
1332,98,0,0,2
1333,98,0,0,2
1334,98,0,0,2
1335,98,0,0,2
1336,98,0,0,2
1337,98,0,0,2
1338,98,0,0,2
1339,98,0,0,2
1340,98,0,0,2
1341,98,0,0,2
1342,98,0,0,2
1343,98,0,0,2
1344,98,0,0,2
1345,98,0,0,2
1346,98,0,0,2
1347,98,0,0,2
1348,98,0,0,2
1349,98,0,0,2
1350,98,0,0,2
1351,98,0,0,2
1352,98,0,0,2
1353,98,0,0,2
1354,98,0,0,2
1355,98,0,0,2
1356,98,0,0,2
1357,98,0,0,2
1358,98,0,0,2
1359,98,0,0,2
1360,98,0,0,2
1361,98,0,0,2
1362,98,0,0,2
1363,98,0,0,2
1364,98,0,0,2
1365,98,0,0,2
1366,98,0,0,2
1367,98,0,0,2
1368,98,0,0,2
1369,98,0,0,2
1370,98,0,0,2
1371,98,0,0,2
1372,98,0,0,2
1373,98,0,0,2
1374,98,0,0,2
1375,98,0,0,2
1376,98,0,0,2
1377,98,0,0,2
1378,98,0,0,2
1379,98,0,0,2
1380,98,0,0,2
1381,98,0,0,2
1382,98,0,0,2
1383,98,0,0,2
1384,98,0,0,2
1385,98,0,0,2
1386,98,0,0,2
1387,98,0,0,2
1388,98,0,0,2
1389,98,0,0,2
1390,98,0,0,2
1391,98,0,0,2
1392,98,0,0,2
1393,98,0,0,2
1394,98,0,0,2
1395,98,0,0,2
1396,98,0,0,2
1397,98,0,0,2
1398,98,0,0,2
1399,98,0,0,2
1400,98,0,0,2
1401,98,0,0,2
1402,98,0,0,2
1403,98,0,0,2
1404,98,0,0,2
1405,98,0,0,2
1406,98,0,0,2
1407,98,0,0,2
1408,98,0,0,2
1409,98,0,0,2
1410,98,0,0,2
1411,98,0,0,2
1412,98,0,0,2
1413,98,0,0,2
1414,98,0,0,2
1415,98,0,0,2
1416,98,0,0,2
1417,98,0,0,2
1418,98,0,0,2
1419,98,0,0,2
1420,98,0,0,2
1421,98,0,0,2
1422,98,0,0,2
1423,98,0,0,2
1424,98,0,0,2
1425,98,0,0,2
1426,98,0,0,2
1427,98,0,0,2
1428,98,0,0,2
1429,98,0,0,2
1430,98,0,0,2
1431,98,0,0,2
1432,98,0,0,2
1433,98,0,0,2
1434,98,0,0,2
1435,98,0,0,2
1436,98,0,0,2
1437,98,0,0,2
1438,98,0,0,2
1439,98,0,0,2
1440,98,0,0,2
1441,98,0,0,2
1442,98,0,0,2
1443,98,0,0,2
1444,98,0,0,2
1445,98,0,0,2
1446,98,0,0,2
1447,98,0,0,2
1448,98,0,0,2
1449,98,0,0,2
1450,98,0,0,2
1451,98,0,0,2
1452,98,0,0,2
1453,98,0,0,2
1454,98,0,0,2
1455,98,0,0,2
1456,98,0,0,2
1457,98,0,0,2
1458,98,0,0,2
1459,98,0,0,2
1460,98,0,0,2
1461,98,0,0,2
1462,98,0,0,2
1463,98,0,0,2
1464,98,0,0,2
1465,98,0,0,2
1466,98,0,0,2
1467,98,0,0,2
1468,98,0,0,2
1469,98,0,0,2
1470,98,0,0,2
1471,98,0,0,2
1472,98,0,0,2
1473,98,0,0,2
1474,98,0,0,2
1475,98,0,0,2
1476,98,0,0,2
1477,98,0,0,2
1478,98,0,0,2
1479,98,0,0,2
1480,98,0,0,2
1481,98,0,0,2
1482,98,0,0,2
1483,98,0,0,2
1484,98,0,0,2
1485,98,0,0,2
1486,98,0,0,2
1487,98,0,0,2
1488,98,0,0,2
1489,98,0,0,2
1490,98,0,0,2
1491,98,0,0,2
1492,98,0,0,2
1493,98,0,0,2
1494,98,0,0,2
1495,98,0,0,2
1496,98,0,0,2
1497,98,0,0,2
1498,98,0,0,2
1499,98,0,0,2
1500,98,0,0,2
1501,98,0,0,2
1502,98,0,0,2
1503,98,0,0,2
1504,98,0,0,2
1505,98,0,0,2
1506,98,0,0,2
1507,98,0,0,2
1508,98,0,0,2
1509,98,0,0,2
1510,98,0,0,2
1511,98,0,0,2
1512,98,0,0,2
1513,98,0,0,2
1514,98,0,0,2
1515,98,0,0,2
1516,98,0,0,2
1517,98,0,0,2
1518,98,0,0,2
1519,98,0,0,2
1520,98,0,0,2
1521,98,0,0,2
1522,98,0,0,2
1523,98,0,0,2
1524,98,0,0,2
1525,98,0,0,2
1526,98,0,0,2
1527,98,0,0,2
1528,98,0,0,2
1529,98,0,0,2
1530,98,0,0,2
1531,98,0,0,2
1532,98,0,0,2
1533,98,0,0,2
1534,98,0,0,2
1535,98,0,0,2
1536,98,0,0,2
1537,98,0,0,2
1538,98,0,0,2
1539,98,0,0,2
1540,98,0,0,2
1541,98,0,0,2
1542,98,0,0,2
1543,98,0,0,2
1544,98,0,0,2
1545,98,0,0,2
1546,98,0,0,2
1547,98,0,0,2
1548,98,0,0,2
1549,98,0,0,2
1550,98,0,0,2
1551,98,0,0,2
1552,98,0,0,2
1553,98,0,0,2
1554,98,0,0,2
1555,98,0,0,2
1556,98,0,0,2
1557,98,0,0,2
1558,98,0,0,2
1559,98,0,0,2
1560,98,0,0,2
1561,98,0,0,2
1562,98,0,0,2
1563,98,0,0,2
1564,98,0,0,2
1565,98,0,0,2
1566,98,0,0,2
1567,98,0,0,2
1568,98,0,0,2
1569,98,0,0,2
1570,98,0,0,2
1571,98,0,0,2
1572,98,0,0,2
1573,98,0,0,2
1574,98,0,0,2
1575,98,0,0,2
1576,98,0,0,2
1577,98,0,0,2
1578,98,0,0,2
1579,98,0,0,2
1580,98,0,0,2
1581,98,0,0,2
1582,98,0,0,2
1583,98,0,0,2
1584,98,0,0,2
1585,98,0,0,2
1586,98,0,0,2
1587,98,0,0,2
1588,98,0,0,2
1589,98,0,0,2
1590,98,0,0,2
1591,98,0,0,2
1592,98,0,0,2
1593,98,0,0,2
1594,98,0,0,2
1595,98,0,0,2
1596,98,0,0,2
1597,98,0,0,2
1598,98,0,0,2
1599,98,0,0,2
1600,98,0,0,2
1601,98,0,0,2
1602,98,0,0,2
1603,98,0,0,2
1604,98,0,0,2
1605,98,0,0,2
1606,98,0,0,2
1607,98,0,0,2
1608,98,0,0,2
1609,98,0,0,2
1610,98,0,0,2
1611,98,0,0,2
1612,98,0,0,2
1613,98,0,0,2
1614,98,0,0,2
1615,98,0,0,2
1616,98,0,0,2
1617,98,0,0,2
1618,98,0,0,2
1619,98,0,0,2
1620,98,0,0,2
1621,98,0,0,2
1622,98,0,0,2
1623,98,0,0,2
1624,98,0,0,2
1625,98,0,0,2
1626,98,0,0,2
1627,98,0,0,2
1628,98,0,0,2
1629,98,0,0,2
1630,98,0,0,2
1631,98,0,0,2
1632,98,0,0,2
1633,98,0,0,2
1634,98,0,0,2
1635,98,0,0,2
1636,98,0,0,2
1637,98,0,0,2
1638,98,0,0,2
1639,98,0,0,2
1640,98,0,0,2
1641,98,0,0,2
1642,98,0,0,2
1643,98,0,0,2
1644,98,0,0,2
1645,98,0,0,2
1646,98,0,0,2
1647,98,0,0,2
1648,98,0,0,2
1649,98,0,0,2
1650,98,0,0,2
1651,98,0,0,2
1652,98,0,0,2
1653,98,0,0,2
1654,98,0,0,2
1655,98,0,0,2
1656,98,0,0,2
1657,98,0,0,2
1658,98,0,0,2
1659,98,0,0,2
1660,98,0,0,2
1661,98,0,0,2
1662,98,0,0,2
1663,98,0,0,2
1664,98,0,0,2
1665,98,0,0,2
1666,98,0,0,2
1667,98,0,0,2
1668,98,0,0,2
1669,98,0,0,2
1670,98,0,0,2
1671,98,0,0,2
1672,98,0,0,2
1673,98,0,0,2
1674,98,0,0,2
1675,98,0,0,2
1676,98,0,0,2
1677,98,0,0,2
1678,98,0,0,2
1679,98,0,0,2
1680,98,0,0,2
1681,98,0,0,2
1682,98,0,0,2
1683,98,0,0,2
1684,98,0,0,2
1685,98,0,0,2
1686,98,0,0,2
1687,98,0,0,2
1688,98,0,0,2
1689,98,0,0,2
1690,98,0,0,2
1691,98,0,0,2
1692,98,0,0,2
1693,98,0,0,2
1694,98,0,0,2
1695,98,0,0,2
1696,98,0,0,2
1697,98,0,0,2
1698,98,0,0,2
1699,98,0,0,2
1700,98,0,0,2
1701,98,0,0,2
1702,98,0,0,2
1703,98,0,0,2
1704,98,0,0,2
1705,98,0,0,2
1706,98,0,0,2
1707,98,0,0,2
1708,98,0,0,2
1709,98,0,0,2
1710,98,0,0,2
1711,98,0,0,2
1712,98,0,0,2
1713,98,0,0,2
1714,98,0,0,2
1715,98,0,0,2
1716,98,0,0,2
1717,98,0,0,2
1718,98,0,0,2
1719,98,0,0,2
1720,98,0,0,2
1721,98,0,0,2
1722,98,0,0,2
1723,98,0,0,2
1724,98,0,0,2
1725,98,0,0,2
1726,98,0,0,2
1727,98,0,0,2
1728,98,0,0,2
1729,98,0,0,2
1730,98,0,0,2
1731,98,0,0,2
1732,98,0,0,2
1733,98,0,0,2
1734,98,0,0,2
1735,98,0,0,2
1736,98,0,0,2
1737,98,0,0,2
1738,98,0,0,2
1739,98,0,0,2
1740,98,0,0,2
1741,98,0,0,2
1742,98,0,0,2
1743,98,0,0,2
1744,98,0,0,2
1745,98,0,0,2
1746,98,0,0,2
1747,98,0,0,2
1748,98,0,0,2
1749,98,0,0,2
1750,98,0,0,2
1751,98,0,0,2
1752,98,0,0,2
1753,98,0,0,2
1754,98,0,0,2
1755,98,0,0,2
1756,98,0,0,2
1757,98,0,0,2
1758,98,0,0,2
1759,98,0,0,2
1760,98,0,0,2
1761,98,0,0,2
1762,98,0,0,2
1763,98,0,0,2
1764,98,0,0,2
1765,98,0,0,2
1766,98,0,0,2
1767,98,0,0,2
1768,98,0,0,2
1769,98,0,0,2
1770,98,0,0,2
1771,98,0,0,2
1772,98,0,0,2
1773,98,0,0,2
1774,98,0,0,2
1775,98,0,0,2
1776,98,0,0,2
1777,98,0,0,2
1778,98,0,0,2
1779,98,0,0,2
1780,98,0,0,2
1781,98,0,0,2
1782,98,0,0,2
1783,98,0,0,2
1784,98,0,0,2
1785,98,0,0,2
1786,98,0,0,2
1787,98,0,0,2
1788,98,0,0,2
1789,98,0,0,2
1790,98,0,0,2
1791,98,0,0,2
1792,98,0,0,2
1793,98,0,0,2
1794,98,0,0,2
1795,98,0,0,2
1796,98,0,0,2
1797,98,0,0,2
1798,98,0,0,2
1799,98,0,0,2
1800,98,0,0,2
1801,98,0,0,2
1802,98,0,0,2
1803,98,0,0,2
1804,98,0,0,2
1805,98,0,0,2
1806,98,0,0,2
1807,98,0,0,2
1808,98,0,0,2
1809,98,0,0,2
1810,98,0,0,2
1811,98,0,0,2
1812,98,0,0,2
1813,98,0,0,2
1814,98,0,0,2
1815,98,0,0,2
1816,98,0,0,2
1817,98,0,0,2
1818,98,0,0,2
1819,98,0,0,2
1820,98,0,0,2
1821,98,0,0,2
1822,98,0,0,2
1823,98,0,0,2
1824,98,0,0,2
1825,98,0,0,2
1826,98,0,0,2
1827,98,0,0,2
1828,98,0,0,2
1829,98,0,0,2
1830,98,0,0,2
1831,98,0,0,2
1832,98,0,0,2
1833,98,0,0,2
1834,98,0,0,2
1835,98,0,0,2
1836,98,0,0,2
1837,98,0,0,2
1838,98,0,0,2
1839,98,0,0,2
1840,98,0,0,2
1841,98,0,0,2
1842,98,0,0,2
1843,98,0,0,2
1844,98,0,0,2
1845,98,0,0,2
1846,98,0,0,2
1847,98,0,0,2
1848,98,0,0,2
1849,98,0,0,2
1850,98,0,0,2
1851,98,0,0,2
1852,98,0,0,2
1853,98,0,0,2
1854,98,0,0,2
1855,98,0,0,2
1856,98,0,0,2
1857,98,0,0,2
1858,98,0,0,2
1859,98,0,0,2
1860,98,0,0,2
1861,98,0,0,2
1862,98,0,0,2
1863,98,0,0,2
1864,98,0,0,2
1865,98,0,0,2
1866,98,0,0,2
1867,98,0,0,2
1868,98,0,0,2
1869,98,0,0,2
1870,98,0,0,2
1871,98,0,0,2
1872,98,0,0,2
1873,98,0,0,2
1874,98,0,0,2
1875,98,0,0,2
1876,98,0,0,2
1877,98,0,0,2
1878,98,0,0,2
1879,98,0,0,2
1880,98,0,0,2
1881,98,0,0,2
1882,98,0,0,2
1883,98,0,0,2
1884,98,0,0,2
1885,98,0,0,2
1886,98,0,0,2
1887,98,0,0,2
1888,98,0,0,2
1889,98,0,0,2
1890,98,0,0,2
1891,98,0,0,2
1892,98,0,0,2
1893,98,0,0,2
1894,98,0,0,2
1895,98,0,0,2
1896,98,0,0,2
1897,98,0,0,2
1898,98,0,0,2
1899,98,0,0,2
1900,98,0,0,2
1901,98,0,0,2
1902,98,0,0,2
1903,98,0,0,2
1904,98,0,0,2
1905,98,0,0,2
1906,98,0,0,2
1907,98,0,0,2
1908,98,0,0,2
1909,98,0,0,2
1910,98,0,0,2
1911,98,0,0,2
1912,98,0,0,2
1913,98,0,0,2
1914,98,0,0,2
1915,98,0,0,2
1916,98,0,0,2
1917,98,0,0,2
1918,98,0,0,2
1919,98,0,0,2
1920,98,0,0,2
1921,98,0,0,2
1922,98,0,0,2
1923,98,0,0,2
1924,98,0,0,2
1925,98,0,0,2
1926,98,0,0,2
1927,98,0,0,2
1928,98,0,0,2
1929,98,0,0,2
1930,98,0,0,2
1931,98,0,0,2
1932,98,0,0,2
1933,98,0,0,2
1934,98,0,0,2
1935,98,0,0,2
1936,98,0,0,2
1937,98,0,0,2
1938,98,0,0,2
1939,98,0,0,2
1940,98,0,0,2
1941,98,0,0,2
1942,98,0,0,2
1943,98,0,0,2
1944,98,0,0,2
1945,98,0,0,2
1946,98,0,0,2
1947,98,0,0,2
1948,98,0,0,2
1949,98,0,0,2
1950,98,0,0,2
1951,98,0,0,2
1952,98,0,0,2
1953,98,0,0,2
1954,98,0,0,2
1955,98,0,0,2
1956,98,0,0,2
1957,98,0,0,2
1958,98,0,0,2
1959,98,0,0,2
1960,98,0,0,2
1961,98,0,0,2
1962,98,0,0,2
1963,98,0,0,2
1964,98,0,0,2
1965,98,0,0,2
1966,98,0,0,2
1967,98,0,0,2
1968,98,0,0,2
1969,98,0,0,2
1970,98,0,0,2
1971,98,0,0,2
1972,98,0,0,2
1973,98,0,0,2
1974,98,0,0,2
1975,98,0,0,2
1976,98,0,0,2
1977,98,0,0,2
1978,98,0,0,2
1979,98,0,0,2
1980,98,0,0,2
1981,98,0,0,2
1982,98,0,0,2
1983,98,0,0,2
1984,98,0,0,2
1985,98,0,0,2
1986,98,0,0,2
1987,98,0,0,2
1988,98,0,0,2
1989,98,0,0,2
1990,98,0,0,2
1991,98,0,0,2
1992,98,0,0,2
1993,98,0,0,2
1994,98,0,0,2
1995,98,0,0,2
1996,98,0,0,2
1997,98,0,0,2
1998,98,0,0,2
1999,98,0,0,2
2000,98,0,0,2
