"tick","total"
0,0
1,0
2,0
3,0
4,0
5,0
6,0
7,0
8,0
9,0
10,0
11,0
12,0
13,0
14,0
15,1
16,1
17,1
18,1
19,1
20,1
21,2
22,2
23,2
24,2
25,2
26,2
27,3
28,3
29,3
30,3
31,3
32,3
33,3
34,3
35,4
36,4
37,4
38,4
39,5
40,6
41,6
42,6
43,6
44,6
45,6
46,6
47,6
48,7
49,7
50,7
51,7
52,7
53,7
54,7
55,7
56,7
57,7
58,7
59,7
60,7
61,7
62,7
63,7
64,7
65,7
66,7
67,7
68,7
69,7
70,7
71,7
72,7
73,7
74,7
75,7
76,7
77,7
78,7
79,7
80,7
81,7
82,7
83,7
84,8
85,8
86,9
87,9
88,9
89,9
90,9
91,9
92,9
93,9
94,9
95,9
96,9
97,9
98,9
99,9
100,9
101,9
102,9
103,9
104,9
105,9
106,9
107,9
108,9
109,9
110,9
111,9
112,9
113,9
114,9
115,9
116,9
117,9
118,10
119,10
120,10
121,10
122,10
123,10
124,10
125,10
126,10
127,10
128,10
129,10
130,10
131,10
132,10
133,10
134,12
135,12
136,12
137,12
138,12
139,12
140,12
141,12
142,12
143,12
144,13
145,13
146,13
147,13
148,13
149,13
150,14
151,14
152,14
153,14
154,14
155,14
156,14
157,15
158,15
159,15
160,16
161,16
162,16
163,16
164,17
165,17
166,17
167,17
168,17
169,17
170,17
171,17
172,17
173,17
174,17
175,18
176,18
177,18
178,18
179,18
180,18
181,18
182,18
183,18
184,18
185,18
186,18
187,18
188,18
189,18
190,18
191,18
192,18
193,18
194,18
195,18
196,18
197,18
198,18
199,18
200,18
201,18
202,18
203,18
204,19
205,19
206,19
207,19
208,19
209,19
210,19
211,19
212,20
213,20
214,20
215,20
216,20
217,20
218,20
219,21
220,21
221,21
222,21
223,21
224,21
225,21
226,21
227,21
228,22
229,22
230,22
231,22
232,22
233,22
234,22
235,22
236,22
237,22
238,22
239,22
240,22
241,22
242,22
243,22
244,23
245,23
246,23
247,23
248,23
249,23
250,23
251,23
252,23
253,23
254,23
255,23
256,24
257,24
258,24
259,24
260,24
261,24
262,24
263,24
264,24
265,24
266,24
267,27
268,27
269,27
270,27
271,27
272,27
273,27
274,27
275,27
276,27
277,27
278,27
279,27
280,28
281,28
282,28
283,28
284,28
285,28
286,28
287,28
288,28
289,28
290,28
291,28
292,28
293,28
294,29
295,29
296,29
297,29
298,29
299,29
300,29
301,29
302,29
303,29
304,29
305,29
306,29
307,29
308,29
309,29
310,29
311,29
312,29
313,29
314,29
315,29
316,29
317,29
318,29
319,29
320,29
321,29
322,29
323,29
324,29
325,29
326,29
327,29
328,29
329,29
330,29
331,29
332,29
333,30
334,30
335,30
336,30
337,30
338,30
339,30
340,30
341,30
342,30
343,31
344,31
345,31
346,31
347,31
348,31
349,31
350,31
351,32
352,32
353,32
354,32
355,33
356,33
357,33
358,33
359,33
360,33
361,33
362,33
363,33
364,33
365,34
366,34
367,34
368,34
369,34
370,34
371,34
372,34
373,34
374,34
375,34
376,34
377,34
378,34
379,34
380,34
381,34
382,34
383,34
384,34
385,34
386,34
387,34
388,34
389,34
390,34
391,34
392,34
393,34
394,34
395,34
396,34
397,34
398,35
399,35
400,35
401,35
402,35
403,35
404,35
405,36
406,36
407,36
408,36
409,36
410,36
411,36
412,36
413,38
414,38
415,39
416,39
417,39
418,39
419,39
420,39
421,40
422,41
423,41
424,41
425,41
426,41
427,41
428,41
429,41
430,41
431,41
432,41
433,41
434,41
435,41
436,41
437,41
438,41
439,41
440,41
441,41
442,41
443,41
444,41
445,41
446,41
447,41
448,41
449,41
450,41
451,41
452,41
453,41
454,41
455,42
456,42
457,42
458,42
459,42
460,42
461,42
462,42
463,42
464,42
465,42
466,42
467,43
468,43
469,43
470,43
471,43
472,43
473,43
474,44
475,44
476,44
477,44
478,44
479,44
480,44
481,44
482,44
483,44
484,44
485,44
486,44
487,44
488,44
489,45
490,45
491,45
492,45
493,45
494,45
495,45
496,45
497,45
498,45
499,45
500,45
501,45
502,45
503,45
504,45
505,45
506,45
507,45
508,45
509,45
510,45
511,45
512,45
513,45
514,45
515,45
516,45
517,45
518,45
519,45
520,45
521,46
522,46
523,46
524,46
525,46
526,46
527,46
528,46
529,46
530,46
531,46
532,46
533,46
534,46
535,47
536,47
537,47
538,47
539,47
540,47
541,47
542,47
543,47
544,47
545,47
546,48
547,49
548,49
549,49
550,49
551,49
552,49
553,49
554,49
555,49
556,49
557,49
558,49
559,49
560,49
561,50
562,50
563,50
564,50
565,50
566,50
567,50
568,50
569,50
570,50
571,50
572,50
573,50
574,50
575,50
576,50
577,50
578,50
579,50
580,50
581,50
582,50
583,50
584,50
585,50
586,50
587,51
588,51
589,51
590,51
591,51
592,51
593,51
594,51
595,51
596,51
597,51
598,51
599,51
600,51
601,51
602,51
603,51
604,51
605,51
606,51
607,51
608,51
609,51
610,51
611,51
612,51
613,52
614,52
615,52
616,52
617,52
618,52
619,52
620,52
621,52
622,52
623,52
624,52
625,52
626,52
627,52
628,52
629,52
630,52
631,52
632,52
633,52
634,52
635,52
636,52
637,52
638,52
639,52
640,52
641,52
642,52
643,52
644,52
645,52
646,53
647,53
648,53
649,53
650,53
651,53
652,53
653,53
654,53
655,53
656,53
657,53
658,53
659,53
660,53
661,53
662,53
663,53
664,53
665,53
666,54
667,54
668,54
669,54
670,54
671,54
672,54
673,54
674,54
675,55
676,55
677,55
678,55
679,55
680,55
681,56
682,56
683,56
684,56
685,56
686,56
687,56
688,57
689,57
690,57
691,57
692,57
693,57
694,57
695,57
696,57
697,57
698,57
699,57
700,57
701,57
702,57
703,57
704,57
705,57
706,57
707,57
708,57
709,57
710,57
711,57
712,57
713,58
714,58
715,58
716,59
717,59
718,60
719,60
720,60
721,60
722,61
723,62
724,62
725,62
726,62
727,62
728,62
729,62
730,62
731,62
732,62
733,62
734,62
735,62
736,62
737,62
738,62
739,62
740,62
741,62
742,62
743,62
744,62
745,62
746,62
747,62
748,62
749,62
750,62
751,62
752,62
753,62
754,62
755,62
756,62
757,62
758,62
759,62
760,62
761,62
762,62
763,62
764,62
765,62
766,62
767,62
768,62
769,62
770,62
771,62
772,62
773,63
774,63
775,63
776,63
777,63
778,63
779,63
780,63
781,63
782,63
783,63
784,63
785,64
786,64
787,64
788,64
789,64
790,64
791,65
792,65
793,65
794,66
795,66
796,66
797,66
798,66
799,66
800,66
801,66
802,66
803,66
804,66
805,66
806,66
807,66
808,68
809,68
810,68
811,68
812,68
813,68
814,68
815,68
816,68
817,68
818,68
819,68
820,68
821,69
822,69
823,69
824,69
825,69
826,69
827,69
828,69
829,69
830,69
831,69
832,69
833,69
834,69
835,69
836,69
837,69
838,69
839,69
840,69
841,69
842,69
843,69
844,69
845,69
846,69
847,69
848,69
849,69
850,69
851,69
852,69
853,69
854,69
855,69
856,69
857,69
858,69
859,69
860,70
861,70
862,70
863,70
864,70
865,70
866,70
867,70
868,70
869,70
870,70
871,71
872,72
873,72
874,72
875,72
876,72
877,72
878,72
879,72
880,72
881,72
882,72
883,72
884,72
885,72
886,72
887,73
888,73
889,73
890,73
891,73
892,73
893,73
894,73
895,73
896,74
897,75
898,75
899,75
900,75
901,75
902,75
903,75
904,75
905,75
906,75
907,75
908,75
909,75
910,75
911,75
912,75
913,75
914,75
915,75
916,75
917,75
918,75
919,75
920,75
921,75
922,75
923,75
924,75
925,75
926,75
927,75
928,75
929,75
930,75
931,75
932,75
933,75
934,75
935,75
936,75
937,75
938,75
939,75
940,75
941,75
942,75
943,75
944,75
945,75
946,75
947,75
948,75
949,75
950,75
951,75
952,75
953,75
954,75
955,75
956,75
957,75
958,75
959,75
960,75
961,75
962,75
963,75
964,75
965,75
966,75
967,75
968,75
969,75
970,75
971,75
972,76
973,76
974,76
975,76
976,77
977,77
978,77
979,77
980,77
981,77
982,77
983,77
984,77
985,77
986,77
987,77
988,78
989,78
990,78
991,78
992,78
993,79
994,80
995,80
996,80
997,80
998,80
999,80
1000,80
1001,80
1002,80
1003,80
1004,80
1005,80
1006,80
1007,80
1008,80
1009,80
1010,80
1011,80
1012,81
1013,81
1014,82
1015,82
1016,82
1017,82
1018,82
1019,83
1020,83
1021,84
1022,84
1023,84
1024,84
1025,85
1026,85
1027,85
1028,85
1029,85
1030,85
1031,85
1032,85
1033,85
1034,85
1035,85
1036,85
1037,85
1038,86
1039,86
1040,86
1041,86
1042,86
1043,86
1044,87
1045,87
1046,87
1047,87
1048,87
1049,87
1050,87
1051,87
1052,87
1053,87
1054,87
1055,87
1056,87
1057,87
1058,87
1059,87
1060,87
1061,88
1062,88
1063,88
1064,88
1065,88
1066,89
1067,89
1068,89
1069,89
1070,89
1071,90
1072,90
1073,90
1074,90
1075,90
1076,90
1077,90
1078,91
1079,91
1080,91
1081,91
1082,91
1083,91
1084,91
1085,91
1086,91
1087,91
1088,91
1089,91
1090,91
1091,91
1092,91
1093,91
1094,91
1095,92
1096,92
1097,93
1098,93
1099,93
1100,93
1101,93
1102,93
1103,93
1104,93
1105,94
1106,94
1107,94
1108,94
1109,94
1110,94
1111,94
1112,94
1113,94
1114,94
1115,94
1116,94
1117,94
1118,95
1119,96
1120,96
1121,96
1122,96
1123,96
1124,96
1125,96
1126,97
1127,97
1128,97
1129,97
1130,97
1131,97
1132,97
1133,97
1134,97
1135,97
1136,97
1137,97
1138,97
1139,97
1140,97
1141,97
1142,97
1143,97
1144,97
1145,97
1146,97
1147,97
1148,97
1149,97
1150,97
1151,97
1152,97
1153,97
1154,97
1155,97
1156,97
1157,97
1158,97
1159,97
1160,97
1161,97
1162,97
1163,97
1164,97
1165,97
1166,97
1167,97
1168,97
1169,97
1170,97
1171,97
1172,97
1173,97
1174,97
1175,97
1176,97
1177,97
1178,97
1179,97
1180,97
1181,97
1182,97
1183,97
1184,97
1185,97
1186,97
1187,97
1188,97
1189,97
1190,98
1191,98
1192,98
1193,98
1194,98
1195,98
1196,98
1197,99
1198,99
1199,99
1200,99
1201,99
1202,99
1203,99
1204,99
1205,99
1206,99
1207,99
1208,99
1209,99
1210,99
1211,99
1212,99
1213,99
1214,100
1215,100
1216,100
1217,100
1218,100
1219,100
1220,100
1221,101
1222,102
1223,102
1224,102
1225,102
1226,102
1227,102
1228,102
1229,103
1230,103
1231,103
1232,103
1233,103
1234,103
1235,103
1236,103
1237,103
1238,103
1239,103
1240,103
1241,103
1242,103
1243,103
1244,103
1245,103
1246,103
1247,103
1248,103
1249,103
1250,103
1251,103
1252,103
1253,104
1254,104
1255,104
1256,104
1257,104
1258,104
1259,104
1260,104
1261,104
1262,104
1263,104
1264,105
1265,105
1266,105
1267,105
1268,105
1269,105
1270,105
1271,105
1272,105
1273,105
1274,105
1275,105
1276,105
1277,105
1278,105
1279,105
1280,105
1281,105
1282,106
1283,106
1284,106
1285,106
1286,106
1287,106
1288,106
1289,106
1290,106
1291,106
1292,106
1293,106
1294,106
1295,106
1296,106
1297,106
1298,106
1299,107
1300,107
1301,107
1302,107
1303,107
1304,107
1305,107
1306,107
1307,107
1308,107
1309,107
1310,108
1311,108
1312,108
1313,108
1314,108
1315,108
1316,108
1317,108
1318,108
1319,108
1320,109
1321,109
1322,109
1323,109
1324,109
1325,109
1326,109
1327,109
1328,109
1329,109
1330,109
1331,109
1332,109
1333,109
1334,109
1335,109
1336,109
1337,109
1338,109
1339,109
1340,109
1341,109
1342,109
1343,109
1344,109
1345,109
1346,109
1347,109
1348,110
1349,110
1350,110
1351,110
1352,110
1353,110
1354,110
1355,110
1356,110
1357,110
1358,110
1359,110
1360,111
1361,111
1362,111
1363,111
1364,111
1365,111
1366,111
1367,111
1368,111
1369,112
1370,112
1371,113
1372,114
1373,114
1374,114
1375,114
1376,114
1377,114
1378,114
1379,114
1380,114
1381,114
1382,114
1383,114
1384,114
1385,114
1386,114
1387,114
1388,114
1389,114
1390,114
1391,114
1392,114
1393,114
1394,115
1395,115
1396,115
1397,115
1398,115
1399,115
1400,115
1401,115
1402,115
1403,115
1404,115
1405,115
1406,115
1407,115
1408,115
1409,115
1410,115
1411,116
1412,116
1413,116
1414,116
1415,116
1416,116
1417,116
1418,116
1419,117
1420,117
1421,117
1422,117
1423,118
1424,119
1425,119
1426,119
1427,119
1428,119
1429,119
1430,119
1431,119
1432,119
1433,119
1434,119
1435,119
1436,119
1437,119
1438,119
1439,119
1440,119
1441,119
1442,119
1443,119
1444,119
1445,119
1446,119
1447,119
1448,119
1449,119
1450,119
1451,119
1452,119
1453,119
1454,119
1455,119
1456,119
1457,120
1458,120
1459,120
1460,120
1461,120
1462,120
1463,120
1464,120
1465,120
1466,120
1467,120
1468,120
1469,120
1470,121
1471,121
1472,121
1473,121
1474,121
1475,121
1476,121
1477,121
1478,121
1479,121
1480,121
1481,121
1482,121
1483,121
1484,121
1485,121
1486,121
1487,122
1488,122
1489,122
1490,122
1491,123
1492,123
1493,123
1494,123
1495,123
1496,123
1497,123
1498,123
1499,123
1500,123
1501,123
1502,123
1503,123
1504,123
1505,123
1506,123
1507,123
1508,123
1509,123
1510,123
1511,124
1512,124
1513,124
1514,124
1515,124
1516,124
1517,124
1518,124
1519,124
1520,125
1521,125
1522,125
1523,125
1524,125
1525,125
1526,125
1527,125
1528,125
1529,126
1530,126
1531,126
1532,127
1533,127
1534,127
1535,127
1536,127
1537,127
1538,127
1539,127
1540,127
1541,127
1542,127
1543,127
1544,127
1545,127
1546,127
1547,127
1548,127
1549,127
1550,127
1551,127
1552,127
1553,127
1554,127
1555,127
1556,127
1557,127
1558,127
1559,127
1560,127
1561,127
1562,127
1563,127
1564,127
1565,127
1566,127
1567,127
1568,127
1569,127
1570,127
1571,127
1572,127
1573,127
1574,127
1575,128
1576,128
1577,128
1578,128
1579,128
1580,128
1581,128
1582,128
1583,128
1584,128
1585,128
1586,128
1587,128
1588,128
1589,128
1590,128
1591,128
1592,128
1593,128
1594,128
1595,128
1596,128
1597,128
1598,128
1599,128
1600,128
1601,128
1602,128
1603,128
1604,128
1605,128
1606,128
1607,128
1608,128
1609,128
1610,128
1611,128
1612,128
1613,128
1614,128
1615,128
1616,128
1617,128
1618,128
1619,128
1620,128
1621,128
1622,128
1623,129
1624,129
1625,129
1626,129
1627,129
1628,129
1629,129
1630,129
1631,129
1632,129
1633,129
1634,129
1635,129
1636,129
1637,129
1638,129
1639,129
1640,129
1641,130
1642,130
1643,130
1644,130
1645,130
1646,130
1647,130
1648,130
1649,130
1650,130
1651,131
1652,131
1653,131
1654,131
1655,131
1656,132
1657,132
1658,132
1659,132
1660,132
1661,132
1662,132
1663,132
1664,132
1665,132
1666,132
1667,132
1668,133
1669,133
1670,133
1671,133
1672,133
1673,133
1674,133
1675,133
1676,133
1677,133
1678,133
1679,133
1680,133
1681,133
1682,133
1683,134
1684,135
1685,135
1686,136
1687,136
1688,136
1689,136
1690,136
1691,136
1692,136
1693,136
1694,136
1695,136
1696,136
1697,136
1698,136
1699,136
1700,137
1701,137
1702,137
1703,137
1704,137
1705,137
1706,137
1707,137
1708,137
1709,137
1710,137
1711,138
1712,138
1713,138
1714,138
1715,138
1716,138
1717,138
1718,138
1719,138
1720,138
1721,138
1722,138
1723,138
1724,138
1725,138
1726,138
1727,138
1728,139
1729,139
1730,139
1731,139
1732,139
1733,139
1734,139
1735,139
1736,139
1737,139
1738,139
1739,139
1740,139
1741,139
1742,139
1743,139
1744,139
1745,139
1746,139
1747,139
1748,139
1749,139
1750,139
1751,139
1752,139
1753,139
1754,139
1755,139
1756,139
1757,139
1758,139
1759,139
1760,139
1761,139
1762,139
1763,139
1764,139
1765,139
1766,139
1767,139
1768,139
1769,139
1770,139
1771,140
1772,140
1773,140
1774,140
1775,140
1776,140
1777,140
1778,140
1779,140
1780,140
1781,140
1782,140
1783,140
1784,140
1785,140
1786,140
1787,140
1788,140
1789,140
1790,140
1791,140
1792,140
1793,140
1794,140
1795,140
1796,140
1797,140
1798,140
1799,140
1800,140
1801,140
1802,140
1803,140
1804,140
1805,140
1806,140
1807,140
1808,140
1809,140
1810,140
1811,140
1812,140
1813,140
1814,140
1815,140
1816,140
1817,140
1818,140
1819,140
1820,140
1821,140
1822,140
1823,140
1824,140
1825,140
1826,140
1827,140
1828,140
1829,140
1830,140
1831,140
1832,140
1833,140
1834,140
1835,140
1836,140
1837,140
1838,141
1839,141
1840,141
1841,141
1842,141
1843,141
1844,141
1845,141
1846,141
1847,141
1848,141
1849,141
1850,141
1851,141
1852,141
1853,141
1854,141
1855,141
1856,141
1857,141
1858,141
1859,141
1860,141
1861,141
1862,141
1863,141
1864,141
1865,141
1866,141
1867,141
1868,141
1869,141
1870,141
1871,141
1872,141
1873,141
1874,141
1875,141
1876,141
1877,141
1878,141
1879,141
1880,141
1881,141
1882,141
1883,141
1884,141
1885,141
1886,141
1887,141
1888,141
1889,141
1890,141
1891,141
1892,141
1893,141
1894,141
1895,142
1896,142
1897,142
1898,142
1899,142
1900,142
1901,142
1902,144
1903,145
1904,145
1905,145
1906,145
1907,145
1908,145
1909,145
1910,145
1911,145
1912,145
1913,145
1914,145
1915,145
1916,145
1917,145
1918,145
1919,145
1920,145
1921,145
1922,145
1923,145
1924,145
1925,145
1926,146
1927,147
1928,148
1929,148
1930,148
1931,148
1932,148
1933,148
1934,148
1935,148
1936,148
1937,148
1938,148
1939,148
1940,148
1941,149
1942,149
1943,149
1944,149
1945,149
1946,149
1947,150
1948,150
1949,150
1950,150
1951,150
1952,150
1953,150
1954,150
1955,151
1956,151
1957,151
1958,151
1959,151
1960,151
1961,151
1962,151
1963,151
1964,151
1965,151
1966,151
1967,151
1968,151
1969,151
1970,151
1971,151
1972,151
1973,151
1974,151
1975,151
1976,151
1977,151
1978,152
1979,152
1980,152
1981,152
1982,152
1983,152
1984,152
1985,152
1986,152
1987,153
1988,153
1989,153
1990,153
1991,153
1992,153
1993,153
1994,153
1995,153
1996,153
1997,153
1998,153
1999,153
2000,153
