"tick","susceptible","exposed","infectious","recovered"
0,99,1,0,0
1,99,1,0,0
2,99,1,0,0
3,99,1,0,0
4,99,1,0,0
5,99,1,0,0
6,99,1,0,0
7,99,1,0,0
8,99,1,0,0
9,99,1,0,0
10,99,1,0,0
11,99,1,0,0
12,99,1,0,0
13,99,1,0,0
14,99,1,0,0
15,99,1,0,0
16,99,1,0,0
17,99,1,0,0
18,99,1,0,0
19,99,1,0,0
20,99,1,0,0
21,99,1,0,0
22,99,1,0,0
23,99,1,0,0
24,99,1,0,0
25,99,1,0,0
26,99,1,0,0
27,99,1,0,0
28,99,1,0,0
29,99,1,0,0
30,99,1,0,0
31,99,1,0,0
32,99,1,0,0
33,99,1,0,0
34,99,1,0,0
35,99,1,0,0
36,99,1,0,0
37,99,1,0,0
38,99,1,0,0
39,99,1,0,0
40,99,1,0,0
41,99,1,0,0
42,99,1,0,0
43,99,1,0,0
44,99,1,0,0
45,99,1,0,0
46,99,1,0,0
47,99,1,0,0
48,99,1,0,0
49,99,1,0,0
50,99,1,0,0
51,99,1,0,0
52,99,1,0,0
53,99,1,0,0
54,99,1,0,0
55,99,1,0,0
56,99,1,0,0
57,99,1,0,0
58,99,1,0,0
59,99,1,0,0
60,99,1,0,0
61,99,1,0,0
62,99,1,0,0
63,99,1,0,0
64,99,1,0,0
65,99,1,0,0
66,99,1,0,0
67,99,1,0,0
68,99,1,0,0
69,99,1,0,0
70,99,1,0,0
71,99,1,0,0
72,99,1,0,0
73,99,1,0,0
74,99,1,0,0
75,99,1,0,0
76,99,1,0,0
77,99,1,0,0
78,99,1,0,0
79,99,1,0,0
80,99,1,0,0
81,99,1,0,0
82,99,1,0,0
83,99,1,0,0
84,99,1,0,0
85,99,1,0,0
86,99,1,0,0
87,99,1,0,0
88,99,1,0,0
89,99,1,0,0
90,99,1,0,0
91,99,1,0,0
92,99,1,0,0
93,99,1,0,0
94,99,1,0,0
95,99,1,0,0
96,99,1,0,0
97,99,1,0,0
98,99,1,0,0
99,99,1,0,0
100,99,1,0,0
101,99,1,0,0
102,99,1,0,0
103,99,1,0,0
104,99,1,0,0
105,99,1,0,0
106,99,1,0,0
107,99,1,0,0
108,99,1,0,0
109,99,1,0,0
110,99,1,0,0
111,99,1,0,0
112,99,1,0,0
113,99,1,0,0
114,99,1,0,0
115,99,1,0,0
116,99,1,0,0
117,99,1,0,0
118,99,1,0,0
119,99,1,0,0
120,99,1,0,0
121,99,1,0,0
122,99,1,0,0
123,99,1,0,0
124,99,1,0,0
125,99,1,0,0
126,99,1,0,0
127,99,1,0,0
128,99,1,0,0
129,99,1,0,0
130,99,1,0,0
131,99,1,0,0
132,99,1,0,0
133,99,1,0,0
134,99,1,0,0
135,99,1,0,0
136,99,1,0,0
137,99,1,0,0
138,99,1,0,0
139,99,1,0,0
140,99,1,0,0
141,99,1,0,0
142,99,1,0,0
143,99,1,0,0
144,99,1,0,0
145,99,1,0,0
146,99,1,0,0
147,99,1,0,0
148,99,1,0,0
149,99,1,0,0
150,99,1,0,0
151,99,1,0,0
152,99,1,0,0
153,99,1,0,0
154,99,1,0,0
155,99,1,0,0
156,99,1,0,0
157,99,1,0,0
158,99,1,0,0
159,99,1,0,0
160,99,1,0,0
161,99,1,0,0
162,99,1,0,0
163,99,1,0,0
164,99,1,0,0
165,99,1,0,0
166,99,1,0,0
167,99,1,0,0
168,99,1,0,0
169,99,1,0,0
170,99,1,0,0
171,99,1,0,0
172,99,1,0,0
173,99,1,0,0
174,99,1,0,0
175,99,1,0,0
176,99,1,0,0
177,99,1,0,0
178,99,1,0,0
179,99,1,0,0
180,99,1,0,0
181,99,1,0,0
182,99,1,0,0
183,99,1,0,0
184,99,1,0,0
185,99,1,0,0
186,99,1,0,0
187,99,1,0,0
188,99,1,0,0
189,99,1,0,0
190,99,1,0,0
191,99,1,0,0
192,99,1,0,0
193,99,1,0,0
194,99,1,0,0
195,99,1,0,0
196,99,1,0,0
197,99,1,0,0
198,99,1,0,0
199,99,1,0,0
200,99,1,0,0
201,98,1,1,0
202,98,1,1,0
203,98,1,1,0
204,98,1,1,0
205,98,1,1,0
206,98,1,1,0
207,98,1,1,0
208,98,1,1,0
209,98,1,1,0
210,98,1,1,0
211,98,1,1,0
212,98,1,1,0
213,98,1,1,0
214,98,1,1,0
215,98,1,1,0
216,98,1,1,0
217,98,1,1,0
218,98,1,1,0
219,98,1,1,0
220,97,2,1,0
221,97,2,1,0
222,97,2,1,0
223,97,2,1,0
224,97,2,1,0
225,97,2,1,0
226,97,2,1,0
227,97,2,1,0
228,97,2,1,0
229,97,2,1,0
230,97,2,1,0
231,97,2,1,0
232,97,2,1,0
233,97,2,1,0
234,97,2,1,0
235,97,2,1,0
236,97,2,1,0
237,97,2,1,0
238,97,2,1,0
239,97,2,1,0
240,97,2,1,0
241,97,2,1,0
242,97,2,1,0
243,97,2,1,0
244,97,2,1,0
245,97,2,1,0
246,97,2,1,0
247,97,2,1,0
248,97,2,1,0
249,97,2,1,0
250,97,2,1,0
251,97,2,1,0
252,97,2,1,0
253,97,2,1,0
254,97,2,1,0
255,97,2,1,0
256,97,2,1,0
257,97,2,1,0
258,97,2,1,0
259,97,2,1,0
260,97,2,1,0
261,97,2,1,0
262,97,2,1,0
263,97,2,1,0
264,97,2,1,0
265,97,2,1,0
266,97,2,1,0
267,97,2,1,0
268,96,3,1,0
269,96,3,1,0
270,96,3,1,0
271,96,3,1,0
272,96,3,1,0
273,96,3,1,0
274,96,3,1,0
275,96,3,1,0
276,96,3,1,0
277,96,3,1,0
278,96,3,1,0
279,96,3,1,0
280,96,3,1,0
281,96,3,1,0
282,96,3,1,0
283,96,3,1,0
284,96,3,1,0
285,96,3,1,0
286,96,3,1,0
287,96,3,1,0
288,96,3,1,0
289,96,3,1,0
290,96,3,1,0
291,96,3,1,0
292,96,3,1,0
293,96,3,1,0
294,96,3,1,0
295,96,3,1,0
296,96,3,1,0
297,96,3,1,0
298,96,3,1,0
299,96,3,1,0
300,96,3,1,0
301,96,3,1,0
302,96,3,1,0
303,96,3,1,0
304,96,3,1,0
305,96,3,1,0
306,96,3,1,0
307,96,3,1,0
308,96,3,1,0
309,96,3,1,0
310,96,3,1,0
311,96,3,1,0
312,96,3,1,0
313,96,3,1,0
314,96,3,1,0
315,96,3,1,0
316,96,3,1,0
317,96,3,1,0
318,96,3,1,0
319,96,3,1,0
320,96,3,1,0
321,96,3,1,0
322,96,3,1,0
323,96,3,1,0
324,96,3,1,0
325,96,3,1,0
326,96,3,1,0
327,96,3,1,0
328,96,3,1,0
329,96,3,1,0
330,96,3,1,0
331,96,3,1,0
332,96,3,1,0
333,96,3,1,0
334,96,3,1,0
335,96,3,1,0
336,96,3,1,0
337,96,3,1,0
338,96,3,1,0
339,96,3,1,0
340,96,3,1,0
341,96,3,1,0
342,96,3,1,0
343,96,3,1,0
344,96,3,1,0
345,96,3,1,0
346,96,3,1,0
347,96,3,1,0
348,96,3,1,0
349,96,3,1,0
350,96,3,1,0
351,96,3,1,0
352,96,3,1,0
353,96,3,1,0
354,96,3,1,0
355,96,3,1,0
356,96,3,1,0
357,96,3,1,0
358,96,3,1,0
359,96,3,1,0
360,96,3,1,0
361,96,3,1,0
362,96,3,1,0
363,96,3,1,0
364,96,3,1,0
365,96,3,1,0
366,96,3,1,0
367,96,3,1,0
368,96,3,1,0
369,96,3,1,0
370,96,3,1,0
371,96,3,1,0
372,96,3,1,0
373,96,3,1,0
374,96,3,1,0
375,96,3,1,0
376,96,3,1,0
377,96,3,1,0
378,96,3,1,0
379,96,3,1,0
380,96,3,1,0
381,96,3,1,0
382,96,3,1,0
383,95,4,1,0
384,95,4,1,0
385,95,4,1,0
386,95,4,1,0
387,95,4,1,0
388,95,4,1,0
389,95,4,1,0
390,95,4,1,0
391,95,4,1,0
392,95,4,1,0
393,95,4,1,0
394,95,4,1,0
395,95,4,1,0
396,95,4,1,0
397,95,4,1,0
398,95,4,1,0
399,95,4,1,0
400,95,4,1,0
401,95,4,1,0
402,95,3,1,1
403,95,3,1,1
404,95,3,1,1
405,95,3,1,1
406,95,3,1,1
407,95,3,1,1
408,95,3,1,1
409,95,3,1,1
410,95,3,1,1
411,95,3,1,1
412,95,3,1,1
413,95,3,1,1
414,95,3,1,1
415,95,3,1,1
416,95,3,1,1
417,95,3,1,1
418,95,3,1,1
419,95,3,1,1
420,95,3,1,1
421,93,4,2,1
422,91,6,2,1
423,91,6,2,1
424,89,8,2,1
425,88,9,2,1
426,87,10,2,1
427,86,11,2,1
428,86,11,2,1
429,86,11,2,1
430,86,11,2,1
431,86,11,2,1
432,86,11,2,1
433,86,11,2,1
434,85,12,2,1
435,85,12,2,1
436,85,12,2,1
437,85,12,2,1
438,85,12,2,1
439,85,12,2,1
440,85,12,2,1
441,85,12,2,1
442,85,12,2,1
443,85,12,2,1
444,85,12,2,1
445,85,12,2,1
446,85,12,2,1
447,85,12,2,1
448,85,12,2,1
449,84,13,2,1
450,84,13,2,1
451,84,13,2,1
452,84,13,2,1
453,84,13,2,1
454,84,13,2,1
455,84,13,2,1
456,84,13,2,1
457,84,13,2,1
458,84,13,2,1
459,84,13,2,1
460,84,13,2,1
461,84,13,2,1
462,84,13,2,1
463,84,13,2,1
464,84,13,2,1
465,84,13,2,1
466,84,13,2,1
467,84,13,2,1
468,84,13,2,1
469,84,12,3,1
470,84,12,3,1
471,84,12,3,1
472,83,13,3,1
473,83,13,3,1
474,83,13,3,1
475,83,13,3,1
476,83,13,3,1
477,83,13,3,1
478,83,13,3,1
479,83,13,3,1
480,83,13,3,1
481,83,13,3,1
482,83,13,3,1
483,83,13,3,1
484,83,13,3,1
485,83,13,3,1
486,83,13,3,1
487,83,13,3,1
488,83,13,3,1
489,82,14,3,1
490,82,14,3,1
491,82,14,3,1
492,82,14,3,1
493,82,14,3,1
494,82,14,3,1
495,82,14,3,1
496,82,14,3,1
497,82,14,3,1
498,82,14,3,1
499,82,14,3,1
500,82,14,3,1
501,82,14,3,1
502,82,14,3,1
503,82,14,3,1
504,82,14,3,1
505,82,14,3,1
506,82,14,3,1
507,82,14,3,1
508,82,14,3,1
509,82,14,3,1
510,82,14,3,1
511,82,14,3,1
512,82,14,3,1
513,82,14,3,1
514,82,14,3,1
515,82,14,3,1
516,82,14,3,1
517,82,14,3,1
518,82,14,3,1
519,82,14,3,1
520,82,14,3,1
521,82,14,3,1
522,82,14,3,1
523,82,14,3,1
524,82,14,3,1
525,82,14,3,1
526,82,14,3,1
527,82,14,3,1
528,82,14,3,1
529,82,14,3,1
530,82,14,3,1
531,82,14,3,1
532,82,14,3,1
533,82,14,3,1
534,82,14,3,1
535,82,14,3,1
536,81,15,3,1
537,81,15,3,1
538,81,15,3,1
539,81,15,3,1
540,81,15,3,1
541,81,15,3,1
542,81,15,3,1
543,81,15,3,1
544,81,15,3,1
545,81,15,3,1
546,81,15,3,1
547,81,15,3,1
548,81,15,3,1
549,81,15,3,1
550,81,15,3,1
551,80,16,3,1
552,80,16,3,1
553,80,16,3,1
554,80,16,3,1
555,80,16,3,1
556,80,16,3,1
557,80,16,3,1
558,80,16,3,1
559,80,16,3,1
560,80,16,3,1
561,80,16,3,1
562,80,16,3,1
563,80,16,3,1
564,80,16,3,1
565,80,16,3,1
566,80,16,3,1
567,80,16,3,1
568,80,16,3,1
569,80,16,3,1
570,80,16,3,1
571,80,16,3,1
572,80,16,3,1
573,80,16,3,1
574,80,16,3,1
575,80,16,3,1
576,80,16,3,1
577,80,16,3,1
578,80,16,3,1
579,80,16,3,1
580,80,16,3,1
581,80,16,3,1
582,80,16,3,1
583,80,16,3,1
584,79,16,4,1
585,77,18,4,1
586,77,18,4,1
587,76,19,4,1
588,75,20,4,1
589,74,21,4,1
590,74,21,4,1
591,74,21,4,1
592,73,22,4,1
593,73,22,4,1
594,73,22,4,1
595,72,23,4,1
596,72,23,4,1
597,72,23,4,1
598,72,23,4,1
599,72,23,4,1
600,72,23,4,1
601,72,23,4,1
602,72,23,4,1
603,71,24,3,2
604,71,24,3,2
605,71,24,3,2
606,71,24,3,2
607,71,24,3,2
608,71,24,3,2
609,71,24,3,2
610,71,24,3,2
611,71,24,3,2
612,71,24,3,2
613,70,25,3,2
614,69,26,3,2
615,69,26,3,2
616,69,26,3,2
617,69,26,3,2
618,69,26,3,2
619,69,26,3,2
620,69,26,3,2
621,69,26,3,2
622,69,24,4,3
623,68,23,6,3
624,68,23,6,3
625,68,21,8,3
626,68,20,9,3
627,68,19,10,3
628,68,18,11,3
629,68,18,11,3
630,68,18,11,3
631,68,18,11,3
632,68,18,11,3
633,68,18,11,3
634,68,18,11,3
635,68,17,12,3
636,68,17,12,3
637,68,17,12,3
638,68,17,12,3
639,68,17,12,3
640,68,17,12,3
641,68,17,12,3
642,68,17,12,3
643,68,17,12,3
644,68,17,12,3
645,68,17,12,3
646,68,17,12,3
647,68,17,12,3
648,68,17,12,3
649,66,19,12,3
650,66,18,13,3
651,65,19,13,3
652,65,19,13,3
653,65,19,13,3
654,65,19,13,3
655,65,19,13,3
656,65,19,13,3
657,65,19,13,3
658,65,19,13,3
659,65,19,13,3
660,65,19,13,3
661,65,19,13,3
662,65,19,13,3
663,65,19,13,3
664,65,19,13,3
665,65,19,13,3
666,65,19,13,3
667,65,19,13,3
668,65,19,13,3
669,65,19,13,3
670,65,19,12,4
671,65,19,12,4
672,65,19,12,4
673,65,18,13,4
674,65,18,13,4
675,64,19,13,4
676,64,19,13,4
677,64,19,13,4
678,64,19,13,4
679,64,19,13,4
680,64,19,13,4
681,64,19,13,4
682,63,20,13,4
683,63,20,13,4
684,63,20,13,4
685,63,20,13,4
686,63,20,13,4
687,63,20,13,4
688,63,20,13,4
689,63,20,13,4
690,63,19,14,4
691,63,19,14,4
692,63,19,14,4
693,63,19,14,4
694,63,19,14,4
695,63,19,14,4
696,63,19,14,4
697,63,19,14,4
698,63,19,14,4
699,63,19,14,4
700,63,19,14,4
701,63,19,14,4
702,63,19,14,4
703,63,19,14,4
704,63,19,14,4
705,63,19,14,4
706,63,19,14,4
707,63,19,14,4
708,63,19,14,4
709,62,20,14,4
710,62,20,14,4
711,62,20,14,4
712,62,20,14,4
713,62,20,14,4
714,62,20,14,4
715,61,21,14,4
716,61,21,14,4
717,61,21,14,4
718,61,21,14,4
719,61,21,14,4
720,61,21,14,4
721,61,21,14,4
722,60,22,14,4
723,60,22,14,4
724,60,22,14,4
725,60,22,14,4
726,59,23,14,4
727,59,23,14,4
728,59,23,14,4
729,59,23,14,4
730,59,23,14,4
731,59,23,14,4
732,59,23,14,4
733,59,23,14,4
734,59,23,14,4
735,59,23,14,4
736,59,23,14,4
737,59,22,15,4
738,59,22,15,4
739,59,22,15,4
740,59,22,15,4
741,59,22,15,4
742,59,22,15,4
743,59,22,15,4
744,59,22,15,4
745,59,22,15,4
746,59,22,15,4
747,59,22,15,4
748,59,22,15,4
749,59,22,15,4
750,59,22,15,4
751,59,22,15,4
752,59,21,16,4
753,59,21,16,4
754,59,21,16,4
755,59,21,16,4
756,59,21,16,4
757,59,21,16,4
758,58,22,16,4
759,57,23,16,4
760,57,23,16,4
761,57,23,16,4
762,57,23,16,4
763,57,23,16,4
764,57,23,16,4
765,57,23,16,4
766,56,24,16,4
767,56,24,16,4
768,56,24,16,4
769,56,24,16,4
770,56,24,16,4
771,55,25,16,4
772,55,25,16,4
773,55,25,16,4
774,55,25,16,4
775,55,25,16,4
776,55,25,16,4
777,55,25,16,4
778,55,25,16,4
779,55,25,16,4
780,55,25,16,4
781,55,25,16,4
782,55,25,16,4
783,55,25,16,4
784,55,25,16,4
785,55,24,16,5
786,55,22,18,5
787,55,22,18,5
788,55,21,19,5
789,55,20,20,5
790,55,19,21,5
791,55,19,21,5
792,55,19,21,5
793,55,18,22,5
794,55,18,22,5
795,55,18,22,5
796,55,17,23,5
797,55,17,23,5
798,55,17,23,5
799,55,17,23,5
800,55,17,23,5
801,55,17,23,5
802,55,17,23,5
803,55,17,23,5
804,55,16,24,5
805,55,16,24,5
806,54,17,24,5
807,54,17,24,5
808,54,17,24,5
809,54,17,24,5
810,54,17,24,5
811,53,18,24,5
812,53,18,24,5
813,53,18,24,5
814,53,17,25,5
815,52,17,26,5
816,51,18,26,5
817,50,19,26,5
818,50,19,26,5
819,50,19,26,5
820,50,19,26,5
821,50,19,26,5
822,50,19,26,5
823,49,20,24,7
824,49,19,23,9
825,49,19,23,9
826,49,19,21,11
827,49,19,20,12
828,49,19,19,13
829,49,19,18,14
830,49,19,18,14
831,49,19,18,14
832,49,19,18,14
833,49,19,18,14
834,49,19,18,14
835,48,20,18,14
836,48,20,17,15
837,47,21,17,15
838,47,21,17,15
839,47,21,17,15
840,46,22,17,15
841,46,22,17,15
842,46,22,17,15
843,46,22,17,15
844,46,22,17,15
845,46,22,17,15
846,46,22,17,15
847,46,22,17,15
848,46,22,17,15
849,46,22,17,15
850,46,20,19,15
851,46,20,18,16
852,46,19,19,16
853,46,19,19,16
854,46,19,19,16
855,46,19,19,16
856,46,19,19,16
857,46,19,19,16
858,46,19,19,16
859,46,19,19,16
860,46,19,19,16
861,46,19,19,16
862,46,19,19,16
863,46,19,19,16
864,46,19,19,16
865,46,19,19,16
866,46,19,19,16
867,46,19,19,16
868,46,19,19,16
869,46,19,19,16
870,46,19,19,16
871,46,19,19,16
872,46,19,19,16
873,46,19,19,16
874,46,19,18,17
875,46,19,18,17
876,45,19,19,17
877,45,19,19,17
878,45,19,19,17
879,45,19,19,17
880,45,19,19,17
881,45,19,19,17
882,45,19,19,17
883,45,18,20,17
884,45,18,20,17
885,45,18,20,17
886,45,18,20,17
887,45,18,20,17
888,45,18,20,17
889,45,18,20,17
890,45,18,20,17
891,45,18,19,18
892,45,18,19,18
893,45,18,19,18
894,45,18,19,18
895,45,18,19,18
896,45,18,19,18
897,45,18,19,18
898,45,18,19,18
899,45,18,19,18
900,45,18,19,18
901,44,19,19,18
902,44,19,19,18
903,44,19,19,18
904,44,19,19,18
905,44,19,19,18
906,44,19,19,18
907,44,19,19,18
908,43,20,19,18
909,43,20,19,18
910,43,19,20,18
911,43,19,20,18
912,42,20,20,18
913,41,21,20,18
914,41,21,20,18
915,41,21,20,18
916,41,20,21,18
917,41,20,21,18
918,41,20,21,18
919,41,20,21,18
920,41,20,21,18
921,41,20,21,18
922,41,20,21,18
923,41,19,22,18
924,41,19,22,18
925,41,19,22,18
926,41,19,22,18
927,41,18,23,18
928,41,18,23,18
929,41,18,23,18
930,41,18,23,18
931,41,18,23,18
932,41,18,23,18
933,41,18,23,18
934,41,18,23,18
935,41,18,23,18
936,41,18,23,18
937,41,18,23,18
938,41,18,22,19
939,41,18,22,19
940,40,19,22,19
941,40,19,22,19
942,40,19,22,19
943,40,19,22,19
944,40,19,22,19
945,40,19,22,19
946,40,19,22,19
947,40,19,22,19
948,39,20,22,19
949,39,20,22,19
950,39,20,22,19
951,39,20,22,19
952,39,20,22,19
953,39,20,21,20
954,39,20,21,20
955,39,20,21,20
956,39,20,21,20
957,39,20,21,20
958,39,20,21,20
959,39,19,22,20
960,39,18,23,20
961,39,18,23,20
962,37,20,23,20
963,37,20,23,20
964,37,20,23,20
965,36,21,23,20
966,36,21,23,20
967,36,20,24,20
968,36,20,24,20
969,36,20,24,20
970,36,20,24,20
971,36,20,24,20
972,36,19,25,20
973,36,19,25,20
974,36,19,25,20
975,36,19,25,20
976,36,19,25,20
977,36,19,25,20
978,36,19,25,20
979,36,19,25,20
980,36,19,25,20
981,36,19,25,20
982,36,19,25,20
983,36,19,25,20
984,35,20,25,20
985,34,21,25,20
986,34,21,24,21
987,33,22,22,23
988,33,22,22,23
989,33,22,21,24
990,33,22,20,25
991,33,22,19,26
992,33,22,19,26
993,33,22,19,26
994,33,22,18,27
995,33,22,18,27
996,33,22,18,27
997,33,22,17,28
998,33,22,17,28
999,33,22,17,28
1000,33,22,17,28
1001,33,22,17,28
1002,33,22,17,28
1003,33,22,17,28
1004,33,22,17,28
1005,33,22,16,29
1006,33,22,16,29
1007,33,21,17,29
1008,33,21,17,29
1009,33,21,17,29
1010,33,21,17,29
1011,33,21,17,29
1012,33,20,18,29
1013,33,20,18,29
1014,33,20,18,29
1015,33,20,17,30
1016,33,19,17,31
1017,33,18,18,31
1018,33,17,19,31
1019,33,17,19,31
1020,33,17,19,31
1021,33,17,19,31
1022,33,17,19,31
1023,33,17,19,31
1024,33,16,20,31
1025,33,16,19,32
1026,32,17,19,32
1027,32,17,19,32
1028,32,17,19,32
1029,32,17,19,32
1030,32,17,19,32
1031,32,17,19,32
1032,32,17,19,32
1033,32,17,19,32
1034,32,17,19,32
1035,32,17,19,32
1036,32,16,20,32
1037,32,16,20,32
1038,32,15,21,32
1039,32,15,21,32
1040,32,15,21,32
1041,32,14,22,32
1042,32,14,22,32
1043,32,14,22,32
1044,32,14,22,32
1045,32,14,22,32
1046,32,14,22,32
1047,32,14,22,32
1048,32,14,22,32
1049,32,14,22,32
1050,32,14,22,32
1051,32,14,20,34
1052,32,14,20,34
1053,32,14,19,35
1054,32,14,19,35
1055,32,14,19,35
1056,32,14,19,35
1057,32,14,19,35
1058,32,14,19,35
1059,32,14,19,35
1060,32,14,19,35
1061,32,14,19,35
1062,32,14,19,35
1063,32,14,19,35
1064,32,14,19,35
1065,32,14,19,35
1066,32,14,19,35
1067,32,14,19,35
1068,32,14,19,35
1069,32,14,19,35
1070,32,14,19,35
1071,32,14,19,35
1072,32,14,19,35
1073,32,14,19,35
1074,32,14,19,35
1075,32,14,19,35
1076,32,14,19,35
1077,32,13,19,36
1078,32,13,19,36
1079,32,13,19,36
1080,31,14,19,36
1081,31,14,19,36
1082,31,14,19,36
1083,31,14,19,36
1084,31,14,18,37
1085,31,14,18,37
1086,31,14,18,37
1087,31,14,18,37
1088,31,14,18,37
1089,31,14,18,37
1090,31,14,18,37
1091,31,14,18,37
1092,31,14,18,37
1093,31,14,18,37
1094,31,14,18,37
1095,31,14,18,37
1096,31,14,18,37
1097,31,14,18,37
1098,31,14,18,37
1099,31,14,18,37
1100,31,14,18,37
1101,31,14,18,37
1102,31,13,19,37
1103,31,13,19,37
1104,31,13,19,37
1105,30,14,19,37
1106,30,14,19,37
1107,30,14,19,37
1108,30,14,19,37
1109,30,13,20,37
1110,30,13,20,37
1111,30,13,19,38
1112,30,13,19,38
1113,30,12,20,38
1114,30,11,21,38
1115,29,12,21,38
1116,29,12,21,38
1117,29,12,20,39
1118,29,12,20,39
1119,29,12,20,39
1120,29,12,20,39
1121,29,12,20,39
1122,28,13,20,39
1123,28,13,20,39
1124,28,13,19,40
1125,28,13,19,40
1126,27,14,19,40
1127,27,14,19,40
1128,27,14,18,41
1129,27,14,18,41
1130,27,14,18,41
1131,27,14,18,41
1132,27,14,18,41
1133,27,14,18,41
1134,27,14,18,41
1135,27,14,18,41
1136,27,14,18,41
1137,27,14,18,41
1138,27,14,18,41
1139,27,14,18,41
1140,27,14,18,41
1141,27,13,19,41
1142,26,14,19,41
1143,26,14,19,41
1144,26,14,19,41
1145,26,14,19,41
1146,26,14,19,41
1147,26,14,19,41
1148,26,14,19,41
1149,26,13,20,41
1150,25,14,20,41
1151,25,14,20,41
1152,25,14,20,41
1153,25,14,20,41
1154,25,14,20,41
1155,25,14,20,41
1156,25,14,20,41
1157,25,14,20,41
1158,25,14,20,41
1159,25,14,20,41
1160,25,14,19,42
1161,25,14,18,43
1162,25,14,18,43
1163,24,13,20,43
1164,24,13,20,43
1165,24,13,20,43
1166,24,12,21,43
1167,24,12,21,43
1168,24,12,20,44
1169,24,12,20,44
1170,24,12,20,44
1171,24,12,20,44
1172,24,12,20,44
1173,24,12,19,45
1174,23,13,19,45
1175,23,13,19,45
1176,23,13,19,45
1177,23,13,19,45
1178,23,13,19,45
1179,23,13,19,45
1180,23,13,19,45
1181,23,13,19,45
1182,23,13,19,45
1183,23,13,19,45
1184,23,13,19,45
1185,23,12,20,45
1186,23,11,21,45
1187,23,11,21,45
1188,23,10,22,45
1189,23,10,22,45
1190,23,10,22,45
1191,23,10,22,45
1192,22,11,22,45
1193,22,11,22,45
1194,22,11,22,45
1195,22,11,22,45
1196,22,11,22,45
1197,22,11,22,45
1198,22,11,22,45
1199,21,12,22,45
1200,21,12,22,45
1201,21,12,22,45
1202,21,12,22,45
1203,21,12,22,45
1204,21,12,22,45
1205,21,12,22,45
1206,21,12,22,45
1207,21,12,22,45
1208,21,12,21,46
1209,21,12,21,46
1210,20,13,21,46
1211,20,13,21,46
1212,20,13,21,46
1213,20,13,20,47
1214,20,13,20,47
1215,20,13,20,47
1216,20,13,20,47
1217,20,13,19,48
1218,20,13,18,49
1219,20,13,17,50
1220,20,13,17,50
1221,20,13,17,50
1222,20,13,17,50
1223,20,13,17,50
1224,20,13,17,50
1225,20,13,16,51
1226,20,13,16,51
1227,20,12,17,51
1228,20,12,17,51
1229,20,12,17,51
1230,20,12,17,51
1231,20,12,17,51
1232,20,12,17,51
1233,20,12,17,51
1234,20,12,17,51
1235,20,12,17,51
1236,20,12,17,51
1237,20,12,16,52
1238,20,12,16,52
1239,20,12,15,53
1240,20,12,15,53
1241,20,12,15,53
1242,20,12,14,54
1243,20,12,14,54
1244,20,12,14,54
1245,20,12,14,54
1246,20,12,14,54
1247,20,12,14,54
1248,20,12,14,54
1249,20,12,14,54
1250,20,12,14,54
1251,20,12,14,54
1252,20,12,14,54
1253,20,12,14,54
1254,20,12,14,54
1255,20,12,14,54
1256,20,12,14,54
1257,20,12,14,54
1258,20,12,14,54
1259,20,12,14,54
1260,20,12,14,54
1261,20,12,14,54
1262,20,12,14,54
1263,20,12,14,54
1264,20,12,14,54
1265,20,12,14,54
1266,20,12,14,54
1267,20,12,14,54
1268,20,12,14,54
1269,20,12,14,54
1270,20,12,14,54
1271,20,12,14,54
1272,20,12,14,54
1273,20,12,14,54
1274,20,12,14,54
1275,20,12,14,54
1276,20,12,14,54
1277,20,12,14,54
1278,20,12,13,55
1279,20,12,13,55
1280,20,12,13,55
1281,20,11,14,55
1282,20,11,14,55
1283,20,11,14,55
1284,20,11,14,55
1285,20,11,14,55
1286,20,11,14,55
1287,20,11,14,55
1288,20,11,14,55
1289,20,11,14,55
1290,20,11,14,55
1291,20,11,14,55
1292,20,11,14,55
1293,20,11,14,55
1294,20,11,14,55
1295,20,11,14,55
1296,20,11,14,55
1297,20,11,14,55
1298,20,11,14,55
1299,20,11,14,55
1300,20,11,14,55
1301,20,11,14,55
1302,20,11,14,55
1303,20,11,13,56
1304,20,11,13,56
1305,20,11,13,56
1306,20,10,14,56
1307,20,10,14,56
1308,20,10,14,56
1309,20,10,14,56
1310,20,10,13,57
1311,20,10,13,57
1312,20,10,13,57
1313,20,10,13,57
1314,20,10,12,58
1315,20,10,11,59
1316,20,9,12,59
1317,20,9,12,59
1318,20,9,12,59
1319,20,9,12,59
1320,20,9,12,59
1321,20,9,12,59
1322,20,9,12,59
1323,19,9,13,59
1324,19,9,13,59
1325,19,9,13,59
1326,19,9,13,59
1327,19,8,14,59
1328,19,8,14,59
1329,19,8,14,59
1330,19,8,14,59
1331,19,8,14,59
1332,19,8,14,59
1333,19,8,14,59
1334,19,8,14,59
1335,19,8,14,59
1336,19,8,14,59
1337,19,8,14,59
1338,19,8,14,59
1339,19,8,14,59
1340,19,8,14,59
1341,19,8,14,59
1342,19,8,13,60
1343,19,7,14,60
1344,19,7,14,60
1345,19,7,14,60
1346,19,7,14,60
1347,19,7,14,60
1348,19,7,14,60
1349,19,7,14,60
1350,19,7,13,61
1351,19,6,14,61
1352,19,6,14,61
1353,19,6,14,61
1354,19,6,14,61
1355,19,6,14,61
1356,19,6,14,61
1357,19,6,14,61
1358,19,6,14,61
1359,19,6,14,61
1360,18,7,14,61
1361,18,7,14,61
1362,17,8,14,61
1363,17,8,14,61
1364,17,7,13,63
1365,17,7,13,63
1366,17,7,13,63
1367,17,7,12,64
1368,17,7,12,64
1369,17,7,12,64
1370,17,7,12,64
1371,17,7,12,64
1372,17,7,12,64
1373,17,7,12,64
1374,17,7,12,64
1375,17,6,13,64
1376,17,6,13,64
1377,17,6,13,64
1378,17,6,13,64
1379,17,6,13,64
1380,17,6,13,64
1381,17,6,13,64
1382,17,6,13,64
1383,17,6,13,64
1384,17,6,13,64
1385,17,6,13,64
1386,17,6,12,65
1387,17,6,11,66
1388,17,6,11,66
1389,17,6,10,67
1390,17,6,10,67
1391,17,6,10,67
1392,17,6,10,67
1393,17,5,11,67
1394,17,5,11,67
1395,17,5,11,67
1396,17,5,11,67
1397,17,5,11,67
1398,17,5,11,67
1399,16,6,11,67
1400,16,5,12,67
1401,16,5,12,67
1402,16,5,12,67
1403,16,5,12,67
1404,16,5,12,67
1405,16,5,12,67
1406,16,5,12,67
1407,16,5,12,67
1408,16,5,12,67
1409,16,5,12,67
1410,16,5,12,67
1411,16,4,13,67
1412,16,4,13,67
1413,16,4,13,67
1414,16,4,13,67
1415,16,4,13,67
1416,16,4,13,67
1417,16,4,13,67
1418,16,4,13,67
1419,16,4,13,67
1420,16,4,13,67
1421,16,4,13,67
1422,16,4,13,67
1423,16,4,13,67
1424,16,4,13,67
1425,16,4,13,67
1426,16,4,13,67
1427,16,4,13,67
1428,16,4,12,68
1429,16,4,12,68
1430,16,4,12,68
1431,16,4,12,68
1432,16,4,12,68
1433,16,4,12,68
1434,16,4,12,68
1435,16,4,12,68
1436,16,4,12,68
1437,16,4,12,68
1438,16,4,12,68
1439,16,4,12,68
1440,16,4,12,68
1441,16,4,12,68
1442,16,4,12,68
1443,16,4,12,68
1444,16,4,12,68
1445,16,4,12,68
1446,16,4,12,68
1447,16,4,12,68
1448,16,4,12,68
1449,16,4,12,68
1450,16,4,12,68
1451,16,4,12,68
1452,16,4,12,68
1453,16,4,12,68
1454,16,4,12,68
1455,16,4,12,68
1456,16,4,12,68
1457,16,4,12,68
1458,16,4,12,68
1459,16,4,12,68
1460,16,4,12,68
1461,16,4,12,68
1462,16,4,12,68
1463,16,4,12,68
1464,16,4,12,68
1465,16,4,12,68
1466,16,4,12,68
1467,16,4,12,68
1468,16,4,12,68
1469,16,4,12,68
1470,16,4,12,68
1471,16,4,12,68
1472,16,4,12,68
1473,16,4,12,68
1474,16,4,12,68
1475,16,4,12,68
1476,16,4,12,68
1477,16,4,12,68
1478,16,4,12,68
1479,16,4,12,68
1480,16,4,12,68
1481,16,4,12,68
1482,16,4,11,69
1483,16,4,11,69
1484,16,4,11,69
1485,16,4,11,69
1486,15,5,11,69
1487,15,5,11,69
1488,15,5,11,69
1489,15,5,11,69
1490,15,5,11,69
1491,15,5,11,69
1492,15,5,11,69
1493,15,5,11,69
1494,15,5,11,69
1495,15,5,11,69
1496,15,5,11,69
1497,15,5,11,69
1498,15,5,11,69
1499,15,5,11,69
1500,15,5,11,69
1501,15,5,11,69
1502,14,6,11,69
1503,14,6,11,69
1504,14,6,11,69
1505,14,6,11,69
1506,14,6,11,69
1507,14,6,10,70
1508,14,6,10,70
1509,14,6,10,70
1510,14,6,10,70
1511,14,6,10,70
1512,14,6,10,70
1513,14,6,10,70
1514,14,6,10,70
1515,14,6,10,70
1516,14,6,10,70
1517,14,6,9,71
1518,14,6,9,71
1519,14,6,9,71
1520,14,6,9,71
1521,14,6,9,71
1522,14,6,9,71
1523,14,6,9,71
1524,14,5,9,72
1525,14,5,9,72
1526,14,5,9,72
1527,14,5,9,72
1528,14,5,8,73
1529,14,5,8,73
1530,14,5,8,73
1531,14,5,8,73
1532,14,5,8,73
1533,14,5,8,73
1534,14,5,8,73
1535,14,5,8,73
1536,14,5,8,73
1537,14,5,8,73
1538,14,5,8,73
1539,14,5,8,73
1540,14,5,8,73
1541,14,5,8,73
1542,14,5,8,73
1543,14,5,8,73
1544,14,5,7,74
1545,14,5,7,74
1546,14,5,7,74
1547,14,5,7,74
1548,14,5,7,74
1549,14,5,7,74
1550,14,5,7,74
1551,14,5,7,74
1552,14,5,6,75
1553,14,5,6,75
1554,14,5,6,75
1555,14,5,6,75
1556,14,5,6,75
1557,14,5,6,75
1558,14,5,6,75
1559,14,5,6,75
1560,14,5,6,75
1561,14,4,7,75
1562,14,4,7,75
1563,13,4,8,75
1564,13,4,8,75
1565,13,4,7,76
1566,13,4,7,76
1567,13,4,7,76
1568,13,4,7,76
1569,13,4,7,76
1570,13,4,7,76
1571,13,4,7,76
1572,13,4,7,76
1573,13,4,7,76
1574,13,4,7,76
1575,13,4,7,76
1576,13,4,6,77
1577,13,4,6,77
1578,13,4,6,77
1579,13,4,6,77
1580,13,4,6,77
1581,13,4,6,77
1582,13,4,6,77
1583,13,4,6,77
1584,13,4,6,77
1585,13,4,6,77
1586,13,4,6,77
1587,13,4,6,77
1588,13,4,6,77
1589,13,4,6,77
1590,13,4,6,77
1591,13,4,6,77
1592,13,4,6,77
1593,13,4,6,77
1594,13,4,5,78
1595,13,4,5,78
1596,13,4,5,78
1597,13,4,5,78
1598,13,4,5,78
1599,13,4,5,78
1600,13,3,6,78
1601,13,3,5,79
1602,13,3,5,79
1603,13,3,5,79
1604,13,3,5,79
1605,13,3,5,79
1606,13,3,5,79
1607,13,3,5,79
1608,13,3,5,79
1609,13,3,5,79
1610,13,3,5,79
1611,13,3,5,79
1612,13,3,4,80
1613,13,3,4,80
1614,13,3,4,80
1615,13,3,4,80
1616,13,3,4,80
1617,13,3,4,80
1618,13,3,4,80
1619,13,3,4,80
1620,13,3,4,80
1621,13,3,4,80
1622,13,3,4,80
1623,13,3,4,80
1624,13,3,4,80
1625,13,3,4,80
1626,13,3,4,80
1627,13,3,4,80
1628,13,3,4,80
1629,13,3,4,80
1630,13,3,4,80
1631,13,3,4,80
1632,13,3,4,80
1633,13,3,4,80
1634,13,3,4,80
1635,13,3,4,80
1636,13,3,4,80
1637,13,3,4,80
1638,13,3,4,80
1639,13,3,4,80
1640,13,3,4,80
1641,13,3,4,80
1642,13,3,4,80
1643,13,3,4,80
1644,13,3,4,80
1645,13,3,4,80
1646,13,3,4,80
1647,13,3,4,80
1648,13,3,4,80
1649,13,3,4,80
1650,13,3,4,80
1651,13,3,4,80
1652,13,3,4,80
1653,13,3,4,80
1654,13,3,4,80
1655,13,3,4,80
1656,13,3,4,80
1657,13,3,4,80
1658,13,3,4,80
1659,13,3,4,80
1660,13,3,4,80
1661,13,3,4,80
1662,13,3,4,80
1663,13,3,4,80
1664,13,3,4,80
1665,13,3,4,80
1666,13,3,4,80
1667,13,3,4,80
1668,13,3,4,80
1669,13,3,4,80
1670,13,3,4,80
1671,13,3,4,80
1672,13,3,4,80
1673,13,3,4,80
1674,13,3,4,80
1675,13,3,4,80
1676,13,3,4,80
1677,13,3,4,80
1678,13,3,4,80
1679,13,3,4,80
1680,13,3,4,80
1681,13,3,4,80
1682,13,3,4,80
1683,13,3,4,80
1684,13,3,4,80
1685,13,3,4,80
1686,13,3,4,80
1687,13,2,5,80
1688,13,2,5,80
1689,13,2,5,80
1690,13,2,5,80
1691,13,2,5,80
1692,13,2,5,80
1693,11,4,5,80
1694,11,4,5,80
1695,11,4,5,80
1696,11,4,5,80
1697,11,4,5,80
1698,11,4,5,80
1699,11,4,5,80
1700,11,4,5,80
1701,11,4,5,80
1702,11,4,5,80
1703,11,3,6,80
1704,11,3,6,80
1705,11,3,6,80
1706,11,3,6,80
1707,11,3,6,80
1708,11,3,6,80
1709,11,3,6,80
1710,11,3,6,80
1711,11,3,6,80
1712,11,3,6,80
1713,11,3,6,80
1714,11,3,6,80
1715,11,3,6,80
1716,11,3,6,80
1717,11,3,6,80
1718,11,3,6,80
1719,11,3,6,80
1720,11,3,6,80
1721,11,3,6,80
1722,11,3,6,80
1723,11,3,6,80
1724,11,3,6,80
1725,11,3,5,81
1726,11,3,5,81
1727,11,3,5,81
1728,11,3,5,81
1729,11,3,5,81
1730,11,3,5,81
1731,11,3,5,81
1732,11,3,5,81
1733,11,3,5,81
1734,11,3,5,81
1735,11,3,5,81
1736,11,3,5,81
1737,11,3,5,81
1738,11,3,5,81
1739,11,3,5,81
1740,11,3,5,81
1741,11,3,5,81
1742,11,3,5,81
1743,11,3,5,81
1744,11,3,5,81
1745,11,3,5,81
1746,11,3,5,81
1747,11,3,5,81
1748,11,3,5,81
1749,11,3,5,81
1750,11,3,5,81
1751,11,3,5,81
1752,11,3,5,81
1753,11,3,5,81
1754,11,3,5,81
1755,11,3,5,81
1756,11,3,5,81
1757,11,3,5,81
1758,11,3,5,81
1759,11,3,5,81
1760,11,3,5,81
1761,11,3,5,81
1762,11,3,4,82
1763,11,3,4,82
1764,11,2,4,83
1765,11,2,4,83
1766,11,2,4,83
1767,11,2,4,83
1768,11,2,4,83
1769,10,3,4,83
1770,9,4,4,83
1771,9,4,4,83
1772,9,4,4,83
1773,9,4,4,83
1774,9,4,4,83
1775,9,4,4,83
1776,9,4,4,83
1777,9,4,4,83
1778,9,4,4,83
1779,9,4,4,83
1780,9,4,4,83
1781,9,4,4,83
1782,9,4,4,83
1783,9,4,4,83
1784,9,4,4,83
1785,9,4,4,83
1786,9,4,4,83
1787,9,4,4,83
1788,9,4,4,83
1789,9,4,4,83
1790,9,4,4,83
1791,9,4,4,83
1792,9,4,4,83
1793,9,4,4,83
1794,9,4,4,83
1795,9,4,4,83
1796,9,4,4,83
1797,9,4,4,83
1798,9,4,4,83
1799,9,4,4,83
1800,9,4,4,83
1801,9,4,3,84
1802,9,4,3,84
1803,9,4,3,84
1804,9,4,3,84
1805,9,4,3,84
1806,9,4,3,84
1807,9,4,3,84
1808,9,4,3,84
1809,9,4,3,84
1810,9,4,3,84
1811,9,4,3,84
1812,9,4,3,84
1813,9,4,3,84
1814,9,4,3,84
1815,9,4,3,84
1816,9,4,3,84
1817,9,4,3,84
1818,9,4,3,84
1819,9,4,3,84
1820,9,4,3,84
1821,9,4,3,84
1822,9,4,3,84
1823,9,4,3,84
1824,9,4,3,84
1825,9,4,3,84
1826,9,4,3,84
1827,9,4,3,84
1828,9,4,3,84
1829,9,4,3,84
1830,9,4,3,84
1831,9,4,3,84
1832,9,4,3,84
1833,9,4,3,84
1834,9,4,3,84
1835,9,4,3,84
1836,9,4,3,84
1837,9,4,3,84
1838,9,4,3,84
1839,9,4,3,84
1840,9,4,3,84
1841,9,4,3,84
1842,9,4,3,84
1843,9,4,3,84
1844,9,4,3,84
1845,9,4,3,84
1846,9,4,3,84
1847,9,4,3,84
1848,9,4,3,84
1849,9,4,3,84
1850,9,4,3,84
1851,9,4,3,84
1852,9,4,3,84
1853,9,4,3,84
1854,9,4,3,84
1855,9,4,3,84
1856,9,4,3,84
1857,9,4,3,84
1858,9,4,3,84
1859,9,4,3,84
1860,9,4,3,84
1861,9,4,3,84
1862,9,4,3,84
1863,9,4,3,84
1864,9,4,3,84
1865,9,4,3,84
1866,9,4,3,84
1867,9,4,3,84
1868,9,4,3,84
1869,9,4,3,84
1870,9,4,3,84
1871,9,4,3,84
1872,9,4,3,84
1873,9,4,3,84
1874,9,4,3,84
1875,9,4,3,84
1876,9,4,3,84
1877,9,4,3,84
1878,9,4,3,84
1879,9,4,3,84
1880,9,4,3,84
1881,9,4,3,84
1882,9,4,3,84
1883,9,4,3,84
1884,9,4,3,84
1885,9,4,3,84
1886,9,4,3,84
1887,9,4,3,84
1888,9,4,2,85
1889,9,4,2,85
1890,9,4,2,85
1891,9,4,2,85
1892,9,4,2,85
1893,9,4,2,85
1894,9,2,4,85
1895,9,2,4,85
1896,9,2,4,85
1897,9,2,4,85
1898,9,2,4,85
1899,9,2,4,85
1900,9,2,4,85
1901,9,2,4,85
1902,9,2,4,85
1903,9,2,4,85
1904,9,2,3,86
1905,9,2,3,86
1906,9,2,3,86
1907,9,2,3,86
1908,9,2,3,86
1909,9,2,3,86
1910,9,2,3,86
1911,9,2,3,86
1912,9,2,3,86
1913,9,2,3,86
1914,9,2,3,86
1915,9,2,3,86
1916,9,2,3,86
1917,9,2,3,86
1918,9,2,3,86
1919,9,2,3,86
1920,9,2,3,86
1921,9,2,3,86
1922,9,2,3,86
1923,9,2,3,86
1924,9,2,3,86
1925,9,2,3,86
1926,9,2,3,86
1927,9,2,3,86
1928,9,2,3,86
1929,9,2,3,86
1930,9,2,3,86
1931,9,2,3,86
1932,9,2,3,86
1933,9,2,3,86
1934,9,2,3,86
1935,9,2,3,86
1936,9,2,3,86
1937,9,2,3,86
1938,9,2,3,86
1939,9,2,3,86
1940,9,2,3,86
1941,9,2,3,86
1942,9,2,3,86
1943,9,2,3,86
1944,9,2,3,86
1945,9,2,3,86
1946,9,2,3,86
1947,9,2,3,86
1948,9,2,3,86
1949,9,2,3,86
1950,9,2,3,86
1951,9,2,3,86
1952,9,2,3,86
1953,9,2,3,86
1954,9,2,3,86
1955,9,2,3,86
1956,9,2,3,86
1957,9,2,3,86
1958,9,2,3,86
1959,9,2,3,86
1960,9,2,3,86
1961,9,2,3,86
1962,9,2,3,86
1963,9,2,3,86
1964,9,2,3,86
1965,9,2,2,87
1966,9,2,2,87
1967,9,2,2,87
1968,9,2,2,87
1969,9,2,2,87
1970,9,1,3,87
1971,9,0,4,87
1972,9,0,4,87
1973,9,0,4,87
1974,9,0,4,87
1975,9,0,4,87
1976,9,0,4,87
1977,9,0,4,87
1978,9,0,4,87
1979,9,0,4,87
1980,9,0,4,87
1981,9,0,4,87
1982,9,0,4,87
1983,9,0,4,87
1984,9,0,4,87
1985,9,0,4,87
1986,9,0,4,87
1987,9,0,4,87
1988,9,0,4,87
1989,9,0,4,87
1990,9,0,4,87
1991,9,0,4,87
1992,9,0,4,87
1993,9,0,4,87
1994,9,0,4,87
1995,9,0,4,87
1996,9,0,4,87
1997,9,0,4,87
1998,9,0,4,87
1999,9,0,4,87
2000,9,0,4,87
