"tick","total"
0,0
1,0
2,0
3,0
4,0
5,0
6,0
7,0
8,0
9,0
10,0
11,0
12,0
13,0
14,0
15,0
16,0
17,0
18,0
19,0
20,0
21,0
22,0
23,0
24,0
25,0
26,0
27,0
28,0
29,0
30,0
31,0
32,0
33,0
34,0
35,0
36,0
37,0
38,0
39,0
40,0
41,0
42,0
43,0
44,0
45,0
46,0
47,0
48,0
49,0
50,0
51,0
52,0
53,0
54,0
55,0
56,0
57,0
58,0
59,0
60,0
61,0
62,0
63,0
64,0
65,0
66,0
67,0
68,0
69,0
70,0
71,0
72,0
73,0
74,0
75,0
76,0
77,0
78,0
79,0
80,0
81,0
82,0
83,0
84,0
85,0
86,0
87,0
88,0
89,0
90,0
91,0
92,0
93,0
94,0
95,0
96,0
97,0
98,0
99,0
100,0
101,0
102,0
103,0
104,0
105,0
106,0
107,0
108,0
109,0
110,0
111,0
112,0
113,0
114,0
115,0
116,0
117,0
118,0
119,0
120,0
121,0
122,0
123,0
124,0
125,0
126,0
127,0
128,0
129,0
130,0
131,0
132,0
133,0
134,0
135,0
136,0
137,0
138,0
139,0
140,0
141,0
142,0
143,0
144,0
145,0
146,0
147,0
148,0
149,0
150,0
151,0
152,0
153,0
154,0
155,0
156,0
157,0
158,0
159,0
160,0
161,0
162,0
163,0
164,0
165,0
166,0
167,0
168,0
169,0
170,0
171,0
172,0
173,0
174,0
175,0
176,0
177,0
178,0
179,0
180,0
181,0
182,0
183,0
184,0
185,0
186,0
187,0
188,0
189,0
190,0
191,0
192,0
193,0
194,0
195,0
196,0
197,0
198,0
199,0
200,0
201,0
202,0
203,0
204,0
205,0
206,0
207,0
208,0
209,0
210,0
211,0
212,0
213,0
214,0
215,0
216,0
217,0
218,0
219,0
220,0
221,0
222,0
223,0
224,0
225,0
226,0
227,0
228,0
229,0
230,0
231,0
232,0
233,0
234,0
235,0
236,0
237,0
238,1
239,1
240,1
241,1
242,1
243,1
244,1
245,1
246,1
247,1
248,1
249,1
250,1
251,1
252,1
253,1
254,1
255,1
256,1
257,1
258,1
259,1
260,1
261,1
262,1
263,1
264,1
265,1
266,1
267,1
268,1
269,1
270,1
271,1
272,1
273,1
274,1
275,1
276,1
277,1
278,1
279,1
280,1
281,2
282,2
283,3
284,3
285,5
286,5
287,5
288,5
289,7
290,7
291,7
292,7
293,7
294,7
295,7
296,7
297,7
298,7
299,7
300,7
301,7
302,7
303,8
304,8
305,9
306,9
307,9
308,9
309,9
310,9
311,9
312,9
313,10
314,10
315,10
316,10
317,11
318,11
319,11
320,11
321,11
322,11
323,11
324,11
325,11
326,11
327,11
328,11
329,11
330,11
331,11
332,11
333,11
334,11
335,11
336,11
337,12
338,12
339,12
340,12
341,12
342,12
343,12
344,13
345,13
346,13
347,13
348,13
349,13
350,13
351,13
352,14
353,14
354,14
355,14
356,14
357,14
358,14
359,14
360,14
361,14
362,14
363,15
364,15
365,15
366,16
367,17
368,17
369,17
370,17
371,18
372,18
373,18
374,18
375,18
376,18
377,19
378,20
379,20
380,20
381,20
382,21
383,22
384,22
385,22
386,22
387,22
388,22
389,22
390,22
391,22
392,23
393,23
394,23
395,23
396,23
397,23
398,23
399,23
400,23
401,23
402,23
403,23
404,24
405,24
406,25
407,25
408,26
409,26
410,26
411,26
412,27
413,27
414,27
415,27
416,27
417,27
418,27
419,27
420,28
421,29
422,29
423,29
424,29
425,29
426,30
427,30
428,30
429,30
430,30
431,30
432,30
433,30
434,30
435,30
436,30
437,30
438,30
439,30
440,30
441,30
442,30
443,30
444,30
445,30
446,30
447,30
448,30
449,30
450,30
451,30
452,30
453,30
454,30
455,30
456,30
457,30
458,30
459,30
460,30
461,30
462,30
463,30
464,30
465,30
466,30
467,30
468,30
469,30
470,30
471,30
472,30
473,30
474,30
475,30
476,30
477,30
478,30
479,30
480,30
481,30
482,30
483,30
484,30
485,30
486,30
487,30
488,30
489,30
490,30
491,30
492,30
493,30
494,30
495,30
496,30
497,30
498,30
499,30
500,30
501,30
502,30
503,30
504,31
505,31
506,31
507,31
508,31
509,31
510,31
511,31
512,31
513,31
514,31
515,31
516,31
517,31
518,31
519,31
520,31
521,31
522,31
523,31
524,31
525,31
526,31
527,31
528,31
529,31
530,31
531,31
532,31
533,31
534,31
535,32
536,32
537,32
538,32
539,33
540,34
541,36
542,38
543,40
544,42
545,42
546,42
547,42
548,42
549,42
550,42
551,42
552,42
553,42
554,43
555,43
556,43
557,43
558,43
559,43
560,43
561,43
562,43
563,43
564,43
565,43
566,43
567,43
568,43
569,43
570,43
571,43
572,43
573,43
574,43
575,43
576,43
577,43
578,43
579,43
580,43
581,43
582,43
583,43
584,43
585,43
586,43
587,43
588,43
589,43
590,44
591,44
592,44
593,44
594,44
595,44
596,44
597,44
598,44
599,44
600,44
601,44
602,44
603,44
604,44
605,44
606,44
607,44
608,44
609,44
610,44
611,44
612,44
613,44
614,44
615,45
616,45
617,45
618,45
619,45
620,45
621,45
622,45
623,45
624,45
625,45
626,45
627,45
628,45
629,45
630,45
631,45
632,45
633,45
634,45
635,45
636,45
637,45
638,45
639,45
640,45
641,45
642,45
643,45
644,45
645,45
646,45
647,45
648,45
649,45
650,45
651,45
652,45
653,45
654,45
655,45
656,46
657,46
658,46
659,46
660,46
661,46
662,46
663,46
664,46
665,46
666,46
667,46
668,46
669,46
670,46
671,46
672,46
673,46
674,47
675,47
676,47
677,47
678,47
679,47
680,47
681,47
682,47
683,47
684,48
685,48
686,48
687,48
688,48
689,48
690,48
691,48
692,48
693,48
694,48
695,48
696,48
697,48
698,48
699,48
700,49
701,49
702,49
703,49
704,49
705,49
706,49
707,50
708,50
709,50
710,50
711,50
712,50
713,50
714,51
715,51
716,51
717,51
718,51
719,51
720,51
721,51
722,52
723,53
724,53
725,54
726,54
727,54
728,54
729,54
730,54
731,54
732,54
733,54
734,54
735,54
736,54
737,54
738,54
739,54
740,54
741,54
742,54
743,54
744,54
745,54
746,54
747,54
748,54
749,54
750,54
751,54
752,54
753,54
754,54
755,54
756,54
757,54
758,55
759,55
760,55
761,55
762,55
763,55
764,55
765,55
766,55
767,55
768,55
769,55
770,55
771,55
772,55
773,55
774,55
775,55
776,55
777,55
778,55
779,55
780,55
781,55
782,55
783,55
784,55
785,55
786,55
787,55
788,55
789,55
790,55
791,55
792,55
793,55
794,55
795,55
796,55
797,55
798,55
799,55
800,55
801,55
802,56
803,56
804,56
805,56
806,56
807,56
808,56
809,56
810,56
811,56
812,56
813,56
814,56
815,56
816,56
817,56
818,56
819,56
820,56
821,56
822,56
823,56
824,56
825,56
826,56
827,56
828,56
829,56
830,56
831,56
832,56
833,56
834,56
835,56
836,56
837,56
838,56
839,56
840,56
841,56
842,56
843,56
844,56
845,56
846,56
847,56
848,56
849,56
850,56
851,56
852,57
853,58
854,58
855,58
856,58
857,58
858,58
859,58
860,58
861,58
862,58
863,58
864,58
865,58
866,58
867,58
868,58
869,58
870,58
871,58
872,58
873,58
874,59
875,59
876,59
877,59
878,59
879,59
880,59
881,59
882,59
883,59
884,59
885,59
886,59
887,59
888,59
889,59
890,59
891,59
892,59
893,59
894,59
895,59
896,59
897,59
898,60
899,60
900,60
901,60
902,60
903,60
904,60
905,60
906,60
907,60
908,60
909,60
910,61
911,61
912,61
913,61
914,61
915,61
916,61
917,62
918,62
919,62
920,62
921,62
922,62
923,62
924,62
925,62
926,62
927,62
928,62
929,62
930,62
931,62
932,62
933,62
934,62
935,62
936,62
937,62
938,62
939,62
940,62
941,62
942,62
943,62
944,62
945,62
946,62
947,62
948,62
949,62
950,62
951,62
952,62
953,62
954,62
955,62
956,62
957,62
958,62
959,62
960,62
961,62
962,62
963,62
964,62
965,62
966,62
967,62
968,62
969,62
970,62
971,62
972,62
973,62
974,62
975,62
976,62
977,62
978,62
979,62
980,62
981,62
982,62
983,62
984,62
985,62
986,62
987,62
988,62
989,63
990,63
991,64
992,64
993,64
994,64
995,64
996,64
997,64
998,64
999,64
1000,64
1001,64
1002,64
1003,65
1004,65
1005,65
1006,65
1007,65
1008,65
1009,65
1010,65
1011,65
1012,65
1013,65
1014,65
1015,65
1016,65
1017,65
1018,65
1019,65
1020,65
1021,65
1022,65
1023,65
1024,65
1025,65
1026,65
1027,65
1028,65
1029,65
1030,65
1031,65
1032,65
1033,65
1034,65
1035,65
1036,65
1037,65
1038,65
1039,65
1040,65
1041,65
1042,65
1043,65
1044,65
1045,65
1046,66
1047,66
1048,66
1049,66
1050,67
1051,67
1052,67
1053,67
1054,67
1055,68
1056,68
1057,68
1058,68
1059,68
1060,68
1061,68
1062,68
1063,68
1064,68
1065,68
1066,68
1067,68
1068,68
1069,68
1070,68
1071,68
1072,68
1073,68
1074,68
1075,68
1076,68
1077,68
1078,68
1079,68
1080,68
1081,68
1082,68
1083,68
1084,68
1085,68
1086,68
1087,68
1088,68
1089,68
1090,68
1091,68
1092,68
1093,68
1094,68
1095,68
1096,68
1097,68
1098,68
1099,68
1100,68
1101,68
1102,68
1103,68
1104,68
1105,68
1106,68
1107,68
1108,68
1109,69
1110,69
1111,69
1112,69
1113,69
1114,69
1115,69
1116,69
1117,69
1118,69
1119,69
1120,69
1121,69
1122,69
1123,69
1124,69
1125,69
1126,69
1127,69
1128,69
1129,69
1130,69
1131,69
1132,69
1133,69
1134,69
1135,69
1136,69
1137,69
1138,69
1139,69
1140,69
1141,69
1142,69
1143,70
1144,70
1145,70
1146,70
1147,70
1148,70
1149,70
1150,70
1151,70
1152,70
1153,70
1154,70
1155,70
1156,70
1157,70
1158,70
1159,70
1160,70
1161,70
1162,70
1163,70
1164,70
1165,70
1166,70
1167,70
1168,70
1169,70
1170,70
1171,70
1172,70
1173,70
1174,71
1175,71
1176,71
1177,71
1178,71
1179,71
1180,71
1181,71
1182,71
1183,71
1184,71
1185,71
1186,71
1187,71
1188,71
1189,71
1190,71
1191,71
1192,71
1193,71
1194,71
1195,71
1196,71
1197,71
1198,71
1199,71
1200,71
1201,71
1202,71
1203,71
1204,71
1205,71
1206,71
1207,71
1208,71
1209,71
1210,71
1211,71
1212,71
1213,71
1214,71
1215,71
1216,71
1217,71
1218,71
1219,71
1220,71
1221,71
1222,71
1223,71
1224,71
1225,71
1226,71
1227,71
1228,72
1229,72
1230,72
1231,72
1232,72
1233,72
1234,72
1235,72
1236,72
1237,72
1238,72
1239,72
1240,72
1241,72
1242,72
1243,72
1244,72
1245,72
1246,72
1247,72
1248,72
1249,72
1250,72
1251,72
1252,72
1253,72
1254,72
1255,72
1256,72
1257,72
1258,72
1259,72
1260,72
1261,72
1262,73
1263,73
1264,73
1265,73
1266,73
1267,73
1268,73
1269,74
1270,74
1271,74
1272,74
1273,74
1274,74
1275,74
1276,74
1277,74
1278,74
1279,74
1280,74
1281,74
1282,74
1283,74
1284,74
1285,74
1286,74
1287,74
1288,74
1289,74
1290,74
1291,74
1292,74
1293,75
1294,75
1295,75
1296,75
1297,75
1298,75
1299,75
1300,75
1301,75
1302,75
1303,75
1304,75
1305,75
1306,75
1307,75
1308,75
1309,75
1310,75
1311,75
1312,75
1313,75
1314,75
1315,75
1316,75
1317,75
1318,75
1319,75
1320,75
1321,75
1322,75
1323,75
1324,75
1325,75
1326,75
1327,75
1328,75
1329,75
1330,75
1331,75
1332,75
1333,75
1334,75
1335,75
1336,75
1337,75
1338,75
1339,75
1340,75
1341,75
1342,75
1343,76
1344,76
1345,76
1346,76
1347,76
1348,76
1349,76
1350,76
1351,76
1352,76
1353,76
1354,76
1355,76
1356,76
1357,76
1358,76
1359,76
1360,76
1361,76
1362,76
1363,76
1364,76
1365,76
1366,76
1367,76
1368,76
1369,76
1370,76
1371,76
1372,76
1373,76
1374,76
1375,76
1376,76
1377,76
1378,76
1379,76
1380,76
1381,76
1382,76
1383,76
1384,76
1385,76
1386,76
1387,76
1388,76
1389,76
1390,76
1391,76
1392,76
1393,76
1394,76
1395,76
1396,76
1397,76
1398,76
1399,76
1400,76
1401,77
1402,78
1403,78
1404,78
1405,78
1406,78
1407,78
1408,78
1409,78
1410,78
1411,78
1412,78
1413,79
1414,79
1415,79
1416,79
1417,80
1418,80
1419,80
1420,80
1421,80
1422,80
1423,80
1424,80
1425,80
1426,80
1427,80
1428,80
1429,80
1430,80
1431,81
1432,81
1433,81
1434,81
1435,81
1436,81
1437,81
1438,81
1439,81
1440,81
1441,81
1442,81
1443,81
1444,81
1445,81
1446,81
1447,81
1448,81
1449,81
1450,81
1451,81
1452,81
1453,81
1454,81
1455,81
1456,81
1457,81
1458,81
1459,81
1460,81
1461,81
1462,81
1463,81
1464,81
1465,81
1466,81
1467,81
1468,81
1469,81
1470,81
1471,81
1472,81
1473,81
1474,81
1475,81
1476,81
1477,81
1478,81
1479,81
1480,81
1481,81
1482,81
1483,81
1484,81
1485,81
1486,81
1487,81
1488,81
1489,81
1490,81
1491,81
1492,81
1493,81
1494,81
1495,81
1496,81
1497,81
1498,81
1499,82
1500,82
1501,82
1502,82
1503,82
1504,82
1505,82
1506,82
1507,82
1508,82
1509,82
1510,82
1511,82
1512,82
1513,82
1514,82
1515,82
1516,82
1517,82
1518,82
1519,82
1520,82
1521,82
1522,82
1523,82
1524,82
1525,82
1526,82
1527,82
1528,82
1529,82
1530,82
1531,82
1532,82
1533,82
1534,82
1535,82
1536,82
1537,82
1538,82
1539,82
1540,82
1541,82
1542,82
1543,82
1544,83
1545,83
1546,83
1547,83
1548,84
1549,84
1550,84
1551,84
1552,84
1553,84
1554,84
1555,84
1556,84
1557,84
1558,85
1559,85
1560,86
1561,86
1562,86
1563,87
1564,88
1565,88
1566,88
1567,88
1568,88
1569,88
1570,88
1571,88
1572,88
1573,88
1574,88
1575,88
1576,88
1577,88
1578,88
1579,88
1580,88
1581,88
1582,88
1583,88
1584,88
1585,88
1586,88
1587,88
1588,88
1589,88
1590,88
1591,88
1592,88
1593,88
1594,88
1595,88
1596,88
1597,88
1598,88
1599,88
1600,88
1601,88
1602,88
1603,88
1604,88
1605,88
1606,88
1607,88
1608,88
1609,88
1610,88
1611,88
1612,88
1613,88
1614,88
1615,88
1616,88
1617,88
1618,88
1619,88
1620,88
1621,88
1622,88
1623,88
1624,88
1625,88
1626,88
1627,88
1628,88
1629,88
1630,88
1631,88
1632,88
1633,88
1634,88
1635,88
1636,88
1637,88
1638,88
1639,88
1640,88
1641,88
1642,88
1643,89
1644,89
1645,89
1646,89
1647,89
1648,89
1649,89
1650,89
1651,89
1652,89
1653,89
1654,89
1655,89
1656,89
1657,89
1658,89
1659,89
1660,89
1661,90
1662,90
1663,90
1664,90
1665,90
1666,90
1667,90
1668,90
1669,90
1670,90
1671,90
1672,90
1673,90
1674,90
1675,90
1676,90
1677,90
1678,90
1679,90
1680,90
1681,90
1682,90
1683,90
1684,90
1685,90
1686,90
1687,90
1688,91
1689,91
1690,91
1691,91
1692,91
1693,91
1694,91
1695,91
1696,91
1697,91
1698,91
1699,91
1700,92
1701,92
1702,92
1703,92
1704,92
1705,92
1706,92
1707,92
1708,92
1709,92
1710,92
1711,92
1712,92
1713,92
1714,92
1715,92
1716,92
1717,92
1718,92
1719,92
1720,92
1721,92
1722,92
1723,92
1724,92
1725,92
1726,92
1727,93
1728,93
1729,93
1730,93
1731,93
1732,93
1733,94
1734,94
1735,94
1736,94
1737,94
1738,94
1739,94
1740,94
1741,94
1742,94
1743,94
1744,95
1745,95
1746,95
1747,95
1748,95
1749,95
1750,95
1751,95
1752,95
1753,95
1754,96
1755,97
1756,97
1757,97
1758,97
1759,98
1760,98
1761,98
1762,98
1763,98
1764,98
1765,98
1766,98
1767,98
1768,98
1769,98
1770,98
1771,98
1772,99
1773,99
1774,99
1775,99
1776,99
1777,99
1778,99
1779,99
1780,100
1781,100
1782,100
1783,100
1784,100
1785,100
1786,100
1787,100
1788,100
1789,101
1790,101
1791,101
1792,101
1793,101
1794,101
1795,101
1796,101
1797,101
1798,101
1799,101
1800,101
1801,101
1802,101
1803,101
1804,101
1805,101
1806,101
1807,101
1808,101
1809,102
1810,102
1811,102
1812,102
1813,103
1814,103
1815,103
1816,103
1817,103
1818,103
1819,103
1820,103
1821,103
1822,103
1823,103
1824,103
1825,103
1826,103
1827,103
1828,103
1829,103
1830,103
1831,103
1832,103
1833,103
1834,103
1835,103
1836,103
1837,103
1838,103
1839,103
1840,103
1841,103
1842,103
1843,103
1844,103
1845,103
1846,103
1847,103
1848,103
1849,103
1850,103
1851,103
1852,103
1853,103
1854,103
1855,103
1856,103
1857,103
1858,103
1859,103
1860,103
1861,103
1862,103
1863,103
1864,103
1865,103
1866,103
1867,103
1868,103
1869,103
1870,103
1871,103
1872,104
1873,104
1874,104
1875,104
1876,104
1877,104
1878,104
1879,104
1880,104
1881,104
1882,104
1883,104
1884,104
1885,104
1886,104
1887,104
1888,104
1889,104
1890,104
1891,104
1892,105
1893,105
1894,105
1895,105
1896,105
1897,105
1898,105
1899,105
1900,105
1901,105
1902,105
1903,105
1904,105
1905,105
1906,105
1907,105
1908,105
1909,105
1910,105
1911,105
1912,105
1913,105
1914,105
1915,105
1916,105
1917,105
1918,105
1919,105
1920,105
1921,105
1922,105
1923,105
1924,105
1925,105
1926,105
1927,105
1928,105
1929,105
1930,105
1931,105
1932,105
1933,105
1934,105
1935,105
1936,105
1937,106
1938,106
1939,106
1940,106
1941,106
1942,106
1943,106
1944,106
1945,106
1946,106
1947,106
1948,106
1949,106
1950,106
1951,106
1952,106
1953,106
1954,106
1955,106
1956,106
1957,106
1958,106
1959,106
1960,106
1961,106
1962,106
1963,106
1964,106
1965,106
1966,106
1967,106
1968,106
1969,107
1970,107
1971,107
1972,107
1973,107
1974,107
1975,107
1976,107
1977,107
1978,107
1979,107
1980,107
1981,107
1982,107
1983,107
1984,107
1985,107
1986,107
1987,107
1988,107
1989,107
1990,107
1991,107
1992,107
1993,107
1994,107
1995,107
1996,107
1997,107
1998,107
1999,107
2000,107
