"tick","total"
0,0
1,0
2,0
3,1
4,1
5,1
6,1
7,1
8,1
9,1
10,1
11,1
12,1
13,1
14,1
15,1
16,1
17,1
18,1
19,2
20,2
21,2
22,2
23,2
24,2
25,2
26,2
27,2
28,2
29,2
30,2
31,2
32,2
33,2
34,2
35,2
36,2
37,2
38,2
39,2
40,2
41,2
42,2
43,2
44,2
45,2
46,2
47,2
48,2
49,2
50,2
51,2
52,2
53,2
54,2
55,2
56,2
57,2
58,2
59,2
60,2
61,2
62,2
63,2
64,2
65,2
66,2
67,2
68,2
69,2
70,2
71,2
72,2
73,2
74,2
75,2
76,2
77,2
78,2
79,2
80,2
81,2
82,2
83,2
84,2
85,2
86,2
87,2
88,2
89,2
90,2
91,2
92,2
93,2
94,2
95,2
96,2
97,2
98,2
99,2
100,2
101,2
102,2
103,2
104,2
105,2
106,2
107,2
108,2
109,2
110,2
111,2
112,2
113,2
114,2
115,2
116,2
117,2
118,2
119,2
120,3
121,3
122,3
123,3
124,3
125,3
126,3
127,3
128,3
129,3
130,3
131,3
132,3
133,3
134,3
135,3
136,3
137,3
138,3
139,4
140,4
141,4
142,4
143,4
144,4
145,4
146,4
147,4
148,4
149,4
150,4
151,5
152,5
153,5
154,7
155,7
156,7
157,7
158,7
159,7
160,7
161,7
162,7
163,7
164,7
165,7
166,7
167,7
168,7
169,7
170,7
171,7
172,9
173,9
174,9
175,11
176,11
177,12
178,13
179,13
180,13
181,13
182,13
183,13
184,13
185,14
186,14
187,14
188,15
189,15
190,15
191,15
192,15
193,15
194,15
195,15
196,15
197,16
198,16
199,16
200,16
201,16
202,16
203,17
204,17
205,18
206,18
207,20
208,20
209,20
210,20
211,20
212,20
213,20
214,21
215,21
216,22
217,22
218,22
219,22
220,22
221,22
222,22
223,22
224,22
225,22
226,22
227,22
228,22
229,23
230,23
231,23
232,23
233,23
234,23
235,23
236,23
237,23
238,23
239,23
240,23
241,23
242,23
243,23
244,23
245,23
246,23
247,24
248,24
249,24
250,24
251,24
252,24
253,24
254,24
255,24
256,24
257,24
258,24
259,24
260,25
261,25
262,25
263,25
264,25
265,25
266,26
267,27
268,27
269,27
270,27
271,27
272,28
273,28
274,28
275,28
276,28
277,28
278,28
279,28
280,28
281,28
282,28
283,28
284,28
285,28
286,28
287,28
288,28
289,28
290,28
291,28
292,28
293,29
294,30
295,30
296,30
297,31
298,31
299,31
300,31
301,31
302,31
303,31
304,31
305,31
306,31
307,31
308,31
309,31
310,31
311,31
312,31
313,31
314,31
315,31
316,31
317,31
318,31
319,31
320,31
321,31
322,31
323,31
324,31
325,31
326,31
327,31
328,31
329,31
330,31
331,31
332,31
333,31
334,31
335,31
336,31
337,31
338,31
339,31
340,31
341,31
342,31
343,31
344,31
345,31
346,31
347,31
348,31
349,31
350,31
351,31
352,31
353,31
354,31
355,31
356,31
357,31
358,31
359,31
360,31
361,31
362,31
363,31
364,31
365,32
366,32
367,32
368,32
369,32
370,32
371,32
372,32
373,32
374,32
375,32
376,32
377,32
378,32
379,32
380,32
381,32
382,32
383,32
384,32
385,32
386,32
387,32
388,32
389,32
390,32
391,32
392,32
393,32
394,32
395,32
396,32
397,32
398,32
399,32
400,32
401,32
402,32
403,32
404,32
405,32
406,32
407,33
408,33
409,33
410,33
411,33
412,33
413,33
414,33
415,33
416,33
417,33
418,33
419,33
420,33
421,33
422,33
423,33
424,33
425,33
426,34
427,34
428,34
429,35
430,35
431,35
432,35
433,35
434,35
435,35
436,35
437,35
438,35
439,36
440,36
441,36
442,37
443,37
444,37
445,37
446,37
447,37
448,37
449,37
450,37
451,37
452,37
453,37
454,37
455,37
456,37
457,37
458,37
459,37
460,37
461,37
462,37
463,37
464,37
465,37
466,37
467,37
468,37
469,37
470,38
471,38
472,38
473,38
474,39
475,39
476,39
477,39
478,39
479,39
480,39
481,39
482,39
483,39
484,39
485,39
486,39
487,40
488,40
489,40
490,40
491,40
492,40
493,40
494,41
495,41
496,41
497,41
498,41
499,41
500,41
501,41
502,41
503,41
504,41
505,41
506,41
507,41
508,41
509,41
510,41
511,41
512,41
513,41
514,41
515,41
516,41
517,41
518,41
519,42
520,42
521,42
522,42
523,42
524,42
525,42
526,42
527,43
528,43
529,43
530,43
531,43
532,43
533,43
534,44
535,44
536,44
537,44
538,45
539,45
540,45
541,45
542,45
543,45
544,45
545,46
546,46
547,46
548,46
549,47
550,47
551,47
552,47
553,47
554,47
555,47
556,47
557,47
558,47
559,47
560,47
561,47
562,47
563,47
564,47
565,47
566,47
567,47
568,47
569,47
570,47
571,48
572,48
573,49
574,49
575,49
576,49
577,49
578,49
579,49
580,49
581,49
582,50
583,50
584,50
585,50
586,50
587,50
588,50
589,50
590,50
591,50
592,50
593,50
594,50
595,50
596,50
597,50
598,50
599,50
600,50
601,50
602,50
603,50
604,50
605,50
606,50
607,50
608,50
609,51
610,51
611,52
612,52
613,52
614,52
615,52
616,52
617,52
618,52
619,52
620,52
621,52
622,52
623,52
624,52
625,52
626,53
627,53
628,54
629,54
630,54
631,54
632,54
633,54
634,55
635,55
636,55
637,55
638,55
639,55
640,55
641,55
642,55
643,55
644,55
645,55
646,56
647,56
648,56
649,56
650,56
651,56
652,56
653,56
654,56
655,56
656,56
657,56
658,56
659,56
660,56
661,56
662,56
663,56
664,57
665,57
666,58
667,58
668,58
669,58
670,58
671,58
672,59
673,59
674,59
675,59
676,59
677,59
678,59
679,59
680,59
681,59
682,59
683,59
684,59
685,59
686,59
687,60
688,60
689,60
690,60
691,60
692,60
693,60
694,60
695,60
696,60
697,60
698,60
699,61
700,61
701,61
702,61
703,61
704,61
705,61
706,61
707,61
708,61
709,61
710,61
711,61
712,61
713,61
714,61
715,61
716,61
717,61
718,61
719,61
720,62
721,62
722,62
723,62
724,62
725,62
726,62
727,62
728,62
729,62
730,62
731,62
732,62
733,62
734,62
735,62
736,62
737,62
738,62
739,62
740,62
741,62
742,62
743,62
744,62
745,62
746,62
747,62
748,62
749,62
750,62
751,62
752,62
753,62
754,62
755,62
756,62
757,62
758,62
759,62
760,62
761,62
762,62
763,62
764,62
765,62
766,62
767,62
768,62
769,62
770,62
771,63
772,63
773,63
774,63
775,63
776,63
777,63
778,63
779,64
780,64
781,64
782,64
783,64
784,64
785,64
786,64
787,64
788,64
789,64
790,64
791,64
792,64
793,64
794,65
795,65
796,65
797,65
798,65
799,65
800,67
801,67
802,67
803,67
804,67
805,67
806,67
807,67
808,67
809,67
810,67
811,67
812,67
813,67
814,67
815,67
816,67
817,67
818,67
819,67
820,67
821,68
822,68
823,68
824,68
825,68
826,68
827,68
828,68
829,68
830,68
831,68
832,68
833,68
834,68
835,68
836,68
837,68
838,68
839,68
840,68
841,68
842,68
843,68
844,68
845,68
846,69
847,69
848,69
849,69
850,69
851,69
852,69
853,69
854,69
855,69
856,69
857,69
858,69
859,69
860,69
861,69
862,69
863,69
864,69
865,69
866,69
867,69
868,69
869,69
870,69
871,69
872,70
873,70
874,70
875,70
876,70
877,70
878,70
879,70
880,70
881,71
882,71
883,71
884,71
885,71
886,71
887,71
888,71
889,71
890,71
891,71
892,71
893,71
894,71
895,71
896,72
897,72
898,72
899,72
900,72
901,72
902,72
903,72
904,72
905,73
906,73
907,73
908,73
909,73
910,73
911,73
912,73
913,73
914,73
915,73
916,73
917,73
918,73
919,73
920,73
921,73
922,73
923,73
924,73
925,73
926,73
927,73
928,73
929,73
930,73
931,74
932,74
933,74
934,74
935,74
936,76
937,76
938,76
939,76
940,77
941,77
942,78
943,78
944,78
945,78
946,78
947,78
948,78
949,78
950,78
951,78
952,78
953,78
954,78
955,78
956,78
957,78
958,78
959,78
960,78
961,78
962,78
963,78
964,78
965,78
966,78
967,78
968,78
969,78
970,78
971,78
972,78
973,78
974,78
975,78
976,78
977,78
978,78
979,78
980,78
981,78
982,78
983,78
984,78
985,78
986,78
987,78
988,78
989,78
990,78
991,78
992,78
993,78
994,78
995,78
996,78
997,78
998,78
999,78
1000,78
1001,78
1002,78
1003,79
1004,79
1005,79
1006,79
1007,79
1008,79
1009,79
1010,79
1011,79
1012,79
1013,79
1014,79
1015,80
1016,80
1017,80
1018,80
1019,80
1020,80
1021,80
1022,80
1023,80
1024,80
1025,80
1026,80
1027,80
1028,80
1029,80
1030,80
1031,80
1032,81
1033,81
1034,81
1035,81
1036,81
1037,81
1038,81
1039,82
1040,82
1041,82
1042,82
1043,82
1044,82
1045,82
1046,82
1047,82
1048,82
1049,82
1050,83
1051,83
1052,83
1053,83
1054,85
1055,85
1056,85
1057,85
1058,85
1059,85
1060,85
1061,85
1062,85
1063,85
1064,85
1065,85
1066,85
1067,85
1068,85
1069,85
1070,85
1071,85
1072,85
1073,86
1074,86
1075,86
1076,86
1077,86
1078,86
1079,86
1080,86
1081,86
1082,86
1083,86
1084,86
1085,86
1086,86
1087,86
1088,86
1089,86
1090,87
1091,87
1092,87
1093,87
1094,87
1095,87
1096,87
1097,87
1098,87
1099,87
1100,87
1101,87
1102,88
1103,88
1104,88
1105,88
1106,88
1107,88
1108,88
1109,88
1110,88
1111,88
1112,88
1113,88
1114,88
1115,88
1116,88
1117,88
1118,88
1119,88
1120,88
1121,88
1122,88
1123,88
1124,88
1125,88
1126,88
1127,88
1128,88
1129,88
1130,88
1131,88
1132,88
1133,88
1134,88
1135,88
1136,88
1137,88
1138,88
1139,88
1140,88
1141,88
1142,88
1143,88
1144,88
1145,88
1146,88
1147,88
1148,88
1149,88
1150,88
1151,88
1152,88
1153,88
1154,88
1155,88
1156,88
1157,88
1158,88
1159,88
1160,88
1161,88
1162,88
1163,88
1164,88
1165,88
1166,88
1167,88
1168,88
1169,88
1170,88
1171,88
1172,89
1173,89
1174,90
1175,90
1176,90
1177,90
1178,90
1179,90
1180,90
1181,90
1182,90
1183,90
1184,90
1185,90
1186,90
1187,90
1188,90
1189,90
1190,90
1191,90
1192,90
1193,90
1194,90
1195,90
1196,90
1197,90
1198,90
1199,90
1200,91
1201,91
1202,91
1203,91
1204,91
1205,91
1206,91
1207,91
1208,91
1209,91
1210,91
1211,91
1212,91
1213,91
1214,91
1215,91
1216,91
1217,91
1218,91
1219,91
1220,91
1221,91
1222,91
1223,91
1224,91
1225,91
1226,91
1227,91
1228,91
1229,91
1230,91
1231,91
1232,91
1233,91
1234,91
1235,91
1236,91
1237,91
1238,91
1239,91
1240,91
1241,91
1242,91
1243,91
1244,91
1245,91
1246,91
1247,91
1248,91
1249,91
1250,91
1251,91
1252,91
1253,91
1254,91
1255,91
1256,91
1257,91
1258,91
1259,91
1260,91
1261,91
1262,91
1263,91
1264,91
1265,91
1266,91
1267,91
1268,91
1269,91
1270,91
1271,92
1272,92
1273,92
1274,92
1275,92
1276,92
1277,92
1278,92
1279,92
1280,92
1281,92
1282,92
1283,92
1284,92
1285,92
1286,92
1287,92
1288,92
1289,92
1290,92
1291,92
1292,92
1293,92
1294,92
1295,92
1296,92
1297,92
1298,93
1299,93
1300,94
1301,94
1302,94
1303,94
1304,94
1305,94
1306,94
1307,94
1308,95
1309,95
1310,95
1311,95
1312,95
1313,95
1314,95
1315,95
1316,95
1317,95
1318,95
1319,95
1320,95
1321,95
1322,95
1323,95
1324,95
1325,95
1326,97
1327,97
1328,97
1329,97
1330,98
1331,98
1332,98
1333,98
1334,98
1335,99
1336,99
1337,99
1338,99
1339,100
1340,100
1341,100
1342,100
1343,100
1344,100
1345,100
1346,100
1347,100
1348,100
1349,100
1350,100
1351,100
1352,100
1353,100
1354,100
1355,101
1356,101
1357,101
1358,101
1359,102
1360,102
1361,102
1362,102
1363,102
1364,102
1365,102
1366,102
1367,103
1368,103
1369,103
1370,104
1371,104
1372,104
1373,104
1374,104
1375,104
1376,104
1377,104
1378,104
1379,104
1380,104
1381,104
1382,104
1383,104
1384,104
1385,104
1386,104
1387,104
1388,104
1389,104
1390,104
1391,104
1392,104
1393,104
1394,104
1395,104
1396,104
1397,104
1398,104
1399,104
1400,104
1401,105
1402,105
1403,105
1404,105
1405,105
1406,105
1407,105
1408,105
1409,105
1410,105
1411,105
1412,105
1413,105
1414,105
1415,105
1416,105
1417,105
1418,105
1419,105
1420,105
1421,106
1422,106
1423,106
1424,106
1425,106
1426,106
1427,106
1428,106
1429,106
1430,106
1431,106
1432,106
1433,106
1434,106
1435,106
1436,106
1437,107
1438,107
1439,107
1440,107
1441,107
1442,107
1443,107
1444,107
1445,107
1446,107
1447,107
1448,107
1449,107
1450,107
1451,107
1452,107
1453,107
1454,108
1455,108
1456,108
1457,108
1458,108
1459,108
1460,108
1461,108
1462,108
1463,108
1464,108
1465,108
1466,108
1467,108
1468,108
1469,109
1470,109
1471,109
1472,109
1473,109
1474,110
1475,110
1476,110
1477,110
1478,110
1479,110
1480,110
1481,110
1482,111
1483,111
1484,111
1485,111
1486,111
1487,111
1488,111
1489,112
1490,113
1491,113
1492,113
1493,113
1494,113
1495,113
1496,113
1497,113
1498,113
1499,113
1500,113
1501,113
1502,113
1503,113
1504,113
1505,113
1506,113
1507,113
1508,113
1509,113
1510,113
1511,113
1512,113
1513,113
1514,113
1515,113
1516,113
1517,113
1518,113
1519,113
1520,113
1521,113
1522,113
1523,113
1524,113
1525,113
1526,113
1527,113
1528,113
1529,113
1530,113
1531,113
1532,113
1533,113
1534,113
1535,113
1536,113
1537,113
1538,113
1539,113
1540,113
1541,113
1542,113
1543,113
1544,113
1545,113
1546,113
1547,114
1548,114
1549,114
1550,114
1551,114
1552,114
1553,114
1554,114
1555,114
1556,114
1557,114
1558,114
1559,114
1560,114
1561,114
1562,114
1563,114
1564,114
1565,114
1566,114
1567,114
1568,114
1569,114
1570,114
1571,114
1572,114
1573,114
1574,114
1575,114
1576,114
1577,115
1578,115
1579,115
1580,115
1581,115
1582,115
1583,115
1584,115
1585,115
1586,115
1587,115
1588,115
1589,115
1590,115
1591,115
1592,115
1593,115
1594,115
1595,115
1596,115
1597,115
1598,115
1599,115
1600,115
1601,115
1602,115
1603,115
1604,115
1605,115
1606,115
1607,115
1608,116
1609,116
1610,116
1611,116
1612,116
1613,117
1614,117
1615,117
1616,117
1617,117
1618,117
1619,117
1620,117
1621,117
1622,118
1623,118
1624,119
1625,119
1626,119
1627,119
1628,119
1629,119
1630,119
1631,119
1632,119
1633,119
1634,119
1635,119
1636,119
1637,119
1638,119
1639,119
1640,119
1641,119
1642,119
1643,119
1644,119
1645,119
1646,119
1647,119
1648,119
1649,119
1650,119
1651,119
1652,119
1653,119
1654,119
1655,119
1656,119
1657,119
1658,119
1659,119
1660,119
1661,119
1662,119
1663,119
1664,119
1665,119
1666,119
1667,119
1668,119
1669,119
1670,119
1671,119
1672,119
1673,119
1674,119
1675,119
1676,119
1677,119
1678,119
1679,119
1680,119
1681,119
1682,119
1683,119
1684,119
1685,119
1686,119
1687,119
1688,119
1689,120
1690,120
1691,120
1692,120
1693,120
1694,120
1695,120
1696,120
1697,120
1698,120
1699,120
1700,120
1701,121
1702,121
1703,121
1704,121
1705,121
1706,121
1707,121
1708,121
1709,122
1710,122
1711,122
1712,122
1713,122
1714,122
1715,122
1716,122
1717,122
1718,122
1719,122
1720,122
1721,123
1722,123
1723,124
1724,124
1725,124
1726,124
1727,124
1728,124
1729,124
1730,124
1731,124
1732,124
1733,125
1734,125
1735,125
1736,125
1737,125
1738,125
1739,125
1740,125
1741,125
1742,125
1743,125
1744,125
1745,125
1746,125
1747,125
1748,125
1749,125
1750,125
1751,125
1752,125
1753,126
1754,127
1755,127
1756,127
1757,127
1758,127
1759,127
1760,127
1761,127
1762,127
1763,127
1764,127
1765,127
1766,127
1767,127
1768,127
1769,127
1770,127
1771,127
1772,127
1773,127
1774,127
1775,127
1776,127
1777,127
1778,127
1779,127
1780,127
1781,127
1782,127
1783,127
1784,127
1785,127
1786,127
1787,127
1788,127
1789,127
1790,127
1791,127
1792,127
1793,127
1794,127
1795,127
1796,127
1797,127
1798,127
1799,127
1800,127
1801,127
1802,127
1803,127
1804,128
1805,128
1806,128
1807,128
1808,128
1809,128
1810,128
1811,128
1812,128
1813,129
1814,129
1815,129
1816,129
1817,129
1818,129
1819,129
1820,129
1821,129
1822,129
1823,129
1824,129
1825,129
1826,129
1827,129
1828,129
1829,129
1830,129
1831,129
1832,129
1833,129
1834,129
1835,129
1836,129
1837,129
1838,129
1839,129
1840,129
1841,129
1842,129
1843,129
1844,129
1845,130
1846,130
1847,130
1848,130
1849,130
1850,130
1851,130
1852,130
1853,131
1854,131
1855,131
1856,131
1857,131
1858,131
1859,131
1860,131
1861,131
1862,131
1863,131
1864,131
1865,131
1866,131
1867,131
1868,131
1869,131
1870,131
1871,132
1872,132
1873,132
1874,132
1875,132
1876,132
1877,133
1878,133
1879,133
1880,133
1881,133
1882,133
1883,133
1884,133
1885,134
1886,134
1887,134
1888,134
1889,134
1890,134
1891,135
1892,135
1893,135
1894,135
1895,135
1896,135
1897,135
1898,135
1899,135
1900,135
1901,135
1902,135
1903,136
1904,136
1905,136
1906,136
1907,136
1908,136
1909,136
1910,136
1911,136
1912,136
1913,136
1914,136
1915,136
1916,136
1917,136
1918,136
1919,136
1920,136
1921,136
1922,136
1923,136
1924,136
1925,136
1926,136
1927,136
1928,136
1929,136
1930,136
1931,136
1932,137
1933,137
1934,137
1935,137
1936,137
1937,137
1938,137
1939,137
1940,137
1941,138
1942,138
1943,138
1944,138
1945,138
1946,138
1947,138
1948,138
1949,138
1950,138
1951,138
1952,138
1953,138
1954,138
1955,139
1956,139
1957,139
1958,139
1959,139
1960,140
1961,140
1962,140
1963,140
1964,140
1965,140
1966,140
1967,140
1968,140
1969,140
1970,140
1971,140
1972,140
1973,140
1974,140
1975,140
1976,141
1977,141
1978,141
1979,141
1980,141
1981,141
1982,141
1983,141
1984,141
1985,141
1986,141
1987,141
1988,141
1989,141
1990,141
1991,141
1992,141
1993,141
1994,141
1995,141
1996,141
1997,142
1998,142
1999,142
2000,143
