"tick","total"
0,0
1,0
2,0
3,0
4,0
5,0
6,0
7,0
8,0
9,0
10,0
11,0
12,0
13,0
14,0
15,0
16,0
17,0
18,0
19,0
20,0
21,0
22,0
23,0
24,0
25,0
26,0
27,0
28,0
29,0
30,0
31,0
32,0
33,0
34,0
35,0
36,0
37,0
38,0
39,0
40,0
41,0
42,0
43,0
44,0
45,0
46,0
47,0
48,0
49,0
50,0
51,0
52,0
53,0
54,0
55,0
56,0
57,0
58,0
59,0
60,0
61,0
62,0
63,0
64,0
65,0
66,0
67,0
68,0
69,0
70,0
71,0
72,0
73,0
74,0
75,0
76,0
77,0
78,0
79,0
80,0
81,0
82,0
83,0
84,0
85,0
86,0
87,0
88,0
89,0
90,0
91,0
92,0
93,0
94,0
95,0
96,0
97,0
98,0
99,0
100,0
101,0
102,0
103,0
104,0
105,0
106,0
107,0
108,0
109,0
110,0
111,0
112,0
113,0
114,0
115,0
116,0
117,0
118,0
119,0
120,0
121,0
122,0
123,0
124,0
125,0
126,0
127,0
128,0
129,0
130,0
131,0
132,0
133,0
134,0
135,0
136,0
137,0
138,0
139,0
140,0
141,0
142,0
143,0
144,0
145,0
146,0
147,1
148,1
149,1
150,1
151,2
152,2
153,2
154,2
155,2
156,2
157,2
158,2
159,2
160,5
161,5
162,5
163,5
164,5
165,5
166,5
167,5
168,5
169,5
170,5
171,5
172,5
173,5
174,5
175,5
176,6
177,6
178,6
179,7
180,7
181,7
182,7
183,7
184,7
185,7
186,7
187,7
188,7
189,7
190,8
191,9
192,11
193,11
194,11
195,11
196,11
197,12
198,12
199,12
200,12
201,12
202,12
203,12
204,12
205,13
206,13
207,13
208,13
209,13
210,13
211,13
212,13
213,13
214,13
215,14
216,14
217,14
218,16
219,16
220,17
221,17
222,18
223,19
224,19
225,20
226,20
227,20
228,20
229,20
230,20
231,20
232,21
233,22
234,23
235,23
236,23
237,23
238,24
239,24
240,24
241,24
242,24
243,24
244,24
245,24
246,24
247,24
248,24
249,24
250,24
251,24
252,24
253,24
254,24
255,24
256,24
257,24
258,24
259,24
260,24
261,24
262,24
263,24
264,25
265,26
266,26
267,26
268,26
269,26
270,26
271,26
272,26
273,27
274,27
275,27
276,27
277,27
278,27
279,28
280,28
281,28
282,28
283,28
284,28
285,28
286,28
287,28
288,28
289,28
290,28
291,28
292,28
293,28
294,28
295,28
296,28
297,29
298,29
299,29
300,29
301,29
302,29
303,29
304,29
305,29
306,29
307,29
308,29
309,29
310,29
311,29
312,29
313,29
314,29
315,30
316,30
317,30
318,30
319,30
320,30
321,30
322,30
323,30
324,30
325,30
326,30
327,30
328,30
329,30
330,30
331,30
332,30
333,30
334,30
335,30
336,30
337,30
338,30
339,30
340,30
341,30
342,30
343,30
344,30
345,30
346,30
347,30
348,30
349,30
350,30
351,30
352,30
353,30
354,30
355,30
356,30
357,30
358,30
359,30
360,30
361,30
362,30
363,30
364,30
365,30
366,30
367,30
368,30
369,30
370,30
371,30
372,30
373,30
374,30
375,30
376,30
377,30
378,31
379,31
380,31
381,31
382,31
383,31
384,31
385,31
386,31
387,31
388,31
389,31
390,31
391,31
392,31
393,31
394,31
395,31
396,31
397,31
398,31
399,31
400,31
401,31
402,31
403,31
404,31
405,31
406,31
407,31
408,31
409,31
410,31
411,31
412,31
413,31
414,31
415,31
416,31
417,31
418,31
419,31
420,31
421,31
422,31
423,31
424,31
425,32
426,32
427,33
428,33
429,33
430,33
431,33
432,33
433,33
434,33
435,33
436,33
437,33
438,33
439,33
440,33
441,33
442,33
443,33
444,33
445,33
446,34
447,34
448,34
449,34
450,34
451,34
452,34
453,34
454,34
455,34
456,34
457,34
458,34
459,34
460,34
461,34
462,34
463,34
464,34
465,34
466,35
467,35
468,36
469,36
470,36
471,36
472,36
473,36
474,36
475,36
476,36
477,37
478,37
479,37
480,37
481,37
482,37
483,37
484,37
485,37
486,37
487,37
488,37
489,37
490,37
491,37
492,37
493,37
494,37
495,37
496,37
497,37
498,37
499,37
500,37
501,37
502,37
503,37
504,37
505,37
506,37
507,37
508,37
509,37
510,38
511,38
512,38
513,38
514,38
515,39
516,39
517,39
518,39
519,39
520,39
521,39
522,39
523,39
524,39
525,39
526,39
527,39
528,39
529,39
530,39
531,39
532,40
533,40
534,41
535,41
536,41
537,42
538,42
539,42
540,42
541,42
542,42
543,42
544,42
545,42
546,42
547,42
548,43
549,43
550,43
551,43
552,43
553,43
554,43
555,43
556,43
557,43
558,43
559,43
560,43
561,43
562,44
563,44
564,44
565,44
566,44
567,44
568,44
569,45
570,45
571,45
572,45
573,45
574,45
575,46
576,46
577,46
578,46
579,46
580,46
581,46
582,46
583,46
584,46
585,46
586,47
587,47
588,47
589,47
590,47
591,47
592,47
593,47
594,47
595,47
596,48
597,48
598,48
599,48
600,48
601,48
602,48
603,48
604,48
605,48
606,49
607,49
608,49
609,50
610,50
611,51
612,51
613,51
614,51
615,51
616,51
617,51
618,51
619,51
620,51
621,51
622,51
623,52
624,52
625,52
626,52
627,52
628,52
629,52
630,52
631,52
632,52
633,52
634,52
635,52
636,52
637,52
638,52
639,52
640,52
641,52
642,52
643,52
644,52
645,53
646,53
647,53
648,53
649,53
650,53
651,53
652,53
653,53
654,53
655,53
656,53
657,53
658,53
659,53
660,53
661,53
662,53
663,53
664,53
665,53
666,53
667,53
668,53
669,53
670,53
671,53
672,53
673,53
674,53
675,53
676,53
677,53
678,53
679,53
680,53
681,53
682,53
683,53
684,53
685,53
686,53
687,53
688,53
689,53
690,53
691,54
692,54
693,54
694,54
695,54
696,54
697,54
698,54
699,54
700,54
701,54
702,54
703,54
704,54
705,55
706,55
707,55
708,55
709,55
710,55
711,55
712,55
713,56
714,56
715,56
716,56
717,57
718,57
719,58
720,58
721,58
722,58
723,58
724,58
725,58
726,58
727,58
728,58
729,58
730,58
731,58
732,58
733,59
734,59
735,59
736,59
737,59
738,59
739,59
740,59
741,59
742,59
743,59
744,59
745,59
746,59
747,59
748,59
749,59
750,59
751,59
752,59
753,59
754,59
755,59
756,59
757,59
758,59
759,59
760,59
761,59
762,59
763,61
764,61
765,61
766,61
767,61
768,61
769,61
770,61
771,61
772,61
773,61
774,61
775,61
776,61
777,61
778,61
779,61
780,61
781,61
782,61
783,61
784,61
785,61
786,61
787,61
788,61
789,61
790,61
791,61
792,61
793,61
794,61
795,61
796,61
797,61
798,61
799,61
800,61
801,62
802,62
803,62
804,62
805,62
806,62
807,62
808,62
809,62
810,62
811,62
812,62
813,62
814,62
815,63
816,63
817,63
818,63
819,63
820,63
821,63
822,64
823,64
824,64
825,64
826,64
827,64
828,64
829,64
830,64
831,64
832,64
833,64
834,64
835,64
836,64
837,64
838,64
839,64
840,64
841,64
842,64
843,64
844,64
845,64
846,64
847,64
848,64
849,64
850,64
851,64
852,64
853,64
854,64
855,64
856,64
857,64
858,64
859,64
860,64
861,64
862,64
863,64
864,64
865,64
866,64
867,64
868,65
869,65
870,66
871,66
872,66
873,66
874,66
875,66
876,66
877,66
878,66
879,66
880,66
881,66
882,66
883,66
884,66
885,66
886,66
887,66
888,66
889,66
890,66
891,66
892,66
893,66
894,66
895,66
896,66
897,66
898,66
899,66
900,66
901,66
902,66
903,66
904,66
905,66
906,66
907,66
908,66
909,66
910,66
911,66
912,66
913,66
914,66
915,66
916,66
917,66
918,66
919,66
920,66
921,66
922,66
923,67
924,67
925,67
926,67
927,67
928,67
929,67
930,67
931,67
932,67
933,67
934,67
935,67
936,67
937,68
938,68
939,69
940,69
941,69
942,69
943,69
944,69
945,70
946,70
947,70
948,70
949,70
950,70
951,70
952,72
953,72
954,72
955,73
956,73
957,73
958,73
959,73
960,73
961,73
962,73
963,73
964,73
965,73
966,73
967,73
968,73
969,73
970,73
971,73
972,73
973,73
974,75
975,75
976,75
977,75
978,75
979,75
980,75
981,75
982,75
983,75
984,75
985,75
986,75
987,75
988,75
989,75
990,75
991,75
992,75
993,75
994,75
995,75
996,75
997,75
998,75
999,75
1000,75
1001,75
1002,75
1003,75
1004,75
1005,75
1006,75
1007,75
1008,75
1009,75
1010,75
1011,75
1012,75
1013,75
1014,75
1015,76
1016,76
1017,77
1018,77
1019,77
1020,77
1021,77
1022,77
1023,77
1024,77
1025,78
1026,78
1027,78
1028,78
1029,78
1030,78
1031,78
1032,78
1033,78
1034,78
1035,78
1036,78
1037,78
1038,79
1039,79
1040,79
1041,79
1042,79
1043,80
1044,80
1045,80
1046,80
1047,80
1048,80
1049,80
1050,80
1051,80
1052,80
1053,80
1054,80
1055,80
1056,80
1057,80
1058,80
1059,81
1060,81
1061,81
1062,81
1063,81
1064,81
1065,81
1066,81
1067,82
1068,82
1069,82
1070,82
1071,82
1072,82
1073,82
1074,82
1075,82
1076,82
1077,82
1078,82
1079,82
1080,82
1081,82
1082,82
1083,82
1084,82
1085,82
1086,82
1087,82
1088,82
1089,82
1090,82
1091,82
1092,82
1093,82
1094,82
1095,82
1096,82
1097,82
1098,82
1099,83
1100,83
1101,83
1102,83
1103,83
1104,83
1105,83
1106,83
1107,83
1108,83
1109,83
1110,83
1111,83
1112,83
1113,83
1114,83
1115,83
1116,83
1117,83
1118,83
1119,84
1120,84
1121,84
1122,84
1123,84
1124,84
1125,84
1126,84
1127,84
1128,84
1129,84
1130,84
1131,84
1132,86
1133,88
1134,88
1135,88
1136,88
1137,88
1138,88
1139,88
1140,88
1141,88
1142,88
1143,88
1144,88
1145,88
1146,88
1147,88
1148,89
1149,89
1150,89
1151,89
1152,89
1153,89
1154,89
1155,90
1156,90
1157,90
1158,90
1159,90
1160,90
1161,90
1162,91
1163,91
1164,91
1165,91
1166,91
1167,91
1168,91
1169,91
1170,91
1171,91
1172,91
1173,91
1174,91
1175,91
1176,91
1177,91
1178,91
1179,91
1180,91
1181,91
1182,91
1183,91
1184,91
1185,91
1186,91
1187,91
1188,91
1189,91
1190,91
1191,91
1192,91
1193,91
1194,91
1195,91
1196,91
1197,91
1198,91
1199,91
1200,91
1201,91
1202,91
1203,91
1204,91
1205,91
1206,91
1207,91
1208,91
1209,91
1210,91
1211,91
1212,91
1213,91
1214,91
1215,91
1216,91
1217,91
1218,91
1219,91
1220,92
1221,92
1222,93
1223,93
1224,93
1225,93
1226,93
1227,93
1228,93
1229,93
1230,93
1231,93
1232,93
1233,93
1234,93
1235,93
1236,93
1237,93
1238,93
1239,93
1240,93
1241,93
1242,93
1243,93
1244,93
1245,93
1246,93
1247,93
1248,93
1249,93
1250,93
1251,93
1252,93
1253,93
1254,93
1255,93
1256,93
1257,93
1258,93
1259,93
1260,93
1261,93
1262,93
1263,93
1264,93
1265,93
1266,93
1267,93
1268,93
1269,93
1270,93
1271,93
1272,93
1273,93
1274,93
1275,93
1276,93
1277,93
1278,93
1279,93
1280,93
1281,93
1282,93
1283,93
1284,93
1285,93
1286,93
1287,93
1288,93
1289,93
1290,93
1291,93
1292,93
1293,93
1294,93
1295,93
1296,93
1297,93
1298,93
1299,93
1300,93
1301,93
1302,93
1303,93
1304,93
1305,93
1306,93
1307,93
1308,93
1309,93
1310,93
1311,93
1312,93
1313,93
1314,93
1315,93
1316,93
1317,93
1318,93
1319,93
1320,93
1321,93
1322,93
1323,93
1324,93
1325,93
1326,94
1327,94
1328,95
1329,95
1330,95
1331,95
1332,95
1333,95
1334,95
1335,95
1336,95
1337,95
1338,95
1339,95
1340,95
1341,95
1342,95
1343,95
1344,95
1345,95
1346,95
1347,95
1348,96
1349,96
1350,96
1351,96
1352,96
1353,96
1354,96
1355,96
1356,96
1357,96
1358,96
1359,96
1360,97
1361,97
1362,97
1363,97
1364,97
1365,97
1366,97
1367,97
1368,97
1369,97
1370,97
1371,97
1372,98
1373,98
1374,98
1375,98
1376,98
1377,98
1378,98
1379,98
1380,98
1381,98
1382,98
1383,98
1384,98
1385,98
1386,98
1387,98
1388,98
1389,98
1390,98
1391,98
1392,98
1393,98
1394,98
1395,98
1396,98
1397,98
1398,99
1399,99
1400,100
1401,100
1402,100
1403,100
1404,101
1405,101
1406,102
1407,102
1408,102
1409,102
1410,102
1411,102
1412,102
1413,102
1414,102
1415,102
1416,102
1417,102
1418,102
1419,103
1420,103
1421,103
1422,103
1423,103
1424,103
1425,103
1426,103
1427,103
1428,103
1429,103
1430,103
1431,103
1432,103
1433,103
1434,103
1435,103
1436,103
1437,103
1438,103
1439,103
1440,103
1441,103
1442,103
1443,103
1444,103
1445,103
1446,103
1447,103
1448,103
1449,103
1450,103
1451,104
1452,104
1453,105
1454,105
1455,105
1456,105
1457,105
1458,105
1459,106
1460,106
1461,106
1462,106
1463,107
1464,107
1465,107
1466,107
1467,107
1468,107
1469,107
1470,107
1471,107
1472,107
1473,107
1474,107
1475,107
1476,107
1477,107
1478,107
1479,108
1480,108
1481,108
1482,108
1483,108
1484,108
1485,108
1486,108
1487,108
1488,108
1489,108
1490,108
1491,108
1492,108
1493,108
1494,108
1495,108
1496,108
1497,108
1498,108
1499,108
1500,108
1501,108
1502,108
1503,108
1504,108
1505,108
1506,108
1507,108
1508,108
1509,108
1510,108
1511,108
1512,108
1513,108
1514,108
1515,108
1516,109
1517,109
1518,109
1519,109
1520,109
1521,109
1522,109
1523,109
1524,109
1525,109
1526,109
1527,109
1528,109
1529,109
1530,109
1531,109
1532,111
1533,111
1534,111
1535,111
1536,111
1537,111
1538,111
1539,111
1540,111
1541,111
1542,111
1543,111
1544,111
1545,111
1546,111
1547,111
1548,111
1549,111
1550,111
1551,111
1552,111
1553,111
1554,111
1555,112
1556,112
1557,112
1558,113
1559,113
1560,113
1561,113
1562,114
1563,114
1564,114
1565,114
1566,114
1567,114
1568,114
1569,114
1570,114
1571,115
1572,115
1573,115
1574,115
1575,115
1576,115
1577,116
1578,116
1579,116
1580,116
1581,116
1582,117
1583,118
1584,119
1585,119
1586,119
1587,119
1588,119
1589,119
1590,119
1591,119
1592,120
1593,120
1594,120
1595,120
1596,120
1597,120
1598,120
1599,120
1600,120
1601,120
1602,120
1603,120
1604,120
1605,120
1606,120
1607,120
1608,120
1609,120
1610,121
1611,121
1612,121
1613,121
1614,121
1615,121
1616,121
1617,121
1618,121
1619,121
1620,121
1621,121
1622,121
1623,121
1624,121
1625,121
1626,121
1627,121
1628,121
1629,121
1630,121
1631,121
1632,121
1633,121
1634,121
1635,121
1636,121
1637,121
1638,121
1639,121
1640,121
1641,121
1642,121
1643,121
1644,121
1645,121
1646,121
1647,121
1648,121
1649,121
1650,121
1651,121
1652,121
1653,121
1654,121
1655,121
1656,121
1657,121
1658,121
1659,121
1660,121
1661,121
1662,121
1663,121
1664,121
1665,121
1666,121
1667,121
1668,121
1669,121
1670,121
1671,121
1672,121
1673,121
1674,121
1675,122
1676,123
1677,123
1678,123
1679,123
1680,123
1681,123
1682,123
1683,123
1684,123
1685,123
1686,124
1687,124
1688,124
1689,124
1690,124
1691,124
1692,124
1693,124
1694,124
1695,124
1696,124
1697,124
1698,124
1699,124
1700,124
1701,124
1702,124
1703,125
1704,125
1705,125
1706,125
1707,125
1708,125
1709,125
1710,125
1711,125
1712,125
1713,125
1714,125
1715,125
1716,125
1717,125
1718,125
1719,125
1720,125
1721,125
1722,126
1723,126
1724,126
1725,126
1726,126
1727,126
1728,126
1729,126
1730,126
1731,126
1732,126
1733,126
1734,126
1735,126
1736,126
1737,126
1738,126
1739,126
1740,126
1741,127
1742,127
1743,127
1744,127
1745,127
1746,127
1747,127
1748,127
1749,127
1750,127
1751,127
1752,127
1753,127
1754,127
1755,127
1756,127
1757,127
1758,127
1759,127
1760,127
1761,127
1762,127
1763,127
1764,128
1765,128
1766,128
1767,128
1768,128
1769,128
1770,128
1771,128
1772,129
1773,129
1774,129
1775,129
1776,129
1777,129
1778,129
1779,129
1780,131
1781,131
1782,131
1783,131
1784,131
1785,131
1786,131
1787,131
1788,131
1789,131
1790,131
1791,131
1792,131
1793,131
1794,131
1795,131
1796,131
1797,131
1798,131
1799,131
1800,131
1801,131
1802,131
1803,131
1804,131
1805,131
1806,131
1807,131
1808,131
1809,131
1810,131
1811,131
1812,131
1813,131
1814,131
1815,131
1816,131
1817,131
1818,131
1819,131
1820,131
1821,131
1822,131
1823,131
1824,131
1825,131
1826,131
1827,131
1828,131
1829,131
1830,131
1831,132
1832,132
1833,132
1834,132
1835,132
1836,132
1837,132
1838,132
1839,132
1840,132
1841,132
1842,132
1843,132
1844,132
1845,132
1846,132
1847,132
1848,132
1849,132
1850,132
1851,132
1852,132
1853,132
1854,132
1855,132
1856,132
1857,132
1858,132
1859,132
1860,132
1861,132
1862,132
1863,132
1864,132
1865,132
1866,132
1867,132
1868,132
1869,133
1870,134
1871,134
1872,134
1873,134
1874,134
1875,134
1876,134
1877,134
1878,134
1879,134
1880,134
1881,134
1882,134
1883,134
1884,134
1885,134
1886,134
1887,134
1888,134
1889,134
1890,134
1891,134
1892,134
1893,134
1894,134
1895,134
1896,134
1897,134
1898,134
1899,134
1900,134
1901,134
1902,134
1903,134
1904,134
1905,134
1906,134
1907,134
1908,134
1909,134
1910,134
1911,135
1912,135
1913,135
1914,135
1915,135
1916,135
1917,135
1918,135
1919,135
1920,135
1921,135
1922,135
1923,135
1924,135
1925,135
1926,135
1927,135
1928,135
1929,135
1930,135
1931,135
1932,135
1933,135
1934,135
1935,135
1936,135
1937,135
1938,135
1939,135
1940,135
1941,135
1942,135
1943,135
1944,135
1945,135
1946,135
1947,135
1948,135
1949,135
1950,135
1951,135
1952,135
1953,135
1954,135
1955,135
1956,135
1957,135
1958,135
1959,135
1960,135
1961,135
1962,135
1963,135
1964,135
1965,135
1966,135
1967,135
1968,135
1969,135
1970,135
1971,135
1972,135
1973,135
1974,135
1975,135
1976,135
1977,135
1978,135
1979,135
1980,135
1981,135
1982,135
1983,135
1984,135
1985,135
1986,136
1987,136
1988,136
1989,136
1990,136
1991,136
1992,136
1993,136
1994,136
1995,136
1996,136
1997,136
1998,136
1999,136
2000,136
