"tick","total"
0,0
1,0
2,0
3,0
4,0
5,0
6,0
7,0
8,0
9,0
10,0
11,0
12,0
13,0
14,0
15,0
16,0
17,0
18,0
19,0
20,0
21,0
22,0
23,0
24,0
25,0
26,0
27,0
28,0
29,0
30,0
31,0
32,0
33,0
34,0
35,0
36,0
37,0
38,0
39,0
40,0
41,0
42,0
43,0
44,0
45,0
46,0
47,0
48,0
49,0
50,0
51,0
52,0
53,0
54,0
55,0
56,0
57,0
58,0
59,0
60,0
61,0
62,0
63,0
64,0
65,0
66,0
67,0
68,0
69,0
70,0
71,0
72,0
73,0
74,0
75,0
76,0
77,0
78,0
79,0
80,0
81,0
82,0
83,0
84,0
85,0
86,0
87,0
88,0
89,0
90,0
91,0
92,0
93,0
94,0
95,0
96,0
97,0
98,0
99,0
100,0
101,0
102,0
103,0
104,0
105,0
106,0
107,0
108,0
109,0
110,0
111,0
112,0
113,0
114,0
115,0
116,0
117,0
118,0
119,0
120,0
121,0
122,0
123,0
124,0
125,0
126,0
127,0
128,0
129,0
130,0
131,0
132,0
133,0
134,0
135,0
136,0
137,0
138,0
139,0
140,0
141,0
142,0
143,0
144,0
145,0
146,0
147,0
148,0
149,0
150,0
151,0
152,0
153,0
154,0
155,0
156,0
157,0
158,0
159,0
160,0
161,0
162,0
163,0
164,0
165,0
166,0
167,0
168,0
169,0
170,0
171,0
172,0
173,0
174,0
175,0
176,0
177,0
178,0
179,0
180,0
181,0
182,0
183,0
184,0
185,0
186,0
187,0
188,0
189,0
190,0
191,0
192,0
193,0
194,0
195,0
196,0
197,0
198,0
199,0
200,0
201,0
202,0
203,0
204,0
205,0
206,0
207,0
208,0
209,0
210,0
211,0
212,0
213,0
214,0
215,0
216,0
217,0
218,0
219,0
220,0
221,0
222,0
223,0
224,0
225,0
226,0
227,0
228,0
229,0
230,0
231,2
232,2
233,2
234,2
235,2
236,3
237,3
238,4
239,4
240,4
241,4
242,4
243,4
244,4
245,5
246,5
247,6
248,6
249,6
250,6
251,6
252,6
253,6
254,6
255,6
256,6
257,6
258,7
259,7
260,8
261,8
262,8
263,8
264,8
265,8
266,8
267,8
268,8
269,8
270,8
271,8
272,8
273,8
274,8
275,8
276,8
277,8
278,9
279,9
280,9
281,9
282,9
283,9
284,9
285,9
286,9
287,9
288,9
289,10
290,10
291,11
292,12
293,12
294,12
295,12
296,12
297,12
298,12
299,12
300,12
301,13
302,13
303,13
304,13
305,14
306,14
307,15
308,16
309,16
310,16
311,16
312,16
313,17
314,17
315,17
316,17
317,17
318,17
319,17
320,17
321,17
322,17
323,17
324,17
325,17
326,17
327,17
328,17
329,18
330,18
331,18
332,18
333,18
334,18
335,18
336,19
337,19
338,20
339,20
340,20
341,20
342,21
343,22
344,22
345,22
346,22
347,22
348,23
349,23
350,23
351,23
352,23
353,24
354,24
355,24
356,24
357,24
358,25
359,25
360,25
361,25
362,25
363,25
364,25
365,25
366,25
367,25
368,25
369,25
370,25
371,25
372,25
373,25
374,25
375,25
376,25
377,25
378,25
379,25
380,25
381,25
382,25
383,25
384,25
385,26
386,26
387,26
388,26
389,26
390,26
391,26
392,26
393,26
394,26
395,26
396,26
397,26
398,26
399,26
400,26
401,26
402,26
403,26
404,26
405,26
406,26
407,26
408,26
409,26
410,26
411,26
412,26
413,26
414,26
415,27
416,27
417,27
418,27
419,27
420,27
421,27
422,28
423,28
424,28
425,28
426,28
427,28
428,28
429,28
430,28
431,28
432,28
433,28
434,28
435,28
436,28
437,28
438,28
439,28
440,28
441,28
442,28
443,28
444,28
445,28
446,28
447,28
448,28
449,28
450,28
451,28
452,28
453,28
454,28
455,28
456,28
457,28
458,28
459,28
460,28
461,28
462,28
463,29
464,29
465,29
466,29
467,29
468,29
469,29
470,29
471,29
472,29
473,29
474,30
475,30
476,30
477,30
478,30
479,30
480,30
481,30
482,30
483,30
484,30
485,30
486,30
487,30
488,30
489,30
490,30
491,30
492,30
493,30
494,31
495,31
496,31
497,31
498,31
499,31
500,31
501,31
502,32
503,32
504,32
505,33
506,33
507,33
508,33
509,33
510,33
511,34
512,34
513,34
514,34
515,34
516,34
517,34
518,34
519,34
520,34
521,34
522,34
523,34
524,34
525,34
526,34
527,34
528,34
529,34
530,34
531,34
532,35
533,35
534,35
535,35
536,35
537,35
538,35
539,35
540,35
541,35
542,35
543,35
544,35
545,35
546,35
547,35
548,35
549,36
550,36
551,36
552,36
553,37
554,37
555,37
556,37
557,37
558,37
559,37
560,37
561,37
562,37
563,37
564,37
565,37
566,37
567,38
568,38
569,38
570,38
571,38
572,38
573,38
574,38
575,38
576,38
577,38
578,38
579,38
580,38
581,38
582,38
583,39
584,39
585,39
586,39
587,39
588,39
589,40
590,40
591,40
592,40
593,40
594,40
595,40
596,40
597,40
598,40
599,40
600,40
601,40
602,40
603,40
604,40
605,40
606,41
607,41
608,41
609,41
610,41
611,41
612,41
613,41
614,41
615,41
616,41
617,41
618,41
619,41
620,41
621,41
622,41
623,41
624,41
625,41
626,41
627,41
628,41
629,41
630,41
631,41
632,41
633,41
634,41
635,41
636,41
637,41
638,41
639,41
640,42
641,42
642,42
643,42
644,42
645,42
646,42
647,42
648,42
649,42
650,42
651,42
652,42
653,42
654,42
655,42
656,42
657,42
658,43
659,43
660,43
661,43
662,43
663,43
664,43
665,43
666,43
667,44
668,44
669,44
670,44
671,44
672,44
673,44
674,44
675,44
676,44
677,44
678,44
679,44
680,44
681,44
682,44
683,44
684,44
685,44
686,44
687,44
688,44
689,44
690,44
691,44
692,44
693,44
694,44
695,45
696,45
697,45
698,45
699,45
700,45
701,45
702,45
703,45
704,45
705,45
706,45
707,45
708,45
709,46
710,46
711,46
712,46
713,46
714,46
715,47
716,47
717,47
718,47
719,47
720,47
721,47
722,47
723,47
724,47
725,47
726,47
727,48
728,48
729,48
730,48
731,48
732,48
733,48
734,48
735,48
736,49
737,49
738,49
739,49
740,49
741,49
742,49
743,49
744,49
745,49
746,49
747,49
748,49
749,49
750,49
751,49
752,49
753,49
754,49
755,49
756,49
757,49
758,49
759,49
760,49
761,49
762,49
763,49
764,49
765,49
766,49
767,49
768,49
769,49
770,49
771,49
772,49
773,49
774,49
775,49
776,49
777,49
778,49
779,49
780,49
781,49
782,49
783,49
784,49
785,49
786,49
787,49
788,49
789,49
790,49
791,49
792,49
793,49
794,49
795,49
796,49
797,49
798,49
799,49
800,49
801,49
802,49
803,49
804,49
805,49
806,49
807,49
808,49
809,49
810,49
811,49
812,49
813,49
814,49
815,49
816,49
817,49
818,49
819,49
820,49
821,49
822,49
823,49
824,49
825,49
826,49
827,49
828,49
829,49
830,49
831,49
832,49
833,49
834,49
835,49
836,49
837,49
838,49
839,49
840,49
841,49
842,49
843,49
844,49
845,49
846,49
847,49
848,49
849,49
850,49
851,50
852,51
853,51
854,52
855,52
856,52
857,52
858,52
859,52
860,52
861,52
862,53
863,54
864,54
865,54
866,54
867,54
868,54
869,54
870,54
871,54
872,54
873,54
874,54
875,54
876,54
877,54
878,54
879,54
880,54
881,54
882,54
883,54
884,54
885,54
886,54
887,55
888,55
889,55
890,55
891,55
892,55
893,55
894,55
895,55
896,56
897,56
898,56
899,56
900,56
901,56
902,56
903,56
904,56
905,56
906,56
907,56
908,56
909,56
910,56
911,56
912,57
913,57
914,57
915,57
916,57
917,57
918,57
919,57
920,57
921,57
922,57
923,58
924,58
925,58
926,58
927,58
928,58
929,58
930,58
931,58
932,58
933,58
934,58
935,59
936,59
937,59
938,59
939,59
940,59
941,59
942,59
943,59
944,59
945,59
946,59
947,59
948,59
949,59
950,59
951,59
952,59
953,59
954,59
955,59
956,59
957,59
958,59
959,59
960,59
961,59
962,59
963,59
964,59
965,59
966,59
967,59
968,59
969,60
970,60
971,60
972,60
973,60
974,60
975,60
976,60
977,60
978,60
979,60
980,60
981,60
982,60
983,60
984,60
985,60
986,60
987,60
988,60
989,60
990,60
991,60
992,60
993,60
994,60
995,60
996,60
997,60
998,60
999,60
1000,60
1001,60
1002,60
1003,60
1004,60
1005,60
1006,60
1007,60
1008,60
1009,60
1010,60
1011,60
1012,60
1013,60
1014,60
1015,60
1016,60
1017,60
1018,60
1019,60
1020,60
1021,60
1022,60
1023,60
1024,60
1025,60
1026,60
1027,60
1028,60
1029,60
1030,60
1031,60
1032,60
1033,60
1034,60
1035,60
1036,60
1037,60
1038,60
1039,60
1040,60
1041,60
1042,60
1043,60
1044,60
1045,60
1046,60
1047,60
1048,60
1049,60
1050,60
1051,60
1052,60
1053,60
1054,60
1055,60
1056,60
1057,60
1058,60
1059,60
1060,60
1061,61
1062,61
1063,61
1064,61
1065,61
1066,61
1067,61
1068,61
1069,62
1070,62
1071,62
1072,62
1073,62
1074,62
1075,62
1076,62
1077,62
1078,62
1079,62
1080,62
1081,62
1082,62
1083,62
1084,62
1085,62
1086,62
1087,62
1088,62
1089,62
1090,62
1091,63
1092,63
1093,63
1094,63
1095,63
1096,63
1097,63
1098,63
1099,63
1100,63
1101,63
1102,63
1103,63
1104,63
1105,63
1106,63
1107,63
1108,63
1109,63
1110,63
1111,63
1112,63
1113,63
1114,63
1115,63
1116,63
1117,63
1118,63
1119,63
1120,63
1121,63
1122,63
1123,63
1124,64
1125,64
1126,64
1127,64
1128,64
1129,64
1130,64
1131,64
1132,64
1133,64
1134,64
1135,64
1136,64
1137,64
1138,64
1139,64
1140,64
1141,64
1142,64
1143,64
1144,64
1145,64
1146,64
1147,64
1148,64
1149,64
1150,64
1151,64
1152,64
1153,64
1154,64
1155,64
1156,64
1157,64
1158,64
1159,64
1160,64
1161,64
1162,64
1163,64
1164,64
1165,65
1166,65
1167,65
1168,65
1169,65
1170,65
1171,65
1172,65
1173,65
1174,65
1175,65
1176,65
1177,65
1178,65
1179,65
1180,65
1181,65
1182,65
1183,65
1184,66
1185,66
1186,66
1187,66
1188,66
1189,66
1190,66
1191,66
1192,66
1193,66
1194,66
1195,66
1196,66
1197,66
1198,66
1199,66
1200,66
1201,66
1202,66
1203,66
1204,66
1205,66
1206,66
1207,66
1208,66
1209,66
1210,66
1211,66
1212,66
1213,66
1214,66
1215,66
1216,67
1217,67
1218,67
1219,67
1220,67
1221,68
1222,68
1223,68
1224,68
1225,68
1226,68
1227,68
1228,68
1229,68
1230,68
1231,68
1232,68
1233,69
1234,69
1235,69
1236,69
1237,69
1238,69
1239,69
1240,69
1241,69
1242,69
1243,69
1244,69
1245,69
1246,69
1247,69
1248,69
1249,69
1250,69
1251,69
1252,69
1253,69
1254,69
1255,69
1256,69
1257,69
1258,69
1259,69
1260,69
1261,69
1262,69
1263,70
1264,70
1265,71
1266,71
1267,71
1268,71
1269,71
1270,71
1271,71
1272,71
1273,71
1274,71
1275,71
1276,71
1277,71
1278,71
1279,71
1280,71
1281,71
1282,71
1283,71
1284,71
1285,71
1286,71
1287,71
1288,71
1289,71
1290,71
1291,71
1292,71
1293,71
1294,71
1295,71
1296,71
1297,71
1298,71
1299,71
1300,72
1301,72
1302,73
1303,73
1304,74
1305,74
1306,75
1307,75
1308,75
1309,75
1310,75
1311,75
1312,75
1313,75
1314,75
1315,75
1316,75
1317,75
1318,75
1319,75
1320,75
1321,75
1322,75
1323,75
1324,76
1325,76
1326,76
1327,76
1328,76
1329,76
1330,76
1331,76
1332,76
1333,76
1334,76
1335,76
1336,78
1337,79
1338,79
1339,80
1340,80
1341,80
1342,80
1343,80
1344,81
1345,81
1346,81
1347,82
1348,82
1349,82
1350,82
1351,82
1352,82
1353,82
1354,82
1355,82
1356,82
1357,82
1358,82
1359,82
1360,82
1361,82
1362,82
1363,82
1364,82
1365,82
1366,82
1367,82
1368,82
1369,82
1370,82
1371,82
1372,82
1373,82
1374,82
1375,82
1376,82
1377,82
1378,82
1379,82
1380,82
1381,82
1382,82
1383,82
1384,82
1385,82
1386,82
1387,82
1388,82
1389,82
1390,82
1391,82
1392,82
1393,82
1394,82
1395,82
1396,82
1397,83
1398,83
1399,83
1400,83
1401,83
1402,83
1403,83
1404,83
1405,83
1406,83
1407,83
1408,83
1409,84
1410,84
1411,84
1412,84
1413,84
1414,84
1415,84
1416,84
1417,84
1418,85
1419,85
1420,85
1421,85
1422,85
1423,85
1424,85
1425,85
1426,85
1427,85
1428,85
1429,85
1430,85
1431,85
1432,85
1433,85
1434,85
1435,85
1436,85
1437,85
1438,85
1439,85
1440,85
1441,85
1442,85
1443,85
1444,85
1445,85
1446,85
1447,85
1448,85
1449,85
1450,85
1451,85
1452,85
1453,85
1454,85
1455,85
1456,85
1457,85
1458,85
1459,85
1460,86
1461,86
1462,86
1463,86
1464,86
1465,86
1466,86
1467,86
1468,86
1469,86
1470,86
1471,86
1472,86
1473,86
1474,86
1475,86
1476,86
1477,86
1478,86
1479,86
1480,86
1481,86
1482,86
1483,86
1484,86
1485,86
1486,86
1487,86
1488,86
1489,86
1490,86
1491,86
1492,86
1493,86
1494,86
1495,86
1496,86
1497,86
1498,86
1499,86
1500,86
1501,86
1502,87
1503,87
1504,87
1505,87
1506,87
1507,87
1508,87
1509,87
1510,87
1511,87
1512,87
1513,87
1514,87
1515,87
1516,87
1517,87
1518,87
1519,87
1520,87
1521,87
1522,87
1523,88
1524,88
1525,88
1526,88
1527,88
1528,88
1529,88
1530,88
1531,88
1532,88
1533,88
1534,88
1535,88
1536,88
1537,88
1538,88
1539,88
1540,88
1541,88
1542,88
1543,88
1544,88
1545,88
1546,88
1547,88
1548,89
1549,89
1550,89
1551,89
1552,89
1553,89
1554,90
1555,90
1556,90
1557,90
1558,90
1559,90
1560,90
1561,90
1562,90
1563,90
1564,90
1565,90
1566,90
1567,90
1568,90
1569,90
1570,90
1571,90
1572,90
1573,90
1574,90
1575,90
1576,90
1577,90
1578,90
1579,90
1580,90
1581,90
1582,90
1583,90
1584,90
1585,90
1586,90
1587,90
1588,90
1589,90
1590,90
1591,90
1592,90
1593,91
1594,91
1595,91
1596,91
1597,91
1598,91
1599,91
1600,91
1601,91
1602,91
1603,91
1604,91
1605,91
1606,91
1607,91
1608,91
1609,91
1610,91
1611,91
1612,91
1613,91
1614,91
1615,91
1616,91
1617,91
1618,91
1619,91
1620,91
1621,91
1622,91
1623,91
1624,91
1625,91
1626,92
1627,93
1628,93
1629,93
1630,93
1631,93
1632,93
1633,93
1634,93
1635,93
1636,93
1637,94
1638,94
1639,94
1640,94
1641,94
1642,94
1643,94
1644,94
1645,94
1646,94
1647,94
1648,94
1649,94
1650,94
1651,94
1652,94
1653,94
1654,94
1655,94
1656,94
1657,94
1658,94
1659,94
1660,94
1661,94
1662,94
1663,94
1664,94
1665,94
1666,94
1667,94
1668,94
1669,94
1670,94
1671,94
1672,94
1673,94
1674,94
1675,94
1676,94
1677,94
1678,95
1679,95
1680,95
1681,95
1682,95
1683,95
1684,96
1685,96
1686,96
1687,96
1688,96
1689,97
1690,97
1691,97
1692,97
1693,97
1694,97
1695,97
1696,97
1697,97
1698,97
1699,97
1700,97
1701,97
1702,97
1703,97
1704,97
1705,97
1706,97
1707,98
1708,98
1709,98
1710,98
1711,98
1712,98
1713,99
1714,99
1715,99
1716,99
1717,99
1718,99
1719,99
1720,99
1721,99
1722,99
1723,99
1724,99
1725,99
1726,99
1727,99
1728,99
1729,99
1730,99
1731,99
1732,99
1733,99
1734,99
1735,99
1736,99
1737,99
1738,99
1739,99
1740,99
1741,99
1742,100
1743,100
1744,100
1745,100
1746,100
1747,100
1748,100
1749,100
1750,100
1751,100
1752,100
1753,100
1754,100
1755,100
1756,100
1757,100
1758,100
1759,100
1760,100
1761,100
1762,100
1763,100
1764,100
1765,100
1766,100
1767,100
1768,100
1769,100
1770,100
1771,100
1772,100
1773,100
1774,100
1775,100
1776,100
1777,100
1778,100
1779,100
1780,100
1781,100
1782,100
1783,100
1784,100
1785,100
1786,100
1787,100
1788,100
1789,100
1790,100
1791,100
1792,100
1793,100
1794,100
1795,100
1796,100
1797,100
1798,100
1799,101
1800,101
1801,101
1802,101
1803,101
1804,101
1805,101
1806,101
1807,101
1808,101
1809,101
1810,101
1811,101
1812,101
1813,101
1814,101
1815,101
1816,101
1817,101
1818,102
1819,102
1820,102
1821,102
1822,102
1823,102
1824,102
1825,102
1826,102
1827,102
1828,102
1829,102
1830,102
1831,102
1832,102
1833,103
1834,103
1835,103
1836,104
1837,104
1838,104
1839,104
1840,104
1841,104
1842,105
1843,105
1844,105
1845,105
1846,105
1847,105
1848,105
1849,105
1850,105
1851,105
1852,105
1853,105
1854,106
1855,106
1856,106
1857,106
1858,106
1859,106
1860,106
1861,106
1862,106
1863,106
1864,106
1865,106
1866,106
1867,106
1868,106
1869,106
1870,106
1871,106
1872,106
1873,106
1874,106
1875,106
1876,106
1877,106
1878,106
1879,106
1880,107
1881,107
1882,107
1883,107
1884,107
1885,107
1886,107
1887,107
1888,107
1889,107
1890,107
1891,107
1892,107
1893,107
1894,107
1895,107
1896,107
1897,107
1898,107
1899,107
1900,107
1901,107
1902,107
1903,107
1904,107
1905,107
1906,107
1907,108
1908,108
1909,108
1910,108
1911,108
1912,108
1913,108
1914,108
1915,108
1916,108
1917,108
1918,109
1919,109
1920,109
1921,109
1922,109
1923,109
1924,109
1925,109
1926,109
1927,109
1928,109
1929,109
1930,109
1931,109
1932,110
1933,110
1934,110
1935,110
1936,110
1937,110
1938,110
1939,110
1940,110
1941,110
1942,110
1943,110
1944,110
1945,110
1946,110
1947,110
1948,111
1949,111
1950,111
1951,111
1952,111
1953,111
1954,111
1955,111
1956,111
1957,111
1958,111
1959,111
1960,111
1961,111
1962,111
1963,111
1964,111
1965,111
1966,111
1967,111
1968,111
1969,111
1970,111
1971,111
1972,111
1973,111
1974,111
1975,111
1976,111
1977,111
1978,111
1979,111
1980,111
1981,111
1982,111
1983,111
1984,111
1985,111
1986,111
1987,111
1988,111
1989,111
1990,112
1991,112
1992,112
1993,112
1994,112
1995,112
1996,112
1997,112
1998,112
1999,112
2000,112
