"tick","total"
0,0
1,0
2,0
3,0
4,0
5,0
6,0
7,0
8,0
9,0
10,0
11,0
12,0
13,0
14,0
15,0
16,0
17,0
18,0
19,0
20,0
21,0
22,0
23,0
24,0
25,0
26,0
27,0
28,0
29,0
30,0
31,0
32,0
33,0
34,0
35,0
36,0
37,0
38,0
39,0
40,0
41,0
42,0
43,0
44,0
45,0
46,0
47,0
48,0
49,0
50,0
51,0
52,0
53,0
54,0
55,0
56,0
57,0
58,0
59,0
60,0
61,0
62,0
63,0
64,0
65,0
66,0
67,0
68,0
69,0
70,0
71,0
72,0
73,0
74,0
75,0
76,0
77,0
78,0
79,0
80,0
81,0
82,0
83,0
84,0
85,0
86,0
87,0
88,0
89,0
90,0
91,0
92,0
93,0
94,0
95,0
96,0
97,0
98,0
99,0
100,0
101,0
102,0
103,0
104,0
105,0
106,0
107,0
108,0
109,0
110,0
111,0
112,0
113,0
114,0
115,0
116,0
117,0
118,0
119,0
120,0
121,0
122,0
123,0
124,0
125,0
126,0
127,0
128,0
129,0
130,0
131,0
132,0
133,0
134,0
135,0
136,0
137,0
138,0
139,0
140,0
141,0
142,0
143,0
144,0
145,0
146,0
147,0
148,0
149,0
150,0
151,0
152,0
153,0
154,0
155,0
156,0
157,0
158,0
159,0
160,0
161,0
162,0
163,0
164,0
165,0
166,0
167,0
168,0
169,0
170,0
171,0
172,0
173,0
174,0
175,0
176,0
177,0
178,0
179,0
180,0
181,0
182,0
183,0
184,0
185,0
186,0
187,0
188,0
189,0
190,0
191,0
192,0
193,0
194,0
195,0
196,0
197,0
198,0
199,0
200,0
201,0
202,0
203,0
204,0
205,0
206,0
207,0
208,0
209,0
210,0
211,0
212,0
213,0
214,0
215,0
216,0
217,0
218,0
219,0
220,0
221,0
222,0
223,0
224,0
225,0
226,0
227,0
228,0
229,0
230,0
231,1
232,1
233,1
234,1
235,1
236,2
237,2
238,2
239,2
240,2
241,3
242,3
243,3
244,3
245,3
246,3
247,3
248,3
249,3
250,3
251,3
252,3
253,3
254,3
255,3
256,3
257,3
258,3
259,3
260,3
261,4
262,4
263,4
264,4
265,4
266,4
267,4
268,4
269,4
270,4
271,4
272,4
273,4
274,5
275,5
276,5
277,5
278,5
279,5
280,6
281,6
282,6
283,6
284,6
285,6
286,6
287,6
288,6
289,6
290,6
291,6
292,6
293,6
294,6
295,7
296,7
297,8
298,8
299,8
300,8
301,8
302,8
303,8
304,8
305,8
306,8
307,8
308,8
309,8
310,8
311,8
312,8
313,8
314,8
315,8
316,11
317,11
318,11
319,12
320,12
321,12
322,12
323,12
324,12
325,12
326,12
327,12
328,12
329,12
330,12
331,12
332,12
333,12
334,12
335,13
336,13
337,14
338,14
339,14
340,14
341,15
342,15
343,17
344,17
345,17
346,18
347,18
348,18
349,18
350,18
351,18
352,18
353,18
354,18
355,18
356,18
357,19
358,20
359,20
360,20
361,21
362,22
363,22
364,22
365,22
366,22
367,22
368,22
369,23
370,23
371,23
372,23
373,23
374,23
375,23
376,23
377,23
378,23
379,23
380,23
381,23
382,23
383,24
384,24
385,24
386,24
387,24
388,25
389,27
390,27
391,27
392,27
393,27
394,27
395,27
396,27
397,27
398,27
399,27
400,27
401,27
402,27
403,28
404,28
405,28
406,28
407,28
408,28
409,28
410,28
411,28
412,28
413,28
414,28
415,28
416,28
417,28
418,28
419,28
420,28
421,28
422,28
423,28
424,28
425,28
426,28
427,28
428,28
429,28
430,28
431,28
432,28
433,28
434,28
435,28
436,28
437,28
438,28
439,28
440,28
441,28
442,28
443,28
444,28
445,28
446,28
447,28
448,28
449,28
450,28
451,28
452,28
453,28
454,28
455,28
456,28
457,28
458,28
459,28
460,28
461,28
462,28
463,28
464,28
465,28
466,28
467,28
468,28
469,28
470,28
471,28
472,28
473,28
474,28
475,28
476,28
477,28
478,28
479,28
480,28
481,28
482,29
483,29
484,29
485,29
486,29
487,29
488,29
489,29
490,29
491,29
492,29
493,29
494,29
495,29
496,29
497,29
498,29
499,30
500,30
501,30
502,30
503,30
504,30
505,30
506,30
507,30
508,30
509,30
510,30
511,30
512,30
513,30
514,30
515,30
516,30
517,30
518,30
519,30
520,30
521,30
522,30
523,30
524,30
525,30
526,30
527,30
528,30
529,30
530,30
531,30
532,30
533,30
534,30
535,30
536,30
537,30
538,30
539,30
540,30
541,30
542,30
543,30
544,30
545,30
546,30
547,30
548,30
549,30
550,30
551,30
552,30
553,30
554,30
555,30
556,30
557,30
558,30
559,30
560,30
561,30
562,30
563,30
564,30
565,30
566,30
567,30
568,30
569,30
570,30
571,30
572,30
573,30
574,30
575,30
576,30
577,30
578,30
579,30
580,30
581,30
582,30
583,30
584,30
585,30
586,30
587,30
588,30
589,30
590,30
591,30
592,30
593,30
594,30
595,30
596,30
597,30
598,30
599,30
600,30
601,30
602,30
603,30
604,30
605,30
606,30
607,30
608,30
609,30
610,30
611,30
612,30
613,30
614,30
615,30
616,30
617,30
618,30
619,30
620,30
621,30
622,30
623,30
624,30
625,30
626,30
627,30
628,30
629,30
630,31
631,31
632,31
633,31
634,31
635,31
636,31
637,31
638,31
639,31
640,31
641,31
642,31
643,31
644,31
645,31
646,31
647,31
648,31
649,31
650,32
651,32
652,32
653,32
654,32
655,32
656,32
657,32
658,32
659,32
660,32
661,32
662,32
663,32
664,32
665,32
666,32
667,32
668,32
669,32
670,32
671,32
672,32
673,32
674,32
675,32
676,32
677,33
678,34
679,34
680,34
681,34
682,34
683,34
684,34
685,34
686,35
687,35
688,36
689,36
690,37
691,37
692,37
693,37
694,37
695,37
696,37
697,37
698,37
699,37
700,37
701,37
702,37
703,37
704,37
705,37
706,37
707,37
708,37
709,37
710,37
711,38
712,38
713,38
714,38
715,38
716,38
717,38
718,38
719,38
720,38
721,38
722,38
723,38
724,38
725,38
726,38
727,38
728,38
729,38
730,38
731,38
732,38
733,38
734,38
735,38
736,38
737,38
738,38
739,38
740,38
741,38
742,38
743,38
744,38
745,38
746,38
747,38
748,38
749,38
750,38
751,38
752,38
753,38
754,38
755,39
756,39
757,40
758,40
759,40
760,40
761,40
762,40
763,40
764,40
765,40
766,40
767,40
768,40
769,40
770,40
771,40
772,41
773,41
774,41
775,41
776,41
777,41
778,41
779,41
780,41
781,41
782,42
783,42
784,42
785,42
786,42
787,42
788,42
789,42
790,42
791,42
792,42
793,42
794,42
795,42
796,42
797,42
798,42
799,42
800,42
801,42
802,42
803,42
804,42
805,42
806,42
807,42
808,42
809,42
810,43
811,43
812,43
813,43
814,43
815,43
816,43
817,43
818,43
819,43
820,43
821,43
822,43
823,43
824,43
825,43
826,43
827,43
828,43
829,43
830,43
831,43
832,43
833,43
834,43
835,43
836,43
837,44
838,44
839,44
840,44
841,44
842,44
843,44
844,44
845,44
846,44
847,44
848,45
849,45
850,45
851,45
852,45
853,45
854,45
855,45
856,45
857,45
858,45
859,45
860,45
861,45
862,45
863,45
864,45
865,45
866,45
867,45
868,45
869,45
870,45
871,45
872,45
873,45
874,45
875,45
876,45
877,45
878,45
879,45
880,45
881,45
882,45
883,45
884,45
885,45
886,45
887,45
888,45
889,46
890,46
891,46
892,46
893,46
894,46
895,46
896,46
897,46
898,46
899,46
900,46
901,46
902,46
903,46
904,46
905,46
906,46
907,46
908,46
909,46
910,46
911,46
912,46
913,46
914,46
915,46
916,46
917,46
918,46
919,46
920,46
921,46
922,46
923,46
924,46
925,46
926,46
927,47
928,47
929,47
930,47
931,47
932,47
933,47
934,47
935,47
936,47
937,47
938,47
939,47
940,47
941,47
942,47
943,47
944,47
945,47
946,47
947,47
948,47
949,47
950,47
951,47
952,47
953,47
954,47
955,47
956,47
957,47
958,47
959,47
960,47
961,47
962,47
963,47
964,47
965,47
966,47
967,47
968,47
969,47
970,47
971,47
972,47
973,47
974,47
975,47
976,47
977,47
978,47
979,48
980,48
981,48
982,48
983,48
984,48
985,48
986,48
987,48
988,48
989,48
990,48
991,48
992,48
993,48
994,48
995,48
996,48
997,48
998,48
999,48
1000,48
1001,48
1002,48
1003,48
1004,48
1005,48
1006,48
1007,48
1008,48
1009,49
1010,49
1011,49
1012,49
1013,49
1014,49
1015,49
1016,49
1017,49
1018,49
1019,49
1020,50
1021,50
1022,50
1023,50
1024,51
1025,51
1026,52
1027,52
1028,52
1029,52
1030,52
1031,52
1032,52
1033,52
1034,53
1035,53
1036,53
1037,53
1038,53
1039,53
1040,53
1041,53
1042,53
1043,53
1044,53
1045,53
1046,53
1047,53
1048,53
1049,53
1050,53
1051,54
1052,54
1053,54
1054,54
1055,54
1056,54
1057,54
1058,54
1059,54
1060,54
1061,54
1062,54
1063,54
1064,54
1065,54
1066,54
1067,54
1068,54
1069,55
1070,55
1071,55
1072,55
1073,55
1074,55
1075,55
1076,55
1077,55
1078,55
1079,55
1080,55
1081,55
1082,55
1083,55
1084,55
1085,55
1086,55
1087,55
1088,55
1089,55
1090,55
1091,55
1092,55
1093,55
1094,55
1095,55
1096,56
1097,56
1098,56
1099,56
1100,57
1101,57
1102,57
1103,58
1104,58
1105,58
1106,58
1107,58
1108,58
1109,58
1110,58
1111,58
1112,58
1113,58
1114,58
1115,58
1116,58
1117,58
1118,58
1119,58
1120,58
1121,58
1122,58
1123,58
1124,59
1125,59
1126,59
1127,59
1128,59
1129,59
1130,59
1131,59
1132,59
1133,59
1134,59
1135,59
1136,59
1137,60
1138,60
1139,60
1140,60
1141,60
1142,60
1143,60
1144,60
1145,60
1146,60
1147,60
1148,60
1149,60
1150,60
1151,60
1152,60
1153,60
1154,60
1155,60
1156,60
1157,60
1158,60
1159,60
1160,60
1161,60
1162,60
1163,60
1164,60
1165,60
1166,60
1167,60
1168,60
1169,60
1170,60
1171,60
1172,60
1173,60
1174,60
1175,60
1176,60
1177,60
1178,60
1179,60
1180,60
1181,60
1182,60
1183,60
1184,60
1185,60
1186,60
1187,60
1188,60
1189,60
1190,60
1191,60
1192,60
1193,60
1194,60
1195,60
1196,60
1197,60
1198,60
1199,60
1200,60
1201,60
1202,60
1203,60
1204,60
1205,60
1206,60
1207,60
1208,60
1209,60
1210,60
1211,60
1212,60
1213,60
1214,60
1215,60
1216,60
1217,60
1218,60
1219,60
1220,60
1221,60
1222,60
1223,60
1224,60
1225,60
1226,60
1227,60
1228,60
1229,60
1230,60
1231,60
1232,60
1233,60
1234,60
1235,60
1236,60
1237,60
1238,60
1239,60
1240,60
1241,60
1242,60
1243,60
1244,60
1245,60
1246,60
1247,60
1248,60
1249,60
1250,60
1251,60
1252,60
1253,60
1254,60
1255,60
1256,60
1257,61
1258,61
1259,61
1260,62
1261,62
1262,62
1263,62
1264,62
1265,62
1266,62
1267,62
1268,62
1269,62
1270,62
1271,62
1272,62
1273,62
1274,62
1275,62
1276,62
1277,62
1278,62
1279,62
1280,62
1281,62
1282,62
1283,62
1284,62
1285,63
1286,63
1287,63
1288,63
1289,63
1290,64
1291,64
1292,64
1293,64
1294,64
1295,65
1296,65
1297,65
1298,65
1299,65
1300,65
1301,65
1302,65
1303,65
1304,65
1305,65
1306,65
1307,65
1308,65
1309,66
1310,66
1311,66
1312,66
1313,66
1314,66
1315,66
1316,66
1317,66
1318,66
1319,66
1320,66
1321,66
1322,66
1323,66
1324,66
1325,66
1326,66
1327,66
1328,66
1329,66
1330,66
1331,66
1332,66
1333,66
1334,66
1335,66
1336,66
1337,66
1338,66
1339,66
1340,66
1341,66
1342,66
1343,66
1344,66
1345,66
1346,66
1347,66
1348,66
1349,66
1350,66
1351,66
1352,66
1353,66
1354,66
1355,66
1356,66
1357,66
1358,66
1359,66
1360,66
1361,66
1362,66
1363,66
1364,66
1365,66
1366,66
1367,66
1368,66
1369,66
1370,66
1371,66
1372,66
1373,66
1374,66
1375,66
1376,66
1377,66
1378,66
1379,66
1380,66
1381,66
1382,66
1383,67
1384,67
1385,67
1386,67
1387,68
1388,68
1389,68
1390,68
1391,68
1392,68
1393,68
1394,68
1395,68
1396,68
1397,68
1398,68
1399,68
1400,68
1401,68
1402,68
1403,68
1404,68
1405,68
1406,69
1407,70
1408,70
1409,70
1410,70
1411,71
1412,71
1413,71
1414,71
1415,71
1416,72
1417,72
1418,72
1419,72
1420,72
1421,72
1422,72
1423,72
1424,72
1425,72
1426,72
1427,72
1428,72
1429,72
1430,72
1431,72
1432,72
1433,73
1434,73
1435,73
1436,73
1437,73
1438,73
1439,73
1440,73
1441,73
1442,73
1443,73
1444,73
1445,73
1446,73
1447,75
1448,75
1449,75
1450,75
1451,75
1452,76
1453,76
1454,76
1455,76
1456,76
1457,76
1458,76
1459,76
1460,76
1461,76
1462,76
1463,77
1464,77
1465,77
1466,77
1467,77
1468,77
1469,77
1470,77
1471,77
1472,77
1473,77
1474,77
1475,77
1476,78
1477,78
1478,78
1479,78
1480,78
1481,78
1482,78
1483,78
1484,78
1485,78
1486,78
1487,78
1488,78
1489,78
1490,78
1491,79
1492,79
1493,79
1494,79
1495,79
1496,79
1497,79
1498,80
1499,80
1500,80
1501,80
1502,80
1503,80
1504,80
1505,80
1506,80
1507,80
1508,80
1509,82
1510,83
1511,84
1512,85
1513,86
1514,87
1515,88
1516,89
1517,89
1518,89
1519,89
1520,89
1521,89
1522,89
1523,89
1524,89
1525,89
1526,89
1527,90
1528,90
1529,90
1530,90
1531,90
1532,90
1533,90
1534,90
1535,90
1536,90
1537,90
1538,90
1539,90
1540,90
1541,90
1542,90
1543,90
1544,90
1545,90
1546,90
1547,90
1548,90
1549,90
1550,90
1551,90
1552,90
1553,90
1554,90
1555,90
1556,90
1557,90
1558,90
1559,90
1560,90
1561,90
1562,90
1563,90
1564,90
1565,90
1566,90
1567,90
1568,90
1569,90
1570,90
1571,90
1572,90
1573,90
1574,90
1575,90
1576,90
1577,90
1578,90
1579,90
1580,90
1581,90
1582,90
1583,90
1584,90
1585,90
1586,90
1587,90
1588,90
1589,90
1590,90
1591,90
1592,90
1593,90
1594,90
1595,90
1596,90
1597,90
1598,90
1599,90
1600,90
1601,90
1602,90
1603,90
1604,90
1605,90
1606,90
1607,90
1608,90
1609,90
1610,90
1611,90
1612,90
1613,90
1614,90
1615,90
1616,90
1617,90
1618,90
1619,90
1620,90
1621,90
1622,90
1623,90
1624,90
1625,90
1626,90
1627,90
1628,90
1629,90
1630,90
1631,90
1632,90
1633,90
1634,90
1635,90
1636,90
1637,90
1638,90
1639,90
1640,90
1641,90
1642,90
1643,90
1644,90
1645,90
1646,90
1647,90
1648,90
1649,90
1650,90
1651,90
1652,90
1653,90
1654,90
1655,90
1656,90
1657,90
1658,90
1659,90
1660,90
1661,90
1662,90
1663,90
1664,90
1665,90
1666,90
1667,90
1668,90
1669,90
1670,90
1671,90
1672,90
1673,90
1674,90
1675,90
1676,90
1677,90
1678,91
1679,92
1680,92
1681,92
1682,92
1683,92
1684,92
1685,92
1686,92
1687,92
1688,92
1689,92
1690,92
1691,92
1692,92
1693,92
1694,92
1695,92
1696,92
1697,92
1698,92
1699,92
1700,92
1701,92
1702,92
1703,92
1704,92
1705,92
1706,92
1707,92
1708,92
1709,92
1710,92
1711,92
1712,92
1713,92
1714,92
1715,92
1716,92
1717,92
1718,92
1719,92
1720,92
1721,92
1722,92
1723,92
1724,92
1725,92
1726,92
1727,92
1728,92
1729,92
1730,92
1731,92
1732,92
1733,92
1734,92
1735,92
1736,92
1737,92
1738,92
1739,92
1740,92
1741,92
1742,92
1743,92
1744,92
1745,92
1746,92
1747,92
1748,92
1749,92
1750,92
1751,92
1752,92
1753,92
1754,92
1755,92
1756,92
1757,92
1758,92
1759,92
1760,92
1761,92
1762,92
1763,92
1764,92
1765,92
1766,92
1767,92
1768,92
1769,92
1770,92
1771,92
1772,92
1773,92
1774,92
1775,92
1776,92
1777,92
1778,92
1779,92
1780,92
1781,92
1782,92
1783,92
1784,92
1785,92
1786,92
1787,92
1788,92
1789,92
1790,92
1791,92
1792,92
1793,92
1794,92
1795,92
1796,92
1797,92
1798,92
1799,92
1800,92
1801,93
1802,95
1803,95
1804,95
1805,95
1806,95
1807,95
1808,95
1809,95
1810,95
1811,95
1812,95
1813,95
1814,95
1815,95
1816,95
1817,95
1818,95
1819,95
1820,96
1821,96
1822,97
1823,97
1824,97
1825,97
1826,97
1827,97
1828,97
1829,97
1830,97
1831,97
1832,97
1833,97
1834,97
1835,97
1836,97
1837,97
1838,97
1839,97
1840,97
1841,97
1842,97
1843,97
1844,97
1845,97
1846,97
1847,97
1848,97
1849,97
1850,97
1851,97
1852,97
1853,97
1854,97
1855,97
1856,97
1857,98
1858,98
1859,98
1860,98
1861,99
1862,99
1863,99
1864,99
1865,99
1866,99
1867,99
1868,99
1869,99
1870,99
1871,99
1872,99
1873,99
1874,99
1875,99
1876,99
1877,99
1878,99
1879,99
1880,99
1881,99
1882,99
1883,99
1884,99
1885,99
1886,99
1887,100
1888,100
1889,100
1890,100
1891,100
1892,100
1893,100
1894,100
1895,100
1896,101
1897,101
1898,101
1899,101
1900,101
1901,101
1902,101
1903,101
1904,101
1905,101
1906,101
1907,101
1908,101
1909,101
1910,101
1911,101
1912,101
1913,101
1914,101
1915,101
1916,101
1917,101
1918,101
1919,101
1920,101
1921,101
1922,101
1923,102
1924,102
1925,102
1926,103
1927,103
1928,103
1929,103
1930,103
1931,103
1932,103
1933,103
1934,103
1935,103
1936,104
1937,104
1938,104
1939,104
1940,104
1941,104
1942,104
1943,104
1944,104
1945,104
1946,104
1947,104
1948,104
1949,104
1950,104
1951,104
1952,104
1953,104
1954,104
1955,104
1956,104
1957,104
1958,104
1959,105
1960,105
1961,105
1962,105
1963,105
1964,105
1965,105
1966,106
1967,106
1968,106
1969,106
1970,106
1971,106
1972,106
1973,106
1974,106
1975,107
1976,108
1977,108
1978,108
1979,108
1980,108
1981,108
1982,108
1983,108
1984,108
1985,108
1986,108
1987,108
1988,108
1989,108
1990,108
1991,108
1992,108
1993,109
1994,109
1995,109
1996,109
1997,109
1998,109
1999,110
2000,111
