"tick","susceptible","exposed","infectious","recovered"
0,99,1,0,0
1,99,1,0,0
2,99,1,0,0
3,99,1,0,0
4,99,1,0,0
5,99,1,0,0
6,99,1,0,0
7,99,1,0,0
8,99,1,0,0
9,99,1,0,0
10,99,1,0,0
11,99,1,0,0
12,99,1,0,0
13,99,1,0,0
14,99,1,0,0
15,99,1,0,0
16,99,1,0,0
17,99,1,0,0
18,99,1,0,0
19,99,1,0,0
20,99,1,0,0
21,99,1,0,0
22,99,1,0,0
23,99,1,0,0
24,99,1,0,0
25,99,1,0,0
26,99,1,0,0
27,99,1,0,0
28,99,1,0,0
29,99,1,0,0
30,99,1,0,0
31,99,1,0,0
32,99,1,0,0
33,99,1,0,0
34,99,1,0,0
35,99,1,0,0
36,99,1,0,0
37,99,1,0,0
38,99,1,0,0
39,99,1,0,0
40,99,1,0,0
41,99,1,0,0
42,99,1,0,0
43,99,1,0,0
44,99,1,0,0
45,99,1,0,0
46,99,1,0,0
47,99,1,0,0
48,99,1,0,0
49,99,1,0,0
50,99,1,0,0
51,99,1,0,0
52,99,1,0,0
53,99,1,0,0
54,99,1,0,0
55,99,1,0,0
56,99,1,0,0
57,99,1,0,0
58,99,1,0,0
59,99,1,0,0
60,99,1,0,0
61,99,1,0,0
62,99,1,0,0
63,99,1,0,0
64,99,1,0,0
65,99,1,0,0
66,99,1,0,0
67,99,1,0,0
68,99,1,0,0
69,99,1,0,0
70,99,1,0,0
71,99,1,0,0
72,99,1,0,0
73,99,1,0,0
74,99,1,0,0
75,99,1,0,0
76,99,1,0,0
77,99,1,0,0
78,99,1,0,0
79,99,1,0,0
80,99,1,0,0
81,99,1,0,0
82,99,1,0,0
83,99,1,0,0
84,99,1,0,0
85,99,1,0,0
86,99,1,0,0
87,99,1,0,0
88,99,1,0,0
89,99,1,0,0
90,99,1,0,0
91,99,1,0,0
92,99,1,0,0
93,99,1,0,0
94,99,1,0,0
95,99,1,0,0
96,99,1,0,0
97,99,1,0,0
98,99,1,0,0
99,99,1,0,0
100,99,1,0,0
101,99,1,0,0
102,99,1,0,0
103,99,1,0,0
104,99,1,0,0
105,99,1,0,0
106,99,1,0,0
107,99,1,0,0
108,99,1,0,0
109,99,1,0,0
110,99,1,0,0
111,99,1,0,0
112,99,1,0,0
113,99,1,0,0
114,99,1,0,0
115,99,1,0,0
116,99,1,0,0
117,99,1,0,0
118,99,1,0,0
119,99,1,0,0
120,99,1,0,0
121,99,1,0,0
122,99,1,0,0
123,99,1,0,0
124,99,1,0,0
125,99,1,0,0
126,99,1,0,0
127,99,1,0,0
128,99,1,0,0
129,99,1,0,0
130,99,1,0,0
131,99,1,0,0
132,99,1,0,0
133,99,1,0,0
134,99,1,0,0
135,99,1,0,0
136,99,1,0,0
137,99,1,0,0
138,99,1,0,0
139,99,1,0,0
140,99,1,0,0
141,99,1,0,0
142,99,1,0,0
143,99,1,0,0
144,99,1,0,0
145,99,1,0,0
146,99,1,0,0
147,99,1,0,0
148,99,1,0,0
149,99,1,0,0
150,99,1,0,0
151,99,1,0,0
152,99,1,0,0
153,99,1,0,0
154,99,1,0,0
155,99,1,0,0
156,99,1,0,0
157,99,1,0,0
158,99,1,0,0
159,99,1,0,0
160,99,1,0,0
161,99,1,0,0
162,99,1,0,0
163,99,1,0,0
164,99,1,0,0
165,99,1,0,0
166,99,1,0,0
167,99,1,0,0
168,99,1,0,0
169,99,1,0,0
170,99,1,0,0
171,99,1,0,0
172,99,1,0,0
173,99,1,0,0
174,99,1,0,0
175,99,1,0,0
176,99,1,0,0
177,99,1,0,0
178,99,1,0,0
179,99,1,0,0
180,99,1,0,0
181,99,1,0,0
182,99,1,0,0
183,99,1,0,0
184,99,1,0,0
185,99,1,0,0
186,99,1,0,0
187,99,1,0,0
188,99,1,0,0
189,99,1,0,0
190,99,1,0,0
191,99,1,0,0
192,99,1,0,0
193,99,1,0,0
194,99,1,0,0
195,99,1,0,0
196,99,1,0,0
197,99,1,0,0
198,99,1,0,0
199,99,1,0,0
200,99,1,0,0
201,99,0,1,0
202,99,0,1,0
203,99,0,1,0
204,99,0,1,0
205,99,0,1,0
206,99,0,1,0
207,99,0,1,0
208,99,0,1,0
209,99,0,1,0
210,99,0,1,0
211,99,0,1,0
212,99,0,1,0
213,99,0,1,0
214,99,0,1,0
215,99,0,1,0
216,99,0,1,0
217,99,0,1,0
218,99,0,1,0
219,99,0,1,0
220,99,0,1,0
221,99,0,1,0
222,99,0,1,0
223,99,0,1,0
224,99,0,1,0
225,99,0,1,0
226,99,0,1,0
227,99,0,1,0
228,99,0,1,0
229,99,0,1,0
230,99,0,1,0
231,99,0,1,0
232,99,0,1,0
233,99,0,1,0
234,99,0,1,0
235,99,0,1,0
236,99,0,1,0
237,99,0,1,0
238,99,0,1,0
239,99,0,1,0
240,99,0,1,0
241,99,0,1,0
242,99,0,1,0
243,99,0,1,0
244,99,0,1,0
245,99,0,1,0
246,99,0,1,0
247,99,0,1,0
248,98,1,1,0
249,98,1,1,0
250,98,1,1,0
251,98,1,1,0
252,98,1,1,0
253,98,1,1,0
254,97,2,1,0
255,97,2,1,0
256,97,2,1,0
257,97,2,1,0
258,97,2,1,0
259,97,2,1,0
260,97,2,1,0
261,97,2,1,0
262,97,2,1,0
263,97,2,1,0
264,97,2,1,0
265,97,2,1,0
266,97,2,1,0
267,97,2,1,0
268,97,2,1,0
269,97,2,1,0
270,97,2,1,0
271,97,2,1,0
272,97,2,1,0
273,97,2,1,0
274,97,2,1,0
275,97,2,1,0
276,97,2,1,0
277,97,2,1,0
278,97,2,1,0
279,97,2,1,0
280,97,2,1,0
281,97,2,1,0
282,97,2,1,0
283,97,2,1,0
284,97,2,1,0
285,97,2,1,0
286,97,2,1,0
287,97,2,1,0
288,97,2,1,0
289,97,2,1,0
290,97,2,1,0
291,97,2,1,0
292,97,2,1,0
293,97,2,1,0
294,97,2,1,0
295,97,2,1,0
296,97,2,1,0
297,97,2,1,0
298,97,2,1,0
299,97,2,1,0
300,97,2,1,0
301,97,2,1,0
302,97,2,1,0
303,97,2,1,0
304,97,2,1,0
305,97,2,1,0
306,97,2,1,0
307,97,2,1,0
308,97,2,1,0
309,97,2,1,0
310,97,2,1,0
311,97,2,1,0
312,97,2,1,0
313,97,2,1,0
314,97,2,1,0
315,97,2,1,0
316,97,2,1,0
317,97,2,1,0
318,97,2,1,0
319,97,2,1,0
320,97,2,1,0
321,97,2,1,0
322,97,2,1,0
323,97,2,1,0
324,97,2,1,0
325,97,2,1,0
326,97,2,1,0
327,97,2,1,0
328,97,2,1,0
329,97,2,1,0
330,97,2,1,0
331,97,2,1,0
332,97,2,1,0
333,97,2,1,0
334,97,2,1,0
335,97,2,1,0
336,97,2,1,0
337,97,2,1,0
338,97,2,1,0
339,97,2,1,0
340,97,2,1,0
341,97,2,1,0
342,97,2,1,0
343,97,2,1,0
344,97,2,1,0
345,97,2,1,0
346,97,2,1,0
347,97,2,1,0
348,97,2,1,0
349,97,2,1,0
350,97,2,1,0
351,97,2,1,0
352,97,2,1,0
353,97,2,1,0
354,97,2,1,0
355,97,2,1,0
356,97,2,1,0
357,97,2,1,0
358,97,2,1,0
359,97,2,1,0
360,97,2,1,0
361,97,2,1,0
362,97,2,1,0
363,97,2,1,0
364,97,2,1,0
365,97,2,1,0
366,97,2,1,0
367,97,2,1,0
368,97,2,1,0
369,97,2,1,0
370,97,2,1,0
371,97,2,1,0
372,97,2,1,0
373,97,2,1,0
374,97,2,1,0
375,97,2,1,0
376,97,2,1,0
377,97,2,1,0
378,97,2,1,0
379,97,2,1,0
380,97,2,1,0
381,97,2,1,0
382,97,2,1,0
383,97,2,1,0
384,97,2,1,0
385,97,2,1,0
386,97,2,1,0
387,97,2,1,0
388,97,2,1,0
389,97,2,1,0
390,97,2,1,0
391,97,2,1,0
392,97,2,1,0
393,97,2,1,0
394,97,2,1,0
395,97,2,1,0
396,97,2,1,0
397,97,2,1,0
398,97,2,1,0
399,97,2,1,0
400,97,2,1,0
401,97,2,1,0
402,97,2,0,1
403,97,2,0,1
404,97,2,0,1
405,97,2,0,1
406,97,2,0,1
407,97,2,0,1
408,97,2,0,1
409,97,2,0,1
410,97,2,0,1
411,97,2,0,1
412,97,2,0,1
413,97,2,0,1
414,97,2,0,1
415,97,2,0,1
416,97,2,0,1
417,97,2,0,1
418,97,2,0,1
419,97,2,0,1
420,97,2,0,1
421,97,2,0,1
422,97,2,0,1
423,97,2,0,1
424,97,2,0,1
425,97,2,0,1
426,97,2,0,1
427,97,2,0,1
428,97,2,0,1
429,97,2,0,1
430,97,2,0,1
431,97,2,0,1
432,97,2,0,1
433,97,2,0,1
434,97,2,0,1
435,97,2,0,1
436,97,2,0,1
437,97,2,0,1
438,97,2,0,1
439,97,2,0,1
440,97,2,0,1
441,97,2,0,1
442,97,2,0,1
443,97,2,0,1
444,97,2,0,1
445,97,2,0,1
446,97,2,0,1
447,97,2,0,1
448,97,2,0,1
449,97,1,1,1
450,97,1,1,1
451,97,1,1,1
452,97,1,1,1
453,97,1,1,1
454,97,1,1,1
455,97,0,2,1
456,97,0,2,1
457,97,0,2,1
458,97,0,2,1
459,97,0,2,1
460,97,0,2,1
461,97,0,2,1
462,97,0,2,1
463,97,0,2,1
464,97,0,2,1
465,97,0,2,1
466,97,0,2,1
467,97,0,2,1
468,97,0,2,1
469,97,0,2,1
470,97,0,2,1
471,97,0,2,1
472,97,0,2,1
473,97,0,2,1
474,97,0,2,1
475,97,0,2,1
476,97,0,2,1
477,97,0,2,1
478,97,0,2,1
479,97,0,2,1
480,97,0,2,1
481,97,0,2,1
482,97,0,2,1
483,97,0,2,1
484,97,0,2,1
485,97,0,2,1
486,97,0,2,1
487,97,0,2,1
488,97,0,2,1
489,97,0,2,1
490,97,0,2,1
491,97,0,2,1
492,97,0,2,1
493,97,0,2,1
494,97,0,2,1
495,97,0,2,1
496,97,0,2,1
497,97,0,2,1
498,97,0,2,1
499,97,0,2,1
500,97,0,2,1
501,97,0,2,1
502,97,0,2,1
503,97,0,2,1
504,97,0,2,1
505,97,0,2,1
506,97,0,2,1
507,97,0,2,1
508,97,0,2,1
509,97,0,2,1
510,97,0,2,1
511,97,0,2,1
512,97,0,2,1
513,97,0,2,1
514,97,0,2,1
515,97,0,2,1
516,97,0,2,1
517,97,0,2,1
518,97,0,2,1
519,97,0,2,1
520,97,0,2,1
521,97,0,2,1
522,97,0,2,1
523,97,0,2,1
524,97,0,2,1
525,97,0,2,1
526,97,0,2,1
527,97,0,2,1
528,97,0,2,1
529,97,0,2,1
530,97,0,2,1
531,97,0,2,1
532,97,0,2,1
533,97,0,2,1
534,97,0,2,1
535,96,1,2,1
536,96,1,2,1
537,96,1,2,1
538,96,1,2,1
539,96,1,2,1
540,96,1,2,1
541,96,1,2,1
542,96,1,2,1
543,96,1,2,1
544,95,2,2,1
545,95,2,2,1
546,95,2,2,1
547,95,2,2,1
548,95,2,2,1
549,95,2,2,1
550,95,2,2,1
551,95,2,2,1
552,95,2,2,1
553,95,2,2,1
554,95,2,2,1
555,95,2,2,1
556,95,2,2,1
557,95,2,2,1
558,95,2,2,1
559,95,2,2,1
560,95,2,2,1
561,95,2,2,1
562,95,2,2,1
563,95,2,2,1
564,95,2,2,1
565,95,2,2,1
566,95,2,2,1
567,95,2,2,1
568,95,2,2,1
569,95,2,2,1
570,95,2,2,1
571,95,2,2,1
572,95,2,2,1
573,95,2,2,1
574,95,2,2,1
575,95,2,2,1
576,95,2,2,1
577,95,2,2,1
578,95,2,2,1
579,95,2,2,1
580,95,2,2,1
581,95,2,2,1
582,95,2,2,1
583,95,2,2,1
584,95,2,2,1
585,95,2,2,1
586,95,2,2,1
587,95,2,2,1
588,95,2,2,1
589,95,2,2,1
590,95,2,2,1
591,95,2,2,1
592,95,2,2,1
593,95,2,2,1
594,95,2,2,1
595,95,2,2,1
596,95,2,2,1
597,95,2,2,1
598,94,3,2,1
599,94,3,2,1
600,94,3,2,1
601,94,3,2,1
602,94,3,2,1
603,94,3,2,1
604,94,3,2,1
605,94,3,2,1
606,94,3,2,1
607,94,3,2,1
608,94,3,2,1
609,94,3,2,1
610,94,3,2,1
611,94,3,2,1
612,94,3,2,1
613,94,3,2,1
614,94,3,2,1
615,94,3,2,1
616,94,3,2,1
617,94,3,2,1
618,94,3,2,1
619,94,3,2,1
620,94,3,2,1
621,94,3,2,1
622,94,3,2,1
623,94,3,2,1
624,94,3,2,1
625,94,3,2,1
626,94,3,2,1
627,94,3,2,1
628,94,3,2,1
629,94,3,2,1
630,94,3,2,1
631,94,3,2,1
632,94,3,2,1
633,94,3,2,1
634,94,3,2,1
635,94,3,2,1
636,94,3,2,1
637,94,3,2,1
638,94,3,2,1
639,94,3,2,1
640,94,3,2,1
641,94,3,2,1
642,94,3,2,1
643,94,3,2,1
644,94,3,2,1
645,94,3,2,1
646,94,3,2,1
647,94,3,2,1
648,94,3,2,1
649,94,3,2,1
650,94,3,1,2
651,94,3,1,2
652,94,3,1,2
653,94,3,1,2
654,94,3,1,2
655,94,3,1,2
656,94,3,0,3
657,94,3,0,3
658,94,3,0,3
659,94,3,0,3
660,94,3,0,3
661,94,3,0,3
662,94,3,0,3
663,94,3,0,3
664,94,3,0,3
665,94,3,0,3
666,94,3,0,3
667,94,3,0,3
668,94,3,0,3
669,94,3,0,3
670,94,3,0,3
671,94,3,0,3
672,94,3,0,3
673,94,3,0,3
674,94,3,0,3
675,94,3,0,3
676,94,3,0,3
677,94,3,0,3
678,94,3,0,3
679,94,3,0,3
680,94,3,0,3
681,94,3,0,3
682,94,3,0,3
683,94,3,0,3
684,94,3,0,3
685,94,3,0,3
686,94,3,0,3
687,94,3,0,3
688,94,3,0,3
689,94,3,0,3
690,94,3,0,3
691,94,3,0,3
692,94,3,0,3
693,94,3,0,3
694,94,3,0,3
695,94,3,0,3
696,94,3,0,3
697,94,3,0,3
698,94,3,0,3
699,94,3,0,3
700,94,3,0,3
701,94,3,0,3
702,94,3,0,3
703,94,3,0,3
704,94,3,0,3
705,94,3,0,3
706,94,3,0,3
707,94,3,0,3
708,94,3,0,3
709,94,3,0,3
710,94,3,0,3
711,94,3,0,3
712,94,3,0,3
713,94,3,0,3
714,94,3,0,3
715,94,3,0,3
716,94,3,0,3
717,94,3,0,3
718,94,3,0,3
719,94,3,0,3
720,94,3,0,3
721,94,3,0,3
722,94,3,0,3
723,94,3,0,3
724,94,3,0,3
725,94,3,0,3
726,94,3,0,3
727,94,3,0,3
728,94,3,0,3
729,94,3,0,3
730,94,3,0,3
731,94,3,0,3
732,94,3,0,3
733,94,3,0,3
734,94,3,0,3
735,94,3,0,3
736,94,2,1,3
737,94,2,1,3
738,92,4,1,3
739,92,4,1,3
740,92,4,1,3
741,91,5,1,3
742,90,6,1,3
743,89,7,1,3
744,89,7,1,3
745,89,6,2,3
746,88,7,2,3
747,88,7,2,3
748,88,7,2,3
749,88,7,2,3
750,88,7,2,3
751,88,7,2,3
752,88,7,2,3
753,88,7,2,3
754,88,7,2,3
755,88,7,2,3
756,88,7,2,3
757,88,7,2,3
758,88,7,2,3
759,88,7,2,3
760,88,7,2,3
761,88,7,2,3
762,88,7,2,3
763,88,7,2,3
764,88,7,2,3
765,88,7,2,3
766,88,7,2,3
767,88,7,2,3
768,88,7,2,3
769,88,7,2,3
770,88,7,2,3
771,88,7,2,3
772,88,7,2,3
773,88,7,2,3
774,88,7,2,3
775,88,7,2,3
776,88,7,2,3
777,88,7,2,3
778,88,7,2,3
779,88,7,2,3
780,88,7,2,3
781,88,7,2,3
782,88,7,2,3
783,88,7,2,3
784,88,7,2,3
785,88,7,2,3
786,88,7,2,3
787,88,7,2,3
788,88,7,2,3
789,88,7,2,3
790,88,7,2,3
791,88,7,2,3
792,88,7,2,3
793,88,7,2,3
794,88,7,2,3
795,88,7,2,3
796,88,7,2,3
797,88,7,2,3
798,88,7,2,3
799,88,6,3,3
800,88,6,3,3
801,88,6,3,3
802,88,6,3,3
803,88,6,3,3
804,88,6,3,3
805,88,6,3,3
806,88,6,3,3
807,88,6,3,3
808,88,6,3,3
809,88,6,3,3
810,88,6,3,3
811,88,6,3,3
812,88,6,3,3
813,88,6,3,3
814,88,6,3,3
815,88,6,3,3
816,88,6,3,3
817,88,6,3,3
818,88,6,3,3
819,88,6,3,3
820,88,6,3,3
821,88,6,3,3
822,88,6,3,3
823,88,6,3,3
824,88,6,3,3
825,88,6,3,3
826,88,6,3,3
827,87,7,3,3
828,86,8,3,3
829,86,8,3,3
830,86,8,3,3
831,86,8,3,3
832,86,8,3,3
833,86,8,3,3
834,86,8,3,3
835,86,8,3,3
836,86,8,3,3
837,86,8,3,3
838,86,8,3,3
839,86,8,3,3
840,86,8,3,3
841,86,8,3,3
842,86,8,3,3
843,86,8,3,3
844,86,8,3,3
845,86,8,3,3
846,86,8,3,3
847,86,8,3,3
848,86,8,3,3
849,86,8,3,3
850,86,8,3,3
851,86,8,3,3
852,86,8,3,3
853,86,8,3,3
854,86,8,3,3
855,86,8,3,3
856,86,8,3,3
857,86,8,3,3
858,86,8,3,3
859,86,8,3,3
860,86,8,3,3
861,86,8,3,3
862,86,8,3,3
863,86,8,3,3
864,86,8,3,3
865,86,8,3,3
866,86,8,3,3
867,86,8,3,3
868,86,8,3,3
869,86,8,3,3
870,86,8,3,3
871,86,8,3,3
872,86,8,3,3
873,86,8,3,3
874,86,8,3,3
875,86,8,3,3
876,86,8,3,3
877,86,8,3,3
878,86,8,3,3
879,86,8,3,3
880,86,8,3,3
881,86,8,3,3
882,86,8,3,3
883,86,8,3,3
884,86,8,3,3
885,86,8,3,3
886,86,8,3,3
887,86,8,3,3
888,86,8,3,3
889,86,8,3,3
890,86,8,3,3
891,86,8,3,3
892,86,8,3,3
893,86,8,3,3
894,86,8,3,3
895,86,8,3,3
896,86,8,3,3
897,86,8,3,3
898,86,8,3,3
899,86,8,3,3
900,86,8,3,3
901,86,8,3,3
902,86,8,3,3
903,86,8,3,3
904,86,8,3,3
905,86,8,3,3
906,86,8,3,3
907,86,8,3,3
908,86,8,3,3
909,86,8,3,3
910,86,8,3,3
911,86,8,3,3
912,86,8,3,3
913,86,8,3,3
914,86,8,3,3
915,86,8,3,3
916,86,8,3,3
917,86,8,3,3
918,86,8,3,3
919,86,8,3,3
920,86,8,3,3
921,86,8,3,3
922,86,8,3,3
923,86,8,3,3
924,86,8,3,3
925,86,8,3,3
926,86,8,3,3
927,86,8,3,3
928,86,8,3,3
929,86,8,3,3
930,86,8,3,3
931,86,8,3,3
932,86,8,3,3
933,86,8,3,3
934,86,8,3,3
935,86,8,3,3
936,86,8,3,3
937,86,8,2,4
938,85,9,2,4
939,85,7,4,4
940,85,7,4,4
941,85,7,4,4
942,85,6,5,4
943,85,5,6,4
944,85,4,7,4
945,85,4,7,4
946,85,4,6,5
947,84,4,7,5
948,84,4,7,5
949,84,4,7,5
950,84,4,7,5
951,84,4,7,5
952,84,4,7,5
953,84,4,7,5
954,84,4,7,5
955,84,4,7,5
956,84,4,7,5
957,84,4,7,5
958,84,4,7,5
959,84,4,7,5
960,84,4,7,5
961,84,4,7,5
962,84,4,7,5
963,84,4,7,5
964,84,4,7,5
965,84,4,7,5
966,84,4,7,5
967,84,4,7,5
968,84,4,7,5
969,84,4,7,5
970,84,4,7,5
971,84,4,7,5
972,84,4,7,5
973,84,4,7,5
974,84,4,7,5
975,84,4,7,5
976,84,4,7,5
977,84,4,7,5
978,84,4,7,5
979,84,4,7,5
980,84,4,7,5
981,84,4,7,5
982,84,4,7,5
983,83,5,7,5
984,83,5,7,5
985,83,5,7,5
986,83,5,7,5
987,83,5,7,5
988,83,5,7,5
989,83,5,7,5
990,83,5,7,5
991,83,5,7,5
992,83,5,7,5
993,83,5,7,5
994,83,5,7,5
995,83,5,7,5
996,83,5,7,5
997,83,5,7,5
998,83,5,7,5
999,83,5,7,5
1000,83,5,6,6
1001,83,5,6,6
1002,83,5,6,6
1003,83,5,6,6
1004,83,5,6,6
1005,83,5,6,6
1006,83,5,6,6
1007,83,5,6,6
1008,83,5,6,6
1009,83,5,6,6
1010,83,5,6,6
1011,83,5,6,6
1012,83,5,6,6
1013,83,5,6,6
1014,83,5,6,6
1015,83,5,6,6
1016,83,5,6,6
1017,83,5,6,6
1018,83,5,6,6
1019,83,5,6,6
1020,83,5,6,6
1021,83,5,6,6
1022,83,5,6,6
1023,83,5,6,6
1024,83,5,6,6
1025,83,5,6,6
1026,83,5,6,6
1027,83,5,6,6
1028,83,4,7,6
1029,83,3,8,6
1030,82,4,8,6
1031,82,4,8,6
1032,82,4,8,6
1033,82,4,8,6
1034,82,4,8,6
1035,82,4,8,6
1036,82,4,8,6
1037,82,4,8,6
1038,82,4,8,6
1039,82,4,8,6
1040,82,4,8,6
1041,82,4,8,6
1042,82,4,8,6
1043,82,4,8,6
1044,82,4,8,6
1045,82,4,8,6
1046,82,4,8,6
1047,82,4,8,6
1048,82,4,8,6
1049,82,4,8,6
1050,82,4,8,6
1051,82,4,8,6
1052,82,4,8,6
1053,82,4,8,6
1054,82,4,8,6
1055,82,4,8,6
1056,82,4,8,6
1057,82,4,8,6
1058,81,5,8,6
1059,81,5,8,6
1060,81,5,8,6
1061,81,5,8,6
1062,81,5,8,6
1063,81,5,8,6
1064,81,5,8,6
1065,81,5,8,6
1066,81,5,8,6
1067,81,5,8,6
1068,81,5,8,6
1069,81,5,8,6
1070,81,5,8,6
1071,81,5,8,6
1072,81,5,8,6
1073,81,5,8,6
1074,81,5,8,6
1075,81,5,8,6
1076,81,5,8,6
1077,81,5,8,6
1078,81,5,8,6
1079,81,5,8,6
1080,81,5,8,6
1081,81,5,8,6
1082,81,5,8,6
1083,81,5,8,6
1084,81,5,8,6
1085,81,5,8,6
1086,81,5,8,6
1087,81,5,8,6
1088,81,5,8,6
1089,81,5,8,6
1090,81,5,8,6
1091,81,5,8,6
1092,81,5,8,6
1093,81,5,8,6
1094,81,5,8,6
1095,81,5,8,6
1096,81,5,8,6
1097,81,5,8,6
1098,81,5,8,6
1099,81,5,8,6
1100,81,5,8,6
1101,81,5,8,6
1102,81,5,8,6
1103,81,5,8,6
1104,81,5,8,6
1105,81,5,8,6
1106,81,5,8,6
1107,81,5,8,6
1108,80,6,8,6
1109,80,6,8,6
1110,80,6,8,6
1111,80,6,8,6
1112,79,7,8,6
1113,79,7,8,6
1114,79,7,8,6
1115,78,8,8,6
1116,78,8,8,6
1117,78,8,8,6
1118,78,8,8,6
1119,78,8,8,6
1120,78,8,8,6
1121,78,8,8,6
1122,78,8,8,6
1123,78,8,8,6
1124,77,9,8,6
1125,77,9,8,6
1126,77,9,8,6
1127,77,9,8,6
1128,77,9,8,6
1129,77,9,8,6
1130,77,9,8,6
1131,77,9,8,6
1132,77,9,8,6
1133,77,9,8,6
1134,77,9,8,6
1135,77,9,8,6
1136,77,9,8,6
1137,77,9,8,6
1138,77,9,8,6
1139,77,8,9,6
1140,77,8,7,8
1141,77,8,7,8
1142,77,8,7,8
1143,77,8,6,9
1144,77,8,5,10
1145,77,8,4,11
1146,77,8,4,11
1147,77,8,4,11
1148,77,7,4,12
1149,77,7,4,12
1150,77,7,4,12
1151,77,7,4,12
1152,77,7,4,12
1153,77,7,4,12
1154,77,7,4,12
1155,77,7,4,12
1156,77,7,4,12
1157,77,7,4,12
1158,77,7,4,12
1159,77,7,4,12
1160,77,7,4,12
1161,77,7,4,12
1162,77,7,4,12
1163,77,7,4,12
1164,77,7,4,12
1165,77,7,4,12
1166,77,7,4,12
1167,77,7,4,12
1168,77,7,4,12
1169,77,7,4,12
1170,77,7,4,12
1171,77,7,4,12
1172,76,8,4,12
1173,75,9,4,12
1174,75,9,4,12
1175,75,9,4,12
1176,75,9,4,12
1177,75,9,4,12
1178,75,9,4,12
1179,75,9,4,12
1180,75,9,4,12
1181,75,9,4,12
1182,75,9,4,12
1183,75,9,4,12
1184,73,10,5,12
1185,72,11,5,12
1186,71,12,5,12
1187,70,13,5,12
1188,70,13,5,12
1189,70,13,5,12
1190,70,13,5,12
1191,70,13,5,12
1192,70,13,5,12
1193,69,14,5,12
1194,67,16,5,12
1195,66,17,5,12
1196,65,18,5,12
1197,65,18,5,12
1198,63,20,5,12
1199,62,21,5,12
1200,61,22,5,12
1201,60,23,5,12
1202,60,23,5,12
1203,60,23,5,12
1204,60,23,5,12
1205,60,23,5,12
1206,60,23,5,12
1207,60,23,5,12
1208,60,23,5,12
1209,60,23,5,12
1210,60,23,5,12
1211,60,23,5,12
1212,60,23,5,12
1213,60,23,5,12
1214,60,23,5,12
1215,60,23,5,12
1216,60,23,5,12
1217,60,23,5,12
1218,60,23,5,12
1219,60,23,5,12
1220,60,23,5,12
1221,60,23,5,12
1222,60,23,5,12
1223,60,23,5,12
1224,60,23,5,12
1225,60,23,5,12
1226,60,23,5,12
1227,60,23,5,12
1228,60,23,5,12
1229,60,23,4,13
1230,60,23,3,14
1231,60,22,4,14
1232,60,22,4,14
1233,59,23,4,14
1234,59,23,4,14
1235,59,23,4,14
1236,58,24,4,14
1237,58,24,4,14
1238,58,24,4,14
1239,58,24,4,14
1240,58,24,4,14
1241,58,24,4,14
1242,58,24,4,14
1243,58,24,4,14
1244,58,24,4,14
1245,58,24,4,14
1246,58,24,4,14
1247,58,24,4,14
1248,58,24,4,14
1249,58,24,4,14
1250,58,24,4,14
1251,58,24,4,14
1252,58,24,4,14
1253,58,24,4,14
1254,58,24,4,14
1255,58,24,4,14
1256,58,24,4,14
1257,58,24,4,14
1258,58,24,4,14
1259,58,23,5,14
1260,58,23,5,14
1261,58,23,5,14
1262,58,23,5,14
1263,58,23,5,14
1264,58,23,5,14
1265,58,23,5,14
1266,58,23,5,14
1267,58,23,5,14
1268,58,23,5,14
1269,58,23,5,14
1270,58,23,5,14
1271,58,23,5,14
1272,58,23,5,14
1273,58,23,5,14
1274,58,23,5,14
1275,58,23,5,14
1276,58,23,5,14
1277,58,23,5,14
1278,58,23,5,14
1279,58,23,5,14
1280,58,23,5,14
1281,58,23,5,14
1282,58,23,5,14
1283,58,23,5,14
1284,58,23,5,14
1285,58,23,5,14
1286,58,23,5,14
1287,58,23,5,14
1288,58,23,5,14
1289,58,23,5,14
1290,58,23,5,14
1291,58,23,5,14
1292,58,23,5,14
1293,58,23,5,14
1294,58,23,5,14
1295,58,23,5,14
1296,58,23,5,14
1297,58,23,5,14
1298,58,23,5,14
1299,58,23,5,14
1300,58,23,5,14
1301,58,23,5,14
1302,58,23,5,14
1303,58,23,5,14
1304,58,23,5,14
1305,58,23,5,14
1306,58,23,5,14
1307,58,23,5,14
1308,58,23,5,14
1309,58,22,6,14
1310,58,22,6,14
1311,58,22,6,14
1312,58,22,6,14
1313,58,21,7,14
1314,58,21,7,14
1315,58,21,7,14
1316,58,20,8,14
1317,58,20,8,14
1318,58,20,8,14
1319,58,20,8,14
1320,58,20,8,14
1321,58,20,8,14
1322,58,20,8,14
1323,58,20,8,14
1324,58,20,8,14
1325,58,19,9,14
1326,58,19,9,14
1327,57,20,9,14
1328,57,20,9,14
1329,57,20,9,14
1330,57,20,9,14
1331,57,20,9,14
1332,57,20,9,14
1333,57,20,9,14
1334,57,20,9,14
1335,57,20,9,14
1336,57,20,9,14
1337,57,20,9,14
1338,57,20,9,14
1339,57,20,9,14
1340,57,20,8,15
1341,57,20,8,15
1342,57,20,8,15
1343,57,20,8,15
1344,57,20,8,15
1345,57,20,8,15
1346,57,20,8,15
1347,57,20,8,15
1348,57,20,8,15
1349,57,20,7,16
1350,57,20,7,16
1351,57,20,7,16
1352,57,20,7,16
1353,57,20,7,16
1354,57,20,7,16
1355,57,20,7,16
1356,57,20,7,16
1357,57,20,7,16
1358,56,21,7,16
1359,56,21,7,16
1360,56,21,7,16
1361,56,21,7,16
1362,56,21,7,16
1363,56,21,7,16
1364,56,21,7,16
1365,56,21,7,16
1366,56,21,7,16
1367,56,21,7,16
1368,56,21,7,16
1369,56,21,7,16
1370,56,21,7,16
1371,55,22,7,16
1372,55,22,7,16
1373,55,21,8,16
1374,55,20,9,16
1375,55,20,9,16
1376,55,20,9,16
1377,55,20,9,16
1378,55,20,9,16
1379,55,20,9,16
1380,55,20,9,16
1381,55,20,9,16
1382,55,20,9,16
1383,55,20,9,16
1384,55,20,9,16
1385,55,18,10,17
1386,55,17,11,17
1387,55,16,12,17
1388,55,15,13,17
1389,55,15,13,17
1390,55,15,13,17
1391,55,15,13,17
1392,55,15,13,17
1393,55,15,13,17
1394,55,14,14,17
1395,55,12,16,17
1396,55,11,17,17
1397,55,10,18,17
1398,55,10,18,17
1399,55,8,20,17
1400,55,7,21,17
1401,55,6,22,17
1402,54,6,23,17
1403,54,6,23,17
1404,53,7,23,17
1405,53,7,23,17
1406,53,7,23,17
1407,53,7,23,17
1408,53,7,23,17
1409,52,8,23,17
1410,52,8,23,17
1411,52,8,23,17
1412,52,8,23,17
1413,52,8,23,17
1414,52,8,23,17
1415,52,8,23,17
1416,52,8,23,17
1417,50,10,23,17
1418,50,10,23,17
1419,50,10,23,17
1420,50,10,23,17
1421,50,10,23,17
1422,49,11,23,17
1423,49,11,23,17
1424,49,11,23,17
1425,49,11,23,17
1426,49,11,23,17
1427,49,11,23,17
1428,49,11,23,17
1429,49,11,23,17
1430,49,11,23,17
1431,49,11,23,17
1432,49,11,22,18
1433,49,11,22,18
1434,49,10,23,18
1435,49,10,23,18
1436,49,10,23,18
1437,49,9,24,18
1438,49,9,24,18
1439,49,9,24,18
1440,49,9,24,18
1441,49,9,24,18
1442,49,9,24,18
1443,49,9,24,18
1444,49,9,24,18
1445,48,10,24,18
1446,48,10,24,18
1447,48,10,24,18
1448,48,10,24,18
1449,48,10,24,18
1450,48,10,24,18
1451,48,10,24,18
1452,48,10,24,18
1453,48,10,24,18
1454,48,10,24,18
1455,48,10,24,18
1456,48,10,24,18
1457,47,11,24,18
1458,47,11,24,18
1459,46,12,24,18
1460,46,12,23,19
1461,45,13,23,19
1462,45,13,23,19
1463,45,13,23,19
1464,44,14,23,19
1465,44,14,23,19
1466,44,14,23,19
1467,44,14,23,19
1468,44,14,23,19
1469,44,14,23,19
1470,44,14,23,19
1471,44,14,23,19
1472,44,14,23,19
1473,44,14,23,19
1474,44,14,23,19
1475,44,14,23,19
1476,44,14,23,19
1477,44,14,23,19
1478,44,14,23,19
1479,44,14,23,19
1480,44,14,23,19
1481,44,14,23,19
1482,44,14,23,19
1483,44,14,23,19
1484,44,14,23,19
1485,44,14,23,19
1486,44,14,23,19
1487,44,14,23,19
1488,44,14,23,19
1489,44,14,23,19
1490,44,14,23,19
1491,44,14,23,19
1492,44,14,23,19
1493,44,14,23,19
1494,44,14,23,19
1495,44,14,23,19
1496,44,14,23,19
1497,43,15,23,19
1498,43,15,23,19
1499,43,15,23,19
1500,43,15,23,19
1501,43,15,23,19
1502,43,15,23,19
1503,43,15,23,19
1504,43,15,23,19
1505,43,15,23,19
1506,43,15,23,19
1507,43,15,23,19
1508,43,15,23,19
1509,43,15,23,19
1510,43,15,22,20
1511,43,15,22,20
1512,43,15,22,20
1513,43,15,22,20
1514,43,15,21,21
1515,43,15,21,21
1516,43,15,21,21
1517,43,15,20,22
1518,43,15,20,22
1519,43,15,20,22
1520,43,15,20,22
1521,43,15,20,22
1522,43,15,20,22
1523,43,15,20,22
1524,43,15,20,22
1525,43,15,20,22
1526,43,15,19,23
1527,43,15,19,23
1528,43,14,20,23
1529,43,14,20,23
1530,43,14,20,23
1531,43,14,20,23
1532,43,14,20,23
1533,43,14,20,23
1534,43,14,20,23
1535,43,14,20,23
1536,42,15,20,23
1537,42,15,20,23
1538,42,15,20,23
1539,42,15,20,23
1540,41,16,20,23
1541,41,16,20,23
1542,41,16,20,23
1543,41,16,20,23
1544,41,16,20,23
1545,41,16,20,23
1546,41,16,20,23
1547,41,16,20,23
1548,41,16,20,23
1549,41,16,20,23
1550,41,16,20,23
1551,41,16,20,23
1552,41,16,20,23
1553,41,16,20,23
1554,41,16,20,23
1555,41,16,20,23
1556,41,16,20,23
1557,41,16,20,23
1558,41,16,20,23
1559,41,15,21,23
1560,41,15,21,23
1561,41,15,21,23
1562,41,15,21,23
1563,41,15,21,23
1564,41,15,21,23
1565,41,15,21,23
1566,41,15,21,23
1567,41,15,21,23
1568,41,15,21,23
1569,41,15,21,23
1570,41,15,21,23
1571,41,15,21,23
1572,41,14,22,23
1573,41,14,22,23
1574,41,14,21,24
1575,41,14,20,25
1576,40,15,20,25
1577,40,15,20,25
1578,40,15,20,25
1579,40,15,20,25
1580,40,15,20,25
1581,40,15,20,25
1582,40,15,20,25
1583,40,15,20,25
1584,40,15,20,25
1585,40,15,20,25
1586,40,15,18,27
1587,40,15,17,28
1588,40,15,16,29
1589,40,15,15,30
1590,40,15,15,30
1591,40,15,15,30
1592,40,15,15,30
1593,40,15,15,30
1594,40,15,15,30
1595,40,15,14,31
1596,40,15,12,33
1597,40,15,11,34
1598,40,15,10,35
1599,40,15,10,35
1600,40,15,8,37
1601,40,15,7,38
1602,40,15,6,39
1603,40,14,6,40
1604,40,14,6,40
1605,40,13,7,40
1606,39,14,7,40
1607,39,14,7,40
1608,39,14,7,40
1609,39,14,7,40
1610,39,13,8,40
1611,39,13,8,40
1612,39,13,8,40
1613,39,13,8,40
1614,39,13,8,40
1615,39,13,8,40
1616,39,13,8,40
1617,39,13,8,40
1618,39,11,10,40
1619,39,11,10,40
1620,39,11,10,40
1621,39,11,10,40
1622,39,11,10,40
1623,39,10,11,40
1624,39,10,11,40
1625,39,10,11,40
1626,39,10,11,40
1627,39,10,11,40
1628,39,10,11,40
1629,39,10,11,40
1630,39,10,11,40
1631,39,10,11,40
1632,39,10,11,40
1633,39,10,11,40
1634,39,10,11,40
1635,39,10,10,41
1636,39,10,10,41
1637,39,10,10,41
1638,39,10,9,42
1639,39,10,9,42
1640,39,10,9,42
1641,39,10,9,42
1642,39,10,9,42
1643,39,10,9,42
1644,39,10,9,42
1645,39,10,9,42
1646,39,9,10,42
1647,39,9,10,42
1648,39,9,10,42
1649,39,9,10,42
1650,39,9,10,42
1651,39,9,10,42
1652,39,9,10,42
1653,39,9,10,42
1654,39,9,10,42
1655,39,9,10,42
1656,39,9,10,42
1657,38,10,10,42
1658,37,10,11,42
1659,37,10,11,42
1660,37,9,12,42
1661,37,9,12,42
1662,37,8,13,42
1663,36,9,13,42
1664,36,9,13,42
1665,36,8,14,42
1666,36,8,14,42
1667,36,8,14,42
1668,36,8,14,42
1669,36,8,14,42
1670,36,8,14,42
1671,36,8,14,42
1672,36,8,14,42
1673,36,8,14,42
1674,36,8,14,42
1675,36,8,14,42
1676,36,8,14,42
1677,36,8,14,42
1678,36,8,14,42
1679,36,8,14,42
1680,36,8,14,42
1681,36,8,14,42
1682,36,8,14,42
1683,36,8,14,42
1684,36,8,14,42
1685,36,8,14,42
1686,36,8,14,42
1687,36,8,14,42
1688,36,8,14,42
1689,36,8,14,42
1690,36,8,14,42
1691,36,8,14,42
1692,36,8,14,42
1693,36,8,14,42
1694,36,8,14,42
1695,36,8,14,42
1696,36,8,14,42
1697,36,8,14,42
1698,36,7,15,42
1699,36,7,15,42
1700,36,7,15,42
1701,36,7,15,42
1702,36,7,15,42
1703,36,7,15,42
1704,36,7,15,42
1705,36,7,15,42
1706,36,7,15,42
1707,36,7,15,42
1708,36,7,15,42
1709,36,7,15,42
1710,36,7,15,42
1711,36,7,15,42
1712,36,7,15,42
1713,36,7,15,42
1714,36,7,15,42
1715,36,7,15,42
1716,36,7,15,42
1717,36,7,15,42
1718,36,7,15,42
1719,36,7,15,42
1720,36,7,15,42
1721,36,7,15,42
1722,36,7,15,42
1723,36,7,15,42
1724,36,7,15,42
1725,36,7,15,42
1726,36,7,15,42
1727,36,7,15,42
1728,36,7,15,42
1729,36,7,14,43
1730,35,8,14,43
1731,35,8,14,43
1732,35,8,14,43
1733,34,9,14,43
1734,34,9,14,43
1735,34,9,14,43
1736,34,9,14,43
1737,33,9,15,43
1738,33,9,15,43
1739,33,9,15,43
1740,33,9,15,43
1741,33,8,16,43
1742,33,8,16,43
1743,32,9,16,43
1744,32,9,16,43
1745,32,9,16,43
1746,32,9,16,43
1747,32,9,16,43
1748,32,9,16,43
1749,32,9,16,43
1750,32,9,16,43
1751,32,9,16,43
1752,32,9,16,43
1753,32,9,16,43
1754,32,9,16,43
1755,32,9,16,43
1756,32,9,16,43
1757,32,9,16,43
1758,32,9,16,43
1759,32,9,16,43
1760,32,9,15,44
1761,32,9,15,44
1762,32,9,15,44
1763,32,9,15,44
1764,32,9,15,44
1765,32,9,15,44
1766,31,10,15,44
1767,31,10,15,44
1768,31,10,15,44
1769,31,10,15,44
1770,31,10,15,44
1771,31,10,15,44
1772,31,10,15,44
1773,31,10,14,45
1774,31,10,14,45
1775,31,10,14,45
1776,31,10,14,45
1777,31,9,15,45
1778,31,9,15,45
1779,31,9,15,45
1780,31,9,15,45
1781,31,9,15,45
1782,31,9,15,45
1783,31,9,15,45
1784,31,9,15,45
1785,31,9,15,45
1786,31,9,15,45
1787,31,9,15,45
1788,31,9,15,45
1789,31,9,15,45
1790,31,9,15,45
1791,31,9,15,45
1792,31,9,15,45
1793,31,9,15,45
1794,31,9,15,45
1795,31,9,15,45
1796,31,9,15,45
1797,31,9,15,45
1798,31,9,15,45
1799,30,10,15,45
1800,30,10,15,45
1801,30,10,15,45
1802,30,10,15,45
1803,30,10,15,45
1804,30,10,14,46
1805,30,10,14,46
1806,30,10,13,47
1807,30,9,14,47
1808,30,9,14,47
1809,30,9,14,47
1810,30,9,14,47
1811,30,9,13,48
1812,30,9,13,48
1813,30,9,13,48
1814,30,9,13,48
1815,30,9,13,48
1816,30,9,13,48
1817,30,9,13,48
1818,30,9,13,48
1819,30,9,11,50
1820,30,9,11,50
1821,30,9,11,50
1822,30,9,11,50
1823,30,9,11,50
1824,30,9,10,51
1825,30,9,10,51
1826,30,9,10,51
1827,30,9,10,51
1828,30,9,10,51
1829,30,9,10,51
1830,30,9,10,51
1831,30,9,10,51
1832,30,9,10,51
1833,30,9,10,51
1834,29,10,10,51
1835,29,10,10,51
1836,29,10,10,51
1837,29,10,10,51
1838,29,10,10,51
1839,29,10,10,51
1840,29,10,10,51
1841,28,11,10,51
1842,28,11,10,51
1843,28,11,10,51
1844,28,11,10,51
1845,28,11,10,51
1846,28,11,10,51
1847,28,11,9,52
1848,28,11,9,52
1849,28,11,9,52
1850,27,12,9,52
1851,27,12,9,52
1852,27,12,9,52
1853,27,12,9,52
1854,27,12,9,52
1855,27,12,9,52
1856,27,12,9,52
1857,27,12,9,52
1858,27,11,10,52
1859,26,11,10,53
1860,26,11,10,53
1861,26,11,9,54
1862,26,11,9,54
1863,26,11,8,55
1864,26,10,9,55
1865,26,10,9,55
1866,26,10,8,56
1867,26,10,8,56
1868,26,10,8,56
1869,26,10,8,56
1870,26,10,8,56
1871,26,10,8,56
1872,26,10,8,56
1873,26,10,8,56
1874,26,10,8,56
1875,26,10,8,56
1876,26,10,8,56
1877,26,10,8,56
1878,26,10,8,56
1879,26,10,8,56
1880,26,10,8,56
1881,26,10,8,56
1882,26,10,8,56
1883,26,10,8,56
1884,26,10,8,56
1885,26,10,8,56
1886,26,10,8,56
1887,25,11,8,56
1888,25,11,8,56
1889,25,11,8,56
1890,25,11,8,56
1891,25,11,8,56
1892,25,11,8,56
1893,25,11,8,56
1894,25,11,8,56
1895,25,11,8,56
1896,25,11,8,56
1897,25,11,8,56
1898,25,11,8,56
1899,25,11,7,57
1900,25,11,7,57
1901,25,11,7,57
1902,25,11,7,57
1903,25,11,7,57
1904,25,11,7,57
1905,25,11,7,57
1906,25,11,7,57
1907,25,11,7,57
1908,25,11,7,57
1909,25,11,7,57
1910,25,11,7,57
1911,25,11,7,57
1912,25,11,7,57
1913,25,11,7,57
1914,25,11,7,57
1915,25,11,7,57
1916,25,11,7,57
1917,25,11,7,57
1918,25,11,7,57
1919,24,12,7,57
1920,24,12,7,57
1921,24,12,7,57
1922,24,12,7,57
1923,24,12,7,57
1924,24,12,7,57
1925,24,12,7,57
1926,24,12,7,57
1927,24,12,7,57
1928,24,12,7,57
1929,24,12,7,57
1930,24,12,7,57
1931,24,11,8,57
1932,24,11,8,57
1933,24,11,8,57
1934,24,10,9,57
1935,24,10,9,57
1936,24,10,9,57
1937,24,10,9,57
1938,24,9,9,58
1939,24,9,9,58
1940,24,9,9,58
1941,24,9,9,58
1942,24,9,8,59
1943,24,9,8,59
1944,24,8,9,59
1945,24,8,9,59
1946,24,8,9,59
1947,24,8,9,59
1948,24,8,9,59
1949,24,8,9,59
1950,24,8,9,59
1951,24,8,9,59
1952,24,8,9,59
1953,24,8,9,59
1954,24,8,9,59
1955,24,8,9,59
1956,24,8,9,59
1957,24,8,9,59
1958,24,8,9,59
1959,24,8,9,59
1960,24,8,9,59
1961,24,8,9,59
1962,24,8,9,59
1963,24,8,9,59
1964,24,8,9,59
1965,24,8,9,59
1966,24,8,9,59
1967,24,7,10,59
1968,24,7,10,59
1969,24,7,10,59
1970,24,7,10,59
1971,24,7,10,59
1972,24,7,10,59
1973,24,7,10,59
1974,24,7,10,59
1975,24,7,10,59
1976,24,7,10,59
1977,24,7,10,59
1978,24,7,9,60
1979,24,7,9,60
1980,24,7,9,60
1981,24,7,9,60
1982,24,7,9,60
1983,24,7,9,60
1984,24,7,9,60
1985,24,7,9,60
1986,24,7,9,60
1987,24,7,9,60
1988,24,7,9,60
1989,24,7,9,60
1990,24,7,9,60
1991,24,7,9,60
1992,24,7,9,60
1993,24,7,9,60
1994,24,7,9,60
1995,24,7,9,60
1996,24,7,9,60
1997,24,7,9,60
1998,24,7,9,60
1999,24,7,9,60
2000,24,7,9,60
