"tick","susceptible","exposed","infectious","recovered"
0,99,1,0,0
1,99,1,0,0
2,99,1,0,0
3,99,1,0,0
4,99,1,0,0
5,99,1,0,0
6,99,1,0,0
7,99,1,0,0
8,99,1,0,0
9,99,1,0,0
10,99,1,0,0
11,99,1,0,0
12,99,1,0,0
13,99,1,0,0
14,99,1,0,0
15,99,1,0,0
16,99,1,0,0
17,99,1,0,0
18,99,1,0,0
19,99,1,0,0
20,99,1,0,0
21,99,1,0,0
22,99,1,0,0
23,99,1,0,0
24,99,1,0,0
25,99,1,0,0
26,99,1,0,0
27,99,1,0,0
28,99,1,0,0
29,99,1,0,0
30,99,1,0,0
31,99,1,0,0
32,99,1,0,0
33,99,1,0,0
34,99,1,0,0
35,99,1,0,0
36,99,1,0,0
37,99,1,0,0
38,99,1,0,0
39,99,1,0,0
40,99,1,0,0
41,99,1,0,0
42,99,1,0,0
43,99,1,0,0
44,99,1,0,0
45,99,1,0,0
46,99,1,0,0
47,99,1,0,0
48,99,1,0,0
49,99,1,0,0
50,99,1,0,0
51,99,1,0,0
52,99,1,0,0
53,99,1,0,0
54,99,1,0,0
55,99,1,0,0
56,99,1,0,0
57,99,1,0,0
58,99,1,0,0
59,99,1,0,0
60,99,1,0,0
61,99,1,0,0
62,99,1,0,0
63,99,1,0,0
64,99,1,0,0
65,99,1,0,0
66,99,1,0,0
67,99,1,0,0
68,99,1,0,0
69,99,1,0,0
70,99,1,0,0
71,99,1,0,0
72,99,1,0,0
73,99,1,0,0
74,99,1,0,0
75,99,1,0,0
76,99,1,0,0
77,99,1,0,0
78,99,1,0,0
79,99,1,0,0
80,99,1,0,0
81,99,1,0,0
82,99,1,0,0
83,99,1,0,0
84,99,1,0,0
85,99,1,0,0
86,99,1,0,0
87,99,1,0,0
88,99,1,0,0
89,99,1,0,0
90,99,1,0,0
91,99,1,0,0
92,99,1,0,0
93,99,1,0,0
94,99,1,0,0
95,99,1,0,0
96,99,1,0,0
97,99,1,0,0
98,99,1,0,0
99,99,1,0,0
100,99,1,0,0
101,99,1,0,0
102,99,1,0,0
103,99,1,0,0
104,99,1,0,0
105,99,1,0,0
106,99,1,0,0
107,99,1,0,0
108,99,1,0,0
109,99,1,0,0
110,99,1,0,0
111,99,1,0,0
112,99,1,0,0
113,99,1,0,0
114,99,1,0,0
115,99,1,0,0
116,99,1,0,0
117,99,1,0,0
118,99,1,0,0
119,99,1,0,0
120,99,1,0,0
121,99,1,0,0
122,99,1,0,0
123,99,1,0,0
124,99,1,0,0
125,99,1,0,0
126,99,1,0,0
127,99,1,0,0
128,99,1,0,0
129,99,1,0,0
130,99,1,0,0
131,99,1,0,0
132,99,1,0,0
133,99,1,0,0
134,99,1,0,0
135,99,1,0,0
136,99,1,0,0
137,99,1,0,0
138,99,1,0,0
139,99,1,0,0
140,99,1,0,0
141,99,1,0,0
142,99,1,0,0
143,99,1,0,0
144,99,1,0,0
145,99,1,0,0
146,99,1,0,0
147,99,1,0,0
148,99,1,0,0
149,99,1,0,0
150,99,1,0,0
151,99,1,0,0
152,99,1,0,0
153,99,1,0,0
154,99,1,0,0
155,99,1,0,0
156,99,1,0,0
157,99,1,0,0
158,99,1,0,0
159,99,1,0,0
160,99,1,0,0
161,99,1,0,0
162,99,1,0,0
163,99,1,0,0
164,99,1,0,0
165,99,1,0,0
166,99,1,0,0
167,99,1,0,0
168,99,1,0,0
169,99,1,0,0
170,99,1,0,0
171,99,1,0,0
172,99,1,0,0
173,99,1,0,0
174,99,1,0,0
175,99,1,0,0
176,99,1,0,0
177,99,1,0,0
178,99,1,0,0
179,99,1,0,0
180,99,1,0,0
181,99,1,0,0
182,99,1,0,0
183,99,1,0,0
184,99,1,0,0
185,99,1,0,0
186,99,1,0,0
187,99,1,0,0
188,99,1,0,0
189,99,1,0,0
190,99,1,0,0
191,99,1,0,0
192,99,1,0,0
193,99,1,0,0
194,99,1,0,0
195,99,1,0,0
196,99,1,0,0
197,99,1,0,0
198,99,1,0,0
199,99,1,0,0
200,99,1,0,0
201,98,1,1,0
202,98,1,1,0
203,97,2,1,0
204,96,3,1,0
205,96,3,1,0
206,96,3,1,0
207,95,4,1,0
208,95,4,1,0
209,94,5,1,0
210,94,5,1,0
211,94,5,1,0
212,93,6,1,0
213,93,6,1,0
214,93,6,1,0
215,93,6,1,0
216,93,6,1,0
217,93,6,1,0
218,93,6,1,0
219,93,6,1,0
220,93,6,1,0
221,93,6,1,0
222,93,6,1,0
223,93,6,1,0
224,93,6,1,0
225,93,6,1,0
226,93,6,1,0
227,93,6,1,0
228,93,6,1,0
229,93,6,1,0
230,93,6,1,0
231,93,6,1,0
232,93,6,1,0
233,93,6,1,0
234,93,6,1,0
235,93,6,1,0
236,93,6,1,0
237,93,6,1,0
238,93,6,1,0
239,93,6,1,0
240,93,6,1,0
241,93,6,1,0
242,93,6,1,0
243,93,6,1,0
244,93,6,1,0
245,93,6,1,0
246,93,6,1,0
247,93,6,1,0
248,93,6,1,0
249,93,6,1,0
250,93,6,1,0
251,93,6,1,0
252,93,6,1,0
253,93,6,1,0
254,93,6,1,0
255,93,6,1,0
256,93,6,1,0
257,93,6,1,0
258,93,6,1,0
259,93,6,1,0
260,93,6,1,0
261,93,6,1,0
262,93,6,1,0
263,93,6,1,0
264,93,6,1,0
265,93,6,1,0
266,93,6,1,0
267,93,6,1,0
268,93,6,1,0
269,93,6,1,0
270,93,6,1,0
271,93,6,1,0
272,93,6,1,0
273,93,6,1,0
274,93,6,1,0
275,93,6,1,0
276,93,6,1,0
277,93,6,1,0
278,93,6,1,0
279,93,6,1,0
280,93,6,1,0
281,93,6,1,0
282,93,6,1,0
283,93,6,1,0
284,93,6,1,0
285,93,6,1,0
286,93,6,1,0
287,93,6,1,0
288,93,6,1,0
289,93,6,1,0
290,93,6,1,0
291,93,6,1,0
292,93,6,1,0
293,93,6,1,0
294,93,6,1,0
295,93,6,1,0
296,93,6,1,0
297,93,6,1,0
298,93,6,1,0
299,93,6,1,0
300,93,6,1,0
301,93,6,1,0
302,93,6,1,0
303,93,6,1,0
304,93,6,1,0
305,93,6,1,0
306,93,6,1,0
307,93,6,1,0
308,93,6,1,0
309,93,6,1,0
310,93,6,1,0
311,93,6,1,0
312,93,6,1,0
313,93,6,1,0
314,93,6,1,0
315,93,6,1,0
316,93,6,1,0
317,93,6,1,0
318,93,6,1,0
319,93,6,1,0
320,93,6,1,0
321,93,6,1,0
322,93,6,1,0
323,93,6,1,0
324,93,6,1,0
325,93,6,1,0
326,93,6,1,0
327,93,6,1,0
328,93,6,1,0
329,93,6,1,0
330,93,6,1,0
331,93,6,1,0
332,93,6,1,0
333,93,6,1,0
334,93,6,1,0
335,93,6,1,0
336,93,6,1,0
337,93,6,1,0
338,93,6,1,0
339,93,6,1,0
340,93,6,1,0
341,93,6,1,0
342,93,6,1,0
343,93,6,1,0
344,93,6,1,0
345,93,6,1,0
346,93,6,1,0
347,93,6,1,0
348,93,6,1,0
349,93,6,1,0
350,93,6,1,0
351,93,6,1,0
352,93,6,1,0
353,93,6,1,0
354,93,6,1,0
355,93,6,1,0
356,93,6,1,0
357,93,6,1,0
358,93,6,1,0
359,93,6,1,0
360,93,6,1,0
361,93,6,1,0
362,93,6,1,0
363,93,6,1,0
364,93,6,1,0
365,93,6,1,0
366,93,6,1,0
367,93,6,1,0
368,93,6,1,0
369,93,6,1,0
370,93,6,1,0
371,93,6,1,0
372,93,6,1,0
373,93,6,1,0
374,93,6,1,0
375,93,6,1,0
376,93,6,1,0
377,93,6,1,0
378,93,6,1,0
379,93,6,1,0
380,93,6,1,0
381,93,6,1,0
382,93,6,1,0
383,93,6,1,0
384,93,6,1,0
385,93,6,1,0
386,93,6,1,0
387,93,6,1,0
388,93,6,1,0
389,93,6,1,0
390,93,6,1,0
391,93,6,1,0
392,93,6,1,0
393,93,6,1,0
394,93,6,1,0
395,93,6,1,0
396,93,6,1,0
397,93,6,1,0
398,93,6,1,0
399,93,6,1,0
400,93,6,1,0
401,93,6,1,0
402,93,5,1,1
403,92,6,1,1
404,92,5,2,1
405,91,5,3,1
406,91,5,3,1
407,91,5,3,1
408,91,4,4,1
409,91,4,4,1
410,91,3,5,1
411,91,3,5,1
412,91,3,5,1
413,91,2,6,1
414,90,3,6,1
415,90,3,6,1
416,89,4,6,1
417,88,5,6,1
418,88,5,6,1
419,87,6,6,1
420,87,6,6,1
421,86,7,6,1
422,86,7,6,1
423,86,7,6,1
424,86,7,6,1
425,86,7,6,1
426,86,7,6,1
427,86,7,6,1
428,86,7,6,1
429,86,7,6,1
430,85,8,6,1
431,85,8,6,1
432,85,8,6,1
433,84,9,6,1
434,84,9,6,1
435,84,9,6,1
436,84,9,6,1
437,84,9,6,1
438,84,9,6,1
439,84,9,6,1
440,84,9,6,1
441,83,10,6,1
442,83,10,6,1
443,83,10,6,1
444,83,10,6,1
445,83,10,6,1
446,83,10,6,1
447,83,10,6,1
448,82,11,6,1
449,82,11,6,1
450,82,11,6,1
451,82,11,6,1
452,82,11,6,1
453,82,11,6,1
454,82,11,6,1
455,82,11,6,1
456,82,11,6,1
457,82,11,6,1
458,82,11,6,1
459,82,11,6,1
460,82,11,6,1
461,82,11,6,1
462,82,11,6,1
463,82,11,6,1
464,82,11,6,1
465,82,11,6,1
466,82,11,6,1
467,82,11,6,1
468,82,11,6,1
469,81,12,6,1
470,81,12,6,1
471,81,12,6,1
472,81,12,6,1
473,81,12,6,1
474,81,12,6,1
475,81,12,6,1
476,81,12,6,1
477,81,12,6,1
478,81,12,6,1
479,81,12,6,1
480,81,12,6,1
481,81,12,6,1
482,81,12,6,1
483,81,12,6,1
484,81,12,6,1
485,81,12,6,1
486,81,12,6,1
487,81,12,6,1
488,81,12,6,1
489,81,12,6,1
490,81,12,6,1
491,81,12,6,1
492,81,12,6,1
493,81,12,6,1
494,81,12,6,1
495,81,12,6,1
496,81,12,6,1
497,81,12,6,1
498,81,12,6,1
499,81,12,6,1
500,81,12,6,1
501,81,12,6,1
502,81,12,6,1
503,81,12,6,1
504,80,13,6,1
505,80,13,6,1
506,80,13,6,1
507,80,13,6,1
508,80,13,6,1
509,80,13,6,1
510,80,13,6,1
511,80,13,6,1
512,80,13,6,1
513,80,13,6,1
514,80,13,6,1
515,80,13,6,1
516,79,14,6,1
517,79,14,6,1
518,79,14,6,1
519,79,14,6,1
520,79,14,6,1
521,79,14,6,1
522,79,14,6,1
523,79,14,6,1
524,79,14,6,1
525,79,14,6,1
526,79,14,6,1
527,79,14,6,1
528,79,14,6,1
529,79,14,6,1
530,79,14,6,1
531,79,14,6,1
532,79,14,6,1
533,79,14,6,1
534,79,14,6,1
535,79,14,6,1
536,78,15,6,1
537,78,15,6,1
538,78,15,6,1
539,78,15,6,1
540,78,15,6,1
541,78,15,6,1
542,77,16,6,1
543,77,16,6,1
544,77,16,6,1
545,77,16,6,1
546,77,16,6,1
547,77,16,6,1
548,77,16,6,1
549,77,16,6,1
550,77,16,6,1
551,77,16,6,1
552,77,16,6,1
553,77,16,6,1
554,77,16,6,1
555,77,16,6,1
556,77,16,6,1
557,77,16,6,1
558,77,16,6,1
559,77,16,6,1
560,77,16,6,1
561,77,16,6,1
562,77,16,6,1
563,77,16,6,1
564,77,16,6,1
565,77,16,6,1
566,77,16,6,1
567,77,16,6,1
568,77,16,6,1
569,77,16,6,1
570,77,16,6,1
571,77,16,6,1
572,77,16,6,1
573,77,16,6,1
574,77,16,6,1
575,77,16,6,1
576,77,16,6,1
577,77,16,6,1
578,77,16,6,1
579,77,16,6,1
580,77,16,6,1
581,77,16,6,1
582,77,16,6,1
583,76,17,6,1
584,76,17,6,1
585,76,17,6,1
586,75,18,6,1
587,75,18,6,1
588,75,18,6,1
589,75,18,6,1
590,74,19,6,1
591,74,19,6,1
592,74,19,6,1
593,73,20,6,1
594,73,20,6,1
595,73,20,6,1
596,73,20,6,1
597,73,20,6,1
598,73,20,6,1
599,73,20,6,1
600,73,20,6,1
601,73,20,6,1
602,73,20,6,1
603,73,20,5,2
604,72,20,6,2
605,72,20,5,3
606,71,20,5,4
607,70,21,5,4
608,70,21,5,4
609,69,22,4,5
610,69,22,4,5
611,68,23,3,6
612,67,24,3,6
613,66,25,3,6
614,66,25,2,7
615,66,24,3,7
616,66,24,3,7
617,66,23,4,7
618,66,22,5,7
619,66,22,5,7
620,66,21,6,7
621,66,21,6,7
622,66,20,7,7
623,66,20,7,7
624,66,20,7,7
625,66,20,7,7
626,66,20,7,7
627,66,20,7,7
628,66,20,7,7
629,66,20,7,7
630,66,20,7,7
631,66,19,8,7
632,66,19,8,7
633,65,20,8,7
634,65,19,9,7
635,65,19,9,7
636,65,19,9,7
637,65,19,9,7
638,65,19,9,7
639,65,19,9,7
640,65,19,9,7
641,65,19,9,7
642,65,18,10,7
643,65,18,10,7
644,64,19,10,7
645,63,20,10,7
646,63,20,10,7
647,63,20,10,7
648,63,20,10,7
649,63,19,11,7
650,63,19,11,7
651,63,19,11,7
652,63,19,11,7
653,63,19,11,7
654,63,19,11,7
655,63,19,11,7
656,63,19,11,7
657,63,19,11,7
658,63,19,11,7
659,63,19,11,7
660,63,19,11,7
661,63,19,11,7
662,63,19,11,7
663,63,19,11,7
664,63,19,11,7
665,63,19,11,7
666,63,19,11,7
667,62,20,11,7
668,62,20,11,7
669,62,20,11,7
670,62,19,12,7
671,61,20,12,7
672,61,20,12,7
673,61,20,12,7
674,61,20,12,7
675,61,20,12,7
676,61,20,12,7
677,61,20,12,7
678,61,20,12,7
679,61,20,12,7
680,61,20,12,7
681,61,20,12,7
682,61,20,12,7
683,61,20,12,7
684,61,20,12,7
685,61,20,12,7
686,61,20,12,7
687,61,20,12,7
688,60,21,12,7
689,60,21,12,7
690,60,21,12,7
691,60,21,12,7
692,60,21,12,7
693,60,21,12,7
694,60,21,12,7
695,60,21,12,7
696,60,21,12,7
697,60,21,12,7
698,60,21,12,7
699,60,21,12,7
700,60,21,12,7
701,60,21,12,7
702,60,21,12,7
703,60,21,12,7
704,60,21,12,7
705,60,20,13,7
706,60,20,13,7
707,60,20,13,7
708,60,20,13,7
709,60,20,13,7
710,60,20,13,7
711,59,21,13,7
712,59,21,13,7
713,59,21,13,7
714,59,21,13,7
715,59,21,13,7
716,59,21,13,7
717,59,20,14,7
718,59,20,14,7
719,59,20,14,7
720,59,20,14,7
721,59,20,14,7
722,59,20,14,7
723,59,20,14,7
724,59,20,14,7
725,59,20,14,7
726,59,20,14,7
727,59,20,14,7
728,59,20,14,7
729,59,20,14,7
730,59,20,14,7
731,59,20,14,7
732,59,20,14,7
733,59,20,14,7
734,59,20,14,7
735,59,20,14,7
736,59,20,14,7
737,59,19,15,7
738,58,20,15,7
739,58,20,15,7
740,58,20,15,7
741,58,20,15,7
742,58,20,15,7
743,58,19,16,7
744,58,19,16,7
745,58,19,16,7
746,58,19,16,7
747,58,19,16,7
748,58,19,16,7
749,58,19,16,7
750,58,19,16,7
751,58,19,16,7
752,58,19,16,7
753,58,19,16,7
754,58,19,16,7
755,58,19,16,7
756,58,19,16,7
757,58,19,16,7
758,58,19,16,7
759,58,19,16,7
760,58,19,16,7
761,58,19,16,7
762,58,19,16,7
763,57,20,16,7
764,57,20,16,7
765,57,20,16,7
766,57,20,16,7
767,57,20,16,7
768,57,20,16,7
769,57,20,16,7
770,57,20,16,7
771,57,20,16,7
772,57,20,16,7
773,57,20,16,7
774,57,20,16,7
775,57,20,16,7
776,57,20,16,7
777,57,20,16,7
778,57,20,16,7
779,56,21,16,7
780,56,21,16,7
781,55,22,16,7
782,55,22,16,7
783,55,22,16,7
784,54,22,17,7
785,54,22,17,7
786,54,22,17,7
787,53,22,18,7
788,52,23,18,7
789,52,23,18,7
790,52,23,18,7
791,52,22,19,7
792,52,22,19,7
793,52,22,19,7
794,52,21,20,7
795,52,21,20,7
796,52,21,20,7
797,51,22,20,7
798,51,22,20,7
799,51,22,20,7
800,51,22,20,7
801,51,22,20,7
802,49,24,20,7
803,49,24,20,7
804,48,25,20,7
805,48,24,20,8
806,48,24,20,8
807,48,23,20,9
808,48,22,21,9
809,48,22,21,9
810,47,22,22,9
811,47,22,22,9
812,47,21,23,9
813,47,20,24,9
814,47,19,25,9
815,47,19,25,9
816,47,19,24,10
817,47,19,24,10
818,47,19,23,11
819,47,19,22,12
820,47,19,22,12
821,47,19,21,13
822,47,19,21,13
823,47,19,20,14
824,47,19,20,14
825,47,19,20,14
826,47,19,20,14
827,47,19,20,14
828,47,19,20,14
829,47,19,20,14
830,47,19,20,14
831,47,19,20,14
832,47,19,19,15
833,47,19,19,15
834,47,18,20,15
835,47,18,19,16
836,47,18,19,16
837,47,18,19,16
838,47,18,19,16
839,47,18,19,16
840,47,18,19,16
841,47,18,19,16
842,47,18,19,16
843,47,18,18,17
844,47,18,18,17
845,47,17,19,17
846,46,17,20,17
847,45,18,20,17
848,45,18,20,17
849,45,18,20,17
850,45,18,19,18
851,45,18,19,18
852,45,18,19,18
853,45,18,19,18
854,45,18,19,18
855,45,18,19,18
856,45,18,19,18
857,44,19,19,18
858,44,19,19,18
859,44,19,19,18
860,44,19,19,18
861,44,19,19,18
862,44,19,19,18
863,44,19,19,18
864,44,19,19,18
865,44,19,19,18
866,43,20,19,18
867,43,20,19,18
868,43,19,20,18
869,42,20,20,18
870,42,20,20,18
871,42,20,19,19
872,42,19,20,19
873,42,19,20,19
874,42,19,20,19
875,42,19,20,19
876,42,19,20,19
877,42,19,20,19
878,42,19,20,19
879,42,19,20,19
880,41,20,20,19
881,41,20,20,19
882,41,20,20,19
883,41,20,20,19
884,40,21,20,19
885,40,21,20,19
886,40,21,20,19
887,40,21,20,19
888,40,21,20,19
889,40,20,21,19
890,40,20,21,19
891,40,20,21,19
892,40,20,21,19
893,40,20,21,19
894,40,20,21,19
895,39,21,21,19
896,39,21,21,19
897,39,21,21,19
898,39,21,21,19
899,39,21,21,19
900,39,21,21,19
901,39,21,21,19
902,39,21,21,19
903,39,21,21,19
904,39,21,21,19
905,39,21,21,19
906,39,21,20,20
907,39,21,20,20
908,39,21,20,20
909,39,21,20,20
910,39,21,20,20
911,39,21,20,20
912,39,20,21,20
913,38,21,21,20
914,38,21,21,20
915,38,21,21,20
916,38,21,21,20
917,38,21,21,20
918,38,21,20,21
919,38,21,20,21
920,38,21,20,21
921,38,21,20,21
922,38,21,20,21
923,38,21,20,21
924,37,22,20,21
925,37,22,20,21
926,37,22,20,21
927,36,23,20,21
928,36,23,20,21
929,36,23,20,21
930,36,23,20,21
931,36,23,20,21
932,36,23,20,21
933,36,23,20,21
934,36,23,20,21
935,36,23,20,21
936,36,23,20,21
937,35,24,20,21
938,35,24,19,22
939,35,23,20,22
940,35,23,20,22
941,35,23,20,22
942,34,24,20,22
943,34,24,20,22
944,33,25,19,23
945,33,25,19,23
946,33,25,19,23
947,33,25,19,23
948,33,25,19,23
949,33,25,19,23
950,33,25,19,23
951,33,25,19,23
952,33,25,19,23
953,33,25,19,23
954,32,26,19,23
955,32,26,19,23
956,32,26,19,23
957,32,26,19,23
958,32,26,19,23
959,32,26,19,23
960,32,26,19,23
961,32,26,19,23
962,32,26,19,23
963,32,26,19,23
964,32,25,20,23
965,32,25,20,23
966,32,25,20,23
967,32,25,20,23
968,32,25,20,23
969,32,25,20,23
970,32,25,20,23
971,32,25,20,23
972,31,26,20,23
973,31,26,20,23
974,31,26,20,23
975,31,26,20,23
976,31,26,20,23
977,30,27,20,23
978,30,27,20,23
979,30,27,20,23
980,30,26,21,23
981,30,26,21,23
982,30,25,22,23
983,30,25,22,23
984,30,25,22,23
985,30,24,22,24
986,30,24,22,24
987,30,24,22,24
988,30,23,22,25
989,30,22,23,25
990,30,22,23,25
991,30,22,23,25
992,29,23,22,26
993,28,24,22,26
994,28,24,22,26
995,28,24,21,27
996,28,24,21,27
997,28,24,21,27
998,28,23,22,27
999,28,23,22,27
1000,28,23,22,27
1001,28,23,22,27
1002,28,23,22,27
1003,28,21,24,27
1004,28,21,24,27
1005,28,20,25,27
1006,28,20,24,28
1007,28,20,24,28
1008,28,20,23,29
1009,28,20,22,30
1010,28,20,22,30
1011,28,19,22,31
1012,27,20,22,31
1013,27,20,21,32
1014,27,20,20,33
1015,27,20,19,34
1016,27,20,19,34
1017,27,20,19,34
1018,27,20,19,34
1019,27,20,19,34
1020,27,20,19,34
1021,27,20,19,34
1022,27,20,19,34
1023,27,20,19,34
1024,27,20,19,34
1025,27,20,19,34
1026,27,20,19,34
1027,27,20,19,34
1028,27,20,19,34
1029,26,21,19,34
1030,26,21,19,34
1031,26,21,19,34
1032,25,22,19,34
1033,25,22,19,34
1034,25,22,19,34
1035,25,22,18,35
1036,25,22,18,35
1037,25,22,18,35
1038,25,22,18,35
1039,25,22,18,35
1040,25,22,18,35
1041,25,22,18,35
1042,25,22,18,35
1043,25,22,18,35
1044,25,22,18,35
1045,25,22,18,35
1046,25,22,17,36
1047,25,21,17,37
1048,25,20,18,37
1049,25,20,18,37
1050,25,20,18,37
1051,25,20,18,37
1052,25,20,18,37
1053,25,20,18,37
1054,25,20,18,37
1055,25,20,18,37
1056,25,20,18,37
1057,25,20,18,37
1058,25,19,19,37
1059,25,19,19,37
1060,25,19,19,37
1061,25,19,19,37
1062,25,19,19,37
1063,24,20,19,37
1064,24,20,19,37
1065,24,20,19,37
1066,24,20,19,37
1067,24,19,20,37
1068,24,19,20,37
1069,24,19,19,38
1070,24,18,20,38
1071,24,18,20,38
1072,24,18,20,38
1073,24,18,19,39
1074,24,18,19,39
1075,24,18,19,39
1076,24,18,19,39
1077,24,18,19,39
1078,24,18,19,39
1079,24,18,19,39
1080,24,18,19,39
1081,24,17,20,39
1082,24,17,20,39
1083,24,17,20,39
1084,24,17,20,39
1085,24,16,21,39
1086,24,16,21,39
1087,24,16,21,39
1088,24,16,21,39
1089,24,16,21,39
1090,24,16,20,40
1091,24,16,20,40
1092,24,16,20,40
1093,24,16,20,40
1094,24,16,20,40
1095,24,16,20,40
1096,24,15,21,40
1097,24,15,21,40
1098,24,15,21,40
1099,24,15,21,40
1100,24,15,21,40
1101,24,15,21,40
1102,24,15,21,40
1103,24,15,21,40
1104,24,15,21,40
1105,24,15,21,40
1106,24,15,21,40
1107,24,15,21,40
1108,24,15,21,40
1109,24,15,21,40
1110,24,15,21,40
1111,24,15,21,40
1112,24,15,21,40
1113,24,15,20,41
1114,24,14,21,41
1115,24,14,21,41
1116,24,14,21,41
1117,24,14,21,41
1118,24,14,21,41
1119,24,14,21,41
1120,24,14,21,41
1121,24,14,21,41
1122,23,15,21,41
1123,23,15,21,41
1124,23,15,21,41
1125,23,14,22,41
1126,23,14,22,41
1127,23,14,22,41
1128,23,13,23,41
1129,23,13,23,41
1130,23,13,23,41
1131,23,13,23,41
1132,23,13,23,41
1133,23,13,23,41
1134,23,13,23,41
1135,23,13,23,41
1136,23,13,23,41
1137,23,13,23,41
1138,23,12,24,41
1139,23,12,24,41
1140,23,12,23,42
1141,23,12,23,42
1142,23,12,23,42
1143,23,11,24,42
1144,23,11,24,42
1145,23,10,25,42
1146,23,10,25,42
1147,23,10,25,42
1148,23,10,25,42
1149,23,10,25,42
1150,23,10,25,42
1151,22,11,25,42
1152,22,11,25,42
1153,22,11,25,42
1154,22,11,25,42
1155,21,11,26,42
1156,21,11,26,42
1157,21,11,26,42
1158,21,11,26,42
1159,20,12,26,42
1160,20,12,26,42
1161,20,12,26,42
1162,20,12,26,42
1163,20,12,26,42
1164,20,12,26,42
1165,20,12,25,43
1166,20,12,25,43
1167,20,12,25,43
1168,20,12,25,43
1169,20,12,25,43
1170,20,12,25,43
1171,20,12,25,43
1172,20,12,25,43
1173,20,11,26,43
1174,20,11,26,43
1175,20,11,26,43
1176,20,11,26,43
1177,20,11,26,43
1178,19,11,27,43
1179,19,11,27,43
1180,19,11,27,43
1181,19,11,26,44
1182,19,11,26,44
1183,19,11,25,45
1184,19,11,25,45
1185,19,11,25,45
1186,19,11,24,46
1187,19,11,24,46
1188,19,11,24,46
1189,19,11,23,47
1190,19,11,22,48
1191,19,11,22,48
1192,19,11,22,48
1193,19,10,23,48
1194,19,9,24,48
1195,19,9,24,48
1196,19,9,24,48
1197,19,9,24,48
1198,19,9,24,48
1199,19,9,23,49
1200,19,9,23,49
1201,19,9,23,49
1202,19,9,23,49
1203,19,9,23,49
1204,19,9,21,51
1205,19,9,21,51
1206,19,9,20,52
1207,19,9,20,52
1208,19,9,20,52
1209,19,9,20,52
1210,19,9,20,52
1211,19,9,20,52
1212,19,9,19,53
1213,19,8,20,53
1214,19,8,20,53
1215,18,9,20,53
1216,18,9,20,53
1217,18,9,20,53
1218,18,9,20,53
1219,18,9,20,53
1220,18,9,20,53
1221,18,9,20,53
1222,18,9,20,53
1223,18,9,20,53
1224,18,9,20,53
1225,18,9,20,53
1226,18,9,20,53
1227,18,9,20,53
1228,18,9,20,53
1229,18,9,20,53
1230,18,8,21,53
1231,18,8,21,53
1232,18,8,21,53
1233,18,7,22,53
1234,18,7,22,53
1235,18,7,22,53
1236,18,7,22,53
1237,18,7,22,53
1238,18,7,22,53
1239,18,7,22,53
1240,18,7,22,53
1241,18,7,22,53
1242,18,7,22,53
1243,18,7,22,53
1244,18,7,22,53
1245,18,7,22,53
1246,18,7,22,53
1247,18,7,22,53
1248,18,7,21,54
1249,18,7,20,55
1250,18,7,20,55
1251,18,7,20,55
1252,18,7,20,55
1253,18,7,20,55
1254,18,7,20,55
1255,18,7,20,55
1256,18,7,20,55
1257,18,7,20,55
1258,18,7,20,55
1259,18,7,19,56
1260,18,7,19,56
1261,18,7,19,56
1262,18,7,19,56
1263,18,7,19,56
1264,18,6,20,56
1265,18,6,20,56
1266,18,6,20,56
1267,17,7,20,56
1268,17,7,19,57
1269,17,7,19,57
1270,17,7,19,57
1271,17,7,18,58
1272,17,7,18,58
1273,17,7,18,58
1274,17,7,18,58
1275,17,7,18,58
1276,17,7,18,58
1277,17,7,18,58
1278,17,7,18,58
1279,17,7,18,58
1280,17,7,18,58
1281,17,7,18,58
1282,17,7,17,59
1283,17,7,17,59
1284,17,7,17,59
1285,17,7,17,59
1286,17,7,16,60
1287,17,7,16,60
1288,17,7,16,60
1289,17,7,16,60
1290,17,7,16,60
1291,17,7,16,60
1292,17,7,16,60
1293,17,7,16,60
1294,17,7,16,60
1295,17,7,16,60
1296,17,7,16,60
1297,17,7,15,61
1298,17,7,15,61
1299,17,7,15,61
1300,17,7,15,61
1301,17,7,15,61
1302,17,7,15,61
1303,17,7,15,61
1304,17,7,15,61
1305,17,7,15,61
1306,17,7,15,61
1307,17,7,15,61
1308,17,7,15,61
1309,17,7,15,61
1310,17,7,15,61
1311,17,7,15,61
1312,17,7,15,61
1313,17,7,15,61
1314,17,7,15,61
1315,17,7,14,62
1316,17,7,14,62
1317,16,8,14,62
1318,16,8,14,62
1319,16,8,14,62
1320,16,8,14,62
1321,16,8,14,62
1322,16,8,14,62
1323,16,7,15,62
1324,16,7,15,62
1325,16,7,15,62
1326,16,7,14,63
1327,16,7,14,63
1328,16,7,14,63
1329,16,7,13,64
1330,16,7,13,64
1331,16,7,13,64
1332,16,7,13,64
1333,16,7,13,64
1334,16,7,13,64
1335,16,7,13,64
1336,16,7,13,64
1337,16,7,13,64
1338,16,7,13,64
1339,16,7,12,65
1340,15,8,12,65
1341,15,8,12,65
1342,15,8,12,65
1343,15,8,12,65
1344,15,8,11,66
1345,15,8,11,66
1346,15,8,10,67
1347,15,8,10,67
1348,15,8,10,67
1349,15,8,10,67
1350,15,8,10,67
1351,15,8,10,67
1352,15,7,11,67
1353,15,7,11,67
1354,15,7,11,67
1355,15,7,11,67
1356,15,6,11,68
1357,15,6,11,68
1358,15,6,11,68
1359,15,6,11,68
1360,15,5,12,68
1361,15,5,12,68
1362,15,5,12,68
1363,15,5,12,68
1364,15,5,12,68
1365,15,5,12,68
1366,15,5,12,68
1367,15,5,12,68
1368,15,5,12,68
1369,14,6,12,68
1370,14,6,12,68
1371,14,6,12,68
1372,14,6,12,68
1373,14,6,12,68
1374,14,6,11,69
1375,14,6,11,69
1376,14,6,11,69
1377,14,6,11,69
1378,14,6,11,69
1379,14,5,11,70
1380,14,5,11,70
1381,14,5,11,70
1382,14,5,11,70
1383,14,5,11,70
1384,14,5,11,70
1385,14,5,11,70
1386,14,5,11,70
1387,14,5,11,70
1388,14,5,11,70
1389,14,5,11,70
1390,14,5,11,70
1391,14,5,11,70
1392,14,5,11,70
1393,14,5,11,70
1394,14,5,10,71
1395,14,5,9,72
1396,14,5,9,72
1397,14,5,9,72
1398,14,5,9,72
1399,14,5,9,72
1400,14,5,9,72
1401,14,5,9,72
1402,14,5,9,72
1403,14,5,9,72
1404,14,5,9,72
1405,14,5,9,72
1406,14,5,9,72
1407,14,5,9,72
1408,14,5,9,72
1409,14,5,9,72
1410,14,5,9,72
1411,14,5,9,72
1412,14,5,9,72
1413,14,5,9,72
1414,14,5,8,73
1415,14,5,8,73
1416,14,4,9,73
1417,14,4,9,73
1418,14,4,9,73
1419,14,4,9,73
1420,14,4,9,73
1421,14,4,9,73
1422,14,4,9,73
1423,14,4,9,73
1424,14,4,9,73
1425,14,4,9,73
1426,14,4,9,73
1427,14,4,9,73
1428,14,4,9,73
1429,14,4,9,73
1430,14,4,9,73
1431,14,4,8,74
1432,14,4,8,74
1433,14,4,8,74
1434,14,4,7,75
1435,14,4,7,75
1436,14,4,7,75
1437,14,4,7,75
1438,14,4,7,75
1439,14,4,7,75
1440,14,4,7,75
1441,14,4,7,75
1442,14,4,7,75
1443,14,4,7,75
1444,14,4,7,75
1445,14,4,7,75
1446,14,4,7,75
1447,14,4,7,75
1448,14,4,7,75
1449,14,4,7,75
1450,14,4,7,75
1451,14,4,7,75
1452,14,4,7,75
1453,14,4,7,75
1454,14,4,7,75
1455,14,4,7,75
1456,14,4,7,75
1457,14,4,7,75
1458,14,4,7,75
1459,14,4,7,75
1460,14,4,7,75
1461,14,4,7,75
1462,14,4,7,75
1463,14,4,7,75
1464,14,4,7,75
1465,14,4,6,76
1466,14,4,6,76
1467,14,4,6,76
1468,14,3,7,76
1469,14,3,7,76
1470,14,3,7,76
1471,14,3,7,76
1472,14,3,7,76
1473,14,3,7,76
1474,14,3,7,76
1475,14,3,7,76
1476,14,3,7,76
1477,14,3,7,76
1478,14,3,7,76
1479,14,3,7,76
1480,14,3,7,76
1481,14,3,7,76
1482,14,3,7,76
1483,14,3,7,76
1484,14,3,7,76
1485,14,3,7,76
1486,14,3,7,76
1487,14,3,7,76
1488,14,3,7,76
1489,14,3,7,76
1490,14,3,7,76
1491,14,3,7,76
1492,14,3,7,76
1493,14,3,7,76
1494,14,3,7,76
1495,14,3,7,76
1496,14,3,7,76
1497,14,3,7,76
1498,14,3,7,76
1499,14,3,7,76
1500,14,3,7,76
1501,14,3,7,76
1502,14,3,7,76
1503,14,3,7,76
1504,14,3,7,76
1505,14,3,7,76
1506,14,3,7,76
1507,14,3,7,76
1508,14,3,7,76
1509,14,3,7,76
1510,14,3,7,76
1511,14,3,7,76
1512,14,3,7,76
1513,14,3,7,76
1514,14,3,7,76
1515,14,3,7,76
1516,14,3,7,76
1517,14,3,7,76
1518,14,2,8,76
1519,14,2,8,76
1520,14,2,8,76
1521,14,2,8,76
1522,14,2,8,76
1523,14,2,8,76
1524,14,2,7,77
1525,14,2,7,77
1526,14,2,7,77
1527,14,2,7,77
1528,14,2,7,77
1529,14,2,7,77
1530,14,2,7,77
1531,14,2,7,77
1532,14,2,7,77
1533,14,2,7,77
1534,14,2,7,77
1535,14,2,7,77
1536,14,2,7,77
1537,14,2,7,77
1538,14,2,7,77
1539,14,2,7,77
1540,14,2,7,77
1541,14,1,8,77
1542,14,1,8,77
1543,14,1,8,77
1544,14,1,8,77
1545,14,1,8,77
1546,14,1,8,77
1547,14,1,8,77
1548,14,1,8,77
1549,14,1,8,77
1550,14,1,8,77
1551,14,1,8,77
1552,14,1,8,77
1553,14,1,7,78
1554,14,1,7,78
1555,14,1,7,78
1556,14,1,7,78
1557,14,1,6,79
1558,14,1,6,79
1559,14,1,6,79
1560,14,1,6,79
1561,14,1,5,80
1562,14,1,5,80
1563,14,1,5,80
1564,14,1,5,80
1565,14,1,5,80
1566,14,1,5,80
1567,14,1,5,80
1568,14,1,5,80
1569,14,1,5,80
1570,14,0,6,80
1571,14,0,6,80
1572,14,0,6,80
1573,14,0,6,80
1574,14,0,6,80
1575,14,0,6,80
1576,14,0,6,80
1577,14,0,6,80
1578,14,0,6,80
1579,14,0,6,80
1580,14,0,5,81
1581,14,0,5,81
1582,14,0,5,81
1583,14,0,5,81
1584,14,0,5,81
1585,14,0,5,81
1586,14,0,5,81
1587,14,0,5,81
1588,14,0,5,81
1589,14,0,5,81
1590,14,0,5,81
1591,14,0,5,81
1592,14,0,5,81
1593,14,0,5,81
1594,14,0,5,81
1595,14,0,5,81
1596,14,0,5,81
1597,14,0,5,81
1598,14,0,5,81
1599,14,0,5,81
1600,14,0,5,81
1601,14,0,5,81
1602,14,0,5,81
1603,14,0,5,81
1604,14,0,5,81
1605,14,0,5,81
1606,14,0,5,81
1607,14,0,5,81
1608,14,0,5,81
1609,14,0,5,81
1610,14,0,5,81
1611,14,0,5,81
1612,14,0,5,81
1613,14,0,5,81
1614,14,0,5,81
1615,14,0,5,81
1616,14,0,5,81
1617,14,0,4,82
1618,14,0,4,82
1619,14,0,4,82
1620,14,0,4,82
1621,14,0,4,82
1622,14,0,4,82
1623,14,0,4,82
1624,14,0,4,82
1625,14,0,4,82
1626,14,0,4,82
1627,14,0,4,82
1628,14,0,4,82
1629,14,0,4,82
1630,14,0,4,82
1631,14,0,4,82
1632,14,0,4,82
1633,14,0,4,82
1634,14,0,4,82
1635,14,0,4,82
1636,14,0,4,82
1637,14,0,4,82
1638,14,0,4,82
1639,14,0,4,82
1640,14,0,4,82
1641,14,0,4,82
1642,14,0,4,82
1643,14,0,4,82
1644,14,0,4,82
1645,14,0,4,82
1646,14,0,4,82
1647,14,0,4,82
1648,14,0,4,82
1649,14,0,4,82
1650,14,0,4,82
1651,14,0,4,82
1652,14,0,4,82
1653,14,0,4,82
1654,14,0,4,82
1655,14,0,4,82
1656,14,0,4,82
1657,14,0,4,82
1658,14,0,4,82
1659,14,0,4,82
1660,14,0,4,82
1661,14,0,4,82
1662,14,0,4,82
1663,14,0,4,82
1664,14,0,4,82
1665,14,0,4,82
1666,14,0,4,82
1667,14,0,4,82
1668,14,0,4,82
1669,14,0,3,83
1670,14,0,3,83
1671,14,0,3,83
1672,14,0,3,83
1673,14,0,3,83
1674,14,0,3,83
1675,14,0,3,83
1676,14,0,3,83
1677,14,0,3,83
1678,14,0,3,83
1679,14,0,3,83
1680,14,0,3,83
1681,14,0,3,83
1682,14,0,3,83
1683,14,0,3,83
1684,14,0,3,83
1685,14,0,3,83
1686,14,0,3,83
1687,14,0,3,83
1688,14,0,3,83
1689,14,0,3,83
1690,14,0,3,83
1691,14,0,3,83
1692,14,0,3,83
1693,14,0,3,83
1694,14,0,3,83
1695,14,0,3,83
1696,14,0,3,83
1697,14,0,3,83
1698,14,0,3,83
1699,14,0,3,83
1700,14,0,3,83
1701,14,0,3,83
1702,14,0,3,83
1703,14,0,3,83
1704,14,0,3,83
1705,14,0,3,83
1706,14,0,3,83
1707,14,0,3,83
1708,14,0,3,83
1709,14,0,3,83
1710,14,0,3,83
1711,14,0,3,83
1712,14,0,3,83
1713,14,0,3,83
1714,14,0,3,83
1715,14,0,3,83
1716,14,0,3,83
1717,14,0,3,83
1718,14,0,3,83
1719,14,0,2,84
1720,14,0,2,84
1721,14,0,2,84
1722,14,0,2,84
1723,14,0,2,84
1724,14,0,2,84
1725,14,0,2,84
1726,14,0,2,84
1727,14,0,2,84
1728,14,0,2,84
1729,14,0,2,84
1730,14,0,2,84
1731,14,0,2,84
1732,14,0,2,84
1733,14,0,2,84
1734,14,0,2,84
1735,14,0,2,84
1736,14,0,2,84
1737,14,0,2,84
1738,14,0,2,84
1739,14,0,2,84
1740,14,0,2,84
1741,14,0,2,84
1742,14,0,1,85
1743,14,0,1,85
1744,14,0,1,85
1745,14,0,1,85
1746,14,0,1,85
1747,14,0,1,85
1748,14,0,1,85
1749,14,0,1,85
1750,14,0,1,85
1751,14,0,1,85
1752,14,0,1,85
1753,14,0,1,85
1754,14,0,1,85
1755,14,0,1,85
1756,14,0,1,85
1757,14,0,1,85
1758,14,0,1,85
1759,14,0,1,85
1760,14,0,1,85
1761,14,0,1,85
1762,14,0,1,85
1763,14,0,1,85
1764,14,0,1,85
1765,14,0,1,85
1766,14,0,1,85
1767,14,0,1,85
1768,14,0,1,85
1769,14,0,1,85
1770,14,0,1,85
1771,14,0,0,86
1772,14,0,0,86
1773,14,0,0,86
1774,14,0,0,86
1775,14,0,0,86
1776,14,0,0,86
1777,14,0,0,86
1778,14,0,0,86
1779,14,0,0,86
1780,14,0,0,86
1781,14,0,0,86
1782,14,0,0,86
1783,14,0,0,86
1784,14,0,0,86
1785,14,0,0,86
1786,14,0,0,86
1787,14,0,0,86
1788,14,0,0,86
1789,14,0,0,86
1790,14,0,0,86
1791,14,0,0,86
1792,14,0,0,86
1793,14,0,0,86
1794,14,0,0,86
1795,14,0,0,86
1796,14,0,0,86
1797,14,0,0,86
1798,14,0,0,86
1799,14,0,0,86
1800,14,0,0,86
1801,14,0,0,86
1802,14,0,0,86
1803,14,0,0,86
1804,14,0,0,86
1805,14,0,0,86
1806,14,0,0,86
1807,14,0,0,86
1808,14,0,0,86
1809,14,0,0,86
1810,14,0,0,86
1811,14,0,0,86
1812,14,0,0,86
1813,14,0,0,86
1814,14,0,0,86
1815,14,0,0,86
1816,14,0,0,86
1817,14,0,0,86
1818,14,0,0,86
1819,14,0,0,86
1820,14,0,0,86
1821,14,0,0,86
1822,14,0,0,86
1823,14,0,0,86
1824,14,0,0,86
1825,14,0,0,86
1826,14,0,0,86
1827,14,0,0,86
1828,14,0,0,86
1829,14,0,0,86
1830,14,0,0,86
1831,14,0,0,86
1832,14,0,0,86
1833,14,0,0,86
1834,14,0,0,86
1835,14,0,0,86
1836,14,0,0,86
1837,14,0,0,86
1838,14,0,0,86
1839,14,0,0,86
1840,14,0,0,86
1841,14,0,0,86
1842,14,0,0,86
1843,14,0,0,86
1844,14,0,0,86
1845,14,0,0,86
1846,14,0,0,86
1847,14,0,0,86
1848,14,0,0,86
1849,14,0,0,86
1850,14,0,0,86
1851,14,0,0,86
1852,14,0,0,86
1853,14,0,0,86
1854,14,0,0,86
1855,14,0,0,86
1856,14,0,0,86
1857,14,0,0,86
1858,14,0,0,86
1859,14,0,0,86
1860,14,0,0,86
1861,14,0,0,86
1862,14,0,0,86
1863,14,0,0,86
1864,14,0,0,86
1865,14,0,0,86
1866,14,0,0,86
1867,14,0,0,86
1868,14,0,0,86
1869,14,0,0,86
1870,14,0,0,86
1871,14,0,0,86
1872,14,0,0,86
1873,14,0,0,86
1874,14,0,0,86
1875,14,0,0,86
1876,14,0,0,86
1877,14,0,0,86
1878,14,0,0,86
1879,14,0,0,86
1880,14,0,0,86
1881,14,0,0,86
1882,14,0,0,86
1883,14,0,0,86
1884,14,0,0,86
1885,14,0,0,86
1886,14,0,0,86
1887,14,0,0,86
1888,14,0,0,86
1889,14,0,0,86
1890,14,0,0,86
1891,14,0,0,86
1892,14,0,0,86
1893,14,0,0,86
1894,14,0,0,86
1895,14,0,0,86
1896,14,0,0,86
1897,14,0,0,86
1898,14,0,0,86
1899,14,0,0,86
1900,14,0,0,86
1901,14,0,0,86
1902,14,0,0,86
1903,14,0,0,86
1904,14,0,0,86
1905,14,0,0,86
1906,14,0,0,86
1907,14,0,0,86
1908,14,0,0,86
1909,14,0,0,86
1910,14,0,0,86
1911,14,0,0,86
1912,14,0,0,86
1913,14,0,0,86
1914,14,0,0,86
1915,14,0,0,86
1916,14,0,0,86
1917,14,0,0,86
1918,14,0,0,86
1919,14,0,0,86
1920,14,0,0,86
1921,14,0,0,86
1922,14,0,0,86
1923,14,0,0,86
1924,14,0,0,86
1925,14,0,0,86
1926,14,0,0,86
1927,14,0,0,86
1928,14,0,0,86
1929,14,0,0,86
1930,14,0,0,86
1931,14,0,0,86
1932,14,0,0,86
1933,14,0,0,86
1934,14,0,0,86
1935,14,0,0,86
1936,14,0,0,86
1937,14,0,0,86
1938,14,0,0,86
1939,14,0,0,86
1940,14,0,0,86
1941,14,0,0,86
1942,14,0,0,86
1943,14,0,0,86
1944,14,0,0,86
1945,14,0,0,86
1946,14,0,0,86
1947,14,0,0,86
1948,14,0,0,86
1949,14,0,0,86
1950,14,0,0,86
1951,14,0,0,86
1952,14,0,0,86
1953,14,0,0,86
1954,14,0,0,86
1955,14,0,0,86
1956,14,0,0,86
1957,14,0,0,86
1958,14,0,0,86
1959,14,0,0,86
1960,14,0,0,86
1961,14,0,0,86
1962,14,0,0,86
1963,14,0,0,86
1964,14,0,0,86
1965,14,0,0,86
1966,14,0,0,86
1967,14,0,0,86
1968,14,0,0,86
1969,14,0,0,86
1970,14,0,0,86
1971,14,0,0,86
1972,14,0,0,86
1973,14,0,0,86
1974,14,0,0,86
1975,14,0,0,86
1976,14,0,0,86
1977,14,0,0,86
1978,14,0,0,86
1979,14,0,0,86
1980,14,0,0,86
1981,14,0,0,86
1982,14,0,0,86
1983,14,0,0,86
1984,14,0,0,86
1985,14,0,0,86
1986,14,0,0,86
1987,14,0,0,86
1988,14,0,0,86
1989,14,0,0,86
1990,14,0,0,86
1991,14,0,0,86
1992,14,0,0,86
1993,14,0,0,86
1994,14,0,0,86
1995,14,0,0,86
1996,14,0,0,86
1997,14,0,0,86
1998,14,0,0,86
1999,14,0,0,86
2000,14,0,0,86
