"tick","susceptible","exposed","infectious","recovered"
0,99,1,0,0
1,99,1,0,0
2,99,1,0,0
3,99,1,0,0
4,99,1,0,0
5,99,1,0,0
6,99,1,0,0
7,99,1,0,0
8,99,1,0,0
9,99,1,0,0
10,99,1,0,0
11,99,1,0,0
12,99,1,0,0
13,99,1,0,0
14,99,1,0,0
15,99,1,0,0
16,99,1,0,0
17,99,1,0,0
18,99,1,0,0
19,99,1,0,0
20,99,1,0,0
21,99,1,0,0
22,99,1,0,0
23,99,1,0,0
24,99,1,0,0
25,99,1,0,0
26,99,1,0,0
27,99,1,0,0
28,99,1,0,0
29,99,1,0,0
30,99,1,0,0
31,99,1,0,0
32,99,1,0,0
33,99,1,0,0
34,99,1,0,0
35,99,1,0,0
36,99,1,0,0
37,99,1,0,0
38,99,1,0,0
39,99,1,0,0
40,99,1,0,0
41,99,1,0,0
42,99,1,0,0
43,99,1,0,0
44,99,1,0,0
45,99,1,0,0
46,99,1,0,0
47,99,1,0,0
48,99,1,0,0
49,99,1,0,0
50,99,1,0,0
51,99,1,0,0
52,99,1,0,0
53,99,1,0,0
54,99,1,0,0
55,99,1,0,0
56,99,1,0,0
57,99,1,0,0
58,99,1,0,0
59,99,1,0,0
60,99,1,0,0
61,99,1,0,0
62,99,1,0,0
63,99,1,0,0
64,99,1,0,0
65,99,1,0,0
66,99,1,0,0
67,99,1,0,0
68,99,1,0,0
69,99,1,0,0
70,99,1,0,0
71,99,1,0,0
72,99,1,0,0
73,99,1,0,0
74,99,1,0,0
75,99,1,0,0
76,99,1,0,0
77,99,1,0,0
78,99,1,0,0
79,99,1,0,0
80,99,1,0,0
81,99,1,0,0
82,99,1,0,0
83,99,1,0,0
84,99,1,0,0
85,99,1,0,0
86,99,1,0,0
87,99,1,0,0
88,99,1,0,0
89,99,1,0,0
90,99,1,0,0
91,99,1,0,0
92,99,1,0,0
93,99,1,0,0
94,99,1,0,0
95,99,1,0,0
96,99,1,0,0
97,99,1,0,0
98,99,1,0,0
99,99,1,0,0
100,99,1,0,0
101,99,1,0,0
102,99,1,0,0
103,99,1,0,0
104,99,1,0,0
105,99,1,0,0
106,99,1,0,0
107,99,1,0,0
108,99,1,0,0
109,99,1,0,0
110,99,1,0,0
111,99,1,0,0
112,99,1,0,0
113,99,1,0,0
114,99,1,0,0
115,99,1,0,0
116,99,1,0,0
117,99,1,0,0
118,99,1,0,0
119,99,1,0,0
120,99,1,0,0
121,99,1,0,0
122,99,1,0,0
123,99,1,0,0
124,99,1,0,0
125,99,1,0,0
126,99,1,0,0
127,99,1,0,0
128,99,1,0,0
129,99,1,0,0
130,99,1,0,0
131,99,1,0,0
132,99,1,0,0
133,99,1,0,0
134,99,1,0,0
135,99,1,0,0
136,99,1,0,0
137,99,1,0,0
138,99,1,0,0
139,99,1,0,0
140,99,1,0,0
141,99,1,0,0
142,99,1,0,0
143,99,1,0,0
144,99,1,0,0
145,99,1,0,0
146,99,1,0,0
147,99,1,0,0
148,99,1,0,0
149,99,1,0,0
150,99,1,0,0
151,99,1,0,0
152,99,1,0,0
153,99,1,0,0
154,99,1,0,0
155,99,1,0,0
156,99,1,0,0
157,99,1,0,0
158,99,1,0,0
159,99,1,0,0
160,99,1,0,0
161,99,1,0,0
162,99,1,0,0
163,99,1,0,0
164,99,1,0,0
165,99,1,0,0
166,99,1,0,0
167,99,1,0,0
168,99,1,0,0
169,99,1,0,0
170,99,1,0,0
171,99,1,0,0
172,99,1,0,0
173,99,1,0,0
174,99,1,0,0
175,99,1,0,0
176,99,1,0,0
177,99,1,0,0
178,99,1,0,0
179,99,1,0,0
180,99,1,0,0
181,99,1,0,0
182,99,1,0,0
183,99,1,0,0
184,99,1,0,0
185,99,1,0,0
186,99,1,0,0
187,99,1,0,0
188,99,1,0,0
189,99,1,0,0
190,99,1,0,0
191,99,1,0,0
192,99,1,0,0
193,99,1,0,0
194,99,1,0,0
195,99,1,0,0
196,99,1,0,0
197,99,1,0,0
198,99,1,0,0
199,99,1,0,0
200,99,1,0,0
201,99,0,1,0
202,99,0,1,0
203,99,0,1,0
204,99,0,1,0
205,99,0,1,0
206,99,0,1,0
207,99,0,1,0
208,99,0,1,0
209,99,0,1,0
210,99,0,1,0
211,99,0,1,0
212,99,0,1,0
213,99,0,1,0
214,99,0,1,0
215,99,0,1,0
216,99,0,1,0
217,99,0,1,0
218,99,0,1,0
219,99,0,1,0
220,99,0,1,0
221,99,0,1,0
222,99,0,1,0
223,99,0,1,0
224,99,0,1,0
225,99,0,1,0
226,99,0,1,0
227,99,0,1,0
228,99,0,1,0
229,99,0,1,0
230,99,0,1,0
231,99,0,1,0
232,99,0,1,0
233,99,0,1,0
234,99,0,1,0
235,99,0,1,0
236,99,0,1,0
237,99,0,1,0
238,99,0,1,0
239,99,0,1,0
240,99,0,1,0
241,99,0,1,0
242,99,0,1,0
243,99,0,1,0
244,99,0,1,0
245,99,0,1,0
246,99,0,1,0
247,99,0,1,0
248,99,0,1,0
249,99,0,1,0
250,99,0,1,0
251,99,0,1,0
252,99,0,1,0
253,99,0,1,0
254,99,0,1,0
255,99,0,1,0
256,99,0,1,0
257,99,0,1,0
258,99,0,1,0
259,99,0,1,0
260,99,0,1,0
261,99,0,1,0
262,99,0,1,0
263,99,0,1,0
264,99,0,1,0
265,99,0,1,0
266,99,0,1,0
267,99,0,1,0
268,99,0,1,0
269,99,0,1,0
270,99,0,1,0
271,99,0,1,0
272,99,0,1,0
273,99,0,1,0
274,99,0,1,0
275,99,0,1,0
276,99,0,1,0
277,99,0,1,0
278,99,0,1,0
279,99,0,1,0
280,99,0,1,0
281,99,0,1,0
282,99,0,1,0
283,99,0,1,0
284,99,0,1,0
285,99,0,1,0
286,99,0,1,0
287,99,0,1,0
288,99,0,1,0
289,99,0,1,0
290,99,0,1,0
291,99,0,1,0
292,99,0,1,0
293,99,0,1,0
294,99,0,1,0
295,99,0,1,0
296,99,0,1,0
297,99,0,1,0
298,99,0,1,0
299,99,0,1,0
300,99,0,1,0
301,99,0,1,0
302,99,0,1,0
303,99,0,1,0
304,99,0,1,0
305,99,0,1,0
306,99,0,1,0
307,99,0,1,0
308,99,0,1,0
309,99,0,1,0
310,99,0,1,0
311,99,0,1,0
312,99,0,1,0
313,99,0,1,0
314,99,0,1,0
315,99,0,1,0
316,99,0,1,0
317,98,1,1,0
318,98,1,1,0
319,98,1,1,0
320,98,1,1,0
321,98,1,1,0
322,98,1,1,0
323,98,1,1,0
324,98,1,1,0
325,98,1,1,0
326,98,1,1,0
327,98,1,1,0
328,98,1,1,0
329,98,1,1,0
330,98,1,1,0
331,98,1,1,0
332,98,1,1,0
333,98,1,1,0
334,98,1,1,0
335,98,1,1,0
336,98,1,1,0
337,98,1,1,0
338,98,1,1,0
339,98,1,1,0
340,98,1,1,0
341,98,1,1,0
342,98,1,1,0
343,97,2,1,0
344,97,2,1,0
345,97,2,1,0
346,97,2,1,0
347,97,2,1,0
348,97,2,1,0
349,97,2,1,0
350,97,2,1,0
351,97,2,1,0
352,97,2,1,0
353,97,2,1,0
354,97,2,1,0
355,97,2,1,0
356,97,2,1,0
357,97,2,1,0
358,97,2,1,0
359,97,2,1,0
360,97,2,1,0
361,97,2,1,0
362,97,2,1,0
363,97,2,1,0
364,97,2,1,0
365,97,2,1,0
366,97,2,1,0
367,97,2,1,0
368,97,2,1,0
369,97,2,1,0
370,97,2,1,0
371,97,2,1,0
372,97,2,1,0
373,97,2,1,0
374,97,2,1,0
375,97,2,1,0
376,97,2,1,0
377,97,2,1,0
378,97,2,1,0
379,97,2,1,0
380,97,2,1,0
381,97,2,1,0
382,97,2,1,0
383,97,2,1,0
384,97,2,1,0
385,97,2,1,0
386,97,2,1,0
387,97,2,1,0
388,97,2,1,0
389,97,2,1,0
390,97,2,1,0
391,97,2,1,0
392,97,2,1,0
393,97,2,1,0
394,97,2,1,0
395,97,2,1,0
396,97,2,1,0
397,97,2,1,0
398,97,2,1,0
399,97,2,1,0
400,97,2,1,0
401,97,2,1,0
402,97,2,0,1
403,97,2,0,1
404,97,2,0,1
405,97,2,0,1
406,97,2,0,1
407,97,2,0,1
408,97,2,0,1
409,97,2,0,1
410,97,2,0,1
411,97,2,0,1
412,97,2,0,1
413,97,2,0,1
414,97,2,0,1
415,97,2,0,1
416,97,2,0,1
417,97,2,0,1
418,97,2,0,1
419,97,2,0,1
420,97,2,0,1
421,97,2,0,1
422,97,2,0,1
423,97,2,0,1
424,97,2,0,1
425,97,2,0,1
426,97,2,0,1
427,97,2,0,1
428,97,2,0,1
429,97,2,0,1
430,97,2,0,1
431,97,2,0,1
432,97,2,0,1
433,97,2,0,1
434,97,2,0,1
435,97,2,0,1
436,97,2,0,1
437,97,2,0,1
438,97,2,0,1
439,97,2,0,1
440,97,2,0,1
441,97,2,0,1
442,97,2,0,1
443,97,2,0,1
444,97,2,0,1
445,97,2,0,1
446,97,2,0,1
447,97,2,0,1
448,97,2,0,1
449,97,2,0,1
450,97,2,0,1
451,97,2,0,1
452,97,2,0,1
453,97,2,0,1
454,97,2,0,1
455,97,2,0,1
456,97,2,0,1
457,97,2,0,1
458,97,2,0,1
459,97,2,0,1
460,97,2,0,1
461,97,2,0,1
462,97,2,0,1
463,97,2,0,1
464,97,2,0,1
465,97,2,0,1
466,97,2,0,1
467,97,2,0,1
468,97,2,0,1
469,97,2,0,1
470,97,2,0,1
471,97,2,0,1
472,97,2,0,1
473,97,2,0,1
474,97,2,0,1
475,97,2,0,1
476,97,2,0,1
477,97,2,0,1
478,97,2,0,1
479,97,2,0,1
480,97,2,0,1
481,97,2,0,1
482,97,2,0,1
483,97,2,0,1
484,97,2,0,1
485,97,2,0,1
486,97,2,0,1
487,97,2,0,1
488,97,2,0,1
489,97,2,0,1
490,97,2,0,1
491,97,2,0,1
492,97,2,0,1
493,97,2,0,1
494,97,2,0,1
495,97,2,0,1
496,97,2,0,1
497,97,2,0,1
498,97,2,0,1
499,97,2,0,1
500,97,2,0,1
501,97,2,0,1
502,97,2,0,1
503,97,2,0,1
504,97,2,0,1
505,97,2,0,1
506,97,2,0,1
507,97,2,0,1
508,97,2,0,1
509,97,2,0,1
510,97,2,0,1
511,97,2,0,1
512,97,2,0,1
513,97,2,0,1
514,97,2,0,1
515,97,2,0,1
516,97,2,0,1
517,97,2,0,1
518,97,1,1,1
519,96,2,1,1
520,96,2,1,1
521,96,2,1,1
522,96,2,1,1
523,96,2,1,1
524,96,2,1,1
525,96,2,1,1
526,96,2,1,1
527,96,2,1,1
528,96,2,1,1
529,96,2,1,1
530,96,2,1,1
531,96,2,1,1
532,96,2,1,1
533,96,2,1,1
534,96,2,1,1
535,96,2,1,1
536,96,2,1,1
537,96,2,1,1
538,96,2,1,1
539,96,2,1,1
540,96,2,1,1
541,96,2,1,1
542,96,2,1,1
543,96,2,1,1
544,96,1,2,1
545,96,1,2,1
546,96,1,2,1
547,96,1,2,1
548,96,1,2,1
549,96,1,2,1
550,96,1,2,1
551,96,1,2,1
552,96,1,2,1
553,96,1,2,1
554,96,1,2,1
555,96,1,2,1
556,96,1,2,1
557,96,1,2,1
558,96,1,2,1
559,96,1,2,1
560,96,1,2,1
561,96,1,2,1
562,96,1,2,1
563,96,1,2,1
564,96,1,2,1
565,96,1,2,1
566,96,1,2,1
567,96,1,2,1
568,96,1,2,1
569,96,1,2,1
570,96,1,2,1
571,96,1,2,1
572,96,1,2,1
573,96,1,2,1
574,96,1,2,1
575,96,1,2,1
576,96,1,2,1
577,95,2,2,1
578,95,2,2,1
579,95,2,2,1
580,95,2,2,1
581,95,2,2,1
582,95,2,2,1
583,95,2,2,1
584,95,2,2,1
585,95,2,2,1
586,95,2,2,1
587,95,2,2,1
588,95,2,2,1
589,95,2,2,1
590,95,2,2,1
591,94,3,2,1
592,94,3,2,1
593,94,3,2,1
594,94,3,2,1
595,94,3,2,1
596,94,3,2,1
597,94,3,2,1
598,93,4,2,1
599,93,4,2,1
600,93,4,2,1
601,93,4,2,1
602,93,4,2,1
603,93,4,2,1
604,93,4,2,1
605,93,4,2,1
606,93,4,2,1
607,93,4,2,1
608,93,4,2,1
609,93,4,2,1
610,93,4,2,1
611,93,4,2,1
612,93,4,2,1
613,93,4,2,1
614,93,4,2,1
615,93,4,2,1
616,93,4,2,1
617,93,4,2,1
618,93,4,2,1
619,93,4,2,1
620,93,4,2,1
621,93,4,2,1
622,93,4,2,1
623,93,4,2,1
624,93,4,2,1
625,93,4,2,1
626,93,4,2,1
627,93,4,2,1
628,92,5,2,1
629,92,5,2,1
630,92,5,2,1
631,92,5,2,1
632,92,5,2,1
633,92,5,2,1
634,92,5,2,1
635,92,5,2,1
636,92,5,2,1
637,92,5,2,1
638,92,5,2,1
639,92,5,2,1
640,92,5,2,1
641,92,5,2,1
642,92,5,2,1
643,92,5,2,1
644,92,5,2,1
645,92,5,2,1
646,92,5,2,1
647,92,5,2,1
648,92,5,2,1
649,92,5,2,1
650,92,5,2,1
651,92,5,2,1
652,92,5,2,1
653,92,5,2,1
654,92,5,2,1
655,92,5,2,1
656,92,5,2,1
657,92,5,2,1
658,92,5,2,1
659,92,5,2,1
660,92,5,2,1
661,92,5,2,1
662,92,5,2,1
663,92,5,2,1
664,92,5,2,1
665,92,5,2,1
666,92,5,2,1
667,92,5,2,1
668,92,5,2,1
669,92,5,2,1
670,92,5,2,1
671,92,5,2,1
672,92,5,2,1
673,92,5,2,1
674,92,5,2,1
675,92,5,2,1
676,92,5,2,1
677,92,5,2,1
678,92,5,2,1
679,92,5,2,1
680,92,5,2,1
681,92,5,2,1
682,92,5,2,1
683,92,5,2,1
684,92,5,2,1
685,92,5,2,1
686,92,5,2,1
687,92,5,2,1
688,92,5,2,1
689,92,5,2,1
690,92,5,2,1
691,92,5,2,1
692,92,5,2,1
693,92,5,2,1
694,92,5,2,1
695,92,5,2,1
696,92,5,2,1
697,92,5,2,1
698,92,5,2,1
699,91,6,2,1
700,91,6,2,1
701,91,6,2,1
702,91,6,2,1
703,91,6,2,1
704,91,6,2,1
705,91,6,2,1
706,91,6,2,1
707,91,6,2,1
708,91,6,2,1
709,91,6,2,1
710,91,6,2,1
711,91,6,2,1
712,91,6,2,1
713,91,6,2,1
714,91,6,2,1
715,91,6,2,1
716,91,6,2,1
717,91,6,2,1
718,91,6,2,1
719,91,6,1,2
720,91,5,2,2
721,91,5,2,2
722,90,6,2,2
723,90,6,2,2
724,90,6,2,2
725,90,6,2,2
726,90,6,2,2
727,90,6,2,2
728,90,6,2,2
729,90,6,2,2
730,90,6,2,2
731,90,6,2,2
732,90,6,2,2
733,90,6,2,2
734,90,6,2,2
735,90,6,2,2
736,90,6,2,2
737,90,6,2,2
738,90,6,2,2
739,90,6,2,2
740,90,6,2,2
741,90,6,2,2
742,90,6,2,2
743,90,6,2,2
744,90,6,2,2
745,90,6,1,3
746,90,6,1,3
747,90,6,1,3
748,90,6,1,3
749,90,6,1,3
750,90,6,1,3
751,90,6,1,3
752,90,6,1,3
753,90,6,1,3
754,90,6,1,3
755,90,6,1,3
756,90,6,1,3
757,90,6,1,3
758,90,6,1,3
759,90,6,1,3
760,90,6,1,3
761,90,6,1,3
762,90,6,1,3
763,90,6,1,3
764,90,6,1,3
765,90,6,1,3
766,90,6,1,3
767,90,6,1,3
768,90,6,1,3
769,90,6,1,3
770,90,6,1,3
771,90,6,1,3
772,90,6,1,3
773,90,6,1,3
774,90,6,1,3
775,90,6,1,3
776,90,6,1,3
777,90,6,1,3
778,90,5,2,3
779,89,6,2,3
780,89,6,2,3
781,88,7,2,3
782,88,7,2,3
783,88,7,2,3
784,88,7,2,3
785,88,7,2,3
786,88,7,2,3
787,88,7,2,3
788,88,7,2,3
789,88,7,2,3
790,88,7,2,3
791,88,7,2,3
792,88,6,3,3
793,87,7,3,3
794,87,7,3,3
795,87,7,3,3
796,87,7,3,3
797,86,8,3,3
798,86,8,3,3
799,86,7,4,3
800,86,7,4,3
801,86,7,4,3
802,86,7,4,3
803,86,7,4,3
804,86,7,4,3
805,86,7,4,3
806,86,7,4,3
807,86,7,4,3
808,86,7,4,3
809,86,7,4,3
810,86,7,4,3
811,86,7,4,3
812,86,7,4,3
813,86,7,4,3
814,86,7,4,3
815,86,7,4,3
816,86,7,4,3
817,86,7,4,3
818,86,7,4,3
819,86,7,4,3
820,86,7,4,3
821,85,8,4,3
822,85,8,4,3
823,85,8,4,3
824,85,8,4,3
825,85,8,4,3
826,85,8,4,3
827,85,8,4,3
828,85,8,4,3
829,85,7,5,3
830,85,7,5,3
831,85,7,5,3
832,85,7,5,3
833,85,7,5,3
834,85,7,5,3
835,85,7,5,3
836,85,7,5,3
837,85,7,5,3
838,85,7,5,3
839,85,7,5,3
840,84,8,5,3
841,84,8,5,3
842,84,8,5,3
843,84,8,5,3
844,84,8,5,3
845,84,8,5,3
846,84,8,5,3
847,84,8,5,3
848,84,8,5,3
849,84,8,5,3
850,84,8,5,3
851,84,8,5,3
852,84,8,5,3
853,84,8,5,3
854,84,8,5,3
855,84,8,5,3
856,84,8,5,3
857,84,8,5,3
858,84,8,5,3
859,84,8,5,3
860,84,8,5,3
861,84,8,5,3
862,84,8,5,3
863,84,8,5,3
864,83,9,5,3
865,83,9,5,3
866,83,9,5,3
867,83,9,5,3
868,83,9,5,3
869,83,9,5,3
870,83,9,5,3
871,83,9,5,3
872,83,9,5,3
873,83,9,5,3
874,83,9,5,3
875,83,9,5,3
876,83,9,5,3
877,83,9,5,3
878,83,9,5,3
879,83,9,5,3
880,83,9,5,3
881,82,10,5,3
882,82,10,5,3
883,82,10,5,3
884,82,10,5,3
885,82,10,5,3
886,82,10,5,3
887,82,10,5,3
888,82,10,5,3
889,82,10,5,3
890,82,10,5,3
891,82,10,5,3
892,82,10,5,3
893,82,10,5,3
894,82,10,5,3
895,82,10,5,3
896,82,10,5,3
897,82,10,5,3
898,82,10,5,3
899,82,10,5,3
900,82,9,6,3
901,82,9,6,3
902,82,9,6,3
903,82,9,6,3
904,82,9,6,3
905,82,9,6,3
906,82,9,6,3
907,82,9,6,3
908,82,9,6,3
909,82,9,6,3
910,82,9,6,3
911,82,9,6,3
912,82,9,6,3
913,82,9,6,3
914,82,9,6,3
915,82,9,6,3
916,82,9,6,3
917,82,9,6,3
918,82,9,6,3
919,82,9,6,3
920,82,9,6,3
921,82,9,5,4
922,82,9,5,4
923,82,8,6,4
924,82,8,6,4
925,82,8,6,4
926,82,8,6,4
927,82,8,6,4
928,82,8,6,4
929,82,8,6,4
930,82,8,6,4
931,82,8,6,4
932,82,8,6,4
933,82,8,6,4
934,82,8,6,4
935,82,8,6,4
936,82,8,6,4
937,82,8,6,4
938,82,8,6,4
939,82,8,6,4
940,82,8,6,4
941,81,9,6,4
942,81,9,6,4
943,81,9,6,4
944,81,9,6,4
945,81,9,6,4
946,81,9,6,4
947,81,9,6,4
948,81,9,6,4
949,81,9,6,4
950,81,9,6,4
951,80,10,6,4
952,80,10,6,4
953,80,10,6,4
954,80,10,6,4
955,80,10,6,4
956,80,10,6,4
957,80,10,6,4
958,80,10,6,4
959,80,10,6,4
960,80,10,6,4
961,80,10,6,4
962,80,10,6,4
963,80,10,6,4
964,80,10,6,4
965,80,10,6,4
966,80,10,6,4
967,80,10,6,4
968,80,10,6,4
969,80,10,6,4
970,80,10,6,4
971,80,10,6,4
972,80,10,6,4
973,80,10,6,4
974,80,10,6,4
975,80,10,6,4
976,79,11,6,4
977,79,11,6,4
978,79,11,6,4
979,79,11,5,5
980,78,11,6,5
981,78,11,6,5
982,78,10,7,5
983,78,10,7,5
984,78,10,7,5
985,77,11,7,5
986,77,11,7,5
987,77,11,7,5
988,77,11,7,5
989,77,11,7,5
990,77,11,7,5
991,77,11,7,5
992,77,11,7,5
993,77,11,6,6
994,76,11,7,6
995,76,11,7,6
996,76,11,7,6
997,76,11,7,6
998,76,10,8,6
999,76,10,8,6
1000,76,10,7,7
1001,76,10,7,7
1002,76,10,7,7
1003,76,10,7,7
1004,76,10,7,7
1005,75,11,7,7
1006,75,11,7,7
1007,75,11,7,7
1008,75,11,7,7
1009,75,11,7,7
1010,75,11,7,7
1011,75,11,7,7
1012,75,11,7,7
1013,75,11,7,7
1014,75,11,7,7
1015,75,11,7,7
1016,75,11,7,7
1017,75,11,7,7
1018,75,11,7,7
1019,75,11,7,7
1020,75,11,7,7
1021,75,11,7,7
1022,75,10,8,7
1023,75,10,8,7
1024,75,10,8,7
1025,75,10,8,7
1026,75,10,8,7
1027,75,10,8,7
1028,75,10,8,7
1029,74,11,8,7
1030,74,11,7,8
1031,74,11,7,8
1032,74,11,7,8
1033,74,11,7,8
1034,74,11,7,8
1035,74,11,7,8
1036,74,11,7,8
1037,74,11,7,8
1038,74,11,7,8
1039,74,11,7,8
1040,74,11,7,8
1041,74,10,8,8
1042,74,10,8,8
1043,74,10,8,8
1044,74,10,8,8
1045,74,10,8,8
1046,74,10,8,8
1047,74,10,8,8
1048,74,10,8,8
1049,74,10,8,8
1050,74,10,8,8
1051,74,10,8,8
1052,74,10,8,8
1053,74,10,8,8
1054,74,10,8,8
1055,74,10,8,8
1056,74,10,8,8
1057,74,10,8,8
1058,74,10,8,8
1059,73,11,8,8
1060,73,11,8,8
1061,73,11,8,8
1062,73,11,8,8
1063,73,11,8,8
1064,73,11,8,8
1065,73,10,9,8
1066,73,10,9,8
1067,73,10,9,8
1068,73,10,9,8
1069,73,10,9,8
1070,73,10,9,8
1071,73,10,9,8
1072,73,10,9,8
1073,72,11,9,8
1074,72,11,9,8
1075,72,11,9,8
1076,72,11,9,8
1077,72,11,9,8
1078,72,11,9,8
1079,72,11,9,8
1080,72,11,9,8
1081,72,11,9,8
1082,71,11,10,8
1083,71,11,10,8
1084,71,11,10,8
1085,71,11,10,8
1086,71,11,10,8
1087,70,12,10,8
1088,70,12,10,8
1089,70,12,10,8
1090,70,12,10,8
1091,70,12,10,8
1092,70,12,10,8
1093,69,13,10,8
1094,69,13,10,8
1095,69,13,10,8
1096,68,14,10,8
1097,68,14,10,8
1098,68,14,10,8
1099,68,14,10,8
1100,68,14,10,8
1101,68,14,9,9
1102,68,14,9,9
1103,68,14,9,9
1104,68,14,9,9
1105,68,14,9,9
1106,68,14,9,9
1107,68,14,9,9
1108,68,14,9,9
1109,68,14,9,9
1110,68,14,9,9
1111,68,14,9,9
1112,68,14,9,9
1113,68,14,9,9
1114,68,14,9,9
1115,68,14,9,9
1116,67,15,9,9
1117,66,16,9,9
1118,66,16,9,9
1119,66,16,9,9
1120,66,16,9,9
1121,66,16,9,9
1122,66,16,9,9
1123,65,17,9,9
1124,65,17,8,10
1125,65,17,8,10
1126,65,17,8,10
1127,65,17,8,10
1128,64,18,8,10
1129,63,19,8,10
1130,62,20,8,10
1131,62,20,8,10
1132,62,20,8,10
1133,62,20,8,10
1134,61,21,8,10
1135,61,21,8,10
1136,61,21,8,10
1137,61,21,8,10
1138,61,21,8,10
1139,61,21,8,10
1140,61,21,8,10
1141,61,21,8,10
1142,60,21,9,10
1143,59,22,9,10
1144,59,22,9,10
1145,59,22,9,10
1146,59,22,9,10
1147,59,22,9,10
1148,59,22,9,10
1149,59,22,9,10
1150,59,22,9,10
1151,59,22,9,10
1152,59,21,10,10
1153,59,21,10,10
1154,59,21,10,10
1155,58,22,10,10
1156,57,23,10,10
1157,57,23,10,10
1158,57,23,10,10
1159,57,23,10,10
1160,57,23,10,10
1161,57,23,10,10
1162,57,23,10,10
1163,57,23,10,10
1164,57,23,10,10
1165,57,23,10,10
1166,57,23,10,10
1167,57,23,10,10
1168,57,23,10,10
1169,57,23,10,10
1170,57,23,10,10
1171,57,23,10,10
1172,57,23,10,10
1173,56,24,10,10
1174,56,24,10,10
1175,56,24,10,10
1176,56,24,10,10
1177,56,23,11,10
1178,56,23,11,10
1179,56,23,11,10
1180,56,23,11,10
1181,56,22,11,11
1182,56,22,11,11
1183,56,22,10,12
1184,56,22,10,12
1185,56,22,10,12
1186,56,21,11,12
1187,56,21,11,12
1188,56,21,11,12
1189,56,21,11,12
1190,56,21,11,12
1191,56,21,11,12
1192,56,21,11,12
1193,56,21,11,12
1194,56,21,11,12
1195,56,20,11,13
1196,56,20,11,13
1197,55,21,11,13
1198,55,21,11,13
1199,55,21,10,14
1200,55,21,10,14
1201,55,21,10,14
1202,55,21,10,14
1203,55,21,10,14
1204,55,21,10,14
1205,55,21,10,14
1206,55,20,11,14
1207,55,20,11,14
1208,55,20,11,14
1209,55,20,11,14
1210,55,20,11,14
1211,55,20,11,14
1212,55,20,11,14
1213,55,20,11,14
1214,55,20,11,14
1215,55,20,11,14
1216,55,20,11,14
1217,55,20,11,14
1218,55,20,11,14
1219,55,20,11,14
1220,55,20,11,14
1221,55,20,11,14
1222,55,20,11,14
1223,55,20,10,15
1224,55,20,10,15
1225,55,20,10,15
1226,55,20,10,15
1227,55,20,10,15
1228,55,20,10,15
1229,55,20,10,15
1230,55,19,11,15
1231,55,19,11,15
1232,55,19,11,15
1233,55,19,11,15
1234,55,19,11,15
1235,55,19,11,15
1236,55,19,11,15
1237,54,20,11,15
1238,54,20,11,15
1239,54,20,11,15
1240,54,20,11,15
1241,54,20,11,15
1242,54,20,10,16
1243,54,20,10,16
1244,54,20,10,16
1245,54,20,10,16
1246,54,20,10,16
1247,54,20,10,16
1248,54,20,10,16
1249,53,21,10,16
1250,53,21,10,16
1251,53,21,10,16
1252,53,21,10,16
1253,52,22,10,16
1254,52,22,10,16
1255,52,22,10,16
1256,52,22,10,16
1257,52,22,10,16
1258,52,22,10,16
1259,52,22,10,16
1260,52,21,11,16
1261,52,21,11,16
1262,52,21,11,16
1263,52,21,11,16
1264,51,22,11,16
1265,51,22,11,16
1266,51,22,10,17
1267,51,22,10,17
1268,51,22,10,17
1269,51,22,10,17
1270,51,22,10,17
1271,51,22,10,17
1272,51,22,10,17
1273,51,22,10,17
1274,51,21,11,17
1275,51,21,11,17
1276,51,21,11,17
1277,51,21,11,17
1278,51,21,11,17
1279,51,21,11,17
1280,51,21,11,17
1281,51,21,11,17
1282,51,21,11,17
1283,51,20,11,18
1284,51,20,11,18
1285,51,20,11,18
1286,51,20,11,18
1287,51,20,11,18
1288,51,19,12,18
1289,51,19,12,18
1290,51,19,12,18
1291,51,19,12,18
1292,51,19,12,18
1293,51,19,12,18
1294,51,18,13,18
1295,51,18,13,18
1296,51,18,13,18
1297,51,17,14,18
1298,51,17,14,18
1299,51,17,14,18
1300,50,18,14,18
1301,50,18,14,18
1302,50,18,14,18
1303,50,18,14,18
1304,50,18,14,18
1305,50,18,14,18
1306,49,19,14,18
1307,49,19,14,18
1308,49,19,14,18
1309,49,19,14,18
1310,49,19,14,18
1311,49,19,14,18
1312,49,19,14,18
1313,49,19,14,18
1314,49,19,14,18
1315,49,19,14,18
1316,49,19,14,18
1317,49,18,15,18
1318,49,17,16,18
1319,49,17,16,18
1320,49,17,16,18
1321,49,17,16,18
1322,49,17,16,18
1323,49,17,16,18
1324,49,16,17,18
1325,48,17,17,18
1326,48,17,17,18
1327,48,17,17,18
1328,48,17,17,18
1329,48,16,18,18
1330,48,15,19,18
1331,48,14,20,18
1332,48,14,20,18
1333,48,14,20,18
1334,48,14,20,18
1335,48,13,21,18
1336,48,13,21,18
1337,48,13,21,18
1338,48,13,21,18
1339,48,13,21,18
1340,48,13,21,18
1341,48,13,21,18
1342,48,13,21,18
1343,48,12,21,19
1344,47,12,22,19
1345,45,14,22,19
1346,45,14,22,19
1347,45,14,22,19
1348,45,14,22,19
1349,44,15,22,19
1350,44,15,22,19
1351,43,16,22,19
1352,43,16,22,19
1353,43,16,21,20
1354,42,17,21,20
1355,42,17,21,20
1356,42,16,22,20
1357,41,16,23,20
1358,41,16,23,20
1359,41,16,23,20
1360,40,17,23,20
1361,40,17,23,20
1362,39,18,23,20
1363,39,18,23,20
1364,39,18,23,20
1365,38,19,23,20
1366,38,19,23,20
1367,38,19,23,20
1368,38,19,23,20
1369,38,19,23,20
1370,38,19,23,20
1371,38,19,23,20
1372,38,19,23,20
1373,38,19,23,20
1374,38,18,24,20
1375,37,19,24,20
1376,37,19,24,20
1377,37,19,24,20
1378,37,19,23,21
1379,37,19,23,21
1380,36,20,23,21
1381,36,20,23,21
1382,36,20,22,22
1383,36,20,22,22
1384,36,20,22,22
1385,36,20,22,22
1386,36,20,22,22
1387,36,20,21,23
1388,36,20,21,23
1389,36,20,21,23
1390,36,20,21,23
1391,35,21,21,23
1392,35,21,21,23
1393,34,22,21,23
1394,34,22,21,23
1395,33,23,21,23
1396,33,23,20,24
1397,32,24,20,24
1398,32,23,21,24
1399,32,23,21,24
1400,32,23,21,24
1401,32,23,21,24
1402,31,24,21,24
1403,31,24,21,24
1404,31,24,21,24
1405,31,24,21,24
1406,31,24,21,24
1407,31,24,20,25
1408,31,24,20,25
1409,31,24,20,25
1410,31,24,20,25
1411,31,24,20,25
1412,31,24,20,25
1413,31,24,20,25
1414,31,24,20,25
1415,31,24,20,25
1416,31,24,20,25
1417,31,24,20,25
1418,31,24,20,25
1419,31,24,20,25
1420,31,24,20,25
1421,31,24,20,25
1422,31,24,20,25
1423,31,24,20,25
1424,31,24,20,25
1425,31,24,20,25
1426,31,24,20,25
1427,31,24,20,25
1428,31,24,20,25
1429,31,24,20,25
1430,31,24,20,25
1431,31,24,19,26
1432,31,24,19,26
1433,31,24,19,26
1434,31,24,19,26
1435,31,24,19,26
1436,31,24,19,26
1437,31,24,19,26
1438,31,23,20,26
1439,31,23,20,26
1440,31,23,20,26
1441,31,23,20,26
1442,31,23,20,26
1443,31,23,20,26
1444,31,23,20,26
1445,31,23,20,26
1446,31,23,20,26
1447,31,23,20,26
1448,31,23,20,26
1449,31,23,20,26
1450,31,22,21,26
1451,31,22,21,26
1452,31,22,21,26
1453,31,22,21,26
1454,31,21,22,26
1455,31,21,22,26
1456,31,21,22,26
1457,31,21,22,26
1458,31,21,22,26
1459,30,22,22,26
1460,30,22,22,26
1461,29,23,21,27
1462,29,23,21,27
1463,29,23,21,27
1464,29,23,21,27
1465,29,22,22,27
1466,29,22,22,27
1467,29,22,22,27
1468,28,23,22,27
1469,28,23,22,27
1470,28,23,22,27
1471,28,23,22,27
1472,27,24,22,27
1473,27,24,22,27
1474,27,24,22,27
1475,27,24,21,28
1476,27,24,21,28
1477,27,24,21,28
1478,27,24,21,28
1479,27,24,21,28
1480,27,24,21,28
1481,26,25,21,28
1482,26,25,21,28
1483,26,25,21,28
1484,26,25,20,29
1485,26,25,20,29
1486,26,25,20,29
1487,26,25,20,29
1488,26,25,20,29
1489,26,25,19,30
1490,26,25,19,30
1491,26,25,19,30
1492,26,25,19,30
1493,26,25,19,30
1494,26,25,19,30
1495,26,25,18,31
1496,26,25,18,31
1497,26,25,18,31
1498,26,25,17,32
1499,26,25,17,32
1500,26,25,17,32
1501,26,24,18,32
1502,26,24,18,32
1503,26,24,18,32
1504,26,24,18,32
1505,26,24,18,32
1506,26,24,18,32
1507,26,23,19,32
1508,26,23,19,32
1509,26,23,19,32
1510,26,23,19,32
1511,26,23,19,32
1512,26,23,19,32
1513,26,23,19,32
1514,26,23,19,32
1515,26,23,19,32
1516,26,23,19,32
1517,26,23,19,32
1518,25,24,18,33
1519,25,24,17,34
1520,25,24,17,34
1521,24,25,17,34
1522,24,25,17,34
1523,24,25,17,34
1524,24,25,17,34
1525,24,25,16,35
1526,24,24,17,35
1527,24,24,17,35
1528,24,24,17,35
1529,23,25,17,35
1530,23,25,16,36
1531,23,25,15,37
1532,23,25,14,38
1533,23,25,14,38
1534,23,25,14,38
1535,23,25,14,38
1536,23,25,13,39
1537,23,25,13,39
1538,23,25,13,39
1539,23,25,13,39
1540,23,25,13,39
1541,23,25,13,39
1542,23,25,13,39
1543,23,25,13,39
1544,23,25,12,40
1545,23,24,12,41
1546,23,22,14,41
1547,22,23,14,41
1548,22,23,14,41
1549,22,23,14,41
1550,22,22,15,41
1551,22,22,15,41
1552,22,21,16,41
1553,22,21,16,41
1554,22,21,16,41
1555,21,21,17,41
1556,20,22,17,41
1557,20,22,16,42
1558,20,21,16,43
1559,20,21,16,43
1560,20,21,16,43
1561,20,20,17,43
1562,20,20,17,43
1563,20,19,18,43
1564,20,19,18,43
1565,20,19,18,43
1566,20,18,19,43
1567,20,18,19,43
1568,20,18,19,43
1569,20,18,19,43
1570,20,18,19,43
1571,20,18,19,43
1572,20,18,19,43
1573,20,18,19,43
1574,20,18,19,43
1575,20,18,18,44
1576,20,17,19,44
1577,20,17,19,44
1578,20,17,19,44
1579,20,17,19,44
1580,20,17,19,44
1581,20,16,20,44
1582,19,17,20,44
1583,19,17,20,44
1584,19,17,20,44
1585,19,17,20,44
1586,19,17,20,44
1587,19,17,20,44
1588,19,17,20,44
1589,19,17,20,44
1590,19,17,20,44
1591,19,17,20,44
1592,19,16,21,44
1593,19,16,21,44
1594,19,15,22,44
1595,19,15,22,44
1596,19,14,23,44
1597,19,14,23,44
1598,19,13,24,44
1599,19,13,23,45
1600,19,13,23,45
1601,19,13,23,45
1602,19,13,23,45
1603,18,13,24,45
1604,18,13,24,45
1605,18,13,24,45
1606,18,13,24,45
1607,18,13,24,45
1608,18,13,24,45
1609,18,13,24,45
1610,18,13,24,45
1611,18,13,24,45
1612,18,13,24,45
1613,18,13,24,45
1614,17,14,24,45
1615,17,14,24,45
1616,17,14,24,45
1617,17,14,24,45
1618,17,14,24,45
1619,17,14,24,45
1620,17,14,24,45
1621,17,14,24,45
1622,17,14,24,45
1623,17,14,24,45
1624,16,15,24,45
1625,16,15,24,45
1626,15,16,24,45
1627,14,17,24,45
1628,14,17,24,45
1629,14,17,24,45
1630,14,17,24,45
1631,14,17,24,45
1632,14,17,24,45
1633,14,17,24,45
1634,14,17,24,45
1635,14,17,24,45
1636,14,17,24,45
1637,14,17,24,45
1638,14,17,24,45
1639,14,17,23,46
1640,14,17,23,46
1641,14,17,23,46
1642,14,17,23,46
1643,14,17,23,46
1644,14,17,23,46
1645,14,17,23,46
1646,14,17,23,46
1647,14,17,23,46
1648,14,17,23,46
1649,14,17,23,46
1650,14,17,23,46
1651,14,17,22,47
1652,14,17,22,47
1653,14,17,22,47
1654,13,18,22,47
1655,13,18,21,48
1656,13,18,21,48
1657,13,18,21,48
1658,13,18,21,48
1659,13,18,21,48
1660,13,17,22,48
1661,13,17,22,48
1662,13,16,23,48
1663,13,16,23,48
1664,13,16,23,48
1665,13,16,23,48
1666,13,16,22,49
1667,13,16,22,49
1668,13,16,22,49
1669,13,15,23,49
1670,13,15,23,49
1671,13,15,23,49
1672,13,15,23,49
1673,13,14,24,49
1674,13,14,24,49
1675,13,14,24,49
1676,13,14,24,49
1677,13,14,24,49
1678,13,14,24,49
1679,13,14,24,49
1680,13,14,24,49
1681,13,14,24,49
1682,13,13,25,49
1683,13,13,25,49
1684,12,14,25,49
1685,12,14,25,49
1686,12,14,25,49
1687,12,14,25,49
1688,12,14,25,49
1689,12,14,25,49
1690,12,14,25,49
1691,12,14,25,49
1692,12,14,25,49
1693,12,14,25,49
1694,12,14,25,49
1695,12,14,25,49
1696,12,14,25,49
1697,12,14,25,49
1698,12,14,25,49
1699,12,14,25,49
1700,12,14,25,49
1701,12,14,25,49
1702,12,14,24,50
1703,12,14,24,50
1704,12,14,24,50
1705,12,14,24,50
1706,12,14,24,50
1707,12,14,24,50
1708,12,14,23,51
1709,12,14,23,51
1710,12,14,23,51
1711,12,14,23,51
1712,12,14,23,51
1713,12,14,23,51
1714,12,14,23,51
1715,12,14,23,51
1716,12,14,23,51
1717,12,14,23,51
1718,12,14,23,51
1719,12,13,24,51
1720,12,13,24,51
1721,12,13,24,51
1722,12,12,25,51
1723,12,12,25,51
1724,12,12,25,51
1725,12,12,25,51
1726,12,12,25,51
1727,12,12,24,52
1728,12,12,24,52
1729,12,12,24,52
1730,11,12,25,52
1731,10,13,25,52
1732,10,13,25,52
1733,10,13,25,52
1734,10,13,25,52
1735,10,13,25,52
1736,10,13,25,52
1737,10,13,25,52
1738,10,13,25,52
1739,10,13,25,52
1740,10,13,25,52
1741,10,13,25,52
1742,10,13,25,52
1743,9,14,25,52
1744,9,14,25,52
1745,9,14,25,52
1746,9,14,24,53
1747,9,14,22,55
1748,9,13,23,55
1749,8,14,23,55
1750,8,14,23,55
1751,8,14,22,56
1752,8,14,22,56
1753,8,14,21,57
1754,8,14,21,57
1755,8,14,21,57
1756,8,13,21,58
1757,8,12,22,58
1758,7,13,22,58
1759,7,13,21,59
1760,7,13,21,59
1761,7,13,21,59
1762,7,13,20,60
1763,7,13,20,60
1764,7,13,19,61
1765,7,13,19,61
1766,7,13,19,61
1767,7,13,18,62
1768,7,13,18,62
1769,7,13,18,62
1770,7,13,18,62
1771,7,13,18,62
1772,7,13,18,62
1773,7,13,18,62
1774,7,13,18,62
1775,7,13,18,62
1776,7,13,18,62
1777,7,13,17,63
1778,7,13,17,63
1779,7,13,17,63
1780,7,13,17,63
1781,7,13,17,63
1782,6,14,16,64
1783,6,13,17,64
1784,6,13,17,64
1785,6,13,17,64
1786,6,13,17,64
1787,6,13,17,64
1788,6,13,17,64
1789,6,13,17,64
1790,6,13,17,64
1791,6,13,17,64
1792,6,13,17,64
1793,6,13,16,65
1794,6,13,16,65
1795,6,13,15,66
1796,6,13,15,66
1797,6,13,14,67
1798,6,13,14,67
1799,6,13,13,68
1800,6,13,13,68
1801,6,13,13,68
1802,6,13,13,68
1803,6,13,13,68
1804,6,12,13,69
1805,6,12,13,69
1806,6,12,13,69
1807,6,12,13,69
1808,6,12,13,69
1809,5,13,13,69
1810,5,13,13,69
1811,4,14,13,69
1812,3,15,13,69
1813,3,15,13,69
1814,3,15,13,69
1815,3,14,14,69
1816,3,14,14,69
1817,3,14,14,69
1818,3,14,14,69
1819,3,14,14,69
1820,3,14,14,69
1821,3,14,14,69
1822,3,14,14,69
1823,3,14,14,69
1824,3,14,14,69
1825,3,13,15,69
1826,3,13,15,69
1827,3,12,16,69
1828,3,11,17,69
1829,3,11,17,69
1830,3,11,17,69
1831,3,11,17,69
1832,3,11,17,69
1833,3,11,17,69
1834,3,11,17,69
1835,3,11,17,69
1836,3,11,17,69
1837,3,11,17,69
1838,3,11,17,69
1839,3,11,17,69
1840,3,11,17,69
1841,3,11,17,69
1842,3,11,17,69
1843,3,11,17,69
1844,3,11,17,69
1845,3,11,17,69
1846,3,11,17,69
1847,3,11,17,69
1848,3,11,17,69
1849,3,11,17,69
1850,3,11,17,69
1851,3,11,17,69
1852,3,11,17,69
1853,3,11,17,69
1854,3,11,17,69
1855,3,10,18,69
1856,3,10,18,69
1857,3,10,18,69
1858,3,10,18,69
1859,3,10,18,69
1860,3,10,18,69
1861,3,10,17,70
1862,3,10,17,70
1863,3,10,16,71
1864,3,10,16,71
1865,3,10,16,71
1866,3,10,16,71
1867,3,10,16,71
1868,3,10,16,71
1869,3,10,16,71
1870,3,10,15,72
1871,3,10,15,72
1872,3,10,15,72
1873,3,10,15,72
1874,3,10,14,73
1875,3,10,14,73
1876,3,10,14,73
1877,3,10,14,73
1878,3,10,14,73
1879,2,11,14,73
1880,2,11,14,73
1881,2,11,14,73
1882,2,11,14,73
1883,2,11,13,74
1884,2,11,13,74
1885,2,10,14,74
1886,2,10,14,74
1887,2,10,14,74
1888,2,10,14,74
1889,2,10,14,74
1890,2,10,14,74
1891,2,10,14,74
1892,2,10,14,74
1893,2,10,14,74
1894,2,10,14,74
1895,2,10,14,74
1896,2,10,14,74
1897,2,10,14,74
1898,2,10,14,74
1899,2,10,14,74
1900,2,10,14,74
1901,2,10,14,74
1902,2,10,14,74
1903,2,10,14,74
1904,2,10,14,74
1905,2,10,14,74
1906,2,10,14,74
1907,2,10,14,74
1908,2,10,14,74
1909,2,10,14,74
1910,2,10,14,74
1911,2,10,14,74
1912,2,10,14,74
1913,2,10,14,74
1914,2,10,14,74
1915,2,10,14,74
1916,2,10,14,74
1917,2,10,14,74
1918,2,10,14,74
1919,2,10,14,74
1920,2,10,13,75
1921,2,10,13,75
1922,2,10,13,75
1923,2,10,12,76
1924,2,10,12,76
1925,2,10,12,76
1926,2,10,12,76
1927,2,10,12,76
1928,2,10,12,76
1929,2,10,12,76
1930,2,10,12,76
1931,2,9,12,77
1932,2,8,13,77
1933,2,8,13,77
1934,2,8,13,77
1935,2,8,13,77
1936,2,8,13,77
1937,2,8,13,77
1938,2,8,13,77
1939,2,8,13,77
1940,2,8,13,77
1941,2,8,13,77
1942,2,8,13,77
1943,2,8,13,77
1944,2,7,14,77
1945,2,7,14,77
1946,2,7,14,77
1947,2,7,14,77
1948,2,7,14,77
1949,2,7,13,78
1950,2,6,14,78
1951,2,6,14,78
1952,2,6,14,78
1953,2,6,14,78
1954,2,6,14,78
1955,2,6,14,78
1956,2,6,14,78
1957,2,6,13,79
1958,2,6,12,80
1959,2,5,13,80
1960,2,5,13,80
1961,2,5,13,80
1962,2,5,13,80
1963,2,5,13,80
1964,2,5,13,80
1965,2,5,13,80
1966,2,5,13,80
1967,2,5,13,80
1968,2,5,13,80
1969,2,5,13,80
1970,2,5,13,80
1971,2,5,13,80
1972,2,5,13,80
1973,2,5,13,80
1974,2,5,13,80
1975,2,5,13,80
1976,2,5,13,80
1977,2,5,13,80
1978,2,5,13,80
1979,2,5,13,80
1980,2,5,13,80
1981,2,5,13,80
1982,2,5,13,80
1983,2,4,14,80
1984,2,4,13,81
1985,2,4,13,81
1986,2,4,13,81
1987,2,4,13,81
1988,2,4,13,81
1989,2,4,13,81
1990,2,4,13,81
1991,2,4,13,81
1992,2,4,13,81
1993,2,4,13,81
1994,2,4,13,81
1995,2,4,13,81
1996,2,4,13,81
1997,2,4,13,81
1998,2,4,13,81
1999,2,4,13,81
2000,2,4,13,81
