"tick","total"
0,0
1,0
2,0
3,0
4,0
5,0
6,0
7,0
8,0
9,0
10,0
11,0
12,0
13,0
14,0
15,0
16,0
17,0
18,0
19,0
20,0
21,0
22,0
23,0
24,0
25,0
26,0
27,0
28,0
29,0
30,0
31,0
32,0
33,0
34,0
35,0
36,0
37,0
38,0
39,0
40,0
41,0
42,0
43,0
44,0
45,0
46,0
47,0
48,0
49,0
50,0
51,0
52,0
53,0
54,0
55,0
56,0
57,0
58,0
59,0
60,0
61,0
62,0
63,0
64,0
65,0
66,0
67,0
68,0
69,0
70,0
71,0
72,0
73,0
74,0
75,0
76,0
77,0
78,0
79,0
80,0
81,0
82,0
83,0
84,0
85,0
86,0
87,0
88,0
89,0
90,0
91,0
92,0
93,0
94,0
95,0
96,0
97,0
98,0
99,0
100,0
101,0
102,0
103,0
104,0
105,0
106,0
107,0
108,0
109,0
110,0
111,0
112,0
113,0
114,0
115,0
116,0
117,0
118,0
119,0
120,0
121,0
122,0
123,0
124,0
125,0
126,0
127,0
128,0
129,0
130,0
131,0
132,0
133,0
134,0
135,0
136,0
137,0
138,0
139,0
140,0
141,0
142,0
143,0
144,0
145,0
146,0
147,0
148,0
149,0
150,0
151,0
152,0
153,0
154,0
155,0
156,0
157,0
158,0
159,0
160,0
161,0
162,0
163,0
164,0
165,0
166,0
167,0
168,0
169,0
170,0
171,0
172,0
173,0
174,0
175,0
176,0
177,0
178,0
179,0
180,0
181,0
182,0
183,0
184,0
185,0
186,0
187,0
188,0
189,0
190,0
191,0
192,0
193,0
194,0
195,0
196,0
197,0
198,0
199,0
200,0
201,0
202,0
203,0
204,0
205,0
206,0
207,0
208,0
209,0
210,0
211,1
212,1
213,1
214,2
215,2
216,2
217,2
218,2
219,2
220,2
221,2
222,2
223,2
224,2
225,2
226,3
227,3
228,3
229,3
230,3
231,3
232,3
233,3
234,4
235,4
236,4
237,4
238,5
239,5
240,5
241,5
242,5
243,6
244,7
245,7
246,7
247,7
248,7
249,7
250,7
251,7
252,7
253,7
254,7
255,7
256,7
257,7
258,7
259,7
260,7
261,7
262,7
263,7
264,7
265,7
266,8
267,8
268,8
269,8
270,8
271,8
272,8
273,8
274,9
275,10
276,10
277,10
278,10
279,10
280,10
281,10
282,10
283,11
284,11
285,11
286,11
287,11
288,11
289,11
290,11
291,11
292,11
293,11
294,11
295,11
296,13
297,13
298,13
299,13
300,13
301,13
302,13
303,13
304,13
305,13
306,13
307,13
308,13
309,13
310,14
311,14
312,14
313,14
314,14
315,14
316,14
317,14
318,15
319,15
320,15
321,15
322,15
323,15
324,15
325,15
326,15
327,15
328,15
329,15
330,15
331,15
332,15
333,15
334,15
335,15
336,15
337,15
338,15
339,16
340,16
341,16
342,16
343,16
344,16
345,16
346,16
347,16
348,16
349,17
350,18
351,18
352,18
353,18
354,18
355,18
356,18
357,19
358,19
359,19
360,19
361,19
362,20
363,21
364,21
365,21
366,21
367,21
368,21
369,21
370,21
371,21
372,21
373,21
374,21
375,21
376,21
377,21
378,22
379,22
380,22
381,22
382,22
383,22
384,22
385,22
386,22
387,22
388,22
389,22
390,22
391,22
392,22
393,22
394,22
395,22
396,24
397,24
398,24
399,24
400,24
401,24
402,24
403,24
404,24
405,24
406,24
407,24
408,24
409,24
410,24
411,24
412,24
413,24
414,24
415,25
416,25
417,25
418,25
419,25
420,25
421,25
422,25
423,25
424,25
425,25
426,25
427,25
428,25
429,25
430,25
431,25
432,25
433,25
434,25
435,25
436,25
437,25
438,25
439,25
440,25
441,25
442,25
443,25
444,26
445,26
446,26
447,26
448,26
449,26
450,26
451,26
452,27
453,27
454,27
455,27
456,27
457,27
458,27
459,27
460,27
461,27
462,27
463,27
464,27
465,27
466,27
467,27
468,27
469,27
470,27
471,27
472,27
473,27
474,27
475,27
476,27
477,27
478,27
479,27
480,27
481,28
482,28
483,28
484,28
485,28
486,28
487,28
488,28
489,28
490,28
491,29
492,29
493,29
494,31
495,31
496,31
497,31
498,31
499,31
500,31
501,31
502,31
503,31
504,31
505,31
506,31
507,31
508,31
509,32
510,32
511,32
512,32
513,32
514,32
515,32
516,32
517,32
518,32
519,32
520,32
521,33
522,33
523,33
524,33
525,33
526,33
527,33
528,33
529,33
530,33
531,33
532,33
533,33
534,33
535,33
536,33
537,33
538,33
539,33
540,33
541,33
542,33
543,33
544,33
545,33
546,33
547,33
548,33
549,33
550,33
551,33
552,33
553,33
554,33
555,33
556,33
557,33
558,33
559,33
560,33
561,33
562,33
563,33
564,33
565,33
566,33
567,33
568,33
569,33
570,33
571,33
572,33
573,33
574,33
575,33
576,33
577,33
578,33
579,33
580,33
581,33
582,33
583,33
584,33
585,33
586,33
587,33
588,33
589,33
590,33
591,33
592,33
593,33
594,33
595,33
596,33
597,33
598,33
599,33
600,33
601,33
602,33
603,33
604,34
605,34
606,34
607,34
608,35
609,35
610,35
611,35
612,35
613,35
614,35
615,35
616,35
617,35
618,35
619,35
620,35
621,35
622,35
623,35
624,35
625,35
626,35
627,35
628,35
629,35
630,35
631,35
632,35
633,35
634,35
635,35
636,35
637,35
638,35
639,35
640,35
641,35
642,35
643,35
644,35
645,37
646,37
647,37
648,37
649,37
650,37
651,37
652,37
653,37
654,37
655,37
656,37
657,37
658,37
659,37
660,37
661,37
662,37
663,37
664,37
665,37
666,37
667,37
668,37
669,37
670,37
671,37
672,38
673,38
674,38
675,38
676,39
677,39
678,39
679,39
680,39
681,39
682,39
683,39
684,39
685,39
686,39
687,39
688,39
689,39
690,40
691,40
692,40
693,40
694,40
695,40
696,41
697,41
698,41
699,41
700,41
701,41
702,41
703,41
704,42
705,42
706,42
707,42
708,42
709,42
710,42
711,43
712,43
713,43
714,43
715,43
716,43
717,43
718,43
719,43
720,43
721,43
722,43
723,43
724,43
725,43
726,43
727,43
728,43
729,43
730,43
731,43
732,43
733,43
734,43
735,43
736,43
737,43
738,43
739,43
740,43
741,43
742,43
743,43
744,43
745,44
746,44
747,44
748,44
749,44
750,44
751,44
752,44
753,44
754,44
755,44
756,44
757,45
758,45
759,45
760,45
761,45
762,45
763,45
764,45
765,45
766,45
767,45
768,45
769,45
770,45
771,45
772,45
773,45
774,45
775,45
776,45
777,45
778,45
779,45
780,45
781,45
782,46
783,46
784,46
785,46
786,46
787,46
788,46
789,47
790,47
791,47
792,47
793,47
794,47
795,47
796,47
797,47
798,47
799,47
800,47
801,47
802,48
803,48
804,48
805,48
806,48
807,48
808,48
809,48
810,48
811,48
812,48
813,49
814,49
815,49
816,49
817,49
818,49
819,49
820,49
821,49
822,49
823,49
824,49
825,49
826,49
827,49
828,49
829,49
830,49
831,49
832,50
833,50
834,50
835,50
836,50
837,50
838,50
839,50
840,50
841,50
842,50
843,50
844,50
845,50
846,50
847,50
848,50
849,50
850,50
851,50
852,50
853,50
854,50
855,50
856,50
857,50
858,50
859,50
860,50
861,50
862,50
863,50
864,50
865,50
866,50
867,50
868,50
869,50
870,50
871,50
872,50
873,50
874,50
875,50
876,51
877,51
878,51
879,52
880,52
881,52
882,52
883,52
884,52
885,52
886,52
887,52
888,52
889,52
890,52
891,52
892,52
893,52
894,52
895,52
896,52
897,52
898,52
899,52
900,52
901,52
902,53
903,53
904,53
905,53
906,53
907,53
908,54
909,54
910,54
911,54
912,54
913,54
914,54
915,54
916,54
917,54
918,54
919,54
920,54
921,54
922,54
923,54
924,54
925,54
926,54
927,54
928,55
929,55
930,55
931,55
932,55
933,55
934,55
935,55
936,55
937,55
938,55
939,55
940,55
941,55
942,55
943,55
944,55
945,55
946,55
947,55
948,55
949,55
950,55
951,55
952,55
953,55
954,55
955,55
956,55
957,55
958,55
959,55
960,55
961,56
962,56
963,56
964,56
965,56
966,56
967,56
968,56
969,56
970,56
971,56
972,56
973,56
974,56
975,56
976,56
977,56
978,56
979,56
980,56
981,56
982,56
983,56
984,56
985,56
986,56
987,56
988,56
989,56
990,56
991,56
992,56
993,56
994,56
995,56
996,56
997,56
998,56
999,56
1000,56
1001,56
1002,56
1003,56
1004,56
1005,56
1006,56
1007,56
1008,56
1009,56
1010,56
1011,56
1012,56
1013,56
1014,57
1015,58
1016,58
1017,58
1018,58
1019,58
1020,58
1021,58
1022,58
1023,58
1024,58
1025,58
1026,58
1027,58
1028,58
1029,58
1030,58
1031,58
1032,58
1033,58
1034,58
1035,58
1036,58
1037,58
1038,58
1039,58
1040,58
1041,58
1042,58
1043,58
1044,58
1045,58
1046,58
1047,58
1048,58
1049,58
1050,58
1051,58
1052,58
1053,58
1054,58
1055,58
1056,58
1057,58
1058,58
1059,58
1060,58
1061,58
1062,58
1063,58
1064,58
1065,58
1066,58
1067,58
1068,58
1069,58
1070,58
1071,58
1072,58
1073,58
1074,58
1075,58
1076,58
1077,58
1078,58
1079,58
1080,58
1081,58
1082,58
1083,58
1084,58
1085,58
1086,58
1087,58
1088,58
1089,58
1090,58
1091,58
1092,58
1093,58
1094,58
1095,58
1096,58
1097,58
1098,58
1099,58
1100,58
1101,58
1102,58
1103,58
1104,58
1105,58
1106,58
1107,58
1108,58
1109,58
1110,58
1111,58
1112,58
1113,58
1114,58
1115,58
1116,58
1117,58
1118,58
1119,59
1120,59
1121,59
1122,59
1123,59
1124,59
1125,59
1126,59
1127,59
1128,59
1129,59
1130,59
1131,59
1132,59
1133,59
1134,59
1135,59
1136,59
1137,59
1138,60
1139,60
1140,60
1141,60
1142,60
1143,60
1144,60
1145,60
1146,60
1147,60
1148,60
1149,60
1150,60
1151,60
1152,60
1153,60
1154,60
1155,60
1156,60
1157,60
1158,60
1159,60
1160,60
1161,60
1162,60
1163,60
1164,60
1165,60
1166,60
1167,60
1168,60
1169,60
1170,61
1171,61
1172,61
1173,61
1174,61
1175,62
1176,62
1177,62
1178,62
1179,62
1180,62
1181,62
1182,62
1183,62
1184,62
1185,62
1186,62
1187,62
1188,62
1189,62
1190,62
1191,62
1192,62
1193,62
1194,62
1195,62
1196,63
1197,63
1198,63
1199,63
1200,63
1201,63
1202,63
1203,63
1204,63
1205,63
1206,63
1207,63
1208,63
1209,63
1210,63
1211,63
1212,63
1213,63
1214,63
1215,63
1216,63
1217,63
1218,63
1219,63
1220,63
1221,63
1222,63
1223,63
1224,63
1225,63
1226,63
1227,64
1228,64
1229,64
1230,64
1231,64
1232,64
1233,64
1234,64
1235,64
1236,64
1237,64
1238,64
1239,64
1240,64
1241,64
1242,65
1243,65
1244,65
1245,65
1246,65
1247,65
1248,65
1249,65
1250,65
1251,65
1252,65
1253,65
1254,65
1255,65
1256,65
1257,66
1258,66
1259,67
1260,67
1261,67
1262,67
1263,67
1264,68
1265,68
1266,68
1267,68
1268,68
1269,69
1270,69
1271,69
1272,69
1273,69
1274,69
1275,69
1276,70
1277,70
1278,70
1279,70
1280,70
1281,70
1282,70
1283,70
1284,70
1285,70
1286,70
1287,70
1288,71
1289,72
1290,72
1291,72
1292,72
1293,72
1294,73
1295,73
1296,73
1297,73
1298,73
1299,73
1300,73
1301,73
1302,73
1303,73
1304,73
1305,73
1306,73
1307,73
1308,73
1309,73
1310,73
1311,73
1312,74
1313,74
1314,74
1315,74
1316,74
1317,74
1318,74
1319,74
1320,74
1321,74
1322,74
1323,74
1324,74
1325,74
1326,74
1327,74
1328,74
1329,74
1330,74
1331,74
1332,74
1333,74
1334,74
1335,74
1336,74
1337,74
1338,74
1339,74
1340,74
1341,75
1342,75
1343,75
1344,75
1345,75
1346,75
1347,75
1348,75
1349,75
1350,75
1351,75
1352,75
1353,75
1354,75
1355,75
1356,75
1357,75
1358,75
1359,75
1360,75
1361,75
1362,75
1363,75
1364,75
1365,75
1366,75
1367,75
1368,75
1369,75
1370,75
1371,75
1372,75
1373,75
1374,75
1375,75
1376,75
1377,75
1378,75
1379,75
1380,75
1381,75
1382,75
1383,75
1384,75
1385,75
1386,75
1387,75
1388,75
1389,75
1390,75
1391,75
1392,76
1393,76
1394,76
1395,77
1396,77
1397,77
1398,77
1399,77
1400,77
1401,77
1402,77
1403,77
1404,77
1405,78
1406,78
1407,78
1408,78
1409,78
1410,78
1411,78
1412,78
1413,78
1414,78
1415,78
1416,78
1417,78
1418,79
1419,79
1420,79
1421,79
1422,79
1423,79
1424,79
1425,79
1426,79
1427,79
1428,79
1429,79
1430,79
1431,79
1432,79
1433,79
1434,79
1435,79
1436,79
1437,80
1438,80
1439,80
1440,80
1441,80
1442,80
1443,80
1444,80
1445,80
1446,80
1447,80
1448,80
1449,80
1450,80
1451,80
1452,80
1453,80
1454,80
1455,80
1456,80
1457,80
1458,80
1459,80
1460,80
1461,80
1462,80
1463,80
1464,80
1465,80
1466,80
1467,80
1468,80
1469,80
1470,80
1471,80
1472,80
1473,80
1474,80
1475,80
1476,80
1477,80
1478,80
1479,80
1480,80
1481,80
1482,80
1483,80
1484,80
1485,80
1486,80
1487,80
1488,80
1489,80
1490,80
1491,80
1492,80
1493,80
1494,80
1495,80
1496,81
1497,81
1498,81
1499,81
1500,81
1501,81
1502,81
1503,81
1504,81
1505,81
1506,81
1507,81
1508,81
1509,81
1510,81
1511,81
1512,81
1513,81
1514,81
1515,81
1516,81
1517,81
1518,81
1519,81
1520,81
1521,81
1522,81
1523,81
1524,81
1525,81
1526,81
1527,81
1528,81
1529,81
1530,81
1531,81
1532,81
1533,82
1534,82
1535,82
1536,82
1537,82
1538,82
1539,82
1540,82
1541,82
1542,82
1543,82
1544,82
1545,82
1546,82
1547,82
1548,82
1549,82
1550,82
1551,82
1552,82
1553,82
1554,82
1555,82
1556,82
1557,82
1558,82
1559,82
1560,82
1561,82
1562,82
1563,82
1564,82
1565,82
1566,82
1567,82
1568,82
1569,82
1570,82
1571,82
1572,82
1573,82
1574,82
1575,82
1576,82
1577,82
1578,82
1579,82
1580,82
1581,82
1582,82
1583,82
1584,83
1585,83
1586,83
1587,83
1588,83
1589,83
1590,83
1591,83
1592,83
1593,83
1594,83
1595,83
1596,83
1597,83
1598,83
1599,83
1600,83
1601,83
1602,83
1603,84
1604,84
1605,84
1606,84
1607,84
1608,84
1609,84
1610,84
1611,84
1612,84
1613,84
1614,84
1615,84
1616,84
1617,84
1618,84
1619,84
1620,84
1621,84
1622,84
1623,84
1624,84
1625,84
1626,84
1627,84
1628,84
1629,84
1630,84
1631,84
1632,84
1633,84
1634,84
1635,84
1636,84
1637,84
1638,84
1639,85
1640,85
1641,85
1642,85
1643,85
1644,85
1645,85
1646,85
1647,85
1648,85
1649,85
1650,85
1651,85
1652,85
1653,85
1654,85
1655,85
1656,85
1657,85
1658,85
1659,85
1660,86
1661,86
1662,86
1663,86
1664,86
1665,86
1666,87
1667,87
1668,87
1669,88
1670,88
1671,88
1672,88
1673,88
1674,88
1675,88
1676,88
1677,88
1678,88
1679,88
1680,88
1681,88
1682,88
1683,88
1684,88
1685,88
1686,89
1687,89
1688,89
1689,89
1690,89
1691,89
1692,89
1693,89
1694,89
1695,89
1696,89
1697,89
1698,89
1699,89
1700,89
1701,89
1702,89
1703,89
1704,89
1705,89
1706,90
1707,90
1708,90
1709,90
1710,90
1711,90
1712,90
1713,90
1714,90
1715,90
1716,90
1717,90
1718,90
1719,90
1720,90
1721,90
1722,90
1723,90
1724,90
1725,90
1726,90
1727,90
1728,90
1729,90
1730,90
1731,90
1732,91
1733,91
1734,91
1735,91
1736,91
1737,91
1738,91
1739,91
1740,91
1741,91
1742,91
1743,91
1744,91
1745,92
1746,92
1747,92
1748,93
1749,93
1750,93
1751,93
1752,94
1753,94
1754,94
1755,94
1756,94
1757,94
1758,94
1759,94
1760,94
1761,94
1762,94
1763,94
1764,94
1765,94
1766,94
1767,94
1768,94
1769,94
1770,95
1771,95
1772,95
1773,95
1774,95
1775,95
1776,95
1777,95
1778,95
1779,95
1780,95
1781,95
1782,95
1783,95
1784,95
1785,95
1786,95
1787,95
1788,95
1789,96
1790,96
1791,96
1792,97
1793,97
1794,97
1795,98
1796,98
1797,98
1798,98
1799,98
1800,98
1801,98
1802,98
1803,98
1804,99
1805,99
1806,99
1807,99
1808,99
1809,99
1810,99
1811,99
1812,101
1813,101
1814,101
1815,101
1816,101
1817,101
1818,101
1819,101
1820,101
1821,101
1822,101
1823,101
1824,101
1825,101
1826,101
1827,102
1828,102
1829,102
1830,102
1831,102
1832,102
1833,102
1834,102
1835,102
1836,102
1837,102
1838,102
1839,102
1840,102
1841,102
1842,102
1843,102
1844,102
1845,102
1846,102
1847,102
1848,102
1849,102
1850,102
1851,102
1852,102
1853,102
1854,102
1855,102
1856,102
1857,102
1858,102
1859,102
1860,102
1861,102
1862,102
1863,102
1864,102
1865,102
1866,102
1867,102
1868,102
1869,102
1870,102
1871,102
1872,102
1873,102
1874,102
1875,102
1876,102
1877,102
1878,102
1879,102
1880,102
1881,102
1882,102
1883,102
1884,102
1885,102
1886,102
1887,102
1888,102
1889,102
1890,102
1891,102
1892,102
1893,102
1894,102
1895,103
1896,103
1897,103
1898,103
1899,103
1900,103
1901,103
1902,103
1903,103
1904,103
1905,103
1906,103
1907,103
1908,103
1909,103
1910,103
1911,103
1912,103
1913,103
1914,103
1915,103
1916,103
1917,103
1918,103
1919,103
1920,103
1921,103
1922,103
1923,103
1924,103
1925,103
1926,103
1927,103
1928,103
1929,103
1930,103
1931,103
1932,104
1933,104
1934,104
1935,104
1936,104
1937,104
1938,104
1939,104
1940,104
1941,105
1942,105
1943,105
1944,105
1945,105
1946,105
1947,106
1948,106
1949,106
1950,106
1951,106
1952,106
1953,106
1954,106
1955,106
1956,106
1957,106
1958,106
1959,106
1960,106
1961,106
1962,106
1963,106
1964,106
1965,107
1966,107
1967,107
1968,107
1969,107
1970,107
1971,107
1972,107
1973,107
1974,107
1975,107
1976,108
1977,108
1978,108
1979,108
1980,108
1981,108
1982,108
1983,108
1984,108
1985,108
1986,108
1987,108
1988,108
1989,108
1990,108
1991,108
1992,108
1993,108
1994,108
1995,109
1996,109
1997,109
1998,110
1999,110
2000,110
