"tick","total"
0,0
1,3
2,3
3,4
4,4
5,4
6,4
7,5
8,5
9,5
10,5
11,5
12,5
13,5
14,5
15,5
16,5
17,5
18,5
19,5
20,5
21,5
22,5
23,5
24,5
25,5
26,6
27,6
28,6
29,6
30,7
31,7
32,7
33,7
34,7
35,7
36,7
37,7
38,8
39,8
40,8
41,8
42,8
43,8
44,8
45,8
46,8
47,10
48,10
49,11
50,11
51,11
52,11
53,11
54,11
55,11
56,11
57,12
58,12
59,12
60,12
61,12
62,12
63,12
64,12
65,12
66,12
67,12
68,12
69,12
70,12
71,12
72,12
73,12
74,12
75,12
76,13
77,13
78,13
79,13
80,13
81,13
82,13
83,13
84,13
85,13
86,13
87,13
88,13
89,14
90,14
91,14
92,14
93,14
94,14
95,14
96,14
97,14
98,14
99,14
100,14
101,14
102,14
103,14
104,14
105,14
106,14
107,14
108,14
109,14
110,14
111,14
112,14
113,14
114,14
115,14
116,14
117,14
118,14
119,14
120,14
121,14
122,15
123,15
124,15
125,15
126,15
127,15
128,15
129,15
130,15
131,15
132,15
133,15
134,15
135,15
136,15
137,15
138,15
139,15
140,15
141,15
142,15
143,15
144,15
145,15
146,15
147,15
148,15
149,16
150,16
151,16
152,16
153,16
154,16
155,16
156,16
157,16
158,16
159,16
160,16
161,17
162,17
163,17
164,18
165,18
166,18
167,18
168,18
169,18
170,19
171,19
172,19
173,19
174,19
175,19
176,20
177,20
178,20
179,20
180,20
181,20
182,20
183,20
184,20
185,20
186,21
187,21
188,21
189,21
190,21
191,21
192,21
193,21
194,22
195,22
196,22
197,22
198,22
199,22
200,22
201,22
202,22
203,22
204,22
205,22
206,22
207,22
208,22
209,22
210,22
211,22
212,22
213,22
214,22
215,22
216,23
217,23
218,23
219,23
220,23
221,23
222,24
223,24
224,24
225,24
226,24
227,27
228,27
229,27
230,27
231,27
232,28
233,28
234,28
235,28
236,28
237,28
238,28
239,29
240,29
241,29
242,29
243,30
244,30
245,30
246,30
247,30
248,30
249,30
250,30
251,30
252,30
253,30
254,30
255,30
256,30
257,30
258,30
259,30
260,30
261,30
262,30
263,31
264,31
265,31
266,31
267,31
268,31
269,31
270,31
271,32
272,32
273,32
274,32
275,32
276,32
277,32
278,32
279,32
280,34
281,34
282,34
283,34
284,34
285,34
286,34
287,34
288,34
289,34
290,34
291,34
292,34
293,34
294,34
295,34
296,34
297,34
298,35
299,35
300,35
301,35
302,35
303,35
304,35
305,35
306,35
307,35
308,35
309,35
310,36
311,36
312,36
313,36
314,36
315,37
316,37
317,37
318,37
319,37
320,37
321,37
322,38
323,38
324,38
325,38
326,38
327,38
328,39
329,39
330,40
331,40
332,40
333,40
334,40
335,40
336,40
337,40
338,40
339,40
340,40
341,40
342,40
343,40
344,40
345,40
346,41
347,41
348,41
349,41
350,41
351,41
352,41
353,41
354,41
355,41
356,41
357,41
358,41
359,43
360,43
361,43
362,43
363,43
364,43
365,43
366,43
367,43
368,43
369,43
370,43
371,43
372,43
373,44
374,44
375,44
376,44
377,44
378,44
379,44
380,44
381,44
382,45
383,45
384,45
385,45
386,45
387,45
388,45
389,45
390,45
391,45
392,45
393,45
394,45
395,45
396,45
397,45
398,45
399,45
400,45
401,45
402,45
403,45
404,45
405,45
406,45
407,46
408,46
409,46
410,46
411,46
412,46
413,46
414,47
415,47
416,47
417,47
418,47
419,47
420,47
421,47
422,47
423,47
424,47
425,47
426,47
427,47
428,47
429,48
430,48
431,48
432,48
433,48
434,48
435,48
436,48
437,49
438,49
439,49
440,49
441,49
442,49
443,49
444,49
445,49
446,50
447,50
448,50
449,51
450,52
451,52
452,52
453,52
454,52
455,52
456,52
457,52
458,52
459,52
460,52
461,52
462,52
463,52
464,52
465,52
466,52
467,52
468,52
469,52
470,52
471,52
472,52
473,52
474,52
475,52
476,52
477,52
478,52
479,52
480,52
481,53
482,53
483,53
484,53
485,53
486,53
487,53
488,53
489,53
490,53
491,53
492,54
493,54
494,54
495,54
496,54
497,54
498,54
499,54
500,54
501,54
502,54
503,54
504,54
505,54
506,54
507,54
508,54
509,54
510,54
511,54
512,54
513,54
514,54
515,54
516,54
517,54
518,54
519,54
520,54
521,54
522,54
523,54
524,55
525,55
526,55
527,55
528,55
529,55
530,55
531,56
532,56
533,56
534,57
535,57
536,57
537,57
538,57
539,58
540,58
541,58
542,58
543,58
544,58
545,58
546,58
547,58
548,58
549,58
550,58
551,59
552,59
553,59
554,59
555,60
556,60
557,60
558,60
559,60
560,60
561,60
562,60
563,60
564,60
565,60
566,60
567,60
568,60
569,60
570,60
571,60
572,61
573,61
574,61
575,61
576,62
577,62
578,62
579,62
580,62
581,62
582,62
583,62
584,62
585,62
586,62
587,62
588,63
589,63
590,63
591,63
592,63
593,63
594,63
595,63
596,63
597,63
598,63
599,63
600,63
601,63
602,63
603,63
604,63
605,63
606,63
607,64
608,64
609,64
610,64
611,64
612,64
613,64
614,64
615,64
616,64
617,64
618,64
619,64
620,64
621,64
622,64
623,64
624,64
625,65
626,65
627,65
628,65
629,65
630,65
631,65
632,65
633,65
634,65
635,66
636,66
637,66
638,66
639,66
640,66
641,66
642,66
643,66
644,66
645,66
646,66
647,66
648,66
649,66
650,66
651,66
652,66
653,67
654,67
655,67
656,67
657,67
658,67
659,67
660,67
661,67
662,67
663,67
664,67
665,67
666,67
667,67
668,67
669,67
670,67
671,67
672,67
673,67
674,67
675,67
676,67
677,67
678,67
679,67
680,67
681,67
682,68
683,68
684,68
685,68
686,68
687,68
688,68
689,68
690,68
691,68
692,68
693,68
694,68
695,68
696,68
697,68
698,68
699,68
700,68
701,68
702,68
703,68
704,68
705,68
706,68
707,68
708,68
709,68
710,68
711,68
712,68
713,68
714,70
715,70
716,70
717,70
718,70
719,70
720,70
721,70
722,70
723,70
724,70
725,70
726,70
727,70
728,70
729,70
730,70
731,70
732,70
733,70
734,70
735,70
736,70
737,70
738,70
739,70
740,70
741,70
742,70
743,70
744,70
745,70
746,70
747,70
748,70
749,70
750,70
751,71
752,71
753,71
754,71
755,71
756,71
757,71
758,71
759,71
760,71
761,72
762,72
763,72
764,72
765,72
766,72
767,72
768,72
769,72
770,72
771,72
772,72
773,72
774,72
775,72
776,72
777,72
778,72
779,72
780,72
781,72
782,72
783,72
784,72
785,72
786,72
787,72
788,72
789,72
790,72
791,72
792,72
793,72
794,72
795,72
796,72
797,72
798,72
799,73
800,73
801,73
802,73
803,73
804,73
805,74
806,74
807,74
808,74
809,74
810,75
811,75
812,75
813,77
814,77
815,77
816,77
817,77
818,77
819,77
820,77
821,77
822,77
823,77
824,77
825,77
826,77
827,77
828,77
829,77
830,77
831,77
832,77
833,77
834,77
835,77
836,77
837,78
838,78
839,78
840,78
841,78
842,78
843,78
844,78
845,78
846,78
847,78
848,78
849,78
850,78
851,78
852,79
853,80
854,80
855,80
856,80
857,80
858,81
859,82
860,82
861,82
862,82
863,82
864,82
865,83
866,83
867,83
868,83
869,83
870,83
871,83
872,83
873,83
874,83
875,83
876,83
877,83
878,83
879,83
880,83
881,83
882,83
883,83
884,83
885,83
886,83
887,83
888,83
889,83
890,83
891,83
892,83
893,83
894,83
895,83
896,83
897,83
898,83
899,83
900,83
901,83
902,83
903,83
904,83
905,83
906,83
907,83
908,84
909,84
910,84
911,84
912,84
913,84
914,84
915,84
916,84
917,85
918,85
919,85
920,85
921,85
922,85
923,85
924,85
925,85
926,85
927,85
928,85
929,85
930,85
931,85
932,86
933,86
934,86
935,86
936,86
937,86
938,86
939,87
940,88
941,88
942,88
943,88
944,88
945,88
946,88
947,89
948,89
949,89
950,89
951,89
952,89
953,89
954,90
955,90
956,90
957,90
958,90
959,90
960,90
961,90
962,90
963,90
964,90
965,90
966,90
967,90
968,90
969,90
970,90
971,90
972,90
973,90
974,90
975,90
976,90
977,90
978,90
979,91
980,91
981,91
982,91
983,92
984,92
985,92
986,92
987,92
988,92
989,92
990,92
991,92
992,92
993,92
994,92
995,92
996,92
997,92
998,92
999,92
1000,92
1001,92
1002,92
1003,92
1004,92
1005,92
1006,92
1007,92
1008,92
1009,92
1010,92
1011,92
1012,92
1013,92
1014,92
1015,92
1016,92
1017,92
1018,92
1019,92
1020,92
1021,92
1022,92
1023,93
1024,94
1025,94
1026,95
1027,95
1028,95
1029,95
1030,95
1031,95
1032,95
1033,95
1034,95
1035,95
1036,95
1037,95
1038,95
1039,96
1040,96
1041,96
1042,96
1043,96
1044,96
1045,96
1046,96
1047,96
1048,96
1049,96
1050,96
1051,96
1052,96
1053,96
1054,96
1055,96
1056,96
1057,96
1058,96
1059,96
1060,97
1061,97
1062,97
1063,97
1064,97
1065,98
1066,98
1067,98
1068,98
1069,98
1070,98
1071,98
1072,98
1073,98
1074,98
1075,98
1076,98
1077,98
1078,99
1079,99
1080,99
1081,99
1082,99
1083,99
1084,99
1085,99
1086,99
1087,99
1088,99
1089,99
1090,99
1091,99
1092,99
1093,99
1094,99
1095,99
1096,99
1097,99
1098,99
1099,99
1100,99
1101,99
1102,99
1103,99
1104,99
1105,99
1106,99
1107,99
1108,99
1109,99
1110,99
1111,99
1112,99
1113,99
1114,99
1115,100
1116,100
1117,100
1118,100
1119,100
1120,100
1121,100
1122,100
1123,100
1124,101
1125,101
1126,101
1127,101
1128,101
1129,101
1130,101
1131,101
1132,101
1133,101
1134,101
1135,101
1136,101
1137,102
1138,102
1139,102
1140,102
1141,102
1142,102
1143,102
1144,102
1145,102
1146,102
1147,102
1148,102
1149,102
1150,102
1151,102
1152,102
1153,102
1154,102
1155,102
1156,102
1157,102
1158,102
1159,102
1160,102
1161,102
1162,102
1163,102
1164,102
1165,102
1166,102
1167,102
1168,102
1169,102
1170,102
1171,102
1172,103
1173,103
1174,103
1175,103
1176,103
1177,103
1178,103
1179,103
1180,103
1181,103
1182,103
1183,103
1184,103
1185,103
1186,103
1187,103
1188,103
1189,103
1190,103
1191,103
1192,103
1193,103
1194,103
1195,103
1196,103
1197,103
1198,105
1199,105
1200,105
1201,105
1202,105
1203,105
1204,105
1205,105
1206,105
1207,105
1208,105
1209,105
1210,105
1211,105
1212,105
1213,105
1214,105
1215,105
1216,105
1217,105
1218,105
1219,105
1220,105
1221,105
1222,105
1223,105
1224,106
1225,106
1226,106
1227,106
1228,106
1229,106
1230,106
1231,106
1232,106
1233,106
1234,106
1235,106
1236,106
1237,106
1238,106
1239,106
1240,106
1241,107
1242,107
1243,109
1244,109
1245,110
1246,110
1247,110
1248,110
1249,110
1250,111
1251,111
1252,111
1253,111
1254,111
1255,111
1256,111
1257,111
1258,111
1259,111
1260,112
1261,112
1262,112
1263,112
1264,112
1265,112
1266,112
1267,112
1268,112
1269,112
1270,112
1271,112
1272,112
1273,112
1274,112
1275,112
1276,112
1277,112
1278,112
1279,112
1280,112
1281,112
1282,112
1283,112
1284,112
1285,112
1286,112
1287,112
1288,112
1289,112
1290,112
1291,112
1292,112
1293,112
1294,112
1295,112
1296,112
1297,112
1298,112
1299,112
1300,112
1301,112
1302,112
1303,112
1304,112
1305,113
1306,113
1307,113
1308,113
1309,113
1310,113
1311,113
1312,113
1313,113
1314,113
1315,113
1316,113
1317,113
1318,114
1319,114
1320,114
1321,114
1322,114
1323,114
1324,114
1325,114
1326,114
1327,114
1328,114
1329,114
1330,114
1331,114
1332,114
1333,114
1334,114
1335,114
1336,114
1337,114
1338,114
1339,114
1340,115
1341,115
1342,115
1343,115
1344,115
1345,115
1346,115
1347,115
1348,115
1349,115
1350,115
1351,115
1352,115
1353,115
1354,115
1355,115
1356,115
1357,115
1358,115
1359,115
1360,115
1361,115
1362,115
1363,115
1364,115
1365,115
1366,116
1367,116
1368,116
1369,116
1370,116
1371,116
1372,116
1373,116
1374,116
1375,116
1376,116
1377,116
1378,116
1379,116
1380,116
1381,116
1382,116
1383,116
1384,117
1385,117
1386,117
1387,117
1388,117
1389,117
1390,117
1391,117
1392,117
1393,117
1394,117
1395,117
1396,118
1397,118
1398,118
1399,118
1400,118
1401,118
1402,118
1403,118
1404,118
1405,118
1406,118
1407,118
1408,118
1409,118
1410,118
1411,118
1412,118
1413,118
1414,118
1415,118
1416,118
1417,119
1418,119
1419,120
1420,120
1421,120
1422,120
1423,120
1424,120
1425,120
1426,120
1427,120
1428,120
1429,120
1430,120
1431,120
1432,120
1433,120
1434,120
1435,120
1436,120
1437,120
1438,120
1439,120
1440,120
1441,120
1442,120
1443,120
1444,120
1445,120
1446,120
1447,120
1448,120
1449,120
1450,120
1451,120
1452,120
1453,120
1454,120
1455,120
1456,120
1457,120
1458,120
1459,120
1460,120
1461,120
1462,120
1463,120
1464,120
1465,120
1466,120
1467,120
1468,120
1469,120
1470,120
1471,120
1472,120
1473,120
1474,120
1475,120
1476,120
1477,120
1478,120
1479,120
1480,120
1481,120
1482,120
1483,120
1484,120
1485,121
1486,121
1487,121
1488,121
1489,121
1490,121
1491,121
1492,121
1493,121
1494,121
1495,121
1496,121
1497,121
1498,121
1499,121
1500,121
1501,122
1502,122
1503,122
1504,122
1505,122
1506,122
1507,122
1508,122
1509,122
1510,122
1511,122
1512,122
1513,122
1514,122
1515,122
1516,122
1517,122
1518,122
1519,122
1520,123
1521,123
1522,124
1523,124
1524,124
1525,124
1526,124
1527,124
1528,124
1529,124
1530,124
1531,124
1532,124
1533,124
1534,124
1535,124
1536,124
1537,124
1538,124
1539,124
1540,124
1541,124
1542,124
1543,124
1544,124
1545,124
1546,124
1547,124
1548,124
1549,124
1550,124
1551,124
1552,124
1553,124
1554,124
1555,124
1556,125
1557,125
1558,125
1559,125
1560,125
1561,125
1562,125
1563,125
1564,125
1565,125
1566,125
1567,125
1568,125
1569,125
1570,125
1571,125
1572,125
1573,125
1574,125
1575,125
1576,125
1577,125
1578,125
1579,125
1580,125
1581,125
1582,125
1583,125
1584,125
1585,125
1586,125
1587,125
1588,125
1589,125
1590,125
1591,125
1592,125
1593,125
1594,125
1595,125
1596,125
1597,125
1598,125
1599,125
1600,125
1601,125
1602,125
1603,125
1604,125
1605,125
1606,125
1607,125
1608,125
1609,125
1610,125
1611,125
1612,125
1613,125
1614,125
1615,125
1616,125
1617,125
1618,125
1619,125
1620,125
1621,125
1622,125
1623,125
1624,125
1625,125
1626,125
1627,125
1628,125
1629,125
1630,125
1631,125
1632,125
1633,125
1634,125
1635,125
1636,125
1637,126
1638,126
1639,126
1640,126
1641,126
1642,126
1643,126
1644,126
1645,126
1646,126
1647,126
1648,126
1649,126
1650,126
1651,126
1652,126
1653,126
1654,126
1655,126
1656,126
1657,126
1658,126
1659,126
1660,126
1661,126
1662,126
1663,127
1664,127
1665,127
1666,127
1667,127
1668,127
1669,127
1670,128
1671,128
1672,128
1673,128
1674,128
1675,128
1676,128
1677,128
1678,128
1679,128
1680,128
1681,128
1682,128
1683,128
1684,128
1685,128
1686,129
1687,129
1688,129
1689,129
1690,129
1691,129
1692,129
1693,129
1694,129
1695,130
1696,130
1697,130
1698,130
1699,130
1700,130
1701,130
1702,130
1703,131
1704,131
1705,131
1706,131
1707,132
1708,132
1709,132
1710,132
1711,132
1712,132
1713,132
1714,132
1715,132
1716,133
1717,133
1718,133
1719,134
1720,134
1721,134
1722,134
1723,134
1724,134
1725,134
1726,134
1727,134
1728,134
1729,134
1730,134
1731,134
1732,134
1733,134
1734,134
1735,134
1736,134
1737,135
1738,135
1739,135
1740,135
1741,135
1742,135
1743,135
1744,135
1745,135
1746,136
1747,136
1748,136
1749,136
1750,136
1751,136
1752,136
1753,136
1754,136
1755,136
1756,137
1757,137
1758,137
1759,137
1760,137
1761,137
1762,137
1763,137
1764,137
1765,137
1766,137
1767,137
1768,137
1769,137
1770,137
1771,137
1772,137
1773,137
1774,137
1775,138
1776,138
1777,138
1778,139
1779,139
1780,139
1781,139
1782,139
1783,139
1784,139
1785,139
1786,139
1787,139
1788,139
1789,139
1790,139
1791,139
1792,139
1793,139
1794,139
1795,139
1796,139
1797,139
1798,140
1799,140
1800,140
1801,140
1802,140
1803,140
1804,140
1805,140
1806,140
1807,140
1808,140
1809,140
1810,140
1811,140
1812,140
1813,140
1814,140
1815,140
1816,140
1817,140
1818,140
1819,140
1820,140
1821,140
1822,140
1823,140
1824,140
1825,140
1826,140
1827,141
1828,141
1829,141
1830,141
1831,141
1832,141
1833,141
1834,141
1835,141
1836,141
1837,141
1838,141
1839,141
1840,141
1841,141
1842,141
1843,141
1844,141
1845,141
1846,142
1847,142
1848,142
1849,142
1850,142
1851,142
1852,142
1853,142
1854,142
1855,142
1856,142
1857,142
1858,142
1859,142
1860,142
1861,142
1862,142
1863,142
1864,142
1865,142
1866,142
1867,142
1868,142
1869,142
1870,142
1871,142
1872,142
1873,142
1874,142
1875,142
1876,142
1877,142
1878,142
1879,143
1880,143
1881,143
1882,143
1883,143
1884,143
1885,143
1886,143
1887,143
1888,143
1889,143
1890,144
1891,144
1892,144
1893,144
1894,144
1895,144
1896,144
1897,144
1898,144
1899,144
1900,144
1901,144
1902,144
1903,144
1904,144
1905,144
1906,144
1907,144
1908,144
1909,144
1910,144
1911,144
1912,144
1913,144
1914,144
1915,144
1916,144
1917,144
1918,144
1919,144
1920,144
1921,144
1922,144
1923,144
1924,144
1925,144
1926,144
1927,144
1928,144
1929,144
1930,144
1931,144
1932,144
1933,144
1934,144
1935,144
1936,144
1937,144
1938,144
1939,144
1940,144
1941,144
1942,144
1943,144
1944,144
1945,144
1946,144
1947,144
1948,144
1949,144
1950,144
1951,144
1952,144
1953,144
1954,144
1955,144
1956,144
1957,144
1958,144
1959,145
1960,145
1961,145
1962,145
1963,145
1964,145
1965,145
1966,145
1967,145
1968,145
1969,145
1970,145
1971,145
1972,145
1973,145
1974,145
1975,145
1976,145
1977,145
1978,145
1979,145
1980,145
1981,145
1982,145
1983,145
1984,145
1985,145
1986,145
1987,145
1988,145
1989,145
1990,145
1991,145
1992,145
1993,145
1994,146
1995,146
1996,146
1997,146
1998,146
1999,147
2000,147
