"tick","total"
0,0
1,0
2,0
3,0
4,0
5,0
6,0
7,0
8,0
9,0
10,0
11,0
12,0
13,0
14,0
15,0
16,0
17,0
18,0
19,0
20,0
21,0
22,0
23,0
24,0
25,0
26,0
27,0
28,0
29,0
30,0
31,0
32,0
33,0
34,0
35,0
36,0
37,0
38,0
39,0
40,0
41,0
42,0
43,0
44,0
45,0
46,0
47,0
48,0
49,0
50,0
51,0
52,0
53,0
54,0
55,0
56,0
57,0
58,0
59,0
60,0
61,0
62,0
63,0
64,0
65,0
66,0
67,0
68,0
69,0
70,0
71,0
72,0
73,0
74,0
75,0
76,0
77,0
78,0
79,0
80,0
81,0
82,0
83,0
84,0
85,0
86,0
87,0
88,0
89,0
90,0
91,0
92,0
93,0
94,0
95,0
96,0
97,0
98,0
99,0
100,0
101,0
102,0
103,0
104,0
105,0
106,0
107,0
108,0
109,0
110,0
111,0
112,0
113,0
114,0
115,0
116,0
117,0
118,0
119,0
120,0
121,0
122,0
123,0
124,0
125,0
126,0
127,0
128,0
129,0
130,0
131,0
132,0
133,0
134,0
135,0
136,0
137,0
138,0
139,0
140,0
141,0
142,0
143,0
144,0
145,0
146,0
147,0
148,0
149,0
150,0
151,0
152,0
153,0
154,0
155,0
156,0
157,0
158,0
159,0
160,0
161,0
162,0
163,0
164,0
165,0
166,0
167,0
168,0
169,0
170,0
171,0
172,0
173,0
174,0
175,0
176,0
177,0
178,0
179,0
180,0
181,0
182,0
183,0
184,0
185,0
186,0
187,0
188,0
189,0
190,0
191,0
192,0
193,0
194,0
195,0
196,0
197,0
198,0
199,0
200,0
201,0
202,0
203,0
204,0
205,0
206,0
207,0
208,0
209,0
210,0
211,0
212,1
213,1
214,1
215,1
216,1
217,1
218,1
219,2
220,2
221,2
222,2
223,2
224,2
225,2
226,2
227,2
228,2
229,3
230,3
231,3
232,3
233,3
234,3
235,3
236,3
237,3
238,3
239,4
240,4
241,4
242,4
243,4
244,4
245,4
246,4
247,4
248,4
249,4
250,4
251,5
252,5
253,5
254,5
255,5
256,5
257,5
258,5
259,6
260,6
261,7
262,7
263,7
264,7
265,7
266,7
267,7
268,7
269,7
270,7
271,7
272,7
273,7
274,7
275,7
276,7
277,7
278,8
279,8
280,9
281,9
282,9
283,10
284,10
285,11
286,11
287,11
288,11
289,11
290,11
291,11
292,11
293,11
294,11
295,11
296,11
297,11
298,12
299,12
300,12
301,13
302,13
303,13
304,13
305,13
306,13
307,13
308,13
309,13
310,13
311,13
312,13
313,13
314,13
315,13
316,13
317,13
318,13
319,13
320,13
321,13
322,13
323,13
324,13
325,13
326,13
327,13
328,13
329,13
330,13
331,13
332,13
333,13
334,13
335,13
336,13
337,13
338,13
339,13
340,14
341,14
342,14
343,14
344,14
345,15
346,15
347,15
348,16
349,16
350,16
351,16
352,16
353,16
354,16
355,16
356,16
357,16
358,16
359,16
360,16
361,16
362,16
363,16
364,16
365,16
366,16
367,16
368,17
369,17
370,17
371,17
372,17
373,17
374,18
375,18
376,18
377,19
378,19
379,19
380,19
381,19
382,19
383,19
384,19
385,19
386,19
387,19
388,19
389,19
390,19
391,19
392,19
393,19
394,19
395,19
396,19
397,19
398,19
399,19
400,19
401,19
402,19
403,19
404,19
405,19
406,19
407,19
408,19
409,19
410,19
411,19
412,20
413,20
414,20
415,21
416,21
417,21
418,21
419,21
420,21
421,21
422,21
423,22
424,22
425,22
426,22
427,22
428,22
429,22
430,22
431,22
432,22
433,23
434,23
435,23
436,24
437,24
438,24
439,24
440,24
441,24
442,24
443,24
444,24
445,24
446,24
447,24
448,24
449,24
450,24
451,25
452,25
453,25
454,26
455,26
456,26
457,26
458,27
459,27
460,27
461,27
462,27
463,27
464,27
465,27
466,27
467,27
468,27
469,27
470,27
471,27
472,27
473,27
474,27
475,27
476,27
477,27
478,27
479,27
480,27
481,27
482,27
483,27
484,27
485,27
486,27
487,27
488,27
489,27
490,27
491,27
492,27
493,27
494,27
495,27
496,27
497,27
498,27
499,27
500,27
501,27
502,27
503,27
504,27
505,27
506,27
507,27
508,27
509,27
510,27
511,27
512,28
513,28
514,28
515,28
516,28
517,28
518,28
519,28
520,28
521,28
522,28
523,28
524,28
525,28
526,28
527,28
528,28
529,28
530,28
531,28
532,28
533,28
534,28
535,28
536,28
537,28
538,28
539,28
540,28
541,28
542,28
543,28
544,28
545,28
546,28
547,28
548,28
549,28
550,28
551,28
552,28
553,28
554,28
555,28
556,28
557,28
558,28
559,28
560,28
561,28
562,28
563,28
564,28
565,28
566,29
567,29
568,29
569,29
570,29
571,29
572,29
573,29
574,29
575,29
576,29
577,29
578,29
579,29
580,31
581,31
582,31
583,31
584,31
585,31
586,31
587,31
588,31
589,31
590,31
591,31
592,31
593,31
594,31
595,31
596,32
597,32
598,32
599,32
600,32
601,32
602,33
603,33
604,33
605,33
606,33
607,33
608,33
609,33
610,33
611,33
612,33
613,33
614,34
615,34
616,34
617,34
618,34
619,34
620,34
621,35
622,36
623,36
624,36
625,36
626,36
627,36
628,36
629,36
630,36
631,36
632,36
633,36
634,36
635,36
636,36
637,36
638,36
639,36
640,36
641,36
642,36
643,36
644,36
645,37
646,37
647,37
648,37
649,37
650,37
651,37
652,37
653,37
654,37
655,38
656,38
657,39
658,39
659,39
660,39
661,39
662,39
663,40
664,40
665,40
666,40
667,40
668,40
669,40
670,40
671,40
672,40
673,40
674,40
675,40
676,40
677,40
678,40
679,40
680,40
681,40
682,40
683,40
684,40
685,40
686,40
687,40
688,40
689,40
690,40
691,40
692,40
693,40
694,40
695,40
696,40
697,40
698,40
699,40
700,40
701,40
702,40
703,40
704,40
705,40
706,40
707,40
708,40
709,40
710,40
711,40
712,40
713,40
714,40
715,40
716,40
717,40
718,40
719,40
720,40
721,40
722,40
723,40
724,40
725,40
726,40
727,40
728,40
729,40
730,40
731,40
732,40
733,40
734,40
735,40
736,40
737,40
738,40
739,40
740,40
741,40
742,40
743,40
744,40
745,40
746,40
747,40
748,40
749,40
750,40
751,40
752,40
753,40
754,40
755,40
756,40
757,41
758,41
759,41
760,41
761,41
762,41
763,41
764,41
765,41
766,41
767,41
768,41
769,41
770,41
771,41
772,41
773,41
774,41
775,41
776,41
777,41
778,41
779,41
780,41
781,41
782,41
783,41
784,41
785,41
786,41
787,41
788,41
789,41
790,41
791,41
792,41
793,41
794,41
795,41
796,41
797,41
798,41
799,41
800,41
801,41
802,41
803,42
804,42
805,42
806,42
807,42
808,42
809,42
810,42
811,42
812,42
813,42
814,42
815,42
816,42
817,42
818,42
819,42
820,42
821,42
822,42
823,42
824,42
825,42
826,43
827,43
828,43
829,43
830,43
831,43
832,43
833,43
834,43
835,44
836,44
837,44
838,44
839,44
840,44
841,44
842,44
843,44
844,44
845,44
846,44
847,44
848,44
849,44
850,44
851,44
852,44
853,44
854,44
855,44
856,44
857,44
858,44
859,44
860,44
861,44
862,44
863,44
864,44
865,44
866,44
867,44
868,44
869,44
870,44
871,44
872,44
873,44
874,44
875,44
876,44
877,44
878,44
879,45
880,45
881,45
882,45
883,45
884,45
885,45
886,45
887,45
888,45
889,45
890,45
891,45
892,45
893,45
894,45
895,45
896,45
897,45
898,45
899,45
900,45
901,45
902,45
903,45
904,45
905,45
906,45
907,45
908,45
909,45
910,45
911,45
912,45
913,45
914,46
915,46
916,46
917,46
918,46
919,46
920,46
921,46
922,46
923,46
924,46
925,46
926,46
927,46
928,46
929,46
930,46
931,46
932,46
933,46
934,46
935,46
936,46
937,46
938,46
939,46
940,47
941,47
942,47
943,47
944,47
945,47
946,47
947,47
948,47
949,47
950,47
951,47
952,47
953,47
954,47
955,47
956,47
957,47
958,47
959,47
960,47
961,47
962,47
963,47
964,47
965,47
966,47
967,47
968,47
969,47
970,47
971,47
972,47
973,47
974,47
975,47
976,47
977,47
978,47
979,47
980,47
981,47
982,47
983,47
984,47
985,47
986,47
987,47
988,47
989,47
990,47
991,47
992,47
993,47
994,47
995,47
996,47
997,47
998,47
999,47
1000,47
1001,47
1002,47
1003,47
1004,47
1005,47
1006,47
1007,47
1008,47
1009,47
1010,47
1011,47
1012,47
1013,47
1014,47
1015,47
1016,47
1017,47
1018,47
1019,47
1020,47
1021,47
1022,47
1023,47
1024,47
1025,47
1026,47
1027,47
1028,47
1029,47
1030,47
1031,47
1032,47
1033,47
1034,47
1035,47
1036,47
1037,47
1038,47
1039,47
1040,47
1041,47
1042,47
1043,47
1044,47
1045,47
1046,47
1047,47
1048,47
1049,47
1050,47
1051,47
1052,47
1053,47
1054,47
1055,47
1056,47
1057,47
1058,47
1059,47
1060,47
1061,47
1062,47
1063,47
1064,47
1065,47
1066,47
1067,47
1068,47
1069,47
1070,47
1071,47
1072,47
1073,47
1074,48
1075,48
1076,48
1077,48
1078,48
1079,48
1080,48
1081,48
1082,48
1083,48
1084,48
1085,48
1086,48
1087,48
1088,48
1089,48
1090,48
1091,48
1092,48
1093,48
1094,48
1095,48
1096,48
1097,48
1098,48
1099,48
1100,48
1101,48
1102,48
1103,48
1104,48
1105,48
1106,48
1107,48
1108,48
1109,48
1110,48
1111,48
1112,48
1113,48
1114,48
1115,48
1116,48
1117,48
1118,48
1119,48
1120,48
1121,48
1122,48
1123,48
1124,48
1125,48
1126,48
1127,48
1128,48
1129,48
1130,48
1131,48
1132,48
1133,48
1134,48
1135,48
1136,48
1137,48
1138,48
1139,48
1140,48
1141,48
1142,48
1143,48
1144,48
1145,48
1146,48
1147,48
1148,48
1149,48
1150,48
1151,48
1152,48
1153,49
1154,49
1155,49
1156,49
1157,49
1158,49
1159,49
1160,49
1161,49
1162,49
1163,49
1164,49
1165,49
1166,49
1167,49
1168,49
1169,49
1170,49
1171,49
1172,49
1173,49
1174,49
1175,49
1176,50
1177,50
1178,50
1179,50
1180,50
1181,50
1182,50
1183,50
1184,50
1185,50
1186,50
1187,50
1188,50
1189,50
1190,50
1191,50
1192,50
1193,50
1194,50
1195,50
1196,51
1197,52
1198,52
1199,52
1200,52
1201,52
1202,52
1203,52
1204,52
1205,52
1206,52
1207,52
1208,52
1209,52
1210,52
1211,52
1212,53
1213,53
1214,53
1215,53
1216,53
1217,53
1218,53
1219,53
1220,53
1221,53
1222,53
1223,53
1224,53
1225,53
1226,53
1227,53
1228,53
1229,53
1230,53
1231,54
1232,54
1233,54
1234,54
1235,54
1236,54
1237,54
1238,55
1239,55
1240,55
1241,55
1242,55
1243,55
1244,55
1245,55
1246,55
1247,55
1248,55
1249,55
1250,55
1251,55
1252,55
1253,55
1254,55
1255,55
1256,55
1257,55
1258,55
1259,55
1260,55
1261,55
1262,55
1263,55
1264,55
1265,55
1266,55
1267,55
1268,55
1269,55
1270,55
1271,55
1272,55
1273,55
1274,55
1275,55
1276,55
1277,55
1278,55
1279,55
1280,55
1281,55
1282,55
1283,55
1284,55
1285,55
1286,55
1287,55
1288,55
1289,55
1290,55
1291,55
1292,56
1293,56
1294,56
1295,56
1296,56
1297,56
1298,56
1299,58
1300,58
1301,58
1302,58
1303,58
1304,58
1305,58
1306,58
1307,58
1308,58
1309,58
1310,58
1311,58
1312,58
1313,58
1314,58
1315,58
1316,58
1317,58
1318,58
1319,59
1320,59
1321,59
1322,59
1323,60
1324,60
1325,61
1326,61
1327,61
1328,61
1329,61
1330,61
1331,61
1332,61
1333,61
1334,61
1335,61
1336,61
1337,61
1338,61
1339,61
1340,61
1341,61
1342,61
1343,61
1344,61
1345,61
1346,61
1347,61
1348,61
1349,61
1350,61
1351,61
1352,61
1353,61
1354,61
1355,61
1356,61
1357,61
1358,61
1359,61
1360,61
1361,61
1362,61
1363,61
1364,61
1365,61
1366,61
1367,61
1368,61
1369,61
1370,61
1371,61
1372,61
1373,61
1374,61
1375,61
1376,61
1377,61
1378,61
1379,61
1380,61
1381,61
1382,61
1383,61
1384,61
1385,61
1386,61
1387,61
1388,61
1389,61
1390,62
1391,63
1392,63
1393,63
1394,63
1395,63
1396,63
1397,63
1398,63
1399,63
1400,63
1401,63
1402,63
1403,63
1404,63
1405,63
1406,64
1407,64
1408,64
1409,64
1410,64
1411,64
1412,64
1413,64
1414,64
1415,64
1416,64
1417,64
1418,64
1419,64
1420,64
1421,64
1422,64
1423,64
1424,64
1425,64
1426,64
1427,64
1428,64
1429,65
1430,66
1431,66
1432,66
1433,66
1434,66
1435,66
1436,66
1437,66
1438,66
1439,66
1440,66
1441,66
1442,67
1443,67
1444,67
1445,67
1446,67
1447,67
1448,67
1449,67
1450,67
1451,67
1452,67
1453,67
1454,67
1455,67
1456,67
1457,67
1458,68
1459,69
1460,69
1461,69
1462,69
1463,69
1464,69
1465,69
1466,69
1467,69
1468,69
1469,69
1470,69
1471,69
1472,69
1473,69
1474,69
1475,69
1476,69
1477,69
1478,69
1479,69
1480,69
1481,69
1482,69
1483,69
1484,69
1485,70
1486,70
1487,70
1488,70
1489,70
1490,70
1491,70
1492,70
1493,70
1494,70
1495,70
1496,70
1497,70
1498,70
1499,70
1500,70
1501,70
1502,70
1503,70
1504,70
1505,70
1506,70
1507,70
1508,70
1509,70
1510,70
1511,70
1512,70
1513,70
1514,70
1515,70
1516,70
1517,70
1518,70
1519,70
1520,70
1521,70
1522,70
1523,70
1524,70
1525,70
1526,70
1527,70
1528,70
1529,70
1530,70
1531,70
1532,70
1533,70
1534,70
1535,70
1536,70
1537,70
1538,70
1539,70
1540,70
1541,70
1542,70
1543,70
1544,70
1545,70
1546,70
1547,70
1548,70
1549,70
1550,70
1551,70
1552,70
1553,70
1554,70
1555,70
1556,70
1557,70
1558,70
1559,70
1560,70
1561,70
1562,70
1563,70
1564,70
1565,70
1566,70
1567,70
1568,70
1569,70
1570,70
1571,70
1572,70
1573,70
1574,70
1575,70
1576,70
1577,70
1578,70
1579,70
1580,70
1581,70
1582,70
1583,70
1584,70
1585,70
1586,70
1587,70
1588,70
1589,70
1590,70
1591,71
1592,71
1593,71
1594,71
1595,71
1596,72
1597,72
1598,72
1599,72
1600,72
1601,72
1602,72
1603,72
1604,72
1605,72
1606,72
1607,72
1608,72
1609,72
1610,72
1611,72
1612,72
1613,72
1614,72
1615,72
1616,72
1617,72
1618,72
1619,72
1620,72
1621,72
1622,72
1623,72
1624,72
1625,72
1626,72
1627,72
1628,72
1629,72
1630,72
1631,72
1632,72
1633,72
1634,72
1635,72
1636,72
1637,72
1638,72
1639,72
1640,72
1641,72
1642,72
1643,72
1644,72
1645,72
1646,72
1647,72
1648,72
1649,72
1650,72
1651,72
1652,72
1653,72
1654,72
1655,72
1656,72
1657,72
1658,72
1659,72
1660,72
1661,72
1662,73
1663,73
1664,73
1665,73
1666,73
1667,73
1668,73
1669,73
1670,73
1671,73
1672,73
1673,73
1674,73
1675,73
1676,73
1677,73
1678,73
1679,73
1680,73
1681,73
1682,73
1683,73
1684,73
1685,73
1686,73
1687,73
1688,73
1689,73
1690,73
1691,73
1692,73
1693,73
1694,73
1695,73
1696,73
1697,73
1698,73
1699,73
1700,73
1701,73
1702,73
1703,73
1704,73
1705,73
1706,73
1707,73
1708,73
1709,73
1710,73
1711,75
1712,75
1713,75
1714,75
1715,75
1716,75
1717,76
1718,76
1719,76
1720,76
1721,76
1722,76
1723,76
1724,76
1725,76
1726,76
1727,76
1728,76
1729,76
1730,76
1731,76
1732,76
1733,76
1734,76
1735,76
1736,76
1737,76
1738,76
1739,76
1740,76
1741,76
1742,76
1743,76
1744,76
1745,77
1746,77
1747,77
1748,77
1749,77
1750,77
1751,77
1752,77
1753,77
1754,77
1755,78
1756,78
1757,78
1758,78
1759,78
1760,78
1761,78
1762,78
1763,78
1764,78
1765,78
1766,78
1767,78
1768,78
1769,78
1770,78
1771,78
1772,78
1773,78
1774,78
1775,78
1776,78
1777,78
1778,78
1779,78
1780,78
1781,78
1782,78
1783,78
1784,78
1785,78
1786,78
1787,78
1788,78
1789,79
1790,79
1791,79
1792,79
1793,79
1794,79
1795,79
1796,79
1797,79
1798,79
1799,79
1800,79
1801,79
1802,79
1803,79
1804,79
1805,79
1806,79
1807,79
1808,79
1809,79
1810,79
1811,79
1812,79
1813,79
1814,79
1815,79
1816,79
1817,79
1818,79
1819,79
1820,79
1821,79
1822,79
1823,79
1824,79
1825,79
1826,79
1827,79
1828,79
1829,79
1830,79
1831,79
1832,79
1833,79
1834,79
1835,79
1836,79
1837,79
1838,79
1839,79
1840,79
1841,79
1842,79
1843,79
1844,79
1845,79
1846,79
1847,79
1848,79
1849,79
1850,79
1851,79
1852,79
1853,80
1854,80
1855,80
1856,80
1857,80
1858,80
1859,80
1860,80
1861,80
1862,80
1863,80
1864,80
1865,80
1866,80
1867,80
1868,80
1869,80
1870,80
1871,80
1872,80
1873,80
1874,80
1875,80
1876,80
1877,80
1878,80
1879,80
1880,80
1881,80
1882,80
1883,80
1884,81
1885,81
1886,81
1887,81
1888,81
1889,81
1890,81
1891,81
1892,81
1893,81
1894,81
1895,81
1896,81
1897,81
1898,82
1899,82
1900,82
1901,82
1902,82
1903,82
1904,82
1905,82
1906,82
1907,82
1908,82
1909,82
1910,82
1911,82
1912,82
1913,82
1914,83
1915,83
1916,83
1917,84
1918,84
1919,84
1920,84
1921,84
1922,84
1923,84
1924,84
1925,85
1926,85
1927,85
1928,85
1929,85
1930,85
1931,85
1932,85
1933,85
1934,85
1935,85
1936,85
1937,85
1938,85
1939,85
1940,85
1941,85
1942,85
1943,85
1944,85
1945,85
1946,85
1947,85
1948,85
1949,85
1950,85
1951,85
1952,85
1953,85
1954,85
1955,85
1956,86
1957,86
1958,86
1959,86
1960,86
1961,86
1962,86
1963,86
1964,86
1965,86
1966,86
1967,86
1968,86
1969,86
1970,86
1971,86
1972,86
1973,86
1974,86
1975,86
1976,86
1977,87
1978,87
1979,87
1980,88
1981,88
1982,89
1983,89
1984,89
1985,89
1986,89
1987,89
1988,89
1989,89
1990,89
1991,89
1992,89
1993,89
1994,89
1995,89
1996,89
1997,89
1998,89
1999,89
2000,89
