"tick","total"
0,0
1,0
2,0
3,0
4,0
5,0
6,0
7,0
8,0
9,0
10,0
11,0
12,0
13,0
14,0
15,0
16,0
17,0
18,0
19,0
20,0
21,0
22,0
23,0
24,0
25,0
26,0
27,0
28,0
29,0
30,0
31,0
32,0
33,0
34,0
35,0
36,0
37,0
38,0
39,0
40,0
41,0
42,0
43,0
44,0
45,0
46,0
47,0
48,0
49,0
50,0
51,0
52,0
53,0
54,0
55,0
56,0
57,0
58,0
59,0
60,0
61,0
62,0
63,0
64,0
65,0
66,0
67,0
68,0
69,0
70,0
71,0
72,0
73,0
74,0
75,0
76,0
77,0
78,0
79,0
80,0
81,0
82,0
83,0
84,0
85,0
86,0
87,0
88,0
89,0
90,0
91,0
92,0
93,0
94,0
95,0
96,0
97,0
98,0
99,0
100,0
101,0
102,0
103,0
104,0
105,0
106,0
107,0
108,0
109,0
110,0
111,0
112,0
113,0
114,0
115,0
116,0
117,0
118,0
119,0
120,0
121,0
122,0
123,0
124,0
125,0
126,0
127,0
128,0
129,0
130,0
131,0
132,0
133,0
134,0
135,0
136,0
137,0
138,0
139,0
140,0
141,0
142,0
143,0
144,0
145,0
146,0
147,0
148,0
149,0
150,0
151,0
152,0
153,0
154,0
155,0
156,0
157,0
158,0
159,0
160,0
161,0
162,0
163,0
164,0
165,0
166,0
167,0
168,0
169,0
170,0
171,0
172,0
173,0
174,0
175,0
176,0
177,0
178,0
179,0
180,0
181,0
182,0
183,0
184,0
185,0
186,0
187,0
188,0
189,0
190,0
191,0
192,0
193,0
194,0
195,0
196,0
197,0
198,0
199,0
200,0
201,0
202,0
203,0
204,0
205,0
206,0
207,0
208,0
209,0
210,0
211,0
212,0
213,0
214,0
215,0
216,0
217,0
218,0
219,0
220,0
221,0
222,0
223,0
224,0
225,0
226,0
227,0
228,0
229,0
230,0
231,0
232,0
233,0
234,0
235,0
236,0
237,0
238,0
239,0
240,0
241,0
242,0
243,0
244,0
245,0
246,0
247,0
248,0
249,0
250,0
251,1
252,1
253,1
254,2
255,2
256,2
257,2
258,2
259,2
260,2
261,2
262,2
263,2
264,2
265,2
266,2
267,2
268,2
269,2
270,3
271,3
272,3
273,4
274,4
275,4
276,4
277,4
278,4
279,4
280,4
281,4
282,4
283,4
284,4
285,4
286,4
287,4
288,4
289,5
290,5
291,5
292,5
293,5
294,6
295,7
296,7
297,7
298,7
299,7
300,7
301,7
302,7
303,7
304,7
305,7
306,7
307,7
308,7
309,7
310,7
311,8
312,8
313,8
314,8
315,8
316,8
317,8
318,8
319,8
320,9
321,9
322,9
323,9
324,9
325,9
326,9
327,9
328,9
329,9
330,9
331,9
332,9
333,9
334,10
335,10
336,10
337,10
338,10
339,11
340,11
341,11
342,11
343,11
344,11
345,11
346,11
347,11
348,11
349,11
350,11
351,11
352,11
353,11
354,11
355,11
356,11
357,12
358,12
359,12
360,12
361,12
362,12
363,12
364,13
365,14
366,14
367,14
368,14
369,14
370,14
371,14
372,14
373,14
374,14
375,14
376,14
377,14
378,14
379,14
380,15
381,15
382,16
383,16
384,16
385,16
386,16
387,16
388,16
389,16
390,16
391,16
392,16
393,17
394,17
395,17
396,18
397,19
398,19
399,19
400,19
401,19
402,19
403,19
404,19
405,19
406,19
407,19
408,19
409,20
410,21
411,21
412,21
413,21
414,21
415,21
416,21
417,21
418,21
419,21
420,21
421,21
422,22
423,22
424,22
425,23
426,23
427,23
428,24
429,25
430,25
431,26
432,26
433,26
434,26
435,26
436,26
437,26
438,26
439,26
440,26
441,26
442,27
443,27
444,27
445,27
446,27
447,27
448,27
449,27
450,27
451,27
452,27
453,27
454,28
455,28
456,29
457,29
458,29
459,29
460,29
461,29
462,29
463,29
464,29
465,29
466,29
467,29
468,29
469,29
470,29
471,29
472,29
473,29
474,29
475,29
476,29
477,29
478,29
479,29
480,29
481,29
482,29
483,29
484,29
485,29
486,29
487,30
488,30
489,30
490,30
491,30
492,30
493,30
494,30
495,30
496,30
497,30
498,30
499,30
500,31
501,31
502,31
503,31
504,31
505,31
506,31
507,31
508,31
509,31
510,31
511,31
512,31
513,31
514,31
515,31
516,31
517,31
518,31
519,31
520,31
521,31
522,31
523,31
524,31
525,31
526,31
527,31
528,31
529,31
530,31
531,31
532,31
533,31
534,31
535,31
536,32
537,32
538,32
539,32
540,32
541,32
542,32
543,32
544,32
545,32
546,32
547,32
548,32
549,32
550,32
551,32
552,32
553,32
554,32
555,33
556,33
557,33
558,33
559,33
560,33
561,33
562,33
563,33
564,33
565,33
566,33
567,33
568,33
569,33
570,33
571,33
572,33
573,33
574,33
575,33
576,33
577,33
578,33
579,33
580,33
581,33
582,33
583,33
584,33
585,33
586,33
587,33
588,33
589,33
590,33
591,33
592,33
593,33
594,33
595,33
596,33
597,33
598,33
599,33
600,33
601,35
602,35
603,35
604,35
605,35
606,35
607,35
608,35
609,35
610,35
611,36
612,36
613,36
614,36
615,36
616,36
617,36
618,36
619,36
620,36
621,36
622,36
623,36
624,36
625,36
626,36
627,36
628,36
629,36
630,36
631,36
632,36
633,36
634,36
635,36
636,36
637,36
638,36
639,36
640,36
641,37
642,37
643,37
644,37
645,37
646,37
647,37
648,37
649,37
650,37
651,37
652,37
653,37
654,37
655,37
656,38
657,38
658,38
659,38
660,38
661,38
662,38
663,38
664,38
665,38
666,38
667,38
668,38
669,38
670,38
671,38
672,38
673,38
674,38
675,38
676,38
677,38
678,38
679,38
680,38
681,38
682,38
683,38
684,38
685,38
686,38
687,38
688,38
689,38
690,38
691,38
692,38
693,38
694,38
695,38
696,38
697,38
698,38
699,38
700,38
701,38
702,38
703,38
704,38
705,38
706,38
707,38
708,38
709,38
710,38
711,38
712,38
713,38
714,38
715,39
716,39
717,39
718,39
719,39
720,39
721,39
722,39
723,39
724,39
725,39
726,39
727,39
728,39
729,39
730,39
731,39
732,39
733,39
734,39
735,40
736,40
737,40
738,40
739,40
740,40
741,40
742,40
743,40
744,40
745,40
746,40
747,40
748,40
749,40
750,40
751,40
752,40
753,40
754,40
755,40
756,40
757,40
758,40
759,40
760,41
761,41
762,41
763,41
764,41
765,41
766,41
767,41
768,41
769,41
770,41
771,41
772,41
773,41
774,41
775,41
776,41
777,41
778,41
779,41
780,41
781,41
782,41
783,42
784,42
785,43
786,43
787,43
788,43
789,43
790,43
791,43
792,43
793,43
794,43
795,43
796,43
797,43
798,43
799,43
800,43
801,43
802,43
803,43
804,43
805,43
806,43
807,43
808,43
809,43
810,43
811,43
812,43
813,43
814,43
815,43
816,43
817,43
818,43
819,43
820,43
821,43
822,43
823,43
824,43
825,43
826,43
827,43
828,43
829,43
830,43
831,43
832,43
833,43
834,43
835,43
836,43
837,43
838,43
839,43
840,43
841,43
842,43
843,43
844,43
845,43
846,43
847,43
848,43
849,43
850,43
851,43
852,43
853,43
854,43
855,43
856,43
857,43
858,43
859,43
860,43
861,43
862,43
863,43
864,43
865,43
866,43
867,43
868,43
869,43
870,43
871,43
872,43
873,44
874,44
875,44
876,44
877,44
878,44
879,44
880,44
881,45
882,45
883,45
884,45
885,45
886,45
887,45
888,45
889,45
890,45
891,45
892,45
893,45
894,45
895,45
896,45
897,45
898,45
899,45
900,45
901,45
902,45
903,45
904,45
905,45
906,45
907,45
908,45
909,45
910,45
911,45
912,45
913,45
914,45
915,45
916,45
917,45
918,45
919,45
920,45
921,45
922,45
923,45
924,45
925,45
926,45
927,45
928,45
929,45
930,45
931,45
932,45
933,45
934,45
935,45
936,45
937,45
938,45
939,45
940,45
941,45
942,46
943,46
944,46
945,46
946,46
947,46
948,46
949,46
950,46
951,46
952,46
953,46
954,47
955,47
956,47
957,47
958,48
959,48
960,48
961,48
962,48
963,48
964,49
965,49
966,49
967,49
968,49
969,49
970,49
971,49
972,49
973,49
974,49
975,49
976,49
977,49
978,49
979,49
980,49
981,49
982,49
983,49
984,49
985,49
986,49
987,49
988,49
989,49
990,49
991,49
992,50
993,50
994,50
995,50
996,50
997,50
998,50
999,50
1000,50
1001,50
1002,50
1003,50
1004,50
1005,50
1006,50
1007,50
1008,50
1009,50
1010,50
1011,51
1012,51
1013,51
1014,51
1015,51
1016,51
1017,51
1018,51
1019,51
1020,51
1021,51
1022,52
1023,52
1024,52
1025,53
1026,53
1027,53
1028,53
1029,53
1030,53
1031,53
1032,53
1033,53
1034,53
1035,53
1036,53
1037,54
1038,54
1039,54
1040,54
1041,54
1042,54
1043,54
1044,54
1045,54
1046,55
1047,55
1048,55
1049,55
1050,55
1051,55
1052,55
1053,55
1054,55
1055,55
1056,55
1057,55
1058,55
1059,55
1060,55
1061,55
1062,55
1063,55
1064,55
1065,55
1066,55
1067,55
1068,55
1069,55
1070,55
1071,55
1072,55
1073,55
1074,55
1075,55
1076,55
1077,55
1078,55
1079,55
1080,55
1081,55
1082,55
1083,55
1084,55
1085,55
1086,55
1087,55
1088,55
1089,56
1090,56
1091,56
1092,56
1093,56
1094,56
1095,56
1096,56
1097,56
1098,56
1099,56
1100,56
1101,56
1102,56
1103,56
1104,56
1105,56
1106,56
1107,56
1108,56
1109,56
1110,56
1111,56
1112,56
1113,56
1114,56
1115,56
1116,57
1117,57
1118,57
1119,57
1120,57
1121,57
1122,57
1123,57
1124,57
1125,57
1126,57
1127,57
1128,58
1129,58
1130,58
1131,58
1132,58
1133,58
1134,58
1135,58
1136,58
1137,58
1138,59
1139,59
1140,59
1141,60
1142,60
1143,60
1144,60
1145,60
1146,60
1147,60
1148,60
1149,60
1150,60
1151,60
1152,60
1153,60
1154,60
1155,60
1156,60
1157,60
1158,60
1159,60
1160,60
1161,60
1162,60
1163,60
1164,60
1165,60
1166,60
1167,60
1168,60
1169,60
1170,60
1171,60
1172,60
1173,61
1174,61
1175,61
1176,61
1177,61
1178,61
1179,61
1180,61
1181,61
1182,61
1183,61
1184,61
1185,61
1186,61
1187,61
1188,61
1189,61
1190,61
1191,61
1192,61
1193,61
1194,61
1195,61
1196,61
1197,61
1198,61
1199,61
1200,61
1201,61
1202,61
1203,61
1204,61
1205,61
1206,61
1207,61
1208,62
1209,62
1210,62
1211,62
1212,62
1213,62
1214,62
1215,62
1216,62
1217,62
1218,62
1219,62
1220,62
1221,62
1222,62
1223,62
1224,62
1225,62
1226,62
1227,62
1228,62
1229,62
1230,62
1231,62
1232,62
1233,62
1234,62
1235,62
1236,62
1237,62
1238,62
1239,62
1240,62
1241,62
1242,62
1243,62
1244,62
1245,62
1246,62
1247,62
1248,62
1249,62
1250,62
1251,62
1252,62
1253,62
1254,62
1255,62
1256,62
1257,62
1258,62
1259,62
1260,62
1261,62
1262,62
1263,62
1264,62
1265,62
1266,62
1267,62
1268,62
1269,62
1270,62
1271,62
1272,62
1273,62
1274,62
1275,62
1276,62
1277,62
1278,62
1279,62
1280,62
1281,62
1282,62
1283,62
1284,62
1285,62
1286,62
1287,62
1288,62
1289,62
1290,62
1291,62
1292,62
1293,62
1294,63
1295,63
1296,63
1297,63
1298,63
1299,63
1300,63
1301,63
1302,63
1303,63
1304,63
1305,63
1306,63
1307,63
1308,63
1309,63
1310,63
1311,63
1312,63
1313,63
1314,63
1315,63
1316,63
1317,63
1318,63
1319,63
1320,63
1321,63
1322,64
1323,64
1324,64
1325,64
1326,64
1327,64
1328,64
1329,64
1330,64
1331,64
1332,64
1333,64
1334,64
1335,64
1336,64
1337,64
1338,64
1339,64
1340,64
1341,64
1342,64
1343,64
1344,64
1345,64
1346,64
1347,64
1348,64
1349,64
1350,64
1351,64
1352,64
1353,64
1354,64
1355,64
1356,64
1357,64
1358,64
1359,64
1360,64
1361,64
1362,65
1363,65
1364,65
1365,65
1366,65
1367,65
1368,65
1369,65
1370,65
1371,65
1372,65
1373,65
1374,65
1375,65
1376,65
1377,65
1378,65
1379,65
1380,65
1381,65
1382,65
1383,65
1384,65
1385,65
1386,65
1387,65
1388,65
1389,65
1390,65
1391,65
1392,65
1393,65
1394,65
1395,65
1396,65
1397,65
1398,65
1399,65
1400,65
1401,65
1402,65
1403,65
1404,66
1405,66
1406,67
1407,67
1408,67
1409,67
1410,67
1411,68
1412,68
1413,68
1414,69
1415,69
1416,69
1417,70
1418,70
1419,70
1420,72
1421,72
1422,72
1423,72
1424,72
1425,72
1426,72
1427,72
1428,72
1429,72
1430,72
1431,72
1432,72
1433,72
1434,72
1435,72
1436,72
1437,72
1438,72
1439,72
1440,73
1441,74
1442,74
1443,74
1444,74
1445,74
1446,74
1447,74
1448,74
1449,74
1450,75
1451,75
1452,75
1453,75
1454,75
1455,75
1456,75
1457,75
1458,75
1459,75
1460,75
1461,75
1462,75
1463,75
1464,76
1465,77
1466,77
1467,77
1468,77
1469,77
1470,77
1471,77
1472,77
1473,77
1474,77
1475,77
1476,77
1477,77
1478,77
1479,77
1480,77
1481,77
1482,77
1483,77
1484,77
1485,78
1486,78
1487,78
1488,78
1489,78
1490,78
1491,78
1492,78
1493,78
1494,78
1495,78
1496,78
1497,78
1498,78
1499,78
1500,78
1501,78
1502,78
1503,78
1504,78
1505,78
1506,78
1507,78
1508,78
1509,78
1510,78
1511,78
1512,78
1513,78
1514,78
1515,78
1516,78
1517,78
1518,78
1519,78
1520,78
1521,78
1522,78
1523,78
1524,78
1525,78
1526,78
1527,78
1528,78
1529,78
1530,78
1531,78
1532,78
1533,78
1534,78
1535,78
1536,78
1537,78
1538,78
1539,78
1540,78
1541,78
1542,78
1543,78
1544,78
1545,78
1546,78
1547,78
1548,78
1549,78
1550,78
1551,78
1552,78
1553,78
1554,78
1555,78
1556,78
1557,78
1558,79
1559,80
1560,80
1561,80
1562,80
1563,80
1564,80
1565,80
1566,80
1567,80
1568,80
1569,81
1570,81
1571,81
1572,81
1573,81
1574,81
1575,81
1576,81
1577,81
1578,81
1579,81
1580,81
1581,81
1582,81
1583,81
1584,81
1585,81
1586,81
1587,81
1588,81
1589,81
1590,81
1591,81
1592,81
1593,81
1594,81
1595,81
1596,81
1597,81
1598,81
1599,81
1600,81
1601,81
1602,81
1603,81
1604,81
1605,81
1606,81
1607,81
1608,81
1609,81
1610,81
1611,81
1612,81
1613,81
1614,81
1615,81
1616,81
1617,81
1618,81
1619,81
1620,81
1621,81
1622,81
1623,81
1624,82
1625,82
1626,82
1627,82
1628,82
1629,82
1630,82
1631,82
1632,82
1633,82
1634,82
1635,82
1636,82
1637,82
1638,82
1639,82
1640,82
1641,82
1642,82
1643,83
1644,83
1645,83
1646,83
1647,83
1648,83
1649,83
1650,83
1651,83
1652,83
1653,83
1654,83
1655,83
1656,83
1657,83
1658,83
1659,83
1660,83
1661,83
1662,83
1663,83
1664,83
1665,83
1666,83
1667,83
1668,83
1669,83
1670,83
1671,83
1672,83
1673,84
1674,84
1675,84
1676,84
1677,84
1678,84
1679,84
1680,85
1681,85
1682,85
1683,85
1684,85
1685,85
1686,85
1687,85
1688,85
1689,85
1690,85
1691,85
1692,85
1693,85
1694,85
1695,85
1696,85
1697,85
1698,85
1699,85
1700,85
1701,85
1702,85
1703,85
1704,85
1705,85
1706,85
1707,85
1708,85
1709,85
1710,85
1711,85
1712,85
1713,85
1714,85
1715,85
1716,85
1717,85
1718,85
1719,85
1720,85
1721,85
1722,86
1723,86
1724,86
1725,86
1726,86
1727,86
1728,86
1729,86
1730,86
1731,86
1732,86
1733,86
1734,86
1735,86
1736,86
1737,87
1738,87
1739,87
1740,87
1741,87
1742,87
1743,88
1744,88
1745,88
1746,88
1747,88
1748,88
1749,88
1750,88
1751,88
1752,88
1753,88
1754,88
1755,88
1756,88
1757,88
1758,88
1759,88
1760,88
1761,88
1762,88
1763,88
1764,88
1765,88
1766,88
1767,88
1768,88
1769,88
1770,88
1771,88
1772,88
1773,88
1774,88
1775,88
1776,88
1777,88
1778,89
1779,89
1780,89
1781,89
1782,89
1783,89
1784,89
1785,89
1786,89
1787,89
1788,89
1789,90
1790,90
1791,90
1792,90
1793,90
1794,90
1795,90
1796,90
1797,90
1798,90
1799,90
1800,90
1801,90
1802,90
1803,90
1804,90
1805,90
1806,90
1807,90
1808,90
1809,90
1810,91
1811,92
1812,92
1813,93
1814,93
1815,93
1816,93
1817,93
1818,93
1819,93
1820,93
1821,93
1822,93
1823,93
1824,93
1825,93
1826,93
1827,93
1828,94
1829,94
1830,94
1831,94
1832,94
1833,94
1834,94
1835,94
1836,94
1837,95
1838,95
1839,95
1840,95
1841,95
1842,95
1843,95
1844,95
1845,95
1846,95
1847,95
1848,95
1849,95
1850,95
1851,95
1852,97
1853,97
1854,97
1855,97
1856,97
1857,97
1858,97
1859,97
1860,97
1861,97
1862,97
1863,97
1864,97
1865,97
1866,97
1867,97
1868,97
1869,97
1870,97
1871,97
1872,97
1873,97
1874,98
1875,98
1876,98
1877,98
1878,98
1879,98
1880,98
1881,98
1882,98
1883,98
1884,98
1885,98
1886,98
1887,98
1888,98
1889,98
1890,98
1891,98
1892,98
1893,98
1894,98
1895,99
1896,99
1897,99
1898,99
1899,99
1900,99
1901,99
1902,99
1903,100
1904,100
1905,100
1906,100
1907,100
1908,100
1909,100
1910,100
1911,100
1912,100
1913,100
1914,100
1915,101
1916,101
1917,101
1918,101
1919,102
1920,102
1921,102
1922,102
1923,102
1924,102
1925,102
1926,102
1927,102
1928,102
1929,102
1930,102
1931,102
1932,102
1933,102
1934,102
1935,103
1936,103
1937,103
1938,103
1939,103
1940,103
1941,103
1942,103
1943,103
1944,103
1945,103
1946,103
1947,103
1948,104
1949,104
1950,104
1951,104
1952,104
1953,104
1954,104
1955,104
1956,104
1957,104
1958,104
1959,104
1960,104
1961,104
1962,104
1963,104
1964,104
1965,104
1966,104
1967,104
1968,104
1969,104
1970,104
1971,104
1972,104
1973,104
1974,104
1975,104
1976,104
1977,104
1978,104
1979,104
1980,104
1981,104
1982,104
1983,104
1984,104
1985,104
1986,104
1987,104
1988,104
1989,104
1990,104
1991,104
1992,104
1993,104
1994,104
1995,104
1996,104
1997,104
1998,104
1999,104
2000,104
