"tick","total"
0,0
1,0
2,0
3,0
4,0
5,0
6,0
7,0
8,0
9,0
10,0
11,0
12,0
13,0
14,0
15,0
16,0
17,0
18,0
19,0
20,0
21,0
22,0
23,0
24,0
25,0
26,0
27,0
28,0
29,0
30,0
31,0
32,0
33,0
34,0
35,0
36,0
37,0
38,0
39,0
40,0
41,0
42,0
43,0
44,0
45,0
46,0
47,0
48,0
49,0
50,0
51,0
52,0
53,0
54,0
55,0
56,0
57,0
58,0
59,0
60,0
61,0
62,0
63,0
64,0
65,0
66,0
67,0
68,0
69,0
70,0
71,0
72,0
73,0
74,0
75,0
76,0
77,0
78,0
79,0
80,0
81,0
82,0
83,0
84,0
85,0
86,0
87,0
88,0
89,0
90,0
91,0
92,0
93,0
94,0
95,0
96,0
97,0
98,0
99,0
100,0
101,0
102,0
103,0
104,0
105,0
106,0
107,0
108,0
109,0
110,0
111,0
112,0
113,0
114,0
115,0
116,0
117,0
118,0
119,0
120,0
121,0
122,0
123,0
124,0
125,0
126,0
127,0
128,0
129,0
130,0
131,0
132,0
133,0
134,0
135,0
136,0
137,0
138,0
139,0
140,0
141,0
142,0
143,0
144,0
145,0
146,0
147,0
148,0
149,0
150,0
151,0
152,0
153,0
154,0
155,0
156,0
157,0
158,0
159,0
160,0
161,0
162,0
163,0
164,0
165,0
166,0
167,0
168,0
169,0
170,0
171,0
172,0
173,0
174,0
175,0
176,0
177,0
178,0
179,0
180,0
181,0
182,0
183,0
184,0
185,0
186,0
187,0
188,0
189,0
190,0
191,0
192,0
193,0
194,0
195,0
196,0
197,0
198,0
199,0
200,0
201,0
202,0
203,0
204,0
205,0
206,0
207,0
208,0
209,0
210,0
211,0
212,0
213,0
214,0
215,0
216,0
217,0
218,0
219,0
220,0
221,0
222,0
223,0
224,1
225,1
226,2
227,2
228,2
229,2
230,2
231,2
232,2
233,2
234,2
235,3
236,3
237,3
238,3
239,3
240,3
241,4
242,4
243,4
244,5
245,5
246,5
247,5
248,5
249,5
250,6
251,6
252,7
253,7
254,7
255,7
256,7
257,8
258,8
259,8
260,8
261,8
262,10
263,10
264,10
265,10
266,10
267,11
268,11
269,11
270,11
271,11
272,11
273,11
274,11
275,11
276,11
277,11
278,11
279,11
280,11
281,11
282,11
283,11
284,11
285,11
286,11
287,11
288,11
289,11
290,11
291,11
292,11
293,12
294,12
295,12
296,12
297,12
298,12
299,12
300,12
301,12
302,13
303,13
304,13
305,13
306,13
307,13
308,13
309,13
310,13
311,13
312,13
313,13
314,13
315,13
316,13
317,13
318,13
319,13
320,13
321,13
322,13
323,13
324,13
325,13
326,13
327,13
328,13
329,13
330,14
331,14
332,14
333,15
334,15
335,15
336,15
337,15
338,16
339,16
340,16
341,16
342,16
343,16
344,16
345,16
346,16
347,17
348,17
349,17
350,17
351,17
352,17
353,18
354,18
355,18
356,18
357,18
358,19
359,19
360,19
361,19
362,19
363,19
364,19
365,19
366,19
367,19
368,19
369,19
370,19
371,19
372,19
373,19
374,19
375,19
376,19
377,19
378,19
379,19
380,19
381,19
382,19
383,19
384,19
385,19
386,20
387,20
388,21
389,21
390,21
391,21
392,21
393,21
394,21
395,21
396,21
397,21
398,22
399,22
400,22
401,22
402,22
403,22
404,22
405,22
406,23
407,23
408,23
409,23
410,23
411,23
412,23
413,23
414,23
415,23
416,23
417,23
418,23
419,23
420,23
421,23
422,23
423,23
424,23
425,23
426,23
427,24
428,24
429,24
430,24
431,24
432,24
433,24
434,24
435,24
436,24
437,24
438,24
439,24
440,24
441,24
442,24
443,24
444,24
445,24
446,24
447,24
448,24
449,24
450,25
451,25
452,25
453,25
454,25
455,26
456,26
457,26
458,26
459,26
460,26
461,28
462,29
463,29
464,29
465,29
466,29
467,29
468,29
469,29
470,29
471,29
472,29
473,29
474,29
475,29
476,29
477,29
478,29
479,29
480,29
481,29
482,29
483,29
484,29
485,29
486,29
487,29
488,29
489,29
490,29
491,29
492,29
493,29
494,29
495,29
496,29
497,29
498,29
499,29
500,29
501,29
502,29
503,29
504,29
505,29
506,29
507,29
508,29
509,29
510,29
511,29
512,29
513,30
514,30
515,30
516,30
517,30
518,30
519,32
520,32
521,32
522,32
523,33
524,33
525,33
526,33
527,34
528,34
529,34
530,34
531,34
532,34
533,34
534,34
535,34
536,34
537,34
538,34
539,34
540,34
541,34
542,34
543,34
544,34
545,34
546,34
547,34
548,34
549,34
550,34
551,34
552,34
553,34
554,34
555,34
556,34
557,35
558,36
559,36
560,36
561,36
562,36
563,36
564,36
565,36
566,36
567,36
568,36
569,36
570,36
571,36
572,36
573,36
574,36
575,36
576,36
577,36
578,36
579,36
580,36
581,36
582,36
583,36
584,36
585,36
586,36
587,36
588,36
589,36
590,36
591,36
592,36
593,36
594,36
595,36
596,36
597,36
598,36
599,36
600,36
601,36
602,37
603,37
604,37
605,37
606,37
607,37
608,37
609,37
610,37
611,37
612,37
613,37
614,37
615,37
616,37
617,37
618,37
619,37
620,37
621,37
622,37
623,38
624,38
625,38
626,38
627,38
628,38
629,38
630,38
631,38
632,38
633,38
634,38
635,38
636,38
637,38
638,38
639,38
640,38
641,38
642,38
643,38
644,38
645,38
646,38
647,38
648,38
649,38
650,38
651,38
652,38
653,38
654,38
655,38
656,38
657,38
658,38
659,38
660,38
661,38
662,38
663,38
664,38
665,38
666,38
667,38
668,38
669,38
670,38
671,38
672,38
673,38
674,38
675,38
676,38
677,38
678,38
679,38
680,38
681,38
682,38
683,38
684,38
685,38
686,38
687,38
688,38
689,38
690,38
691,38
692,38
693,38
694,38
695,38
696,38
697,39
698,39
699,39
700,39
701,39
702,39
703,39
704,39
705,39
706,39
707,39
708,39
709,39
710,39
711,39
712,39
713,39
714,39
715,39
716,39
717,39
718,39
719,39
720,39
721,40
722,40
723,40
724,40
725,40
726,40
727,40
728,40
729,40
730,40
731,40
732,40
733,40
734,40
735,40
736,41
737,41
738,41
739,41
740,41
741,41
742,41
743,41
744,41
745,41
746,41
747,41
748,41
749,41
750,41
751,41
752,41
753,41
754,41
755,41
756,41
757,41
758,41
759,41
760,41
761,41
762,41
763,41
764,41
765,41
766,41
767,41
768,41
769,42
770,42
771,42
772,42
773,42
774,42
775,42
776,42
777,43
778,43
779,43
780,43
781,43
782,43
783,43
784,43
785,43
786,43
787,43
788,43
789,43
790,43
791,43
792,43
793,43
794,43
795,44
796,44
797,44
798,44
799,44
800,45
801,45
802,46
803,46
804,46
805,46
806,46
807,46
808,46
809,46
810,46
811,46
812,46
813,46
814,46
815,46
816,46
817,46
818,46
819,46
820,46
821,46
822,47
823,47
824,47
825,48
826,48
827,48
828,48
829,48
830,49
831,49
832,49
833,49
834,49
835,49
836,49
837,49
838,49
839,49
840,50
841,50
842,50
843,50
844,50
845,50
846,50
847,50
848,50
849,50
850,50
851,50
852,50
853,50
854,50
855,50
856,50
857,50
858,50
859,50
860,50
861,51
862,51
863,51
864,51
865,51
866,53
867,53
868,53
869,53
870,53
871,53
872,53
873,53
874,53
875,53
876,53
877,53
878,53
879,53
880,53
881,53
882,53
883,53
884,53
885,53
886,53
887,53
888,53
889,53
890,54
891,54
892,54
893,54
894,54
895,55
896,55
897,55
898,56
899,56
900,56
901,56
902,56
903,56
904,56
905,56
906,56
907,56
908,56
909,56
910,56
911,56
912,56
913,56
914,56
915,56
916,56
917,56
918,56
919,56
920,56
921,56
922,56
923,56
924,56
925,56
926,56
927,56
928,56
929,56
930,56
931,56
932,56
933,56
934,56
935,56
936,56
937,56
938,56
939,56
940,56
941,56
942,56
943,56
944,56
945,56
946,56
947,56
948,56
949,56
950,56
951,56
952,56
953,56
954,56
955,56
956,56
957,56
958,56
959,56
960,56
961,56
962,56
963,56
964,56
965,56
966,57
967,57
968,57
969,57
970,57
971,57
972,57
973,57
974,57
975,57
976,57
977,57
978,57
979,57
980,57
981,57
982,57
983,57
984,57
985,57
986,57
987,57
988,57
989,57
990,57
991,57
992,57
993,57
994,57
995,57
996,57
997,57
998,57
999,57
1000,57
1001,57
1002,57
1003,57
1004,57
1005,57
1006,57
1007,57
1008,57
1009,57
1010,57
1011,57
1012,57
1013,57
1014,57
1015,57
1016,57
1017,57
1018,57
1019,57
1020,57
1021,57
1022,57
1023,57
1024,57
1025,57
1026,57
1027,57
1028,58
1029,58
1030,58
1031,58
1032,58
1033,58
1034,58
1035,58
1036,58
1037,58
1038,59
1039,59
1040,59
1041,59
1042,59
1043,59
1044,59
1045,59
1046,59
1047,59
1048,60
1049,60
1050,60
1051,60
1052,60
1053,60
1054,60
1055,60
1056,60
1057,60
1058,60
1059,60
1060,60
1061,60
1062,60
1063,60
1064,60
1065,60
1066,60
1067,60
1068,60
1069,60
1070,60
1071,60
1072,60
1073,60
1074,60
1075,60
1076,60
1077,60
1078,60
1079,61
1080,61
1081,61
1082,61
1083,61
1084,61
1085,61
1086,61
1087,61
1088,61
1089,61
1090,61
1091,61
1092,61
1093,61
1094,61
1095,61
1096,61
1097,61
1098,61
1099,61
1100,61
1101,61
1102,61
1103,61
1104,61
1105,61
1106,61
1107,61
1108,61
1109,61
1110,61
1111,61
1112,61
1113,61
1114,61
1115,61
1116,61
1117,61
1118,61
1119,61
1120,61
1121,61
1122,61
1123,61
1124,61
1125,61
1126,61
1127,61
1128,61
1129,61
1130,61
1131,61
1132,61
1133,61
1134,61
1135,61
1136,61
1137,61
1138,61
1139,61
1140,61
1141,61
1142,61
1143,61
1144,61
1145,61
1146,61
1147,61
1148,61
1149,61
1150,61
1151,61
1152,61
1153,61
1154,61
1155,61
1156,61
1157,61
1158,61
1159,61
1160,61
1161,61
1162,61
1163,61
1164,61
1165,61
1166,61
1167,61
1168,61
1169,61
1170,61
1171,61
1172,61
1173,61
1174,61
1175,61
1176,61
1177,61
1178,61
1179,61
1180,61
1181,61
1182,61
1183,61
1184,61
1185,61
1186,61
1187,61
1188,61
1189,61
1190,61
1191,61
1192,61
1193,61
1194,61
1195,61
1196,61
1197,61
1198,61
1199,61
1200,61
1201,61
1202,61
1203,61
1204,61
1205,61
1206,61
1207,61
1208,61
1209,61
1210,61
1211,61
1212,61
1213,61
1214,61
1215,62
1216,62
1217,62
1218,62
1219,62
1220,63
1221,63
1222,63
1223,63
1224,63
1225,63
1226,63
1227,63
1228,63
1229,63
1230,63
1231,63
1232,63
1233,65
1234,65
1235,65
1236,65
1237,66
1238,66
1239,66
1240,66
1241,66
1242,66
1243,66
1244,66
1245,67
1246,67
1247,67
1248,67
1249,67
1250,67
1251,67
1252,67
1253,67
1254,67
1255,67
1256,67
1257,67
1258,67
1259,67
1260,67
1261,68
1262,68
1263,68
1264,68
1265,69
1266,69
1267,69
1268,69
1269,70
1270,70
1271,70
1272,70
1273,70
1274,70
1275,70
1276,70
1277,70
1278,70
1279,70
1280,70
1281,70
1282,70
1283,70
1284,70
1285,70
1286,70
1287,70
1288,71
1289,71
1290,71
1291,71
1292,71
1293,71
1294,71
1295,71
1296,71
1297,71
1298,71
1299,71
1300,71
1301,71
1302,71
1303,71
1304,71
1305,71
1306,71
1307,71
1308,71
1309,71
1310,71
1311,72
1312,72
1313,72
1314,72
1315,72
1316,72
1317,72
1318,72
1319,72
1320,72
1321,72
1322,72
1323,72
1324,73
1325,73
1326,73
1327,73
1328,73
1329,73
1330,73
1331,73
1332,73
1333,73
1334,73
1335,74
1336,74
1337,74
1338,74
1339,74
1340,74
1341,74
1342,74
1343,74
1344,74
1345,74
1346,74
1347,74
1348,74
1349,75
1350,75
1351,75
1352,75
1353,75
1354,75
1355,75
1356,75
1357,75
1358,75
1359,75
1360,75
1361,75
1362,75
1363,75
1364,75
1365,75
1366,75
1367,75
1368,75
1369,75
1370,75
1371,75
1372,75
1373,75
1374,75
1375,75
1376,75
1377,75
1378,75
1379,75
1380,75
1381,75
1382,76
1383,76
1384,76
1385,76
1386,76
1387,76
1388,76
1389,76
1390,76
1391,76
1392,76
1393,77
1394,77
1395,77
1396,77
1397,77
1398,77
1399,77
1400,77
1401,78
1402,78
1403,78
1404,78
1405,78
1406,78
1407,78
1408,78
1409,78
1410,78
1411,78
1412,78
1413,78
1414,79
1415,79
1416,79
1417,79
1418,79
1419,79
1420,79
1421,79
1422,79
1423,79
1424,80
1425,80
1426,80
1427,80
1428,80
1429,80
1430,80
1431,80
1432,80
1433,80
1434,80
1435,80
1436,80
1437,80
1438,80
1439,80
1440,80
1441,80
1442,80
1443,80
1444,80
1445,80
1446,80
1447,80
1448,80
1449,80
1450,80
1451,80
1452,80
1453,80
1454,80
1455,80
1456,80
1457,80
1458,80
1459,80
1460,80
1461,80
1462,80
1463,80
1464,81
1465,81
1466,81
1467,81
1468,81
1469,81
1470,81
1471,81
1472,81
1473,81
1474,81
1475,81
1476,81
1477,81
1478,81
1479,81
1480,81
1481,81
1482,81
1483,81
1484,81
1485,81
1486,81
1487,81
1488,81
1489,81
1490,81
1491,81
1492,81
1493,81
1494,81
1495,81
1496,81
1497,81
1498,81
1499,81
1500,82
1501,82
1502,83
1503,83
1504,83
1505,83
1506,83
1507,83
1508,83
1509,83
1510,83
1511,83
1512,83
1513,83
1514,83
1515,83
1516,83
1517,83
1518,83
1519,83
1520,83
1521,83
1522,84
1523,84
1524,84
1525,84
1526,84
1527,84
1528,84
1529,84
1530,84
1531,84
1532,84
1533,84
1534,84
1535,84
1536,84
1537,84
1538,84
1539,84
1540,84
1541,84
1542,84
1543,84
1544,84
1545,84
1546,84
1547,84
1548,84
1549,84
1550,85
1551,85
1552,85
1553,85
1554,85
1555,85
1556,85
1557,85
1558,85
1559,85
1560,85
1561,85
1562,85
1563,85
1564,85
1565,85
1566,85
1567,85
1568,85
1569,85
1570,85
1571,85
1572,85
1573,85
1574,85
1575,85
1576,85
1577,85
1578,85
1579,85
1580,85
1581,85
1582,85
1583,85
1584,85
1585,85
1586,85
1587,85
1588,85
1589,85
1590,86
1591,86
1592,86
1593,86
1594,86
1595,86
1596,86
1597,86
1598,86
1599,86
1600,86
1601,86
1602,86
1603,86
1604,87
1605,87
1606,87
1607,87
1608,87
1609,87
1610,87
1611,87
1612,87
1613,87
1614,87
1615,87
1616,87
1617,87
1618,88
1619,88
1620,88
1621,88
1622,88
1623,88
1624,88
1625,88
1626,88
1627,88
1628,88
1629,88
1630,88
1631,88
1632,88
1633,88
1634,88
1635,88
1636,89
1637,89
1638,89
1639,89
1640,89
1641,89
1642,89
1643,89
1644,89
1645,89
1646,89
1647,89
1648,89
1649,89
1650,89
1651,89
1652,89
1653,89
1654,89
1655,89
1656,89
1657,89
1658,89
1659,89
1660,89
1661,89
1662,89
1663,89
1664,89
1665,89
1666,89
1667,89
1668,89
1669,89
1670,90
1671,90
1672,90
1673,90
1674,91
1675,91
1676,91
1677,91
1678,91
1679,91
1680,91
1681,91
1682,91
1683,91
1684,91
1685,91
1686,91
1687,91
1688,91
1689,91
1690,91
1691,91
1692,91
1693,91
1694,91
1695,91
1696,91
1697,91
1698,91
1699,91
1700,91
1701,91
1702,91
1703,91
1704,91
1705,91
1706,91
1707,91
1708,91
1709,91
1710,91
1711,91
1712,91
1713,91
1714,91
1715,91
1716,91
1717,91
1718,91
1719,91
1720,91
1721,91
1722,91
1723,91
1724,91
1725,91
1726,91
1727,91
1728,91
1729,91
1730,91
1731,91
1732,91
1733,91
1734,92
1735,92
1736,92
1737,92
1738,92
1739,92
1740,92
1741,92
1742,92
1743,92
1744,92
1745,92
1746,92
1747,92
1748,92
1749,92
1750,92
1751,92
1752,92
1753,92
1754,92
1755,92
1756,92
1757,92
1758,92
1759,92
1760,92
1761,92
1762,92
1763,92
1764,92
1765,92
1766,92
1767,92
1768,92
1769,93
1770,93
1771,93
1772,93
1773,93
1774,93
1775,93
1776,93
1777,93
1778,94
1779,94
1780,94
1781,94
1782,94
1783,94
1784,94
1785,94
1786,94
1787,95
1788,95
1789,96
1790,96
1791,97
1792,97
1793,97
1794,97
1795,97
1796,97
1797,97
1798,97
1799,97
1800,97
1801,97
1802,97
1803,97
1804,97
1805,97
1806,97
1807,97
1808,97
1809,97
1810,97
1811,97
1812,97
1813,98
1814,98
1815,98
1816,98
1817,99
1818,99
1819,99
1820,99
1821,99
1822,99
1823,99
1824,99
1825,99
1826,99
1827,99
1828,99
1829,99
1830,99
1831,99
1832,99
1833,99
1834,99
1835,99
1836,99
1837,99
1838,99
1839,99
1840,99
1841,99
1842,99
1843,99
1844,100
1845,100
1846,100
1847,100
1848,100
1849,100
1850,100
1851,100
1852,100
1853,100
1854,100
1855,100
1856,100
1857,100
1858,100
1859,100
1860,100
1861,100
1862,100
1863,100
1864,100
1865,100
1866,100
1867,100
1868,100
1869,100
1870,100
1871,100
1872,100
1873,101
1874,101
1875,101
1876,101
1877,101
1878,102
1879,102
1880,102
1881,102
1882,102
1883,102
1884,102
1885,102
1886,103
1887,104
1888,105
1889,105
1890,105
1891,105
1892,105
1893,105
1894,106
1895,106
1896,106
1897,106
1898,106
1899,106
1900,106
1901,106
1902,106
1903,106
1904,106
1905,106
1906,106
1907,107
1908,107
1909,107
1910,107
1911,107
1912,107
1913,107
1914,107
1915,107
1916,107
1917,107
1918,107
1919,107
1920,107
1921,107
1922,107
1923,107
1924,107
1925,107
1926,107
1927,107
1928,107
1929,107
1930,107
1931,107
1932,107
1933,107
1934,107
1935,107
1936,107
1937,107
1938,107
1939,107
1940,107
1941,107
1942,107
1943,107
1944,107
1945,107
1946,107
1947,107
1948,107
1949,107
1950,107
1951,107
1952,107
1953,107
1954,107
1955,107
1956,107
1957,107
1958,107
1959,107
1960,107
1961,107
1962,107
1963,107
1964,107
1965,107
1966,107
1967,107
1968,107
1969,107
1970,107
1971,107
1972,107
1973,107
1974,107
1975,107
1976,107
1977,107
1978,107
1979,107
1980,107
1981,107
1982,107
1983,107
1984,107
1985,107
1986,107
1987,107
1988,107
1989,107
1990,107
1991,107
1992,107
1993,107
1994,107
1995,108
1996,108
1997,108
1998,108
1999,108
2000,108
