"tick","total"
0,0
1,0
2,0
3,0
4,0
5,0
6,0
7,0
8,0
9,0
10,0
11,0
12,0
13,0
14,0
15,0
16,0
17,0
18,0
19,0
20,0
21,0
22,0
23,0
24,0
25,0
26,0
27,0
28,0
29,0
30,0
31,0
32,0
33,0
34,0
35,0
36,0
37,0
38,0
39,0
40,0
41,0
42,0
43,0
44,0
45,0
46,0
47,0
48,0
49,0
50,0
51,0
52,0
53,0
54,0
55,0
56,0
57,0
58,0
59,0
60,0
61,0
62,0
63,0
64,0
65,0
66,0
67,0
68,0
69,0
70,0
71,0
72,0
73,0
74,0
75,0
76,0
77,0
78,0
79,0
80,0
81,0
82,0
83,0
84,0
85,0
86,0
87,0
88,0
89,0
90,0
91,0
92,0
93,0
94,0
95,0
96,0
97,0
98,0
99,0
100,0
101,0
102,0
103,0
104,0
105,0
106,0
107,0
108,0
109,0
110,0
111,0
112,0
113,0
114,0
115,0
116,0
117,0
118,0
119,0
120,0
121,0
122,0
123,0
124,0
125,0
126,0
127,0
128,0
129,0
130,0
131,0
132,0
133,0
134,0
135,0
136,0
137,0
138,0
139,0
140,0
141,0
142,0
143,0
144,0
145,0
146,0
147,0
148,0
149,0
150,0
151,0
152,0
153,0
154,0
155,0
156,0
157,0
158,0
159,0
160,0
161,0
162,0
163,0
164,0
165,0
166,0
167,0
168,0
169,0
170,0
171,0
172,0
173,0
174,0
175,0
176,0
177,0
178,0
179,0
180,0
181,0
182,1
183,1
184,1
185,1
186,1
187,1
188,1
189,1
190,1
191,1
192,1
193,1
194,2
195,2
196,2
197,2
198,2
199,2
200,2
201,2
202,2
203,2
204,2
205,2
206,2
207,2
208,2
209,2
210,2
211,2
212,2
213,2
214,2
215,2
216,2
217,2
218,2
219,2
220,2
221,2
222,2
223,2
224,2
225,2
226,3
227,3
228,3
229,3
230,3
231,3
232,3
233,3
234,3
235,3
236,3
237,3
238,3
239,3
240,3
241,4
242,4
243,4
244,4
245,4
246,4
247,4
248,4
249,4
250,4
251,5
252,5
253,5
254,5
255,5
256,5
257,5
258,5
259,5
260,5
261,5
262,5
263,6
264,6
265,6
266,6
267,7
268,7
269,7
270,7
271,7
272,7
273,7
274,7
275,7
276,7
277,8
278,9
279,9
280,9
281,9
282,9
283,9
284,9
285,9
286,9
287,9
288,9
289,10
290,10
291,10
292,10
293,10
294,10
295,10
296,10
297,10
298,11
299,11
300,11
301,11
302,11
303,11
304,11
305,11
306,11
307,11
308,11
309,11
310,11
311,12
312,12
313,12
314,12
315,12
316,12
317,12
318,12
319,12
320,12
321,12
322,12
323,12
324,13
325,13
326,13
327,13
328,13
329,13
330,13
331,13
332,13
333,13
334,14
335,14
336,14
337,14
338,14
339,14
340,14
341,14
342,14
343,14
344,14
345,14
346,14
347,14
348,14
349,14
350,15
351,15
352,15
353,16
354,16
355,16
356,16
357,17
358,17
359,17
360,17
361,17
362,17
363,17
364,19
365,20
366,20
367,20
368,20
369,20
370,20
371,20
372,20
373,20
374,20
375,20
376,20
377,20
378,20
379,20
380,20
381,20
382,20
383,20
384,20
385,20
386,20
387,20
388,20
389,20
390,21
391,22
392,22
393,22
394,23
395,23
396,23
397,23
398,23
399,23
400,23
401,23
402,23
403,23
404,23
405,23
406,23
407,23
408,24
409,24
410,24
411,25
412,26
413,26
414,26
415,26
416,26
417,26
418,27
419,28
420,28
421,28
422,28
423,28
424,28
425,28
426,28
427,28
428,28
429,28
430,28
431,28
432,28
433,28
434,28
435,28
436,28
437,28
438,28
439,28
440,28
441,28
442,28
443,28
444,28
445,28
446,28
447,28
448,28
449,28
450,28
451,28
452,29
453,29
454,29
455,29
456,29
457,29
458,29
459,29
460,29
461,29
462,29
463,29
464,29
465,29
466,29
467,29
468,29
469,29
470,29
471,30
472,30
473,30
474,30
475,30
476,30
477,30
478,30
479,30
480,30
481,30
482,30
483,30
484,30
485,30
486,30
487,30
488,30
489,30
490,30
491,30
492,31
493,31
494,31
495,31
496,31
497,31
498,31
499,31
500,31
501,31
502,31
503,31
504,31
505,31
506,31
507,31
508,31
509,31
510,31
511,31
512,31
513,31
514,31
515,31
516,31
517,31
518,31
519,31
520,31
521,31
522,31
523,31
524,31
525,31
526,31
527,31
528,31
529,31
530,31
531,31
532,31
533,31
534,31
535,31
536,31
537,31
538,31
539,31
540,31
541,31
542,31
543,31
544,31
545,31
546,31
547,32
548,32
549,32
550,32
551,32
552,32
553,32
554,32
555,32
556,32
557,32
558,32
559,32
560,32
561,32
562,32
563,32
564,32
565,32
566,32
567,32
568,32
569,32
570,32
571,32
572,32
573,32
574,32
575,32
576,32
577,32
578,32
579,32
580,32
581,32
582,32
583,32
584,32
585,32
586,32
587,32
588,32
589,32
590,32
591,32
592,32
593,32
594,32
595,32
596,32
597,32
598,32
599,32
600,32
601,32
602,32
603,32
604,32
605,32
606,32
607,32
608,32
609,32
610,32
611,32
612,32
613,32
614,32
615,32
616,32
617,32
618,32
619,33
620,33
621,33
622,33
623,33
624,33
625,33
626,33
627,33
628,33
629,33
630,33
631,33
632,34
633,34
634,34
635,34
636,34
637,34
638,34
639,34
640,34
641,34
642,34
643,34
644,34
645,34
646,34
647,34
648,34
649,34
650,34
651,34
652,35
653,35
654,35
655,35
656,36
657,36
658,36
659,37
660,37
661,37
662,37
663,37
664,37
665,37
666,37
667,37
668,37
669,37
670,37
671,37
672,37
673,37
674,37
675,37
676,37
677,37
678,37
679,37
680,37
681,37
682,37
683,37
684,37
685,37
686,37
687,37
688,37
689,37
690,37
691,37
692,37
693,38
694,39
695,39
696,39
697,39
698,39
699,39
700,39
701,39
702,39
703,39
704,39
705,39
706,41
707,41
708,41
709,41
710,41
711,42
712,42
713,42
714,42
715,42
716,42
717,42
718,42
719,42
720,42
721,42
722,42
723,42
724,42
725,42
726,42
727,42
728,42
729,42
730,42
731,42
732,42
733,42
734,42
735,42
736,42
737,42
738,42
739,42
740,42
741,42
742,42
743,42
744,42
745,42
746,42
747,42
748,42
749,42
750,42
751,42
752,42
753,42
754,42
755,42
756,42
757,42
758,42
759,42
760,42
761,42
762,42
763,42
764,42
765,42
766,42
767,42
768,42
769,42
770,42
771,42
772,42
773,42
774,42
775,42
776,42
777,42
778,42
779,42
780,42
781,42
782,42
783,42
784,42
785,42
786,42
787,42
788,42
789,42
790,42
791,42
792,42
793,42
794,43
795,43
796,43
797,43
798,43
799,43
800,43
801,43
802,43
803,43
804,43
805,43
806,43
807,44
808,44
809,44
810,44
811,44
812,44
813,44
814,44
815,44
816,44
817,44
818,44
819,44
820,44
821,45
822,45
823,45
824,45
825,45
826,45
827,46
828,46
829,46
830,46
831,46
832,46
833,46
834,46
835,46
836,46
837,46
838,46
839,46
840,46
841,47
842,47
843,47
844,47
845,47
846,47
847,47
848,47
849,47
850,47
851,47
852,47
853,47
854,47
855,47
856,47
857,47
858,47
859,47
860,47
861,47
862,47
863,47
864,47
865,47
866,47
867,47
868,47
869,47
870,47
871,47
872,47
873,47
874,47
875,47
876,48
877,49
878,49
879,49
880,49
881,49
882,49
883,49
884,49
885,49
886,49
887,49
888,49
889,49
890,49
891,49
892,49
893,49
894,49
895,49
896,49
897,49
898,49
899,49
900,49
901,50
902,50
903,50
904,50
905,50
906,50
907,50
908,50
909,50
910,50
911,50
912,50
913,50
914,50
915,50
916,50
917,50
918,50
919,50
920,50
921,50
922,50
923,50
924,50
925,50
926,50
927,50
928,50
929,50
930,50
931,50
932,50
933,50
934,50
935,50
936,50
937,50
938,50
939,50
940,50
941,50
942,50
943,50
944,50
945,50
946,50
947,50
948,50
949,50
950,50
951,50
952,50
953,50
954,50
955,50
956,50
957,50
958,50
959,50
960,50
961,50
962,50
963,50
964,50
965,50
966,50
967,50
968,50
969,50
970,50
971,50
972,50
973,50
974,50
975,50
976,50
977,50
978,50
979,50
980,50
981,50
982,50
983,50
984,50
985,50
986,50
987,50
988,50
989,50
990,50
991,50
992,50
993,50
994,50
995,50
996,50
997,50
998,50
999,50
1000,50
1001,50
1002,50
1003,50
1004,50
1005,50
1006,50
1007,50
1008,50
1009,50
1010,50
1011,50
1012,50
1013,50
1014,50
1015,50
1016,50
1017,50
1018,50
1019,50
1020,50
1021,50
1022,50
1023,50
1024,50
1025,50
1026,50
1027,50
1028,50
1029,50
1030,50
1031,50
1032,50
1033,50
1034,50
1035,50
1036,50
1037,50
1038,51
1039,52
1040,52
1041,52
1042,52
1043,52
1044,52
1045,52
1046,52
1047,52
1048,52
1049,52
1050,52
1051,52
1052,52
1053,52
1054,52
1055,52
1056,52
1057,52
1058,52
1059,52
1060,52
1061,52
1062,52
1063,52
1064,52
1065,52
1066,52
1067,52
1068,52
1069,52
1070,52
1071,52
1072,52
1073,52
1074,52
1075,52
1076,52
1077,52
1078,53
1079,53
1080,53
1081,53
1082,53
1083,53
1084,53
1085,53
1086,53
1087,53
1088,53
1089,53
1090,54
1091,54
1092,54
1093,54
1094,55
1095,55
1096,55
1097,55
1098,56
1099,57
1100,57
1101,57
1102,57
1103,57
1104,58
1105,58
1106,58
1107,58
1108,58
1109,58
1110,58
1111,58
1112,58
1113,58
1114,58
1115,58
1116,58
1117,58
1118,58
1119,58
1120,58
1121,58
1122,58
1123,59
1124,59
1125,59
1126,59
1127,59
1128,59
1129,59
1130,59
1131,59
1132,59
1133,59
1134,59
1135,59
1136,59
1137,59
1138,59
1139,59
1140,59
1141,59
1142,59
1143,60
1144,60
1145,60
1146,60
1147,60
1148,60
1149,60
1150,60
1151,60
1152,60
1153,60
1154,60
1155,60
1156,60
1157,60
1158,60
1159,60
1160,60
1161,62
1162,62
1163,62
1164,62
1165,62
1166,62
1167,62
1168,62
1169,63
1170,63
1171,63
1172,63
1173,63
1174,63
1175,63
1176,63
1177,63
1178,64
1179,64
1180,64
1181,64
1182,64
1183,64
1184,64
1185,64
1186,64
1187,64
1188,64
1189,64
1190,64
1191,64
1192,65
1193,65
1194,65
1195,65
1196,65
1197,65
1198,65
1199,65
1200,65
1201,65
1202,65
1203,65
1204,66
1205,66
1206,67
1207,67
1208,67
1209,67
1210,67
1211,67
1212,67
1213,67
1214,67
1215,67
1216,67
1217,67
1218,67
1219,67
1220,67
1221,67
1222,67
1223,67
1224,67
1225,67
1226,67
1227,67
1228,67
1229,67
1230,67
1231,67
1232,67
1233,67
1234,67
1235,67
1236,68
1237,68
1238,68
1239,68
1240,68
1241,68
1242,68
1243,68
1244,68
1245,68
1246,68
1247,68
1248,68
1249,68
1250,68
1251,68
1252,68
1253,68
1254,68
1255,68
1256,68
1257,68
1258,68
1259,68
1260,68
1261,68
1262,68
1263,68
1264,68
1265,68
1266,68
1267,68
1268,68
1269,68
1270,68
1271,68
1272,68
1273,68
1274,68
1275,68
1276,68
1277,68
1278,68
1279,68
1280,68
1281,68
1282,68
1283,68
1284,68
1285,68
1286,68
1287,68
1288,68
1289,68
1290,68
1291,68
1292,68
1293,68
1294,68
1295,68
1296,68
1297,68
1298,68
1299,68
1300,68
1301,68
1302,68
1303,68
1304,68
1305,68
1306,68
1307,69
1308,69
1309,69
1310,69
1311,69
1312,69
1313,69
1314,69
1315,69
1316,69
1317,69
1318,69
1319,69
1320,69
1321,69
1322,69
1323,70
1324,70
1325,71
1326,71
1327,71
1328,71
1329,71
1330,71
1331,71
1332,71
1333,71
1334,71
1335,71
1336,71
1337,71
1338,71
1339,71
1340,71
1341,71
1342,71
1343,71
1344,71
1345,71
1346,71
1347,71
1348,71
1349,71
1350,71
1351,71
1352,71
1353,71
1354,71
1355,71
1356,71
1357,71
1358,71
1359,71
1360,71
1361,71
1362,71
1363,71
1364,71
1365,71
1366,71
1367,71
1368,71
1369,71
1370,71
1371,71
1372,71
1373,71
1374,71
1375,71
1376,71
1377,71
1378,71
1379,71
1380,72
1381,72
1382,72
1383,72
1384,72
1385,72
1386,72
1387,72
1388,72
1389,72
1390,72
1391,72
1392,72
1393,72
1394,72
1395,72
1396,72
1397,72
1398,72
1399,73
1400,73
1401,73
1402,73
1403,73
1404,73
1405,73
1406,73
1407,73
1408,73
1409,74
1410,74
1411,74
1412,74
1413,74
1414,74
1415,74
1416,74
1417,74
1418,74
1419,75
1420,75
1421,75
1422,75
1423,75
1424,75
1425,75
1426,75
1427,75
1428,75
1429,75
1430,75
1431,75
1432,75
1433,76
1434,76
1435,76
1436,76
1437,76
1438,76
1439,76
1440,76
1441,76
1442,77
1443,78
1444,78
1445,78
1446,78
1447,78
1448,78
1449,78
1450,78
1451,78
1452,78
1453,78
1454,78
1455,78
1456,78
1457,78
1458,78
1459,78
1460,78
1461,78
1462,78
1463,78
1464,78
1465,79
1466,79
1467,79
1468,79
1469,79
1470,79
1471,79
1472,79
1473,79
1474,79
1475,79
1476,80
1477,81
1478,81
1479,81
1480,81
1481,81
1482,81
1483,81
1484,81
1485,81
1486,81
1487,81
1488,81
1489,81
1490,81
1491,81
1492,81
1493,81
1494,81
1495,81
1496,81
1497,81
1498,81
1499,81
1500,81
1501,81
1502,81
1503,81
1504,81
1505,81
1506,81
1507,81
1508,81
1509,81
1510,81
1511,81
1512,81
1513,81
1514,81
1515,81
1516,81
1517,81
1518,81
1519,81
1520,81
1521,81
1522,81
1523,81
1524,81
1525,81
1526,81
1527,81
1528,81
1529,81
1530,81
1531,81
1532,81
1533,82
1534,82
1535,82
1536,82
1537,82
1538,82
1539,82
1540,82
1541,82
1542,82
1543,82
1544,83
1545,83
1546,83
1547,83
1548,83
1549,83
1550,83
1551,83
1552,83
1553,83
1554,83
1555,83
1556,83
1557,83
1558,83
1559,83
1560,83
1561,83
1562,84
1563,84
1564,84
1565,84
1566,84
1567,84
1568,84
1569,84
1570,84
1571,84
1572,84
1573,84
1574,84
1575,84
1576,84
1577,84
1578,84
1579,84
1580,84
1581,84
1582,84
1583,84
1584,84
1585,84
1586,84
1587,84
1588,84
1589,84
1590,84
1591,84
1592,84
1593,84
1594,84
1595,84
1596,84
1597,84
1598,84
1599,84
1600,84
1601,86
1602,86
1603,86
1604,86
1605,86
1606,86
1607,86
1608,86
1609,86
1610,86
1611,86
1612,86
1613,86
1614,86
1615,86
1616,86
1617,86
1618,86
1619,86
1620,86
1621,86
1622,86
1623,86
1624,86
1625,86
1626,86
1627,86
1628,86
1629,86
1630,86
1631,86
1632,86
1633,86
1634,86
1635,86
1636,86
1637,86
1638,86
1639,86
1640,86
1641,86
1642,86
1643,86
1644,87
1645,87
1646,87
1647,87
1648,87
1649,87
1650,87
1651,87
1652,87
1653,87
1654,87
1655,87
1656,87
1657,87
1658,87
1659,87
1660,87
1661,87
1662,87
1663,87
1664,87
1665,87
1666,87
1667,87
1668,87
1669,87
1670,87
1671,87
1672,87
1673,87
1674,87
1675,87
1676,87
1677,87
1678,87
1679,87
1680,87
1681,87
1682,87
1683,87
1684,87
1685,87
1686,87
1687,87
1688,87
1689,87
1690,87
1691,87
1692,87
1693,88
1694,88
1695,88
1696,88
1697,88
1698,88
1699,88
1700,89
1701,89
1702,89
1703,89
1704,89
1705,89
1706,89
1707,89
1708,89
1709,89
1710,89
1711,89
1712,89
1713,89
1714,89
1715,89
1716,89
1717,89
1718,89
1719,89
1720,89
1721,89
1722,89
1723,89
1724,89
1725,89
1726,89
1727,89
1728,89
1729,89
1730,90
1731,90
1732,90
1733,90
1734,90
1735,90
1736,90
1737,90
1738,90
1739,90
1740,91
1741,91
1742,91
1743,91
1744,91
1745,91
1746,91
1747,91
1748,91
1749,91
1750,91
1751,91
1752,91
1753,91
1754,91
1755,91
1756,91
1757,92
1758,92
1759,92
1760,92
1761,92
1762,93
1763,93
1764,93
1765,93
1766,93
1767,93
1768,94
1769,94
1770,94
1771,94
1772,94
1773,94
1774,94
1775,94
1776,94
1777,94
1778,94
1779,94
1780,94
1781,95
1782,95
1783,97
1784,97
1785,98
1786,98
1787,98
1788,98
1789,98
1790,98
1791,99
1792,99
1793,99
1794,99
1795,99
1796,99
1797,99
1798,99
1799,99
1800,99
1801,99
1802,99
1803,99
1804,99
1805,99
1806,99
1807,99
1808,99
1809,99
1810,99
1811,99
1812,99
1813,99
1814,99
1815,99
1816,99
1817,99
1818,99
1819,99
1820,99
1821,99
1822,99
1823,99
1824,99
1825,99
1826,99
1827,99
1828,99
1829,99
1830,99
1831,99
1832,99
1833,99
1834,99
1835,100
1836,100
1837,100
1838,100
1839,100
1840,100
1841,100
1842,100
1843,100
1844,100
1845,100
1846,100
1847,100
1848,100
1849,100
1850,100
1851,100
1852,100
1853,100
1854,100
1855,100
1856,100
1857,100
1858,100
1859,100
1860,100
1861,100
1862,100
1863,100
1864,100
1865,100
1866,100
1867,100
1868,100
1869,100
1870,100
1871,100
1872,100
1873,100
1874,100
1875,100
1876,100
1877,100
1878,100
1879,100
1880,100
1881,100
1882,100
1883,100
1884,100
1885,100
1886,100
1887,100
1888,100
1889,100
1890,100
1891,100
1892,100
1893,100
1894,100
1895,100
1896,100
1897,100
1898,100
1899,100
1900,100
1901,100
1902,100
1903,100
1904,100
1905,100
1906,100
1907,100
1908,100
1909,100
1910,100
1911,100
1912,100
1913,100
1914,100
1915,100
1916,100
1917,100
1918,100
1919,100
1920,100
1921,100
1922,100
1923,100
1924,100
1925,100
1926,100
1927,100
1928,100
1929,100
1930,100
1931,100
1932,100
1933,100
1934,100
1935,100
1936,100
1937,100
1938,100
1939,100
1940,100
1941,100
1942,100
1943,100
1944,100
1945,100
1946,100
1947,100
1948,100
1949,100
1950,100
1951,100
1952,100
1953,100
1954,100
1955,100
1956,100
1957,100
1958,100
1959,100
1960,100
1961,100
1962,100
1963,100
1964,100
1965,100
1966,100
1967,100
1968,100
1969,100
1970,100
1971,100
1972,100
1973,100
1974,100
1975,100
1976,100
1977,100
1978,100
1979,100
1980,100
1981,101
1982,101
1983,101
1984,101
1985,101
1986,101
1987,101
1988,101
1989,101
1990,101
1991,101
1992,101
1993,101
1994,101
1995,101
1996,101
1997,101
1998,101
1999,101
2000,101
