"tick","total"
0,0
1,0
2,0
3,0
4,0
5,0
6,0
7,1
8,1
9,1
10,1
11,1
12,1
13,1
14,1
15,1
16,1
17,1
18,1
19,1
20,1
21,1
22,1
23,1
24,1
25,1
26,1
27,1
28,1
29,1
30,1
31,1
32,1
33,1
34,1
35,1
36,1
37,1
38,1
39,1
40,1
41,1
42,1
43,1
44,1
45,1
46,1
47,1
48,1
49,1
50,1
51,1
52,1
53,1
54,1
55,1
56,1
57,1
58,1
59,1
60,1
61,1
62,1
63,1
64,1
65,1
66,1
67,1
68,1
69,1
70,1
71,1
72,1
73,1
74,1
75,1
76,1
77,1
78,1
79,1
80,1
81,1
82,1
83,1
84,1
85,1
86,1
87,1
88,1
89,1
90,1
91,1
92,1
93,1
94,1
95,1
96,1
97,1
98,1
99,1
100,1
101,1
102,1
103,1
104,1
105,1
106,1
107,1
108,1
109,1
110,1
111,1
112,1
113,1
114,1
115,1
116,1
117,1
118,1
119,1
120,1
121,1
122,1
123,1
124,1
125,1
126,1
127,1
128,1
129,1
130,1
131,1
132,1
133,1
134,1
135,1
136,1
137,1
138,1
139,1
140,1
141,1
142,1
143,1
144,1
145,1
146,1
147,1
148,1
149,1
150,1
151,1
152,1
153,1
154,1
155,1
156,1
157,1
158,1
159,1
160,1
161,1
162,1
163,1
164,1
165,1
166,1
167,1
168,1
169,1
170,1
171,1
172,1
173,1
174,1
175,1
176,1
177,1
178,1
179,1
180,1
181,1
182,1
183,1
184,1
185,1
186,1
187,1
188,1
189,1
190,1
191,1
192,1
193,1
194,1
195,1
196,1
197,1
198,1
199,1
200,1
201,1
202,1
203,1
204,1
205,1
206,1
207,1
208,1
209,1
210,1
211,1
212,1
213,1
214,1
215,1
216,1
217,1
218,1
219,1
220,1
221,1
222,1
223,1
224,1
225,1
226,1
227,1
228,1
229,1
230,1
231,1
232,1
233,1
234,1
235,1
236,1
237,1
238,1
239,1
240,1
241,1
242,1
243,2
244,3
245,3
246,3
247,3
248,3
249,3
250,3
251,3
252,3
253,3
254,3
255,3
256,3
257,3
258,3
259,3
260,3
261,3
262,3
263,3
264,3
265,4
266,4
267,4
268,4
269,4
270,4
271,4
272,4
273,4
274,4
275,4
276,4
277,4
278,4
279,4
280,4
281,4
282,4
283,4
284,5
285,5
286,5
287,6
288,6
289,6
290,6
291,7
292,7
293,7
294,7
295,8
296,8
297,8
298,8
299,8
300,8
301,9
302,10
303,11
304,11
305,11
306,11
307,11
308,11
309,11
310,11
311,11
312,11
313,11
314,12
315,12
316,13
317,13
318,13
319,13
320,13
321,13
322,13
323,13
324,14
325,15
326,15
327,15
328,15
329,15
330,15
331,15
332,15
333,15
334,15
335,15
336,15
337,15
338,15
339,15
340,15
341,15
342,15
343,15
344,16
345,16
346,16
347,16
348,16
349,16
350,16
351,16
352,16
353,16
354,16
355,16
356,16
357,16
358,16
359,16
360,17
361,17
362,17
363,17
364,17
365,17
366,17
367,17
368,17
369,17
370,17
371,17
372,17
373,17
374,17
375,17
376,17
377,18
378,18
379,18
380,18
381,18
382,18
383,18
384,18
385,18
386,18
387,18
388,18
389,18
390,18
391,18
392,18
393,18
394,18
395,18
396,18
397,18
398,18
399,18
400,18
401,18
402,18
403,18
404,18
405,18
406,18
407,18
408,18
409,18
410,18
411,18
412,18
413,18
414,18
415,18
416,19
417,19
418,19
419,19
420,19
421,19
422,19
423,19
424,19
425,19
426,19
427,19
428,19
429,19
430,19
431,20
432,20
433,20
434,20
435,20
436,20
437,20
438,20
439,20
440,20
441,20
442,20
443,21
444,21
445,21
446,21
447,21
448,21
449,21
450,21
451,21
452,21
453,22
454,22
455,23
456,23
457,23
458,23
459,23
460,23
461,24
462,24
463,24
464,24
465,24
466,24
467,24
468,24
469,24
470,24
471,25
472,25
473,25
474,25
475,25
476,25
477,25
478,25
479,25
480,25
481,25
482,25
483,25
484,25
485,25
486,25
487,25
488,25
489,25
490,25
491,25
492,25
493,25
494,25
495,25
496,25
497,25
498,25
499,25
500,25
501,25
502,25
503,25
504,25
505,25
506,25
507,25
508,25
509,26
510,26
511,26
512,26
513,26
514,26
515,26
516,26
517,26
518,26
519,26
520,26
521,27
522,27
523,27
524,27
525,27
526,27
527,27
528,27
529,27
530,27
531,27
532,27
533,27
534,27
535,27
536,27
537,27
538,27
539,27
540,27
541,27
542,27
543,27
544,27
545,27
546,27
547,27
548,27
549,27
550,27
551,27
552,27
553,27
554,27
555,27
556,27
557,27
558,27
559,27
560,27
561,27
562,27
563,27
564,27
565,27
566,27
567,27
568,27
569,27
570,27
571,27
572,27
573,27
574,27
575,27
576,27
577,27
578,27
579,27
580,27
581,27
582,28
583,29
584,29
585,29
586,29
587,29
588,29
589,29
590,29
591,29
592,29
593,29
594,29
595,29
596,29
597,29
598,29
599,29
600,29
601,29
602,29
603,29
604,29
605,29
606,29
607,29
608,29
609,29
610,29
611,29
612,29
613,29
614,29
615,29
616,29
617,30
618,30
619,30
620,30
621,30
622,30
623,30
624,30
625,30
626,30
627,30
628,30
629,30
630,30
631,30
632,30
633,31
634,32
635,32
636,32
637,32
638,32
639,32
640,32
641,32
642,32
643,32
644,32
645,33
646,33
647,33
648,33
649,33
650,34
651,34
652,34
653,34
654,34
655,34
656,34
657,34
658,34
659,35
660,35
661,35
662,35
663,35
664,35
665,35
666,35
667,35
668,35
669,35
670,35
671,35
672,35
673,35
674,35
675,35
676,35
677,35
678,35
679,35
680,35
681,35
682,35
683,37
684,37
685,37
686,37
687,37
688,37
689,37
690,37
691,37
692,37
693,37
694,38
695,38
696,38
697,38
698,38
699,38
700,38
701,38
702,38
703,38
704,38
705,38
706,38
707,38
708,38
709,38
710,38
711,38
712,38
713,38
714,38
715,38
716,38
717,38
718,38
719,38
720,38
721,38
722,38
723,38
724,38
725,38
726,38
727,38
728,38
729,38
730,38
731,38
732,38
733,38
734,38
735,38
736,38
737,38
738,39
739,39
740,39
741,39
742,39
743,39
744,39
745,39
746,39
747,39
748,39
749,39
750,39
751,39
752,39
753,39
754,39
755,39
756,39
757,39
758,39
759,39
760,39
761,39
762,39
763,39
764,39
765,39
766,39
767,39
768,39
769,39
770,39
771,39
772,39
773,39
774,39
775,39
776,39
777,39
778,39
779,39
780,39
781,39
782,39
783,39
784,39
785,39
786,39
787,39
788,39
789,39
790,39
791,39
792,39
793,39
794,39
795,39
796,39
797,39
798,39
799,39
800,39
801,40
802,40
803,40
804,40
805,40
806,40
807,40
808,40
809,40
810,40
811,40
812,40
813,40
814,41
815,41
816,42
817,42
818,42
819,42
820,42
821,42
822,42
823,42
824,42
825,42
826,42
827,42
828,42
829,42
830,42
831,42
832,42
833,42
834,42
835,42
836,42
837,42
838,42
839,42
840,42
841,42
842,42
843,42
844,42
845,42
846,42
847,42
848,42
849,42
850,42
851,42
852,42
853,42
854,42
855,42
856,42
857,42
858,42
859,42
860,42
861,43
862,43
863,43
864,43
865,43
866,43
867,43
868,43
869,43
870,43
871,43
872,43
873,43
874,43
875,43
876,43
877,43
878,43
879,43
880,43
881,43
882,43
883,43
884,43
885,43
886,43
887,43
888,43
889,43
890,43
891,43
892,43
893,43
894,43
895,43
896,43
897,44
898,45
899,45
900,45
901,45
902,45
903,45
904,45
905,45
906,45
907,45
908,45
909,45
910,45
911,45
912,45
913,45
914,45
915,45
916,45
917,45
918,45
919,45
920,45
921,45
922,45
923,45
924,45
925,45
926,45
927,45
928,45
929,45
930,45
931,45
932,45
933,45
934,45
935,45
936,45
937,45
938,45
939,45
940,45
941,45
942,45
943,45
944,45
945,45
946,45
947,45
948,45
949,45
950,45
951,45
952,45
953,45
954,45
955,45
956,45
957,45
958,45
959,45
960,45
961,45
962,45
963,45
964,45
965,45
966,45
967,45
968,45
969,45
970,45
971,45
972,45
973,46
974,46
975,46
976,46
977,46
978,46
979,46
980,46
981,46
982,46
983,46
984,46
985,46
986,46
987,46
988,46
989,46
990,46
991,46
992,46
993,46
994,46
995,46
996,46
997,46
998,46
999,46
1000,46
1001,46
1002,46
1003,46
1004,47
1005,47
1006,47
1007,47
1008,47
1009,47
1010,47
1011,47
1012,47
1013,47
1014,47
1015,47
1016,47
1017,47
1018,48
1019,48
1020,48
1021,48
1022,48
1023,48
1024,48
1025,48
1026,48
1027,48
1028,48
1029,48
1030,48
1031,48
1032,48
1033,48
1034,48
1035,48
1036,48
1037,48
1038,49
1039,49
1040,49
1041,49
1042,49
1043,49
1044,49
1045,49
1046,49
1047,49
1048,49
1049,49
1050,49
1051,49
1052,49
1053,49
1054,49
1055,49
1056,49
1057,49
1058,49
1059,49
1060,49
1061,49
1062,49
1063,49
1064,49
1065,49
1066,49
1067,49
1068,49
1069,49
1070,49
1071,49
1072,49
1073,49
1074,49
1075,49
1076,49
1077,50
1078,50
1079,50
1080,50
1081,50
1082,50
1083,50
1084,50
1085,50
1086,50
1087,50
1088,50
1089,50
1090,50
1091,50
1092,50
1093,50
1094,50
1095,50
1096,50
1097,50
1098,50
1099,50
1100,50
1101,50
1102,50
1103,50
1104,50
1105,50
1106,50
1107,50
1108,51
1109,51
1110,51
1111,51
1112,51
1113,51
1114,51
1115,51
1116,51
1117,52
1118,52
1119,52
1120,52
1121,52
1122,52
1123,52
1124,52
1125,52
1126,52
1127,52
1128,52
1129,52
1130,52
1131,52
1132,52
1133,52
1134,52
1135,52
1136,52
1137,52
1138,52
1139,52
1140,52
1141,52
1142,52
1143,52
1144,52
1145,52
1146,52
1147,52
1148,52
1149,52
1150,52
1151,53
1152,53
1153,53
1154,54
1155,55
1156,55
1157,56
1158,56
1159,56
1160,56
1161,57
1162,57
1163,57
1164,57
1165,57
1166,57
1167,57
1168,57
1169,57
1170,57
1171,57
1172,57
1173,57
1174,57
1175,57
1176,57
1177,57
1178,57
1179,57
1180,57
1181,57
1182,57
1183,58
1184,58
1185,58
1186,58
1187,58
1188,59
1189,59
1190,60
1191,60
1192,60
1193,60
1194,60
1195,60
1196,60
1197,60
1198,60
1199,60
1200,60
1201,60
1202,60
1203,60
1204,61
1205,61
1206,61
1207,61
1208,61
1209,61
1210,61
1211,61
1212,61
1213,61
1214,61
1215,61
1216,61
1217,61
1218,61
1219,61
1220,61
1221,61
1222,61
1223,61
1224,61
1225,61
1226,61
1227,61
1228,61
1229,61
1230,61
1231,61
1232,61
1233,61
1234,61
1235,61
1236,61
1237,61
1238,61
1239,61
1240,61
1241,61
1242,61
1243,61
1244,61
1245,61
1246,61
1247,61
1248,61
1249,61
1250,61
1251,61
1252,61
1253,61
1254,61
1255,61
1256,61
1257,61
1258,61
1259,61
1260,61
1261,61
1262,61
1263,61
1264,61
1265,61
1266,61
1267,61
1268,61
1269,61
1270,61
1271,61
1272,61
1273,61
1274,61
1275,61
1276,61
1277,61
1278,61
1279,61
1280,61
1281,61
1282,61
1283,61
1284,61
1285,61
1286,61
1287,61
1288,61
1289,61
1290,61
1291,61
1292,61
1293,61
1294,61
1295,61
1296,61
1297,61
1298,61
1299,61
1300,61
1301,61
1302,61
1303,61
1304,61
1305,61
1306,61
1307,61
1308,61
1309,61
1310,61
1311,61
1312,61
1313,61
1314,61
1315,61
1316,61
1317,61
1318,61
1319,61
1320,61
1321,61
1322,61
1323,61
1324,61
1325,61
1326,61
1327,61
1328,61
1329,61
1330,61
1331,61
1332,61
1333,61
1334,61
1335,61
1336,61
1337,61
1338,61
1339,61
1340,61
1341,61
1342,61
1343,61
1344,61
1345,61
1346,62
1347,62
1348,62
1349,62
1350,62
1351,62
1352,62
1353,62
1354,62
1355,62
1356,62
1357,62
1358,62
1359,62
1360,62
1361,62
1362,62
1363,62
1364,62
1365,62
1366,62
1367,63
1368,63
1369,63
1370,63
1371,63
1372,63
1373,63
1374,63
1375,63
1376,63
1377,63
1378,63
1379,63
1380,63
1381,63
1382,63
1383,63
1384,63
1385,63
1386,63
1387,63
1388,63
1389,63
1390,63
1391,63
1392,63
1393,63
1394,63
1395,63
1396,63
1397,63
1398,63
1399,63
1400,63
1401,63
1402,63
1403,63
1404,63
1405,63
1406,63
1407,63
1408,63
1409,63
1410,63
1411,63
1412,63
1413,63
1414,63
1415,63
1416,63
1417,63
1418,63
1419,63
1420,63
1421,63
1422,63
1423,63
1424,63
1425,63
1426,63
1427,63
1428,63
1429,63
1430,63
1431,63
1432,63
1433,63
1434,63
1435,63
1436,64
1437,64
1438,64
1439,64
1440,64
1441,64
1442,64
1443,64
1444,64
1445,64
1446,64
1447,64
1448,64
1449,64
1450,64
1451,65
1452,65
1453,65
1454,65
1455,65
1456,65
1457,65
1458,65
1459,65
1460,65
1461,65
1462,65
1463,65
1464,65
1465,65
1466,65
1467,65
1468,65
1469,66
1470,66
1471,66
1472,66
1473,66
1474,66
1475,66
1476,66
1477,66
1478,66
1479,66
1480,66
1481,66
1482,66
1483,66
1484,67
1485,67
1486,68
1487,68
1488,68
1489,69
1490,69
1491,70
1492,70
1493,70
1494,70
1495,70
1496,70
1497,70
1498,70
1499,70
1500,70
1501,70
1502,70
1503,70
1504,70
1505,71
1506,71
1507,73
1508,73
1509,73
1510,73
1511,73
1512,73
1513,74
1514,74
1515,74
1516,74
1517,74
1518,74
1519,75
1520,75
1521,75
1522,75
1523,75
1524,76
1525,76
1526,76
1527,76
1528,77
1529,77
1530,77
1531,77
1532,78
1533,78
1534,78
1535,79
1536,79
1537,79
1538,79
1539,79
1540,79
1541,79
1542,79
1543,79
1544,80
1545,80
1546,80
1547,80
1548,80
1549,80
1550,80
1551,80
1552,80
1553,80
1554,80
1555,81
1556,82
1557,82
1558,82
1559,82
1560,82
1561,82
1562,82
1563,82
1564,82
1565,82
1566,82
1567,82
1568,82
1569,82
1570,82
1571,82
1572,82
1573,82
1574,82
1575,82
1576,82
1577,83
1578,83
1579,83
1580,83
1581,84
1582,84
1583,84
1584,84
1585,84
1586,84
1587,84
1588,84
1589,84
1590,84
1591,84
1592,84
1593,84
1594,84
1595,84
1596,84
1597,84
1598,84
1599,84
1600,84
1601,84
1602,84
1603,84
1604,84
1605,84
1606,84
1607,84
1608,84
1609,84
1610,84
1611,84
1612,84
1613,84
1614,84
1615,84
1616,84
1617,84
1618,84
1619,84
1620,84
1621,84
1622,84
1623,84
1624,84
1625,84
1626,84
1627,84
1628,84
1629,84
1630,84
1631,84
1632,84
1633,84
1634,84
1635,84
1636,84
1637,85
1638,85
1639,85
1640,85
1641,85
1642,85
1643,86
1644,86
1645,86
1646,86
1647,87
1648,87
1649,87
1650,87
1651,87
1652,87
1653,87
1654,87
1655,87
1656,87
1657,87
1658,87
1659,87
1660,87
1661,87
1662,87
1663,87
1664,87
1665,87
1666,87
1667,87
1668,87
1669,87
1670,87
1671,87
1672,87
1673,87
1674,87
1675,87
1676,87
1677,87
1678,87
1679,87
1680,87
1681,87
1682,87
1683,87
1684,87
1685,87
1686,87
1687,87
1688,87
1689,87
1690,87
1691,87
1692,87
1693,87
1694,87
1695,87
1696,87
1697,87
1698,87
1699,87
1700,87
1701,87
1702,87
1703,87
1704,87
1705,87
1706,87
1707,87
1708,87
1709,87
1710,87
1711,87
1712,87
1713,87
1714,87
1715,87
1716,87
1717,87
1718,87
1719,87
1720,87
1721,87
1722,87
1723,87
1724,87
1725,87
1726,87
1727,87
1728,87
1729,87
1730,87
1731,87
1732,87
1733,88
1734,88
1735,88
1736,88
1737,88
1738,88
1739,88
1740,88
1741,88
1742,89
1743,89
1744,89
1745,91
1746,91
1747,91
1748,91
1749,91
1750,91
1751,91
1752,91
1753,91
1754,91
1755,91
1756,91
1757,91
1758,91
1759,91
1760,91
1761,91
1762,91
1763,91
1764,91
1765,91
1766,91
1767,91
1768,91
1769,91
1770,91
1771,91
1772,91
1773,91
1774,91
1775,91
1776,91
1777,91
1778,91
1779,91
1780,91
1781,91
1782,91
1783,91
1784,91
1785,91
1786,91
1787,91
1788,91
1789,91
1790,91
1791,91
1792,91
1793,91
1794,91
1795,91
1796,91
1797,91
1798,91
1799,91
1800,91
1801,91
1802,91
1803,91
1804,91
1805,92
1806,92
1807,92
1808,92
1809,92
1810,92
1811,92
1812,92
1813,92
1814,92
1815,93
1816,93
1817,93
1818,93
1819,93
1820,93
1821,93
1822,93
1823,93
1824,93
1825,93
1826,94
1827,94
1828,94
1829,94
1830,94
1831,94
1832,94
1833,94
1834,94
1835,94
1836,94
1837,94
1838,94
1839,94
1840,94
1841,94
1842,94
1843,94
1844,94
1845,94
1846,94
1847,94
1848,94
1849,94
1850,94
1851,94
1852,94
1853,94
1854,94
1855,94
1856,94
1857,94
1858,94
1859,94
1860,94
1861,94
1862,94
1863,94
1864,94
1865,94
1866,94
1867,94
1868,94
1869,94
1870,94
1871,94
1872,94
1873,94
1874,94
1875,94
1876,94
1877,94
1878,94
1879,94
1880,94
1881,94
1882,94
1883,94
1884,94
1885,94
1886,94
1887,95
1888,95
1889,95
1890,95
1891,95
1892,95
1893,95
1894,95
1895,95
1896,95
1897,95
1898,95
1899,95
1900,95
1901,95
1902,97
1903,97
1904,97
1905,97
1906,97
1907,97
1908,97
1909,97
1910,97
1911,97
1912,97
1913,98
1914,98
1915,98
1916,98
1917,98
1918,98
1919,98
1920,98
1921,98
1922,98
1923,98
1924,98
1925,98
1926,98
1927,98
1928,98
1929,98
1930,98
1931,98
1932,98
1933,98
1934,98
1935,98
1936,98
1937,98
1938,98
1939,98
1940,98
1941,98
1942,98
1943,98
1944,98
1945,98
1946,98
1947,98
1948,98
1949,98
1950,98
1951,98
1952,98
1953,98
1954,98
1955,98
1956,98
1957,99
1958,99
1959,99
1960,99
1961,99
1962,100
1963,100
1964,100
1965,100
1966,100
1967,100
1968,100
1969,100
1970,100
1971,100
1972,100
1973,100
1974,100
1975,100
1976,100
1977,100
1978,100
1979,100
1980,100
1981,100
1982,100
1983,100
1984,100
1985,100
1986,100
1987,100
1988,100
1989,101
1990,101
1991,101
1992,102
1993,102
1994,102
1995,102
1996,102
1997,102
1998,102
1999,102
2000,102
