"tick","total"
0,0
1,0
2,1
3,1
4,2
5,2
6,2
7,2
8,2
9,2
10,2
11,2
12,2
13,3
14,3
15,3
16,3
17,3
18,3
19,3
20,3
21,3
22,3
23,3
24,4
25,4
26,4
27,4
28,5
29,5
30,5
31,6
32,6
33,6
34,6
35,6
36,6
37,6
38,6
39,6
40,7
41,7
42,7
43,7
44,8
45,8
46,9
47,9
48,9
49,9
50,9
51,9
52,9
53,9
54,9
55,9
56,9
57,9
58,9
59,9
60,9
61,9
62,9
63,9
64,9
65,9
66,9
67,9
68,9
69,9
70,9
71,9
72,9
73,9
74,9
75,9
76,9
77,9
78,9
79,9
80,9
81,9
82,9
83,9
84,9
85,9
86,9
87,9
88,9
89,9
90,9
91,10
92,10
93,10
94,10
95,10
96,10
97,11
98,11
99,11
100,12
101,12
102,12
103,13
104,13
105,13
106,13
107,13
108,13
109,13
110,13
111,13
112,13
113,13
114,13
115,13
116,13
117,13
118,13
119,13
120,13
121,13
122,13
123,13
124,13
125,13
126,13
127,13
128,13
129,14
130,14
131,14
132,14
133,14
134,14
135,14
136,14
137,14
138,14
139,14
140,14
141,14
142,14
143,14
144,15
145,15
146,15
147,15
148,15
149,15
150,15
151,15
152,15
153,15
154,15
155,15
156,15
157,15
158,15
159,15
160,15
161,15
162,15
163,15
164,15
165,15
166,15
167,16
168,16
169,16
170,16
171,16
172,16
173,16
174,16
175,16
176,16
177,17
178,17
179,17
180,17
181,17
182,17
183,17
184,17
185,17
186,17
187,17
188,17
189,17
190,17
191,17
192,17
193,17
194,17
195,17
196,17
197,17
198,17
199,17
200,17
201,17
202,17
203,18
204,18
205,18
206,18
207,18
208,18
209,18
210,18
211,18
212,19
213,19
214,19
215,19
216,20
217,20
218,20
219,20
220,20
221,20
222,20
223,20
224,20
225,20
226,20
227,20
228,20
229,20
230,20
231,20
232,20
233,20
234,21
235,21
236,21
237,21
238,21
239,21
240,21
241,21
242,21
243,21
244,21
245,21
246,21
247,21
248,21
249,21
250,21
251,21
252,22
253,22
254,22
255,22
256,22
257,22
258,22
259,22
260,22
261,22
262,22
263,22
264,22
265,22
266,22
267,22
268,22
269,22
270,22
271,22
272,22
273,22
274,23
275,23
276,23
277,23
278,23
279,23
280,23
281,23
282,23
283,23
284,23
285,23
286,23
287,23
288,23
289,23
290,23
291,23
292,23
293,23
294,23
295,23
296,23
297,23
298,23
299,23
300,23
301,23
302,23
303,24
304,24
305,24
306,24
307,24
308,25
309,26
310,26
311,26
312,26
313,26
314,26
315,26
316,26
317,26
318,26
319,27
320,28
321,28
322,28
323,28
324,28
325,29
326,29
327,29
328,29
329,29
330,29
331,29
332,30
333,30
334,30
335,30
336,30
337,30
338,30
339,30
340,30
341,30
342,31
343,31
344,31
345,31
346,32
347,32
348,32
349,33
350,33
351,34
352,34
353,34
354,34
355,34
356,34
357,34
358,34
359,34
360,34
361,34
362,34
363,34
364,34
365,34
366,34
367,34
368,34
369,34
370,34
371,34
372,34
373,34
374,34
375,34
376,34
377,34
378,34
379,34
380,34
381,34
382,34
383,34
384,34
385,34
386,34
387,34
388,34
389,34
390,34
391,34
392,34
393,34
394,34
395,34
396,34
397,34
398,34
399,35
400,35
401,35
402,35
403,35
404,35
405,36
406,36
407,36
408,36
409,36
410,36
411,36
412,36
413,36
414,36
415,36
416,36
417,36
418,36
419,36
420,36
421,36
422,36
423,36
424,36
425,36
426,36
427,36
428,36
429,36
430,36
431,36
432,36
433,36
434,36
435,36
436,36
437,36
438,36
439,36
440,36
441,36
442,36
443,36
444,36
445,36
446,36
447,36
448,37
449,37
450,37
451,38
452,38
453,38
454,38
455,38
456,38
457,38
458,38
459,38
460,39
461,39
462,39
463,39
464,39
465,39
466,39
467,39
468,39
469,39
470,39
471,39
472,39
473,39
474,39
475,39
476,39
477,39
478,39
479,39
480,39
481,39
482,39
483,39
484,39
485,39
486,39
487,39
488,39
489,39
490,39
491,39
492,39
493,39
494,39
495,39
496,39
497,39
498,39
499,39
500,39
501,39
502,39
503,39
504,39
505,39
506,39
507,39
508,39
509,39
510,39
511,39
512,39
513,39
514,41
515,41
516,41
517,41
518,41
519,41
520,41
521,41
522,41
523,41
524,41
525,41
526,41
527,41
528,41
529,41
530,41
531,41
532,41
533,41
534,41
535,41
536,41
537,41
538,41
539,41
540,42
541,42
542,42
543,42
544,42
545,42
546,42
547,42
548,42
549,42
550,42
551,42
552,42
553,42
554,42
555,42
556,42
557,42
558,42
559,42
560,42
561,42
562,42
563,43
564,43
565,43
566,43
567,43
568,44
569,44
570,45
571,45
572,45
573,45
574,45
575,45
576,45
577,45
578,45
579,45
580,45
581,45
582,45
583,45
584,45
585,45
586,45
587,45
588,45
589,45
590,45
591,45
592,46
593,46
594,46
595,46
596,46
597,46
598,46
599,46
600,46
601,47
602,48
603,48
604,48
605,48
606,48
607,48
608,48
609,48
610,48
611,48
612,48
613,48
614,49
615,50
616,50
617,50
618,50
619,50
620,50
621,50
622,50
623,50
624,50
625,50
626,50
627,50
628,50
629,50
630,50
631,50
632,51
633,51
634,51
635,51
636,52
637,52
638,52
639,52
640,52
641,52
642,52
643,52
644,52
645,53
646,53
647,53
648,53
649,53
650,53
651,53
652,53
653,53
654,53
655,53
656,53
657,53
658,53
659,53
660,53
661,53
662,53
663,53
664,53
665,53
666,53
667,53
668,53
669,53
670,53
671,53
672,53
673,54
674,54
675,54
676,54
677,54
678,55
679,55
680,55
681,55
682,55
683,55
684,55
685,55
686,55
687,55
688,55
689,55
690,55
691,55
692,55
693,55
694,56
695,56
696,56
697,56
698,56
699,56
700,56
701,56
702,56
703,56
704,56
705,56
706,57
707,57
708,57
709,57
710,57
711,57
712,57
713,57
714,57
715,57
716,58
717,58
718,58
719,58
720,58
721,59
722,59
723,59
724,59
725,59
726,59
727,59
728,59
729,59
730,59
731,59
732,60
733,60
734,61
735,61
736,61
737,61
738,61
739,61
740,61
741,61
742,61
743,61
744,61
745,61
746,61
747,61
748,61
749,61
750,61
751,61
752,61
753,61
754,61
755,61
756,62
757,62
758,62
759,62
760,62
761,62
762,62
763,62
764,62
765,62
766,62
767,62
768,62
769,62
770,62
771,62
772,62
773,62
774,62
775,62
776,62
777,62
778,62
779,62
780,62
781,62
782,62
783,62
784,62
785,62
786,62
787,62
788,62
789,62
790,62
791,62
792,62
793,62
794,62
795,62
796,62
797,62
798,62
799,62
800,62
801,62
802,62
803,62
804,62
805,62
806,62
807,62
808,62
809,62
810,63
811,63
812,63
813,63
814,64
815,64
816,64
817,64
818,64
819,64
820,64
821,64
822,64
823,64
824,64
825,64
826,64
827,64
828,64
829,64
830,64
831,64
832,64
833,65
834,65
835,65
836,65
837,65
838,65
839,65
840,65
841,65
842,65
843,65
844,65
845,65
846,65
847,65
848,65
849,65
850,65
851,65
852,65
853,65
854,65
855,65
856,65
857,65
858,66
859,66
860,66
861,66
862,66
863,66
864,67
865,67
866,67
867,67
868,68
869,68
870,68
871,68
872,68
873,69
874,69
875,69
876,69
877,69
878,69
879,69
880,69
881,69
882,69
883,69
884,69
885,69
886,69
887,69
888,69
889,69
890,69
891,69
892,69
893,69
894,69
895,69
896,69
897,70
898,70
899,70
900,70
901,70
902,70
903,70
904,70
905,70
906,70
907,70
908,70
909,71
910,71
911,71
912,71
913,72
914,72
915,72
916,72
917,73
918,73
919,74
920,74
921,74
922,74
923,74
924,74
925,74
926,74
927,74
928,74
929,74
930,74
931,74
932,75
933,75
934,75
935,75
936,75
937,75
938,75
939,75
940,76
941,76
942,76
943,76
944,76
945,76
946,76
947,76
948,76
949,77
950,77
951,77
952,77
953,77
954,77
955,77
956,77
957,77
958,77
959,77
960,77
961,77
962,77
963,78
964,78
965,78
966,79
967,79
968,79
969,79
970,79
971,79
972,79
973,79
974,79
975,79
976,79
977,79
978,79
979,79
980,79
981,79
982,79
983,79
984,79
985,79
986,79
987,79
988,79
989,79
990,80
991,80
992,80
993,80
994,80
995,80
996,80
997,80
998,80
999,80
1000,80
1001,80
1002,80
1003,80
1004,80
1005,80
1006,80
1007,81
1008,81
1009,82
1010,82
1011,82
1012,82
1013,82
1014,82
1015,82
1016,82
1017,82
1018,82
1019,82
1020,82
1021,82
1022,82
1023,82
1024,82
1025,82
1026,82
1027,82
1028,82
1029,82
1030,82
1031,82
1032,82
1033,82
1034,82
1035,82
1036,82
1037,82
1038,82
1039,82
1040,82
1041,82
1042,82
1043,82
1044,82
1045,82
1046,82
1047,82
1048,82
1049,82
1050,82
1051,82
1052,82
1053,82
1054,82
1055,82
1056,82
1057,82
1058,82
1059,82
1060,82
1061,82
1062,82
1063,82
1064,82
1065,83
1066,84
1067,84
1068,84
1069,84
1070,85
1071,85
1072,85
1073,85
1074,85
1075,85
1076,85
1077,85
1078,85
1079,85
1080,85
1081,85
1082,85
1083,85
1084,85
1085,85
1086,85
1087,85
1088,85
1089,85
1090,85
1091,85
1092,85
1093,85
1094,85
1095,86
1096,86
1097,86
1098,86
1099,86
1100,86
1101,86
1102,86
1103,86
1104,86
1105,86
1106,86
1107,86
1108,86
1109,86
1110,86
1111,86
1112,86
1113,86
1114,86
1115,86
1116,86
1117,86
1118,87
1119,87
1120,87
1121,87
1122,87
1123,87
1124,87
1125,87
1126,87
1127,87
1128,87
1129,87
1130,87
1131,87
1132,87
1133,87
1134,87
1135,87
1136,87
1137,88
1138,88
1139,88
1140,88
1141,88
1142,88
1143,88
1144,88
1145,88
1146,89
1147,89
1148,89
1149,89
1150,89
1151,89
1152,89
1153,89
1154,90
1155,90
1156,90
1157,90
1158,90
1159,90
1160,90
1161,90
1162,90
1163,90
1164,90
1165,90
1166,90
1167,90
1168,90
1169,90
1170,90
1171,91
1172,91
1173,91
1174,91
1175,91
1176,92
1177,92
1178,92
1179,92
1180,92
1181,92
1182,92
1183,92
1184,93
1185,93
1186,93
1187,93
1188,93
1189,93
1190,93
1191,94
1192,94
1193,94
1194,94
1195,94
1196,94
1197,94
1198,94
1199,95
1200,95
1201,96
1202,96
1203,96
1204,96
1205,96
1206,96
1207,96
1208,96
1209,97
1210,97
1211,97
1212,97
1213,97
1214,97
1215,97
1216,97
1217,97
1218,97
1219,97
1220,97
1221,97
1222,97
1223,97
1224,97
1225,97
1226,97
1227,97
1228,97
1229,97
1230,97
1231,97
1232,97
1233,97
1234,98
1235,98
1236,98
1237,98
1238,98
1239,98
1240,98
1241,99
1242,99
1243,99
1244,99
1245,99
1246,99
1247,99
1248,99
1249,99
1250,99
1251,99
1252,99
1253,99
1254,99
1255,100
1256,100
1257,100
1258,100
1259,100
1260,100
1261,100
1262,100
1263,100
1264,100
1265,100
1266,100
1267,100
1268,100
1269,100
1270,100
1271,100
1272,100
1273,100
1274,100
1275,100
1276,100
1277,101
1278,101
1279,101
1280,101
1281,101
1282,101
1283,101
1284,101
1285,101
1286,101
1287,101
1288,101
1289,101
1290,101
1291,101
1292,101
1293,101
1294,101
1295,101
1296,101
1297,102
1298,102
1299,102
1300,102
1301,102
1302,102
1303,102
1304,102
1305,102
1306,102
1307,102
1308,102
1309,102
1310,102
1311,102
1312,102
1313,102
1314,103
1315,103
1316,103
1317,103
1318,103
1319,103
1320,103
1321,103
1322,103
1323,103
1324,103
1325,103
1326,103
1327,103
1328,103
1329,104
1330,105
1331,105
1332,105
1333,105
1334,106
1335,106
1336,106
1337,107
1338,108
1339,108
1340,108
1341,108
1342,108
1343,108
1344,108
1345,108
1346,108
1347,108
1348,108
1349,108
1350,108
1351,108
1352,108
1353,108
1354,108
1355,109
1356,109
1357,110
1358,110
1359,110
1360,110
1361,110
1362,110
1363,110
1364,110
1365,110
1366,110
1367,110
1368,110
1369,110
1370,110
1371,110
1372,110
1373,110
1374,110
1375,110
1376,110
1377,110
1378,110
1379,110
1380,110
1381,110
1382,110
1383,110
1384,110
1385,110
1386,110
1387,110
1388,110
1389,110
1390,111
1391,111
1392,111
1393,111
1394,111
1395,111
1396,111
1397,111
1398,111
1399,111
1400,111
1401,111
1402,111
1403,111
1404,111
1405,111
1406,111
1407,111
1408,111
1409,111
1410,111
1411,111
1412,111
1413,111
1414,111
1415,111
1416,111
1417,111
1418,111
1419,111
1420,111
1421,111
1422,111
1423,112
1424,112
1425,112
1426,112
1427,112
1428,112
1429,112
1430,112
1431,113
1432,114
1433,114
1434,114
1435,114
1436,114
1437,114
1438,114
1439,114
1440,114
1441,115
1442,115
1443,117
1444,119
1445,121
1446,123
1447,126
1448,126
1449,126
1450,126
1451,126
1452,126
1453,127
1454,127
1455,127
1456,127
1457,127
1458,127
1459,127
1460,127
1461,127
1462,127
1463,127
1464,127
1465,127
1466,127
1467,127
1468,127
1469,127
1470,127
1471,127
1472,127
1473,127
1474,127
1475,127
1476,127
1477,127
1478,127
1479,127
1480,128
1481,128
1482,128
1483,129
1484,129
1485,129
1486,129
1487,129
1488,129
1489,129
1490,129
1491,129
1492,129
1493,129
1494,129
1495,129
1496,129
1497,130
1498,130
1499,130
1500,130
1501,130
1502,130
1503,130
1504,130
1505,130
1506,130
1507,131
1508,131
1509,131
1510,131
1511,131
1512,131
1513,131
1514,132
1515,132
1516,132
1517,132
1518,132
1519,132
1520,132
1521,132
1522,132
1523,132
1524,132
1525,132
1526,132
1527,132
1528,132
1529,132
1530,132
1531,132
1532,132
1533,132
1534,132
1535,132
1536,132
1537,132
1538,132
1539,132
1540,132
1541,132
1542,132
1543,132
1544,132
1545,132
1546,132
1547,132
1548,133
1549,133
1550,133
1551,133
1552,133
1553,133
1554,133
1555,133
1556,133
1557,133
1558,133
1559,133
1560,133
1561,133
1562,133
1563,133
1564,133
1565,133
1566,133
1567,133
1568,133
1569,133
1570,133
1571,133
1572,133
1573,133
1574,133
1575,133
1576,133
1577,133
1578,133
1579,133
1580,133
1581,133
1582,133
1583,133
1584,133
1585,133
1586,133
1587,133
1588,133
1589,133
1590,133
1591,133
1592,133
1593,133
1594,133
1595,133
1596,133
1597,133
1598,133
1599,133
1600,133
1601,134
1602,134
1603,134
1604,134
1605,134
1606,134
1607,134
1608,134
1609,134
1610,134
1611,134
1612,134
1613,134
1614,134
1615,134
1616,134
1617,134
1618,134
1619,134
1620,135
1621,135
1622,135
1623,135
1624,135
1625,135
1626,135
1627,135
1628,135
1629,135
1630,135
1631,135
1632,135
1633,135
1634,135
1635,135
1636,135
1637,135
1638,135
1639,135
1640,135
1641,135
1642,135
1643,135
1644,135
1645,136
1646,136
1647,136
1648,136
1649,136
1650,137
1651,137
1652,137
1653,137
1654,137
1655,137
1656,137
1657,138
1658,138
1659,139
1660,139
1661,139
1662,139
1663,139
1664,139
1665,139
1666,139
1667,139
1668,139
1669,139
1670,139
1671,139
1672,139
1673,140
1674,140
1675,140
1676,140
1677,140
1678,140
1679,140
1680,140
1681,140
1682,140
1683,140
1684,140
1685,140
1686,140
1687,140
1688,140
1689,140
1690,140
1691,140
1692,140
1693,140
1694,140
1695,140
1696,140
1697,140
1698,140
1699,140
1700,140
1701,140
1702,140
1703,140
1704,140
1705,140
1706,140
1707,140
1708,140
1709,140
1710,140
1711,140
1712,140
1713,140
1714,140
1715,140
1716,140
1717,140
1718,140
1719,140
1720,140
1721,140
1722,140
1723,140
1724,140
1725,140
1726,140
1727,140
1728,140
1729,140
1730,140
1731,140
1732,141
1733,141
1734,141
1735,141
1736,141
1737,141
1738,141
1739,141
1740,142
1741,142
1742,142
1743,142
1744,142
1745,142
1746,142
1747,142
1748,142
1749,142
1750,142
1751,142
1752,142
1753,142
1754,142
1755,143
1756,143
1757,143
1758,143
1759,143
1760,143
1761,143
1762,143
1763,143
1764,143
1765,143
1766,143
1767,143
1768,143
1769,143
1770,143
1771,143
1772,143
1773,143
1774,143
1775,143
1776,143
1777,143
1778,143
1779,143
1780,143
1781,143
1782,143
1783,143
1784,143
1785,143
1786,143
1787,144
1788,144
1789,144
1790,144
1791,144
1792,144
1793,144
1794,144
1795,144
1796,144
1797,144
1798,144
1799,144
1800,144
1801,144
1802,144
1803,144
1804,144
1805,144
1806,144
1807,144
1808,144
1809,144
1810,144
1811,144
1812,144
1813,144
1814,144
1815,144
1816,144
1817,144
1818,144
1819,144
1820,144
1821,145
1822,145
1823,145
1824,145
1825,145
1826,145
1827,145
1828,145
1829,145
1830,145
1831,145
1832,145
1833,145
1834,146
1835,146
1836,146
1837,147
1838,147
1839,147
1840,147
1841,147
1842,147
1843,147
1844,147
1845,147
1846,147
1847,147
1848,147
1849,147
1850,147
1851,147
1852,147
1853,147
1854,147
1855,147
1856,147
1857,147
1858,147
1859,147
1860,147
1861,147
1862,147
1863,147
1864,147
1865,147
1866,147
1867,147
1868,147
1869,147
1870,147
1871,147
1872,147
1873,147
1874,147
1875,147
1876,147
1877,147
1878,147
1879,147
1880,147
1881,147
1882,147
1883,147
1884,147
1885,148
1886,148
1887,148
1888,148
1889,148
1890,148
1891,148
1892,148
1893,148
1894,148
1895,148
1896,150
1897,150
1898,150
1899,150
1900,150
1901,150
1902,150
1903,150
1904,150
1905,150
1906,150
1907,150
1908,150
1909,150
1910,150
1911,150
1912,150
1913,150
1914,150
1915,151
1916,151
1917,151
1918,151
1919,151
1920,151
1921,151
1922,151
1923,151
1924,151
1925,151
1926,151
1927,151
1928,151
1929,151
1930,151
1931,151
1932,151
1933,151
1934,151
1935,151
1936,151
1937,151
1938,151
1939,151
1940,151
1941,151
1942,152
1943,152
1944,153
1945,153
1946,153
1947,153
1948,153
1949,153
1950,153
1951,153
1952,153
1953,153
1954,153
1955,153
1956,153
1957,153
1958,153
1959,153
1960,153
1961,153
1962,153
1963,153
1964,153
1965,153
1966,153
1967,153
1968,153
1969,153
1970,153
1971,153
1972,153
1973,153
1974,153
1975,153
1976,153
1977,153
1978,153
1979,153
1980,153
1981,153
1982,153
1983,153
1984,153
1985,153
1986,153
1987,153
1988,153
1989,153
1990,153
1991,153
1992,153
1993,153
1994,153
1995,153
1996,153
1997,153
1998,153
1999,153
2000,153
