"tick","susceptible","exposed","infectious","recovered"
0,99,1,0,0
1,99,1,0,0
2,99,1,0,0
3,99,1,0,0
4,99,1,0,0
5,99,1,0,0
6,99,1,0,0
7,99,1,0,0
8,99,1,0,0
9,99,1,0,0
10,99,1,0,0
11,99,1,0,0
12,99,1,0,0
13,99,1,0,0
14,99,1,0,0
15,99,1,0,0
16,99,1,0,0
17,99,1,0,0
18,99,1,0,0
19,99,1,0,0
20,99,1,0,0
21,99,1,0,0
22,99,1,0,0
23,99,1,0,0
24,99,1,0,0
25,99,1,0,0
26,99,1,0,0
27,99,1,0,0
28,99,1,0,0
29,99,1,0,0
30,99,1,0,0
31,99,1,0,0
32,99,1,0,0
33,99,1,0,0
34,99,1,0,0
35,99,1,0,0
36,99,1,0,0
37,99,1,0,0
38,99,1,0,0
39,99,1,0,0
40,99,1,0,0
41,99,1,0,0
42,99,1,0,0
43,99,1,0,0
44,99,1,0,0
45,99,1,0,0
46,99,1,0,0
47,99,1,0,0
48,99,1,0,0
49,99,1,0,0
50,99,1,0,0
51,99,1,0,0
52,99,1,0,0
53,99,1,0,0
54,99,1,0,0
55,99,1,0,0
56,99,1,0,0
57,99,1,0,0
58,99,1,0,0
59,99,1,0,0
60,99,1,0,0
61,99,1,0,0
62,99,1,0,0
63,99,1,0,0
64,99,1,0,0
65,99,1,0,0
66,99,1,0,0
67,99,1,0,0
68,99,1,0,0
69,99,1,0,0
70,99,1,0,0
71,99,1,0,0
72,99,1,0,0
73,99,1,0,0
74,99,1,0,0
75,99,1,0,0
76,99,1,0,0
77,99,1,0,0
78,99,1,0,0
79,99,1,0,0
80,99,1,0,0
81,99,1,0,0
82,99,1,0,0
83,99,1,0,0
84,99,1,0,0
85,99,1,0,0
86,99,1,0,0
87,99,1,0,0
88,99,1,0,0
89,99,1,0,0
90,99,1,0,0
91,99,1,0,0
92,99,1,0,0
93,99,1,0,0
94,99,1,0,0
95,99,1,0,0
96,99,1,0,0
97,99,1,0,0
98,99,1,0,0
99,99,1,0,0
100,99,1,0,0
101,99,1,0,0
102,99,1,0,0
103,99,1,0,0
104,99,1,0,0
105,99,1,0,0
106,99,1,0,0
107,99,1,0,0
108,99,1,0,0
109,99,1,0,0
110,99,1,0,0
111,99,1,0,0
112,99,1,0,0
113,99,1,0,0
114,99,1,0,0
115,99,1,0,0
116,99,1,0,0
117,99,1,0,0
118,99,1,0,0
119,99,1,0,0
120,99,1,0,0
121,99,1,0,0
122,99,1,0,0
123,99,1,0,0
124,99,1,0,0
125,99,1,0,0
126,99,1,0,0
127,99,1,0,0
128,99,1,0,0
129,99,1,0,0
130,99,1,0,0
131,99,1,0,0
132,99,1,0,0
133,99,1,0,0
134,99,1,0,0
135,99,1,0,0
136,99,1,0,0
137,99,1,0,0
138,99,1,0,0
139,99,1,0,0
140,99,1,0,0
141,99,1,0,0
142,99,1,0,0
143,99,1,0,0
144,99,1,0,0
145,99,1,0,0
146,99,1,0,0
147,99,1,0,0
148,99,1,0,0
149,99,1,0,0
150,99,1,0,0
151,99,1,0,0
152,99,1,0,0
153,99,1,0,0
154,99,1,0,0
155,99,1,0,0
156,99,1,0,0
157,99,1,0,0
158,99,1,0,0
159,99,1,0,0
160,99,1,0,0
161,99,1,0,0
162,99,1,0,0
163,99,1,0,0
164,99,1,0,0
165,99,1,0,0
166,99,1,0,0
167,99,1,0,0
168,99,1,0,0
169,99,1,0,0
170,99,1,0,0
171,99,1,0,0
172,99,1,0,0
173,99,1,0,0
174,99,1,0,0
175,99,1,0,0
176,99,1,0,0
177,99,1,0,0
178,99,1,0,0
179,99,1,0,0
180,99,1,0,0
181,99,1,0,0
182,99,1,0,0
183,99,1,0,0
184,99,1,0,0
185,99,1,0,0
186,99,1,0,0
187,99,1,0,0
188,99,1,0,0
189,99,1,0,0
190,99,1,0,0
191,99,1,0,0
192,99,1,0,0
193,99,1,0,0
194,99,1,0,0
195,99,1,0,0
196,99,1,0,0
197,99,1,0,0
198,99,1,0,0
199,99,1,0,0
200,99,1,0,0
201,99,0,1,0
202,99,0,1,0
203,99,0,1,0
204,99,0,1,0
205,99,0,1,0
206,98,1,1,0
207,98,1,1,0
208,98,1,1,0
209,98,1,1,0
210,98,1,1,0
211,98,1,1,0
212,98,1,1,0
213,98,1,1,0
214,98,1,1,0
215,98,1,1,0
216,98,1,1,0
217,98,1,1,0
218,98,1,1,0
219,98,1,1,0
220,98,1,1,0
221,98,1,1,0
222,98,1,1,0
223,98,1,1,0
224,98,1,1,0
225,98,1,1,0
226,98,1,1,0
227,98,1,1,0
228,98,1,1,0
229,98,1,1,0
230,98,1,1,0
231,98,1,1,0
232,98,1,1,0
233,98,1,1,0
234,98,1,1,0
235,98,1,1,0
236,98,1,1,0
237,98,1,1,0
238,98,1,1,0
239,98,1,1,0
240,98,1,1,0
241,98,1,1,0
242,98,1,1,0
243,98,1,1,0
244,98,1,1,0
245,98,1,1,0
246,98,1,1,0
247,98,1,1,0
248,98,1,1,0
249,98,1,1,0
250,98,1,1,0
251,98,1,1,0
252,98,1,1,0
253,98,1,1,0
254,98,1,1,0
255,98,1,1,0
256,98,1,1,0
257,98,1,1,0
258,98,1,1,0
259,98,1,1,0
260,98,1,1,0
261,98,1,1,0
262,98,1,1,0
263,98,1,1,0
264,98,1,1,0
265,98,1,1,0
266,98,1,1,0
267,98,1,1,0
268,98,1,1,0
269,98,1,1,0
270,98,1,1,0
271,98,1,1,0
272,98,1,1,0
273,98,1,1,0
274,98,1,1,0
275,98,1,1,0
276,98,1,1,0
277,98,1,1,0
278,98,1,1,0
279,98,1,1,0
280,98,1,1,0
281,98,1,1,0
282,98,1,1,0
283,98,1,1,0
284,98,1,1,0
285,98,1,1,0
286,98,1,1,0
287,98,1,1,0
288,98,1,1,0
289,97,2,1,0
290,97,2,1,0
291,97,2,1,0
292,97,2,1,0
293,97,2,1,0
294,97,2,1,0
295,97,2,1,0
296,97,2,1,0
297,97,2,1,0
298,97,2,1,0
299,97,2,1,0
300,97,2,1,0
301,97,2,1,0
302,97,2,1,0
303,97,2,1,0
304,97,2,1,0
305,97,2,1,0
306,97,2,1,0
307,97,2,1,0
308,97,2,1,0
309,96,3,1,0
310,96,3,1,0
311,96,3,1,0
312,96,3,1,0
313,96,3,1,0
314,96,3,1,0
315,96,3,1,0
316,96,3,1,0
317,96,3,1,0
318,96,3,1,0
319,96,3,1,0
320,96,3,1,0
321,96,3,1,0
322,96,3,1,0
323,96,3,1,0
324,96,3,1,0
325,96,3,1,0
326,96,3,1,0
327,96,3,1,0
328,96,3,1,0
329,96,3,1,0
330,96,3,1,0
331,96,3,1,0
332,96,3,1,0
333,96,3,1,0
334,96,3,1,0
335,96,3,1,0
336,96,3,1,0
337,96,3,1,0
338,96,3,1,0
339,96,3,1,0
340,96,3,1,0
341,96,3,1,0
342,96,3,1,0
343,96,3,1,0
344,96,3,1,0
345,96,3,1,0
346,96,3,1,0
347,96,3,1,0
348,96,3,1,0
349,96,3,1,0
350,96,3,1,0
351,96,3,1,0
352,96,3,1,0
353,96,3,1,0
354,96,3,1,0
355,96,3,1,0
356,96,3,1,0
357,96,3,1,0
358,96,3,1,0
359,96,3,1,0
360,96,3,1,0
361,96,3,1,0
362,96,3,1,0
363,96,3,1,0
364,96,3,1,0
365,96,3,1,0
366,96,3,1,0
367,96,3,1,0
368,96,3,1,0
369,96,3,1,0
370,96,3,1,0
371,96,3,1,0
372,96,3,1,0
373,96,3,1,0
374,96,3,1,0
375,95,4,1,0
376,95,4,1,0
377,95,4,1,0
378,95,4,1,0
379,95,4,1,0
380,95,4,1,0
381,95,4,1,0
382,95,4,1,0
383,95,4,1,0
384,95,4,1,0
385,95,4,1,0
386,95,4,1,0
387,95,4,1,0
388,95,4,1,0
389,95,4,1,0
390,95,4,1,0
391,95,4,1,0
392,95,4,1,0
393,95,4,1,0
394,95,4,1,0
395,95,4,1,0
396,95,4,1,0
397,95,4,1,0
398,95,4,1,0
399,95,4,1,0
400,95,4,1,0
401,95,4,1,0
402,95,4,0,1
403,95,4,0,1
404,95,4,0,1
405,95,4,0,1
406,95,4,0,1
407,95,3,1,1
408,93,5,1,1
409,92,6,1,1
410,90,8,1,1
411,89,9,1,1
412,86,12,1,1
413,86,12,1,1
414,86,12,1,1
415,85,13,1,1
416,85,13,1,1
417,85,13,1,1
418,85,13,1,1
419,84,14,1,1
420,84,14,1,1
421,83,15,1,1
422,82,16,1,1
423,82,16,1,1
424,82,16,1,1
425,82,16,1,1
426,82,16,1,1
427,82,16,1,1
428,82,16,1,1
429,82,16,1,1
430,82,16,1,1
431,82,16,1,1
432,82,16,1,1
433,82,16,1,1
434,82,16,1,1
435,82,16,1,1
436,82,16,1,1
437,82,16,1,1
438,82,16,1,1
439,82,16,1,1
440,82,16,1,1
441,82,16,1,1
442,82,16,1,1
443,82,16,1,1
444,82,16,1,1
445,82,16,1,1
446,82,16,1,1
447,82,16,1,1
448,82,16,1,1
449,82,16,1,1
450,82,16,1,1
451,82,16,1,1
452,82,16,1,1
453,82,16,1,1
454,82,16,1,1
455,82,16,1,1
456,82,16,1,1
457,82,16,1,1
458,82,16,1,1
459,82,16,1,1
460,82,16,1,1
461,82,16,1,1
462,82,16,1,1
463,82,16,1,1
464,82,16,1,1
465,82,16,1,1
466,82,16,1,1
467,82,16,1,1
468,82,16,1,1
469,82,16,1,1
470,82,16,1,1
471,82,16,1,1
472,82,16,1,1
473,82,16,1,1
474,82,16,1,1
475,82,16,1,1
476,82,16,1,1
477,82,16,1,1
478,82,16,1,1
479,82,16,1,1
480,82,16,1,1
481,82,16,1,1
482,82,16,1,1
483,82,16,1,1
484,82,16,1,1
485,82,16,1,1
486,82,16,1,1
487,82,16,1,1
488,82,16,1,1
489,82,16,1,1
490,82,15,2,1
491,81,16,2,1
492,80,17,2,1
493,80,17,2,1
494,78,19,2,1
495,77,20,2,1
496,76,21,2,1
497,76,21,2,1
498,76,21,2,1
499,76,21,2,1
500,76,21,2,1
501,76,21,2,1
502,75,22,2,1
503,75,22,2,1
504,75,22,2,1
505,75,22,2,1
506,75,22,2,1
507,75,22,2,1
508,75,22,2,1
509,75,22,2,1
510,75,21,3,1
511,74,22,3,1
512,74,22,3,1
513,74,22,3,1
514,74,22,3,1
515,74,22,3,1
516,74,22,3,1
517,74,22,3,1
518,74,22,3,1
519,74,22,3,1
520,74,22,3,1
521,74,22,3,1
522,74,22,3,1
523,73,23,3,1
524,73,23,3,1
525,73,23,3,1
526,73,23,3,1
527,73,23,3,1
528,73,23,3,1
529,73,23,3,1
530,73,23,3,1
531,73,23,3,1
532,73,23,3,1
533,73,23,3,1
534,73,23,3,1
535,73,23,3,1
536,73,23,3,1
537,73,23,3,1
538,73,23,3,1
539,73,23,3,1
540,73,23,3,1
541,73,23,3,1
542,73,23,3,1
543,73,23,3,1
544,73,23,3,1
545,73,23,3,1
546,73,23,3,1
547,73,23,3,1
548,73,23,3,1
549,73,23,3,1
550,73,23,3,1
551,73,23,3,1
552,73,23,3,1
553,73,23,3,1
554,73,23,3,1
555,73,23,3,1
556,73,23,3,1
557,73,23,3,1
558,73,23,3,1
559,73,23,3,1
560,73,23,3,1
561,73,23,3,1
562,73,23,3,1
563,73,23,3,1
564,73,23,3,1
565,73,23,3,1
566,73,23,3,1
567,73,23,3,1
568,73,23,3,1
569,73,23,3,1
570,73,23,3,1
571,73,23,3,1
572,73,23,3,1
573,72,24,3,1
574,72,24,3,1
575,72,24,3,1
576,72,23,4,1
577,72,23,4,1
578,72,23,4,1
579,72,23,4,1
580,72,23,4,1
581,72,23,4,1
582,72,23,4,1
583,72,23,4,1
584,72,23,4,1
585,72,23,4,1
586,72,23,4,1
587,72,23,4,1
588,72,23,4,1
589,72,23,4,1
590,72,23,4,1
591,72,23,4,1
592,72,23,4,1
593,72,23,4,1
594,72,23,4,1
595,72,23,4,1
596,72,23,4,1
597,72,23,4,1
598,72,23,4,1
599,72,23,4,1
600,72,23,4,1
601,72,23,4,1
602,72,23,4,1
603,72,23,4,1
604,72,23,4,1
605,72,23,4,1
606,72,23,4,1
607,72,23,4,1
608,72,23,3,2
609,72,21,5,2
610,72,20,6,2
611,72,18,8,2
612,72,17,9,2
613,72,14,12,2
614,72,14,12,2
615,72,14,12,2
616,72,13,13,2
617,72,13,13,2
618,72,13,13,2
619,72,13,13,2
620,71,13,14,2
621,71,13,14,2
622,71,12,15,2
623,70,12,16,2
624,69,13,16,2
625,69,13,16,2
626,69,13,16,2
627,69,13,16,2
628,68,14,16,2
629,68,14,16,2
630,68,14,16,2
631,68,14,16,2
632,68,14,16,2
633,68,14,16,2
634,68,14,16,2
635,68,14,16,2
636,68,14,16,2
637,68,14,16,2
638,68,14,16,2
639,68,14,16,2
640,68,14,16,2
641,68,14,16,2
642,68,14,16,2
643,68,14,16,2
644,68,14,16,2
645,68,14,16,2
646,68,14,16,2
647,68,14,16,2
648,68,14,16,2
649,68,14,16,2
650,68,14,16,2
651,68,14,16,2
652,67,15,16,2
653,67,15,16,2
654,66,16,16,2
655,66,16,16,2
656,66,16,16,2
657,66,16,16,2
658,66,16,16,2
659,66,16,16,2
660,66,16,16,2
661,66,16,16,2
662,66,16,16,2
663,66,16,16,2
664,66,16,16,2
665,66,16,16,2
666,66,16,16,2
667,66,16,16,2
668,66,16,16,2
669,66,16,16,2
670,65,17,16,2
671,65,17,16,2
672,65,17,16,2
673,65,17,16,2
674,65,17,16,2
675,65,17,16,2
676,65,17,16,2
677,65,17,16,2
678,65,17,16,2
679,65,17,16,2
680,65,17,16,2
681,65,17,16,2
682,65,17,16,2
683,65,17,16,2
684,65,17,16,2
685,65,17,16,2
686,65,17,16,2
687,65,17,16,2
688,65,17,16,2
689,65,17,16,2
690,63,19,16,2
691,63,19,15,3
692,63,18,16,3
693,62,18,17,3
694,61,19,17,3
695,60,18,19,3
696,60,17,20,3
697,60,16,21,3
698,59,17,21,3
699,59,17,21,3
700,59,17,21,3
701,59,17,21,3
702,59,17,21,3
703,59,16,22,3
704,59,16,22,3
705,59,16,22,3
706,58,17,22,3
707,58,17,22,3
708,58,17,22,3
709,58,17,22,3
710,58,17,22,3
711,57,18,21,4
712,57,17,22,4
713,57,17,22,4
714,57,17,22,4
715,57,17,22,4
716,57,17,22,4
717,56,18,22,4
718,56,18,22,4
719,56,18,22,4
720,56,18,22,4
721,56,18,22,4
722,56,18,22,4
723,56,18,22,4
724,56,17,23,4
725,56,17,23,4
726,56,17,23,4
727,56,17,23,4
728,56,17,23,4
729,56,17,23,4
730,56,17,23,4
731,56,17,23,4
732,56,17,23,4
733,56,17,23,4
734,56,17,23,4
735,56,17,23,4
736,56,17,23,4
737,56,17,23,4
738,55,18,23,4
739,55,18,23,4
740,55,18,23,4
741,55,18,23,4
742,55,18,23,4
743,55,18,23,4
744,55,18,23,4
745,55,18,23,4
746,54,19,23,4
747,53,20,23,4
748,53,20,23,4
749,52,21,23,4
750,52,21,23,4
751,52,21,23,4
752,52,21,23,4
753,52,21,23,4
754,52,21,23,4
755,52,21,23,4
756,52,21,23,4
757,52,21,23,4
758,52,21,23,4
759,51,22,23,4
760,50,23,23,4
761,50,23,23,4
762,49,24,23,4
763,49,24,23,4
764,49,24,23,4
765,49,24,23,4
766,49,24,23,4
767,49,24,23,4
768,49,24,23,4
769,49,24,23,4
770,48,25,23,4
771,48,25,23,4
772,48,25,23,4
773,48,25,23,4
774,48,24,24,4
775,48,24,24,4
776,48,24,24,4
777,48,24,23,5
778,48,24,23,5
779,48,24,23,5
780,48,24,23,5
781,48,24,23,5
782,48,24,23,5
783,48,24,23,5
784,48,24,23,5
785,48,24,23,5
786,48,24,23,5
787,48,24,23,5
788,48,24,23,5
789,48,24,23,5
790,48,24,23,5
791,48,24,23,5
792,48,24,23,5
793,48,24,23,5
794,48,24,23,5
795,48,24,23,5
796,48,24,23,5
797,48,24,23,5
798,48,24,23,5
799,48,24,23,5
800,48,24,23,5
801,48,24,23,5
802,48,24,23,5
803,48,24,23,5
804,48,24,23,5
805,48,24,23,5
806,48,24,23,5
807,48,24,23,5
808,48,24,23,5
809,48,24,23,5
810,48,24,21,7
811,48,24,20,8
812,48,24,18,10
813,48,24,17,11
814,48,24,14,14
815,48,24,14,14
816,48,24,14,14
817,47,25,13,15
818,47,25,13,15
819,47,25,13,15
820,47,25,13,15
821,47,24,13,16
822,47,24,13,16
823,47,24,12,17
824,47,23,12,18
825,46,23,13,18
826,46,23,13,18
827,44,25,13,18
828,44,25,13,18
829,44,24,14,18
830,44,24,14,18
831,44,24,14,18
832,44,24,14,18
833,44,24,14,18
834,44,24,14,18
835,44,24,14,18
836,44,24,14,18
837,44,24,14,18
838,44,24,14,18
839,44,24,14,18
840,44,24,14,18
841,44,24,14,18
842,44,24,14,18
843,44,24,14,18
844,44,24,14,18
845,44,24,14,18
846,44,24,14,18
847,43,25,14,18
848,43,25,14,18
849,43,25,14,18
850,43,25,14,18
851,43,25,14,18
852,43,25,14,18
853,43,24,15,18
854,43,24,15,18
855,43,23,16,18
856,42,24,16,18
857,42,24,16,18
858,42,24,16,18
859,42,24,16,18
860,42,24,16,18
861,42,24,16,18
862,42,24,16,18
863,42,24,16,18
864,42,24,16,18
865,42,24,16,18
866,42,24,16,18
867,42,24,16,18
868,42,24,16,18
869,42,24,16,18
870,42,24,16,18
871,42,23,17,18
872,42,23,17,18
873,42,23,17,18
874,42,23,17,18
875,42,23,17,18
876,42,23,17,18
877,42,23,17,18
878,42,23,17,18
879,41,24,17,18
880,41,24,17,18
881,41,24,17,18
882,41,24,17,18
883,41,24,17,18
884,41,24,17,18
885,41,24,17,18
886,41,24,17,18
887,41,24,17,18
888,41,24,17,18
889,41,24,17,18
890,41,24,17,18
891,41,22,19,18
892,41,22,19,18
893,41,22,18,19
894,41,21,18,20
895,41,20,19,20
896,41,19,18,22
897,41,19,17,23
898,41,19,16,24
899,40,19,17,24
900,40,19,17,24
901,40,19,17,24
902,40,19,17,24
903,40,19,17,24
904,40,19,16,25
905,40,19,16,25
906,40,19,16,25
907,40,18,17,25
908,40,18,17,25
909,40,18,17,25
910,39,19,17,25
911,39,19,17,25
912,39,18,18,25
913,39,18,17,26
914,39,18,17,26
915,39,18,17,26
916,39,18,17,26
917,39,18,17,26
918,39,17,18,26
919,39,17,18,26
920,39,17,18,26
921,39,17,18,26
922,39,17,18,26
923,39,17,18,26
924,39,17,18,26
925,39,17,17,27
926,39,17,17,27
927,39,17,17,27
928,39,17,17,27
929,39,17,17,27
930,39,17,17,27
931,39,17,17,27
932,39,17,17,27
933,38,18,17,27
934,38,18,17,27
935,38,18,17,27
936,38,18,17,27
937,38,18,17,27
938,38,18,17,27
939,38,17,18,27
940,38,17,18,27
941,38,17,18,27
942,38,17,18,27
943,38,17,18,27
944,38,17,18,27
945,38,17,18,27
946,38,17,18,27
947,38,16,19,27
948,38,15,20,27
949,38,15,20,27
950,38,14,21,27
951,38,14,21,27
952,38,14,21,27
953,38,14,21,27
954,38,14,21,27
955,38,14,21,27
956,38,14,21,27
957,37,15,21,27
958,37,15,21,27
959,37,15,21,27
960,37,14,22,27
961,37,13,23,27
962,37,13,23,27
963,37,12,24,27
964,37,12,24,27
965,37,12,24,27
966,37,12,24,27
967,37,12,24,27
968,37,12,24,27
969,37,12,24,27
970,37,12,24,27
971,37,11,25,27
972,37,11,25,27
973,37,11,25,27
974,37,11,25,27
975,37,11,24,28
976,36,12,24,28
977,36,12,24,28
978,35,13,24,28
979,35,13,24,28
980,35,13,24,28
981,35,13,24,28
982,35,13,24,28
983,34,14,24,28
984,34,14,24,28
985,34,14,24,28
986,34,14,24,28
987,34,14,24,28
988,34,14,24,28
989,34,14,24,28
990,34,14,24,28
991,33,15,24,28
992,33,15,24,28
993,33,15,24,28
994,33,15,24,28
995,33,15,24,28
996,33,15,24,28
997,33,15,24,28
998,33,15,24,28
999,33,15,24,28
1000,33,15,24,28
1001,33,15,24,28
1002,33,15,24,28
1003,33,15,24,28
1004,32,16,24,28
1005,32,16,24,28
1006,32,16,24,28
1007,32,16,24,28
1008,32,16,24,28
1009,32,16,24,28
1010,32,16,24,28
1011,32,16,24,28
1012,32,16,24,28
1013,32,16,24,28
1014,32,16,24,28
1015,32,16,24,28
1016,32,16,24,28
1017,32,16,24,28
1018,32,15,25,28
1019,32,15,25,28
1020,31,16,25,28
1021,31,16,25,28
1022,31,16,24,29
1023,31,16,24,29
1024,31,16,24,29
1025,31,16,23,30
1026,31,15,23,31
1027,31,15,23,31
1028,31,13,25,31
1029,31,13,25,31
1030,31,13,24,32
1031,30,14,24,32
1032,30,14,24,32
1033,30,14,24,32
1034,30,14,24,32
1035,30,14,24,32
1036,30,14,24,32
1037,30,14,24,32
1038,30,14,24,32
1039,30,14,24,32
1040,30,14,24,32
1041,30,14,24,32
1042,30,14,24,32
1043,30,14,24,32
1044,30,14,24,32
1045,30,14,24,32
1046,30,14,24,32
1047,30,14,24,32
1048,30,13,25,32
1049,30,13,25,32
1050,30,13,25,32
1051,30,13,25,32
1052,30,13,25,32
1053,30,13,25,32
1054,30,13,24,33
1055,29,14,24,33
1056,29,14,23,34
1057,29,13,24,34
1058,29,13,24,34
1059,29,13,24,34
1060,29,13,24,34
1061,29,13,24,34
1062,29,13,24,34
1063,29,13,24,34
1064,29,13,24,34
1065,28,14,24,34
1066,28,14,24,34
1067,28,14,24,34
1068,28,14,24,34
1069,28,14,24,34
1070,28,14,24,34
1071,28,14,24,34
1072,28,14,23,35
1073,28,14,23,35
1074,28,14,23,35
1075,28,14,23,35
1076,28,14,23,35
1077,28,14,23,35
1078,28,14,23,35
1079,28,14,23,35
1080,28,13,24,35
1081,28,13,24,35
1082,28,13,24,35
1083,28,13,24,35
1084,28,13,24,35
1085,28,13,24,35
1086,28,13,24,35
1087,28,13,24,35
1088,28,13,24,35
1089,28,13,24,35
1090,28,13,24,35
1091,28,13,24,35
1092,28,13,22,37
1093,28,13,22,37
1094,28,13,22,37
1095,28,13,21,38
1096,28,13,20,39
1097,28,13,19,40
1098,28,13,19,40
1099,28,13,19,40
1100,28,12,19,41
1101,28,12,19,41
1102,28,12,19,41
1103,28,12,19,41
1104,28,12,19,41
1105,28,12,19,41
1106,28,12,19,41
1107,28,12,19,41
1108,28,12,18,42
1109,28,12,18,42
1110,28,12,18,42
1111,28,11,19,42
1112,28,11,19,42
1113,28,11,18,43
1114,28,11,18,43
1115,28,11,18,43
1116,28,11,18,43
1117,28,11,18,43
1118,28,11,18,43
1119,27,12,17,44
1120,27,12,17,44
1121,27,12,17,44
1122,27,12,17,44
1123,27,12,17,44
1124,27,12,17,44
1125,27,12,17,44
1126,27,12,17,44
1127,27,12,17,44
1128,27,12,17,44
1129,27,12,17,44
1130,27,12,17,44
1131,27,12,17,44
1132,27,12,17,44
1133,27,12,17,44
1134,27,11,18,44
1135,27,11,18,44
1136,27,11,18,44
1137,27,11,18,44
1138,27,11,18,44
1139,27,11,18,44
1140,27,11,17,45
1141,27,11,17,45
1142,27,11,17,45
1143,27,11,17,45
1144,27,11,17,45
1145,27,11,17,45
1146,27,11,17,45
1147,27,11,17,45
1148,27,11,16,46
1149,27,11,15,47
1150,27,11,15,47
1151,27,11,14,48
1152,27,11,14,48
1153,27,11,14,48
1154,27,11,14,48
1155,27,11,14,48
1156,27,11,14,48
1157,27,11,14,48
1158,27,10,15,48
1159,26,11,15,48
1160,26,11,15,48
1161,26,11,14,49
1162,26,11,13,50
1163,26,11,13,50
1164,26,11,12,51
1165,26,11,12,51
1166,26,11,12,51
1167,26,11,12,51
1168,26,11,12,51
1169,26,11,12,51
1170,26,11,12,51
1171,26,11,12,51
1172,26,11,11,52
1173,26,11,11,52
1174,26,11,11,52
1175,26,11,11,52
1176,26,11,11,52
1177,26,10,12,52
1178,26,10,12,52
1179,25,10,13,52
1180,25,10,13,52
1181,25,10,13,52
1182,25,10,13,52
1183,25,10,13,52
1184,25,9,14,52
1185,25,9,14,52
1186,25,9,14,52
1187,25,9,14,52
1188,25,9,14,52
1189,25,9,14,52
1190,25,9,14,52
1191,25,9,14,52
1192,25,8,15,52
1193,25,8,15,52
1194,25,8,15,52
1195,25,8,15,52
1196,25,8,15,52
1197,25,8,15,52
1198,25,8,15,52
1199,25,8,15,52
1200,25,8,15,52
1201,25,8,15,52
1202,25,8,15,52
1203,25,8,15,52
1204,25,8,15,52
1205,25,7,16,52
1206,25,7,16,52
1207,25,7,16,52
1208,25,7,16,52
1209,25,7,16,52
1210,24,8,16,52
1211,24,8,16,52
1212,24,8,16,52
1213,24,8,16,52
1214,24,8,16,52
1215,24,8,16,52
1216,24,8,16,52
1217,24,8,16,52
1218,24,8,16,52
1219,24,8,15,53
1220,24,8,15,53
1221,24,7,16,53
1222,24,7,16,53
1223,24,7,16,53
1224,24,7,16,53
1225,24,7,16,53
1226,23,8,16,53
1227,23,8,15,54
1228,23,8,15,54
1229,23,8,13,56
1230,23,8,13,56
1231,23,8,13,56
1232,23,7,14,56
1233,23,7,14,56
1234,23,7,14,56
1235,23,7,14,56
1236,23,7,14,56
1237,23,7,14,56
1238,23,7,14,56
1239,23,7,14,56
1240,23,7,14,56
1241,23,7,14,56
1242,23,7,14,56
1243,22,8,14,56
1244,22,8,14,56
1245,22,8,14,56
1246,22,8,14,56
1247,22,8,14,56
1248,22,8,14,56
1249,22,8,13,57
1250,22,8,13,57
1251,22,8,13,57
1252,22,8,13,57
1253,22,8,13,57
1254,22,8,13,57
1255,22,8,13,57
1256,22,7,14,57
1257,22,7,14,57
1258,22,7,13,58
1259,22,7,13,58
1260,22,7,13,58
1261,22,7,13,58
1262,22,7,13,58
1263,22,7,13,58
1264,22,7,13,58
1265,22,7,13,58
1266,22,6,14,58
1267,22,6,14,58
1268,22,6,14,58
1269,22,6,14,58
1270,22,6,14,58
1271,22,6,14,58
1272,22,6,14,58
1273,22,6,14,58
1274,22,6,14,58
1275,22,6,14,58
1276,22,6,14,58
1277,22,6,14,58
1278,22,6,14,58
1279,22,6,14,58
1280,22,6,14,58
1281,22,6,13,59
1282,22,6,13,59
1283,22,6,13,59
1284,22,6,13,59
1285,22,6,13,59
1286,22,6,13,59
1287,22,6,13,59
1288,22,6,13,59
1289,22,6,13,59
1290,22,6,13,59
1291,22,6,13,59
1292,22,6,13,59
1293,22,6,13,59
1294,22,6,13,59
1295,22,6,13,59
1296,22,6,13,59
1297,22,6,13,59
1298,22,6,13,59
1299,22,6,13,59
1300,22,6,13,59
1301,22,6,12,60
1302,22,6,12,60
1303,22,6,12,60
1304,22,6,12,60
1305,22,6,12,60
1306,22,6,12,60
1307,22,6,12,60
1308,22,6,12,60
1309,22,6,12,60
1310,22,6,12,60
1311,22,6,12,60
1312,22,6,11,61
1313,22,6,11,61
1314,22,6,11,61
1315,22,6,11,61
1316,22,6,11,61
1317,22,6,11,61
1318,22,6,11,61
1319,22,6,11,61
1320,22,5,12,61
1321,21,6,12,61
1322,21,6,12,61
1323,21,6,12,61
1324,21,6,12,61
1325,21,6,12,61
1326,21,6,12,61
1327,21,6,12,61
1328,21,6,12,61
1329,21,6,12,61
1330,21,6,12,61
1331,21,6,12,61
1332,21,6,12,61
1333,21,6,12,61
1334,21,6,12,61
1335,21,6,11,62
1336,21,6,11,62
1337,21,6,11,62
1338,21,6,11,62
1339,21,6,11,62
1340,21,6,11,62
1341,21,6,11,62
1342,21,6,11,62
1343,21,6,11,62
1344,21,6,11,62
1345,21,6,11,62
1346,21,6,11,62
1347,21,6,11,62
1348,21,6,11,62
1349,21,6,11,62
1350,21,6,11,62
1351,21,6,11,62
1352,21,6,11,62
1353,21,6,11,62
1354,21,6,11,62
1355,21,6,11,62
1356,21,6,11,62
1357,21,6,11,62
1358,21,6,11,62
1359,21,6,10,63
1360,21,5,11,63
1361,21,5,11,63
1362,20,6,11,63
1363,20,6,11,63
1364,20,6,11,63
1365,20,6,11,63
1366,20,6,11,63
1367,20,6,11,63
1368,20,6,11,63
1369,20,6,11,63
1370,20,6,11,63
1371,20,6,11,63
1372,20,6,11,63
1373,20,6,11,63
1374,20,6,11,63
1375,20,6,11,63
1376,20,6,11,63
1377,20,6,11,63
1378,20,6,10,64
1379,20,6,10,64
1380,20,5,10,65
1381,20,5,10,65
1382,20,5,10,65
1383,20,5,10,65
1384,20,5,10,65
1385,20,5,9,66
1386,20,5,9,66
1387,20,5,9,66
1388,20,5,9,66
1389,20,5,9,66
1390,20,5,9,66
1391,20,5,9,66
1392,20,5,9,66
1393,20,5,8,67
1394,20,5,8,67
1395,20,5,8,67
1396,20,5,8,67
1397,20,5,8,67
1398,20,5,8,67
1399,20,5,8,67
1400,20,5,8,67
1401,20,5,8,67
1402,20,5,8,67
1403,20,5,8,67
1404,20,5,8,67
1405,20,5,8,67
1406,20,5,7,68
1407,20,5,7,68
1408,20,5,7,68
1409,20,5,7,68
1410,20,5,7,68
1411,20,4,8,68
1412,19,5,8,68
1413,19,5,8,68
1414,19,5,8,68
1415,19,5,8,68
1416,19,5,8,68
1417,19,5,8,68
1418,19,5,8,68
1419,19,5,8,68
1420,19,5,8,68
1421,19,5,8,68
1422,18,6,7,69
1423,18,6,7,69
1424,18,6,7,69
1425,18,6,7,69
1426,18,6,7,69
1427,18,5,8,69
1428,18,5,8,69
1429,18,5,8,69
1430,18,5,8,69
1431,18,5,8,69
1432,18,5,8,69
1433,18,5,7,70
1434,18,5,7,70
1435,18,5,7,70
1436,18,5,7,70
1437,18,5,7,70
1438,18,5,7,70
1439,18,5,7,70
1440,18,5,7,70
1441,18,5,7,70
1442,18,5,7,70
1443,18,5,7,70
1444,18,4,8,70
1445,18,4,8,70
1446,18,4,8,70
1447,18,4,8,70
1448,18,4,8,70
1449,18,4,8,70
1450,18,4,8,70
1451,18,4,8,70
1452,18,4,8,70
1453,18,4,8,70
1454,18,4,8,70
1455,18,4,8,70
1456,18,4,8,70
1457,18,4,7,71
1458,18,4,7,71
1459,18,4,7,71
1460,18,4,7,71
1461,18,4,7,71
1462,18,4,7,71
1463,18,4,7,71
1464,18,4,7,71
1465,18,4,7,71
1466,18,4,7,71
1467,18,4,6,72
1468,18,4,6,72
1469,18,4,6,72
1470,18,4,6,72
1471,18,4,6,72
1472,18,4,6,72
1473,18,4,6,72
1474,18,4,6,72
1475,18,4,6,72
1476,18,4,6,72
1477,18,4,6,72
1478,18,4,6,72
1479,18,4,6,72
1480,18,4,6,72
1481,18,4,6,72
1482,18,4,6,72
1483,18,4,6,72
1484,18,4,6,72
1485,18,4,6,72
1486,18,4,6,72
1487,18,4,6,72
1488,18,4,6,72
1489,18,4,6,72
1490,18,4,6,72
1491,18,4,6,72
1492,18,4,6,72
1493,18,4,6,72
1494,18,4,6,72
1495,18,4,6,72
1496,18,4,6,72
1497,18,4,6,72
1498,18,4,6,72
1499,18,4,6,72
1500,18,4,6,72
1501,18,4,6,72
1502,18,4,6,72
1503,18,4,6,72
1504,18,4,6,72
1505,18,4,6,72
1506,18,4,6,72
1507,18,4,6,72
1508,18,4,6,72
1509,18,4,6,72
1510,18,4,6,72
1511,18,4,6,72
1512,18,4,6,72
1513,18,4,6,72
1514,18,4,6,72
1515,18,4,6,72
1516,18,4,6,72
1517,18,4,6,72
1518,18,4,6,72
1519,18,4,6,72
1520,18,4,6,72
1521,18,4,5,73
1522,18,3,6,73
1523,18,3,6,73
1524,18,3,6,73
1525,18,3,6,73
1526,18,3,6,73
1527,18,3,6,73
1528,18,3,6,73
1529,18,3,6,73
1530,18,3,6,73
1531,18,3,6,73
1532,18,3,6,73
1533,18,3,6,73
1534,18,3,6,73
1535,18,3,6,73
1536,18,3,6,73
1537,18,3,6,73
1538,18,3,6,73
1539,18,3,6,73
1540,18,3,6,73
1541,18,3,6,73
1542,18,3,6,73
1543,18,3,6,73
1544,18,3,6,73
1545,18,3,6,73
1546,18,3,6,73
1547,18,3,6,73
1548,18,3,6,73
1549,18,3,6,73
1550,18,3,6,73
1551,18,3,6,73
1552,18,3,6,73
1553,18,3,6,73
1554,18,3,6,73
1555,18,3,6,73
1556,18,3,6,73
1557,18,3,6,73
1558,18,3,6,73
1559,18,3,6,73
1560,18,3,6,73
1561,18,3,5,74
1562,18,3,5,74
1563,17,3,6,74
1564,17,3,6,74
1565,17,3,6,74
1566,17,3,6,74
1567,17,3,6,74
1568,17,3,6,74
1569,17,3,6,74
1570,17,3,6,74
1571,17,3,6,74
1572,17,3,6,74
1573,17,3,6,74
1574,17,3,6,74
1575,17,3,6,74
1576,17,3,6,74
1577,17,3,6,74
1578,17,3,6,74
1579,17,3,6,74
1580,17,3,6,74
1581,17,3,5,75
1582,17,3,5,75
1583,17,3,5,75
1584,17,3,5,75
1585,17,3,5,75
1586,17,3,5,75
1587,17,3,5,75
1588,17,3,5,75
1589,17,3,5,75
1590,16,4,5,75
1591,16,4,5,75
1592,16,4,5,75
1593,16,4,5,75
1594,16,4,5,75
1595,16,4,5,75
1596,16,4,5,75
1597,16,4,5,75
1598,16,4,5,75
1599,16,4,5,75
1600,16,4,5,75
1601,16,4,5,75
1602,16,4,5,75
1603,16,4,5,75
1604,16,4,5,75
1605,16,4,5,75
1606,16,4,5,75
1607,16,4,5,75
1608,16,4,5,75
1609,16,4,5,75
1610,16,4,5,75
1611,16,4,5,75
1612,16,4,4,76
1613,16,3,5,76
1614,16,3,5,76
1615,16,3,5,76
1616,16,3,5,76
1617,16,3,5,76
1618,16,3,5,76
1619,16,3,5,76
1620,16,3,5,76
1621,16,3,5,76
1622,16,3,5,76
1623,16,2,6,76
1624,16,2,6,76
1625,16,2,6,76
1626,16,2,6,76
1627,16,2,6,76
1628,16,2,5,77
1629,16,2,5,77
1630,16,2,5,77
1631,16,2,5,77
1632,16,2,5,77
1633,16,2,5,77
1634,16,2,5,77
1635,16,2,5,77
1636,16,2,5,77
1637,16,2,5,77
1638,16,2,5,77
1639,16,2,5,77
1640,16,2,5,77
1641,16,2,5,77
1642,16,2,5,77
1643,16,2,5,77
1644,16,2,5,77
1645,16,2,4,78
1646,16,2,4,78
1647,16,2,4,78
1648,16,2,4,78
1649,16,2,4,78
1650,16,2,4,78
1651,16,2,4,78
1652,16,2,4,78
1653,16,2,4,78
1654,16,2,4,78
1655,16,2,4,78
1656,16,2,4,78
1657,16,2,4,78
1658,16,2,4,78
1659,16,2,4,78
1660,16,2,4,78
1661,16,2,4,78
1662,16,2,4,78
1663,16,2,4,78
1664,16,2,4,78
1665,16,2,4,78
1666,16,2,4,78
1667,16,2,4,78
1668,16,2,4,78
1669,16,2,4,78
1670,16,2,4,78
1671,16,2,4,78
1672,16,2,4,78
1673,16,2,4,78
1674,16,2,4,78
1675,16,2,4,78
1676,16,2,4,78
1677,16,2,4,78
1678,16,2,4,78
1679,16,2,4,78
1680,16,2,4,78
1681,16,2,4,78
1682,16,2,4,78
1683,16,2,4,78
1684,16,2,4,78
1685,16,2,4,78
1686,16,2,4,78
1687,16,2,4,78
1688,16,2,4,78
1689,16,2,4,78
1690,16,2,4,78
1691,16,2,4,78
1692,16,2,4,78
1693,16,2,4,78
1694,16,2,4,78
1695,16,2,4,78
1696,16,2,4,78
1697,16,2,4,78
1698,16,2,4,78
1699,16,2,4,78
1700,16,2,4,78
1701,16,2,4,78
1702,16,2,4,78
1703,16,2,4,78
1704,16,2,4,78
1705,16,2,4,78
1706,16,2,4,78
1707,16,2,4,78
1708,16,2,4,78
1709,16,2,4,78
1710,16,2,4,78
1711,16,2,4,78
1712,16,2,4,78
1713,16,2,4,78
1714,16,2,4,78
1715,16,2,4,78
1716,16,2,4,78
1717,16,2,4,78
1718,16,2,4,78
1719,16,2,4,78
1720,16,2,4,78
1721,16,2,4,78
1722,16,2,4,78
1723,16,2,3,79
1724,16,2,3,79
1725,16,2,3,79
1726,16,2,3,79
1727,16,2,3,79
1728,16,2,3,79
1729,16,2,3,79
1730,16,2,3,79
1731,16,2,3,79
1732,16,2,3,79
1733,16,2,3,79
1734,16,2,3,79
1735,16,2,3,79
1736,16,2,3,79
1737,16,2,3,79
1738,16,2,3,79
1739,16,2,3,79
1740,16,2,3,79
1741,16,2,3,79
1742,16,2,3,79
1743,16,2,3,79
1744,16,2,3,79
1745,16,2,3,79
1746,16,2,3,79
1747,16,2,3,79
1748,16,2,3,79
1749,16,2,3,79
1750,16,2,3,79
1751,16,2,3,79
1752,16,2,3,79
1753,16,2,3,79
1754,16,2,3,79
1755,16,2,3,79
1756,16,2,3,79
1757,16,2,3,79
1758,16,2,3,79
1759,16,2,3,79
1760,16,2,3,79
1761,16,2,3,79
1762,16,2,3,79
1763,16,2,3,79
1764,16,1,3,80
1765,16,1,3,80
1766,16,1,3,80
1767,16,1,3,80
1768,16,1,3,80
1769,16,1,3,80
1770,16,1,3,80
1771,16,1,3,80
1772,16,1,3,80
1773,16,1,3,80
1774,16,1,3,80
1775,16,1,3,80
1776,16,1,3,80
1777,16,1,3,80
1778,16,1,3,80
1779,16,1,3,80
1780,16,1,3,80
1781,16,1,3,80
1782,16,1,3,80
1783,16,1,3,80
1784,16,1,3,80
1785,16,1,3,80
1786,16,1,3,80
1787,16,1,3,80
1788,16,1,3,80
1789,16,1,3,80
1790,16,1,3,80
1791,16,0,4,80
1792,16,0,4,80
1793,16,0,4,80
1794,16,0,4,80
1795,16,0,4,80
1796,16,0,4,80
1797,16,0,4,80
1798,16,0,4,80
1799,16,0,4,80
1800,16,0,4,80
1801,16,0,4,80
1802,16,0,4,80
1803,16,0,4,80
1804,16,0,4,80
1805,16,0,4,80
1806,16,0,4,80
1807,16,0,4,80
1808,16,0,4,80
1809,16,0,4,80
1810,16,0,4,80
1811,16,0,4,80
1812,16,0,4,80
1813,16,0,4,80
1814,16,0,3,81
1815,16,0,3,81
1816,16,0,3,81
1817,16,0,3,81
1818,16,0,3,81
1819,16,0,3,81
1820,16,0,3,81
1821,16,0,3,81
1822,16,0,3,81
1823,16,0,3,81
1824,16,0,2,82
1825,16,0,2,82
1826,16,0,2,82
1827,16,0,2,82
1828,16,0,2,82
1829,16,0,2,82
1830,16,0,2,82
1831,16,0,2,82
1832,16,0,2,82
1833,16,0,2,82
1834,16,0,2,82
1835,16,0,2,82
1836,16,0,2,82
1837,16,0,2,82
1838,16,0,2,82
1839,16,0,2,82
1840,16,0,2,82
1841,16,0,2,82
1842,16,0,2,82
1843,16,0,2,82
1844,16,0,2,82
1845,16,0,2,82
1846,16,0,2,82
1847,16,0,2,82
1848,16,0,2,82
1849,16,0,2,82
1850,16,0,2,82
1851,16,0,2,82
1852,16,0,2,82
1853,16,0,2,82
1854,16,0,2,82
1855,16,0,2,82
1856,16,0,2,82
1857,16,0,2,82
1858,16,0,2,82
1859,16,0,2,82
1860,16,0,2,82
1861,16,0,2,82
1862,16,0,2,82
1863,16,0,2,82
1864,16,0,2,82
1865,16,0,2,82
1866,16,0,2,82
1867,16,0,2,82
1868,16,0,2,82
1869,16,0,2,82
1870,16,0,2,82
1871,16,0,2,82
1872,16,0,2,82
1873,16,0,2,82
1874,16,0,2,82
1875,16,0,2,82
1876,16,0,2,82
1877,16,0,2,82
1878,16,0,2,82
1879,16,0,2,82
1880,16,0,2,82
1881,16,0,2,82
1882,16,0,2,82
1883,16,0,2,82
1884,16,0,2,82
1885,16,0,2,82
1886,16,0,2,82
1887,16,0,2,82
1888,16,0,2,82
1889,16,0,2,82
1890,16,0,2,82
1891,16,0,2,82
1892,16,0,2,82
1893,16,0,2,82
1894,16,0,2,82
1895,16,0,2,82
1896,16,0,2,82
1897,16,0,2,82
1898,16,0,2,82
1899,16,0,2,82
1900,16,0,2,82
1901,16,0,2,82
1902,16,0,2,82
1903,16,0,2,82
1904,16,0,2,82
1905,16,0,2,82
1906,16,0,2,82
1907,16,0,2,82
1908,16,0,2,82
1909,16,0,2,82
1910,16,0,2,82
1911,16,0,2,82
1912,16,0,2,82
1913,16,0,2,82
1914,16,0,2,82
1915,16,0,2,82
1916,16,0,2,82
1917,16,0,2,82
1918,16,0,2,82
1919,16,0,2,82
1920,16,0,2,82
1921,16,0,2,82
1922,16,0,2,82
1923,16,0,2,82
1924,16,0,2,82
1925,16,0,2,82
1926,16,0,2,82
1927,16,0,2,82
1928,16,0,2,82
1929,16,0,2,82
1930,16,0,2,82
1931,16,0,2,82
1932,16,0,2,82
1933,16,0,2,82
1934,16,0,2,82
1935,16,0,2,82
1936,16,0,2,82
1937,16,0,2,82
1938,16,0,2,82
1939,16,0,2,82
1940,16,0,2,82
1941,16,0,2,82
1942,16,0,2,82
1943,16,0,2,82
1944,16,0,2,82
1945,16,0,2,82
1946,16,0,2,82
1947,16,0,2,82
1948,16,0,2,82
1949,16,0,2,82
1950,16,0,2,82
1951,16,0,2,82
1952,16,0,2,82
1953,16,0,2,82
1954,16,0,2,82
1955,16,0,2,82
1956,16,0,2,82
1957,16,0,2,82
1958,16,0,2,82
1959,16,0,2,82
1960,16,0,2,82
1961,16,0,2,82
1962,16,0,2,82
1963,16,0,2,82
1964,16,0,2,82
1965,16,0,1,83
1966,16,0,1,83
1967,16,0,1,83
1968,16,0,1,83
1969,16,0,1,83
1970,16,0,1,83
1971,16,0,1,83
1972,16,0,1,83
1973,16,0,1,83
1974,16,0,1,83
1975,16,0,1,83
1976,16,0,1,83
1977,16,0,1,83
1978,16,0,1,83
1979,16,0,1,83
1980,16,0,1,83
1981,16,0,1,83
1982,16,0,1,83
1983,16,0,1,83
1984,16,0,1,83
1985,16,0,1,83
1986,16,0,1,83
1987,16,0,1,83
1988,16,0,1,83
1989,16,0,1,83
1990,16,0,1,83
1991,16,0,1,83
1992,16,0,0,84
1993,16,0,0,84
1994,16,0,0,84
1995,16,0,0,84
1996,16,0,0,84
1997,16,0,0,84
1998,16,0,0,84
1999,16,0,0,84
2000,16,0,0,84
