"tick","total"
0,0
1,0
2,0
3,0
4,0
5,0
6,0
7,0
8,0
9,0
10,0
11,0
12,0
13,0
14,0
15,0
16,0
17,0
18,0
19,0
20,0
21,0
22,0
23,0
24,0
25,0
26,0
27,0
28,0
29,0
30,0
31,0
32,0
33,0
34,0
35,0
36,0
37,0
38,0
39,0
40,0
41,0
42,0
43,0
44,0
45,0
46,0
47,0
48,0
49,0
50,0
51,0
52,0
53,0
54,0
55,0
56,0
57,0
58,0
59,0
60,0
61,0
62,0
63,0
64,0
65,0
66,0
67,0
68,0
69,0
70,0
71,0
72,0
73,0
74,0
75,0
76,0
77,0
78,0
79,0
80,0
81,0
82,0
83,0
84,0
85,0
86,0
87,0
88,0
89,0
90,0
91,0
92,0
93,0
94,0
95,0
96,0
97,0
98,0
99,0
100,0
101,0
102,0
103,0
104,0
105,0
106,0
107,0
108,0
109,0
110,0
111,0
112,0
113,0
114,0
115,0
116,0
117,0
118,0
119,0
120,0
121,0
122,0
123,0
124,0
125,0
126,0
127,0
128,0
129,0
130,0
131,0
132,0
133,0
134,0
135,0
136,1
137,1
138,1
139,1
140,1
141,1
142,1
143,1
144,1
145,1
146,1
147,1
148,1
149,1
150,1
151,1
152,1
153,1
154,1
155,1
156,1
157,1
158,1
159,1
160,1
161,1
162,1
163,1
164,1
165,1
166,1
167,1
168,1
169,1
170,1
171,1
172,1
173,1
174,1
175,1
176,1
177,1
178,1
179,1
180,1
181,1
182,1
183,1
184,1
185,1
186,1
187,1
188,1
189,1
190,1
191,1
192,1
193,1
194,1
195,1
196,1
197,1
198,1
199,1
200,1
201,1
202,1
203,1
204,1
205,1
206,1
207,1
208,1
209,1
210,1
211,1
212,1
213,1
214,1
215,1
216,1
217,1
218,1
219,1
220,1
221,1
222,1
223,1
224,1
225,1
226,1
227,1
228,1
229,1
230,1
231,1
232,2
233,2
234,2
235,2
236,2
237,2
238,2
239,2
240,2
241,2
242,2
243,2
244,2
245,2
246,2
247,2
248,2
249,3
250,3
251,3
252,4
253,4
254,5
255,5
256,5
257,5
258,5
259,5
260,5
261,5
262,5
263,5
264,5
265,5
266,5
267,5
268,5
269,5
270,5
271,5
272,5
273,6
274,6
275,6
276,6
277,6
278,6
279,8
280,8
281,8
282,8
283,8
284,8
285,9
286,9
287,9
288,9
289,9
290,9
291,9
292,9
293,9
294,9
295,9
296,9
297,9
298,9
299,9
300,9
301,9
302,10
303,10
304,10
305,10
306,10
307,10
308,10
309,10
310,10
311,11
312,11
313,11
314,11
315,12
316,12
317,13
318,13
319,13
320,13
321,13
322,14
323,14
324,14
325,14
326,14
327,14
328,14
329,14
330,16
331,16
332,16
333,16
334,16
335,16
336,16
337,16
338,16
339,16
340,16
341,16
342,16
343,17
344,17
345,17
346,17
347,17
348,17
349,17
350,17
351,17
352,17
353,17
354,17
355,17
356,17
357,17
358,17
359,17
360,17
361,17
362,17
363,17
364,17
365,17
366,17
367,17
368,18
369,19
370,19
371,19
372,19
373,19
374,19
375,19
376,19
377,20
378,20
379,20
380,20
381,20
382,20
383,20
384,20
385,20
386,20
387,20
388,20
389,20
390,20
391,21
392,21
393,22
394,22
395,23
396,23
397,23
398,24
399,24
400,25
401,25
402,25
403,26
404,26
405,26
406,26
407,26
408,26
409,26
410,26
411,26
412,26
413,26
414,26
415,26
416,26
417,26
418,26
419,26
420,26
421,26
422,26
423,26
424,27
425,28
426,28
427,28
428,28
429,28
430,28
431,28
432,28
433,28
434,28
435,28
436,28
437,28
438,28
439,28
440,28
441,28
442,28
443,28
444,29
445,29
446,29
447,29
448,29
449,29
450,30
451,30
452,30
453,30
454,30
455,30
456,30
457,30
458,30
459,30
460,30
461,30
462,30
463,30
464,30
465,30
466,30
467,30
468,30
469,30
470,30
471,30
472,30
473,30
474,30
475,30
476,30
477,30
478,30
479,30
480,30
481,30
482,30
483,30
484,30
485,30
486,30
487,30
488,30
489,30
490,30
491,30
492,30
493,30
494,30
495,30
496,30
497,30
498,30
499,30
500,30
501,30
502,30
503,30
504,30
505,30
506,30
507,30
508,30
509,30
510,30
511,30
512,30
513,30
514,30
515,30
516,30
517,30
518,30
519,30
520,30
521,30
522,30
523,30
524,30
525,30
526,30
527,30
528,30
529,30
530,30
531,30
532,30
533,30
534,30
535,30
536,30
537,30
538,30
539,30
540,30
541,30
542,30
543,30
544,30
545,30
546,30
547,30
548,30
549,30
550,30
551,31
552,31
553,31
554,31
555,31
556,31
557,31
558,31
559,31
560,31
561,31
562,31
563,31
564,31
565,31
566,31
567,31
568,31
569,31
570,31
571,31
572,31
573,31
574,31
575,31
576,31
577,31
578,31
579,31
580,31
581,31
582,31
583,31
584,31
585,31
586,31
587,31
588,31
589,31
590,31
591,31
592,31
593,31
594,31
595,31
596,31
597,31
598,31
599,31
600,31
601,31
602,31
603,31
604,31
605,31
606,31
607,31
608,31
609,31
610,31
611,31
612,31
613,31
614,31
615,31
616,31
617,31
618,31
619,31
620,31
621,31
622,31
623,31
624,31
625,31
626,31
627,31
628,31
629,31
630,31
631,31
632,31
633,31
634,31
635,31
636,31
637,31
638,31
639,31
640,31
641,31
642,31
643,31
644,31
645,31
646,31
647,31
648,31
649,31
650,31
651,31
652,31
653,31
654,31
655,31
656,31
657,31
658,31
659,31
660,31
661,31
662,31
663,31
664,31
665,31
666,31
667,31
668,31
669,31
670,31
671,31
672,31
673,32
674,33
675,33
676,33
677,33
678,33
679,33
680,33
681,33
682,33
683,33
684,33
685,33
686,33
687,33
688,33
689,33
690,33
691,33
692,33
693,33
694,33
695,33
696,33
697,33
698,33
699,33
700,33
701,33
702,33
703,33
704,33
705,33
706,33
707,33
708,33
709,33
710,33
711,33
712,33
713,33
714,33
715,33
716,33
717,33
718,33
719,33
720,33
721,34
722,34
723,34
724,34
725,34
726,34
727,34
728,35
729,36
730,36
731,36
732,36
733,36
734,36
735,36
736,36
737,36
738,36
739,36
740,36
741,36
742,36
743,36
744,36
745,36
746,36
747,36
748,36
749,36
750,36
751,38
752,38
753,38
754,38
755,38
756,38
757,38
758,38
759,38
760,38
761,38
762,38
763,38
764,38
765,38
766,38
767,38
768,38
769,38
770,38
771,38
772,38
773,38
774,38
775,38
776,38
777,38
778,38
779,38
780,38
781,38
782,38
783,38
784,38
785,38
786,38
787,38
788,38
789,39
790,39
791,39
792,39
793,39
794,40
795,40
796,40
797,40
798,40
799,40
800,40
801,40
802,40
803,40
804,40
805,40
806,41
807,42
808,42
809,42
810,42
811,42
812,43
813,43
814,43
815,43
816,43
817,43
818,43
819,43
820,43
821,43
822,44
823,45
824,46
825,46
826,46
827,47
828,47
829,47
830,47
831,48
832,48
833,48
834,48
835,48
836,48
837,48
838,48
839,48
840,48
841,48
842,48
843,48
844,48
845,48
846,48
847,48
848,48
849,48
850,48
851,48
852,48
853,48
854,49
855,49
856,49
857,50
858,50
859,50
860,50
861,50
862,50
863,50
864,50
865,50
866,50
867,50
868,50
869,50
870,50
871,50
872,50
873,50
874,50
875,51
876,51
877,51
878,51
879,51
880,51
881,51
882,51
883,51
884,51
885,51
886,51
887,51
888,52
889,52
890,52
891,53
892,53
893,53
894,54
895,55
896,55
897,55
898,55
899,55
900,55
901,55
902,55
903,55
904,55
905,55
906,55
907,55
908,55
909,55
910,55
911,55
912,55
913,55
914,55
915,55
916,55
917,55
918,55
919,55
920,55
921,55
922,55
923,55
924,55
925,55
926,56
927,56
928,56
929,56
930,56
931,56
932,56
933,56
934,56
935,56
936,56
937,56
938,56
939,57
940,57
941,57
942,57
943,57
944,57
945,57
946,57
947,57
948,57
949,57
950,57
951,57
952,57
953,57
954,57
955,57
956,57
957,57
958,57
959,57
960,57
961,57
962,58
963,58
964,58
965,58
966,58
967,58
968,58
969,58
970,58
971,58
972,58
973,58
974,58
975,58
976,58
977,58
978,58
979,58
980,58
981,58
982,58
983,59
984,59
985,59
986,59
987,59
988,59
989,59
990,59
991,59
992,59
993,59
994,59
995,59
996,59
997,59
998,59
999,59
1000,59
1001,59
1002,59
1003,59
1004,59
1005,59
1006,59
1007,59
1008,59
1009,59
1010,59
1011,59
1012,59
1013,59
1014,59
1015,59
1016,59
1017,59
1018,59
1019,59
1020,59
1021,59
1022,59
1023,59
1024,59
1025,59
1026,59
1027,59
1028,59
1029,59
1030,59
1031,59
1032,59
1033,59
1034,59
1035,59
1036,59
1037,59
1038,59
1039,59
1040,59
1041,59
1042,59
1043,59
1044,59
1045,59
1046,59
1047,59
1048,59
1049,59
1050,59
1051,59
1052,59
1053,59
1054,59
1055,59
1056,59
1057,59
1058,59
1059,59
1060,59
1061,59
1062,59
1063,59
1064,59
1065,59
1066,59
1067,59
1068,59
1069,59
1070,59
1071,59
1072,59
1073,59
1074,59
1075,59
1076,59
1077,59
1078,59
1079,59
1080,59
1081,59
1082,59
1083,59
1084,59
1085,59
1086,59
1087,59
1088,59
1089,59
1090,59
1091,59
1092,59
1093,60
1094,60
1095,60
1096,60
1097,60
1098,60
1099,60
1100,60
1101,60
1102,60
1103,60
1104,60
1105,60
1106,60
1107,60
1108,60
1109,60
1110,60
1111,60
1112,60
1113,60
1114,60
1115,60
1116,60
1117,60
1118,60
1119,60
1120,60
1121,60
1122,60
1123,60
1124,60
1125,60
1126,60
1127,60
1128,60
1129,60
1130,60
1131,60
1132,60
1133,60
1134,60
1135,60
1136,60
1137,60
1138,60
1139,60
1140,60
1141,60
1142,60
1143,60
1144,60
1145,60
1146,60
1147,60
1148,60
1149,60
1150,60
1151,60
1152,60
1153,60
1154,60
1155,60
1156,60
1157,60
1158,60
1159,60
1160,60
1161,60
1162,60
1163,60
1164,60
1165,60
1166,61
1167,61
1168,61
1169,61
1170,61
1171,61
1172,61
1173,61
1174,61
1175,61
1176,61
1177,61
1178,61
1179,61
1180,61
1181,61
1182,61
1183,61
1184,61
1185,61
1186,61
1187,61
1188,61
1189,61
1190,62
1191,62
1192,62
1193,62
1194,62
1195,62
1196,62
1197,62
1198,62
1199,62
1200,62
1201,62
1202,62
1203,63
1204,63
1205,63
1206,63
1207,63
1208,63
1209,63
1210,63
1211,63
1212,63
1213,63
1214,63
1215,63
1216,63
1217,63
1218,63
1219,63
1220,63
1221,63
1222,63
1223,63
1224,63
1225,63
1226,63
1227,63
1228,63
1229,63
1230,63
1231,63
1232,63
1233,63
1234,63
1235,64
1236,64
1237,64
1238,64
1239,64
1240,64
1241,64
1242,64
1243,64
1244,64
1245,64
1246,64
1247,64
1248,64
1249,64
1250,65
1251,65
1252,65
1253,65
1254,65
1255,65
1256,65
1257,65
1258,65
1259,65
1260,65
1261,65
1262,65
1263,65
1264,66
1265,66
1266,66
1267,66
1268,66
1269,66
1270,66
1271,66
1272,66
1273,66
1274,66
1275,66
1276,66
1277,66
1278,66
1279,66
1280,66
1281,66
1282,66
1283,66
1284,66
1285,66
1286,66
1287,66
1288,66
1289,66
1290,66
1291,67
1292,67
1293,67
1294,67
1295,67
1296,67
1297,67
1298,67
1299,67
1300,67
1301,67
1302,67
1303,67
1304,67
1305,67
1306,67
1307,67
1308,67
1309,67
1310,67
1311,67
1312,67
1313,67
1314,67
1315,67
1316,67
1317,67
1318,67
1319,67
1320,67
1321,67
1322,68
1323,68
1324,69
1325,69
1326,69
1327,69
1328,70
1329,71
1330,71
1331,71
1332,71
1333,71
1334,71
1335,71
1336,71
1337,71
1338,71
1339,71
1340,71
1341,71
1342,71
1343,71
1344,71
1345,71
1346,72
1347,72
1348,72
1349,72
1350,72
1351,72
1352,72
1353,72
1354,72
1355,72
1356,72
1357,73
1358,73
1359,73
1360,73
1361,73
1362,73
1363,73
1364,73
1365,73
1366,73
1367,73
1368,73
1369,73
1370,73
1371,73
1372,73
1373,73
1374,73
1375,73
1376,73
1377,73
1378,73
1379,73
1380,73
1381,73
1382,74
1383,74
1384,74
1385,74
1386,74
1387,74
1388,74
1389,74
1390,74
1391,74
1392,75
1393,75
1394,75
1395,75
1396,75
1397,75
1398,75
1399,75
1400,75
1401,75
1402,75
1403,75
1404,75
1405,75
1406,75
1407,75
1408,75
1409,75
1410,75
1411,75
1412,75
1413,75
1414,75
1415,75
1416,75
1417,75
1418,75
1419,75
1420,75
1421,75
1422,76
1423,76
1424,76
1425,76
1426,76
1427,76
1428,76
1429,76
1430,76
1431,77
1432,77
1433,77
1434,77
1435,77
1436,77
1437,77
1438,77
1439,77
1440,77
1441,77
1442,77
1443,77
1444,77
1445,77
1446,77
1447,77
1448,77
1449,77
1450,77
1451,77
1452,77
1453,77
1454,77
1455,77
1456,77
1457,77
1458,77
1459,77
1460,77
1461,77
1462,77
1463,77
1464,77
1465,77
1466,78
1467,78
1468,78
1469,78
1470,78
1471,78
1472,78
1473,78
1474,78
1475,78
1476,78
1477,78
1478,78
1479,78
1480,78
1481,78
1482,79
1483,79
1484,79
1485,79
1486,79
1487,79
1488,79
1489,79
1490,79
1491,79
1492,79
1493,79
1494,79
1495,79
1496,79
1497,79
1498,79
1499,79
1500,79
1501,79
1502,79
1503,79
1504,79
1505,79
1506,79
1507,79
1508,79
1509,79
1510,79
1511,79
1512,79
1513,80
1514,80
1515,80
1516,80
1517,80
1518,80
1519,80
1520,80
1521,80
1522,80
1523,80
1524,80
1525,80
1526,80
1527,80
1528,81
1529,81
1530,81
1531,81
1532,81
1533,81
1534,81
1535,81
1536,81
1537,82
1538,82
1539,82
1540,82
1541,82
1542,82
1543,82
1544,82
1545,82
1546,82
1547,82
1548,82
1549,82
1550,82
1551,82
1552,82
1553,82
1554,82
1555,82
1556,82
1557,83
1558,83
1559,83
1560,83
1561,83
1562,83
1563,83
1564,83
1565,83
1566,83
1567,83
1568,83
1569,83
1570,83
1571,83
1572,83
1573,83
1574,83
1575,83
1576,83
1577,83
1578,83
1579,83
1580,83
1581,83
1582,83
1583,83
1584,83
1585,83
1586,83
1587,83
1588,83
1589,83
1590,83
1591,84
1592,84
1593,84
1594,84
1595,84
1596,84
1597,84
1598,84
1599,84
1600,84
1601,84
1602,84
1603,84
1604,84
1605,84
1606,84
1607,84
1608,84
1609,84
1610,84
1611,84
1612,84
1613,84
1614,84
1615,84
1616,84
1617,84
1618,85
1619,85
1620,85
1621,85
1622,85
1623,85
1624,85
1625,86
1626,86
1627,86
1628,86
1629,86
1630,86
1631,86
1632,86
1633,86
1634,86
1635,86
1636,86
1637,86
1638,86
1639,86
1640,86
1641,86
1642,86
1643,86
1644,86
1645,86
1646,86
1647,86
1648,86
1649,86
1650,86
1651,86
1652,86
1653,86
1654,86
1655,86
1656,86
1657,86
1658,86
1659,86
1660,86
1661,86
1662,86
1663,86
1664,86
1665,86
1666,86
1667,87
1668,87
1669,87
1670,87
1671,87
1672,87
1673,87
1674,87
1675,87
1676,87
1677,87
1678,87
1679,87
1680,87
1681,87
1682,87
1683,87
1684,87
1685,87
1686,87
1687,87
1688,87
1689,87
1690,87
1691,88
1692,89
1693,89
1694,89
1695,89
1696,89
1697,89
1698,89
1699,89
1700,89
1701,90
1702,90
1703,90
1704,90
1705,90
1706,91
1707,91
1708,91
1709,91
1710,91
1711,91
1712,91
1713,91
1714,91
1715,92
1716,92
1717,92
1718,92
1719,92
1720,92
1721,92
1722,92
1723,93
1724,93
1725,93
1726,93
1727,93
1728,93
1729,93
1730,93
1731,93
1732,93
1733,93
1734,93
1735,93
1736,94
1737,94
1738,94
1739,94
1740,94
1741,94
1742,94
1743,94
1744,94
1745,94
1746,95
1747,95
1748,96
1749,96
1750,97
1751,97
1752,97
1753,97
1754,97
1755,97
1756,97
1757,97
1758,97
1759,97
1760,97
1761,97
1762,97
1763,97
1764,97
1765,98
1766,98
1767,98
1768,98
1769,98
1770,98
1771,98
1772,98
1773,98
1774,98
1775,98
1776,100
1777,100
1778,100
1779,100
1780,100
1781,100
1782,100
1783,100
1784,100
1785,100
1786,100
1787,100
1788,100
1789,100
1790,100
1791,100
1792,100
1793,100
1794,100
1795,100
1796,100
1797,101
1798,102
1799,102
1800,102
1801,102
1802,102
1803,102
1804,102
1805,102
1806,102
1807,102
1808,102
1809,102
1810,102
1811,102
1812,102
1813,102
1814,103
1815,103
1816,103
1817,103
1818,103
1819,103
1820,103
1821,103
1822,103
1823,103
1824,103
1825,103
1826,103
1827,103
1828,103
1829,103
1830,103
1831,103
1832,103
1833,103
1834,103
1835,103
1836,103
1837,103
1838,103
1839,103
1840,103
1841,103
1842,103
1843,103
1844,103
1845,103
1846,103
1847,103
1848,103
1849,103
1850,103
1851,103
1852,103
1853,103
1854,103
1855,103
1856,103
1857,103
1858,103
1859,103
1860,103
1861,103
1862,103
1863,103
1864,103
1865,103
1866,103
1867,103
1868,103
1869,103
1870,104
1871,104
1872,104
1873,104
1874,104
1875,104
1876,105
1877,105
1878,105
1879,105
1880,105
1881,105
1882,105
1883,105
1884,105
1885,105
1886,105
1887,105
1888,105
1889,105
1890,105
1891,105
1892,105
1893,105
1894,105
1895,105
1896,105
1897,105
1898,105
1899,105
1900,105
1901,105
1902,105
1903,105
1904,105
1905,105
1906,105
1907,105
1908,105
1909,105
1910,105
1911,105
1912,105
1913,105
1914,105
1915,105
1916,105
1917,105
1918,105
1919,105
1920,105
1921,105
1922,105
1923,105
1924,105
1925,105
1926,105
1927,105
1928,105
1929,105
1930,105
1931,105
1932,105
1933,105
1934,105
1935,105
1936,105
1937,105
1938,105
1939,105
1940,105
1941,105
1942,105
1943,105
1944,105
1945,105
1946,106
1947,106
1948,106
1949,106
1950,106
1951,106
1952,106
1953,106
1954,106
1955,106
1956,106
1957,106
1958,106
1959,106
1960,106
1961,106
1962,106
1963,106
1964,106
1965,106
1966,106
1967,106
1968,106
1969,106
1970,106
1971,107
1972,107
1973,107
1974,107
1975,107
1976,107
1977,107
1978,107
1979,107
1980,107
1981,107
1982,107
1983,107
1984,107
1985,107
1986,107
1987,107
1988,107
1989,108
1990,108
1991,108
1992,108
1993,108
1994,108
1995,108
1996,108
1997,108
1998,108
1999,108
2000,108
