"tick","total"
0,0
1,0
2,0
3,0
4,0
5,0
6,0
7,0
8,0
9,0
10,0
11,0
12,0
13,0
14,0
15,0
16,0
17,0
18,0
19,0
20,0
21,0
22,0
23,0
24,0
25,0
26,0
27,0
28,0
29,0
30,0
31,0
32,0
33,0
34,0
35,0
36,0
37,0
38,0
39,0
40,0
41,0
42,0
43,0
44,0
45,0
46,0
47,0
48,0
49,0
50,0
51,0
52,0
53,0
54,0
55,0
56,0
57,0
58,0
59,0
60,0
61,0
62,0
63,0
64,0
65,0
66,0
67,0
68,0
69,0
70,0
71,0
72,0
73,0
74,0
75,0
76,0
77,0
78,0
79,0
80,0
81,0
82,0
83,0
84,0
85,0
86,0
87,0
88,0
89,0
90,0
91,0
92,0
93,0
94,0
95,0
96,0
97,0
98,0
99,0
100,0
101,0
102,0
103,0
104,0
105,0
106,0
107,0
108,0
109,0
110,0
111,0
112,0
113,0
114,0
115,0
116,0
117,0
118,0
119,0
120,0
121,0
122,0
123,0
124,0
125,0
126,0
127,0
128,0
129,0
130,0
131,0
132,0
133,0
134,0
135,0
136,0
137,0
138,0
139,0
140,0
141,0
142,0
143,0
144,0
145,0
146,0
147,0
148,0
149,0
150,0
151,0
152,0
153,0
154,0
155,0
156,0
157,0
158,0
159,0
160,0
161,0
162,0
163,0
164,0
165,0
166,0
167,0
168,0
169,0
170,0
171,0
172,0
173,0
174,0
175,0
176,0
177,0
178,0
179,0
180,0
181,0
182,0
183,0
184,0
185,0
186,0
187,0
188,0
189,0
190,0
191,0
192,0
193,0
194,0
195,0
196,0
197,0
198,0
199,0
200,0
201,0
202,0
203,0
204,0
205,0
206,0
207,0
208,0
209,0
210,0
211,0
212,0
213,0
214,0
215,1
216,1
217,1
218,1
219,2
220,2
221,3
222,3
223,4
224,4
225,4
226,4
227,4
228,4
229,4
230,4
231,4
232,4
233,4
234,4
235,4
236,4
237,4
238,4
239,4
240,4
241,5
242,5
243,5
244,5
245,5
246,5
247,5
248,5
249,5
250,5
251,5
252,5
253,5
254,5
255,5
256,6
257,6
258,6
259,6
260,6
261,6
262,6
263,6
264,6
265,6
266,6
267,6
268,7
269,7
270,7
271,8
272,8
273,8
274,9
275,9
276,9
277,10
278,10
279,10
280,10
281,10
282,10
283,10
284,10
285,10
286,10
287,10
288,10
289,10
290,10
291,10
292,11
293,11
294,11
295,11
296,11
297,11
298,11
299,11
300,11
301,11
302,11
303,11
304,11
305,11
306,11
307,11
308,11
309,11
310,11
311,11
312,11
313,11
314,11
315,11
316,11
317,11
318,11
319,11
320,11
321,11
322,11
323,11
324,11
325,11
326,11
327,11
328,11
329,11
330,11
331,11
332,11
333,11
334,11
335,11
336,11
337,11
338,11
339,11
340,11
341,11
342,11
343,11
344,11
345,11
346,11
347,11
348,11
349,11
350,11
351,11
352,11
353,11
354,11
355,11
356,12
357,13
358,13
359,13
360,13
361,13
362,13
363,13
364,13
365,13
366,13
367,13
368,13
369,13
370,13
371,13
372,13
373,13
374,13
375,13
376,13
377,13
378,13
379,13
380,13
381,13
382,13
383,13
384,13
385,13
386,13
387,13
388,13
389,13
390,13
391,13
392,13
393,13
394,13
395,13
396,13
397,13
398,13
399,13
400,13
401,13
402,13
403,13
404,13
405,13
406,13
407,13
408,13
409,13
410,13
411,14
412,14
413,14
414,14
415,14
416,14
417,14
418,14
419,14
420,14
421,14
422,14
423,14
424,14
425,14
426,16
427,16
428,16
429,16
430,16
431,16
432,16
433,16
434,16
435,16
436,16
437,17
438,17
439,17
440,17
441,17
442,17
443,17
444,17
445,17
446,17
447,17
448,17
449,17
450,17
451,17
452,17
453,17
454,17
455,17
456,17
457,17
458,17
459,17
460,17
461,17
462,17
463,17
464,17
465,17
466,17
467,17
468,17
469,17
470,18
471,18
472,18
473,19
474,19
475,19
476,19
477,19
478,19
479,19
480,19
481,19
482,19
483,19
484,19
485,19
486,19
487,19
488,19
489,19
490,19
491,19
492,19
493,19
494,19
495,19
496,19
497,19
498,19
499,19
500,19
501,19
502,19
503,19
504,19
505,19
506,19
507,19
508,19
509,20
510,20
511,20
512,20
513,20
514,20
515,20
516,20
517,20
518,20
519,20
520,20
521,20
522,20
523,20
524,20
525,20
526,20
527,20
528,20
529,20
530,20
531,20
532,20
533,20
534,20
535,20
536,20
537,20
538,20
539,20
540,20
541,20
542,20
543,20
544,20
545,20
546,20
547,20
548,21
549,21
550,21
551,21
552,21
553,21
554,21
555,21
556,22
557,22
558,22
559,23
560,23
561,23
562,23
563,23
564,23
565,23
566,23
567,23
568,23
569,23
570,23
571,23
572,23
573,23
574,23
575,23
576,23
577,23
578,23
579,23
580,23
581,23
582,23
583,23
584,23
585,23
586,23
587,23
588,23
589,23
590,23
591,23
592,23
593,23
594,23
595,24
596,24
597,24
598,25
599,25
600,25
601,25
602,25
603,25
604,25
605,25
606,25
607,25
608,25
609,25
610,25
611,25
612,25
613,25
614,25
615,25
616,25
617,25
618,25
619,25
620,25
621,25
622,25
623,25
624,25
625,25
626,25
627,25
628,25
629,25
630,25
631,25
632,25
633,25
634,25
635,25
636,25
637,25
638,27
639,27
640,27
641,27
642,27
643,27
644,27
645,27
646,27
647,27
648,27
649,27
650,27
651,27
652,27
653,27
654,27
655,27
656,27
657,27
658,27
659,27
660,27
661,27
662,27
663,27
664,27
665,27
666,27
667,27
668,27
669,27
670,27
671,27
672,27
673,27
674,27
675,27
676,27
677,27
678,27
679,27
680,27
681,27
682,27
683,27
684,27
685,27
686,27
687,27
688,27
689,27
690,27
691,27
692,27
693,27
694,27
695,27
696,27
697,27
698,27
699,27
700,27
701,27
702,27
703,27
704,27
705,27
706,27
707,27
708,27
709,27
710,27
711,27
712,27
713,27
714,27
715,27
716,27
717,27
718,27
719,27
720,27
721,27
722,27
723,27
724,27
725,27
726,27
727,27
728,27
729,27
730,27
731,27
732,27
733,27
734,27
735,27
736,27
737,27
738,27
739,27
740,27
741,27
742,27
743,27
744,27
745,27
746,27
747,27
748,27
749,27
750,27
751,27
752,27
753,27
754,27
755,27
756,27
757,27
758,27
759,27
760,27
761,27
762,27
763,27
764,27
765,27
766,27
767,27
768,27
769,27
770,27
771,27
772,27
773,27
774,27
775,27
776,27
777,27
778,27
779,27
780,27
781,27
782,27
783,27
784,27
785,27
786,27
787,27
788,27
789,27
790,27
791,27
792,27
793,27
794,27
795,27
796,27
797,27
798,27
799,27
800,27
801,27
802,27
803,27
804,27
805,27
806,27
807,27
808,27
809,27
810,27
811,27
812,27
813,27
814,27
815,27
816,27
817,27
818,27
819,27
820,27
821,27
822,27
823,27
824,27
825,27
826,27
827,27
828,27
829,27
830,27
831,27
832,27
833,27
834,27
835,27
836,27
837,27
838,27
839,27
840,27
841,27
842,27
843,27
844,27
845,27
846,27
847,27
848,27
849,27
850,27
851,27
852,27
853,27
854,27
855,27
856,27
857,27
858,27
859,27
860,27
861,27
862,27
863,27
864,27
865,27
866,27
867,27
868,27
869,27
870,27
871,27
872,27
873,28
874,28
875,28
876,28
877,28
878,28
879,28
880,29
881,29
882,29
883,29
884,29
885,30
886,30
887,30
888,30
889,30
890,30
891,30
892,30
893,30
894,31
895,31
896,31
897,31
898,31
899,31
900,31
901,31
902,31
903,31
904,31
905,31
906,31
907,31
908,31
909,31
910,31
911,31
912,31
913,31
914,31
915,31
916,31
917,31
918,31
919,31
920,32
921,32
922,32
923,32
924,32
925,33
926,33
927,33
928,33
929,33
930,33
931,33
932,33
933,33
934,33
935,33
936,33
937,33
938,33
939,33
940,33
941,33
942,33
943,33
944,33
945,33
946,33
947,33
948,33
949,33
950,33
951,33
952,33
953,33
954,33
955,33
956,33
957,33
958,33
959,33
960,33
961,33
962,34
963,34
964,35
965,35
966,35
967,35
968,35
969,35
970,35
971,35
972,35
973,35
974,35
975,35
976,35
977,35
978,35
979,35
980,35
981,35
982,35
983,35
984,35
985,35
986,36
987,36
988,36
989,36
990,36
991,36
992,36
993,36
994,36
995,36
996,36
997,36
998,36
999,36
1000,36
1001,36
1002,36
1003,36
1004,36
1005,36
1006,36
1007,36
1008,36
1009,36
1010,36
1011,36
1012,36
1013,36
1014,36
1015,37
1016,37
1017,37
1018,37
1019,37
1020,37
1021,37
1022,37
1023,37
1024,37
1025,37
1026,37
1027,37
1028,37
1029,37
1030,37
1031,37
1032,37
1033,37
1034,38
1035,39
1036,39
1037,39
1038,39
1039,39
1040,39
1041,39
1042,39
1043,39
1044,39
1045,39
1046,40
1047,40
1048,41
1049,41
1050,41
1051,41
1052,41
1053,41
1054,42
1055,42
1056,42
1057,42
1058,42
1059,42
1060,42
1061,42
1062,42
1063,42
1064,42
1065,42
1066,42
1067,42
1068,42
1069,42
1070,42
1071,42
1072,42
1073,42
1074,42
1075,42
1076,42
1077,42
1078,42
1079,42
1080,42
1081,42
1082,42
1083,42
1084,42
1085,42
1086,42
1087,42
1088,42
1089,42
1090,42
1091,42
1092,43
1093,43
1094,43
1095,43
1096,43
1097,43
1098,43
1099,43
1100,43
1101,43
1102,43
1103,44
1104,44
1105,44
1106,45
1107,45
1108,45
1109,45
1110,45
1111,45
1112,45
1113,45
1114,45
1115,45
1116,45
1117,45
1118,45
1119,45
1120,46
1121,46
1122,46
1123,46
1124,46
1125,46
1126,46
1127,46
1128,46
1129,46
1130,46
1131,46
1132,46
1133,46
1134,46
1135,46
1136,46
1137,46
1138,46
1139,46
1140,46
1141,47
1142,47
1143,47
1144,47
1145,47
1146,47
1147,47
1148,47
1149,47
1150,47
1151,47
1152,47
1153,47
1154,47
1155,47
1156,48
1157,48
1158,48
1159,48
1160,48
1161,48
1162,48
1163,48
1164,48
1165,48
1166,48
1167,48
1168,48
1169,48
1170,48
1171,48
1172,48
1173,48
1174,48
1175,48
1176,48
1177,48
1178,48
1179,48
1180,48
1181,48
1182,48
1183,48
1184,48
1185,48
1186,48
1187,48
1188,48
1189,48
1190,49
1191,49
1192,49
1193,49
1194,49
1195,49
1196,49
1197,49
1198,49
1199,49
1200,49
1201,50
1202,50
1203,50
1204,50
1205,50
1206,50
1207,50
1208,50
1209,50
1210,50
1211,50
1212,50
1213,50
1214,50
1215,50
1216,50
1217,50
1218,50
1219,50
1220,50
1221,50
1222,50
1223,50
1224,50
1225,50
1226,50
1227,50
1228,50
1229,50
1230,50
1231,50
1232,50
1233,50
1234,50
1235,50
1236,50
1237,50
1238,50
1239,50
1240,50
1241,50
1242,50
1243,50
1244,50
1245,50
1246,50
1247,50
1248,50
1249,50
1250,50
1251,50
1252,50
1253,50
1254,50
1255,50
1256,50
1257,50
1258,50
1259,50
1260,50
1261,50
1262,50
1263,50
1264,50
1265,50
1266,50
1267,50
1268,50
1269,50
1270,51
1271,51
1272,51
1273,51
1274,51
1275,51
1276,51
1277,51
1278,51
1279,51
1280,51
1281,51
1282,51
1283,51
1284,51
1285,52
1286,52
1287,52
1288,52
1289,52
1290,52
1291,52
1292,52
1293,52
1294,52
1295,52
1296,52
1297,52
1298,52
1299,52
1300,53
1301,53
1302,53
1303,53
1304,53
1305,53
1306,53
1307,53
1308,53
1309,53
1310,53
1311,53
1312,53
1313,53
1314,53
1315,53
1316,53
1317,53
1318,53
1319,53
1320,53
1321,53
1322,53
1323,53
1324,53
1325,53
1326,53
1327,53
1328,53
1329,53
1330,53
1331,53
1332,53
1333,53
1334,53
1335,53
1336,53
1337,53
1338,53
1339,53
1340,53
1341,53
1342,53
1343,53
1344,53
1345,53
1346,53
1347,53
1348,53
1349,53
1350,53
1351,53
1352,53
1353,53
1354,53
1355,53
1356,53
1357,53
1358,53
1359,53
1360,53
1361,53
1362,53
1363,53
1364,53
1365,53
1366,53
1367,53
1368,54
1369,54
1370,54
1371,54
1372,54
1373,54
1374,54
1375,54
1376,54
1377,54
1378,54
1379,54
1380,54
1381,54
1382,54
1383,54
1384,54
1385,55
1386,55
1387,55
1388,55
1389,55
1390,55
1391,56
1392,56
1393,56
1394,56
1395,56
1396,56
1397,56
1398,56
1399,56
1400,56
1401,56
1402,56
1403,56
1404,56
1405,56
1406,56
1407,56
1408,57
1409,58
1410,58
1411,58
1412,58
1413,58
1414,59
1415,59
1416,59
1417,59
1418,59
1419,59
1420,60
1421,60
1422,60
1423,60
1424,60
1425,60
1426,60
1427,60
1428,60
1429,60
1430,60
1431,60
1432,60
1433,60
1434,60
1435,60
1436,60
1437,60
1438,60
1439,60
1440,60
1441,60
1442,60
1443,60
1444,60
1445,60
1446,60
1447,60
1448,60
1449,60
1450,60
1451,61
1452,61
1453,61
1454,61
1455,61
1456,61
1457,62
1458,62
1459,62
1460,62
1461,62
1462,62
1463,62
1464,62
1465,62
1466,62
1467,62
1468,63
1469,63
1470,63
1471,63
1472,63
1473,63
1474,63
1475,63
1476,64
1477,64
1478,64
1479,65
1480,65
1481,66
1482,66
1483,66
1484,66
1485,66
1486,66
1487,66
1488,66
1489,66
1490,67
1491,67
1492,67
1493,67
1494,67
1495,67
1496,67
1497,67
1498,67
1499,68
1500,68
1501,68
1502,68
1503,68
1504,68
1505,68
1506,68
1507,68
1508,69
1509,69
1510,69
1511,69
1512,69
1513,69
1514,69
1515,69
1516,69
1517,69
1518,69
1519,69
1520,69
1521,69
1522,69
1523,69
1524,69
1525,69
1526,70
1527,70
1528,70
1529,70
1530,70
1531,70
1532,70
1533,70
1534,70
1535,70
1536,70
1537,70
1538,70
1539,70
1540,70
1541,71
1542,71
1543,71
1544,71
1545,71
1546,71
1547,71
1548,71
1549,71
1550,71
1551,71
1552,71
1553,71
1554,71
1555,71
1556,72
1557,72
1558,72
1559,72
1560,72
1561,72
1562,72
1563,72
1564,72
1565,72
1566,72
1567,72
1568,72
1569,72
1570,72
1571,72
1572,72
1573,72
1574,72
1575,72
1576,72
1577,72
1578,72
1579,72
1580,72
1581,72
1582,72
1583,72
1584,72
1585,72
1586,72
1587,72
1588,72
1589,72
1590,72
1591,72
1592,72
1593,72
1594,72
1595,72
1596,72
1597,72
1598,72
1599,72
1600,72
1601,72
1602,72
1603,72
1604,72
1605,72
1606,72
1607,72
1608,72
1609,72
1610,72
1611,72
1612,72
1613,72
1614,72
1615,72
1616,72
1617,72
1618,72
1619,72
1620,72
1621,72
1622,72
1623,72
1624,72
1625,72
1626,72
1627,72
1628,72
1629,72
1630,72
1631,72
1632,72
1633,72
1634,72
1635,72
1636,73
1637,73
1638,73
1639,73
1640,73
1641,73
1642,74
1643,74
1644,74
1645,75
1646,75
1647,75
1648,75
1649,75
1650,75
1651,75
1652,75
1653,75
1654,75
1655,75
1656,75
1657,75
1658,75
1659,75
1660,75
1661,75
1662,75
1663,75
1664,76
1665,76
1666,76
1667,76
1668,77
1669,77
1670,77
1671,77
1672,77
1673,77
1674,77
1675,77
1676,77
1677,77
1678,77
1679,77
1680,77
1681,77
1682,77
1683,77
1684,77
1685,77
1686,77
1687,77
1688,77
1689,77
1690,77
1691,77
1692,77
1693,77
1694,77
1695,77
1696,78
1697,78
1698,78
1699,78
1700,78
1701,78
1702,78
1703,78
1704,78
1705,78
1706,78
1707,78
1708,78
1709,79
1710,79
1711,79
1712,79
1713,79
1714,79
1715,79
1716,79
1717,79
1718,79
1719,79
1720,79
1721,79
1722,79
1723,79
1724,79
1725,79
1726,79
1727,79
1728,79
1729,79
1730,79
1731,79
1732,79
1733,79
1734,79
1735,80
1736,80
1737,80
1738,80
1739,80
1740,80
1741,80
1742,80
1743,80
1744,80
1745,80
1746,80
1747,80
1748,80
1749,80
1750,80
1751,80
1752,80
1753,80
1754,80
1755,80
1756,80
1757,80
1758,80
1759,80
1760,80
1761,80
1762,80
1763,80
1764,80
1765,80
1766,80
1767,81
1768,81
1769,81
1770,81
1771,81
1772,81
1773,81
1774,81
1775,81
1776,81
1777,81
1778,81
1779,81
1780,81
1781,81
1782,81
1783,81
1784,81
1785,81
1786,81
1787,81
1788,81
1789,81
1790,81
1791,81
1792,81
1793,81
1794,81
1795,81
1796,81
1797,81
1798,81
1799,81
1800,81
1801,81
1802,81
1803,81
1804,81
1805,81
1806,81
1807,81
1808,81
1809,82
1810,82
1811,82
1812,82
1813,82
1814,82
1815,82
1816,82
1817,82
1818,82
1819,82
1820,82
1821,82
1822,82
1823,82
1824,82
1825,82
1826,82
1827,82
1828,82
1829,82
1830,82
1831,82
1832,82
1833,82
1834,82
1835,82
1836,82
1837,82
1838,82
1839,82
1840,82
1841,82
1842,82
1843,82
1844,82
1845,82
1846,82
1847,82
1848,82
1849,82
1850,82
1851,82
1852,82
1853,82
1854,82
1855,82
1856,83
1857,83
1858,83
1859,83
1860,83
1861,83
1862,83
1863,83
1864,83
1865,83
1866,84
1867,84
1868,84
1869,84
1870,84
1871,84
1872,84
1873,84
1874,84
1875,84
1876,84
1877,84
1878,84
1879,84
1880,84
1881,84
1882,84
1883,85
1884,85
1885,85
1886,85
1887,85
1888,85
1889,85
1890,85
1891,85
1892,85
1893,85
1894,85
1895,85
1896,85
1897,85
1898,85
1899,85
1900,85
1901,85
1902,85
1903,85
1904,85
1905,85
1906,85
1907,85
1908,85
1909,85
1910,85
1911,85
1912,85
1913,85
1914,85
1915,85
1916,85
1917,85
1918,85
1919,85
1920,85
1921,85
1922,85
1923,85
1924,85
1925,85
1926,85
1927,85
1928,85
1929,85
1930,85
1931,85
1932,85
1933,85
1934,85
1935,85
1936,85
1937,85
1938,85
1939,85
1940,85
1941,85
1942,85
1943,85
1944,85
1945,85
1946,85
1947,86
1948,86
1949,86
1950,86
1951,86
1952,86
1953,86
1954,86
1955,86
1956,86
1957,86
1958,86
1959,86
1960,86
1961,86
1962,86
1963,86
1964,86
1965,86
1966,86
1967,86
1968,86
1969,86
1970,86
1971,86
1972,86
1973,86
1974,87
1975,87
1976,87
1977,87
1978,87
1979,87
1980,87
1981,87
1982,87
1983,87
1984,87
1985,87
1986,87
1987,87
1988,87
1989,87
1990,87
1991,87
1992,87
1993,87
1994,87
1995,87
1996,87
1997,87
1998,87
1999,87
2000,87
