"tick","total"
0,0
1,0
2,0
3,0
4,0
5,0
6,0
7,0
8,0
9,0
10,0
11,0
12,0
13,0
14,0
15,0
16,0
17,0
18,0
19,0
20,0
21,0
22,0
23,0
24,0
25,0
26,0
27,0
28,0
29,0
30,0
31,0
32,0
33,0
34,0
35,0
36,0
37,0
38,0
39,0
40,0
41,0
42,0
43,0
44,0
45,0
46,0
47,0
48,0
49,0
50,0
51,0
52,0
53,0
54,0
55,0
56,0
57,0
58,0
59,0
60,0
61,0
62,0
63,0
64,0
65,0
66,0
67,0
68,0
69,0
70,0
71,0
72,0
73,0
74,0
75,0
76,0
77,0
78,0
79,0
80,0
81,0
82,0
83,0
84,0
85,0
86,0
87,0
88,0
89,0
90,0
91,0
92,0
93,0
94,0
95,0
96,0
97,0
98,0
99,0
100,0
101,0
102,0
103,0
104,0
105,0
106,0
107,0
108,0
109,0
110,0
111,0
112,0
113,0
114,0
115,0
116,0
117,0
118,0
119,0
120,0
121,0
122,0
123,0
124,0
125,0
126,0
127,0
128,0
129,0
130,0
131,0
132,0
133,0
134,1
135,1
136,1
137,1
138,1
139,1
140,1
141,1
142,1
143,1
144,1
145,1
146,1
147,1
148,1
149,1
150,1
151,1
152,1
153,1
154,1
155,1
156,1
157,1
158,1
159,1
160,1
161,1
162,1
163,1
164,1
165,1
166,1
167,1
168,1
169,1
170,1
171,1
172,1
173,1
174,1
175,1
176,1
177,1
178,1
179,1
180,1
181,1
182,1
183,1
184,1
185,1
186,1
187,1
188,1
189,1
190,1
191,1
192,1
193,1
194,1
195,1
196,1
197,1
198,1
199,1
200,1
201,1
202,1
203,1
204,1
205,1
206,1
207,1
208,1
209,1
210,1
211,1
212,1
213,1
214,1
215,1
216,1
217,1
218,1
219,1
220,1
221,1
222,1
223,1
224,1
225,1
226,2
227,2
228,2
229,2
230,2
231,2
232,2
233,2
234,2
235,3
236,3
237,3
238,3
239,3
240,3
241,3
242,3
243,3
244,3
245,3
246,3
247,3
248,3
249,3
250,4
251,4
252,4
253,4
254,4
255,5
256,5
257,5
258,5
259,5
260,5
261,5
262,5
263,5
264,5
265,5
266,6
267,6
268,6
269,7
270,7
271,7
272,7
273,7
274,7
275,9
276,9
277,10
278,10
279,10
280,10
281,10
282,10
283,10
284,10
285,10
286,10
287,10
288,10
289,11
290,11
291,11
292,11
293,11
294,11
295,11
296,11
297,11
298,11
299,11
300,12
301,12
302,12
303,12
304,12
305,12
306,13
307,14
308,15
309,15
310,15
311,15
312,16
313,16
314,16
315,17
316,17
317,17
318,17
319,17
320,17
321,17
322,17
323,17
324,17
325,18
326,18
327,18
328,18
329,18
330,18
331,18
332,18
333,18
334,18
335,18
336,18
337,18
338,18
339,18
340,18
341,18
342,19
343,19
344,19
345,19
346,19
347,19
348,19
349,19
350,19
351,19
352,19
353,19
354,19
355,19
356,19
357,19
358,19
359,19
360,19
361,19
362,19
363,19
364,19
365,19
366,19
367,19
368,19
369,19
370,19
371,19
372,19
373,19
374,19
375,19
376,19
377,19
378,19
379,19
380,19
381,19
382,19
383,19
384,19
385,19
386,19
387,19
388,19
389,19
390,19
391,19
392,19
393,19
394,19
395,19
396,19
397,19
398,19
399,19
400,19
401,19
402,19
403,19
404,19
405,19
406,19
407,19
408,20
409,20
410,20
411,21
412,21
413,21
414,21
415,21
416,21
417,21
418,21
419,21
420,21
421,21
422,21
423,22
424,22
425,22
426,22
427,23
428,23
429,23
430,27
431,27
432,27
433,27
434,28
435,28
436,28
437,28
438,28
439,28
440,28
441,28
442,28
443,28
444,28
445,28
446,28
447,28
448,28
449,28
450,28
451,28
452,28
453,28
454,28
455,28
456,28
457,28
458,28
459,28
460,28
461,28
462,28
463,28
464,28
465,28
466,28
467,28
468,28
469,28
470,28
471,28
472,28
473,28
474,28
475,28
476,28
477,28
478,28
479,28
480,28
481,28
482,28
483,29
484,29
485,29
486,30
487,30
488,30
489,30
490,30
491,30
492,30
493,30
494,30
495,30
496,30
497,30
498,30
499,30
500,31
501,31
502,31
503,31
504,31
505,31
506,31
507,31
508,31
509,31
510,31
511,31
512,31
513,31
514,31
515,31
516,31
517,31
518,31
519,31
520,31
521,31
522,31
523,31
524,31
525,31
526,31
527,31
528,31
529,31
530,31
531,31
532,31
533,31
534,32
535,32
536,33
537,33
538,33
539,33
540,33
541,33
542,33
543,34
544,34
545,34
546,34
547,34
548,34
549,34
550,34
551,34
552,34
553,34
554,34
555,34
556,34
557,34
558,34
559,34
560,34
561,34
562,34
563,34
564,34
565,35
566,35
567,35
568,35
569,35
570,35
571,35
572,35
573,35
574,35
575,35
576,35
577,35
578,35
579,35
580,35
581,35
582,35
583,35
584,35
585,35
586,35
587,35
588,36
589,36
590,36
591,36
592,36
593,36
594,36
595,36
596,36
597,36
598,36
599,36
600,36
601,36
602,36
603,36
604,36
605,36
606,36
607,36
608,36
609,36
610,36
611,36
612,36
613,37
614,37
615,37
616,37
617,37
618,37
619,37
620,37
621,37
622,37
623,37
624,37
625,37
626,37
627,37
628,37
629,37
630,37
631,37
632,37
633,37
634,37
635,37
636,37
637,37
638,37
639,37
640,37
641,37
642,37
643,37
644,37
645,37
646,37
647,37
648,37
649,37
650,37
651,38
652,38
653,38
654,38
655,39
656,39
657,39
658,39
659,39
660,39
661,39
662,39
663,39
664,39
665,39
666,39
667,39
668,40
669,40
670,40
671,40
672,40
673,40
674,40
675,40
676,40
677,40
678,40
679,40
680,40
681,40
682,41
683,41
684,41
685,41
686,41
687,41
688,41
689,41
690,41
691,41
692,41
693,41
694,41
695,41
696,41
697,41
698,41
699,42
700,42
701,42
702,42
703,42
704,42
705,42
706,42
707,42
708,42
709,42
710,42
711,42
712,43
713,43
714,43
715,43
716,43
717,43
718,43
719,43
720,43
721,43
722,43
723,43
724,43
725,43
726,43
727,43
728,43
729,43
730,43
731,43
732,43
733,43
734,43
735,43
736,43
737,43
738,43
739,43
740,43
741,43
742,43
743,43
744,43
745,43
746,43
747,43
748,43
749,43
750,43
751,43
752,43
753,43
754,43
755,43
756,43
757,43
758,43
759,43
760,43
761,43
762,43
763,43
764,43
765,44
766,44
767,45
768,45
769,45
770,45
771,45
772,45
773,45
774,45
775,45
776,45
777,45
778,45
779,45
780,45
781,45
782,45
783,45
784,45
785,45
786,45
787,45
788,45
789,45
790,46
791,46
792,46
793,46
794,46
795,46
796,46
797,47
798,47
799,47
800,47
801,48
802,48
803,48
804,48
805,48
806,48
807,48
808,48
809,48
810,48
811,48
812,48
813,48
814,48
815,48
816,48
817,48
818,48
819,48
820,48
821,48
822,48
823,48
824,48
825,49
826,49
827,49
828,49
829,49
830,49
831,49
832,49
833,49
834,49
835,49
836,49
837,49
838,49
839,50
840,50
841,50
842,50
843,51
844,51
845,52
846,52
847,52
848,52
849,52
850,52
851,52
852,52
853,52
854,52
855,52
856,52
857,52
858,52
859,52
860,52
861,52
862,52
863,52
864,52
865,52
866,52
867,52
868,52
869,53
870,53
871,53
872,53
873,53
874,53
875,53
876,53
877,53
878,53
879,53
880,53
881,53
882,53
883,53
884,53
885,53
886,54
887,54
888,54
889,54
890,54
891,54
892,54
893,54
894,54
895,54
896,54
897,54
898,54
899,54
900,54
901,54
902,54
903,54
904,55
905,55
906,55
907,56
908,57
909,57
910,57
911,57
912,57
913,57
914,57
915,57
916,57
917,57
918,57
919,57
920,57
921,57
922,57
923,57
924,57
925,57
926,57
927,58
928,58
929,58
930,58
931,58
932,58
933,58
934,58
935,58
936,58
937,58
938,58
939,58
940,58
941,58
942,58
943,59
944,59
945,59
946,59
947,59
948,59
949,59
950,59
951,59
952,59
953,59
954,59
955,59
956,59
957,59
958,59
959,59
960,59
961,59
962,59
963,59
964,59
965,59
966,59
967,59
968,59
969,60
970,60
971,60
972,60
973,60
974,60
975,60
976,60
977,60
978,61
979,61
980,61
981,61
982,61
983,61
984,61
985,61
986,61
987,61
988,61
989,61
990,61
991,61
992,61
993,61
994,61
995,61
996,61
997,61
998,61
999,61
1000,61
1001,61
1002,61
1003,61
1004,61
1005,61
1006,61
1007,61
1008,61
1009,61
1010,61
1011,61
1012,61
1013,61
1014,61
1015,61
1016,61
1017,61
1018,61
1019,62
1020,62
1021,62
1022,62
1023,62
1024,62
1025,62
1026,62
1027,62
1028,62
1029,62
1030,62
1031,62
1032,62
1033,62
1034,62
1035,62
1036,62
1037,62
1038,62
1039,62
1040,62
1041,63
1042,63
1043,63
1044,63
1045,63
1046,63
1047,63
1048,63
1049,63
1050,63
1051,63
1052,63
1053,63
1054,63
1055,63
1056,63
1057,63
1058,63
1059,63
1060,63
1061,63
1062,63
1063,63
1064,63
1065,63
1066,63
1067,63
1068,63
1069,63
1070,63
1071,63
1072,63
1073,63
1074,63
1075,63
1076,63
1077,63
1078,63
1079,63
1080,63
1081,63
1082,63
1083,63
1084,63
1085,63
1086,63
1087,63
1088,63
1089,63
1090,63
1091,63
1092,63
1093,63
1094,63
1095,63
1096,63
1097,63
1098,63
1099,63
1100,63
1101,63
1102,63
1103,63
1104,63
1105,63
1106,63
1107,63
1108,63
1109,63
1110,63
1111,63
1112,63
1113,63
1114,63
1115,63
1116,63
1117,63
1118,63
1119,63
1120,63
1121,63
1122,63
1123,63
1124,63
1125,63
1126,63
1127,63
1128,63
1129,63
1130,63
1131,63
1132,63
1133,63
1134,63
1135,63
1136,63
1137,63
1138,63
1139,63
1140,63
1141,63
1142,63
1143,63
1144,63
1145,63
1146,63
1147,63
1148,63
1149,63
1150,63
1151,63
1152,63
1153,63
1154,63
1155,63
1156,63
1157,63
1158,63
1159,63
1160,63
1161,63
1162,63
1163,63
1164,63
1165,63
1166,63
1167,63
1168,63
1169,63
1170,63
1171,63
1172,63
1173,63
1174,63
1175,63
1176,63
1177,63
1178,63
1179,63
1180,63
1181,63
1182,63
1183,63
1184,63
1185,63
1186,63
1187,63
1188,63
1189,63
1190,63
1191,63
1192,63
1193,63
1194,63
1195,63
1196,63
1197,63
1198,63
1199,63
1200,63
1201,63
1202,63
1203,63
1204,63
1205,63
1206,63
1207,64
1208,64
1209,64
1210,64
1211,64
1212,64
1213,64
1214,64
1215,64
1216,65
1217,65
1218,65
1219,65
1220,65
1221,65
1222,65
1223,65
1224,65
1225,65
1226,65
1227,65
1228,65
1229,65
1230,65
1231,65
1232,65
1233,65
1234,65
1235,65
1236,65
1237,66
1238,66
1239,66
1240,66
1241,66
1242,66
1243,66
1244,66
1245,66
1246,66
1247,66
1248,66
1249,66
1250,66
1251,66
1252,66
1253,66
1254,66
1255,66
1256,66
1257,66
1258,66
1259,66
1260,66
1261,66
1262,66
1263,66
1264,67
1265,67
1266,67
1267,67
1268,67
1269,67
1270,67
1271,67
1272,67
1273,67
1274,67
1275,68
1276,68
1277,68
1278,68
1279,68
1280,68
1281,68
1282,68
1283,68
1284,68
1285,68
1286,68
1287,68
1288,68
1289,68
1290,68
1291,68
1292,68
1293,68
1294,68
1295,68
1296,68
1297,68
1298,68
1299,68
1300,68
1301,68
1302,68
1303,68
1304,69
1305,69
1306,70
1307,70
1308,70
1309,70
1310,70
1311,70
1312,70
1313,70
1314,70
1315,70
1316,70
1317,70
1318,71
1319,71
1320,71
1321,71
1322,71
1323,71
1324,71
1325,71
1326,71
1327,71
1328,71
1329,71
1330,71
1331,71
1332,71
1333,71
1334,71
1335,72
1336,72
1337,73
1338,73
1339,73
1340,73
1341,73
1342,73
1343,73
1344,73
1345,73
1346,73
1347,73
1348,73
1349,73
1350,73
1351,73
1352,73
1353,73
1354,73
1355,73
1356,73
1357,74
1358,75
1359,75
1360,75
1361,75
1362,75
1363,75
1364,75
1365,75
1366,75
1367,76
1368,76
1369,76
1370,76
1371,76
1372,76
1373,76
1374,76
1375,76
1376,76
1377,76
1378,76
1379,76
1380,76
1381,76
1382,76
1383,76
1384,76
1385,76
1386,76
1387,76
1388,76
1389,76
1390,76
1391,77
1392,77
1393,77
1394,77
1395,77
1396,77
1397,78
1398,79
1399,79
1400,79
1401,79
1402,79
1403,79
1404,79
1405,79
1406,79
1407,79
1408,79
1409,80
1410,80
1411,80
1412,80
1413,80
1414,80
1415,80
1416,80
1417,80
1418,80
1419,80
1420,80
1421,80
1422,80
1423,80
1424,80
1425,80
1426,80
1427,80
1428,80
1429,80
1430,80
1431,80
1432,80
1433,80
1434,80
1435,80
1436,80
1437,80
1438,80
1439,80
1440,80
1441,80
1442,80
1443,80
1444,80
1445,80
1446,80
1447,80
1448,80
1449,80
1450,80
1451,80
1452,80
1453,80
1454,80
1455,80
1456,80
1457,80
1458,80
1459,80
1460,80
1461,80
1462,80
1463,80
1464,80
1465,80
1466,81
1467,81
1468,81
1469,81
1470,81
1471,81
1472,81
1473,81
1474,81
1475,81
1476,81
1477,81
1478,81
1479,81
1480,81
1481,81
1482,81
1483,81
1484,81
1485,81
1486,81
1487,81
1488,81
1489,81
1490,81
1491,81
1492,81
1493,81
1494,81
1495,81
1496,81
1497,81
1498,81
1499,82
1500,82
1501,82
1502,82
1503,82
1504,82
1505,83
1506,83
1507,83
1508,83
1509,83
1510,83
1511,83
1512,83
1513,83
1514,83
1515,83
1516,83
1517,83
1518,83
1519,83
1520,83
1521,83
1522,83
1523,83
1524,83
1525,83
1526,83
1527,83
1528,83
1529,83
1530,83
1531,83
1532,83
1533,83
1534,83
1535,83
1536,83
1537,83
1538,84
1539,84
1540,84
1541,84
1542,84
1543,84
1544,84
1545,84
1546,84
1547,84
1548,84
1549,84
1550,84
1551,84
1552,84
1553,84
1554,84
1555,84
1556,84
1557,84
1558,84
1559,84
1560,84
1561,84
1562,84
1563,84
1564,84
1565,84
1566,84
1567,84
1568,84
1569,84
1570,84
1571,84
1572,84
1573,84
1574,84
1575,84
1576,84
1577,84
1578,84
1579,84
1580,84
1581,84
1582,84
1583,84
1584,84
1585,84
1586,84
1587,84
1588,84
1589,84
1590,84
1591,84
1592,84
1593,84
1594,84
1595,84
1596,84
1597,84
1598,84
1599,84
1600,84
1601,84
1602,84
1603,84
1604,84
1605,84
1606,84
1607,84
1608,84
1609,84
1610,84
1611,84
1612,84
1613,84
1614,84
1615,84
1616,84
1617,84
1618,84
1619,84
1620,84
1621,84
1622,84
1623,84
1624,84
1625,85
1626,85
1627,85
1628,85
1629,85
1630,85
1631,85
1632,85
1633,85
1634,85
1635,85
1636,85
1637,85
1638,85
1639,85
1640,85
1641,85
1642,85
1643,85
1644,85
1645,85
1646,85
1647,85
1648,85
1649,85
1650,85
1651,85
1652,85
1653,85
1654,85
1655,85
1656,85
1657,85
1658,85
1659,85
1660,85
1661,85
1662,85
1663,85
1664,85
1665,85
1666,85
1667,85
1668,85
1669,85
1670,85
1671,85
1672,85
1673,85
1674,85
1675,85
1676,85
1677,86
1678,86
1679,86
1680,86
1681,86
1682,86
1683,86
1684,86
1685,86
1686,86
1687,86
1688,86
1689,86
1690,86
1691,86
1692,86
1693,86
1694,86
1695,86
1696,86
1697,86
1698,86
1699,86
1700,86
1701,86
1702,86
1703,86
1704,86
1705,86
1706,86
1707,86
1708,86
1709,86
1710,86
1711,86
1712,86
1713,86
1714,86
1715,86
1716,86
1717,86
1718,86
1719,86
1720,86
1721,86
1722,86
1723,86
1724,86
1725,86
1726,86
1727,86
1728,86
1729,86
1730,86
1731,86
1732,86
1733,86
1734,86
1735,86
1736,86
1737,86
1738,86
1739,86
1740,86
1741,86
1742,87
1743,87
1744,87
1745,87
1746,87
1747,88
1748,88
1749,88
1750,88
1751,88
1752,88
1753,88
1754,88
1755,88
1756,88
1757,88
1758,88
1759,88
1760,88
1761,88
1762,88
1763,88
1764,88
1765,88
1766,88
1767,88
1768,88
1769,88
1770,88
1771,88
1772,88
1773,88
1774,88
1775,88
1776,89
1777,89
1778,89
1779,89
1780,89
1781,89
1782,89
1783,89
1784,90
1785,90
1786,90
1787,90
1788,90
1789,90
1790,90
1791,90
1792,90
1793,90
1794,90
1795,90
1796,90
1797,90
1798,91
1799,91
1800,91
1801,91
1802,91
1803,91
1804,91
1805,91
1806,91
1807,91
1808,91
1809,91
1810,91
1811,91
1812,91
1813,91
1814,91
1815,91
1816,91
1817,91
1818,92
1819,92
1820,92
1821,92
1822,92
1823,93
1824,93
1825,93
1826,93
1827,93
1828,93
1829,93
1830,93
1831,93
1832,93
1833,93
1834,93
1835,93
1836,93
1837,93
1838,93
1839,93
1840,93
1841,93
1842,93
1843,93
1844,93
1845,93
1846,93
1847,93
1848,93
1849,93
1850,93
1851,93
1852,93
1853,93
1854,93
1855,93
1856,93
1857,93
1858,93
1859,93
1860,93
1861,93
1862,93
1863,93
1864,93
1865,93
1866,93
1867,93
1868,93
1869,93
1870,93
1871,93
1872,93
1873,93
1874,93
1875,93
1876,93
1877,93
1878,93
1879,94
1880,94
1881,94
1882,94
1883,94
1884,94
1885,94
1886,94
1887,94
1888,94
1889,94
1890,94
1891,94
1892,94
1893,94
1894,94
1895,94
1896,94
1897,94
1898,94
1899,94
1900,94
1901,94
1902,94
1903,94
1904,94
1905,94
1906,94
1907,94
1908,94
1909,94
1910,94
1911,94
1912,94
1913,94
1914,94
1915,94
1916,94
1917,94
1918,94
1919,94
1920,94
1921,94
1922,94
1923,94
1924,94
1925,95
1926,95
1927,95
1928,95
1929,95
1930,95
1931,95
1932,95
1933,95
1934,95
1935,95
1936,95
1937,95
1938,95
1939,95
1940,96
1941,96
1942,96
1943,96
1944,96
1945,96
1946,96
1947,97
1948,97
1949,97
1950,97
1951,97
1952,98
1953,98
1954,98
1955,98
1956,98
1957,98
1958,99
1959,99
1960,99
1961,99
1962,99
1963,99
1964,99
1965,99
1966,99
1967,99
1968,99
1969,100
1970,100
1971,100
1972,100
1973,100
1974,100
1975,100
1976,100
1977,100
1978,100
1979,100
1980,100
1981,100
1982,100
1983,100
1984,100
1985,101
1986,101
1987,101
1988,101
1989,101
1990,101
1991,101
1992,101
1993,101
1994,101
1995,101
1996,101
1997,101
1998,101
1999,101
2000,101
