"tick","susceptible","exposed","infectious","recovered"
0,99,1,0,0
1,99,1,0,0
2,99,1,0,0
3,99,1,0,0
4,99,1,0,0
5,99,1,0,0
6,99,1,0,0
7,99,1,0,0
8,99,1,0,0
9,99,1,0,0
10,99,1,0,0
11,99,1,0,0
12,99,1,0,0
13,99,1,0,0
14,99,1,0,0
15,99,1,0,0
16,99,1,0,0
17,99,1,0,0
18,99,1,0,0
19,99,1,0,0
20,99,1,0,0
21,99,1,0,0
22,99,1,0,0
23,99,1,0,0
24,99,1,0,0
25,99,1,0,0
26,99,1,0,0
27,99,1,0,0
28,99,1,0,0
29,99,1,0,0
30,99,1,0,0
31,99,1,0,0
32,99,1,0,0
33,99,1,0,0
34,99,1,0,0
35,99,1,0,0
36,99,1,0,0
37,99,1,0,0
38,99,1,0,0
39,99,1,0,0
40,99,1,0,0
41,99,1,0,0
42,99,1,0,0
43,99,1,0,0
44,99,1,0,0
45,99,1,0,0
46,99,1,0,0
47,99,1,0,0
48,99,1,0,0
49,99,1,0,0
50,99,1,0,0
51,99,1,0,0
52,99,1,0,0
53,99,1,0,0
54,99,1,0,0
55,99,1,0,0
56,99,1,0,0
57,99,1,0,0
58,99,1,0,0
59,99,1,0,0
60,99,1,0,0
61,99,1,0,0
62,99,1,0,0
63,99,1,0,0
64,99,1,0,0
65,99,1,0,0
66,99,1,0,0
67,99,1,0,0
68,99,1,0,0
69,99,1,0,0
70,99,1,0,0
71,99,1,0,0
72,99,1,0,0
73,99,1,0,0
74,99,1,0,0
75,99,1,0,0
76,99,1,0,0
77,99,1,0,0
78,99,1,0,0
79,99,1,0,0
80,99,1,0,0
81,99,1,0,0
82,99,1,0,0
83,99,1,0,0
84,99,1,0,0
85,99,1,0,0
86,99,1,0,0
87,99,1,0,0
88,99,1,0,0
89,99,1,0,0
90,99,1,0,0
91,99,1,0,0
92,99,1,0,0
93,99,1,0,0
94,99,1,0,0
95,99,1,0,0
96,99,1,0,0
97,99,1,0,0
98,99,1,0,0
99,99,1,0,0
100,99,1,0,0
101,99,1,0,0
102,99,1,0,0
103,99,1,0,0
104,99,1,0,0
105,99,1,0,0
106,99,1,0,0
107,99,1,0,0
108,99,1,0,0
109,99,1,0,0
110,99,1,0,0
111,99,1,0,0
112,99,1,0,0
113,99,1,0,0
114,99,1,0,0
115,99,1,0,0
116,99,1,0,0
117,99,1,0,0
118,99,1,0,0
119,99,1,0,0
120,99,1,0,0
121,99,1,0,0
122,99,1,0,0
123,99,1,0,0
124,99,1,0,0
125,99,1,0,0
126,99,1,0,0
127,99,1,0,0
128,99,1,0,0
129,99,1,0,0
130,99,1,0,0
131,99,1,0,0
132,99,1,0,0
133,99,1,0,0
134,99,1,0,0
135,99,1,0,0
136,99,1,0,0
137,99,1,0,0
138,99,1,0,0
139,99,1,0,0
140,99,1,0,0
141,99,1,0,0
142,99,1,0,0
143,99,1,0,0
144,99,1,0,0
145,99,1,0,0
146,99,1,0,0
147,99,1,0,0
148,99,1,0,0
149,99,1,0,0
150,99,1,0,0
151,99,1,0,0
152,99,1,0,0
153,99,1,0,0
154,99,1,0,0
155,99,1,0,0
156,99,1,0,0
157,99,1,0,0
158,99,1,0,0
159,99,1,0,0
160,99,1,0,0
161,99,1,0,0
162,99,1,0,0
163,99,1,0,0
164,99,1,0,0
165,99,1,0,0
166,99,1,0,0
167,99,1,0,0
168,99,1,0,0
169,99,1,0,0
170,99,1,0,0
171,99,1,0,0
172,99,1,0,0
173,99,1,0,0
174,99,1,0,0
175,99,1,0,0
176,99,1,0,0
177,99,1,0,0
178,99,1,0,0
179,99,1,0,0
180,99,1,0,0
181,99,1,0,0
182,99,1,0,0
183,99,1,0,0
184,99,1,0,0
185,99,1,0,0
186,99,1,0,0
187,99,1,0,0
188,99,1,0,0
189,99,1,0,0
190,99,1,0,0
191,99,1,0,0
192,99,1,0,0
193,99,1,0,0
194,99,1,0,0
195,99,1,0,0
196,99,1,0,0
197,99,1,0,0
198,99,1,0,0
199,99,1,0,0
200,99,1,0,0
201,99,0,1,0
202,99,0,1,0
203,99,0,1,0
204,99,0,1,0
205,99,0,1,0
206,99,0,1,0
207,99,0,1,0
208,99,0,1,0
209,99,0,1,0
210,99,0,1,0
211,99,0,1,0
212,99,0,1,0
213,99,0,1,0
214,99,0,1,0
215,99,0,1,0
216,99,0,1,0
217,99,0,1,0
218,99,0,1,0
219,99,0,1,0
220,99,0,1,0
221,99,0,1,0
222,99,0,1,0
223,99,0,1,0
224,98,1,1,0
225,98,1,1,0
226,98,1,1,0
227,98,1,1,0
228,98,1,1,0
229,98,1,1,0
230,98,1,1,0
231,98,1,1,0
232,98,1,1,0
233,98,1,1,0
234,98,1,1,0
235,98,1,1,0
236,98,1,1,0
237,98,1,1,0
238,98,1,1,0
239,98,1,1,0
240,98,1,1,0
241,98,1,1,0
242,98,1,1,0
243,98,1,1,0
244,98,1,1,0
245,98,1,1,0
246,98,1,1,0
247,98,1,1,0
248,98,1,1,0
249,98,1,1,0
250,98,1,1,0
251,98,1,1,0
252,98,1,1,0
253,98,1,1,0
254,98,1,1,0
255,98,1,1,0
256,98,1,1,0
257,98,1,1,0
258,98,1,1,0
259,98,1,1,0
260,98,1,1,0
261,98,1,1,0
262,98,1,1,0
263,98,1,1,0
264,98,1,1,0
265,97,2,1,0
266,97,2,1,0
267,97,2,1,0
268,97,2,1,0
269,97,2,1,0
270,96,3,1,0
271,96,3,1,0
272,96,3,1,0
273,96,3,1,0
274,96,3,1,0
275,96,3,1,0
276,96,3,1,0
277,96,3,1,0
278,96,3,1,0
279,96,3,1,0
280,96,3,1,0
281,96,3,1,0
282,96,3,1,0
283,96,3,1,0
284,96,3,1,0
285,96,3,1,0
286,96,3,1,0
287,96,3,1,0
288,96,3,1,0
289,96,3,1,0
290,96,3,1,0
291,96,3,1,0
292,96,3,1,0
293,96,3,1,0
294,96,3,1,0
295,96,3,1,0
296,96,3,1,0
297,96,3,1,0
298,96,3,1,0
299,95,4,1,0
300,95,4,1,0
301,95,4,1,0
302,95,4,1,0
303,95,4,1,0
304,94,5,1,0
305,94,5,1,0
306,94,5,1,0
307,94,5,1,0
308,94,5,1,0
309,94,5,1,0
310,94,5,1,0
311,94,5,1,0
312,94,5,1,0
313,94,5,1,0
314,94,5,1,0
315,94,5,1,0
316,94,5,1,0
317,94,5,1,0
318,94,5,1,0
319,94,5,1,0
320,94,5,1,0
321,94,5,1,0
322,94,5,1,0
323,94,5,1,0
324,94,5,1,0
325,94,5,1,0
326,94,5,1,0
327,94,5,1,0
328,94,5,1,0
329,94,5,1,0
330,94,5,1,0
331,93,6,1,0
332,93,6,1,0
333,93,6,1,0
334,93,6,1,0
335,93,6,1,0
336,93,6,1,0
337,93,6,1,0
338,93,6,1,0
339,93,6,1,0
340,93,6,1,0
341,93,6,1,0
342,93,6,1,0
343,93,6,1,0
344,93,6,1,0
345,93,6,1,0
346,93,6,1,0
347,93,6,1,0
348,93,6,1,0
349,93,6,1,0
350,92,7,1,0
351,92,7,1,0
352,92,7,1,0
353,92,7,1,0
354,92,7,1,0
355,92,7,1,0
356,92,7,1,0
357,92,7,1,0
358,92,7,1,0
359,92,7,1,0
360,92,7,1,0
361,92,7,1,0
362,92,7,1,0
363,92,7,1,0
364,92,7,1,0
365,92,7,1,0
366,92,7,1,0
367,92,7,1,0
368,92,7,1,0
369,92,7,1,0
370,92,7,1,0
371,92,7,1,0
372,92,7,1,0
373,92,7,1,0
374,92,7,1,0
375,92,7,1,0
376,92,7,1,0
377,92,7,1,0
378,92,7,1,0
379,92,7,1,0
380,92,7,1,0
381,92,7,1,0
382,92,7,1,0
383,92,7,1,0
384,92,7,1,0
385,92,7,1,0
386,92,7,1,0
387,92,7,1,0
388,92,7,1,0
389,92,7,1,0
390,92,7,1,0
391,92,7,1,0
392,92,7,1,0
393,92,7,1,0
394,92,7,1,0
395,92,7,1,0
396,92,7,1,0
397,92,7,1,0
398,92,7,1,0
399,92,7,1,0
400,92,7,1,0
401,92,7,1,0
402,92,7,0,1
403,92,7,0,1
404,92,7,0,1
405,92,7,0,1
406,92,7,0,1
407,92,7,0,1
408,92,7,0,1
409,92,7,0,1
410,92,7,0,1
411,92,7,0,1
412,92,7,0,1
413,92,7,0,1
414,92,7,0,1
415,92,7,0,1
416,92,7,0,1
417,92,7,0,1
418,92,7,0,1
419,92,7,0,1
420,92,7,0,1
421,92,7,0,1
422,92,7,0,1
423,92,7,0,1
424,92,7,0,1
425,92,6,1,1
426,91,7,1,1
427,90,8,1,1
428,89,9,1,1
429,89,9,1,1
430,89,9,1,1
431,89,9,1,1
432,89,9,1,1
433,86,12,1,1
434,86,12,1,1
435,85,13,1,1
436,85,13,1,1
437,85,13,1,1
438,85,13,1,1
439,83,15,1,1
440,83,15,1,1
441,83,15,1,1
442,82,16,1,1
443,82,16,1,1
444,82,16,1,1
445,82,16,1,1
446,82,16,1,1
447,82,16,1,1
448,82,16,1,1
449,82,16,1,1
450,82,16,1,1
451,82,16,1,1
452,82,16,1,1
453,82,16,1,1
454,81,17,1,1
455,81,17,1,1
456,81,17,1,1
457,81,17,1,1
458,81,17,1,1
459,81,17,1,1
460,81,17,1,1
461,81,17,1,1
462,81,17,1,1
463,81,17,1,1
464,81,17,1,1
465,81,17,1,1
466,81,16,2,1
467,81,16,2,1
468,81,16,2,1
469,81,16,2,1
470,81,16,2,1
471,81,15,3,1
472,81,15,3,1
473,81,15,3,1
474,81,15,3,1
475,81,15,3,1
476,81,15,3,1
477,81,15,3,1
478,81,15,3,1
479,81,15,3,1
480,81,15,3,1
481,81,15,3,1
482,81,15,3,1
483,81,15,3,1
484,81,15,3,1
485,81,15,3,1
486,81,15,3,1
487,81,15,3,1
488,81,15,3,1
489,81,15,3,1
490,81,15,3,1
491,81,15,3,1
492,81,15,3,1
493,81,15,3,1
494,81,15,3,1
495,81,15,3,1
496,81,15,3,1
497,81,15,3,1
498,81,15,3,1
499,81,15,3,1
500,81,14,4,1
501,81,14,4,1
502,81,14,4,1
503,81,14,4,1
504,81,14,4,1
505,81,13,5,1
506,81,13,5,1
507,81,13,5,1
508,81,13,5,1
509,81,13,5,1
510,81,13,5,1
511,81,13,5,1
512,81,13,5,1
513,81,13,5,1
514,81,13,5,1
515,80,14,5,1
516,79,15,5,1
517,79,15,5,1
518,79,15,5,1
519,79,15,5,1
520,79,15,5,1
521,79,15,5,1
522,79,15,5,1
523,79,15,5,1
524,79,15,5,1
525,79,15,5,1
526,79,15,5,1
527,79,15,5,1
528,79,15,5,1
529,79,15,5,1
530,79,15,5,1
531,79,15,5,1
532,79,14,6,1
533,79,14,6,1
534,79,14,6,1
535,79,14,6,1
536,79,14,6,1
537,79,14,6,1
538,79,14,6,1
539,79,14,6,1
540,78,15,6,1
541,77,16,6,1
542,77,16,6,1
543,77,16,6,1
544,77,16,6,1
545,77,16,6,1
546,77,16,6,1
547,77,16,6,1
548,77,16,6,1
549,77,16,6,1
550,77,16,6,1
551,77,15,7,1
552,77,15,7,1
553,77,15,7,1
554,77,15,7,1
555,77,15,7,1
556,77,15,7,1
557,77,15,7,1
558,77,15,7,1
559,77,15,7,1
560,77,15,7,1
561,77,15,7,1
562,77,15,7,1
563,77,15,7,1
564,77,15,7,1
565,77,15,7,1
566,77,15,7,1
567,77,15,7,1
568,77,15,7,1
569,77,15,7,1
570,77,15,7,1
571,77,15,7,1
572,77,15,7,1
573,77,15,7,1
574,77,15,7,1
575,77,15,7,1
576,77,15,7,1
577,77,15,7,1
578,77,15,7,1
579,77,15,7,1
580,77,15,7,1
581,77,15,7,1
582,77,15,7,1
583,77,15,7,1
584,77,15,7,1
585,77,15,7,1
586,76,16,7,1
587,76,16,7,1
588,76,16,7,1
589,76,16,7,1
590,76,16,7,1
591,76,16,7,1
592,76,16,7,1
593,76,16,7,1
594,76,16,7,1
595,76,16,7,1
596,76,16,7,1
597,76,16,7,1
598,76,16,7,1
599,76,16,7,1
600,76,16,7,1
601,76,16,7,1
602,76,16,7,1
603,76,16,7,1
604,76,16,7,1
605,76,16,7,1
606,76,16,7,1
607,76,16,7,1
608,76,16,7,1
609,76,16,7,1
610,75,17,7,1
611,75,17,7,1
612,75,17,7,1
613,75,17,7,1
614,75,17,7,1
615,75,17,7,1
616,75,17,7,1
617,74,18,7,1
618,73,19,7,1
619,73,19,7,1
620,73,19,7,1
621,73,19,7,1
622,73,19,7,1
623,73,19,7,1
624,73,19,7,1
625,73,19,7,1
626,73,19,6,2
627,73,18,7,2
628,73,17,8,2
629,72,17,9,2
630,72,17,9,2
631,71,18,9,2
632,70,19,9,2
633,70,19,9,2
634,70,16,12,2
635,69,17,12,2
636,69,16,13,2
637,69,16,13,2
638,69,16,13,2
639,68,17,13,2
640,68,15,15,2
641,68,15,15,2
642,68,15,15,2
643,68,14,16,2
644,68,14,16,2
645,68,14,16,2
646,68,14,16,2
647,68,14,16,2
648,67,15,16,2
649,67,15,16,2
650,67,15,16,2
651,67,15,16,2
652,67,15,16,2
653,67,15,16,2
654,67,15,16,2
655,67,14,17,2
656,66,15,17,2
657,65,16,17,2
658,65,16,17,2
659,65,16,17,2
660,65,16,17,2
661,65,16,17,2
662,65,16,17,2
663,65,16,17,2
664,65,16,17,2
665,65,16,17,2
666,65,16,17,2
667,65,16,16,3
668,65,16,16,3
669,65,16,16,3
670,65,16,16,3
671,63,18,16,3
672,63,18,15,4
673,63,18,15,4
674,63,18,15,4
675,63,18,15,4
676,63,18,15,4
677,63,18,15,4
678,63,18,15,4
679,63,18,15,4
680,63,18,15,4
681,62,19,15,4
682,62,19,15,4
683,62,19,15,4
684,62,19,15,4
685,62,19,15,4
686,62,19,15,4
687,62,19,15,4
688,62,19,15,4
689,61,20,15,4
690,61,20,15,4
691,60,21,15,4
692,60,21,15,4
693,60,21,15,4
694,59,22,15,4
695,59,22,15,4
696,58,23,15,4
697,58,23,15,4
698,58,23,15,4
699,58,23,15,4
700,58,23,15,4
701,58,23,14,5
702,58,23,14,5
703,58,23,14,5
704,58,23,14,5
705,58,23,14,5
706,58,23,13,6
707,58,23,13,6
708,58,23,13,6
709,58,23,13,6
710,58,23,13,6
711,58,23,13,6
712,58,23,13,6
713,57,24,13,6
714,57,24,13,6
715,57,24,13,6
716,57,23,14,6
717,57,22,15,6
718,57,22,15,6
719,57,22,15,6
720,57,22,15,6
721,57,22,15,6
722,56,23,15,6
723,56,23,15,6
724,56,23,15,6
725,56,23,15,6
726,56,23,15,6
727,56,23,15,6
728,56,23,15,6
729,56,23,15,6
730,56,23,15,6
731,56,23,15,6
732,55,24,15,6
733,55,24,14,7
734,55,24,14,7
735,54,25,14,7
736,54,25,14,7
737,54,25,14,7
738,54,25,14,7
739,54,25,14,7
740,54,25,14,7
741,54,24,15,7
742,54,23,16,7
743,53,24,16,7
744,53,24,16,7
745,53,24,16,7
746,53,24,16,7
747,53,24,16,7
748,52,25,16,7
749,52,25,16,7
750,52,25,16,7
751,52,25,16,7
752,52,25,15,8
753,51,26,15,8
754,50,27,15,8
755,50,27,15,8
756,48,29,15,8
757,48,29,15,8
758,47,30,15,8
759,46,31,15,8
760,46,31,15,8
761,46,31,15,8
762,46,31,15,8
763,46,31,15,8
764,46,31,15,8
765,46,31,15,8
766,46,31,15,8
767,46,31,15,8
768,46,31,15,8
769,46,31,15,8
770,46,31,15,8
771,46,31,15,8
772,46,31,15,8
773,46,31,15,8
774,46,31,15,8
775,46,31,15,8
776,46,31,15,8
777,46,31,15,8
778,46,31,15,8
779,46,31,15,8
780,46,31,15,8
781,46,31,15,8
782,46,31,15,8
783,46,31,15,8
784,46,31,15,8
785,46,31,15,8
786,45,32,15,8
787,45,31,16,8
788,45,31,16,8
789,45,31,16,8
790,45,31,16,8
791,45,31,16,8
792,45,31,16,8
793,45,31,16,8
794,45,31,16,8
795,45,31,16,8
796,45,31,16,8
797,45,31,16,8
798,45,31,16,8
799,45,31,16,8
800,45,31,16,8
801,45,31,16,8
802,45,31,16,8
803,45,31,16,8
804,45,31,16,8
805,45,31,16,8
806,45,31,16,8
807,45,31,16,8
808,45,31,16,8
809,45,31,16,8
810,45,31,16,8
811,45,30,17,8
812,45,30,17,8
813,45,30,17,8
814,44,31,17,8
815,44,31,17,8
816,44,31,17,8
817,44,31,17,8
818,44,30,18,8
819,43,30,19,8
820,43,30,19,8
821,43,30,19,8
822,43,30,19,8
823,43,30,19,8
824,42,31,19,8
825,42,31,19,8
826,41,32,19,8
827,41,32,19,8
828,41,32,18,9
829,41,32,17,10
830,41,31,17,11
831,41,31,17,11
832,41,30,18,11
833,41,29,19,11
834,41,29,19,11
835,41,29,16,14
836,41,28,17,14
837,41,28,16,15
838,40,29,16,15
839,40,29,16,15
840,40,28,17,15
841,40,28,15,17
842,39,29,15,17
843,39,29,15,17
844,37,31,14,18
845,37,31,14,18
846,37,31,14,18
847,37,31,14,18
848,37,31,14,18
849,37,30,15,18
850,37,30,15,18
851,37,30,15,18
852,37,30,15,18
853,36,31,15,18
854,36,31,15,18
855,36,31,15,18
856,36,31,14,19
857,36,30,15,19
858,36,29,16,19
859,36,29,16,19
860,36,29,16,19
861,36,29,16,19
862,36,29,16,19
863,36,29,16,19
864,36,29,16,19
865,36,29,16,19
866,36,29,16,19
867,36,29,16,19
868,36,29,16,19
869,36,29,16,19
870,36,29,16,19
871,36,29,16,19
872,36,27,18,19
873,36,27,18,19
874,36,27,18,19
875,36,27,18,19
876,36,27,18,19
877,36,27,18,19
878,36,27,18,19
879,36,27,18,19
880,36,27,18,19
881,36,27,18,19
882,36,26,19,19
883,35,27,19,19
884,35,27,19,19
885,35,27,19,19
886,35,27,19,19
887,35,27,19,19
888,35,27,19,19
889,35,27,19,19
890,35,26,20,19
891,34,27,20,19
892,34,26,21,19
893,34,26,21,19
894,34,26,21,19
895,34,25,22,19
896,34,25,22,19
897,34,24,23,19
898,34,24,23,19
899,34,24,23,19
900,34,24,23,19
901,34,24,23,19
902,33,25,23,19
903,33,25,23,19
904,32,26,23,19
905,32,26,23,19
906,32,26,23,19
907,32,26,23,19
908,32,26,23,19
909,31,27,23,19
910,31,27,23,19
911,31,27,23,19
912,31,27,23,19
913,31,27,23,19
914,31,26,24,19
915,31,26,24,19
916,31,26,24,19
917,31,26,23,20
918,31,26,22,21
919,31,26,22,21
920,31,26,22,21
921,31,26,22,21
922,31,26,22,21
923,31,25,23,21
924,31,25,23,21
925,31,25,23,21
926,31,25,23,21
927,30,26,23,21
928,30,26,23,21
929,30,26,23,21
930,29,27,23,21
931,29,27,23,21
932,29,27,23,21
933,29,26,24,21
934,28,27,24,21
935,28,27,24,21
936,28,26,25,21
937,28,26,25,21
938,28,26,25,21
939,28,26,25,21
940,28,26,25,21
941,28,26,25,21
942,28,26,24,22
943,28,26,23,23
944,27,26,24,23
945,27,26,24,23
946,27,26,24,23
947,27,26,24,23
948,27,26,24,23
949,27,25,25,23
950,27,25,25,23
951,27,25,25,23
952,27,25,25,23
953,27,25,25,23
954,27,24,26,23
955,27,23,27,23
956,26,24,27,23
957,26,22,29,23
958,26,22,29,23
959,26,21,30,23
960,26,20,31,23
961,26,20,31,23
962,26,20,31,23
963,26,20,31,23
964,26,20,31,23
965,26,20,31,23
966,26,20,31,23
967,26,20,31,23
968,26,20,31,23
969,26,20,31,23
970,26,20,31,23
971,26,20,31,23
972,26,20,31,23
973,26,20,31,23
974,26,20,31,23
975,26,20,31,23
976,26,20,31,23
977,26,20,31,23
978,26,20,31,23
979,26,20,31,23
980,26,20,31,23
981,26,20,31,23
982,26,20,31,23
983,26,20,31,23
984,26,20,31,23
985,26,20,31,23
986,26,20,31,23
987,26,19,32,23
988,26,19,31,24
989,26,19,31,24
990,26,19,31,24
991,26,19,31,24
992,26,19,31,24
993,26,19,31,24
994,26,19,31,24
995,26,19,31,24
996,26,19,31,24
997,26,19,31,24
998,26,19,31,24
999,26,19,31,24
1000,26,19,31,24
1001,26,19,31,24
1002,26,19,31,24
1003,26,19,31,24
1004,26,19,31,24
1005,26,19,31,24
1006,25,20,31,24
1007,25,20,31,24
1008,24,21,31,24
1009,23,22,31,24
1010,23,22,31,24
1011,23,22,31,24
1012,23,22,30,25
1013,23,22,30,25
1014,23,22,30,25
1015,23,21,31,25
1016,23,21,31,25
1017,23,21,31,25
1018,23,21,31,25
1019,23,21,30,26
1020,23,20,30,27
1021,23,20,30,27
1022,23,20,30,27
1023,23,20,30,27
1024,23,20,30,27
1025,22,20,31,27
1026,22,20,31,27
1027,22,19,32,27
1028,22,19,32,27
1029,22,19,32,27
1030,22,19,32,27
1031,22,19,31,28
1032,22,19,31,28
1033,22,19,30,29
1034,21,20,29,30
1035,21,20,29,30
1036,21,20,29,30
1037,21,20,28,31
1038,21,20,28,31
1039,21,19,29,31
1040,21,19,29,31
1041,21,19,28,32
1042,21,19,28,32
1043,21,18,29,32
1044,21,18,29,32
1045,21,16,31,32
1046,21,16,31,32
1047,21,16,31,32
1048,21,16,31,32
1049,21,16,31,32
1050,21,16,30,33
1051,21,16,30,33
1052,21,16,30,33
1053,21,16,30,33
1054,21,15,31,33
1055,21,15,31,33
1056,21,15,31,33
1057,21,15,31,33
1058,21,15,30,34
1059,21,15,29,35
1060,21,15,29,35
1061,21,15,29,35
1062,21,15,29,35
1063,21,15,29,35
1064,21,15,29,35
1065,20,16,29,35
1066,20,16,29,35
1067,20,16,29,35
1068,20,16,29,35
1069,20,16,29,35
1070,20,16,29,35
1071,20,16,29,35
1072,20,16,29,35
1073,20,16,27,37
1074,20,16,27,37
1075,20,16,27,37
1076,20,16,27,37
1077,20,16,27,37
1078,20,16,27,37
1079,20,16,27,37
1080,20,16,27,37
1081,20,16,27,37
1082,20,16,27,37
1083,20,16,26,38
1084,20,15,27,38
1085,20,15,27,38
1086,20,15,27,38
1087,20,15,27,38
1088,20,15,27,38
1089,20,15,27,38
1090,20,15,27,38
1091,20,15,26,39
1092,20,14,27,39
1093,20,14,26,40
1094,20,14,26,40
1095,20,14,26,40
1096,20,14,25,41
1097,20,14,25,41
1098,20,14,24,42
1099,20,14,24,42
1100,19,15,24,42
1101,19,15,24,42
1102,19,15,24,42
1103,19,14,25,42
1104,19,14,25,42
1105,19,13,26,42
1106,19,13,26,42
1107,19,13,26,42
1108,19,13,26,42
1109,19,13,26,42
1110,18,13,27,42
1111,18,13,27,42
1112,18,13,27,42
1113,18,13,27,42
1114,18,13,27,42
1115,18,13,26,43
1116,18,13,26,43
1117,18,13,26,43
1118,18,13,26,43
1119,18,13,26,43
1120,18,13,26,43
1121,18,13,26,43
1122,18,13,26,43
1123,18,13,26,43
1124,18,13,25,44
1125,18,13,25,44
1126,18,13,25,44
1127,18,13,25,44
1128,18,12,26,44
1129,18,12,26,44
1130,18,12,26,44
1131,18,11,27,44
1132,18,11,27,44
1133,18,11,27,44
1134,18,11,26,45
1135,18,10,27,45
1136,18,10,27,45
1137,18,10,26,46
1138,18,10,26,46
1139,18,10,26,46
1140,17,11,26,46
1141,17,11,26,46
1142,17,11,26,46
1143,17,11,26,46
1144,17,11,26,46
1145,17,10,26,47
1146,17,10,26,47
1147,17,10,26,47
1148,16,11,26,47
1149,16,11,26,47
1150,16,11,25,48
1151,15,12,25,48
1152,15,12,25,48
1153,15,12,25,48
1154,15,12,25,48
1155,15,12,24,49
1156,15,12,23,50
1157,15,11,24,50
1158,15,11,22,52
1159,15,11,22,52
1160,15,11,21,53
1161,15,11,20,54
1162,15,11,20,54
1163,15,11,20,54
1164,15,11,20,54
1165,15,11,20,54
1166,15,11,20,54
1167,15,11,20,54
1168,15,11,20,54
1169,15,11,20,54
1170,15,11,20,54
1171,15,11,20,54
1172,15,11,20,54
1173,15,11,20,54
1174,15,11,20,54
1175,15,11,20,54
1176,15,11,20,54
1177,15,11,20,54
1178,15,11,20,54
1179,15,11,20,54
1180,15,11,20,54
1181,15,11,20,54
1182,15,11,20,54
1183,15,11,20,54
1184,15,11,20,54
1185,15,11,20,54
1186,15,11,20,54
1187,15,11,20,54
1188,15,11,19,55
1189,15,11,19,55
1190,15,11,19,55
1191,15,11,19,55
1192,15,11,19,55
1193,15,11,19,55
1194,15,11,19,55
1195,15,11,19,55
1196,15,11,19,55
1197,15,11,19,55
1198,15,11,19,55
1199,15,11,19,55
1200,15,11,19,55
1201,15,11,19,55
1202,15,11,19,55
1203,15,11,19,55
1204,15,11,19,55
1205,15,11,19,55
1206,15,11,19,55
1207,15,10,20,55
1208,15,10,20,55
1209,15,9,21,55
1210,15,8,22,55
1211,15,8,22,55
1212,15,8,22,55
1213,15,8,22,55
1214,15,8,22,55
1215,15,8,22,55
1216,15,8,21,56
1217,15,8,21,56
1218,15,8,21,56
1219,15,8,21,56
1220,15,8,21,56
1221,15,8,20,57
1222,15,8,20,57
1223,15,8,20,57
1224,15,8,20,57
1225,15,8,20,57
1226,15,7,20,58
1227,15,7,20,58
1228,15,7,19,59
1229,14,8,19,59
1230,14,8,19,59
1231,14,8,19,59
1232,14,8,19,59
1233,14,8,19,59
1234,14,8,19,59
1235,14,7,20,59
1236,13,8,20,59
1237,13,8,20,59
1238,13,8,20,59
1239,13,8,20,59
1240,13,8,19,60
1241,13,8,19,60
1242,13,8,19,60
1243,13,8,19,60
1244,13,8,18,61
1245,13,8,18,61
1246,13,8,16,63
1247,13,8,16,63
1248,13,8,16,63
1249,13,8,16,63
1250,13,8,16,63
1251,13,8,16,63
1252,13,8,16,63
1253,13,8,16,63
1254,12,9,16,63
1255,12,9,15,64
1256,12,9,15,64
1257,12,9,15,64
1258,12,9,15,64
1259,12,9,15,64
1260,12,9,15,64
1261,12,9,15,64
1262,12,9,15,64
1263,12,9,15,64
1264,12,9,15,64
1265,12,9,15,64
1266,12,8,16,64
1267,12,8,16,64
1268,12,8,16,64
1269,12,8,16,64
1270,12,8,16,64
1271,12,8,16,64
1272,12,8,16,64
1273,12,8,16,64
1274,12,8,16,64
1275,12,8,16,64
1276,12,8,16,64
1277,12,8,16,64
1278,12,8,16,64
1279,12,8,16,64
1280,12,8,16,64
1281,12,8,16,64
1282,12,8,16,64
1283,12,8,16,64
1284,12,8,16,64
1285,12,8,15,65
1286,12,8,15,65
1287,12,8,15,65
1288,12,8,15,65
1289,12,8,15,65
1290,12,8,15,65
1291,12,8,15,65
1292,12,8,15,65
1293,12,8,14,66
1294,12,8,14,66
1295,12,8,14,66
1296,12,8,14,66
1297,12,8,14,66
1298,12,8,14,66
1299,12,8,14,66
1300,12,8,14,66
1301,12,7,15,66
1302,12,7,15,66
1303,11,8,15,66
1304,10,9,14,67
1305,10,9,14,67
1306,10,9,13,68
1307,10,9,13,68
1308,10,9,13,68
1309,10,9,13,68
1310,10,9,13,68
1311,10,8,13,69
1312,10,8,13,69
1313,10,8,13,69
1314,10,8,13,69
1315,10,8,13,69
1316,10,8,13,69
1317,10,8,13,69
1318,10,8,13,69
1319,10,8,13,69
1320,10,8,13,69
1321,10,8,13,69
1322,10,8,13,69
1323,10,8,13,69
1324,10,8,13,69
1325,10,8,13,69
1326,10,8,13,69
1327,10,8,13,69
1328,10,8,13,69
1329,10,8,12,70
1330,10,8,12,70
1331,10,8,12,70
1332,10,8,11,71
1333,10,8,11,71
1334,10,8,11,71
1335,10,8,11,71
1336,10,8,10,72
1337,10,8,10,72
1338,10,8,10,72
1339,10,8,10,72
1340,10,8,10,72
1341,10,7,11,72
1342,10,7,11,72
1343,10,7,11,72
1344,10,7,11,72
1345,10,7,11,72
1346,10,7,10,73
1347,10,7,10,73
1348,10,7,10,73
1349,10,6,11,73
1350,10,6,11,73
1351,10,6,11,73
1352,10,5,12,73
1353,10,5,12,73
1354,10,5,12,73
1355,10,5,12,73
1356,10,5,12,73
1357,10,5,12,73
1358,10,5,11,74
1359,10,5,11,74
1360,10,5,11,74
1361,10,5,11,74
1362,10,5,11,74
1363,10,5,11,74
1364,10,5,11,74
1365,10,5,11,74
1366,10,5,11,74
1367,10,5,11,74
1368,10,5,11,74
1369,10,5,11,74
1370,10,5,11,74
1371,10,5,11,74
1372,10,5,11,74
1373,10,5,11,74
1374,10,5,11,74
1375,10,5,11,74
1376,10,5,11,74
1377,10,5,11,74
1378,10,5,11,74
1379,10,5,11,74
1380,10,5,11,74
1381,10,5,11,74
1382,10,5,11,74
1383,9,6,11,74
1384,9,6,11,74
1385,9,6,11,74
1386,9,6,11,74
1387,9,6,11,74
1388,9,6,11,74
1389,9,6,11,74
1390,9,6,11,74
1391,9,6,11,74
1392,9,6,11,74
1393,9,6,11,74
1394,9,6,11,74
1395,9,6,11,74
1396,9,6,11,74
1397,9,6,11,74
1398,9,6,11,74
1399,9,6,11,74
1400,9,6,11,74
1401,9,6,11,74
1402,9,6,11,74
1403,9,6,11,74
1404,9,6,11,74
1405,9,6,11,74
1406,9,6,11,74
1407,9,6,11,74
1408,9,6,10,75
1409,9,6,10,75
1410,9,6,9,76
1411,9,6,8,77
1412,9,6,8,77
1413,9,6,8,77
1414,9,6,8,77
1415,9,6,8,77
1416,9,6,8,77
1417,9,6,8,77
1418,9,6,8,77
1419,9,6,8,77
1420,9,6,8,77
1421,9,6,8,77
1422,9,6,8,77
1423,9,6,8,77
1424,9,6,8,77
1425,9,6,8,77
1426,9,6,8,77
1427,9,6,7,78
1428,9,6,7,78
1429,9,6,7,78
1430,9,5,8,78
1431,9,5,8,78
1432,9,5,8,78
1433,9,5,8,78
1434,9,5,8,78
1435,9,5,8,78
1436,9,5,7,79
1437,9,4,8,79
1438,9,4,8,79
1439,9,4,8,79
1440,9,4,8,79
1441,8,5,8,79
1442,8,5,8,79
1443,8,5,8,79
1444,8,5,8,79
1445,8,5,8,79
1446,8,5,8,79
1447,8,5,8,79
1448,8,5,8,79
1449,8,5,8,79
1450,8,5,8,79
1451,8,5,8,79
1452,8,5,8,79
1453,8,5,8,79
1454,8,5,8,79
1455,8,4,9,79
1456,8,4,9,79
1457,8,4,9,79
1458,8,4,9,79
1459,8,4,9,79
1460,8,4,9,79
1461,8,4,9,79
1462,8,4,9,79
1463,8,4,9,79
1464,8,4,9,79
1465,8,4,9,79
1466,8,4,9,79
1467,8,4,8,80
1468,8,4,8,80
1469,8,4,8,80
1470,8,4,8,80
1471,8,4,8,80
1472,8,4,8,80
1473,8,4,8,80
1474,8,4,8,80
1475,8,4,8,80
1476,8,4,8,80
1477,8,4,8,80
1478,8,4,8,80
1479,8,4,8,80
1480,8,4,8,80
1481,8,4,8,80
1482,8,4,8,80
1483,8,4,8,80
1484,8,4,8,80
1485,8,4,8,80
1486,8,4,8,80
1487,8,4,8,80
1488,8,4,8,80
1489,8,4,8,80
1490,8,4,8,80
1491,8,4,8,80
1492,8,4,8,80
1493,8,4,8,80
1494,8,4,8,80
1495,8,4,8,80
1496,8,4,8,80
1497,8,4,8,80
1498,8,4,8,80
1499,8,4,8,80
1500,8,4,8,80
1501,8,4,8,80
1502,8,4,7,81
1503,7,5,7,81
1504,7,4,8,81
1505,7,3,9,81
1506,7,3,9,81
1507,7,3,9,81
1508,7,3,9,81
1509,7,3,9,81
1510,7,3,9,81
1511,7,3,9,81
1512,7,3,8,82
1513,7,3,8,82
1514,7,3,8,82
1515,7,3,8,82
1516,7,3,8,82
1517,7,3,8,82
1518,7,3,8,82
1519,7,3,8,82
1520,7,3,8,82
1521,7,3,8,82
1522,7,3,8,82
1523,7,3,8,82
1524,7,3,8,82
1525,7,3,8,82
1526,7,3,8,82
1527,7,3,8,82
1528,7,3,8,82
1529,7,3,8,82
1530,7,3,8,82
1531,7,3,8,82
1532,7,3,8,82
1533,7,3,8,82
1534,7,3,8,82
1535,7,3,8,82
1536,7,3,8,82
1537,7,3,8,82
1538,7,3,8,82
1539,7,3,8,82
1540,7,3,8,82
1541,7,3,8,82
1542,7,3,7,83
1543,7,3,7,83
1544,7,3,7,83
1545,7,3,7,83
1546,7,3,7,83
1547,7,3,7,83
1548,7,3,7,83
1549,7,3,7,83
1550,7,3,6,84
1551,7,3,6,84
1552,7,3,6,84
1553,7,3,5,85
1554,7,3,5,85
1555,7,3,5,85
1556,7,3,5,85
1557,7,3,5,85
1558,7,3,5,85
1559,7,3,5,85
1560,7,3,5,85
1561,7,3,5,85
1562,7,3,5,85
1563,7,3,5,85
1564,7,3,5,85
1565,7,3,5,85
1566,7,3,5,85
1567,7,3,5,85
1568,7,3,5,85
1569,7,3,5,85
1570,7,3,5,85
1571,7,3,5,85
1572,7,3,5,85
1573,7,3,5,85
1574,7,3,5,85
1575,7,3,5,85
1576,7,3,5,85
1577,7,3,5,85
1578,7,3,5,85
1579,7,3,5,85
1580,7,3,5,85
1581,7,3,5,85
1582,7,3,5,85
1583,7,3,5,85
1584,7,2,6,85
1585,7,2,6,85
1586,7,2,6,85
1587,7,2,6,85
1588,7,2,6,85
1589,7,2,6,85
1590,7,2,6,85
1591,7,2,6,85
1592,7,2,6,85
1593,7,2,6,85
1594,7,2,6,85
1595,7,2,6,85
1596,7,2,6,85
1597,7,2,6,85
1598,7,2,6,85
1599,7,2,6,85
1600,7,2,6,85
1601,7,2,6,85
1602,7,2,6,85
1603,7,2,6,85
1604,7,2,6,85
1605,7,2,6,85
1606,7,2,6,85
1607,7,2,6,85
1608,7,2,6,85
1609,7,2,6,85
1610,7,2,6,85
1611,7,2,6,85
1612,7,2,6,85
1613,7,2,6,85
1614,7,2,6,85
1615,7,2,6,85
1616,7,2,6,85
1617,7,2,6,85
1618,7,2,6,85
1619,7,2,6,85
1620,7,2,6,85
1621,7,2,6,85
1622,7,2,6,85
1623,7,2,6,85
1624,7,2,6,85
1625,7,2,6,85
1626,7,2,6,85
1627,7,2,6,85
1628,7,2,6,85
1629,7,2,6,85
1630,7,2,6,85
1631,7,2,5,86
1632,7,2,5,86
1633,7,2,5,86
1634,7,2,5,86
1635,7,2,5,86
1636,7,2,5,86
1637,7,2,5,86
1638,7,2,4,87
1639,7,2,4,87
1640,7,2,4,87
1641,7,2,4,87
1642,7,1,5,87
1643,7,1,5,87
1644,7,1,5,87
1645,7,1,5,87
1646,7,1,5,87
1647,7,1,5,87
1648,7,1,5,87
1649,7,1,5,87
1650,7,1,5,87
1651,7,1,5,87
1652,7,1,5,87
1653,7,1,5,87
1654,7,1,5,87
1655,7,1,5,87
1656,7,1,4,88
1657,7,1,4,88
1658,7,1,4,88
1659,7,1,4,88
1660,7,1,4,88
1661,7,1,4,88
1662,7,1,4,88
1663,7,1,4,88
1664,7,1,4,88
1665,7,1,4,88
1666,7,1,4,88
1667,7,1,4,88
1668,7,1,4,88
1669,7,1,4,88
1670,7,1,4,88
1671,7,1,4,88
1672,7,1,4,88
1673,7,1,4,88
1674,7,1,4,88
1675,7,1,4,88
1676,7,1,4,88
1677,7,1,4,88
1678,7,1,4,88
1679,7,1,4,88
1680,7,1,4,88
1681,7,1,4,88
1682,7,1,4,88
1683,7,1,4,88
1684,7,1,4,88
1685,7,1,4,88
1686,7,1,4,88
1687,7,1,4,88
1688,7,1,4,88
1689,7,1,4,88
1690,7,1,4,88
1691,7,1,4,88
1692,7,1,4,88
1693,7,1,4,88
1694,7,1,4,88
1695,7,1,4,88
1696,7,1,4,88
1697,7,1,4,88
1698,7,1,4,88
1699,7,1,4,88
1700,7,1,4,88
1701,7,1,4,88
1702,7,1,4,88
1703,7,1,4,88
1704,7,0,5,88
1705,7,0,4,89
1706,7,0,3,90
1707,7,0,3,90
1708,7,0,3,90
1709,7,0,3,90
1710,7,0,3,90
1711,7,0,3,90
1712,7,0,3,90
1713,7,0,3,90
1714,7,0,3,90
1715,7,0,3,90
1716,7,0,3,90
1717,7,0,3,90
1718,7,0,3,90
1719,7,0,3,90
1720,7,0,3,90
1721,7,0,3,90
1722,7,0,3,90
1723,7,0,3,90
1724,7,0,3,90
1725,7,0,3,90
1726,7,0,3,90
1727,7,0,3,90
1728,7,0,3,90
1729,7,0,3,90
1730,7,0,3,90
1731,7,0,3,90
1732,7,0,3,90
1733,7,0,3,90
1734,7,0,3,90
1735,7,0,3,90
1736,7,0,3,90
1737,7,0,3,90
1738,7,0,3,90
1739,7,0,3,90
1740,7,0,3,90
1741,7,0,3,90
1742,7,0,3,90
1743,7,0,3,90
1744,7,0,3,90
1745,7,0,3,90
1746,7,0,3,90
1747,7,0,3,90
1748,7,0,3,90
1749,7,0,3,90
1750,7,0,3,90
1751,7,0,3,90
1752,7,0,3,90
1753,7,0,3,90
1754,7,0,3,90
1755,7,0,3,90
1756,7,0,3,90
1757,7,0,3,90
1758,7,0,3,90
1759,7,0,3,90
1760,7,0,3,90
1761,7,0,3,90
1762,7,0,3,90
1763,7,0,3,90
1764,7,0,3,90
1765,7,0,3,90
1766,7,0,3,90
1767,7,0,3,90
1768,7,0,3,90
1769,7,0,3,90
1770,7,0,3,90
1771,7,0,3,90
1772,7,0,3,90
1773,7,0,3,90
1774,7,0,3,90
1775,7,0,3,90
1776,7,0,3,90
1777,7,0,3,90
1778,7,0,3,90
1779,7,0,3,90
1780,7,0,3,90
1781,7,0,3,90
1782,7,0,3,90
1783,7,0,3,90
1784,7,0,3,90
1785,7,0,2,91
1786,7,0,2,91
1787,7,0,2,91
1788,7,0,2,91
1789,7,0,2,91
1790,7,0,2,91
1791,7,0,2,91
1792,7,0,2,91
1793,7,0,2,91
1794,7,0,2,91
1795,7,0,2,91
1796,7,0,2,91
1797,7,0,2,91
1798,7,0,2,91
1799,7,0,2,91
1800,7,0,2,91
1801,7,0,2,91
1802,7,0,2,91
1803,7,0,2,91
1804,7,0,2,91
1805,7,0,2,91
1806,7,0,2,91
1807,7,0,2,91
1808,7,0,2,91
1809,7,0,2,91
1810,7,0,2,91
1811,7,0,2,91
1812,7,0,2,91
1813,7,0,2,91
1814,7,0,2,91
1815,7,0,2,91
1816,7,0,2,91
1817,7,0,2,91
1818,7,0,2,91
1819,7,0,2,91
1820,7,0,2,91
1821,7,0,2,91
1822,7,0,2,91
1823,7,0,2,91
1824,7,0,2,91
1825,7,0,2,91
1826,7,0,2,91
1827,7,0,2,91
1828,7,0,2,91
1829,7,0,2,91
1830,7,0,2,91
1831,7,0,2,91
1832,7,0,2,91
1833,7,0,2,91
1834,7,0,2,91
1835,7,0,2,91
1836,7,0,2,91
1837,7,0,2,91
1838,7,0,2,91
1839,7,0,2,91
1840,7,0,2,91
1841,7,0,2,91
1842,7,0,2,91
1843,7,0,1,92
1844,7,0,1,92
1845,7,0,1,92
1846,7,0,1,92
1847,7,0,1,92
1848,7,0,1,92
1849,7,0,1,92
1850,7,0,1,92
1851,7,0,1,92
1852,7,0,1,92
1853,7,0,1,92
1854,7,0,1,92
1855,7,0,1,92
1856,7,0,1,92
1857,7,0,1,92
1858,7,0,1,92
1859,7,0,1,92
1860,7,0,1,92
1861,7,0,1,92
1862,7,0,1,92
1863,7,0,1,92
1864,7,0,1,92
1865,7,0,1,92
1866,7,0,1,92
1867,7,0,1,92
1868,7,0,1,92
1869,7,0,1,92
1870,7,0,1,92
1871,7,0,1,92
1872,7,0,1,92
1873,7,0,1,92
1874,7,0,1,92
1875,7,0,1,92
1876,7,0,1,92
1877,7,0,1,92
1878,7,0,1,92
1879,7,0,1,92
1880,7,0,1,92
1881,7,0,1,92
1882,7,0,1,92
1883,7,0,1,92
1884,7,0,1,92
1885,7,0,1,92
1886,7,0,1,92
1887,7,0,1,92
1888,7,0,1,92
1889,7,0,1,92
1890,7,0,1,92
1891,7,0,1,92
1892,7,0,1,92
1893,7,0,1,92
1894,7,0,1,92
1895,7,0,1,92
1896,7,0,1,92
1897,7,0,1,92
1898,7,0,1,92
1899,7,0,1,92
1900,7,0,1,92
1901,7,0,1,92
1902,7,0,1,92
1903,7,0,1,92
1904,7,0,1,92
1905,7,0,0,93
1906,7,0,0,93
1907,7,0,0,93
1908,7,0,0,93
1909,7,0,0,93
1910,7,0,0,93
1911,7,0,0,93
1912,7,0,0,93
1913,7,0,0,93
1914,7,0,0,93
1915,7,0,0,93
1916,7,0,0,93
1917,7,0,0,93
1918,7,0,0,93
1919,7,0,0,93
1920,7,0,0,93
1921,7,0,0,93
1922,7,0,0,93
1923,7,0,0,93
1924,7,0,0,93
1925,7,0,0,93
1926,7,0,0,93
1927,7,0,0,93
1928,7,0,0,93
1929,7,0,0,93
1930,7,0,0,93
1931,7,0,0,93
1932,7,0,0,93
1933,7,0,0,93
1934,7,0,0,93
1935,7,0,0,93
1936,7,0,0,93
1937,7,0,0,93
1938,7,0,0,93
1939,7,0,0,93
1940,7,0,0,93
1941,7,0,0,93
1942,7,0,0,93
1943,7,0,0,93
1944,7,0,0,93
1945,7,0,0,93
1946,7,0,0,93
1947,7,0,0,93
1948,7,0,0,93
1949,7,0,0,93
1950,7,0,0,93
1951,7,0,0,93
1952,7,0,0,93
1953,7,0,0,93
1954,7,0,0,93
1955,7,0,0,93
1956,7,0,0,93
1957,7,0,0,93
1958,7,0,0,93
1959,7,0,0,93
1960,7,0,0,93
1961,7,0,0,93
1962,7,0,0,93
1963,7,0,0,93
1964,7,0,0,93
1965,7,0,0,93
1966,7,0,0,93
1967,7,0,0,93
1968,7,0,0,93
1969,7,0,0,93
1970,7,0,0,93
1971,7,0,0,93
1972,7,0,0,93
1973,7,0,0,93
1974,7,0,0,93
1975,7,0,0,93
1976,7,0,0,93
1977,7,0,0,93
1978,7,0,0,93
1979,7,0,0,93
1980,7,0,0,93
1981,7,0,0,93
1982,7,0,0,93
1983,7,0,0,93
1984,7,0,0,93
1985,7,0,0,93
1986,7,0,0,93
1987,7,0,0,93
1988,7,0,0,93
1989,7,0,0,93
1990,7,0,0,93
1991,7,0,0,93
1992,7,0,0,93
1993,7,0,0,93
1994,7,0,0,93
1995,7,0,0,93
1996,7,0,0,93
1997,7,0,0,93
1998,7,0,0,93
1999,7,0,0,93
2000,7,0,0,93
