"tick","total"
0,0
1,0
2,0
3,0
4,0
5,0
6,0
7,0
8,0
9,0
10,0
11,0
12,0
13,0
14,0
15,0
16,1
17,2
18,2
19,2
20,2
21,3
22,3
23,3
24,3
25,3
26,3
27,3
28,3
29,3
30,3
31,3
32,3
33,3
34,3
35,3
36,3
37,3
38,3
39,3
40,3
41,3
42,3
43,3
44,3
45,3
46,3
47,4
48,4
49,4
50,4
51,4
52,4
53,4
54,4
55,4
56,4
57,4
58,4
59,4
60,4
61,4
62,5
63,5
64,5
65,5
66,5
67,5
68,5
69,6
70,6
71,6
72,6
73,6
74,6
75,6
76,6
77,6
78,6
79,6
80,6
81,6
82,7
83,7
84,7
85,7
86,7
87,7
88,7
89,7
90,7
91,7
92,7
93,7
94,7
95,7
96,7
97,7
98,7
99,7
100,7
101,7
102,7
103,7
104,7
105,7
106,7
107,8
108,8
109,9
110,9
111,9
112,9
113,9
114,9
115,9
116,9
117,9
118,9
119,9
120,9
121,9
122,10
123,10
124,10
125,10
126,10
127,10
128,10
129,10
130,10
131,10
132,10
133,10
134,10
135,10
136,10
137,10
138,10
139,10
140,10
141,10
142,10
143,10
144,10
145,11
146,11
147,11
148,11
149,12
150,13
151,14
152,15
153,16
154,17
155,18
156,18
157,18
158,18
159,18
160,18
161,18
162,18
163,18
164,18
165,18
166,18
167,18
168,18
169,18
170,18
171,18
172,18
173,18
174,18
175,18
176,18
177,18
178,18
179,18
180,18
181,19
182,19
183,19
184,19
185,20
186,20
187,20
188,20
189,20
190,20
191,21
192,22
193,22
194,22
195,22
196,22
197,22
198,22
199,22
200,22
201,22
202,22
203,22
204,22
205,22
206,22
207,22
208,23
209,23
210,23
211,23
212,23
213,23
214,23
215,23
216,23
217,23
218,23
219,23
220,23
221,23
222,23
223,23
224,24
225,24
226,24
227,24
228,24
229,24
230,24
231,24
232,24
233,25
234,25
235,25
236,25
237,25
238,25
239,25
240,26
241,26
242,26
243,26
244,26
245,26
246,26
247,26
248,26
249,26
250,26
251,26
252,26
253,27
254,27
255,27
256,27
257,27
258,27
259,27
260,27
261,27
262,27
263,27
264,27
265,27
266,27
267,27
268,28
269,28
270,28
271,28
272,28
273,28
274,28
275,28
276,28
277,28
278,28
279,28
280,28
281,28
282,28
283,28
284,28
285,28
286,28
287,28
288,28
289,28
290,28
291,29
292,29
293,29
294,29
295,29
296,29
297,30
298,30
299,30
300,30
301,30
302,30
303,31
304,31
305,31
306,31
307,31
308,31
309,32
310,32
311,32
312,32
313,32
314,32
315,32
316,32
317,32
318,32
319,32
320,32
321,32
322,32
323,32
324,32
325,33
326,33
327,34
328,34
329,34
330,34
331,34
332,34
333,34
334,34
335,34
336,34
337,34
338,34
339,34
340,34
341,34
342,34
343,34
344,34
345,35
346,35
347,35
348,35
349,35
350,35
351,35
352,35
353,35
354,35
355,35
356,35
357,35
358,35
359,35
360,35
361,35
362,35
363,35
364,35
365,35
366,35
367,35
368,35
369,35
370,35
371,35
372,35
373,35
374,35
375,36
376,36
377,36
378,36
379,36
380,36
381,36
382,36
383,36
384,36
385,36
386,36
387,36
388,36
389,36
390,36
391,36
392,36
393,36
394,36
395,36
396,36
397,36
398,36
399,36
400,36
401,37
402,37
403,37
404,37
405,37
406,37
407,37
408,37
409,37
410,37
411,37
412,38
413,38
414,38
415,39
416,40
417,40
418,40
419,40
420,41
421,41
422,41
423,41
424,41
425,41
426,41
427,41
428,41
429,41
430,41
431,41
432,41
433,41
434,41
435,41
436,41
437,41
438,41
439,41
440,41
441,41
442,41
443,41
444,41
445,41
446,41
447,42
448,43
449,43
450,43
451,43
452,43
453,43
454,43
455,43
456,43
457,43
458,43
459,43
460,43
461,43
462,43
463,43
464,43
465,43
466,43
467,43
468,43
469,43
470,43
471,43
472,43
473,43
474,43
475,43
476,43
477,43
478,43
479,43
480,43
481,43
482,43
483,43
484,43
485,43
486,43
487,45
488,45
489,45
490,45
491,46
492,46
493,46
494,46
495,46
496,46
497,47
498,48
499,48
500,48
501,48
502,48
503,48
504,48
505,48
506,48
507,48
508,48
509,48
510,48
511,48
512,48
513,48
514,48
515,50
516,50
517,50
518,50
519,50
520,50
521,50
522,50
523,50
524,51
525,51
526,51
527,51
528,51
529,51
530,51
531,51
532,51
533,51
534,51
535,52
536,52
537,52
538,52
539,52
540,52
541,52
542,52
543,53
544,53
545,53
546,53
547,53
548,53
549,53
550,53
551,53
552,53
553,53
554,53
555,53
556,53
557,54
558,54
559,54
560,54
561,54
562,54
563,54
564,54
565,54
566,54
567,54
568,54
569,54
570,54
571,54
572,54
573,54
574,54
575,54
576,54
577,54
578,54
579,54
580,54
581,54
582,54
583,54
584,54
585,54
586,54
587,54
588,54
589,54
590,54
591,54
592,54
593,54
594,54
595,54
596,54
597,54
598,54
599,54
600,54
601,54
602,54
603,54
604,54
605,54
606,55
607,55
608,55
609,55
610,55
611,56
612,56
613,56
614,56
615,56
616,56
617,56
618,56
619,56
620,56
621,56
622,56
623,56
624,56
625,56
626,56
627,56
628,56
629,56
630,56
631,56
632,56
633,56
634,57
635,57
636,57
637,57
638,57
639,57
640,57
641,57
642,57
643,57
644,57
645,57
646,58
647,58
648,58
649,58
650,58
651,58
652,58
653,58
654,58
655,58
656,58
657,58
658,58
659,59
660,59
661,59
662,59
663,59
664,59
665,59
666,59
667,59
668,59
669,59
670,59
671,59
672,59
673,59
674,59
675,59
676,59
677,59
678,59
679,59
680,59
681,59
682,59
683,59
684,59
685,59
686,59
687,59
688,59
689,59
690,59
691,59
692,59
693,59
694,59
695,60
696,61
697,62
698,62
699,62
700,62
701,62
702,62
703,62
704,62
705,62
706,62
707,62
708,62
709,62
710,62
711,62
712,62
713,62
714,62
715,62
716,62
717,62
718,62
719,62
720,62
721,62
722,62
723,62
724,62
725,62
726,62
727,62
728,62
729,62
730,62
731,62
732,62
733,62
734,62
735,62
736,62
737,62
738,62
739,62
740,63
741,63
742,63
743,63
744,64
745,64
746,64
747,64
748,64
749,64
750,64
751,64
752,64
753,64
754,64
755,64
756,64
757,64
758,64
759,64
760,64
761,64
762,65
763,65
764,65
765,65
766,65
767,65
768,65
769,65
770,65
771,65
772,65
773,66
774,66
775,66
776,66
777,66
778,66
779,66
780,66
781,66
782,66
783,66
784,67
785,67
786,67
787,67
788,67
789,67
790,67
791,67
792,67
793,67
794,67
795,67
796,67
797,67
798,67
799,67
800,67
801,67
802,67
803,67
804,67
805,67
806,67
807,67
808,67
809,67
810,67
811,67
812,67
813,67
814,68
815,69
816,69
817,70
818,70
819,70
820,70
821,70
822,70
823,70
824,70
825,71
826,71
827,71
828,71
829,71
830,71
831,71
832,72
833,72
834,72
835,72
836,72
837,72
838,72
839,72
840,72
841,72
842,72
843,72
844,72
845,72
846,72
847,72
848,72
849,72
850,72
851,72
852,72
853,72
854,72
855,72
856,72
857,72
858,72
859,73
860,73
861,73
862,73
863,73
864,73
865,73
866,73
867,74
868,74
869,74
870,74
871,74
872,74
873,74
874,74
875,74
876,74
877,74
878,74
879,74
880,74
881,74
882,74
883,74
884,74
885,75
886,75
887,75
888,75
889,75
890,75
891,75
892,75
893,75
894,75
895,75
896,75
897,75
898,75
899,75
900,75
901,75
902,75
903,75
904,75
905,75
906,76
907,76
908,76
909,76
910,76
911,76
912,76
913,76
914,76
915,76
916,76
917,76
918,76
919,76
920,76
921,76
922,76
923,76
924,76
925,76
926,76
927,76
928,76
929,76
930,77
931,77
932,77
933,77
934,77
935,77
936,77
937,77
938,77
939,77
940,77
941,77
942,77
943,77
944,77
945,77
946,77
947,77
948,77
949,77
950,77
951,77
952,77
953,77
954,77
955,77
956,78
957,78
958,78
959,78
960,78
961,78
962,78
963,78
964,78
965,78
966,78
967,78
968,78
969,78
970,78
971,78
972,78
973,78
974,78
975,78
976,78
977,78
978,78
979,78
980,78
981,78
982,78
983,78
984,79
985,79
986,80
987,80
988,80
989,80
990,80
991,80
992,80
993,80
994,80
995,80
996,80
997,80
998,80
999,80
1000,80
1001,80
1002,81
1003,81
1004,81
1005,81
1006,81
1007,81
1008,81
1009,81
1010,81
1011,81
1012,82
1013,82
1014,82
1015,82
1016,82
1017,82
1018,82
1019,82
1020,82
1021,82
1022,82
1023,82
1024,82
1025,82
1026,82
1027,82
1028,82
1029,82
1030,82
1031,82
1032,82
1033,82
1034,82
1035,82
1036,82
1037,82
1038,82
1039,82
1040,82
1041,82
1042,82
1043,82
1044,82
1045,82
1046,82
1047,82
1048,82
1049,82
1050,82
1051,82
1052,82
1053,82
1054,83
1055,83
1056,83
1057,83
1058,83
1059,83
1060,83
1061,83
1062,83
1063,84
1064,84
1065,84
1066,84
1067,84
1068,85
1069,85
1070,85
1071,86
1072,86
1073,86
1074,86
1075,87
1076,87
1077,88
1078,88
1079,88
1080,88
1081,88
1082,88
1083,88
1084,88
1085,88
1086,88
1087,88
1088,88
1089,88
1090,88
1091,88
1092,88
1093,88
1094,88
1095,89
1096,90
1097,90
1098,91
1099,91
1100,91
1101,92
1102,92
1103,92
1104,92
1105,92
1106,92
1107,93
1108,93
1109,93
1110,93
1111,94
1112,94
1113,94
1114,94
1115,94
1116,94
1117,95
1118,95
1119,95
1120,95
1121,95
1122,95
1123,95
1124,95
1125,95
1126,95
1127,95
1128,95
1129,95
1130,95
1131,95
1132,95
1133,95
1134,95
1135,95
1136,95
1137,95
1138,95
1139,95
1140,95
1141,95
1142,95
1143,95
1144,95
1145,95
1146,95
1147,95
1148,95
1149,95
1150,96
1151,96
1152,96
1153,96
1154,96
1155,97
1156,97
1157,97
1158,97
1159,97
1160,97
1161,97
1162,97
1163,98
1164,98
1165,98
1166,98
1167,98
1168,98
1169,99
1170,99
1171,99
1172,99
1173,99
1174,99
1175,99
1176,99
1177,99
1178,99
1179,99
1180,99
1181,100
1182,100
1183,100
1184,100
1185,100
1186,100
1187,100
1188,100
1189,100
1190,100
1191,100
1192,100
1193,100
1194,100
1195,100
1196,100
1197,100
1198,100
1199,100
1200,100
1201,100
1202,100
1203,100
1204,100
1205,100
1206,100
1207,100
1208,100
1209,100
1210,101
1211,101
1212,101
1213,101
1214,101
1215,101
1216,101
1217,101
1218,101
1219,101
1220,101
1221,102
1222,103
1223,103
1224,103
1225,104
1226,104
1227,104
1228,104
1229,105
1230,105
1231,105
1232,106
1233,106
1234,106
1235,106
1236,106
1237,106
1238,106
1239,106
1240,106
1241,106
1242,106
1243,106
1244,106
1245,106
1246,106
1247,106
1248,106
1249,106
1250,106
1251,106
1252,106
1253,106
1254,106
1255,107
1256,107
1257,107
1258,107
1259,107
1260,107
1261,107
1262,107
1263,108
1264,108
1265,108
1266,108
1267,108
1268,108
1269,108
1270,109
1271,109
1272,109
1273,109
1274,109
1275,109
1276,109
1277,110
1278,111
1279,111
1280,111
1281,111
1282,111
1283,111
1284,111
1285,111
1286,111
1287,111
1288,111
1289,111
1290,111
1291,111
1292,111
1293,111
1294,111
1295,111
1296,111
1297,111
1298,111
1299,111
1300,111
1301,111
1302,111
1303,111
1304,111
1305,111
1306,111
1307,111
1308,111
1309,111
1310,111
1311,111
1312,111
1313,111
1314,111
1315,111
1316,111
1317,111
1318,111
1319,111
1320,111
1321,111
1322,111
1323,111
1324,111
1325,111
1326,111
1327,111
1328,111
1329,111
1330,111
1331,111
1332,111
1333,112
1334,112
1335,113
1336,114
1337,114
1338,114
1339,115
1340,115
1341,115
1342,115
1343,115
1344,115
1345,115
1346,115
1347,115
1348,115
1349,115
1350,115
1351,115
1352,115
1353,115
1354,115
1355,115
1356,115
1357,115
1358,115
1359,115
1360,116
1361,116
1362,116
1363,116
1364,116
1365,116
1366,116
1367,116
1368,116
1369,117
1370,117
1371,118
1372,118
1373,118
1374,119
1375,119
1376,119
1377,119
1378,119
1379,119
1380,119
1381,119
1382,119
1383,119
1384,119
1385,119
1386,119
1387,119
1388,119
1389,119
1390,120
1391,120
1392,120
1393,120
1394,120
1395,121
1396,121
1397,121
1398,121
1399,121
1400,121
1401,121
1402,121
1403,121
1404,121
1405,121
1406,121
1407,121
1408,121
1409,121
1410,121
1411,121
1412,121
1413,121
1414,121
1415,121
1416,121
1417,121
1418,121
1419,121
1420,121
1421,121
1422,121
1423,121
1424,121
1425,121
1426,121
1427,121
1428,121
1429,121
1430,121
1431,121
1432,121
1433,121
1434,121
1435,121
1436,121
1437,121
1438,121
1439,121
1440,121
1441,121
1442,121
1443,121
1444,121
1445,122
1446,122
1447,122
1448,122
1449,122
1450,122
1451,122
1452,122
1453,122
1454,122
1455,122
1456,122
1457,122
1458,122
1459,122
1460,122
1461,122
1462,122
1463,122
1464,122
1465,122
1466,122
1467,122
1468,122
1469,122
1470,122
1471,122
1472,122
1473,122
1474,122
1475,122
1476,122
1477,122
1478,122
1479,122
1480,122
1481,122
1482,122
1483,122
1484,122
1485,122
1486,122
1487,122
1488,122
1489,122
1490,122
1491,122
1492,122
1493,122
1494,122
1495,122
1496,122
1497,122
1498,122
1499,122
1500,122
1501,122
1502,122
1503,122
1504,122
1505,122
1506,122
1507,122
1508,122
1509,122
1510,123
1511,123
1512,123
1513,123
1514,125
1515,125
1516,125
1517,125
1518,125
1519,125
1520,125
1521,125
1522,125
1523,125
1524,125
1525,125
1526,125
1527,125
1528,125
1529,125
1530,126
1531,126
1532,126
1533,126
1534,127
1535,127
1536,127
1537,127
1538,129
1539,129
1540,129
1541,129
1542,129
1543,129
1544,129
1545,129
1546,129
1547,130
1548,130
1549,130
1550,130
1551,130
1552,130
1553,130
1554,131
1555,131
1556,131
1557,131
1558,131
1559,131
1560,131
1561,131
1562,131
1563,131
1564,131
1565,131
1566,131
1567,131
1568,132
1569,132
1570,132
1571,132
1572,132
1573,132
1574,132
1575,132
1576,132
1577,132
1578,132
1579,132
1580,132
1581,133
1582,135
1583,135
1584,135
1585,135
1586,135
1587,135
1588,135
1589,135
1590,135
1591,135
1592,135
1593,135
1594,135
1595,135
1596,135
1597,135
1598,135
1599,135
1600,135
1601,135
1602,135
1603,136
1604,136
1605,136
1606,136
1607,136
1608,136
1609,136
1610,136
1611,136
1612,136
1613,136
1614,136
1615,136
1616,136
1617,136
1618,136
1619,136
1620,136
1621,136
1622,136
1623,136
1624,136
1625,136
1626,136
1627,136
1628,136
1629,136
1630,136
1631,136
1632,136
1633,136
1634,136
1635,136
1636,136
1637,136
1638,136
1639,136
1640,136
1641,136
1642,136
1643,136
1644,136
1645,136
1646,136
1647,136
1648,136
1649,136
1650,136
1651,136
1652,136
1653,136
1654,136
1655,136
1656,136
1657,136
1658,136
1659,136
1660,136
1661,137
1662,137
1663,137
1664,137
1665,137
1666,137
1667,137
1668,138
1669,138
1670,138
1671,138
1672,138
1673,138
1674,138
1675,138
1676,138
1677,138
1678,138
1679,138
1680,138
1681,138
1682,139
1683,139
1684,139
1685,139
1686,139
1687,139
1688,139
1689,139
1690,139
1691,139
1692,139
1693,139
1694,139
1695,139
1696,139
1697,139
1698,139
1699,139
1700,139
1701,139
1702,139
1703,139
1704,139
1705,139
1706,139
1707,139
1708,139
1709,139
1710,139
1711,139
1712,139
1713,139
1714,139
1715,139
1716,139
1717,139
1718,139
1719,139
1720,139
1721,139
1722,139
1723,139
1724,139
1725,139
1726,139
1727,139
1728,139
1729,139
1730,139
1731,139
1732,139
1733,139
1734,139
1735,139
1736,139
1737,139
1738,139
1739,139
1740,139
1741,139
1742,139
1743,139
1744,139
1745,139
1746,140
1747,140
1748,141
1749,141
1750,141
1751,141
1752,141
1753,141
1754,141
1755,141
1756,141
1757,141
1758,141
1759,141
1760,141
1761,141
1762,141
1763,141
1764,142
1765,142
1766,142
1767,142
1768,142
1769,142
1770,142
1771,142
1772,143
1773,143
1774,143
1775,143
1776,143
1777,143
1778,143
1779,143
1780,143
1781,143
1782,143
1783,143
1784,143
1785,143
1786,143
1787,143
1788,143
1789,143
1790,143
1791,143
1792,143
1793,143
1794,144
1795,144
1796,144
1797,144
1798,144
1799,144
1800,145
1801,145
1802,145
1803,145
1804,145
1805,145
1806,145
1807,145
1808,145
1809,145
1810,145
1811,145
1812,145
1813,145
1814,145
1815,145
1816,145
1817,145
1818,145
1819,145
1820,145
1821,145
1822,145
1823,145
1824,145
1825,145
1826,145
1827,145
1828,145
1829,145
1830,145
1831,145
1832,145
1833,146
1834,146
1835,146
1836,146
1837,146
1838,146
1839,146
1840,146
1841,146
1842,146
1843,146
1844,146
1845,146
1846,146
1847,146
1848,146
1849,146
1850,147
1851,147
1852,147
1853,147
1854,147
1855,147
1856,148
1857,148
1858,148
1859,148
1860,148
1861,148
1862,148
1863,148
1864,148
1865,148
1866,148
1867,149
1868,149
1869,149
1870,149
1871,149
1872,149
1873,149
1874,149
1875,149
1876,149
1877,149
1878,149
1879,149
1880,149
1881,149
1882,149
1883,149
1884,149
1885,150
1886,150
1887,150
1888,150
1889,150
1890,150
1891,150
1892,150
1893,151
1894,151
1895,151
1896,151
1897,151
1898,151
1899,151
1900,151
1901,151
1902,151
1903,151
1904,151
1905,151
1906,151
1907,151
1908,151
1909,151
1910,151
1911,152
1912,152
1913,153
1914,153
1915,153
1916,153
1917,153
1918,153
1919,153
1920,153
1921,153
1922,153
1923,153
1924,153
1925,153
1926,153
1927,153
1928,153
1929,153
1930,153
1931,153
1932,153
1933,153
1934,153
1935,153
1936,153
1937,153
1938,153
1939,153
1940,153
1941,153
1942,153
1943,153
1944,153
1945,153
1946,153
1947,153
1948,153
1949,153
1950,153
1951,153
1952,153
1953,153
1954,153
1955,153
1956,153
1957,153
1958,153
1959,153
1960,153
1961,153
1962,153
1963,153
1964,153
1965,153
1966,153
1967,153
1968,153
1969,153
1970,153
1971,153
1972,153
1973,153
1974,153
1975,153
1976,153
1977,153
1978,153
1979,153
1980,153
1981,153
1982,153
1983,153
1984,153
1985,153
1986,153
1987,153
1988,153
1989,153
1990,153
1991,153
1992,153
1993,153
1994,154
1995,154
1996,154
1997,154
1998,154
1999,154
2000,154
