"tick","susceptible","exposed","infectious","recovered"
0,99,1,0,0
1,99,1,0,0
2,99,1,0,0
3,99,1,0,0
4,99,1,0,0
5,99,1,0,0
6,99,1,0,0
7,99,1,0,0
8,99,1,0,0
9,99,1,0,0
10,99,1,0,0
11,99,1,0,0
12,99,1,0,0
13,99,1,0,0
14,99,1,0,0
15,99,1,0,0
16,99,1,0,0
17,99,1,0,0
18,99,1,0,0
19,99,1,0,0
20,99,1,0,0
21,99,1,0,0
22,99,1,0,0
23,99,1,0,0
24,99,1,0,0
25,99,1,0,0
26,99,1,0,0
27,99,1,0,0
28,99,1,0,0
29,99,1,0,0
30,99,1,0,0
31,99,1,0,0
32,99,1,0,0
33,99,1,0,0
34,99,1,0,0
35,99,1,0,0
36,99,1,0,0
37,99,1,0,0
38,99,1,0,0
39,99,1,0,0
40,99,1,0,0
41,99,1,0,0
42,99,1,0,0
43,99,1,0,0
44,99,1,0,0
45,99,1,0,0
46,99,1,0,0
47,99,1,0,0
48,99,1,0,0
49,99,1,0,0
50,99,1,0,0
51,99,1,0,0
52,99,1,0,0
53,99,1,0,0
54,99,1,0,0
55,99,1,0,0
56,99,1,0,0
57,99,1,0,0
58,99,1,0,0
59,99,1,0,0
60,99,1,0,0
61,99,1,0,0
62,99,1,0,0
63,99,1,0,0
64,99,1,0,0
65,99,1,0,0
66,99,1,0,0
67,99,1,0,0
68,99,1,0,0
69,99,1,0,0
70,99,1,0,0
71,99,1,0,0
72,99,1,0,0
73,99,1,0,0
74,99,1,0,0
75,99,1,0,0
76,99,1,0,0
77,99,1,0,0
78,99,1,0,0
79,99,1,0,0
80,99,1,0,0
81,99,1,0,0
82,99,1,0,0
83,99,1,0,0
84,99,1,0,0
85,99,1,0,0
86,99,1,0,0
87,99,1,0,0
88,99,1,0,0
89,99,1,0,0
90,99,1,0,0
91,99,1,0,0
92,99,1,0,0
93,99,1,0,0
94,99,1,0,0
95,99,1,0,0
96,99,1,0,0
97,99,1,0,0
98,99,1,0,0
99,99,1,0,0
100,99,1,0,0
101,99,1,0,0
102,99,1,0,0
103,99,1,0,0
104,99,1,0,0
105,99,1,0,0
106,99,1,0,0
107,99,1,0,0
108,99,1,0,0
109,99,1,0,0
110,99,1,0,0
111,99,1,0,0
112,99,1,0,0
113,99,1,0,0
114,99,1,0,0
115,99,1,0,0
116,99,1,0,0
117,99,1,0,0
118,99,1,0,0
119,99,1,0,0
120,99,1,0,0
121,99,1,0,0
122,99,1,0,0
123,99,1,0,0
124,99,1,0,0
125,99,1,0,0
126,99,1,0,0
127,99,1,0,0
128,99,1,0,0
129,99,1,0,0
130,99,1,0,0
131,99,1,0,0
132,99,1,0,0
133,99,1,0,0
134,99,1,0,0
135,99,1,0,0
136,99,1,0,0
137,99,1,0,0
138,99,1,0,0
139,99,1,0,0
140,99,1,0,0
141,99,1,0,0
142,99,1,0,0
143,99,1,0,0
144,99,1,0,0
145,99,1,0,0
146,99,1,0,0
147,99,1,0,0
148,99,1,0,0
149,99,1,0,0
150,99,1,0,0
151,99,1,0,0
152,99,1,0,0
153,99,1,0,0
154,99,1,0,0
155,99,1,0,0
156,99,1,0,0
157,99,1,0,0
158,99,1,0,0
159,99,1,0,0
160,99,1,0,0
161,99,1,0,0
162,99,1,0,0
163,99,1,0,0
164,99,1,0,0
165,99,1,0,0
166,99,1,0,0
167,99,1,0,0
168,99,1,0,0
169,99,1,0,0
170,99,1,0,0
171,99,1,0,0
172,99,1,0,0
173,99,1,0,0
174,99,1,0,0
175,99,1,0,0
176,99,1,0,0
177,99,1,0,0
178,99,1,0,0
179,99,1,0,0
180,99,1,0,0
181,99,1,0,0
182,99,1,0,0
183,99,1,0,0
184,99,1,0,0
185,99,1,0,0
186,99,1,0,0
187,99,1,0,0
188,99,1,0,0
189,99,1,0,0
190,99,1,0,0
191,99,1,0,0
192,99,1,0,0
193,99,1,0,0
194,99,1,0,0
195,99,1,0,0
196,99,1,0,0
197,99,1,0,0
198,99,1,0,0
199,99,1,0,0
200,99,1,0,0
201,99,0,1,0
202,99,0,1,0
203,99,0,1,0
204,99,0,1,0
205,99,0,1,0
206,99,0,1,0
207,99,0,1,0
208,99,0,1,0
209,99,0,1,0
210,99,0,1,0
211,99,0,1,0
212,99,0,1,0
213,99,0,1,0
214,99,0,1,0
215,99,0,1,0
216,99,0,1,0
217,99,0,1,0
218,99,0,1,0
219,99,0,1,0
220,99,0,1,0
221,99,0,1,0
222,99,0,1,0
223,99,0,1,0
224,99,0,1,0
225,99,0,1,0
226,99,0,1,0
227,99,0,1,0
228,99,0,1,0
229,99,0,1,0
230,99,0,1,0
231,99,0,1,0
232,99,0,1,0
233,99,0,1,0
234,99,0,1,0
235,99,0,1,0
236,99,0,1,0
237,98,1,1,0
238,98,1,1,0
239,98,1,1,0
240,98,1,1,0
241,98,1,1,0
242,98,1,1,0
243,98,1,1,0
244,98,1,1,0
245,98,1,1,0
246,98,1,1,0
247,98,1,1,0
248,98,1,1,0
249,98,1,1,0
250,98,1,1,0
251,98,1,1,0
252,98,1,1,0
253,98,1,1,0
254,98,1,1,0
255,98,1,1,0
256,98,1,1,0
257,98,1,1,0
258,98,1,1,0
259,98,1,1,0
260,98,1,1,0
261,98,1,1,0
262,98,1,1,0
263,98,1,1,0
264,98,1,1,0
265,98,1,1,0
266,98,1,1,0
267,98,1,1,0
268,98,1,1,0
269,98,1,1,0
270,98,1,1,0
271,98,1,1,0
272,98,1,1,0
273,98,1,1,0
274,98,1,1,0
275,98,1,1,0
276,98,1,1,0
277,98,1,1,0
278,98,1,1,0
279,98,1,1,0
280,98,1,1,0
281,98,1,1,0
282,98,1,1,0
283,98,1,1,0
284,98,1,1,0
285,98,1,1,0
286,98,1,1,0
287,98,1,1,0
288,98,1,1,0
289,98,1,1,0
290,98,1,1,0
291,97,2,1,0
292,97,2,1,0
293,97,2,1,0
294,97,2,1,0
295,97,2,1,0
296,97,2,1,0
297,97,2,1,0
298,97,2,1,0
299,97,2,1,0
300,97,2,1,0
301,97,2,1,0
302,97,2,1,0
303,97,2,1,0
304,97,2,1,0
305,97,2,1,0
306,97,2,1,0
307,97,2,1,0
308,97,2,1,0
309,97,2,1,0
310,97,2,1,0
311,97,2,1,0
312,97,2,1,0
313,97,2,1,0
314,97,2,1,0
315,97,2,1,0
316,97,2,1,0
317,97,2,1,0
318,97,2,1,0
319,97,2,1,0
320,97,2,1,0
321,97,2,1,0
322,97,2,1,0
323,97,2,1,0
324,97,2,1,0
325,97,2,1,0
326,97,2,1,0
327,97,2,1,0
328,97,2,1,0
329,97,2,1,0
330,97,2,1,0
331,97,2,1,0
332,97,2,1,0
333,97,2,1,0
334,97,2,1,0
335,97,2,1,0
336,97,2,1,0
337,97,2,1,0
338,97,2,1,0
339,97,2,1,0
340,97,2,1,0
341,97,2,1,0
342,97,2,1,0
343,97,2,1,0
344,97,2,1,0
345,97,2,1,0
346,97,2,1,0
347,97,2,1,0
348,97,2,1,0
349,97,2,1,0
350,97,2,1,0
351,97,2,1,0
352,97,2,1,0
353,97,2,1,0
354,97,2,1,0
355,97,2,1,0
356,97,2,1,0
357,97,2,1,0
358,97,2,1,0
359,97,2,1,0
360,97,2,1,0
361,97,2,1,0
362,97,2,1,0
363,97,2,1,0
364,97,2,1,0
365,97,2,1,0
366,97,2,1,0
367,97,2,1,0
368,97,2,1,0
369,97,2,1,0
370,97,2,1,0
371,97,2,1,0
372,97,2,1,0
373,97,2,1,0
374,97,2,1,0
375,97,2,1,0
376,97,2,1,0
377,97,2,1,0
378,97,2,1,0
379,97,2,1,0
380,97,2,1,0
381,97,2,1,0
382,97,2,1,0
383,97,2,1,0
384,97,2,1,0
385,97,2,1,0
386,97,2,1,0
387,97,2,1,0
388,97,2,1,0
389,97,2,1,0
390,97,2,1,0
391,97,2,1,0
392,97,2,1,0
393,97,2,1,0
394,97,2,1,0
395,97,2,1,0
396,97,2,1,0
397,97,2,1,0
398,97,2,1,0
399,97,2,1,0
400,97,2,1,0
401,97,2,1,0
402,97,2,0,1
403,97,2,0,1
404,97,2,0,1
405,97,2,0,1
406,97,2,0,1
407,97,2,0,1
408,97,2,0,1
409,97,2,0,1
410,97,2,0,1
411,97,2,0,1
412,97,2,0,1
413,97,2,0,1
414,97,2,0,1
415,97,2,0,1
416,97,2,0,1
417,97,2,0,1
418,97,2,0,1
419,97,2,0,1
420,97,2,0,1
421,97,2,0,1
422,97,2,0,1
423,97,2,0,1
424,97,2,0,1
425,97,2,0,1
426,97,2,0,1
427,97,2,0,1
428,97,2,0,1
429,97,2,0,1
430,97,2,0,1
431,97,2,0,1
432,97,2,0,1
433,97,2,0,1
434,97,2,0,1
435,97,2,0,1
436,97,2,0,1
437,97,2,0,1
438,97,1,1,1
439,97,1,1,1
440,97,1,1,1
441,97,1,1,1
442,97,1,1,1
443,97,1,1,1
444,97,1,1,1
445,97,1,1,1
446,97,1,1,1
447,97,1,1,1
448,97,1,1,1
449,97,1,1,1
450,97,1,1,1
451,97,1,1,1
452,97,1,1,1
453,97,1,1,1
454,97,1,1,1
455,97,1,1,1
456,97,1,1,1
457,97,1,1,1
458,97,1,1,1
459,97,1,1,1
460,97,1,1,1
461,97,1,1,1
462,97,1,1,1
463,97,1,1,1
464,97,1,1,1
465,97,1,1,1
466,97,1,1,1
467,97,1,1,1
468,97,1,1,1
469,97,1,1,1
470,97,1,1,1
471,97,1,1,1
472,97,1,1,1
473,97,1,1,1
474,97,1,1,1
475,97,1,1,1
476,97,1,1,1
477,97,1,1,1
478,97,1,1,1
479,97,1,1,1
480,97,1,1,1
481,97,1,1,1
482,97,1,1,1
483,97,1,1,1
484,97,1,1,1
485,97,1,1,1
486,97,1,1,1
487,97,1,1,1
488,97,1,1,1
489,97,1,1,1
490,97,1,1,1
491,97,1,1,1
492,96,1,2,1
493,96,1,2,1
494,95,2,2,1
495,94,3,2,1
496,94,3,2,1
497,93,4,2,1
498,93,4,2,1
499,93,4,2,1
500,93,4,2,1
501,92,5,2,1
502,92,5,2,1
503,92,5,2,1
504,92,5,2,1
505,92,5,2,1
506,92,5,2,1
507,91,6,2,1
508,91,6,2,1
509,91,6,2,1
510,91,6,2,1
511,90,7,2,1
512,90,7,2,1
513,90,7,2,1
514,90,7,2,1
515,90,7,2,1
516,90,7,2,1
517,90,7,2,1
518,90,7,2,1
519,90,7,2,1
520,90,7,2,1
521,90,7,2,1
522,90,7,2,1
523,90,7,2,1
524,89,8,2,1
525,89,8,2,1
526,89,8,2,1
527,89,8,2,1
528,89,8,2,1
529,89,8,2,1
530,89,8,2,1
531,89,8,2,1
532,89,8,2,1
533,89,8,2,1
534,89,8,2,1
535,89,8,2,1
536,89,8,2,1
537,89,8,2,1
538,89,8,2,1
539,89,8,2,1
540,89,8,2,1
541,89,8,2,1
542,89,8,2,1
543,89,8,2,1
544,89,8,2,1
545,89,8,2,1
546,89,8,2,1
547,89,8,2,1
548,89,8,2,1
549,89,8,2,1
550,89,8,2,1
551,89,8,2,1
552,89,8,2,1
553,89,8,2,1
554,89,8,2,1
555,89,8,2,1
556,89,8,2,1
557,89,8,2,1
558,89,8,2,1
559,89,8,2,1
560,89,8,2,1
561,89,8,2,1
562,89,8,2,1
563,89,8,2,1
564,89,8,2,1
565,89,8,2,1
566,88,9,2,1
567,88,9,2,1
568,88,9,2,1
569,88,9,2,1
570,88,9,2,1
571,88,9,2,1
572,88,9,2,1
573,88,9,2,1
574,88,9,2,1
575,88,9,2,1
576,88,9,2,1
577,88,9,2,1
578,88,9,2,1
579,88,9,2,1
580,88,9,2,1
581,88,9,2,1
582,88,9,2,1
583,88,9,2,1
584,88,9,2,1
585,88,9,2,1
586,88,9,2,1
587,88,9,2,1
588,88,9,2,1
589,88,9,2,1
590,88,9,2,1
591,88,9,2,1
592,88,9,2,1
593,88,9,2,1
594,88,9,2,1
595,88,9,2,1
596,87,10,2,1
597,87,10,2,1
598,87,10,2,1
599,87,10,2,1
600,87,10,2,1
601,87,10,2,1
602,87,10,2,1
603,87,10,2,1
604,87,10,2,1
605,87,10,2,1
606,87,10,2,1
607,87,10,2,1
608,87,10,2,1
609,87,10,2,1
610,87,10,2,1
611,87,10,2,1
612,87,10,2,1
613,87,10,2,1
614,87,10,2,1
615,87,10,2,1
616,87,10,2,1
617,87,10,2,1
618,87,10,2,1
619,87,10,2,1
620,87,10,2,1
621,87,10,2,1
622,87,10,2,1
623,87,10,2,1
624,87,10,2,1
625,87,10,2,1
626,87,10,2,1
627,87,10,2,1
628,87,10,2,1
629,87,10,2,1
630,87,10,2,1
631,87,10,2,1
632,87,10,2,1
633,86,11,2,1
634,86,11,2,1
635,86,11,2,1
636,86,11,2,1
637,86,11,2,1
638,86,11,2,1
639,86,11,1,2
640,86,11,1,2
641,86,11,1,2
642,86,11,1,2
643,86,11,1,2
644,86,11,1,2
645,86,11,1,2
646,86,11,1,2
647,86,11,1,2
648,86,11,1,2
649,86,11,1,2
650,86,11,1,2
651,86,11,1,2
652,86,11,1,2
653,86,11,1,2
654,86,11,1,2
655,86,11,1,2
656,86,11,1,2
657,86,11,1,2
658,86,11,1,2
659,86,11,1,2
660,86,11,1,2
661,86,11,1,2
662,86,11,1,2
663,86,11,1,2
664,86,11,1,2
665,86,11,1,2
666,86,11,1,2
667,86,11,1,2
668,86,11,1,2
669,86,11,1,2
670,86,11,1,2
671,86,11,1,2
672,86,11,1,2
673,86,11,1,2
674,86,11,1,2
675,86,11,1,2
676,86,11,1,2
677,86,11,1,2
678,86,11,1,2
679,86,11,1,2
680,86,11,1,2
681,86,11,1,2
682,86,11,1,2
683,86,11,1,2
684,86,11,1,2
685,86,11,1,2
686,86,11,1,2
687,86,11,1,2
688,86,11,1,2
689,86,11,1,2
690,86,11,1,2
691,86,11,1,2
692,86,11,1,2
693,86,10,1,3
694,86,10,1,3
695,86,9,2,3
696,86,8,3,3
697,86,8,3,3
698,86,7,4,3
699,86,7,4,3
700,86,7,4,3
701,86,7,4,3
702,86,6,5,3
703,85,7,5,3
704,85,7,5,3
705,83,9,5,3
706,83,9,5,3
707,83,9,5,3
708,83,8,6,3
709,83,8,6,3
710,82,9,6,3
711,82,9,6,3
712,82,8,7,3
713,82,8,7,3
714,82,8,7,3
715,80,10,7,3
716,80,10,7,3
717,80,10,7,3
718,80,10,7,3
719,79,11,7,3
720,78,12,7,3
721,78,12,7,3
722,78,12,7,3
723,78,12,7,3
724,78,12,7,3
725,78,11,8,3
726,78,11,8,3
727,78,11,8,3
728,78,11,8,3
729,78,11,8,3
730,78,11,8,3
731,78,11,8,3
732,78,11,8,3
733,78,11,8,3
734,78,11,8,3
735,78,11,8,3
736,77,12,8,3
737,77,12,8,3
738,77,12,8,3
739,77,12,8,3
740,77,12,8,3
741,77,12,8,3
742,77,12,8,3
743,77,12,8,3
744,77,12,8,3
745,77,12,8,3
746,77,12,8,3
747,77,12,8,3
748,77,12,8,3
749,77,12,8,3
750,77,12,8,3
751,77,12,8,3
752,77,12,8,3
753,77,12,8,3
754,77,12,8,3
755,77,12,8,3
756,76,13,8,3
757,76,13,8,3
758,76,13,8,3
759,76,13,8,3
760,76,13,8,3
761,76,13,8,3
762,76,13,8,3
763,76,13,8,3
764,76,13,8,3
765,76,13,8,3
766,76,13,8,3
767,76,12,9,3
768,75,13,9,3
769,75,13,9,3
770,75,13,9,3
771,74,14,9,3
772,74,14,9,3
773,73,15,9,3
774,73,15,9,3
775,73,15,9,3
776,73,15,9,3
777,73,15,9,3
778,73,15,9,3
779,73,15,9,3
780,73,15,9,3
781,73,15,9,3
782,73,15,9,3
783,73,15,9,3
784,73,15,9,3
785,73,15,9,3
786,73,15,9,3
787,73,15,9,3
788,73,15,9,3
789,73,15,9,3
790,73,15,9,3
791,73,15,9,3
792,72,16,9,3
793,72,16,9,3
794,71,17,9,3
795,71,17,9,3
796,71,17,9,3
797,71,16,10,3
798,71,16,10,3
799,71,16,10,3
800,71,16,10,3
801,71,16,10,3
802,71,16,10,3
803,71,16,10,3
804,71,16,10,3
805,71,16,10,3
806,71,16,10,3
807,71,16,10,3
808,71,16,10,3
809,71,16,10,3
810,71,16,10,3
811,71,16,10,3
812,71,16,10,3
813,71,16,10,3
814,71,16,10,3
815,71,16,10,3
816,71,16,10,3
817,71,16,10,3
818,71,16,10,3
819,71,16,10,3
820,71,16,10,3
821,71,16,10,3
822,70,17,10,3
823,70,17,10,3
824,70,17,10,3
825,70,17,10,3
826,70,17,10,3
827,70,17,10,3
828,70,17,10,3
829,70,17,10,3
830,70,17,10,3
831,70,17,10,3
832,70,17,10,3
833,70,17,10,3
834,70,16,11,3
835,70,16,11,3
836,70,16,11,3
837,70,16,11,3
838,70,16,11,3
839,70,16,11,3
840,70,16,11,3
841,70,16,11,3
842,70,16,11,3
843,70,16,11,3
844,70,16,11,3
845,70,16,11,3
846,70,16,11,3
847,70,16,11,3
848,70,16,11,3
849,70,16,11,3
850,70,16,11,3
851,70,16,11,3
852,69,17,11,3
853,69,17,11,3
854,69,17,11,3
855,69,17,11,3
856,69,17,11,3
857,68,18,11,3
858,67,19,11,3
859,67,19,11,3
860,67,19,11,3
861,67,19,11,3
862,67,19,11,3
863,67,19,11,3
864,67,19,11,3
865,67,19,11,3
866,67,19,11,3
867,67,19,11,3
868,67,19,11,3
869,67,19,11,3
870,66,20,11,3
871,66,20,11,3
872,66,20,11,3
873,65,21,11,3
874,65,21,11,3
875,65,21,11,3
876,65,21,11,3
877,65,21,11,3
878,64,22,11,3
879,64,22,11,3
880,64,22,11,3
881,64,22,11,3
882,64,22,11,3
883,64,22,11,3
884,64,22,11,3
885,64,22,11,3
886,64,22,11,3
887,64,22,11,3
888,64,22,11,3
889,63,23,11,3
890,63,23,11,3
891,62,24,11,3
892,62,24,11,3
893,62,24,11,3
894,62,24,10,4
895,62,24,10,4
896,62,24,9,5
897,62,24,8,6
898,62,24,8,6
899,62,24,7,7
900,62,24,7,7
901,62,24,7,7
902,62,24,7,7
903,62,24,6,8
904,62,23,7,8
905,62,23,7,8
906,62,21,9,8
907,62,21,9,8
908,62,21,9,8
909,62,21,8,9
910,62,21,8,9
911,62,20,9,9
912,62,20,9,9
913,61,21,8,10
914,61,21,8,10
915,61,21,8,10
916,60,20,10,10
917,60,20,10,10
918,60,20,10,10
919,59,21,10,10
920,59,20,11,10
921,59,19,12,10
922,59,19,12,10
923,59,19,12,10
924,58,20,12,10
925,58,20,12,10
926,58,20,11,11
927,57,21,11,11
928,57,21,11,11
929,56,22,11,11
930,56,22,11,11
931,55,23,11,11
932,55,23,11,11
933,55,23,11,11
934,55,23,11,11
935,55,23,11,11
936,55,23,11,11
937,55,22,12,11
938,55,22,12,11
939,55,22,12,11
940,55,22,12,11
941,55,22,12,11
942,55,22,12,11
943,55,22,12,11
944,55,22,12,11
945,55,22,12,11
946,55,22,12,11
947,55,22,12,11
948,55,22,12,11
949,55,22,12,11
950,55,22,12,11
951,55,22,12,11
952,55,22,12,11
953,55,22,12,11
954,55,22,12,11
955,55,22,12,11
956,55,22,12,11
957,55,21,13,11
958,55,21,13,11
959,55,21,13,11
960,55,21,13,11
961,55,21,13,11
962,55,21,13,11
963,54,22,13,11
964,54,22,13,11
965,54,22,13,11
966,54,22,13,11
967,54,22,13,11
968,54,22,12,12
969,54,21,13,12
970,53,22,13,12
971,53,22,13,12
972,53,21,14,12
973,53,21,14,12
974,53,20,15,12
975,53,20,15,12
976,53,20,15,12
977,53,20,15,12
978,53,20,15,12
979,53,20,15,12
980,53,20,15,12
981,53,20,15,12
982,53,20,15,12
983,53,20,15,12
984,53,20,15,12
985,53,20,15,12
986,53,20,15,12
987,53,20,15,12
988,53,20,15,12
989,53,20,15,12
990,53,20,15,12
991,53,20,15,12
992,53,20,15,12
993,53,19,16,12
994,53,19,16,12
995,53,18,17,12
996,53,18,17,12
997,53,18,17,12
998,53,18,16,13
999,53,18,16,13
1000,53,18,16,13
1001,53,18,16,13
1002,52,19,16,13
1003,52,19,16,13
1004,52,19,16,13
1005,51,20,16,13
1006,51,20,16,13
1007,51,20,16,13
1008,51,20,16,13
1009,51,20,16,13
1010,50,21,16,13
1011,50,21,16,13
1012,50,21,16,13
1013,50,21,16,13
1014,50,21,16,13
1015,50,21,16,13
1016,50,21,16,13
1017,50,21,16,13
1018,50,21,16,13
1019,50,21,16,13
1020,50,21,16,13
1021,50,21,16,13
1022,50,21,16,13
1023,50,20,17,13
1024,50,20,17,13
1025,50,20,17,13
1026,49,21,17,13
1027,49,21,17,13
1028,49,21,17,13
1029,49,21,17,13
1030,49,21,17,13
1031,49,21,17,13
1032,49,21,17,13
1033,49,21,17,13
1034,49,21,17,13
1035,49,21,16,14
1036,49,21,16,14
1037,49,21,16,14
1038,49,21,16,14
1039,49,21,16,14
1040,49,21,16,14
1041,49,21,16,14
1042,49,21,16,14
1043,49,21,16,14
1044,49,21,16,14
1045,49,21,16,14
1046,48,22,16,14
1047,48,22,16,14
1048,48,22,16,14
1049,47,23,16,14
1050,47,23,16,14
1051,47,23,16,14
1052,47,23,16,14
1053,47,22,17,14
1054,47,22,17,14
1055,47,22,17,14
1056,47,22,17,14
1057,47,22,17,14
1058,47,21,18,14
1059,47,20,19,14
1060,47,20,19,14
1061,47,20,19,14
1062,46,21,19,14
1063,46,21,19,14
1064,46,21,19,14
1065,46,21,19,14
1066,46,21,19,14
1067,46,21,19,14
1068,46,21,19,14
1069,46,21,19,14
1070,46,21,19,14
1071,46,20,20,14
1072,45,21,20,14
1073,44,22,20,14
1074,44,21,21,14
1075,44,21,21,14
1076,44,21,21,14
1077,44,21,21,14
1078,44,21,21,14
1079,44,20,22,14
1080,44,20,22,14
1081,44,20,22,14
1082,44,20,22,14
1083,42,22,22,14
1084,42,22,22,14
1085,42,22,22,14
1086,42,22,22,14
1087,42,22,22,14
1088,41,23,22,14
1089,40,24,22,14
1090,40,23,23,14
1091,39,24,23,14
1092,39,23,24,14
1093,39,23,24,14
1094,39,23,24,14
1095,39,23,24,14
1096,39,23,24,14
1097,39,23,24,14
1098,39,23,24,14
1099,39,23,24,14
1100,39,23,24,14
1101,39,23,24,14
1102,39,23,24,14
1103,39,23,24,14
1104,39,23,24,14
1105,39,23,23,15
1106,39,23,23,15
1107,39,23,21,17
1108,39,23,21,17
1109,39,23,21,17
1110,39,23,21,17
1111,39,23,21,17
1112,39,23,20,18
1113,39,23,20,18
1114,39,22,21,18
1115,39,22,21,18
1116,39,22,21,18
1117,39,21,20,20
1118,39,21,20,20
1119,39,21,20,20
1120,39,20,21,20
1121,38,21,20,21
1122,38,21,19,22
1123,38,21,19,22
1124,38,21,19,22
1125,38,20,20,22
1126,38,20,20,22
1127,37,21,20,22
1128,37,20,21,22
1129,37,20,21,22
1130,37,19,22,22
1131,37,19,22,22
1132,37,18,23,22
1133,37,18,23,22
1134,37,18,23,22
1135,36,19,23,22
1136,36,19,23,22
1137,36,19,23,22
1138,35,20,22,23
1139,35,20,22,23
1140,35,20,22,23
1141,35,20,22,23
1142,35,20,22,23
1143,35,20,22,23
1144,35,20,22,23
1145,35,20,22,23
1146,35,20,22,23
1147,35,20,22,23
1148,35,20,22,23
1149,35,20,22,23
1150,34,21,22,23
1151,34,21,22,23
1152,34,21,22,23
1153,34,21,22,23
1154,34,21,22,23
1155,34,21,22,23
1156,34,21,22,23
1157,34,21,22,23
1158,33,22,21,24
1159,33,22,21,24
1160,33,22,21,24
1161,33,22,21,24
1162,33,22,21,24
1163,33,22,21,24
1164,33,21,22,24
1165,33,21,22,24
1166,33,21,22,24
1167,33,21,22,24
1168,33,21,22,24
1169,33,21,22,24
1170,33,21,21,25
1171,33,20,22,25
1172,33,20,22,25
1173,33,20,21,26
1174,33,20,21,26
1175,33,20,20,27
1176,33,20,20,27
1177,33,20,20,27
1178,33,20,20,27
1179,32,21,20,27
1180,32,21,20,27
1181,32,21,20,27
1182,31,22,20,27
1183,31,22,20,27
1184,31,22,20,27
1185,31,22,20,27
1186,31,22,20,27
1187,31,22,20,27
1188,31,22,20,27
1189,31,22,20,27
1190,30,23,20,27
1191,30,23,20,27
1192,30,23,20,27
1193,30,23,20,27
1194,30,23,19,28
1195,30,23,19,28
1196,30,23,18,29
1197,30,23,18,29
1198,29,24,18,29
1199,29,24,18,29
1200,29,24,18,29
1201,29,24,18,29
1202,29,24,18,29
1203,29,23,19,29
1204,29,23,19,29
1205,28,24,19,29
1206,28,23,20,29
1207,28,23,20,29
1208,28,23,20,29
1209,28,23,20,29
1210,28,23,20,29
1211,28,22,21,29
1212,28,22,21,29
1213,28,22,21,29
1214,28,22,21,29
1215,28,22,21,29
1216,28,22,21,29
1217,28,22,21,29
1218,28,22,21,29
1219,28,22,21,29
1220,27,23,21,29
1221,27,23,21,29
1222,27,23,21,29
1223,27,23,21,29
1224,27,23,20,30
1225,27,23,20,30
1226,27,23,20,30
1227,27,22,21,30
1228,27,22,21,30
1229,27,22,21,30
1230,27,22,21,30
1231,27,22,21,30
1232,27,22,21,30
1233,26,23,21,30
1234,26,23,21,30
1235,26,23,21,30
1236,26,23,21,30
1237,26,23,21,30
1238,26,23,21,30
1239,26,23,21,30
1240,26,23,21,30
1241,26,23,21,30
1242,26,23,21,30
1243,26,23,21,30
1244,26,23,21,30
1245,26,23,21,30
1246,26,23,21,30
1247,26,22,22,30
1248,26,22,22,30
1249,26,22,22,30
1250,26,21,23,30
1251,26,21,23,30
1252,26,21,23,30
1253,26,21,23,30
1254,26,21,22,31
1255,26,21,22,31
1256,26,21,22,31
1257,26,21,22,31
1258,26,21,22,31
1259,26,21,21,32
1260,26,21,20,33
1261,26,21,20,33
1262,26,21,20,33
1263,26,20,21,33
1264,25,21,21,33
1265,25,21,21,33
1266,25,21,21,33
1267,25,21,21,33
1268,25,21,21,33
1269,25,21,21,33
1270,25,21,21,33
1271,25,21,21,33
1272,25,21,20,34
1273,25,20,21,34
1274,25,19,22,34
1275,25,19,21,35
1276,25,19,21,35
1277,24,20,21,35
1278,24,20,21,35
1279,24,20,21,35
1280,24,20,20,36
1281,24,20,20,36
1282,24,20,20,36
1283,24,20,20,36
1284,22,20,22,36
1285,21,21,22,36
1286,21,21,22,36
1287,21,21,22,36
1288,21,21,22,36
1289,20,21,23,36
1290,20,20,24,36
1291,20,20,23,37
1292,20,19,24,37
1293,20,19,23,38
1294,20,19,23,38
1295,20,19,23,38
1296,20,19,23,38
1297,20,19,23,38
1298,20,19,23,38
1299,20,19,23,38
1300,20,19,23,38
1301,20,19,23,38
1302,20,19,23,38
1303,20,19,23,38
1304,20,19,23,38
1305,20,19,23,38
1306,20,19,23,38
1307,20,19,23,38
1308,20,19,23,38
1309,20,19,23,38
1310,20,19,23,38
1311,20,19,23,38
1312,20,19,23,38
1313,19,20,23,38
1314,19,20,23,38
1315,19,20,22,39
1316,19,20,22,39
1317,19,20,22,39
1318,19,20,21,40
1319,19,20,21,40
1320,19,20,21,40
1321,19,20,20,41
1322,19,19,21,41
1323,19,19,21,41
1324,19,19,21,41
1325,19,19,21,41
1326,19,19,20,42
1327,19,19,20,42
1328,19,18,21,42
1329,18,19,20,43
1330,18,19,20,43
1331,18,19,19,44
1332,18,19,19,44
1333,18,19,18,45
1334,18,19,18,45
1335,18,19,18,45
1336,18,18,19,45
1337,17,19,19,45
1338,17,19,19,45
1339,17,18,20,45
1340,17,18,20,45
1341,17,18,20,45
1342,17,18,20,45
1343,17,18,20,45
1344,17,18,20,45
1345,17,18,20,45
1346,17,18,20,45
1347,17,18,20,45
1348,17,18,20,45
1349,17,18,20,45
1350,17,18,20,45
1351,17,17,21,45
1352,17,17,21,45
1353,17,17,21,45
1354,17,17,21,45
1355,17,17,21,45
1356,17,17,21,45
1357,17,17,21,45
1358,17,17,21,45
1359,17,16,22,45
1360,17,16,22,45
1361,17,16,22,45
1362,17,16,22,45
1363,17,16,22,45
1364,17,16,22,45
1365,17,16,21,46
1366,17,16,21,46
1367,17,16,21,46
1368,16,17,21,46
1369,16,17,21,46
1370,16,17,21,46
1371,16,17,21,46
1372,16,17,20,47
1373,16,17,20,47
1374,16,17,20,47
1375,16,17,20,47
1376,16,17,20,47
1377,16,17,20,47
1378,16,17,20,47
1379,16,17,20,47
1380,16,16,21,47
1381,15,17,21,47
1382,15,17,21,47
1383,15,16,22,47
1384,15,16,22,47
1385,15,16,22,47
1386,15,16,22,47
1387,15,16,22,47
1388,15,16,22,47
1389,15,16,22,47
1390,15,16,22,47
1391,15,15,23,47
1392,15,15,23,47
1393,15,15,23,47
1394,14,16,23,47
1395,14,16,23,47
1396,14,16,23,47
1397,14,16,23,47
1398,14,16,23,47
1399,14,15,24,47
1400,14,15,24,47
1401,14,15,24,47
1402,14,15,24,47
1403,13,16,24,47
1404,13,16,23,48
1405,13,16,23,48
1406,13,15,24,48
1407,12,16,23,49
1408,12,16,23,49
1409,12,16,23,49
1410,12,16,23,49
1411,12,16,23,49
1412,12,16,22,50
1413,12,16,22,50
1414,12,16,22,50
1415,12,16,22,50
1416,12,16,22,50
1417,12,16,22,50
1418,12,16,22,50
1419,12,16,22,50
1420,12,16,22,50
1421,12,15,23,50
1422,12,15,23,50
1423,11,16,23,50
1424,11,16,23,50
1425,11,16,23,50
1426,11,16,23,50
1427,11,16,23,50
1428,11,16,22,51
1429,11,16,22,51
1430,11,16,22,51
1431,11,16,22,51
1432,11,16,22,51
1433,11,16,22,51
1434,11,15,23,51
1435,11,15,23,51
1436,11,15,23,51
1437,11,15,23,51
1438,11,15,23,51
1439,11,15,23,51
1440,11,15,23,51
1441,11,15,23,51
1442,11,15,23,51
1443,11,15,23,51
1444,11,15,23,51
1445,10,16,23,51
1446,10,16,23,51
1447,10,16,23,51
1448,10,16,22,52
1449,10,16,22,52
1450,10,16,22,52
1451,10,16,21,53
1452,10,16,21,53
1453,10,16,21,53
1454,10,16,21,53
1455,10,16,21,53
1456,10,16,21,53
1457,10,16,21,53
1458,10,16,21,53
1459,10,16,21,53
1460,10,16,21,53
1461,10,16,21,53
1462,10,16,21,53
1463,10,16,21,53
1464,10,16,20,54
1465,10,15,21,54
1466,10,15,21,54
1467,10,15,21,54
1468,10,15,21,54
1469,10,15,21,54
1470,10,15,21,54
1471,10,15,21,54
1472,10,15,21,54
1473,10,15,21,54
1474,10,15,20,55
1475,10,15,19,56
1476,10,15,19,56
1477,10,15,19,56
1478,10,14,20,56
1479,10,14,20,56
1480,10,14,20,56
1481,10,14,20,56
1482,10,14,20,56
1483,10,14,20,56
1484,9,15,20,56
1485,9,13,20,58
1486,9,12,21,58
1487,9,12,21,58
1488,9,12,21,58
1489,9,12,21,58
1490,8,12,21,59
1491,8,12,20,60
1492,8,12,20,60
1493,8,12,19,61
1494,8,12,19,61
1495,8,12,19,61
1496,8,12,19,61
1497,8,12,19,61
1498,8,12,19,61
1499,8,12,19,61
1500,8,12,19,61
1501,8,12,19,61
1502,8,12,19,61
1503,8,12,19,61
1504,8,12,19,61
1505,8,12,19,61
1506,8,12,19,61
1507,8,12,19,61
1508,8,12,19,61
1509,8,12,19,61
1510,8,12,19,61
1511,8,12,19,61
1512,8,12,19,61
1513,8,12,19,61
1514,8,11,20,61
1515,8,11,20,61
1516,8,11,20,61
1517,7,12,20,61
1518,7,12,20,61
1519,7,12,20,61
1520,7,12,20,61
1521,7,12,20,61
1522,7,12,20,61
1523,7,12,19,62
1524,7,12,19,62
1525,7,12,19,62
1526,7,12,19,62
1527,7,12,19,62
1528,7,12,19,62
1529,7,12,18,63
1530,7,11,19,63
1531,7,11,19,63
1532,7,11,19,63
1533,7,11,19,63
1534,7,11,19,63
1535,7,11,19,63
1536,7,11,19,63
1537,7,11,18,64
1538,7,10,19,64
1539,7,10,19,64
1540,7,10,18,65
1541,7,10,18,65
1542,7,10,18,65
1543,6,11,18,65
1544,6,11,18,65
1545,6,11,18,65
1546,6,11,18,65
1547,6,11,18,65
1548,6,11,18,65
1549,6,11,18,65
1550,6,11,18,65
1551,6,11,18,65
1552,6,11,17,66
1553,6,11,17,66
1554,6,11,17,66
1555,6,11,17,66
1556,6,11,17,66
1557,6,11,17,66
1558,6,11,17,66
1559,6,11,17,66
1560,6,11,16,67
1561,6,11,16,67
1562,6,11,16,67
1563,6,11,16,67
1564,6,11,16,67
1565,6,11,16,67
1566,6,11,16,67
1567,6,11,16,67
1568,6,11,16,67
1569,6,10,17,67
1570,6,10,17,67
1571,6,10,17,67
1572,6,10,17,67
1573,6,10,17,67
1574,6,10,17,67
1575,6,10,17,67
1576,6,10,17,67
1577,6,10,17,67
1578,6,10,17,67
1579,6,10,17,67
1580,6,10,17,67
1581,6,10,16,68
1582,6,9,17,68
1583,6,9,17,68
1584,6,9,16,69
1585,6,9,16,69
1586,6,9,16,69
1587,6,9,16,69
1588,6,9,16,69
1589,6,9,16,69
1590,6,9,16,69
1591,6,9,16,69
1592,6,9,15,70
1593,6,9,15,70
1594,6,9,15,70
1595,6,8,16,70
1596,6,8,16,70
1597,6,8,16,70
1598,6,8,16,70
1599,6,8,16,70
1600,6,8,15,71
1601,6,8,15,71
1602,6,8,15,71
1603,6,8,15,71
1604,6,7,16,71
1605,6,7,16,71
1606,6,7,16,71
1607,6,7,15,72
1608,6,6,16,72
1609,6,6,16,72
1610,6,6,16,72
1611,6,6,16,72
1612,6,6,16,72
1613,6,6,16,72
1614,6,6,16,72
1615,6,6,16,72
1616,6,6,16,72
1617,6,6,16,72
1618,6,6,16,72
1619,6,6,16,72
1620,6,6,16,72
1621,6,6,16,72
1622,6,6,15,73
1623,6,6,15,73
1624,6,5,16,73
1625,6,5,16,73
1626,6,5,16,73
1627,6,5,16,73
1628,6,5,16,73
1629,6,5,16,73
1630,6,5,16,73
1631,6,5,16,73
1632,6,5,16,73
1633,6,5,16,73
1634,6,5,16,73
1635,6,5,15,74
1636,6,5,15,74
1637,6,5,15,74
1638,6,5,15,74
1639,6,5,15,74
1640,6,5,15,74
1641,6,5,15,74
1642,6,5,15,74
1643,6,5,15,74
1644,6,5,15,74
1645,6,5,15,74
1646,6,4,16,74
1647,6,4,16,74
1648,6,4,16,74
1649,6,4,16,74
1650,6,4,16,74
1651,6,4,16,74
1652,6,4,16,74
1653,6,4,16,74
1654,6,4,16,74
1655,6,4,16,74
1656,6,4,16,74
1657,6,4,16,74
1658,6,4,16,74
1659,6,4,16,74
1660,6,4,16,74
1661,6,4,16,74
1662,6,4,16,74
1663,6,4,16,74
1664,6,4,16,74
1665,6,4,16,74
1666,6,4,15,75
1667,6,4,15,75
1668,6,4,15,75
1669,6,4,15,75
1670,6,4,15,75
1671,6,4,15,75
1672,6,4,15,75
1673,6,4,15,75
1674,6,4,15,75
1675,6,4,15,75
1676,6,4,15,75
1677,6,4,15,75
1678,6,4,15,75
1679,6,4,14,76
1680,6,4,14,76
1681,6,4,14,76
1682,6,4,14,76
1683,6,4,14,76
1684,6,4,14,76
1685,6,3,15,76
1686,6,3,13,78
1687,6,3,12,79
1688,6,3,12,79
1689,6,3,12,79
1690,6,3,12,79
1691,6,2,12,80
1692,6,2,12,80
1693,6,2,12,80
1694,6,2,12,80
1695,6,2,12,80
1696,6,2,12,80
1697,6,2,12,80
1698,6,2,12,80
1699,6,2,12,80
1700,6,2,12,80
1701,6,2,12,80
1702,6,2,12,80
1703,6,2,12,80
1704,6,2,12,80
1705,6,2,12,80
1706,6,2,12,80
1707,6,2,12,80
1708,6,2,12,80
1709,6,2,12,80
1710,6,2,12,80
1711,6,2,12,80
1712,6,2,12,80
1713,6,2,12,80
1714,6,2,12,80
1715,6,2,11,81
1716,6,2,11,81
1717,6,2,11,81
1718,6,1,12,81
1719,6,1,12,81
1720,6,1,12,81
1721,6,1,12,81
1722,6,1,12,81
1723,6,1,12,81
1724,6,1,12,81
1725,6,1,12,81
1726,6,1,12,81
1727,6,1,12,81
1728,6,1,12,81
1729,6,1,12,81
1730,6,1,12,81
1731,6,1,11,82
1732,6,1,11,82
1733,6,1,11,82
1734,6,1,11,82
1735,6,1,11,82
1736,6,1,11,82
1737,6,1,11,82
1738,6,1,11,82
1739,6,1,10,83
1740,6,1,10,83
1741,6,1,10,83
1742,6,1,10,83
1743,6,1,10,83
1744,6,0,11,83
1745,6,0,11,83
1746,6,0,11,83
1747,6,0,11,83
1748,6,0,11,83
1749,6,0,11,83
1750,6,0,11,83
1751,6,0,11,83
1752,6,0,11,83
1753,6,0,11,83
1754,6,0,11,83
1755,6,0,11,83
1756,6,0,11,83
1757,6,0,11,83
1758,6,0,11,83
1759,6,0,11,83
1760,6,0,11,83
1761,6,0,11,83
1762,6,0,11,83
1763,6,0,11,83
1764,6,0,11,83
1765,6,0,11,83
1766,6,0,11,83
1767,6,0,11,83
1768,6,0,11,83
1769,6,0,11,83
1770,6,0,10,84
1771,6,0,10,84
1772,6,0,10,84
1773,6,0,10,84
1774,6,0,10,84
1775,6,0,10,84
1776,6,0,10,84
1777,6,0,10,84
1778,6,0,10,84
1779,6,0,10,84
1780,6,0,10,84
1781,6,0,10,84
1782,6,0,10,84
1783,6,0,9,85
1784,6,0,9,85
1785,6,0,9,85
1786,6,0,9,85
1787,6,0,9,85
1788,6,0,9,85
1789,6,0,9,85
1790,6,0,9,85
1791,6,0,9,85
1792,6,0,9,85
1793,6,0,9,85
1794,6,0,9,85
1795,6,0,9,85
1796,6,0,8,86
1797,6,0,8,86
1798,6,0,8,86
1799,6,0,8,86
1800,6,0,8,86
1801,6,0,8,86
1802,6,0,8,86
1803,6,0,8,86
1804,6,0,8,86
1805,6,0,7,87
1806,6,0,7,87
1807,6,0,7,87
1808,6,0,7,87
1809,6,0,6,88
1810,6,0,6,88
1811,6,0,6,88
1812,6,0,6,88
1813,6,0,6,88
1814,6,0,6,88
1815,6,0,6,88
1816,6,0,6,88
1817,6,0,6,88
1818,6,0,6,88
1819,6,0,6,88
1820,6,0,6,88
1821,6,0,6,88
1822,6,0,6,88
1823,6,0,6,88
1824,6,0,6,88
1825,6,0,5,89
1826,6,0,5,89
1827,6,0,5,89
1828,6,0,5,89
1829,6,0,5,89
1830,6,0,5,89
1831,6,0,5,89
1832,6,0,5,89
1833,6,0,5,89
1834,6,0,5,89
1835,6,0,5,89
1836,6,0,5,89
1837,6,0,5,89
1838,6,0,5,89
1839,6,0,5,89
1840,6,0,5,89
1841,6,0,5,89
1842,6,0,5,89
1843,6,0,5,89
1844,6,0,5,89
1845,6,0,5,89
1846,6,0,5,89
1847,6,0,4,90
1848,6,0,4,90
1849,6,0,4,90
1850,6,0,4,90
1851,6,0,4,90
1852,6,0,4,90
1853,6,0,4,90
1854,6,0,4,90
1855,6,0,4,90
1856,6,0,4,90
1857,6,0,4,90
1858,6,0,4,90
1859,6,0,4,90
1860,6,0,4,90
1861,6,0,4,90
1862,6,0,4,90
1863,6,0,4,90
1864,6,0,4,90
1865,6,0,4,90
1866,6,0,4,90
1867,6,0,4,90
1868,6,0,4,90
1869,6,0,4,90
1870,6,0,4,90
1871,6,0,4,90
1872,6,0,4,90
1873,6,0,4,90
1874,6,0,4,90
1875,6,0,4,90
1876,6,0,4,90
1877,6,0,4,90
1878,6,0,4,90
1879,6,0,4,90
1880,6,0,4,90
1881,6,0,4,90
1882,6,0,4,90
1883,6,0,4,90
1884,6,0,4,90
1885,6,0,4,90
1886,6,0,3,91
1887,6,0,3,91
1888,6,0,3,91
1889,6,0,3,91
1890,6,0,3,91
1891,6,0,3,91
1892,6,0,2,92
1893,6,0,2,92
1894,6,0,2,92
1895,6,0,2,92
1896,6,0,2,92
1897,6,0,2,92
1898,6,0,2,92
1899,6,0,2,92
1900,6,0,2,92
1901,6,0,2,92
1902,6,0,2,92
1903,6,0,2,92
1904,6,0,2,92
1905,6,0,2,92
1906,6,0,2,92
1907,6,0,2,92
1908,6,0,2,92
1909,6,0,2,92
1910,6,0,2,92
1911,6,0,2,92
1912,6,0,2,92
1913,6,0,2,92
1914,6,0,2,92
1915,6,0,2,92
1916,6,0,2,92
1917,6,0,2,92
1918,6,0,2,92
1919,6,0,1,93
1920,6,0,1,93
1921,6,0,1,93
1922,6,0,1,93
1923,6,0,1,93
1924,6,0,1,93
1925,6,0,1,93
1926,6,0,1,93
1927,6,0,1,93
1928,6,0,1,93
1929,6,0,1,93
1930,6,0,1,93
1931,6,0,1,93
1932,6,0,1,93
1933,6,0,1,93
1934,6,0,1,93
1935,6,0,1,93
1936,6,0,1,93
1937,6,0,1,93
1938,6,0,1,93
1939,6,0,1,93
1940,6,0,1,93
1941,6,0,1,93
1942,6,0,1,93
1943,6,0,1,93
1944,6,0,1,93
1945,6,0,0,94
1946,6,0,0,94
1947,6,0,0,94
1948,6,0,0,94
1949,6,0,0,94
1950,6,0,0,94
1951,6,0,0,94
1952,6,0,0,94
1953,6,0,0,94
1954,6,0,0,94
1955,6,0,0,94
1956,6,0,0,94
1957,6,0,0,94
1958,6,0,0,94
1959,6,0,0,94
1960,6,0,0,94
1961,6,0,0,94
1962,6,0,0,94
1963,6,0,0,94
1964,6,0,0,94
1965,6,0,0,94
1966,6,0,0,94
1967,6,0,0,94
1968,6,0,0,94
1969,6,0,0,94
1970,6,0,0,94
1971,6,0,0,94
1972,6,0,0,94
1973,6,0,0,94
1974,6,0,0,94
1975,6,0,0,94
1976,6,0,0,94
1977,6,0,0,94
1978,6,0,0,94
1979,6,0,0,94
1980,6,0,0,94
1981,6,0,0,94
1982,6,0,0,94
1983,6,0,0,94
1984,6,0,0,94
1985,6,0,0,94
1986,6,0,0,94
1987,6,0,0,94
1988,6,0,0,94
1989,6,0,0,94
1990,6,0,0,94
1991,6,0,0,94
1992,6,0,0,94
1993,6,0,0,94
1994,6,0,0,94
1995,6,0,0,94
1996,6,0,0,94
1997,6,0,0,94
1998,6,0,0,94
1999,6,0,0,94
2000,6,0,0,94
