"tick","total"
0,0
1,0
2,0
3,0
4,0
5,0
6,0
7,0
8,0
9,0
10,0
11,0
12,0
13,0
14,0
15,0
16,0
17,0
18,0
19,0
20,0
21,0
22,0
23,0
24,0
25,0
26,0
27,0
28,0
29,0
30,0
31,0
32,0
33,0
34,0
35,0
36,0
37,0
38,0
39,0
40,0
41,0
42,0
43,0
44,0
45,0
46,0
47,0
48,0
49,0
50,0
51,0
52,0
53,0
54,0
55,0
56,0
57,0
58,0
59,0
60,0
61,0
62,0
63,0
64,0
65,0
66,0
67,0
68,0
69,0
70,0
71,0
72,0
73,0
74,0
75,0
76,0
77,0
78,0
79,0
80,0
81,0
82,0
83,0
84,0
85,0
86,0
87,0
88,0
89,0
90,0
91,0
92,0
93,0
94,0
95,0
96,0
97,0
98,0
99,0
100,0
101,0
102,0
103,0
104,0
105,0
106,0
107,0
108,0
109,0
110,0
111,0
112,0
113,0
114,0
115,0
116,0
117,0
118,0
119,0
120,0
121,0
122,0
123,0
124,0
125,0
126,0
127,0
128,0
129,0
130,2
131,2
132,2
133,2
134,2
135,2
136,2
137,2
138,2
139,2
140,2
141,3
142,3
143,3
144,3
145,3
146,3
147,3
148,3
149,3
150,3
151,3
152,3
153,3
154,3
155,3
156,3
157,3
158,3
159,3
160,3
161,3
162,3
163,4
164,4
165,4
166,4
167,4
168,4
169,4
170,4
171,5
172,5
173,5
174,5
175,5
176,5
177,5
178,5
179,6
180,6
181,6
182,6
183,7
184,8
185,8
186,8
187,8
188,8
189,10
190,11
191,11
192,11
193,11
194,11
195,11
196,11
197,11
198,11
199,11
200,12
201,12
202,12
203,12
204,12
205,12
206,12
207,12
208,12
209,12
210,12
211,12
212,12
213,12
214,12
215,12
216,12
217,12
218,12
219,12
220,12
221,13
222,13
223,13
224,13
225,13
226,14
227,14
228,14
229,14
230,15
231,15
232,15
233,15
234,15
235,15
236,16
237,17
238,17
239,17
240,17
241,17
242,17
243,17
244,17
245,17
246,17
247,17
248,17
249,17
250,17
251,17
252,17
253,17
254,17
255,17
256,17
257,17
258,17
259,17
260,17
261,17
262,17
263,17
264,17
265,17
266,17
267,17
268,17
269,17
270,17
271,17
272,17
273,18
274,18
275,18
276,19
277,19
278,19
279,19
280,19
281,19
282,19
283,19
284,20
285,20
286,20
287,20
288,20
289,20
290,20
291,20
292,20
293,20
294,20
295,20
296,20
297,20
298,20
299,20
300,20
301,20
302,20
303,20
304,20
305,20
306,20
307,20
308,20
309,20
310,20
311,20
312,20
313,21
314,21
315,21
316,21
317,22
318,22
319,22
320,22
321,22
322,22
323,22
324,22
325,22
326,22
327,23
328,23
329,23
330,23
331,23
332,23
333,23
334,23
335,23
336,23
337,23
338,23
339,23
340,23
341,23
342,24
343,24
344,24
345,24
346,24
347,24
348,24
349,24
350,24
351,24
352,24
353,24
354,24
355,24
356,24
357,25
358,25
359,25
360,25
361,25
362,25
363,25
364,25
365,25
366,26
367,26
368,26
369,27
370,27
371,27
372,27
373,27
374,27
375,27
376,27
377,27
378,27
379,27
380,27
381,27
382,27
383,27
384,27
385,27
386,28
387,28
388,28
389,28
390,28
391,29
392,29
393,29
394,29
395,29
396,29
397,29
398,29
399,29
400,29
401,29
402,29
403,29
404,29
405,29
406,29
407,29
408,29
409,29
410,29
411,29
412,29
413,29
414,29
415,29
416,29
417,29
418,30
419,30
420,30
421,30
422,30
423,30
424,30
425,30
426,30
427,30
428,30
429,30
430,30
431,30
432,30
433,30
434,31
435,31
436,31
437,31
438,31
439,31
440,31
441,31
442,31
443,31
444,31
445,31
446,31
447,31
448,31
449,31
450,31
451,31
452,31
453,31
454,31
455,31
456,31
457,31
458,31
459,31
460,31
461,31
462,31
463,31
464,31
465,31
466,32
467,32
468,32
469,32
470,32
471,32
472,32
473,32
474,32
475,32
476,32
477,32
478,32
479,32
480,32
481,32
482,33
483,33
484,33
485,33
486,33
487,33
488,33
489,33
490,33
491,33
492,33
493,33
494,33
495,33
496,33
497,33
498,33
499,33
500,33
501,33
502,33
503,33
504,33
505,33
506,33
507,33
508,34
509,34
510,34
511,34
512,34
513,34
514,34
515,34
516,34
517,34
518,34
519,34
520,34
521,34
522,34
523,34
524,34
525,34
526,34
527,35
528,35
529,35
530,35
531,35
532,35
533,35
534,35
535,35
536,35
537,35
538,35
539,35
540,35
541,35
542,35
543,35
544,35
545,35
546,35
547,35
548,35
549,35
550,35
551,35
552,35
553,35
554,35
555,35
556,35
557,35
558,36
559,36
560,36
561,37
562,37
563,37
564,37
565,37
566,37
567,37
568,37
569,37
570,37
571,37
572,37
573,37
574,37
575,37
576,37
577,37
578,37
579,37
580,38
581,38
582,38
583,38
584,39
585,39
586,39
587,39
588,39
589,39
590,39
591,39
592,39
593,39
594,39
595,39
596,39
597,39
598,39
599,39
600,39
601,39
602,39
603,39
604,39
605,39
606,39
607,39
608,39
609,39
610,39
611,39
612,39
613,39
614,39
615,39
616,40
617,40
618,40
619,40
620,40
621,40
622,40
623,40
624,40
625,40
626,40
627,40
628,40
629,40
630,40
631,40
632,40
633,40
634,40
635,40
636,40
637,40
638,40
639,40
640,40
641,40
642,40
643,40
644,40
645,40
646,40
647,40
648,41
649,41
650,41
651,41
652,41
653,42
654,42
655,43
656,43
657,43
658,43
659,44
660,44
661,44
662,44
663,44
664,46
665,46
666,48
667,48
668,48
669,48
670,49
671,49
672,49
673,49
674,49
675,49
676,49
677,49
678,49
679,49
680,49
681,49
682,49
683,49
684,49
685,49
686,50
687,50
688,50
689,50
690,50
691,50
692,50
693,50
694,51
695,51
696,51
697,51
698,51
699,51
700,51
701,51
702,51
703,52
704,53
705,53
706,53
707,53
708,53
709,53
710,53
711,54
712,54
713,54
714,54
715,54
716,54
717,55
718,56
719,57
720,57
721,57
722,57
723,57
724,57
725,58
726,58
727,58
728,58
729,58
730,59
731,59
732,59
733,59
734,59
735,59
736,59
737,59
738,59
739,59
740,59
741,59
742,59
743,59
744,59
745,59
746,59
747,59
748,59
749,59
750,59
751,59
752,59
753,59
754,59
755,60
756,60
757,60
758,60
759,60
760,60
761,60
762,60
763,60
764,60
765,60
766,60
767,60
768,60
769,60
770,60
771,60
772,60
773,60
774,60
775,60
776,60
777,60
778,60
779,60
780,60
781,60
782,60
783,60
784,60
785,60
786,60
787,60
788,60
789,60
790,60
791,60
792,60
793,60
794,60
795,60
796,60
797,60
798,60
799,60
800,60
801,60
802,60
803,60
804,60
805,60
806,60
807,60
808,60
809,60
810,60
811,60
812,60
813,60
814,60
815,60
816,60
817,60
818,60
819,60
820,60
821,60
822,60
823,60
824,60
825,60
826,60
827,60
828,60
829,60
830,60
831,60
832,60
833,60
834,60
835,60
836,60
837,60
838,60
839,60
840,60
841,60
842,60
843,60
844,60
845,60
846,60
847,60
848,60
849,60
850,60
851,60
852,60
853,60
854,60
855,60
856,60
857,60
858,60
859,60
860,60
861,60
862,60
863,60
864,60
865,60
866,60
867,60
868,60
869,60
870,60
871,60
872,60
873,60
874,60
875,60
876,60
877,60
878,60
879,60
880,60
881,60
882,60
883,60
884,60
885,60
886,60
887,60
888,60
889,60
890,60
891,60
892,60
893,60
894,60
895,60
896,60
897,60
898,60
899,60
900,60
901,60
902,60
903,60
904,60
905,60
906,60
907,60
908,60
909,60
910,60
911,60
912,60
913,60
914,61
915,61
916,62
917,62
918,62
919,62
920,62
921,63
922,63
923,63
924,63
925,63
926,63
927,63
928,63
929,63
930,63
931,63
932,63
933,63
934,63
935,63
936,63
937,63
938,63
939,64
940,64
941,64
942,64
943,64
944,64
945,64
946,64
947,64
948,64
949,65
950,66
951,66
952,66
953,66
954,66
955,66
956,67
957,67
958,67
959,67
960,67
961,67
962,67
963,67
964,67
965,67
966,67
967,67
968,67
969,67
970,67
971,67
972,67
973,67
974,68
975,68
976,68
977,68
978,68
979,68
980,68
981,68
982,68
983,68
984,68
985,69
986,69
987,70
988,70
989,71
990,71
991,71
992,71
993,71
994,71
995,71
996,71
997,71
998,71
999,71
1000,71
1001,72
1002,72
1003,72
1004,73
1005,73
1006,73
1007,73
1008,74
1009,74
1010,74
1011,74
1012,74
1013,74
1014,74
1015,74
1016,74
1017,74
1018,74
1019,74
1020,74
1021,74
1022,74
1023,74
1024,74
1025,74
1026,74
1027,74
1028,74
1029,74
1030,74
1031,74
1032,74
1033,74
1034,74
1035,74
1036,74
1037,74
1038,74
1039,74
1040,74
1041,74
1042,74
1043,74
1044,74
1045,74
1046,74
1047,74
1048,74
1049,74
1050,74
1051,74
1052,75
1053,75
1054,75
1055,75
1056,75
1057,75
1058,75
1059,75
1060,75
1061,75
1062,75
1063,75
1064,75
1065,75
1066,75
1067,75
1068,75
1069,75
1070,75
1071,75
1072,75
1073,76
1074,77
1075,77
1076,77
1077,77
1078,77
1079,77
1080,77
1081,77
1082,77
1083,77
1084,77
1085,77
1086,77
1087,77
1088,77
1089,77
1090,78
1091,78
1092,78
1093,78
1094,78
1095,78
1096,78
1097,78
1098,78
1099,78
1100,78
1101,78
1102,78
1103,79
1104,79
1105,79
1106,79
1107,79
1108,79
1109,79
1110,79
1111,79
1112,79
1113,79
1114,81
1115,81
1116,82
1117,82
1118,82
1119,82
1120,82
1121,82
1122,82
1123,83
1124,83
1125,83
1126,84
1127,84
1128,84
1129,84
1130,84
1131,84
1132,84
1133,84
1134,84
1135,84
1136,84
1137,84
1138,84
1139,84
1140,84
1141,84
1142,84
1143,84
1144,84
1145,85
1146,85
1147,85
1148,85
1149,87
1150,87
1151,87
1152,88
1153,88
1154,88
1155,88
1156,88
1157,88
1158,88
1159,88
1160,88
1161,88
1162,88
1163,88
1164,88
1165,88
1166,88
1167,88
1168,89
1169,89
1170,89
1171,89
1172,89
1173,89
1174,89
1175,89
1176,89
1177,89
1178,89
1179,89
1180,89
1181,89
1182,89
1183,89
1184,89
1185,89
1186,89
1187,89
1188,89
1189,89
1190,89
1191,89
1192,89
1193,89
1194,89
1195,89
1196,89
1197,90
1198,90
1199,90
1200,90
1201,90
1202,90
1203,90
1204,90
1205,90
1206,90
1207,90
1208,90
1209,90
1210,90
1211,90
1212,90
1213,90
1214,90
1215,90
1216,90
1217,90
1218,90
1219,90
1220,90
1221,90
1222,90
1223,90
1224,90
1225,90
1226,90
1227,90
1228,90
1229,90
1230,90
1231,90
1232,90
1233,90
1234,90
1235,90
1236,90
1237,90
1238,90
1239,90
1240,90
1241,90
1242,90
1243,90
1244,90
1245,90
1246,90
1247,90
1248,90
1249,90
1250,90
1251,90
1252,90
1253,90
1254,90
1255,90
1256,90
1257,90
1258,90
1259,90
1260,90
1261,90
1262,90
1263,90
1264,90
1265,90
1266,90
1267,90
1268,90
1269,90
1270,90
1271,90
1272,90
1273,90
1274,90
1275,90
1276,90
1277,90
1278,90
1279,90
1280,90
1281,90
1282,90
1283,90
1284,90
1285,90
1286,90
1287,90
1288,90
1289,90
1290,90
1291,90
1292,90
1293,90
1294,90
1295,90
1296,90
1297,90
1298,90
1299,90
1300,90
1301,90
1302,90
1303,90
1304,90
1305,90
1306,90
1307,90
1308,90
1309,90
1310,90
1311,90
1312,90
1313,90
1314,90
1315,90
1316,90
1317,90
1318,90
1319,90
1320,90
1321,90
1322,90
1323,90
1324,90
1325,90
1326,90
1327,90
1328,90
1329,90
1330,90
1331,90
1332,90
1333,90
1334,90
1335,90
1336,91
1337,91
1338,91
1339,91
1340,91
1341,91
1342,91
1343,91
1344,91
1345,92
1346,92
1347,92
1348,92
1349,92
1350,92
1351,92
1352,92
1353,92
1354,92
1355,92
1356,92
1357,93
1358,93
1359,93
1360,93
1361,93
1362,93
1363,93
1364,93
1365,93
1366,94
1367,94
1368,94
1369,94
1370,94
1371,94
1372,94
1373,94
1374,94
1375,94
1376,94
1377,94
1378,94
1379,94
1380,94
1381,94
1382,95
1383,95
1384,95
1385,95
1386,95
1387,95
1388,95
1389,95
1390,95
1391,95
1392,96
1393,96
1394,97
1395,97
1396,98
1397,98
1398,99
1399,99
1400,99
1401,99
1402,99
1403,99
1404,99
1405,99
1406,99
1407,99
1408,100
1409,100
1410,100
1411,100
1412,100
1413,100
1414,100
1415,100
1416,100
1417,100
1418,100
1419,100
1420,100
1421,100
1422,100
1423,100
1424,100
1425,100
1426,100
1427,100
1428,100
1429,100
1430,101
1431,101
1432,102
1433,102
1434,102
1435,102
1436,103
1437,103
1438,103
1439,104
1440,105
1441,106
1442,106
1443,106
1444,106
1445,106
1446,106
1447,106
1448,106
1449,106
1450,106
1451,106
1452,106
1453,106
1454,106
1455,106
1456,106
1457,107
1458,107
1459,107
1460,107
1461,107
1462,108
1463,108
1464,108
1465,108
1466,108
1467,108
1468,108
1469,110
1470,110
1471,110
1472,110
1473,110
1474,110
1475,110
1476,110
1477,110
1478,110
1479,110
1480,110
1481,111
1482,111
1483,111
1484,111
1485,111
1486,111
1487,112
1488,112
1489,112
1490,112
1491,112
1492,112
1493,112
1494,112
1495,112
1496,112
1497,112
1498,112
1499,112
1500,112
1501,113
1502,113
1503,113
1504,113
1505,113
1506,114
1507,114
1508,114
1509,114
1510,114
1511,114
1512,114
1513,114
1514,114
1515,114
1516,114
1517,114
1518,114
1519,114
1520,115
1521,115
1522,115
1523,115
1524,115
1525,115
1526,115
1527,116
1528,116
1529,116
1530,116
1531,116
1532,116
1533,116
1534,116
1535,116
1536,116
1537,116
1538,116
1539,116
1540,116
1541,116
1542,116
1543,116
1544,116
1545,116
1546,116
1547,116
1548,116
1549,116
1550,116
1551,116
1552,116
1553,116
1554,116
1555,116
1556,116
1557,116
1558,116
1559,116
1560,116
1561,116
1562,117
1563,117
1564,117
1565,118
1566,118
1567,118
1568,118
1569,118
1570,118
1571,118
1572,118
1573,118
1574,118
1575,118
1576,118
1577,118
1578,118
1579,118
1580,118
1581,118
1582,118
1583,118
1584,118
1585,118
1586,118
1587,118
1588,119
1589,119
1590,119
1591,119
1592,119
1593,119
1594,119
1595,119
1596,119
1597,119
1598,119
1599,119
1600,119
1601,119
1602,119
1603,119
1604,119
1605,119
1606,119
1607,119
1608,119
1609,119
1610,119
1611,119
1612,119
1613,119
1614,119
1615,119
1616,119
1617,119
1618,119
1619,119
1620,119
1621,119
1622,119
1623,120
1624,120
1625,120
1626,120
1627,120
1628,120
1629,120
1630,120
1631,120
1632,120
1633,120
1634,120
1635,120
1636,120
1637,120
1638,120
1639,120
1640,120
1641,120
1642,120
1643,120
1644,120
1645,120
1646,120
1647,120
1648,120
1649,120
1650,120
1651,120
1652,120
1653,120
1654,120
1655,120
1656,120
1657,120
1658,120
1659,120
1660,120
1661,120
1662,120
1663,120
1664,120
1665,120
1666,120
1667,120
1668,120
1669,120
1670,120
1671,120
1672,120
1673,120
1674,120
1675,120
1676,120
1677,120
1678,120
1679,120
1680,120
1681,120
1682,120
1683,120
1684,120
1685,120
1686,120
1687,120
1688,120
1689,120
1690,120
1691,120
1692,120
1693,120
1694,120
1695,120
1696,120
1697,120
1698,120
1699,120
1700,120
1701,120
1702,120
1703,120
1704,120
1705,121
1706,121
1707,121
1708,121
1709,121
1710,121
1711,121
1712,121
1713,121
1714,121
1715,121
1716,121
1717,121
1718,121
1719,121
1720,121
1721,121
1722,121
1723,121
1724,121
1725,121
1726,121
1727,121
1728,121
1729,121
1730,121
1731,121
1732,121
1733,121
1734,121
1735,121
1736,121
1737,121
1738,121
1739,121
1740,121
1741,121
1742,122
1743,122
1744,122
1745,122
1746,122
1747,122
1748,122
1749,122
1750,122
1751,123
1752,123
1753,123
1754,123
1755,123
1756,123
1757,123
1758,123
1759,123
1760,123
1761,123
1762,123
1763,123
1764,124
1765,124
1766,124
1767,124
1768,124
1769,124
1770,124
1771,124
1772,124
1773,124
1774,124
1775,124
1776,124
1777,124
1778,124
1779,124
1780,124
1781,125
1782,125
1783,125
1784,126
1785,126
1786,126
1787,126
1788,126
1789,126
1790,126
1791,126
1792,126
1793,126
1794,126
1795,126
1796,126
1797,126
1798,126
1799,126
1800,126
1801,126
1802,126
1803,126
1804,126
1805,126
1806,126
1807,126
1808,126
1809,126
1810,126
1811,126
1812,126
1813,126
1814,126
1815,126
1816,126
1817,126
1818,126
1819,126
1820,126
1821,126
1822,126
1823,126
1824,126
1825,126
1826,126
1827,126
1828,126
1829,126
1830,126
1831,126
1832,126
1833,126
1834,126
1835,126
1836,126
1837,126
1838,126
1839,126
1840,126
1841,126
1842,126
1843,126
1844,127
1845,127
1846,127
1847,127
1848,127
1849,127
1850,127
1851,127
1852,127
1853,127
1854,127
1855,127
1856,127
1857,127
1858,127
1859,127
1860,127
1861,127
1862,127
1863,127
1864,127
1865,127
1866,127
1867,127
1868,127
1869,127
1870,127
1871,127
1872,127
1873,127
1874,127
1875,127
1876,127
1877,127
1878,127
1879,127
1880,127
1881,127
1882,127
1883,127
1884,127
1885,127
1886,127
1887,127
1888,127
1889,127
1890,127
1891,127
1892,127
1893,127
1894,127
1895,127
1896,127
1897,127
1898,127
1899,127
1900,127
1901,127
1902,128
1903,128
1904,128
1905,128
1906,128
1907,128
1908,128
1909,128
1910,128
1911,128
1912,129
1913,129
1914,129
1915,129
1916,129
1917,129
1918,129
1919,129
1920,129
1921,129
1922,129
1923,129
1924,130
1925,130
1926,130
1927,131
1928,131
1929,131
1930,132
1931,132
1932,132
1933,132
1934,133
1935,133
1936,133
1937,133
1938,133
1939,133
1940,133
1941,134
1942,134
1943,134
1944,135
1945,135
1946,135
1947,135
1948,135
1949,135
1950,135
1951,135
1952,135
1953,135
1954,135
1955,135
1956,135
1957,135
1958,135
1959,135
1960,135
1961,135
1962,135
1963,135
1964,135
1965,135
1966,136
1967,136
1968,136
1969,136
1970,136
1971,136
1972,136
1973,136
1974,136
1975,137
1976,138
1977,138
1978,138
1979,138
1980,138
1981,138
1982,138
1983,138
1984,139
1985,139
1986,139
1987,139
1988,139
1989,139
1990,139
1991,139
1992,139
1993,139
1994,139
1995,139
1996,139
1997,139
1998,139
1999,139
2000,139
