"tick","total"
0,0
1,0
2,0
3,0
4,0
5,0
6,0
7,0
8,0
9,0
10,0
11,0
12,0
13,0
14,1
15,1
16,2
17,2
18,2
19,2
20,2
21,2
22,2
23,2
24,2
25,2
26,2
27,2
28,3
29,3
30,3
31,3
32,3
33,3
34,3
35,3
36,3
37,3
38,3
39,3
40,3
41,3
42,3
43,3
44,3
45,3
46,3
47,3
48,3
49,3
50,3
51,3
52,3
53,3
54,3
55,3
56,3
57,3
58,3
59,3
60,3
61,3
62,3
63,3
64,3
65,3
66,3
67,3
68,3
69,3
70,3
71,3
72,3
73,3
74,3
75,3
76,3
77,3
78,4
79,4
80,4
81,5
82,7
83,9
84,10
85,11
86,13
87,14
88,15
89,16
90,16
91,16
92,16
93,16
94,16
95,17
96,17
97,17
98,17
99,17
100,17
101,17
102,17
103,17
104,17
105,17
106,17
107,17
108,17
109,17
110,17
111,17
112,17
113,17
114,17
115,17
116,17
117,17
118,17
119,17
120,17
121,17
122,17
123,17
124,17
125,17
126,17
127,17
128,17
129,18
130,18
131,18
132,18
133,18
134,18
135,18
136,18
137,18
138,18
139,18
140,18
141,18
142,18
143,18
144,18
145,18
146,18
147,18
148,18
149,18
150,19
151,19
152,19
153,19
154,19
155,20
156,20
157,21
158,21
159,21
160,21
161,21
162,21
163,21
164,21
165,21
166,21
167,21
168,21
169,21
170,21
171,21
172,22
173,22
174,22
175,22
176,22
177,22
178,22
179,23
180,23
181,23
182,23
183,23
184,23
185,24
186,24
187,24
188,24
189,24
190,24
191,24
192,24
193,24
194,24
195,24
196,24
197,24
198,24
199,24
200,24
201,26
202,26
203,26
204,26
205,26
206,26
207,26
208,26
209,26
210,26
211,26
212,26
213,26
214,26
215,26
216,26
217,26
218,26
219,26
220,26
221,26
222,26
223,26
224,26
225,26
226,26
227,26
228,26
229,26
230,26
231,26
232,26
233,26
234,26
235,26
236,26
237,26
238,26
239,26
240,26
241,27
242,27
243,28
244,28
245,28
246,28
247,29
248,30
249,30
250,30
251,30
252,30
253,30
254,31
255,32
256,32
257,32
258,32
259,32
260,32
261,32
262,32
263,32
264,32
265,32
266,32
267,32
268,32
269,32
270,32
271,32
272,32
273,32
274,32
275,32
276,32
277,32
278,35
279,35
280,35
281,35
282,35
283,35
284,35
285,36
286,36
287,36
288,36
289,36
290,36
291,37
292,38
293,38
294,38
295,38
296,39
297,39
298,39
299,39
300,39
301,39
302,39
303,39
304,39
305,39
306,39
307,39
308,39
309,39
310,39
311,39
312,39
313,39
314,39
315,39
316,40
317,40
318,40
319,40
320,41
321,41
322,41
323,41
324,41
325,41
326,41
327,41
328,41
329,42
330,42
331,42
332,42
333,42
334,42
335,42
336,42
337,43
338,43
339,44
340,44
341,44
342,44
343,44
344,44
345,44
346,44
347,44
348,44
349,45
350,45
351,45
352,46
353,46
354,46
355,46
356,46
357,46
358,46
359,46
360,46
361,46
362,46
363,46
364,46
365,46
366,46
367,46
368,46
369,46
370,47
371,47
372,47
373,47
374,47
375,47
376,48
377,49
378,50
379,51
380,53
381,54
382,55
383,56
384,57
385,57
386,57
387,57
388,57
389,57
390,57
391,57
392,57
393,58
394,58
395,58
396,58
397,58
398,58
399,58
400,58
401,58
402,58
403,58
404,59
405,59
406,60
407,60
408,60
409,60
410,60
411,60
412,60
413,60
414,60
415,60
416,60
417,61
418,61
419,61
420,61
421,61
422,61
423,61
424,61
425,61
426,61
427,62
428,62
429,62
430,62
431,62
432,62
433,63
434,63
435,63
436,63
437,63
438,63
439,63
440,63
441,63
442,63
443,63
444,63
445,63
446,63
447,63
448,63
449,63
450,63
451,63
452,63
453,63
454,63
455,63
456,63
457,63
458,63
459,63
460,63
461,63
462,63
463,63
464,63
465,63
466,63
467,63
468,63
469,63
470,63
471,63
472,63
473,63
474,64
475,64
476,64
477,64
478,64
479,64
480,64
481,64
482,64
483,64
484,64
485,64
486,64
487,64
488,64
489,64
490,64
491,65
492,65
493,65
494,66
495,66
496,66
497,66
498,67
499,67
500,67
501,67
502,67
503,67
504,67
505,67
506,67
507,67
508,67
509,67
510,67
511,67
512,67
513,67
514,67
515,67
516,67
517,67
518,67
519,67
520,67
521,67
522,67
523,67
524,68
525,68
526,68
527,68
528,68
529,68
530,68
531,68
532,68
533,68
534,68
535,69
536,69
537,69
538,69
539,69
540,69
541,69
542,69
543,69
544,69
545,69
546,69
547,69
548,69
549,69
550,69
551,70
552,70
553,70
554,70
555,70
556,70
557,70
558,70
559,70
560,70
561,70
562,70
563,70
564,70
565,70
566,71
567,71
568,71
569,71
570,71
571,72
572,72
573,72
574,72
575,72
576,72
577,72
578,72
579,73
580,73
581,73
582,73
583,73
584,73
585,73
586,73
587,73
588,73
589,73
590,74
591,74
592,74
593,74
594,74
595,74
596,74
597,74
598,74
599,74
600,74
601,74
602,74
603,74
604,74
605,74
606,74
607,75
608,75
609,75
610,75
611,75
612,76
613,76
614,76
615,76
616,76
617,76
618,76
619,76
620,76
621,76
622,76
623,77
624,77
625,77
626,77
627,77
628,77
629,77
630,77
631,78
632,78
633,78
634,78
635,78
636,78
637,78
638,78
639,78
640,78
641,79
642,79
643,79
644,79
645,79
646,79
647,79
648,79
649,79
650,79
651,79
652,79
653,79
654,79
655,79
656,79
657,80
658,80
659,80
660,80
661,80
662,80
663,80
664,80
665,80
666,80
667,80
668,80
669,81
670,81
671,82
672,82
673,82
674,82
675,82
676,83
677,83
678,83
679,83
680,84
681,84
682,84
683,84
684,84
685,84
686,84
687,84
688,84
689,84
690,84
691,84
692,84
693,84
694,85
695,85
696,86
697,86
698,86
699,86
700,86
701,86
702,86
703,86
704,86
705,86
706,86
707,87
708,87
709,87
710,87
711,87
712,87
713,87
714,87
715,87
716,87
717,87
718,87
719,87
720,87
721,87
722,87
723,87
724,87
725,87
726,87
727,87
728,87
729,88
730,88
731,88
732,88
733,88
734,88
735,88
736,88
737,88
738,88
739,88
740,88
741,88
742,88
743,88
744,88
745,88
746,88
747,88
748,88
749,88
750,88
751,88
752,88
753,88
754,89
755,89
756,90
757,90
758,90
759,90
760,90
761,90
762,90
763,90
764,90
765,91
766,91
767,91
768,91
769,91
770,91
771,91
772,91
773,91
774,91
775,91
776,91
777,91
778,91
779,91
780,91
781,91
782,91
783,91
784,91
785,91
786,91
787,91
788,91
789,91
790,91
791,91
792,91
793,91
794,91
795,91
796,91
797,91
798,91
799,91
800,91
801,91
802,91
803,91
804,91
805,91
806,91
807,91
808,91
809,91
810,91
811,91
812,91
813,91
814,91
815,91
816,91
817,91
818,91
819,91
820,91
821,91
822,91
823,91
824,91
825,91
826,91
827,91
828,91
829,92
830,92
831,92
832,92
833,92
834,93
835,93
836,93
837,93
838,93
839,93
840,93
841,93
842,93
843,93
844,93
845,93
846,93
847,93
848,93
849,93
850,93
851,93
852,93
853,93
854,93
855,93
856,93
857,93
858,93
859,93
860,93
861,93
862,93
863,93
864,93
865,93
866,93
867,93
868,93
869,93
870,93
871,93
872,93
873,93
874,93
875,93
876,94
877,94
878,94
879,94
880,94
881,94
882,94
883,94
884,94
885,94
886,94
887,94
888,94
889,94
890,94
891,94
892,94
893,94
894,94
895,94
896,94
897,94
898,94
899,94
900,94
901,94
902,94
903,94
904,94
905,94
906,94
907,94
908,94
909,94
910,94
911,94
912,94
913,95
914,95
915,95
916,95
917,95
918,95
919,95
920,95
921,95
922,96
923,96
924,96
925,96
926,96
927,96
928,96
929,96
930,97
931,97
932,97
933,97
934,97
935,97
936,97
937,97
938,97
939,97
940,97
941,97
942,97
943,97
944,97
945,97
946,97
947,98
948,98
949,98
950,98
951,98
952,98
953,98
954,98
955,98
956,98
957,98
958,99
959,99
960,99
961,99
962,99
963,99
964,100
965,100
966,101
967,101
968,101
969,101
970,101
971,101
972,101
973,102
974,102
975,102
976,102
977,102
978,102
979,103
980,103
981,103
982,103
983,103
984,103
985,103
986,103
987,103
988,103
989,103
990,103
991,103
992,103
993,103
994,103
995,103
996,104
997,104
998,104
999,104
1000,104
1001,104
1002,104
1003,106
1004,106
1005,106
1006,106
1007,106
1008,106
1009,106
1010,106
1011,106
1012,106
1013,106
1014,106
1015,106
1016,106
1017,106
1018,106
1019,106
1020,106
1021,106
1022,106
1023,106
1024,106
1025,106
1026,106
1027,106
1028,106
1029,106
1030,107
1031,107
1032,107
1033,107
1034,107
1035,107
1036,107
1037,107
1038,107
1039,108
1040,108
1041,108
1042,108
1043,108
1044,108
1045,108
1046,108
1047,108
1048,108
1049,108
1050,108
1051,109
1052,109
1053,109
1054,109
1055,109
1056,109
1057,109
1058,109
1059,109
1060,109
1061,109
1062,109
1063,109
1064,109
1065,109
1066,110
1067,110
1068,110
1069,110
1070,110
1071,110
1072,110
1073,110
1074,111
1075,111
1076,111
1077,111
1078,111
1079,111
1080,111
1081,111
1082,111
1083,111
1084,111
1085,111
1086,111
1087,111
1088,111
1089,111
1090,111
1091,112
1092,112
1093,112
1094,112
1095,112
1096,112
1097,112
1098,112
1099,112
1100,113
1101,113
1102,113
1103,113
1104,113
1105,113
1106,113
1107,113
1108,113
1109,113
1110,113
1111,113
1112,113
1113,113
1114,113
1115,113
1116,113
1117,113
1118,113
1119,114
1120,114
1121,114
1122,114
1123,114
1124,114
1125,114
1126,115
1127,115
1128,116
1129,116
1130,116
1131,116
1132,116
1133,116
1134,116
1135,116
1136,116
1137,116
1138,116
1139,116
1140,116
1141,116
1142,116
1143,116
1144,116
1145,116
1146,116
1147,116
1148,116
1149,116
1150,116
1151,116
1152,116
1153,116
1154,116
1155,116
1156,116
1157,116
1158,116
1159,116
1160,116
1161,117
1162,117
1163,117
1164,117
1165,117
1166,117
1167,117
1168,117
1169,117
1170,117
1171,117
1172,117
1173,118
1174,118
1175,118
1176,118
1177,119
1178,120
1179,120
1180,120
1181,120
1182,120
1183,120
1184,120
1185,120
1186,120
1187,120
1188,120
1189,120
1190,121
1191,121
1192,121
1193,121
1194,121
1195,121
1196,121
1197,121
1198,121
1199,121
1200,121
1201,121
1202,121
1203,121
1204,121
1205,121
1206,121
1207,121
1208,121
1209,121
1210,121
1211,122
1212,122
1213,123
1214,123
1215,123
1216,123
1217,123
1218,123
1219,123
1220,123
1221,123
1222,124
1223,124
1224,124
1225,124
1226,124
1227,124
1228,124
1229,124
1230,124
1231,124
1232,124
1233,124
1234,124
1235,124
1236,124
1237,124
1238,124
1239,124
1240,124
1241,124
1242,124
1243,124
1244,124
1245,124
1246,124
1247,124
1248,124
1249,124
1250,124
1251,124
1252,124
1253,124
1254,124
1255,124
1256,124
1257,124
1258,124
1259,124
1260,125
1261,125
1262,125
1263,125
1264,125
1265,125
1266,125
1267,125
1268,125
1269,125
1270,125
1271,125
1272,125
1273,125
1274,125
1275,125
1276,125
1277,125
1278,125
1279,125
1280,125
1281,125
1282,125
1283,125
1284,125
1285,125
1286,125
1287,125
1288,125
1289,125
1290,125
1291,125
1292,125
1293,125
1294,125
1295,125
1296,125
1297,125
1298,125
1299,125
1300,126
1301,126
1302,126
1303,126
1304,126
1305,126
1306,126
1307,126
1308,126
1309,126
1310,126
1311,126
1312,126
1313,126
1314,126
1315,126
1316,126
1317,126
1318,127
1319,127
1320,127
1321,127
1322,127
1323,128
1324,128
1325,128
1326,128
1327,128
1328,128
1329,128
1330,128
1331,128
1332,128
1333,128
1334,128
1335,128
1336,128
1337,128
1338,128
1339,128
1340,128
1341,128
1342,128
1343,128
1344,128
1345,128
1346,128
1347,128
1348,128
1349,128
1350,128
1351,128
1352,128
1353,128
1354,128
1355,128
1356,128
1357,128
1358,128
1359,128
1360,128
1361,128
1362,128
1363,128
1364,128
1365,128
1366,128
1367,128
1368,129
1369,129
1370,129
1371,129
1372,129
1373,129
1374,130
1375,130
1376,130
1377,131
1378,131
1379,131
1380,131
1381,131
1382,131
1383,131
1384,131
1385,131
1386,131
1387,131
1388,131
1389,131
1390,131
1391,131
1392,131
1393,131
1394,131
1395,131
1396,131
1397,131
1398,131
1399,131
1400,131
1401,131
1402,131
1403,131
1404,131
1405,131
1406,131
1407,131
1408,131
1409,131
1410,131
1411,131
1412,131
1413,131
1414,131
1415,131
1416,131
1417,131
1418,131
1419,131
1420,131
1421,131
1422,131
1423,131
1424,132
1425,132
1426,132
1427,132
1428,132
1429,132
1430,132
1431,132
1432,132
1433,132
1434,132
1435,132
1436,132
1437,132
1438,132
1439,132
1440,132
1441,132
1442,132
1443,132
1444,132
1445,132
1446,132
1447,132
1448,132
1449,132
1450,132
1451,132
1452,132
1453,132
1454,132
1455,132
1456,132
1457,132
1458,132
1459,133
1460,133
1461,133
1462,134
1463,134
1464,134
1465,134
1466,134
1467,134
1468,134
1469,134
1470,134
1471,134
1472,134
1473,134
1474,135
1475,135
1476,135
1477,135
1478,135
1479,135
1480,135
1481,135
1482,135
1483,135
1484,135
1485,135
1486,135
1487,135
1488,136
1489,136
1490,136
1491,136
1492,136
1493,136
1494,136
1495,136
1496,136
1497,136
1498,136
1499,136
1500,136
1501,136
1502,136
1503,136
1504,136
1505,136
1506,136
1507,136
1508,136
1509,136
1510,136
1511,136
1512,136
1513,136
1514,136
1515,136
1516,137
1517,137
1518,137
1519,137
1520,137
1521,137
1522,137
1523,138
1524,138
1525,138
1526,138
1527,138
1528,138
1529,138
1530,138
1531,138
1532,138
1533,138
1534,138
1535,138
1536,138
1537,138
1538,138
1539,138
1540,138
1541,138
1542,138
1543,138
1544,138
1545,138
1546,138
1547,138
1548,138
1549,138
1550,138
1551,138
1552,138
1553,138
1554,138
1555,138
1556,138
1557,138
1558,138
1559,138
1560,138
1561,138
1562,138
1563,138
1564,138
1565,138
1566,138
1567,138
1568,138
1569,138
1570,138
1571,138
1572,138
1573,138
1574,138
1575,138
1576,138
1577,138
1578,138
1579,138
1580,138
1581,138
1582,138
1583,138
1584,138
1585,138
1586,138
1587,138
1588,138
1589,138
1590,138
1591,138
1592,138
1593,138
1594,138
1595,139
1596,139
1597,139
1598,139
1599,139
1600,139
1601,139
1602,139
1603,139
1604,139
1605,139
1606,139
1607,139
1608,139
1609,139
1610,139
1611,139
1612,139
1613,139
1614,139
1615,139
1616,139
1617,139
1618,139
1619,139
1620,139
1621,139
1622,139
1623,139
1624,139
1625,139
1626,139
1627,139
1628,139
1629,139
1630,139
1631,139
1632,139
1633,139
1634,139
1635,139
1636,139
1637,139
1638,139
1639,139
1640,139
1641,139
1642,140
1643,140
1644,140
1645,141
1646,141
1647,141
1648,141
1649,141
1650,141
1651,141
1652,141
1653,141
1654,141
1655,141
1656,141
1657,141
1658,141
1659,141
1660,141
1661,141
1662,141
1663,141
1664,141
1665,141
1666,141
1667,141
1668,141
1669,141
1670,141
1671,142
1672,142
1673,142
1674,142
1675,142
1676,142
1677,142
1678,142
1679,142
1680,142
1681,142
1682,142
1683,142
1684,142
1685,142
1686,142
1687,142
1688,142
1689,142
1690,142
1691,142
1692,142
1693,142
1694,142
1695,142
1696,142
1697,142
1698,142
1699,142
1700,142
1701,142
1702,142
1703,142
1704,142
1705,142
1706,142
1707,142
1708,142
1709,142
1710,142
1711,142
1712,142
1713,142
1714,142
1715,142
1716,142
1717,142
1718,142
1719,142
1720,142
1721,143
1722,143
1723,143
1724,143
1725,143
1726,143
1727,143
1728,143
1729,143
1730,143
1731,143
1732,143
1733,143
1734,143
1735,143
1736,143
1737,143
1738,144
1739,144
1740,144
1741,144
1742,144
1743,144
1744,144
1745,144
1746,144
1747,144
1748,144
1749,144
1750,144
1751,144
1752,144
1753,144
1754,145
1755,145
1756,145
1757,145
1758,145
1759,145
1760,145
1761,145
1762,145
1763,145
1764,145
1765,145
1766,145
1767,145
1768,145
1769,145
1770,145
1771,146
1772,146
1773,146
1774,146
1775,146
1776,146
1777,146
1778,146
1779,146
1780,146
1781,146
1782,146
1783,146
1784,146
1785,146
1786,146
1787,146
1788,146
1789,146
1790,146
1791,146
1792,146
1793,146
1794,146
1795,146
1796,146
1797,146
1798,146
1799,146
1800,146
1801,146
1802,146
1803,146
1804,146
1805,146
1806,146
1807,146
1808,146
1809,146
1810,146
1811,147
1812,147
1813,147
1814,147
1815,147
1816,147
1817,147
1818,147
1819,147
1820,147
1821,147
1822,147
1823,148
1824,148
1825,148
1826,148
1827,148
1828,148
1829,148
1830,148
1831,149
1832,149
1833,149
1834,149
1835,150
1836,150
1837,150
1838,150
1839,150
1840,150
1841,150
1842,150
1843,150
1844,150
1845,150
1846,150
1847,150
1848,150
1849,150
1850,150
1851,150
1852,150
1853,150
1854,150
1855,150
1856,150
1857,150
1858,150
1859,150
1860,150
1861,150
1862,150
1863,150
1864,150
1865,151
1866,151
1867,151
1868,151
1869,152
1870,152
1871,152
1872,152
1873,152
1874,153
1875,153
1876,153
1877,153
1878,153
1879,153
1880,153
1881,154
1882,154
1883,154
1884,154
1885,154
1886,154
1887,154
1888,154
1889,154
1890,154
1891,154
1892,154
1893,154
1894,154
1895,154
1896,154
1897,154
1898,154
1899,154
1900,154
1901,154
1902,154
1903,154
1904,154
1905,154
1906,154
1907,154
1908,154
1909,154
1910,154
1911,155
1912,155
1913,155
1914,156
1915,156
1916,156
1917,156
1918,156
1919,156
1920,156
1921,156
1922,156
1923,156
1924,156
1925,156
1926,157
1927,157
1928,157
1929,157
1930,157
1931,157
1932,158
1933,158
1934,158
1935,159
1936,159
1937,159
1938,159
1939,159
1940,159
1941,159
1942,159
1943,159
1944,159
1945,159
1946,159
1947,159
1948,160
1949,160
1950,160
1951,160
1952,160
1953,160
1954,160
1955,160
1956,160
1957,160
1958,161
1959,161
1960,161
1961,161
1962,161
1963,162
1964,162
1965,162
1966,163
1967,163
1968,163
1969,163
1970,163
1971,163
1972,163
1973,163
1974,163
1975,163
1976,163
1977,164
1978,164
1979,164
1980,164
1981,164
1982,164
1983,164
1984,164
1985,164
1986,164
1987,164
1988,164
1989,164
1990,164
1991,164
1992,164
1993,164
1994,164
1995,164
1996,164
1997,164
1998,164
1999,164
2000,164
