"tick","total"
0,0
1,0
2,0
3,0
4,0
5,0
6,0
7,0
8,0
9,0
10,0
11,0
12,0
13,0
14,0
15,0
16,0
17,0
18,0
19,0
20,0
21,0
22,0
23,0
24,0
25,0
26,0
27,0
28,0
29,0
30,0
31,0
32,0
33,0
34,0
35,0
36,0
37,0
38,0
39,0
40,0
41,0
42,0
43,0
44,0
45,0
46,0
47,0
48,0
49,0
50,0
51,0
52,0
53,0
54,0
55,0
56,0
57,0
58,0
59,0
60,0
61,0
62,0
63,0
64,0
65,0
66,0
67,0
68,0
69,0
70,0
71,0
72,0
73,0
74,0
75,0
76,0
77,0
78,0
79,0
80,0
81,0
82,0
83,0
84,0
85,0
86,0
87,0
88,0
89,0
90,0
91,0
92,0
93,0
94,0
95,0
96,0
97,0
98,0
99,0
100,0
101,0
102,0
103,0
104,0
105,0
106,0
107,0
108,0
109,0
110,0
111,0
112,0
113,0
114,0
115,0
116,0
117,0
118,0
119,0
120,0
121,0
122,0
123,0
124,0
125,0
126,0
127,0
128,0
129,0
130,0
131,0
132,0
133,0
134,0
135,0
136,0
137,0
138,0
139,0
140,0
141,0
142,0
143,0
144,0
145,0
146,0
147,0
148,0
149,0
150,0
151,0
152,0
153,0
154,0
155,0
156,0
157,0
158,0
159,0
160,0
161,0
162,0
163,0
164,0
165,0
166,0
167,0
168,0
169,0
170,0
171,0
172,0
173,0
174,0
175,0
176,0
177,0
178,0
179,0
180,0
181,0
182,0
183,0
184,0
185,0
186,0
187,0
188,0
189,0
190,0
191,0
192,0
193,0
194,0
195,0
196,0
197,0
198,0
199,0
200,0
201,0
202,0
203,0
204,0
205,0
206,0
207,0
208,0
209,0
210,0
211,0
212,0
213,0
214,0
215,0
216,0
217,0
218,0
219,0
220,0
221,0
222,0
223,0
224,0
225,0
226,0
227,0
228,0
229,0
230,0
231,0
232,0
233,0
234,0
235,0
236,0
237,0
238,0
239,0
240,0
241,0
242,0
243,0
244,0
245,1
246,1
247,1
248,1
249,1
250,1
251,1
252,1
253,1
254,1
255,1
256,1
257,1
258,1
259,1
260,1
261,1
262,1
263,1
264,1
265,1
266,1
267,1
268,1
269,1
270,1
271,1
272,1
273,1
274,1
275,1
276,1
277,1
278,1
279,1
280,1
281,1
282,1
283,1
284,1
285,1
286,1
287,1
288,1
289,1
290,1
291,1
292,1
293,1
294,1
295,2
296,2
297,2
298,2
299,2
300,2
301,2
302,2
303,2
304,2
305,2
306,2
307,2
308,2
309,3
310,3
311,3
312,3
313,3
314,3
315,3
316,3
317,3
318,3
319,3
320,3
321,3
322,3
323,3
324,3
325,3
326,3
327,3
328,3
329,3
330,3
331,3
332,3
333,3
334,4
335,4
336,4
337,5
338,5
339,5
340,5
341,5
342,5
343,5
344,5
345,5
346,6
347,6
348,6
349,6
350,6
351,6
352,6
353,8
354,8
355,9
356,9
357,9
358,10
359,11
360,11
361,11
362,11
363,11
364,11
365,11
366,11
367,11
368,11
369,11
370,11
371,11
372,11
373,11
374,11
375,11
376,11
377,11
378,11
379,11
380,11
381,11
382,11
383,11
384,11
385,11
386,11
387,11
388,12
389,12
390,12
391,12
392,12
393,12
394,12
395,12
396,12
397,12
398,12
399,12
400,13
401,13
402,13
403,13
404,13
405,13
406,13
407,13
408,14
409,15
410,15
411,15
412,15
413,15
414,15
415,15
416,15
417,16
418,16
419,16
420,16
421,16
422,16
423,16
424,16
425,16
426,16
427,17
428,17
429,17
430,17
431,17
432,17
433,17
434,17
435,17
436,17
437,17
438,17
439,17
440,17
441,17
442,17
443,17
444,17
445,17
446,17
447,17
448,19
449,19
450,19
451,19
452,19
453,19
454,19
455,19
456,20
457,20
458,20
459,20
460,20
461,20
462,20
463,20
464,20
465,20
466,20
467,20
468,20
469,20
470,20
471,20
472,20
473,20
474,21
475,21
476,21
477,21
478,21
479,21
480,21
481,21
482,21
483,21
484,21
485,21
486,22
487,22
488,22
489,22
490,22
491,22
492,22
493,22
494,22
495,22
496,22
497,22
498,22
499,22
500,22
501,22
502,22
503,22
504,22
505,22
506,22
507,22
508,22
509,22
510,22
511,23
512,23
513,23
514,24
515,24
516,24
517,24
518,24
519,24
520,24
521,24
522,24
523,24
524,24
525,24
526,24
527,24
528,24
529,24
530,24
531,24
532,24
533,24
534,24
535,24
536,24
537,24
538,24
539,24
540,24
541,24
542,24
543,24
544,24
545,24
546,24
547,24
548,24
549,24
550,25
551,25
552,25
553,25
554,25
555,25
556,25
557,25
558,25
559,25
560,25
561,25
562,25
563,25
564,25
565,25
566,25
567,25
568,25
569,25
570,25
571,25
572,25
573,25
574,25
575,26
576,26
577,26
578,26
579,26
580,26
581,26
582,27
583,27
584,27
585,27
586,27
587,27
588,27
589,27
590,27
591,27
592,27
593,27
594,27
595,27
596,27
597,27
598,27
599,27
600,27
601,27
602,27
603,27
604,27
605,27
606,27
607,27
608,27
609,27
610,27
611,27
612,27
613,27
614,27
615,27
616,27
617,27
618,28
619,28
620,29
621,29
622,29
623,30
624,30
625,30
626,30
627,30
628,30
629,30
630,30
631,30
632,30
633,30
634,30
635,30
636,30
637,30
638,30
639,30
640,31
641,31
642,31
643,31
644,31
645,31
646,31
647,31
648,31
649,31
650,31
651,31
652,31
653,31
654,31
655,31
656,31
657,31
658,31
659,31
660,31
661,31
662,31
663,31
664,31
665,31
666,31
667,31
668,31
669,31
670,31
671,31
672,31
673,31
674,31
675,31
676,31
677,31
678,31
679,31
680,31
681,31
682,31
683,31
684,31
685,31
686,31
687,31
688,31
689,31
690,31
691,31
692,31
693,31
694,31
695,31
696,31
697,31
698,31
699,31
700,31
701,31
702,31
703,32
704,32
705,32
706,32
707,32
708,32
709,32
710,32
711,32
712,32
713,32
714,32
715,32
716,32
717,32
718,32
719,32
720,32
721,32
722,32
723,32
724,32
725,32
726,32
727,32
728,32
729,32
730,32
731,32
732,32
733,32
734,32
735,32
736,32
737,32
738,32
739,32
740,32
741,32
742,32
743,32
744,32
745,32
746,32
747,32
748,32
749,32
750,32
751,32
752,32
753,32
754,32
755,32
756,33
757,33
758,33
759,33
760,33
761,33
762,33
763,33
764,33
765,33
766,33
767,33
768,33
769,33
770,33
771,33
772,33
773,33
774,33
775,33
776,33
777,33
778,33
779,33
780,33
781,33
782,33
783,34
784,34
785,34
786,34
787,34
788,34
789,34
790,34
791,34
792,34
793,34
794,34
795,34
796,34
797,34
798,34
799,34
800,34
801,34
802,34
803,34
804,34
805,34
806,34
807,34
808,34
809,34
810,34
811,34
812,34
813,34
814,34
815,34
816,34
817,34
818,34
819,34
820,34
821,34
822,34
823,34
824,34
825,34
826,34
827,34
828,34
829,34
830,34
831,34
832,34
833,34
834,34
835,34
836,34
837,34
838,34
839,34
840,34
841,34
842,34
843,34
844,34
845,34
846,34
847,34
848,34
849,34
850,34
851,34
852,34
853,34
854,34
855,34
856,34
857,34
858,34
859,34
860,34
861,35
862,35
863,35
864,35
865,35
866,35
867,35
868,35
869,35
870,35
871,35
872,35
873,35
874,35
875,35
876,35
877,35
878,35
879,35
880,35
881,35
882,35
883,35
884,35
885,35
886,35
887,35
888,35
889,35
890,35
891,35
892,35
893,35
894,35
895,35
896,35
897,35
898,35
899,35
900,35
901,35
902,35
903,35
904,35
905,35
906,35
907,35
908,35
909,35
910,35
911,35
912,35
913,35
914,35
915,35
916,35
917,35
918,35
919,35
920,35
921,35
922,35
923,35
924,36
925,36
926,36
927,36
928,36
929,36
930,36
931,36
932,36
933,36
934,36
935,36
936,36
937,36
938,37
939,37
940,37
941,37
942,37
943,37
944,37
945,37
946,37
947,37
948,37
949,37
950,37
951,37
952,37
953,37
954,37
955,37
956,37
957,37
958,37
959,37
960,37
961,37
962,37
963,37
964,37
965,37
966,37
967,37
968,37
969,37
970,37
971,37
972,37
973,37
974,37
975,37
976,37
977,37
978,37
979,37
980,37
981,37
982,37
983,37
984,37
985,37
986,37
987,37
988,37
989,37
990,37
991,38
992,38
993,38
994,38
995,38
996,38
997,38
998,38
999,38
1000,38
1001,38
1002,38
1003,38
1004,38
1005,38
1006,38
1007,38
1008,38
1009,38
1010,39
1011,40
1012,41
1013,41
1014,41
1015,41
1016,41
1017,41
1018,41
1019,41
1020,41
1021,41
1022,42
1023,42
1024,42
1025,42
1026,42
1027,42
1028,42
1029,42
1030,42
1031,42
1032,42
1033,42
1034,42
1035,42
1036,42
1037,42
1038,42
1039,42
1040,42
1041,42
1042,42
1043,42
1044,42
1045,42
1046,42
1047,42
1048,42
1049,42
1050,42
1051,42
1052,42
1053,42
1054,42
1055,42
1056,42
1057,42
1058,42
1059,42
1060,42
1061,42
1062,42
1063,42
1064,42
1065,42
1066,42
1067,42
1068,42
1069,43
1070,43
1071,43
1072,43
1073,43
1074,43
1075,43
1076,43
1077,43
1078,43
1079,43
1080,43
1081,43
1082,43
1083,43
1084,43
1085,43
1086,43
1087,43
1088,43
1089,43
1090,43
1091,43
1092,43
1093,43
1094,43
1095,44
1096,44
1097,45
1098,45
1099,45
1100,45
1101,45
1102,45
1103,45
1104,45
1105,45
1106,45
1107,45
1108,45
1109,45
1110,45
1111,45
1112,45
1113,45
1114,45
1115,45
1116,45
1117,45
1118,45
1119,45
1120,45
1121,45
1122,45
1123,45
1124,45
1125,45
1126,45
1127,45
1128,46
1129,46
1130,46
1131,46
1132,47
1133,47
1134,47
1135,47
1136,47
1137,47
1138,47
1139,47
1140,47
1141,47
1142,47
1143,47
1144,48
1145,49
1146,49
1147,49
1148,49
1149,50
1150,50
1151,50
1152,50
1153,51
1154,51
1155,51
1156,51
1157,51
1158,51
1159,51
1160,51
1161,51
1162,51
1163,51
1164,51
1165,51
1166,51
1167,51
1168,51
1169,51
1170,51
1171,51
1172,51
1173,51
1174,51
1175,51
1176,51
1177,51
1178,51
1179,51
1180,51
1181,51
1182,51
1183,51
1184,51
1185,51
1186,51
1187,51
1188,51
1189,51
1190,51
1191,51
1192,51
1193,51
1194,51
1195,52
1196,52
1197,52
1198,52
1199,52
1200,52
1201,52
1202,52
1203,52
1204,52
1205,52
1206,52
1207,52
1208,52
1209,52
1210,52
1211,52
1212,52
1213,52
1214,52
1215,52
1216,52
1217,52
1218,52
1219,52
1220,52
1221,52
1222,52
1223,52
1224,52
1225,53
1226,53
1227,53
1228,53
1229,53
1230,53
1231,53
1232,53
1233,53
1234,53
1235,53
1236,53
1237,53
1238,53
1239,53
1240,54
1241,54
1242,55
1243,55
1244,55
1245,55
1246,55
1247,55
1248,55
1249,55
1250,55
1251,55
1252,55
1253,55
1254,55
1255,55
1256,55
1257,55
1258,56
1259,56
1260,56
1261,56
1262,56
1263,56
1264,56
1265,56
1266,56
1267,56
1268,56
1269,56
1270,56
1271,56
1272,56
1273,56
1274,56
1275,56
1276,56
1277,56
1278,56
1279,56
1280,56
1281,56
1282,56
1283,56
1284,56
1285,56
1286,56
1287,56
1288,56
1289,56
1290,56
1291,56
1292,56
1293,56
1294,56
1295,56
1296,56
1297,56
1298,56
1299,56
1300,56
1301,56
1302,56
1303,57
1304,57
1305,57
1306,57
1307,57
1308,57
1309,57
1310,57
1311,57
1312,57
1313,57
1314,57
1315,57
1316,57
1317,57
1318,57
1319,57
1320,57
1321,57
1322,57
1323,57
1324,57
1325,57
1326,57
1327,57
1328,57
1329,57
1330,57
1331,57
1332,57
1333,57
1334,57
1335,57
1336,57
1337,57
1338,57
1339,57
1340,57
1341,57
1342,57
1343,57
1344,57
1345,57
1346,57
1347,57
1348,57
1349,57
1350,57
1351,57
1352,57
1353,57
1354,57
1355,58
1356,58
1357,58
1358,58
1359,58
1360,59
1361,59
1362,59
1363,59
1364,59
1365,59
1366,59
1367,59
1368,59
1369,59
1370,59
1371,59
1372,59
1373,59
1374,59
1375,59
1376,59
1377,59
1378,59
1379,59
1380,60
1381,60
1382,60
1383,61
1384,61
1385,61
1386,61
1387,61
1388,61
1389,61
1390,62
1391,62
1392,62
1393,62
1394,62
1395,62
1396,62
1397,62
1398,62
1399,62
1400,62
1401,62
1402,62
1403,62
1404,62
1405,62
1406,62
1407,62
1408,62
1409,62
1410,62
1411,62
1412,62
1413,62
1414,62
1415,62
1416,62
1417,62
1418,62
1419,62
1420,62
1421,62
1422,63
1423,63
1424,63
1425,63
1426,63
1427,63
1428,63
1429,63
1430,63
1431,63
1432,63
1433,63
1434,63
1435,63
1436,63
1437,63
1438,63
1439,63
1440,63
1441,63
1442,63
1443,63
1444,63
1445,64
1446,64
1447,64
1448,64
1449,64
1450,64
1451,64
1452,64
1453,64
1454,64
1455,64
1456,65
1457,65
1458,65
1459,65
1460,65
1461,65
1462,65
1463,65
1464,66
1465,66
1466,66
1467,66
1468,66
1469,66
1470,66
1471,66
1472,66
1473,66
1474,66
1475,66
1476,66
1477,66
1478,66
1479,66
1480,66
1481,66
1482,66
1483,66
1484,66
1485,66
1486,66
1487,66
1488,66
1489,66
1490,66
1491,66
1492,66
1493,66
1494,66
1495,66
1496,67
1497,67
1498,67
1499,67
1500,68
1501,68
1502,68
1503,68
1504,68
1505,68
1506,68
1507,68
1508,68
1509,69
1510,69
1511,69
1512,69
1513,69
1514,69
1515,69
1516,70
1517,70
1518,71
1519,71
1520,71
1521,71
1522,71
1523,71
1524,71
1525,71
1526,71
1527,71
1528,71
1529,71
1530,72
1531,72
1532,72
1533,72
1534,72
1535,72
1536,72
1537,72
1538,72
1539,72
1540,72
1541,72
1542,72
1543,72
1544,73
1545,73
1546,73
1547,73
1548,73
1549,73
1550,73
1551,73
1552,73
1553,73
1554,73
1555,73
1556,73
1557,74
1558,74
1559,74
1560,74
1561,74
1562,74
1563,74
1564,74
1565,74
1566,74
1567,74
1568,74
1569,74
1570,74
1571,74
1572,74
1573,75
1574,75
1575,75
1576,75
1577,75
1578,75
1579,75
1580,75
1581,75
1582,75
1583,75
1584,75
1585,75
1586,75
1587,75
1588,75
1589,75
1590,75
1591,76
1592,76
1593,76
1594,76
1595,76
1596,76
1597,76
1598,76
1599,76
1600,76
1601,76
1602,76
1603,76
1604,76
1605,76
1606,77
1607,77
1608,77
1609,77
1610,77
1611,77
1612,77
1613,78
1614,78
1615,78
1616,78
1617,78
1618,78
1619,78
1620,78
1621,78
1622,78
1623,78
1624,78
1625,78
1626,78
1627,78
1628,79
1629,79
1630,79
1631,79
1632,79
1633,79
1634,79
1635,79
1636,79
1637,79
1638,79
1639,79
1640,79
1641,79
1642,79
1643,79
1644,79
1645,79
1646,79
1647,79
1648,79
1649,79
1650,79
1651,79
1652,79
1653,79
1654,79
1655,79
1656,79
1657,79
1658,79
1659,79
1660,79
1661,79
1662,79
1663,79
1664,79
1665,79
1666,80
1667,80
1668,80
1669,81
1670,81
1671,81
1672,81
1673,81
1674,82
1675,82
1676,82
1677,82
1678,82
1679,82
1680,82
1681,82
1682,82
1683,82
1684,82
1685,82
1686,82
1687,82
1688,82
1689,82
1690,82
1691,82
1692,82
1693,82
1694,82
1695,82
1696,82
1697,82
1698,82
1699,82
1700,82
1701,82
1702,82
1703,82
1704,82
1705,82
1706,82
1707,82
1708,82
1709,82
1710,82
1711,82
1712,82
1713,82
1714,82
1715,82
1716,82
1717,82
1718,82
1719,82
1720,82
1721,82
1722,83
1723,83
1724,83
1725,83
1726,83
1727,83
1728,83
1729,83
1730,83
1731,83
1732,83
1733,83
1734,83
1735,83
1736,83
1737,83
1738,84
1739,84
1740,85
1741,85
1742,85
1743,85
1744,85
1745,86
1746,86
1747,86
1748,86
1749,86
1750,86
1751,86
1752,86
1753,86
1754,86
1755,86
1756,86
1757,86
1758,86
1759,86
1760,86
1761,86
1762,86
1763,86
1764,86
1765,86
1766,86
1767,86
1768,86
1769,86
1770,87
1771,87
1772,87
1773,87
1774,87
1775,87
1776,87
1777,87
1778,87
1779,87
1780,87
1781,87
1782,87
1783,87
1784,87
1785,87
1786,87
1787,87
1788,87
1789,88
1790,89
1791,89
1792,89
1793,89
1794,89
1795,89
1796,89
1797,90
1798,90
1799,90
1800,90
1801,90
1802,90
1803,90
1804,90
1805,90
1806,90
1807,90
1808,90
1809,90
1810,90
1811,90
1812,90
1813,90
1814,90
1815,90
1816,90
1817,90
1818,90
1819,90
1820,90
1821,90
1822,90
1823,91
1824,91
1825,91
1826,91
1827,91
1828,91
1829,91
1830,91
1831,91
1832,92
1833,92
1834,92
1835,92
1836,92
1837,92
1838,92
1839,92
1840,92
1841,92
1842,92
1843,92
1844,92
1845,92
1846,92
1847,93
1848,94
1849,94
1850,94
1851,94
1852,94
1853,94
1854,94
1855,94
1856,94
1857,94
1858,94
1859,94
1860,94
1861,94
1862,95
1863,95
1864,95
1865,95
1866,95
1867,95
1868,95
1869,95
1870,95
1871,95
1872,95
1873,95
1874,95
1875,95
1876,95
1877,95
1878,95
1879,95
1880,95
1881,95
1882,95
1883,95
1884,95
1885,95
1886,95
1887,95
1888,95
1889,95
1890,95
1891,95
1892,96
1893,96
1894,96
1895,96
1896,96
1897,96
1898,96
1899,96
1900,96
1901,96
1902,96
1903,96
1904,96
1905,96
1906,96
1907,96
1908,96
1909,96
1910,96
1911,96
1912,96
1913,96
1914,96
1915,96
1916,96
1917,96
1918,96
1919,96
1920,96
1921,96
1922,96
1923,96
1924,96
1925,96
1926,97
1927,97
1928,97
1929,97
1930,97
1931,97
1932,97
1933,97
1934,97
1935,97
1936,97
1937,97
1938,97
1939,97
1940,97
1941,97
1942,97
1943,97
1944,97
1945,97
1946,97
1947,97
1948,97
1949,98
1950,98
1951,98
1952,98
1953,98
1954,98
1955,98
1956,98
1957,98
1958,98
1959,98
1960,98
1961,98
1962,98
1963,98
1964,98
1965,98
1966,99
1967,99
1968,99
1969,99
1970,99
1971,99
1972,99
1973,100
1974,100
1975,100
1976,100
1977,100
1978,100
1979,100
1980,100
1981,100
1982,100
1983,100
1984,100
1985,100
1986,100
1987,100
1988,100
1989,100
1990,100
1991,101
1992,101
1993,101
1994,101
1995,101
1996,101
1997,101
1998,101
1999,101
2000,101
