"tick","total"
0,0
1,0
2,0
3,0
4,0
5,0
6,0
7,0
8,0
9,0
10,0
11,0
12,0
13,0
14,0
15,0
16,0
17,0
18,0
19,0
20,0
21,0
22,0
23,0
24,0
25,0
26,0
27,0
28,0
29,0
30,0
31,0
32,0
33,0
34,0
35,0
36,0
37,0
38,0
39,0
40,0
41,0
42,0
43,0
44,0
45,0
46,0
47,0
48,0
49,0
50,0
51,0
52,0
53,0
54,0
55,0
56,0
57,0
58,0
59,0
60,0
61,0
62,0
63,0
64,0
65,0
66,0
67,0
68,0
69,0
70,0
71,0
72,0
73,0
74,0
75,0
76,0
77,0
78,0
79,0
80,0
81,0
82,0
83,0
84,0
85,0
86,0
87,0
88,0
89,0
90,0
91,0
92,0
93,0
94,0
95,0
96,0
97,0
98,0
99,0
100,0
101,0
102,0
103,0
104,0
105,0
106,0
107,0
108,0
109,0
110,0
111,0
112,0
113,0
114,0
115,0
116,0
117,0
118,0
119,0
120,0
121,0
122,0
123,0
124,0
125,0
126,0
127,0
128,0
129,0
130,0
131,0
132,0
133,0
134,0
135,0
136,0
137,0
138,0
139,0
140,0
141,0
142,0
143,0
144,0
145,0
146,0
147,0
148,0
149,0
150,0
151,0
152,0
153,0
154,0
155,0
156,0
157,0
158,0
159,0
160,0
161,0
162,0
163,0
164,0
165,0
166,0
167,0
168,0
169,0
170,0
171,0
172,0
173,0
174,0
175,0
176,0
177,0
178,0
179,0
180,0
181,0
182,0
183,0
184,0
185,0
186,0
187,0
188,0
189,0
190,0
191,0
192,0
193,0
194,0
195,0
196,0
197,0
198,0
199,0
200,0
201,0
202,0
203,0
204,0
205,0
206,0
207,0
208,0
209,0
210,0
211,0
212,0
213,0
214,0
215,0
216,0
217,1
218,1
219,1
220,1
221,1
222,1
223,1
224,1
225,1
226,1
227,1
228,1
229,1
230,1
231,1
232,1
233,1
234,1
235,1
236,1
237,1
238,1
239,1
240,1
241,1
242,1
243,1
244,1
245,1
246,1
247,1
248,1
249,1
250,1
251,1
252,1
253,1
254,1
255,1
256,2
257,2
258,2
259,2
260,2
261,2
262,2
263,2
264,2
265,2
266,3
267,3
268,3
269,3
270,3
271,3
272,3
273,3
274,3
275,4
276,4
277,4
278,4
279,4
280,4
281,4
282,5
283,5
284,5
285,6
286,6
287,7
288,7
289,8
290,8
291,8
292,8
293,8
294,9
295,9
296,9
297,10
298,10
299,10
300,10
301,10
302,10
303,10
304,10
305,10
306,10
307,10
308,11
309,11
310,11
311,11
312,11
313,11
314,11
315,11
316,11
317,11
318,11
319,11
320,12
321,12
322,12
323,12
324,12
325,12
326,12
327,12
328,12
329,12
330,12
331,12
332,13
333,13
334,13
335,13
336,13
337,13
338,14
339,14
340,14
341,14
342,14
343,14
344,14
345,14
346,14
347,14
348,14
349,14
350,14
351,14
352,14
353,14
354,14
355,14
356,14
357,14
358,14
359,14
360,16
361,16
362,16
363,16
364,17
365,17
366,17
367,17
368,18
369,19
370,19
371,19
372,19
373,19
374,19
375,19
376,19
377,19
378,20
379,20
380,20
381,20
382,20
383,20
384,20
385,20
386,20
387,20
388,20
389,21
390,21
391,21
392,22
393,22
394,22
395,23
396,23
397,24
398,24
399,24
400,24
401,24
402,24
403,24
404,24
405,24
406,24
407,24
408,24
409,25
410,25
411,25
412,25
413,25
414,25
415,25
416,25
417,25
418,25
419,25
420,25
421,25
422,25
423,26
424,26
425,26
426,26
427,26
428,26
429,26
430,27
431,28
432,29
433,29
434,29
435,29
436,29
437,30
438,31
439,31
440,31
441,31
442,31
443,31
444,31
445,31
446,31
447,31
448,31
449,31
450,31
451,31
452,31
453,31
454,31
455,31
456,31
457,31
458,31
459,31
460,31
461,31
462,31
463,31
464,31
465,31
466,31
467,31
468,31
469,31
470,31
471,31
472,31
473,31
474,31
475,31
476,31
477,31
478,31
479,31
480,31
481,31
482,31
483,31
484,31
485,31
486,31
487,31
488,31
489,31
490,31
491,31
492,31
493,31
494,31
495,31
496,31
497,31
498,31
499,31
500,31
501,31
502,31
503,31
504,31
505,31
506,31
507,31
508,31
509,31
510,31
511,31
512,31
513,31
514,31
515,31
516,31
517,31
518,31
519,31
520,31
521,31
522,31
523,31
524,31
525,31
526,31
527,31
528,31
529,31
530,31
531,31
532,31
533,31
534,31
535,31
536,31
537,31
538,31
539,31
540,31
541,31
542,31
543,31
544,31
545,31
546,31
547,31
548,31
549,31
550,31
551,31
552,31
553,31
554,31
555,31
556,31
557,31
558,31
559,31
560,31
561,31
562,31
563,31
564,31
565,31
566,31
567,31
568,31
569,31
570,31
571,31
572,31
573,31
574,31
575,31
576,31
577,31
578,31
579,31
580,31
581,31
582,31
583,31
584,31
585,31
586,32
587,32
588,32
589,32
590,32
591,32
592,32
593,32
594,32
595,32
596,32
597,32
598,32
599,32
600,32
601,32
602,32
603,32
604,32
605,32
606,32
607,32
608,32
609,32
610,32
611,32
612,32
613,32
614,32
615,32
616,32
617,32
618,32
619,32
620,32
621,32
622,32
623,32
624,32
625,32
626,32
627,32
628,32
629,32
630,32
631,32
632,32
633,32
634,32
635,32
636,32
637,32
638,32
639,32
640,32
641,32
642,32
643,32
644,32
645,32
646,32
647,32
648,32
649,32
650,32
651,32
652,32
653,32
654,32
655,32
656,32
657,32
658,32
659,32
660,32
661,32
662,32
663,32
664,32
665,32
666,32
667,32
668,32
669,32
670,32
671,32
672,32
673,32
674,32
675,32
676,32
677,32
678,32
679,33
680,33
681,33
682,33
683,33
684,33
685,33
686,33
687,33
688,33
689,33
690,33
691,33
692,33
693,33
694,33
695,33
696,33
697,33
698,33
699,33
700,33
701,33
702,33
703,33
704,33
705,33
706,33
707,33
708,33
709,33
710,33
711,33
712,33
713,33
714,33
715,33
716,35
717,36
718,36
719,36
720,36
721,36
722,36
723,36
724,37
725,37
726,37
727,37
728,38
729,38
730,38
731,38
732,38
733,38
734,38
735,38
736,38
737,38
738,38
739,38
740,38
741,38
742,38
743,39
744,39
745,39
746,39
747,39
748,40
749,40
750,40
751,40
752,40
753,40
754,40
755,40
756,40
757,40
758,41
759,41
760,41
761,41
762,41
763,41
764,41
765,43
766,43
767,43
768,43
769,43
770,43
771,43
772,43
773,43
774,43
775,43
776,43
777,43
778,43
779,44
780,44
781,44
782,44
783,44
784,44
785,44
786,44
787,45
788,45
789,45
790,45
791,45
792,45
793,45
794,45
795,45
796,45
797,45
798,45
799,45
800,45
801,45
802,45
803,45
804,45
805,45
806,45
807,45
808,46
809,46
810,46
811,46
812,46
813,46
814,46
815,46
816,46
817,46
818,46
819,46
820,46
821,46
822,46
823,46
824,46
825,46
826,46
827,46
828,46
829,46
830,47
831,47
832,47
833,47
834,47
835,47
836,47
837,47
838,47
839,47
840,47
841,47
842,47
843,47
844,47
845,47
846,47
847,47
848,47
849,47
850,47
851,47
852,48
853,48
854,48
855,48
856,49
857,49
858,49
859,49
860,49
861,50
862,50
863,50
864,50
865,50
866,50
867,50
868,50
869,50
870,50
871,51
872,51
873,51
874,51
875,51
876,51
877,51
878,51
879,51
880,51
881,51
882,51
883,52
884,52
885,52
886,52
887,52
888,52
889,52
890,52
891,52
892,52
893,52
894,52
895,53
896,53
897,53
898,53
899,53
900,53
901,53
902,53
903,53
904,53
905,53
906,53
907,54
908,54
909,54
910,54
911,54
912,54
913,54
914,54
915,54
916,54
917,54
918,54
919,54
920,54
921,54
922,54
923,54
924,54
925,54
926,54
927,54
928,54
929,54
930,54
931,54
932,54
933,54
934,54
935,54
936,54
937,54
938,54
939,54
940,54
941,54
942,54
943,54
944,54
945,54
946,54
947,54
948,54
949,54
950,54
951,54
952,54
953,54
954,54
955,54
956,54
957,54
958,54
959,54
960,54
961,54
962,54
963,54
964,54
965,54
966,54
967,54
968,54
969,54
970,54
971,54
972,54
973,54
974,54
975,54
976,54
977,54
978,54
979,54
980,54
981,54
982,54
983,54
984,54
985,55
986,55
987,55
988,55
989,55
990,55
991,55
992,55
993,55
994,55
995,55
996,55
997,55
998,55
999,55
1000,55
1001,55
1002,55
1003,55
1004,55
1005,55
1006,55
1007,55
1008,55
1009,55
1010,55
1011,55
1012,55
1013,55
1014,55
1015,55
1016,55
1017,55
1018,55
1019,55
1020,55
1021,55
1022,55
1023,55
1024,56
1025,56
1026,56
1027,56
1028,56
1029,56
1030,56
1031,56
1032,56
1033,57
1034,57
1035,57
1036,57
1037,57
1038,57
1039,57
1040,57
1041,58
1042,58
1043,58
1044,58
1045,58
1046,58
1047,58
1048,58
1049,58
1050,58
1051,58
1052,58
1053,58
1054,58
1055,58
1056,58
1057,58
1058,58
1059,58
1060,58
1061,58
1062,58
1063,58
1064,58
1065,58
1066,58
1067,58
1068,58
1069,58
1070,58
1071,58
1072,58
1073,58
1074,58
1075,58
1076,58
1077,58
1078,58
1079,58
1080,58
1081,58
1082,58
1083,58
1084,58
1085,58
1086,58
1087,58
1088,58
1089,58
1090,58
1091,58
1092,58
1093,58
1094,58
1095,59
1096,59
1097,59
1098,59
1099,59
1100,59
1101,59
1102,60
1103,60
1104,60
1105,60
1106,61
1107,61
1108,61
1109,61
1110,61
1111,61
1112,61
1113,61
1114,61
1115,61
1116,61
1117,61
1118,61
1119,61
1120,61
1121,61
1122,61
1123,61
1124,61
1125,61
1126,61
1127,61
1128,61
1129,61
1130,61
1131,61
1132,61
1133,61
1134,61
1135,61
1136,61
1137,61
1138,61
1139,61
1140,61
1141,61
1142,61
1143,61
1144,61
1145,61
1146,61
1147,61
1148,61
1149,61
1150,61
1151,61
1152,61
1153,61
1154,61
1155,61
1156,61
1157,61
1158,61
1159,61
1160,61
1161,61
1162,61
1163,61
1164,61
1165,61
1166,61
1167,61
1168,61
1169,61
1170,61
1171,61
1172,61
1173,61
1174,61
1175,61
1176,61
1177,61
1178,61
1179,61
1180,61
1181,61
1182,61
1183,61
1184,61
1185,61
1186,61
1187,61
1188,61
1189,61
1190,61
1191,61
1192,61
1193,61
1194,61
1195,61
1196,61
1197,61
1198,61
1199,61
1200,61
1201,61
1202,61
1203,61
1204,61
1205,61
1206,61
1207,61
1208,61
1209,61
1210,61
1211,61
1212,61
1213,61
1214,61
1215,61
1216,61
1217,61
1218,61
1219,61
1220,61
1221,61
1222,61
1223,61
1224,61
1225,61
1226,61
1227,61
1228,61
1229,61
1230,61
1231,61
1232,61
1233,61
1234,61
1235,61
1236,61
1237,61
1238,62
1239,62
1240,62
1241,62
1242,62
1243,62
1244,62
1245,62
1246,62
1247,62
1248,62
1249,62
1250,62
1251,62
1252,62
1253,62
1254,62
1255,62
1256,62
1257,62
1258,62
1259,62
1260,62
1261,62
1262,63
1263,63
1264,63
1265,63
1266,63
1267,63
1268,63
1269,63
1270,63
1271,63
1272,63
1273,63
1274,63
1275,63
1276,63
1277,63
1278,63
1279,63
1280,63
1281,63
1282,63
1283,63
1284,63
1285,63
1286,63
1287,63
1288,63
1289,63
1290,63
1291,63
1292,63
1293,63
1294,63
1295,63
1296,63
1297,63
1298,63
1299,63
1300,63
1301,63
1302,63
1303,63
1304,63
1305,63
1306,63
1307,63
1308,63
1309,63
1310,63
1311,63
1312,63
1313,63
1314,63
1315,63
1316,63
1317,63
1318,63
1319,63
1320,63
1321,63
1322,63
1323,63
1324,63
1325,63
1326,63
1327,63
1328,63
1329,63
1330,63
1331,63
1332,63
1333,63
1334,63
1335,63
1336,63
1337,63
1338,63
1339,63
1340,63
1341,63
1342,63
1343,63
1344,63
1345,63
1346,63
1347,63
1348,63
1349,63
1350,63
1351,63
1352,63
1353,63
1354,63
1355,63
1356,64
1357,64
1358,64
1359,64
1360,64
1361,64
1362,65
1363,66
1364,66
1365,66
1366,66
1367,66
1368,66
1369,66
1370,66
1371,66
1372,66
1373,66
1374,66
1375,66
1376,66
1377,66
1378,66
1379,66
1380,66
1381,66
1382,66
1383,66
1384,66
1385,66
1386,66
1387,67
1388,67
1389,67
1390,67
1391,67
1392,67
1393,67
1394,67
1395,67
1396,67
1397,67
1398,67
1399,67
1400,67
1401,67
1402,67
1403,67
1404,67
1405,67
1406,67
1407,67
1408,67
1409,67
1410,67
1411,67
1412,67
1413,67
1414,67
1415,67
1416,67
1417,68
1418,68
1419,68
1420,68
1421,68
1422,68
1423,68
1424,68
1425,68
1426,68
1427,68
1428,68
1429,68
1430,68
1431,68
1432,68
1433,68
1434,68
1435,68
1436,68
1437,68
1438,69
1439,69
1440,69
1441,69
1442,69
1443,69
1444,69
1445,69
1446,69
1447,69
1448,69
1449,69
1450,69
1451,69
1452,69
1453,69
1454,69
1455,69
1456,69
1457,69
1458,70
1459,70
1460,70
1461,70
1462,70
1463,70
1464,70
1465,70
1466,70
1467,70
1468,70
1469,70
1470,70
1471,70
1472,71
1473,71
1474,71
1475,71
1476,71
1477,71
1478,71
1479,71
1480,71
1481,71
1482,71
1483,71
1484,71
1485,71
1486,71
1487,71
1488,71
1489,71
1490,72
1491,72
1492,72
1493,72
1494,72
1495,72
1496,72
1497,72
1498,72
1499,72
1500,72
1501,72
1502,72
1503,72
1504,72
1505,72
1506,72
1507,72
1508,72
1509,72
1510,72
1511,72
1512,72
1513,72
1514,73
1515,73
1516,73
1517,73
1518,73
1519,73
1520,73
1521,73
1522,73
1523,73
1524,73
1525,73
1526,73
1527,73
1528,73
1529,73
1530,73
1531,73
1532,73
1533,73
1534,73
1535,73
1536,73
1537,73
1538,73
1539,73
1540,73
1541,73
1542,73
1543,73
1544,73
1545,73
1546,73
1547,73
1548,73
1549,73
1550,73
1551,73
1552,74
1553,74
1554,74
1555,74
1556,74
1557,74
1558,74
1559,75
1560,75
1561,75
1562,75
1563,75
1564,75
1565,75
1566,75
1567,75
1568,75
1569,75
1570,76
1571,76
1572,76
1573,76
1574,76
1575,76
1576,76
1577,76
1578,76
1579,76
1580,76
1581,76
1582,76
1583,76
1584,76
1585,76
1586,76
1587,76
1588,76
1589,76
1590,76
1591,76
1592,77
1593,77
1594,77
1595,77
1596,78
1597,78
1598,78
1599,78
1600,78
1601,78
1602,78
1603,78
1604,80
1605,80
1606,80
1607,80
1608,80
1609,80
1610,80
1611,80
1612,80
1613,80
1614,80
1615,80
1616,80
1617,80
1618,80
1619,80
1620,80
1621,80
1622,80
1623,80
1624,80
1625,80
1626,80
1627,80
1628,80
1629,80
1630,80
1631,80
1632,80
1633,80
1634,80
1635,80
1636,80
1637,80
1638,80
1639,80
1640,80
1641,80
1642,80
1643,80
1644,80
1645,80
1646,80
1647,80
1648,80
1649,80
1650,80
1651,80
1652,80
1653,80
1654,80
1655,80
1656,81
1657,81
1658,81
1659,81
1660,81
1661,81
1662,81
1663,81
1664,81
1665,81
1666,81
1667,81
1668,81
1669,81
1670,81
1671,82
1672,82
1673,82
1674,82
1675,82
1676,82
1677,83
1678,83
1679,84
1680,84
1681,84
1682,84
1683,84
1684,84
1685,84
1686,84
1687,84
1688,84
1689,84
1690,84
1691,84
1692,84
1693,84
1694,84
1695,84
1696,84
1697,84
1698,84
1699,84
1700,84
1701,84
1702,84
1703,85
1704,85
1705,85
1706,85
1707,86
1708,86
1709,86
1710,86
1711,86
1712,86
1713,86
1714,86
1715,86
1716,86
1717,86
1718,86
1719,86
1720,86
1721,86
1722,86
1723,87
1724,87
1725,87
1726,87
1727,87
1728,87
1729,87
1730,87
1731,88
1732,88
1733,88
1734,88
1735,88
1736,88
1737,88
1738,88
1739,88
1740,88
1741,88
1742,88
1743,88
1744,88
1745,88
1746,88
1747,89
1748,89
1749,89
1750,89
1751,89
1752,89
1753,89
1754,89
1755,89
1756,89
1757,89
1758,89
1759,89
1760,89
1761,89
1762,90
1763,90
1764,90
1765,90
1766,90
1767,90
1768,90
1769,90
1770,90
1771,90
1772,90
1773,90
1774,90
1775,91
1776,91
1777,91
1778,91
1779,91
1780,91
1781,91
1782,91
1783,91
1784,92
1785,92
1786,92
1787,92
1788,92
1789,92
1790,92
1791,92
1792,92
1793,92
1794,92
1795,93
1796,93
1797,93
1798,93
1799,93
1800,93
1801,93
1802,93
1803,93
1804,93
1805,93
1806,93
1807,93
1808,93
1809,93
1810,93
1811,93
1812,93
1813,93
1814,93
1815,93
1816,93
1817,93
1818,94
1819,94
1820,94
1821,94
1822,94
1823,94
1824,94
1825,94
1826,94
1827,94
1828,94
1829,94
1830,94
1831,94
1832,94
1833,94
1834,94
1835,94
1836,95
1837,95
1838,95
1839,95
1840,95
1841,95
1842,95
1843,95
1844,95
1845,95
1846,95
1847,95
1848,95
1849,96
1850,96
1851,96
1852,96
1853,96
1854,96
1855,96
1856,96
1857,96
1858,96
1859,96
1860,96
1861,97
1862,97
1863,97
1864,97
1865,97
1866,97
1867,97
1868,97
1869,97
1870,97
1871,97
1872,97
1873,97
1874,97
1875,97
1876,97
1877,97
1878,97
1879,97
1880,97
1881,97
1882,97
1883,97
1884,97
1885,97
1886,97
1887,97
1888,97
1889,97
1890,97
1891,97
1892,97
1893,97
1894,97
1895,97
1896,97
1897,97
1898,97
1899,97
1900,97
1901,97
1902,97
1903,97
1904,97
1905,97
1906,97
1907,97
1908,97
1909,97
1910,97
1911,97
1912,97
1913,97
1914,97
1915,97
1916,97
1917,97
1918,97
1919,97
1920,97
1921,97
1922,97
1923,97
1924,97
1925,97
1926,97
1927,97
1928,97
1929,97
1930,97
1931,97
1932,97
1933,97
1934,97
1935,97
1936,97
1937,97
1938,97
1939,97
1940,97
1941,97
1942,97
1943,97
1944,97
1945,97
1946,97
1947,97
1948,97
1949,97
1950,97
1951,97
1952,97
1953,97
1954,97
1955,97
1956,97
1957,97
1958,97
1959,97
1960,97
1961,97
1962,97
1963,97
1964,97
1965,97
1966,97
1967,97
1968,97
1969,97
1970,97
1971,97
1972,97
1973,97
1974,97
1975,97
1976,97
1977,97
1978,97
1979,97
1980,97
1981,97
1982,97
1983,98
1984,98
1985,98
1986,98
1987,98
1988,98
1989,98
1990,98
1991,98
1992,98
1993,98
1994,98
1995,98
1996,98
1997,98
1998,98
1999,99
2000,99
