"tick","total"
0,0
1,0
2,0
3,0
4,0
5,0
6,0
7,0
8,0
9,0
10,0
11,0
12,0
13,0
14,0
15,0
16,0
17,0
18,0
19,0
20,0
21,0
22,0
23,0
24,0
25,0
26,0
27,0
28,0
29,0
30,0
31,0
32,0
33,0
34,0
35,0
36,0
37,0
38,0
39,0
40,0
41,0
42,0
43,0
44,0
45,0
46,0
47,0
48,0
49,0
50,0
51,0
52,0
53,0
54,0
55,0
56,0
57,0
58,0
59,0
60,0
61,0
62,0
63,0
64,0
65,0
66,0
67,0
68,0
69,0
70,0
71,0
72,0
73,0
74,0
75,0
76,0
77,0
78,0
79,0
80,0
81,0
82,0
83,0
84,0
85,0
86,0
87,0
88,0
89,0
90,0
91,0
92,0
93,0
94,0
95,0
96,0
97,0
98,0
99,0
100,0
101,0
102,0
103,0
104,0
105,0
106,0
107,0
108,0
109,0
110,0
111,0
112,0
113,0
114,0
115,0
116,0
117,0
118,0
119,0
120,0
121,0
122,0
123,0
124,0
125,0
126,0
127,0
128,0
129,0
130,0
131,0
132,0
133,0
134,0
135,0
136,0
137,0
138,0
139,0
140,0
141,0
142,0
143,0
144,0
145,0
146,0
147,0
148,0
149,0
150,0
151,0
152,0
153,0
154,0
155,0
156,0
157,0
158,0
159,0
160,0
161,0
162,0
163,0
164,0
165,0
166,0
167,0
168,0
169,0
170,0
171,0
172,0
173,0
174,0
175,0
176,0
177,0
178,0
179,0
180,0
181,0
182,0
183,0
184,0
185,0
186,0
187,0
188,0
189,0
190,0
191,0
192,0
193,0
194,0
195,0
196,0
197,0
198,0
199,0
200,0
201,0
202,0
203,0
204,0
205,0
206,0
207,0
208,0
209,0
210,0
211,0
212,1
213,1
214,1
215,1
216,1
217,1
218,1
219,1
220,1
221,1
222,1
223,3
224,3
225,3
226,3
227,3
228,4
229,4
230,4
231,4
232,5
233,5
234,5
235,5
236,6
237,6
238,7
239,7
240,7
241,7
242,9
243,11
244,11
245,11
246,11
247,11
248,11
249,11
250,11
251,11
252,12
253,12
254,12
255,12
256,13
257,14
258,14
259,14
260,14
261,14
262,14
263,14
264,14
265,14
266,14
267,14
268,14
269,14
270,14
271,14
272,14
273,15
274,15
275,15
276,15
277,15
278,15
279,15
280,15
281,15
282,15
283,16
284,16
285,16
286,16
287,16
288,16
289,16
290,16
291,16
292,16
293,16
294,16
295,16
296,16
297,16
298,16
299,18
300,18
301,19
302,19
303,19
304,19
305,19
306,19
307,19
308,19
309,19
310,20
311,20
312,20
313,20
314,20
315,20
316,20
317,20
318,20
319,20
320,20
321,20
322,20
323,20
324,20
325,20
326,20
327,20
328,20
329,20
330,20
331,20
332,20
333,20
334,20
335,20
336,20
337,20
338,20
339,20
340,20
341,20
342,20
343,20
344,20
345,20
346,20
347,20
348,20
349,20
350,20
351,20
352,20
353,20
354,20
355,20
356,20
357,20
358,20
359,20
360,20
361,21
362,21
363,21
364,21
365,22
366,22
367,22
368,22
369,22
370,22
371,22
372,22
373,22
374,22
375,23
376,23
377,23
378,23
379,23
380,23
381,23
382,23
383,23
384,23
385,23
386,24
387,24
388,24
389,24
390,24
391,24
392,24
393,24
394,24
395,24
396,24
397,24
398,24
399,24
400,24
401,24
402,24
403,24
404,24
405,24
406,24
407,24
408,24
409,24
410,24
411,24
412,24
413,24
414,24
415,24
416,24
417,25
418,26
419,26
420,26
421,26
422,26
423,26
424,26
425,26
426,26
427,26
428,26
429,26
430,27
431,27
432,27
433,28
434,29
435,29
436,29
437,29
438,29
439,29
440,29
441,29
442,29
443,29
444,29
445,29
446,29
447,29
448,29
449,29
450,29
451,29
452,29
453,29
454,29
455,30
456,30
457,30
458,30
459,30
460,30
461,30
462,30
463,30
464,30
465,30
466,30
467,30
468,30
469,30
470,30
471,30
472,30
473,30
474,30
475,30
476,30
477,30
478,30
479,30
480,30
481,30
482,30
483,30
484,30
485,30
486,30
487,30
488,30
489,30
490,30
491,30
492,30
493,30
494,30
495,30
496,30
497,30
498,30
499,30
500,30
501,30
502,30
503,30
504,30
505,30
506,30
507,30
508,30
509,30
510,30
511,30
512,30
513,30
514,30
515,30
516,30
517,30
518,30
519,30
520,30
521,30
522,30
523,30
524,30
525,30
526,30
527,30
528,30
529,30
530,30
531,30
532,30
533,30
534,30
535,30
536,30
537,30
538,30
539,30
540,30
541,30
542,30
543,30
544,30
545,30
546,30
547,30
548,30
549,30
550,30
551,30
552,30
553,31
554,31
555,31
556,31
557,31
558,31
559,31
560,31
561,31
562,31
563,31
564,31
565,31
566,31
567,31
568,31
569,31
570,31
571,31
572,31
573,32
574,32
575,32
576,32
577,32
578,33
579,33
580,33
581,33
582,33
583,33
584,33
585,33
586,33
587,33
588,33
589,33
590,33
591,33
592,33
593,33
594,33
595,33
596,33
597,33
598,33
599,33
600,33
601,33
602,33
603,33
604,33
605,33
606,33
607,33
608,33
609,33
610,33
611,33
612,33
613,33
614,33
615,33
616,33
617,33
618,34
619,34
620,34
621,34
622,34
623,34
624,34
625,34
626,34
627,34
628,34
629,34
630,34
631,34
632,34
633,34
634,34
635,35
636,35
637,35
638,35
639,35
640,35
641,35
642,35
643,35
644,35
645,36
646,36
647,36
648,36
649,36
650,36
651,36
652,36
653,36
654,36
655,36
656,36
657,36
658,37
659,37
660,37
661,37
662,37
663,37
664,37
665,37
666,37
667,37
668,37
669,37
670,38
671,38
672,38
673,38
674,38
675,38
676,38
677,38
678,38
679,38
680,38
681,38
682,38
683,38
684,38
685,38
686,38
687,38
688,38
689,38
690,38
691,39
692,39
693,39
694,39
695,39
696,39
697,39
698,39
699,39
700,39
701,39
702,39
703,39
704,39
705,39
706,39
707,39
708,39
709,39
710,39
711,39
712,39
713,39
714,39
715,39
716,39
717,39
718,39
719,39
720,40
721,40
722,41
723,41
724,41
725,41
726,41
727,41
728,41
729,41
730,41
731,41
732,41
733,41
734,41
735,41
736,41
737,42
738,42
739,42
740,42
741,42
742,42
743,42
744,42
745,42
746,42
747,43
748,43
749,43
750,43
751,43
752,43
753,43
754,43
755,43
756,44
757,44
758,44
759,44
760,44
761,44
762,44
763,44
764,44
765,44
766,44
767,44
768,45
769,45
770,45
771,45
772,45
773,45
774,45
775,45
776,45
777,45
778,45
779,45
780,45
781,45
782,45
783,45
784,45
785,45
786,45
787,45
788,45
789,45
790,46
791,46
792,46
793,46
794,46
795,46
796,46
797,46
798,46
799,47
800,47
801,47
802,47
803,47
804,47
805,47
806,47
807,47
808,47
809,47
810,47
811,47
812,47
813,47
814,47
815,47
816,47
817,47
818,47
819,47
820,47
821,47
822,47
823,47
824,47
825,47
826,47
827,47
828,47
829,47
830,47
831,47
832,47
833,47
834,47
835,47
836,47
837,47
838,47
839,47
840,47
841,47
842,47
843,47
844,47
845,47
846,47
847,47
848,47
849,47
850,47
851,47
852,47
853,47
854,47
855,47
856,47
857,47
858,47
859,47
860,47
861,47
862,47
863,48
864,48
865,48
866,48
867,48
868,48
869,48
870,48
871,48
872,48
873,48
874,48
875,49
876,49
877,49
878,49
879,49
880,49
881,49
882,50
883,51
884,51
885,52
886,52
887,52
888,52
889,52
890,52
891,52
892,52
893,52
894,52
895,52
896,52
897,52
898,52
899,52
900,52
901,52
902,52
903,52
904,52
905,52
906,52
907,52
908,52
909,52
910,52
911,52
912,52
913,52
914,52
915,52
916,52
917,52
918,52
919,52
920,52
921,52
922,52
923,52
924,52
925,52
926,52
927,52
928,52
929,52
930,52
931,52
932,52
933,52
934,52
935,52
936,53
937,53
938,53
939,53
940,53
941,53
942,53
943,53
944,53
945,53
946,53
947,53
948,53
949,53
950,53
951,53
952,53
953,53
954,53
955,53
956,53
957,53
958,54
959,54
960,54
961,54
962,54
963,54
964,54
965,54
966,54
967,54
968,54
969,54
970,54
971,54
972,54
973,54
974,54
975,54
976,54
977,54
978,54
979,54
980,54
981,54
982,54
983,54
984,54
985,54
986,54
987,54
988,54
989,54
990,54
991,54
992,54
993,54
994,54
995,54
996,54
997,54
998,54
999,54
1000,54
1001,54
1002,54
1003,54
1004,54
1005,54
1006,54
1007,54
1008,54
1009,54
1010,54
1011,54
1012,54
1013,54
1014,54
1015,54
1016,54
1017,54
1018,54
1019,54
1020,54
1021,54
1022,54
1023,54
1024,54
1025,54
1026,54
1027,55
1028,55
1029,56
1030,56
1031,56
1032,56
1033,56
1034,56
1035,56
1036,57
1037,57
1038,57
1039,57
1040,57
1041,57
1042,57
1043,57
1044,57
1045,57
1046,57
1047,57
1048,57
1049,57
1050,57
1051,57
1052,57
1053,58
1054,58
1055,58
1056,58
1057,58
1058,58
1059,58
1060,58
1061,58
1062,58
1063,58
1064,58
1065,58
1066,58
1067,59
1068,60
1069,60
1070,60
1071,60
1072,61
1073,61
1074,61
1075,61
1076,61
1077,61
1078,61
1079,61
1080,61
1081,61
1082,61
1083,61
1084,61
1085,61
1086,61
1087,61
1088,61
1089,62
1090,62
1091,62
1092,62
1093,62
1094,62
1095,62
1096,62
1097,62
1098,62
1099,62
1100,62
1101,62
1102,62
1103,62
1104,62
1105,62
1106,62
1107,62
1108,62
1109,62
1110,62
1111,62
1112,62
1113,62
1114,62
1115,62
1116,62
1117,62
1118,62
1119,62
1120,62
1121,62
1122,62
1123,62
1124,62
1125,62
1126,62
1127,62
1128,62
1129,62
1130,62
1131,62
1132,62
1133,62
1134,62
1135,62
1136,62
1137,62
1138,62
1139,62
1140,62
1141,62
1142,62
1143,62
1144,62
1145,62
1146,62
1147,62
1148,62
1149,62
1150,62
1151,62
1152,62
1153,62
1154,62
1155,62
1156,62
1157,62
1158,62
1159,62
1160,62
1161,62
1162,62
1163,62
1164,62
1165,62
1166,62
1167,63
1168,63
1169,63
1170,63
1171,63
1172,63
1173,63
1174,63
1175,63
1176,63
1177,63
1178,63
1179,63
1180,63
1181,63
1182,63
1183,63
1184,63
1185,63
1186,63
1187,63
1188,63
1189,63
1190,63
1191,63
1192,63
1193,63
1194,63
1195,63
1196,63
1197,63
1198,63
1199,63
1200,63
1201,63
1202,63
1203,63
1204,63
1205,63
1206,63
1207,63
1208,63
1209,63
1210,63
1211,63
1212,63
1213,63
1214,63
1215,63
1216,63
1217,63
1218,63
1219,63
1220,63
1221,63
1222,63
1223,63
1224,63
1225,63
1226,63
1227,63
1228,63
1229,63
1230,63
1231,63
1232,63
1233,63
1234,63
1235,63
1236,63
1237,63
1238,63
1239,63
1240,63
1241,63
1242,63
1243,63
1244,63
1245,63
1246,63
1247,63
1248,63
1249,63
1250,63
1251,63
1252,63
1253,63
1254,63
1255,63
1256,63
1257,63
1258,63
1259,63
1260,63
1261,63
1262,63
1263,63
1264,63
1265,63
1266,63
1267,63
1268,63
1269,63
1270,63
1271,63
1272,63
1273,63
1274,63
1275,63
1276,63
1277,63
1278,63
1279,63
1280,63
1281,63
1282,63
1283,63
1284,63
1285,63
1286,63
1287,63
1288,63
1289,63
1290,63
1291,63
1292,63
1293,63
1294,63
1295,63
1296,63
1297,63
1298,63
1299,63
1300,63
1301,63
1302,63
1303,63
1304,63
1305,63
1306,63
1307,63
1308,63
1309,63
1310,63
1311,63
1312,63
1313,63
1314,63
1315,63
1316,63
1317,63
1318,63
1319,63
1320,63
1321,63
1322,63
1323,63
1324,64
1325,64
1326,64
1327,64
1328,64
1329,64
1330,64
1331,64
1332,64
1333,64
1334,64
1335,64
1336,64
1337,64
1338,64
1339,64
1340,64
1341,65
1342,65
1343,65
1344,65
1345,65
1346,65
1347,65
1348,65
1349,65
1350,65
1351,65
1352,65
1353,66
1354,66
1355,66
1356,66
1357,66
1358,66
1359,66
1360,66
1361,66
1362,66
1363,66
1364,66
1365,66
1366,66
1367,66
1368,66
1369,66
1370,66
1371,66
1372,66
1373,66
1374,66
1375,66
1376,66
1377,66
1378,66
1379,66
1380,66
1381,66
1382,66
1383,66
1384,66
1385,66
1386,67
1387,68
1388,68
1389,68
1390,68
1391,68
1392,68
1393,68
1394,68
1395,68
1396,68
1397,70
1398,70
1399,70
1400,70
1401,70
1402,70
1403,70
1404,70
1405,70
1406,70
1407,70
1408,70
1409,70
1410,70
1411,70
1412,70
1413,70
1414,70
1415,70
1416,70
1417,70
1418,70
1419,71
1420,72
1421,72
1422,72
1423,72
1424,72
1425,73
1426,73
1427,73
1428,73
1429,73
1430,73
1431,73
1432,73
1433,73
1434,73
1435,73
1436,73
1437,73
1438,73
1439,73
1440,73
1441,73
1442,73
1443,73
1444,73
1445,73
1446,73
1447,73
1448,73
1449,73
1450,73
1451,73
1452,73
1453,73
1454,74
1455,74
1456,74
1457,74
1458,74
1459,74
1460,74
1461,74
1462,74
1463,74
1464,74
1465,74
1466,74
1467,74
1468,74
1469,74
1470,74
1471,74
1472,74
1473,74
1474,74
1475,74
1476,74
1477,74
1478,74
1479,75
1480,75
1481,75
1482,75
1483,75
1484,75
1485,75
1486,76
1487,76
1488,76
1489,76
1490,76
1491,76
1492,76
1493,76
1494,76
1495,76
1496,76
1497,76
1498,76
1499,76
1500,76
1501,76
1502,76
1503,76
1504,76
1505,76
1506,77
1507,77
1508,77
1509,77
1510,78
1511,78
1512,78
1513,78
1514,78
1515,78
1516,78
1517,79
1518,79
1519,79
1520,79
1521,79
1522,79
1523,79
1524,79
1525,79
1526,80
1527,80
1528,80
1529,80
1530,81
1531,81
1532,81
1533,81
1534,83
1535,83
1536,83
1537,83
1538,83
1539,84
1540,84
1541,84
1542,84
1543,84
1544,84
1545,84
1546,84
1547,84
1548,84
1549,84
1550,84
1551,84
1552,84
1553,84
1554,84
1555,84
1556,84
1557,84
1558,85
1559,85
1560,85
1561,85
1562,85
1563,85
1564,85
1565,85
1566,85
1567,85
1568,85
1569,85
1570,85
1571,85
1572,85
1573,85
1574,85
1575,85
1576,85
1577,85
1578,85
1579,86
1580,86
1581,86
1582,86
1583,87
1584,87
1585,87
1586,88
1587,88
1588,88
1589,88
1590,88
1591,88
1592,88
1593,88
1594,88
1595,88
1596,88
1597,88
1598,88
1599,88
1600,88
1601,88
1602,88
1603,88
1604,88
1605,88
1606,88
1607,88
1608,88
1609,88
1610,88
1611,88
1612,88
1613,88
1614,88
1615,88
1616,89
1617,89
1618,89
1619,89
1620,89
1621,89
1622,89
1623,89
1624,89
1625,89
1626,89
1627,89
1628,89
1629,89
1630,89
1631,89
1632,89
1633,89
1634,89
1635,89
1636,89
1637,89
1638,90
1639,90
1640,90
1641,90
1642,90
1643,90
1644,90
1645,90
1646,90
1647,90
1648,90
1649,90
1650,90
1651,90
1652,90
1653,90
1654,90
1655,90
1656,90
1657,90
1658,90
1659,90
1660,90
1661,90
1662,90
1663,90
1664,90
1665,90
1666,90
1667,90
1668,90
1669,90
1670,90
1671,90
1672,90
1673,90
1674,90
1675,90
1676,90
1677,90
1678,90
1679,90
1680,90
1681,90
1682,90
1683,90
1684,90
1685,90
1686,90
1687,90
1688,90
1689,90
1690,90
1691,90
1692,90
1693,90
1694,90
1695,90
1696,90
1697,90
1698,90
1699,90
1700,90
1701,90
1702,90
1703,90
1704,90
1705,90
1706,90
1707,90
1708,90
1709,90
1710,90
1711,90
1712,90
1713,90
1714,90
1715,90
1716,90
1717,90
1718,90
1719,90
1720,90
1721,90
1722,90
1723,90
1724,90
1725,90
1726,90
1727,90
1728,90
1729,90
1730,90
1731,90
1732,90
1733,90
1734,90
1735,90
1736,90
1737,90
1738,90
1739,90
1740,90
1741,90
1742,90
1743,90
1744,90
1745,90
1746,90
1747,90
1748,90
1749,90
1750,90
1751,90
1752,90
1753,90
1754,90
1755,90
1756,90
1757,90
1758,90
1759,90
1760,90
1761,90
1762,90
1763,90
1764,90
1765,90
1766,90
1767,90
1768,90
1769,90
1770,90
1771,91
1772,91
1773,91
1774,91
1775,91
1776,91
1777,91
1778,91
1779,91
1780,91
1781,91
1782,91
1783,91
1784,91
1785,91
1786,91
1787,91
1788,91
1789,91
1790,91
1791,91
1792,91
1793,91
1794,91
1795,91
1796,91
1797,91
1798,91
1799,91
1800,91
1801,91
1802,91
1803,91
1804,91
1805,91
1806,91
1807,91
1808,91
1809,91
1810,91
1811,91
1812,91
1813,91
1814,91
1815,91
1816,91
1817,91
1818,92
1819,92
1820,92
1821,92
1822,92
1823,92
1824,92
1825,92
1826,92
1827,92
1828,92
1829,92
1830,92
1831,92
1832,92
1833,92
1834,92
1835,92
1836,92
1837,92
1838,92
1839,92
1840,92
1841,92
1842,92
1843,92
1844,92
1845,92
1846,92
1847,92
1848,92
1849,92
1850,92
1851,92
1852,92
1853,92
1854,92
1855,92
1856,92
1857,92
1858,92
1859,93
1860,93
1861,93
1862,93
1863,93
1864,93
1865,93
1866,93
1867,93
1868,93
1869,93
1870,93
1871,93
1872,93
1873,94
1874,94
1875,94
1876,94
1877,94
1878,94
1879,94
1880,94
1881,94
1882,94
1883,94
1884,94
1885,94
1886,94
1887,94
1888,94
1889,94
1890,94
1891,94
1892,94
1893,94
1894,94
1895,94
1896,94
1897,94
1898,95
1899,95
1900,95
1901,95
1902,95
1903,95
1904,95
1905,96
1906,96
1907,96
1908,96
1909,96
1910,96
1911,96
1912,96
1913,96
1914,97
1915,97
1916,97
1917,97
1918,97
1919,97
1920,97
1921,97
1922,97
1923,97
1924,97
1925,97
1926,97
1927,97
1928,97
1929,97
1930,98
1931,98
1932,98
1933,98
1934,98
1935,99
1936,99
1937,99
1938,99
1939,99
1940,99
1941,99
1942,99
1943,99
1944,99
1945,99
1946,99
1947,99
1948,99
1949,99
1950,99
1951,99
1952,99
1953,99
1954,99
1955,99
1956,100
1957,100
1958,101
1959,101
1960,101
1961,101
1962,101
1963,101
1964,101
1965,101
1966,101
1967,101
1968,101
1969,101
1970,101
1971,101
1972,101
1973,101
1974,101
1975,101
1976,102
1977,102
1978,102
1979,102
1980,102
1981,102
1982,102
1983,102
1984,102
1985,102
1986,103
1987,103
1988,103
1989,103
1990,103
1991,103
1992,103
1993,103
1994,103
1995,103
1996,103
1997,103
1998,103
1999,103
2000,103
