"tick","total"
0,0
1,0
2,0
3,0
4,0
5,0
6,0
7,0
8,0
9,0
10,0
11,0
12,0
13,0
14,0
15,0
16,0
17,0
18,0
19,0
20,0
21,0
22,0
23,0
24,0
25,0
26,0
27,0
28,0
29,0
30,0
31,0
32,0
33,0
34,0
35,0
36,0
37,0
38,0
39,0
40,0
41,0
42,0
43,0
44,0
45,0
46,0
47,0
48,0
49,0
50,0
51,0
52,0
53,0
54,0
55,0
56,0
57,0
58,0
59,0
60,0
61,0
62,0
63,0
64,0
65,0
66,0
67,0
68,0
69,0
70,0
71,0
72,0
73,0
74,0
75,0
76,0
77,0
78,0
79,0
80,0
81,0
82,0
83,0
84,0
85,0
86,0
87,0
88,0
89,0
90,0
91,0
92,0
93,0
94,0
95,0
96,0
97,0
98,0
99,0
100,0
101,0
102,0
103,0
104,0
105,0
106,0
107,0
108,0
109,0
110,0
111,0
112,0
113,0
114,0
115,0
116,0
117,0
118,0
119,0
120,0
121,0
122,0
123,0
124,0
125,0
126,0
127,0
128,0
129,0
130,0
131,0
132,0
133,0
134,0
135,0
136,0
137,0
138,0
139,0
140,0
141,0
142,1
143,1
144,1
145,1
146,1
147,1
148,1
149,1
150,1
151,1
152,1
153,1
154,1
155,1
156,1
157,1
158,1
159,1
160,1
161,1
162,1
163,1
164,1
165,1
166,1
167,1
168,1
169,1
170,1
171,1
172,1
173,1
174,1
175,1
176,1
177,1
178,1
179,1
180,1
181,1
182,1
183,1
184,1
185,1
186,1
187,1
188,1
189,1
190,1
191,1
192,1
193,1
194,1
195,1
196,1
197,1
198,1
199,1
200,1
201,1
202,1
203,1
204,1
205,1
206,1
207,1
208,1
209,1
210,1
211,1
212,1
213,1
214,1
215,2
216,2
217,2
218,2
219,2
220,2
221,2
222,3
223,3
224,3
225,3
226,3
227,3
228,3
229,3
230,3
231,3
232,3
233,3
234,3
235,3
236,3
237,3
238,3
239,3
240,3
241,3
242,3
243,3
244,3
245,3
246,3
247,3
248,3
249,3
250,3
251,3
252,3
253,3
254,3
255,3
256,4
257,4
258,4
259,4
260,4
261,4
262,4
263,5
264,5
265,5
266,5
267,5
268,5
269,5
270,5
271,5
272,5
273,5
274,5
275,5
276,5
277,5
278,5
279,5
280,5
281,5
282,5
283,6
284,6
285,6
286,6
287,6
288,6
289,6
290,6
291,6
292,6
293,6
294,6
295,6
296,6
297,6
298,6
299,6
300,6
301,6
302,6
303,6
304,6
305,6
306,6
307,6
308,6
309,6
310,6
311,6
312,7
313,7
314,7
315,7
316,7
317,7
318,7
319,7
320,7
321,7
322,7
323,7
324,7
325,7
326,7
327,7
328,7
329,7
330,7
331,7
332,7
333,7
334,7
335,7
336,7
337,7
338,7
339,7
340,7
341,7
342,7
343,7
344,7
345,7
346,7
347,7
348,7
349,8
350,8
351,8
352,8
353,8
354,8
355,8
356,8
357,8
358,8
359,8
360,8
361,8
362,8
363,8
364,8
365,8
366,8
367,9
368,11
369,11
370,11
371,12
372,12
373,12
374,12
375,12
376,13
377,13
378,13
379,13
380,14
381,14
382,14
383,14
384,14
385,14
386,14
387,14
388,14
389,14
390,14
391,14
392,14
393,14
394,14
395,14
396,15
397,15
398,15
399,15
400,15
401,15
402,15
403,15
404,15
405,15
406,15
407,15
408,15
409,15
410,15
411,15
412,16
413,16
414,16
415,16
416,17
417,17
418,18
419,18
420,19
421,19
422,19
423,19
424,19
425,19
426,19
427,19
428,20
429,20
430,20
431,20
432,20
433,21
434,21
435,21
436,21
437,21
438,21
439,21
440,21
441,21
442,21
443,21
444,21
445,21
446,21
447,21
448,22
449,22
450,22
451,22
452,22
453,22
454,22
455,22
456,22
457,22
458,22
459,22
460,22
461,22
462,22
463,22
464,22
465,23
466,24
467,25
468,25
469,25
470,25
471,25
472,25
473,25
474,25
475,25
476,25
477,25
478,25
479,25
480,25
481,25
482,25
483,25
484,25
485,25
486,25
487,25
488,25
489,25
490,25
491,25
492,25
493,25
494,25
495,25
496,25
497,25
498,26
499,26
500,26
501,26
502,26
503,26
504,26
505,26
506,26
507,26
508,26
509,26
510,26
511,26
512,26
513,26
514,26
515,26
516,26
517,26
518,26
519,26
520,26
521,26
522,26
523,26
524,26
525,26
526,26
527,26
528,26
529,26
530,26
531,26
532,26
533,26
534,26
535,26
536,26
537,26
538,26
539,26
540,26
541,26
542,26
543,26
544,26
545,26
546,26
547,26
548,26
549,26
550,26
551,26
552,26
553,26
554,26
555,26
556,26
557,26
558,26
559,26
560,26
561,26
562,26
563,26
564,26
565,26
566,26
567,26
568,26
569,26
570,26
571,26
572,26
573,26
574,26
575,27
576,27
577,27
578,27
579,27
580,27
581,27
582,27
583,27
584,27
585,27
586,27
587,27
588,27
589,27
590,27
591,27
592,27
593,27
594,27
595,27
596,28
597,28
598,28
599,28
600,28
601,28
602,28
603,28
604,28
605,28
606,28
607,28
608,28
609,28
610,28
611,28
612,28
613,28
614,28
615,28
616,29
617,29
618,29
619,29
620,29
621,29
622,29
623,29
624,29
625,29
626,29
627,29
628,29
629,29
630,29
631,29
632,29
633,29
634,29
635,29
636,29
637,29
638,29
639,29
640,29
641,29
642,29
643,30
644,30
645,30
646,31
647,31
648,31
649,31
650,31
651,31
652,31
653,31
654,31
655,31
656,31
657,31
658,31
659,32
660,32
661,32
662,32
663,32
664,32
665,32
666,32
667,32
668,32
669,32
670,32
671,32
672,32
673,32
674,32
675,32
676,32
677,32
678,32
679,32
680,32
681,32
682,32
683,32
684,32
685,32
686,32
687,32
688,32
689,32
690,32
691,32
692,32
693,32
694,32
695,32
696,32
697,32
698,32
699,32
700,32
701,32
702,32
703,32
704,32
705,32
706,32
707,32
708,32
709,32
710,32
711,32
712,32
713,32
714,33
715,33
716,33
717,33
718,33
719,33
720,33
721,33
722,33
723,33
724,33
725,33
726,33
727,33
728,33
729,33
730,33
731,33
732,33
733,33
734,33
735,33
736,33
737,33
738,33
739,33
740,33
741,33
742,33
743,33
744,33
745,33
746,33
747,33
748,33
749,33
750,33
751,33
752,34
753,34
754,34
755,34
756,34
757,34
758,34
759,34
760,34
761,35
762,35
763,35
764,35
765,35
766,35
767,36
768,36
769,36
770,36
771,36
772,37
773,38
774,38
775,38
776,38
777,38
778,38
779,38
780,38
781,38
782,38
783,38
784,38
785,38
786,38
787,38
788,38
789,38
790,38
791,38
792,39
793,39
794,39
795,39
796,39
797,39
798,39
799,39
800,39
801,39
802,39
803,39
804,39
805,39
806,39
807,39
808,39
809,39
810,39
811,40
812,40
813,40
814,41
815,41
816,41
817,41
818,41
819,41
820,41
821,41
822,41
823,41
824,41
825,41
826,41
827,41
828,41
829,41
830,41
831,41
832,41
833,41
834,41
835,42
836,42
837,42
838,42
839,42
840,42
841,42
842,42
843,42
844,42
845,42
846,42
847,42
848,42
849,42
850,42
851,42
852,42
853,42
854,42
855,42
856,42
857,42
858,42
859,42
860,42
861,43
862,43
863,43
864,43
865,43
866,43
867,43
868,43
869,43
870,43
871,43
872,43
873,43
874,43
875,43
876,44
877,44
878,44
879,44
880,44
881,44
882,44
883,44
884,44
885,44
886,44
887,44
888,44
889,44
890,44
891,44
892,44
893,44
894,44
895,44
896,44
897,44
898,44
899,44
900,44
901,44
902,44
903,44
904,45
905,45
906,45
907,45
908,45
909,45
910,45
911,45
912,45
913,46
914,46
915,46
916,46
917,46
918,46
919,46
920,46
921,46
922,46
923,46
924,46
925,46
926,46
927,46
928,46
929,46
930,46
931,46
932,46
933,47
934,47
935,47
936,47
937,47
938,48
939,48
940,48
941,48
942,48
943,48
944,48
945,48
946,48
947,48
948,48
949,48
950,48
951,48
952,48
953,48
954,48
955,48
956,48
957,48
958,48
959,48
960,48
961,48
962,48
963,48
964,48
965,48
966,48
967,48
968,48
969,48
970,48
971,48
972,48
973,48
974,48
975,48
976,48
977,48
978,48
979,48
980,48
981,48
982,48
983,48
984,48
985,48
986,48
987,48
988,48
989,48
990,49
991,49
992,49
993,49
994,49
995,49
996,49
997,49
998,49
999,49
1000,49
1001,49
1002,49
1003,49
1004,49
1005,49
1006,49
1007,49
1008,49
1009,49
1010,49
1011,49
1012,50
1013,50
1014,50
1015,50
1016,50
1017,50
1018,50
1019,50
1020,50
1021,50
1022,50
1023,50
1024,50
1025,50
1026,50
1027,50
1028,50
1029,50
1030,50
1031,50
1032,50
1033,50
1034,50
1035,50
1036,51
1037,51
1038,51
1039,51
1040,51
1041,51
1042,51
1043,51
1044,51
1045,51
1046,51
1047,51
1048,51
1049,51
1050,51
1051,51
1052,51
1053,51
1054,51
1055,51
1056,51
1057,51
1058,51
1059,51
1060,51
1061,51
1062,51
1063,51
1064,51
1065,51
1066,51
1067,51
1068,51
1069,51
1070,51
1071,51
1072,51
1073,51
1074,51
1075,51
1076,51
1077,51
1078,51
1079,51
1080,51
1081,51
1082,51
1083,51
1084,51
1085,51
1086,51
1087,51
1088,51
1089,51
1090,51
1091,51
1092,51
1093,51
1094,51
1095,51
1096,51
1097,51
1098,51
1099,51
1100,51
1101,51
1102,51
1103,51
1104,51
1105,51
1106,51
1107,51
1108,51
1109,51
1110,51
1111,51
1112,51
1113,52
1114,52
1115,52
1116,52
1117,52
1118,52
1119,52
1120,52
1121,52
1122,52
1123,52
1124,52
1125,52
1126,52
1127,52
1128,52
1129,52
1130,52
1131,53
1132,53
1133,53
1134,53
1135,53
1136,53
1137,53
1138,53
1139,53
1140,53
1141,53
1142,53
1143,53
1144,53
1145,53
1146,53
1147,53
1148,53
1149,54
1150,54
1151,54
1152,54
1153,54
1154,54
1155,54
1156,54
1157,54
1158,54
1159,54
1160,54
1161,54
1162,54
1163,54
1164,54
1165,54
1166,54
1167,54
1168,54
1169,54
1170,54
1171,54
1172,54
1173,54
1174,54
1175,54
1176,54
1177,54
1178,54
1179,54
1180,54
1181,54
1182,54
1183,54
1184,54
1185,54
1186,54
1187,54
1188,54
1189,54
1190,54
1191,54
1192,54
1193,54
1194,54
1195,54
1196,54
1197,54
1198,54
1199,55
1200,56
1201,56
1202,56
1203,56
1204,56
1205,56
1206,56
1207,56
1208,56
1209,56
1210,56
1211,56
1212,56
1213,56
1214,56
1215,56
1216,56
1217,56
1218,56
1219,56
1220,56
1221,57
1222,57
1223,57
1224,57
1225,57
1226,57
1227,57
1228,57
1229,57
1230,57
1231,57
1232,57
1233,57
1234,58
1235,58
1236,58
1237,58
1238,58
1239,58
1240,58
1241,58
1242,58
1243,58
1244,58
1245,58
1246,58
1247,58
1248,58
1249,58
1250,58
1251,59
1252,59
1253,59
1254,59
1255,59
1256,60
1257,60
1258,60
1259,60
1260,60
1261,60
1262,60
1263,60
1264,60
1265,60
1266,60
1267,60
1268,60
1269,60
1270,60
1271,60
1272,60
1273,60
1274,60
1275,60
1276,60
1277,60
1278,60
1279,60
1280,60
1281,60
1282,60
1283,60
1284,60
1285,60
1286,60
1287,60
1288,60
1289,61
1290,61
1291,61
1292,61
1293,61
1294,61
1295,61
1296,61
1297,61
1298,61
1299,61
1300,61
1301,61
1302,61
1303,61
1304,61
1305,61
1306,61
1307,61
1308,61
1309,61
1310,61
1311,61
1312,61
1313,61
1314,61
1315,61
1316,61
1317,61
1318,61
1319,61
1320,61
1321,61
1322,61
1323,61
1324,61
1325,61
1326,61
1327,61
1328,61
1329,61
1330,61
1331,61
1332,61
1333,61
1334,61
1335,61
1336,61
1337,61
1338,61
1339,61
1340,61
1341,61
1342,61
1343,61
1344,61
1345,61
1346,61
1347,61
1348,61
1349,61
1350,61
1351,61
1352,61
1353,61
1354,61
1355,61
1356,61
1357,61
1358,61
1359,61
1360,61
1361,61
1362,61
1363,61
1364,61
1365,61
1366,61
1367,61
1368,61
1369,61
1370,61
1371,61
1372,61
1373,61
1374,61
1375,61
1376,61
1377,61
1378,61
1379,61
1380,61
1381,61
1382,61
1383,61
1384,61
1385,61
1386,61
1387,61
1388,61
1389,61
1390,61
1391,61
1392,61
1393,61
1394,61
1395,61
1396,61
1397,61
1398,61
1399,61
1400,61
1401,61
1402,61
1403,61
1404,61
1405,61
1406,61
1407,61
1408,61
1409,61
1410,61
1411,61
1412,61
1413,61
1414,61
1415,61
1416,61
1417,62
1418,62
1419,62
1420,62
1421,62
1422,62
1423,62
1424,62
1425,62
1426,62
1427,62
1428,62
1429,62
1430,62
1431,62
1432,62
1433,62
1434,62
1435,62
1436,62
1437,62
1438,62
1439,62
1440,62
1441,62
1442,62
1443,62
1444,62
1445,62
1446,62
1447,62
1448,62
1449,62
1450,63
1451,63
1452,63
1453,63
1454,63
1455,63
1456,63
1457,63
1458,63
1459,63
1460,63
1461,63
1462,63
1463,63
1464,63
1465,63
1466,63
1467,63
1468,63
1469,63
1470,63
1471,63
1472,63
1473,63
1474,63
1475,63
1476,63
1477,63
1478,63
1479,63
1480,64
1481,64
1482,64
1483,64
1484,64
1485,64
1486,64
1487,64
1488,64
1489,64
1490,64
1491,64
1492,64
1493,64
1494,64
1495,64
1496,64
1497,64
1498,64
1499,64
1500,64
1501,64
1502,64
1503,64
1504,64
1505,64
1506,64
1507,64
1508,64
1509,64
1510,64
1511,64
1512,64
1513,64
1514,64
1515,64
1516,64
1517,64
1518,64
1519,64
1520,64
1521,64
1522,64
1523,64
1524,64
1525,64
1526,64
1527,64
1528,64
1529,64
1530,64
1531,64
1532,64
1533,64
1534,64
1535,64
1536,64
1537,64
1538,64
1539,64
1540,64
1541,64
1542,64
1543,64
1544,64
1545,64
1546,64
1547,64
1548,64
1549,64
1550,64
1551,64
1552,64
1553,64
1554,64
1555,65
1556,65
1557,65
1558,65
1559,65
1560,65
1561,66
1562,66
1563,66
1564,66
1565,67
1566,67
1567,67
1568,68
1569,68
1570,68
1571,68
1572,68
1573,68
1574,68
1575,68
1576,68
1577,68
1578,68
1579,68
1580,68
1581,68
1582,68
1583,68
1584,68
1585,68
1586,68
1587,68
1588,68
1589,68
1590,68
1591,68
1592,70
1593,70
1594,70
1595,70
1596,70
1597,70
1598,70
1599,70
1600,70
1601,70
1602,70
1603,70
1604,71
1605,71
1606,72
1607,72
1608,72
1609,72
1610,72
1611,72
1612,72
1613,72
1614,72
1615,72
1616,72
1617,72
1618,72
1619,72
1620,72
1621,72
1622,72
1623,72
1624,72
1625,72
1626,72
1627,72
1628,72
1629,72
1630,72
1631,72
1632,72
1633,72
1634,72
1635,72
1636,72
1637,72
1638,72
1639,72
1640,73
1641,74
1642,75
1643,76
1644,77
1645,78
1646,79
1647,80
1648,81
1649,81
1650,81
1651,82
1652,82
1653,83
1654,83
1655,83
1656,83
1657,83
1658,83
1659,83
1660,83
1661,83
1662,83
1663,83
1664,83
1665,83
1666,83
1667,83
1668,83
1669,83
1670,83
1671,83
1672,83
1673,83
1674,83
1675,84
1676,84
1677,84
1678,84
1679,84
1680,84
1681,84
1682,85
1683,85
1684,85
1685,85
1686,85
1687,85
1688,85
1689,85
1690,85
1691,85
1692,85
1693,85
1694,85
1695,85
1696,85
1697,85
1698,85
1699,85
1700,85
1701,85
1702,85
1703,85
1704,85
1705,85
1706,85
1707,85
1708,85
1709,85
1710,85
1711,85
1712,85
1713,85
1714,85
1715,85
1716,85
1717,85
1718,85
1719,86
1720,86
1721,86
1722,86
1723,86
1724,86
1725,86
1726,86
1727,86
1728,86
1729,86
1730,86
1731,86
1732,86
1733,86
1734,86
1735,86
1736,86
1737,86
1738,87
1739,87
1740,87
1741,87
1742,87
1743,87
1744,87
1745,87
1746,87
1747,87
1748,87
1749,87
1750,87
1751,87
1752,87
1753,87
1754,87
1755,87
1756,87
1757,87
1758,88
1759,88
1760,90
1761,90
1762,90
1763,91
1764,91
1765,91
1766,91
1767,91
1768,91
1769,91
1770,91
1771,91
1772,91
1773,91
1774,91
1775,91
1776,91
1777,91
1778,91
1779,91
1780,91
1781,91
1782,91
1783,91
1784,91
1785,91
1786,91
1787,91
1788,91
1789,91
1790,91
1791,91
1792,91
1793,91
1794,91
1795,91
1796,91
1797,91
1798,91
1799,91
1800,91
1801,91
1802,91
1803,91
1804,91
1805,91
1806,91
1807,92
1808,93
1809,93
1810,93
1811,93
1812,93
1813,94
1814,95
1815,95
1816,95
1817,95
1818,95
1819,95
1820,95
1821,95
1822,95
1823,95
1824,96
1825,96
1826,96
1827,96
1828,96
1829,96
1830,96
1831,96
1832,96
1833,96
1834,96
1835,96
1836,96
1837,96
1838,96
1839,96
1840,96
1841,96
1842,96
1843,96
1844,96
1845,96
1846,96
1847,96
1848,96
1849,96
1850,96
1851,96
1852,96
1853,96
1854,96
1855,96
1856,96
1857,96
1858,96
1859,96
1860,96
1861,96
1862,96
1863,96
1864,96
1865,96
1866,96
1867,97
1868,97
1869,97
1870,97
1871,97
1872,97
1873,97
1874,97
1875,97
1876,97
1877,97
1878,97
1879,97
1880,97
1881,97
1882,97
1883,97
1884,97
1885,97
1886,97
1887,97
1888,97
1889,97
1890,97
1891,97
1892,97
1893,97
1894,97
1895,97
1896,97
1897,97
1898,97
1899,97
1900,97
1901,97
1902,97
1903,97
1904,97
1905,97
1906,97
1907,97
1908,97
1909,97
1910,97
1911,97
1912,97
1913,97
1914,97
1915,97
1916,97
1917,97
1918,97
1919,97
1920,97
1921,97
1922,97
1923,97
1924,97
1925,97
1926,97
1927,97
1928,97
1929,97
1930,97
1931,97
1932,97
1933,97
1934,97
1935,97
1936,97
1937,97
1938,97
1939,97
1940,97
1941,97
1942,97
1943,97
1944,97
1945,97
1946,97
1947,97
1948,97
1949,97
1950,97
1951,97
1952,97
1953,97
1954,97
1955,97
1956,97
1957,97
1958,97
1959,97
1960,97
1961,97
1962,97
1963,97
1964,97
1965,97
1966,97
1967,98
1968,98
1969,98
1970,98
1971,98
1972,98
1973,98
1974,98
1975,98
1976,98
1977,98
1978,98
1979,98
1980,98
1981,98
1982,98
1983,98
1984,98
1985,98
1986,98
1987,98
1988,98
1989,98
1990,98
1991,98
1992,98
1993,98
1994,98
1995,98
1996,98
1997,98
1998,98
1999,99
2000,99
