"tick","susceptible","exposed","infectious","recovered"
0,99,1,0,0
1,99,1,0,0
2,99,1,0,0
3,99,1,0,0
4,99,1,0,0
5,99,1,0,0
6,99,1,0,0
7,99,1,0,0
8,99,1,0,0
9,99,1,0,0
10,99,1,0,0
11,99,1,0,0
12,99,1,0,0
13,99,1,0,0
14,99,1,0,0
15,99,1,0,0
16,99,1,0,0
17,99,1,0,0
18,99,1,0,0
19,99,1,0,0
20,99,1,0,0
21,99,1,0,0
22,99,1,0,0
23,99,1,0,0
24,99,1,0,0
25,99,1,0,0
26,99,1,0,0
27,99,1,0,0
28,99,1,0,0
29,99,1,0,0
30,99,1,0,0
31,99,1,0,0
32,99,1,0,0
33,99,1,0,0
34,99,1,0,0
35,99,1,0,0
36,99,1,0,0
37,99,1,0,0
38,99,1,0,0
39,99,1,0,0
40,99,1,0,0
41,99,1,0,0
42,99,1,0,0
43,99,1,0,0
44,99,1,0,0
45,99,1,0,0
46,99,1,0,0
47,99,1,0,0
48,99,1,0,0
49,99,1,0,0
50,99,1,0,0
51,99,1,0,0
52,99,1,0,0
53,99,1,0,0
54,99,1,0,0
55,99,1,0,0
56,99,1,0,0
57,99,1,0,0
58,99,1,0,0
59,99,1,0,0
60,99,1,0,0
61,99,1,0,0
62,99,1,0,0
63,99,1,0,0
64,99,1,0,0
65,99,1,0,0
66,99,1,0,0
67,99,1,0,0
68,99,1,0,0
69,99,1,0,0
70,99,1,0,0
71,99,1,0,0
72,99,1,0,0
73,99,1,0,0
74,99,1,0,0
75,99,1,0,0
76,99,1,0,0
77,99,1,0,0
78,99,1,0,0
79,99,1,0,0
80,99,1,0,0
81,99,1,0,0
82,99,1,0,0
83,99,1,0,0
84,99,1,0,0
85,99,1,0,0
86,99,1,0,0
87,99,1,0,0
88,99,1,0,0
89,99,1,0,0
90,99,1,0,0
91,99,1,0,0
92,99,1,0,0
93,99,1,0,0
94,99,1,0,0
95,99,1,0,0
96,99,1,0,0
97,99,1,0,0
98,99,1,0,0
99,99,1,0,0
100,99,1,0,0
101,99,1,0,0
102,99,1,0,0
103,99,1,0,0
104,99,1,0,0
105,99,1,0,0
106,99,1,0,0
107,99,1,0,0
108,99,1,0,0
109,99,1,0,0
110,99,1,0,0
111,99,1,0,0
112,99,1,0,0
113,99,1,0,0
114,99,1,0,0
115,99,1,0,0
116,99,1,0,0
117,99,1,0,0
118,99,1,0,0
119,99,1,0,0
120,99,1,0,0
121,99,1,0,0
122,99,1,0,0
123,99,1,0,0
124,99,1,0,0
125,99,1,0,0
126,99,1,0,0
127,99,1,0,0
128,99,1,0,0
129,99,1,0,0
130,99,1,0,0
131,99,1,0,0
132,99,1,0,0
133,99,1,0,0
134,99,1,0,0
135,99,1,0,0
136,99,1,0,0
137,99,1,0,0
138,99,1,0,0
139,99,1,0,0
140,99,1,0,0
141,99,1,0,0
142,99,1,0,0
143,99,1,0,0
144,99,1,0,0
145,99,1,0,0
146,99,1,0,0
147,99,1,0,0
148,99,1,0,0
149,99,1,0,0
150,99,1,0,0
151,99,1,0,0
152,99,1,0,0
153,99,1,0,0
154,99,1,0,0
155,99,1,0,0
156,99,1,0,0
157,99,1,0,0
158,99,1,0,0
159,99,1,0,0
160,99,1,0,0
161,99,1,0,0
162,99,1,0,0
163,99,1,0,0
164,99,1,0,0
165,99,1,0,0
166,99,1,0,0
167,99,1,0,0
168,99,1,0,0
169,99,1,0,0
170,99,1,0,0
171,99,1,0,0
172,99,1,0,0
173,99,1,0,0
174,99,1,0,0
175,99,1,0,0
176,99,1,0,0
177,99,1,0,0
178,99,1,0,0
179,99,1,0,0
180,99,1,0,0
181,99,1,0,0
182,99,1,0,0
183,99,1,0,0
184,99,1,0,0
185,99,1,0,0
186,99,1,0,0
187,99,1,0,0
188,99,1,0,0
189,99,1,0,0
190,99,1,0,0
191,99,1,0,0
192,99,1,0,0
193,99,1,0,0
194,99,1,0,0
195,99,1,0,0
196,99,1,0,0
197,99,1,0,0
198,99,1,0,0
199,99,1,0,0
200,99,1,0,0
201,99,0,1,0
202,98,1,1,0
203,98,1,1,0
204,98,1,1,0
205,98,1,1,0
206,98,1,1,0
207,98,1,1,0
208,98,1,1,0
209,98,1,1,0
210,98,1,1,0
211,98,1,1,0
212,98,1,1,0
213,98,1,1,0
214,98,1,1,0
215,98,1,1,0
216,98,1,1,0
217,98,1,1,0
218,98,1,1,0
219,98,1,1,0
220,98,1,1,0
221,98,1,1,0
222,98,1,1,0
223,97,2,1,0
224,97,2,1,0
225,97,2,1,0
226,97,2,1,0
227,97,2,1,0
228,97,2,1,0
229,97,2,1,0
230,97,2,1,0
231,97,2,1,0
232,97,2,1,0
233,97,2,1,0
234,97,2,1,0
235,97,2,1,0
236,97,2,1,0
237,97,2,1,0
238,97,2,1,0
239,97,2,1,0
240,97,2,1,0
241,97,2,1,0
242,97,2,1,0
243,97,2,1,0
244,97,2,1,0
245,97,2,1,0
246,97,2,1,0
247,97,2,1,0
248,97,2,1,0
249,97,2,1,0
250,97,2,1,0
251,97,2,1,0
252,97,2,1,0
253,97,2,1,0
254,97,2,1,0
255,97,2,1,0
256,97,2,1,0
257,97,2,1,0
258,97,2,1,0
259,97,2,1,0
260,97,2,1,0
261,97,2,1,0
262,97,2,1,0
263,97,2,1,0
264,97,2,1,0
265,97,2,1,0
266,97,2,1,0
267,97,2,1,0
268,97,2,1,0
269,97,2,1,0
270,97,2,1,0
271,97,2,1,0
272,97,2,1,0
273,97,2,1,0
274,97,2,1,0
275,97,2,1,0
276,97,2,1,0
277,97,2,1,0
278,97,2,1,0
279,97,2,1,0
280,97,2,1,0
281,97,2,1,0
282,97,2,1,0
283,97,2,1,0
284,97,2,1,0
285,97,2,1,0
286,97,2,1,0
287,97,2,1,0
288,97,2,1,0
289,97,2,1,0
290,97,2,1,0
291,97,2,1,0
292,97,2,1,0
293,97,2,1,0
294,97,2,1,0
295,97,2,1,0
296,97,2,1,0
297,97,2,1,0
298,97,2,1,0
299,97,2,1,0
300,97,2,1,0
301,97,2,1,0
302,97,2,1,0
303,97,2,1,0
304,97,2,1,0
305,97,2,1,0
306,97,2,1,0
307,97,2,1,0
308,97,2,1,0
309,97,2,1,0
310,97,2,1,0
311,97,2,1,0
312,97,2,1,0
313,97,2,1,0
314,97,2,1,0
315,97,2,1,0
316,97,2,1,0
317,97,2,1,0
318,97,2,1,0
319,97,2,1,0
320,97,2,1,0
321,97,2,1,0
322,97,2,1,0
323,97,2,1,0
324,97,2,1,0
325,97,2,1,0
326,97,2,1,0
327,97,2,1,0
328,97,2,1,0
329,97,2,1,0
330,97,2,1,0
331,97,2,1,0
332,97,2,1,0
333,97,2,1,0
334,97,2,1,0
335,97,2,1,0
336,97,2,1,0
337,97,2,1,0
338,97,2,1,0
339,96,3,1,0
340,96,3,1,0
341,96,3,1,0
342,96,3,1,0
343,96,3,1,0
344,96,3,1,0
345,96,3,1,0
346,96,3,1,0
347,96,3,1,0
348,96,3,1,0
349,96,3,1,0
350,96,3,1,0
351,96,3,1,0
352,96,3,1,0
353,96,3,1,0
354,96,3,1,0
355,96,3,1,0
356,96,3,1,0
357,96,3,1,0
358,96,3,1,0
359,96,3,1,0
360,96,3,1,0
361,96,3,1,0
362,96,3,1,0
363,96,3,1,0
364,96,3,1,0
365,96,3,1,0
366,96,3,1,0
367,96,3,1,0
368,96,3,1,0
369,96,3,1,0
370,96,3,1,0
371,96,3,1,0
372,96,3,1,0
373,96,3,1,0
374,96,3,1,0
375,96,3,1,0
376,96,3,1,0
377,96,3,1,0
378,96,3,1,0
379,96,3,1,0
380,96,3,1,0
381,96,3,1,0
382,96,3,1,0
383,96,3,1,0
384,96,3,1,0
385,96,3,1,0
386,96,3,1,0
387,96,3,1,0
388,96,3,1,0
389,96,3,1,0
390,96,3,1,0
391,96,3,1,0
392,96,3,1,0
393,96,3,1,0
394,96,3,1,0
395,96,3,1,0
396,96,3,1,0
397,96,3,1,0
398,96,3,1,0
399,96,3,1,0
400,96,3,1,0
401,96,3,1,0
402,96,3,0,1
403,96,2,1,1
404,96,2,1,1
405,96,2,1,1
406,96,2,1,1
407,96,2,1,1
408,96,2,1,1
409,96,2,1,1
410,96,2,1,1
411,96,2,1,1
412,96,2,1,1
413,96,2,1,1
414,96,2,1,1
415,96,2,1,1
416,96,2,1,1
417,96,2,1,1
418,96,2,1,1
419,96,2,1,1
420,96,2,1,1
421,96,2,1,1
422,96,2,1,1
423,96,2,1,1
424,96,1,2,1
425,96,1,2,1
426,96,1,2,1
427,96,1,2,1
428,96,1,2,1
429,96,1,2,1
430,96,1,2,1
431,96,1,2,1
432,96,1,2,1
433,96,1,2,1
434,96,1,2,1
435,96,1,2,1
436,96,1,2,1
437,96,1,2,1
438,96,1,2,1
439,96,1,2,1
440,96,1,2,1
441,96,1,2,1
442,96,1,2,1
443,96,1,2,1
444,96,1,2,1
445,96,1,2,1
446,96,1,2,1
447,96,1,2,1
448,96,1,2,1
449,96,1,2,1
450,96,1,2,1
451,96,1,2,1
452,96,1,2,1
453,96,1,2,1
454,96,1,2,1
455,96,1,2,1
456,96,1,2,1
457,96,1,2,1
458,96,1,2,1
459,96,1,2,1
460,96,1,2,1
461,96,1,2,1
462,96,1,2,1
463,96,1,2,1
464,96,1,2,1
465,96,1,2,1
466,96,1,2,1
467,96,1,2,1
468,96,1,2,1
469,96,1,2,1
470,96,1,2,1
471,96,1,2,1
472,96,1,2,1
473,96,1,2,1
474,96,1,2,1
475,96,1,2,1
476,96,1,2,1
477,96,1,2,1
478,96,1,2,1
479,96,1,2,1
480,96,1,2,1
481,96,1,2,1
482,96,1,2,1
483,96,1,2,1
484,96,1,2,1
485,96,1,2,1
486,96,1,2,1
487,96,1,2,1
488,96,1,2,1
489,96,1,2,1
490,96,1,2,1
491,95,2,2,1
492,95,2,2,1
493,95,2,2,1
494,95,2,2,1
495,95,2,2,1
496,95,2,2,1
497,95,2,2,1
498,95,2,2,1
499,95,2,2,1
500,95,2,2,1
501,95,2,2,1
502,95,2,2,1
503,95,2,2,1
504,95,2,2,1
505,95,2,2,1
506,95,2,2,1
507,95,2,2,1
508,95,2,2,1
509,95,2,2,1
510,95,2,2,1
511,94,3,2,1
512,94,3,2,1
513,94,3,2,1
514,94,3,2,1
515,94,3,2,1
516,94,3,2,1
517,94,3,2,1
518,94,3,2,1
519,94,3,2,1
520,94,3,2,1
521,94,3,2,1
522,94,3,2,1
523,94,3,2,1
524,94,3,2,1
525,94,3,2,1
526,94,3,2,1
527,94,3,2,1
528,94,3,2,1
529,94,3,2,1
530,94,3,2,1
531,94,3,2,1
532,94,3,2,1
533,94,3,2,1
534,94,3,2,1
535,94,3,2,1
536,94,3,2,1
537,94,3,2,1
538,93,4,2,1
539,93,4,2,1
540,93,3,3,1
541,93,3,3,1
542,93,3,3,1
543,93,3,3,1
544,93,3,3,1
545,93,3,3,1
546,93,3,3,1
547,93,3,3,1
548,93,3,3,1
549,93,3,3,1
550,93,3,3,1
551,93,3,3,1
552,93,3,3,1
553,93,3,3,1
554,93,3,3,1
555,93,3,3,1
556,93,3,3,1
557,93,3,3,1
558,93,3,3,1
559,93,3,3,1
560,93,3,3,1
561,93,3,3,1
562,93,3,3,1
563,93,3,3,1
564,93,3,3,1
565,93,3,3,1
566,93,3,3,1
567,93,3,3,1
568,93,3,3,1
569,93,3,3,1
570,93,3,3,1
571,93,3,3,1
572,93,3,3,1
573,93,3,3,1
574,93,3,3,1
575,93,3,3,1
576,93,3,3,1
577,93,3,3,1
578,93,3,3,1
579,93,3,3,1
580,93,3,3,1
581,93,3,3,1
582,93,3,3,1
583,93,3,3,1
584,93,3,3,1
585,93,3,3,1
586,93,3,3,1
587,93,3,3,1
588,93,3,3,1
589,92,4,3,1
590,91,5,3,1
591,91,5,3,1
592,91,5,3,1
593,91,5,3,1
594,91,5,3,1
595,91,5,3,1
596,91,5,3,1
597,91,5,3,1
598,91,5,3,1
599,91,5,3,1
600,91,5,3,1
601,91,5,3,1
602,91,5,3,1
603,91,5,3,1
604,91,5,2,2
605,91,5,2,2
606,91,5,2,2
607,91,5,2,2
608,91,5,2,2
609,91,5,2,2
610,91,5,2,2
611,91,5,2,2
612,91,5,2,2
613,91,5,2,2
614,91,5,2,2
615,91,5,2,2
616,91,5,2,2
617,91,5,2,2
618,91,5,2,2
619,91,5,2,2
620,91,5,2,2
621,91,5,2,2
622,91,5,2,2
623,91,5,2,2
624,91,5,2,2
625,91,5,1,3
626,91,5,1,3
627,91,5,1,3
628,91,5,1,3
629,91,5,1,3
630,91,5,1,3
631,91,5,1,3
632,91,5,1,3
633,91,5,1,3
634,91,5,1,3
635,91,5,1,3
636,91,5,1,3
637,91,5,1,3
638,91,5,1,3
639,91,5,1,3
640,91,5,1,3
641,91,5,1,3
642,91,5,1,3
643,91,5,1,3
644,91,5,1,3
645,91,5,1,3
646,91,5,1,3
647,91,5,1,3
648,91,5,1,3
649,91,5,1,3
650,91,5,1,3
651,91,5,1,3
652,91,5,1,3
653,91,5,1,3
654,91,5,1,3
655,91,5,1,3
656,91,5,1,3
657,91,5,1,3
658,91,5,1,3
659,91,5,1,3
660,91,5,1,3
661,91,5,1,3
662,91,5,1,3
663,91,5,1,3
664,91,5,1,3
665,91,5,1,3
666,91,5,1,3
667,91,5,1,3
668,91,5,1,3
669,91,5,1,3
670,91,5,1,3
671,91,5,1,3
672,91,5,1,3
673,91,5,1,3
674,91,5,1,3
675,91,5,1,3
676,91,5,1,3
677,91,5,1,3
678,91,5,1,3
679,91,5,1,3
680,91,5,1,3
681,91,5,1,3
682,91,5,1,3
683,91,5,1,3
684,91,5,1,3
685,91,5,1,3
686,91,5,1,3
687,91,5,1,3
688,91,5,1,3
689,91,5,1,3
690,91,5,1,3
691,91,5,1,3
692,91,4,2,3
693,91,4,2,3
694,91,4,2,3
695,91,4,2,3
696,91,4,2,3
697,91,4,2,3
698,91,4,2,3
699,91,4,2,3
700,91,4,2,3
701,91,4,2,3
702,91,4,2,3
703,91,4,2,3
704,91,4,2,3
705,91,4,2,3
706,91,4,2,3
707,91,4,2,3
708,91,4,2,3
709,91,4,2,3
710,90,5,2,3
711,90,5,2,3
712,90,4,3,3
713,90,4,3,3
714,90,4,3,3
715,90,4,3,3
716,90,4,3,3
717,90,4,3,3
718,90,4,3,3
719,90,4,3,3
720,90,4,3,3
721,90,4,3,3
722,90,4,3,3
723,90,4,3,3
724,90,4,3,3
725,90,4,3,3
726,90,4,3,3
727,90,4,3,3
728,90,4,3,3
729,90,4,3,3
730,90,4,3,3
731,90,4,3,3
732,90,4,3,3
733,90,4,3,3
734,90,4,3,3
735,90,4,3,3
736,90,4,3,3
737,90,4,3,3
738,90,4,3,3
739,90,3,4,3
740,90,3,4,3
741,90,3,3,4
742,90,3,3,4
743,90,3,3,4
744,90,3,3,4
745,90,3,3,4
746,90,3,3,4
747,90,3,3,4
748,90,3,3,4
749,90,3,3,4
750,90,3,3,4
751,90,3,3,4
752,90,3,3,4
753,90,3,3,4
754,90,3,3,4
755,90,3,3,4
756,90,3,3,4
757,90,3,3,4
758,90,3,3,4
759,90,3,3,4
760,90,3,3,4
761,90,3,3,4
762,90,3,3,4
763,90,3,3,4
764,90,3,3,4
765,90,3,3,4
766,90,3,3,4
767,90,3,3,4
768,90,3,3,4
769,90,3,3,4
770,90,3,3,4
771,90,3,3,4
772,90,3,3,4
773,90,3,3,4
774,90,3,3,4
775,90,3,3,4
776,90,3,3,4
777,90,3,3,4
778,90,3,3,4
779,90,3,3,4
780,90,3,3,4
781,90,3,3,4
782,90,3,3,4
783,90,3,3,4
784,90,3,3,4
785,90,3,3,4
786,90,3,3,4
787,90,3,3,4
788,90,3,3,4
789,90,3,3,4
790,89,3,4,4
791,87,4,5,4
792,85,6,5,4
793,84,7,5,4
794,83,8,5,4
795,83,8,5,4
796,83,8,5,4
797,83,8,5,4
798,83,8,5,4
799,83,8,5,4
800,83,8,5,4
801,83,8,5,4
802,83,8,5,4
803,83,8,5,4
804,82,9,5,4
805,82,9,5,4
806,81,10,5,4
807,81,10,5,4
808,81,10,5,4
809,81,10,5,4
810,81,10,5,4
811,81,10,5,4
812,81,10,5,4
813,81,10,5,4
814,81,10,5,4
815,81,10,5,4
816,81,10,5,4
817,81,10,5,4
818,81,10,5,4
819,81,10,5,4
820,81,10,5,4
821,81,10,5,4
822,81,10,5,4
823,81,10,5,4
824,81,10,5,4
825,81,10,5,4
826,81,10,5,4
827,81,10,5,4
828,81,10,5,4
829,81,10,5,4
830,81,10,5,4
831,81,10,5,4
832,81,10,5,4
833,81,10,5,4
834,81,10,5,4
835,81,10,5,4
836,81,10,5,4
837,81,10,5,4
838,81,10,5,4
839,81,10,5,4
840,81,10,5,4
841,81,10,5,4
842,81,10,5,4
843,80,11,5,4
844,80,11,5,4
845,80,11,5,4
846,80,11,5,4
847,80,11,5,4
848,80,11,5,4
849,80,11,5,4
850,80,11,5,4
851,80,11,5,4
852,80,11,5,4
853,80,11,5,4
854,80,11,5,4
855,80,11,5,4
856,80,11,5,4
857,80,11,5,4
858,80,11,5,4
859,80,11,5,4
860,80,11,5,4
861,80,11,5,4
862,80,11,5,4
863,80,11,5,4
864,80,11,5,4
865,80,11,5,4
866,80,11,5,4
867,80,11,5,4
868,80,11,5,4
869,80,11,5,4
870,80,11,5,4
871,80,11,5,4
872,80,11,5,4
873,80,11,5,4
874,80,11,5,4
875,80,11,5,4
876,80,11,5,4
877,80,11,5,4
878,80,11,5,4
879,80,11,5,4
880,80,11,5,4
881,80,11,5,4
882,80,11,5,4
883,80,11,5,4
884,80,11,5,4
885,80,11,5,4
886,80,11,5,4
887,80,11,5,4
888,80,11,5,4
889,80,11,5,4
890,80,11,5,4
891,80,11,5,4
892,80,11,5,4
893,80,11,4,5
894,80,11,4,5
895,80,11,4,5
896,80,11,4,5
897,80,11,4,5
898,79,12,4,5
899,79,12,4,5
900,79,12,4,5
901,79,12,4,5
902,79,12,4,5
903,79,12,4,5
904,79,12,4,5
905,79,12,4,5
906,79,12,4,5
907,79,12,4,5
908,79,12,4,5
909,79,12,4,5
910,79,12,4,5
911,77,13,5,5
912,77,13,5,5
913,76,14,4,6
914,76,14,4,6
915,75,15,4,6
916,75,15,4,6
917,75,15,4,6
918,73,17,4,6
919,73,17,4,6
920,73,17,4,6
921,72,18,4,6
922,72,18,4,6
923,72,18,4,6
924,71,19,4,6
925,71,19,4,6
926,71,19,4,6
927,71,19,4,6
928,70,20,4,6
929,70,20,4,6
930,70,20,4,6
931,70,20,4,6
932,70,20,4,6
933,70,20,4,6
934,70,20,4,6
935,70,20,4,6
936,70,20,4,6
937,70,20,4,6
938,70,20,4,6
939,70,20,4,6
940,70,20,3,7
941,70,20,3,7
942,70,20,3,7
943,70,20,3,7
944,70,20,3,7
945,70,20,3,7
946,70,20,3,7
947,70,20,3,7
948,69,21,3,7
949,69,21,3,7
950,69,21,3,7
951,69,21,3,7
952,69,21,3,7
953,69,21,3,7
954,69,21,3,7
955,69,21,3,7
956,69,21,3,7
957,69,21,3,7
958,69,21,3,7
959,69,21,3,7
960,69,21,3,7
961,69,21,3,7
962,69,21,3,7
963,69,21,3,7
964,69,21,3,7
965,69,21,3,7
966,69,21,3,7
967,69,21,3,7
968,69,21,3,7
969,69,21,3,7
970,69,21,3,7
971,69,21,3,7
972,69,21,3,7
973,69,21,3,7
974,69,21,3,7
975,69,21,3,7
976,69,21,3,7
977,69,21,3,7
978,69,21,3,7
979,69,21,3,7
980,69,21,3,7
981,69,21,3,7
982,69,21,3,7
983,69,21,3,7
984,69,21,3,7
985,69,21,3,7
986,69,21,3,7
987,69,21,3,7
988,69,21,3,7
989,69,21,3,7
990,69,21,3,7
991,69,20,3,8
992,69,18,4,9
993,69,16,6,9
994,69,15,7,9
995,69,14,8,9
996,69,14,8,9
997,69,14,8,9
998,69,14,8,9
999,69,14,8,9
1000,69,14,8,9
1001,69,14,8,9
1002,69,14,8,9
1003,69,14,8,9
1004,69,14,8,9
1005,69,13,9,9
1006,69,13,9,9
1007,69,12,10,9
1008,69,12,10,9
1009,68,13,10,9
1010,68,13,10,9
1011,68,13,10,9
1012,68,13,10,9
1013,68,13,10,9
1014,68,13,10,9
1015,68,13,10,9
1016,68,13,10,9
1017,68,13,10,9
1018,68,13,10,9
1019,68,13,10,9
1020,68,13,10,9
1021,68,13,10,9
1022,68,13,10,9
1023,68,13,10,9
1024,68,13,10,9
1025,68,13,10,9
1026,68,13,10,9
1027,68,13,10,9
1028,68,13,10,9
1029,68,13,10,9
1030,68,13,10,9
1031,68,13,10,9
1032,68,13,10,9
1033,68,13,10,9
1034,68,13,10,9
1035,68,13,10,9
1036,68,13,10,9
1037,68,13,10,9
1038,68,13,10,9
1039,68,13,10,9
1040,68,13,10,9
1041,68,13,10,9
1042,68,13,10,9
1043,68,13,10,9
1044,68,12,11,9
1045,68,12,11,9
1046,68,12,11,9
1047,68,12,11,9
1048,68,12,11,9
1049,68,12,11,9
1050,68,12,11,9
1051,68,12,11,9
1052,68,12,11,9
1053,68,12,11,9
1054,68,12,11,9
1055,68,12,11,9
1056,68,12,11,9
1057,68,12,11,9
1058,68,12,11,9
1059,68,12,11,9
1060,68,12,11,9
1061,68,12,11,9
1062,67,13,11,9
1063,67,13,11,9
1064,66,14,11,9
1065,66,14,11,9
1066,66,14,11,9
1067,66,14,11,9
1068,66,14,11,9
1069,66,14,11,9
1070,66,14,11,9
1071,66,14,11,9
1072,66,14,11,9
1073,66,14,11,9
1074,66,14,11,9
1075,66,14,11,9
1076,66,14,11,9
1077,66,14,11,9
1078,66,14,11,9
1079,66,14,11,9
1080,66,14,11,9
1081,66,14,11,9
1082,66,14,11,9
1083,66,14,11,9
1084,66,14,11,9
1085,66,14,11,9
1086,66,14,11,9
1087,65,15,11,9
1088,65,15,11,9
1089,65,15,11,9
1090,65,15,11,9
1091,65,15,11,9
1092,65,15,11,9
1093,65,15,11,9
1094,65,15,11,9
1095,65,15,11,9
1096,65,15,11,9
1097,65,15,11,9
1098,65,15,11,9
1099,65,14,12,9
1100,64,15,12,9
1101,64,15,12,9
1102,64,15,12,9
1103,64,15,12,9
1104,64,15,12,9
1105,64,15,12,9
1106,64,15,12,9
1107,64,15,12,9
1108,64,15,12,9
1109,64,15,12,9
1110,64,15,12,9
1111,64,15,12,9
1112,64,13,13,10
1113,64,13,13,10
1114,64,12,14,10
1115,64,12,14,10
1116,64,11,15,10
1117,63,12,15,10
1118,63,12,15,10
1119,62,11,17,10
1120,62,11,17,10
1121,61,12,17,10
1122,61,11,18,10
1123,61,11,18,10
1124,60,12,18,10
1125,60,11,19,10
1126,59,12,19,10
1127,59,12,19,10
1128,59,12,19,10
1129,59,11,20,10
1130,58,12,20,10
1131,58,12,20,10
1132,58,12,20,10
1133,58,12,20,10
1134,58,12,20,10
1135,58,12,20,10
1136,56,14,20,10
1137,56,14,20,10
1138,56,14,20,10
1139,56,14,20,10
1140,55,15,20,10
1141,55,15,20,10
1142,55,15,20,10
1143,54,16,20,10
1144,54,16,20,10
1145,54,16,20,10
1146,54,16,20,10
1147,53,17,20,10
1148,51,19,20,10
1149,51,18,21,10
1150,51,18,21,10
1151,51,18,21,10
1152,50,19,21,10
1153,50,19,21,10
1154,50,19,21,10
1155,50,19,21,10
1156,50,19,21,10
1157,50,19,21,10
1158,50,19,21,10
1159,50,19,21,10
1160,50,19,21,10
1161,50,19,21,10
1162,50,19,21,10
1163,50,19,21,10
1164,50,19,21,10
1165,50,19,21,10
1166,50,19,21,10
1167,50,19,21,10
1168,50,19,21,10
1169,50,19,21,10
1170,49,20,21,10
1171,48,21,21,10
1172,48,21,21,10
1173,48,21,21,10
1174,48,21,21,10
1175,48,21,21,10
1176,48,21,21,10
1177,48,21,21,10
1178,48,21,21,10
1179,48,21,21,10
1180,48,21,21,10
1181,48,21,21,10
1182,48,21,21,10
1183,48,21,21,10
1184,48,21,21,10
1185,48,21,21,10
1186,48,21,21,10
1187,48,21,21,10
1188,48,21,21,10
1189,48,21,21,10
1190,48,21,21,10
1191,48,21,21,10
1192,47,22,20,11
1193,47,22,18,13
1194,47,22,16,15
1195,47,22,15,16
1196,47,22,14,17
1197,46,23,14,17
1198,46,23,14,17
1199,46,23,14,17
1200,46,23,14,17
1201,46,23,14,17
1202,46,23,14,17
1203,46,23,14,17
1204,46,23,14,17
1205,46,23,14,17
1206,46,23,13,18
1207,46,23,13,18
1208,46,23,12,19
1209,46,23,12,19
1210,46,22,13,19
1211,46,22,13,19
1212,46,22,13,19
1213,46,22,13,19
1214,46,22,13,19
1215,46,22,13,19
1216,46,22,13,19
1217,46,22,13,19
1218,46,22,13,19
1219,46,22,13,19
1220,46,22,13,19
1221,46,22,13,19
1222,46,22,13,19
1223,46,22,13,19
1224,46,22,13,19
1225,46,22,13,19
1226,46,22,13,19
1227,46,22,13,19
1228,45,23,13,19
1229,45,23,13,19
1230,45,23,13,19
1231,45,23,13,19
1232,45,23,13,19
1233,45,23,13,19
1234,45,23,13,19
1235,45,23,13,19
1236,45,23,13,19
1237,45,23,13,19
1238,45,23,13,19
1239,45,23,13,19
1240,45,23,13,19
1241,44,24,13,19
1242,44,24,13,19
1243,44,24,13,19
1244,44,24,13,19
1245,44,24,12,20
1246,44,24,12,20
1247,44,24,12,20
1248,44,24,12,20
1249,43,25,12,20
1250,43,25,12,20
1251,42,26,12,20
1252,41,27,12,20
1253,41,27,12,20
1254,41,27,12,20
1255,41,27,12,20
1256,41,27,12,20
1257,41,27,12,20
1258,41,27,12,20
1259,41,27,12,20
1260,41,27,12,20
1261,41,27,12,20
1262,41,27,12,20
1263,41,26,13,20
1264,41,26,13,20
1265,41,25,14,20
1266,41,25,14,20
1267,41,25,14,20
1268,41,25,14,20
1269,41,25,14,20
1270,41,25,14,20
1271,41,25,14,20
1272,41,25,14,20
1273,41,25,14,20
1274,41,25,14,20
1275,39,27,14,20
1276,39,27,14,20
1277,38,28,14,20
1278,38,28,14,20
1279,38,28,14,20
1280,38,28,14,20
1281,38,28,14,20
1282,38,28,14,20
1283,38,28,14,20
1284,38,28,14,20
1285,38,28,14,20
1286,38,28,14,20
1287,38,28,14,20
1288,38,27,15,20
1289,38,27,15,20
1290,38,27,15,20
1291,38,27,15,20
1292,38,27,15,20
1293,38,27,15,20
1294,38,27,15,20
1295,38,27,15,20
1296,38,27,15,20
1297,38,27,15,20
1298,38,27,15,20
1299,38,27,15,20
1300,38,27,14,21
1301,38,26,15,21
1302,38,26,15,21
1303,38,26,15,21
1304,38,26,15,21
1305,38,26,15,21
1306,38,26,15,21
1307,38,26,15,21
1308,38,26,15,21
1309,38,26,15,21
1310,38,26,15,21
1311,38,26,15,21
1312,38,26,15,21
1313,38,26,13,23
1314,38,26,13,23
1315,38,26,12,24
1316,38,26,12,24
1317,38,26,11,25
1318,38,25,12,25
1319,38,25,12,25
1320,38,24,11,27
1321,37,25,11,27
1322,36,25,12,27
1323,36,25,11,28
1324,36,25,11,28
1325,36,24,12,28
1326,36,24,11,29
1327,36,23,12,29
1328,36,23,12,29
1329,36,23,12,29
1330,36,23,11,30
1331,36,22,12,30
1332,36,22,12,30
1333,36,22,12,30
1334,36,22,12,30
1335,36,22,12,30
1336,36,22,12,30
1337,36,20,14,30
1338,36,20,14,30
1339,36,20,14,30
1340,35,21,14,30
1341,35,20,15,30
1342,35,20,15,30
1343,35,20,15,30
1344,35,19,16,30
1345,35,19,16,30
1346,35,19,16,30
1347,35,19,16,30
1348,35,18,17,30
1349,35,16,19,30
1350,35,16,18,31
1351,35,16,18,31
1352,35,16,18,31
1353,35,15,19,31
1354,35,15,19,31
1355,35,15,19,31
1356,35,15,19,31
1357,35,15,19,31
1358,34,16,19,31
1359,34,16,19,31
1360,34,16,19,31
1361,34,16,19,31
1362,33,17,19,31
1363,33,17,19,31
1364,33,17,19,31
1365,33,17,19,31
1366,33,17,19,31
1367,33,17,19,31
1368,33,17,19,31
1369,33,17,19,31
1370,33,17,19,31
1371,33,16,20,31
1372,32,16,21,31
1373,32,16,21,31
1374,32,16,21,31
1375,32,16,21,31
1376,32,16,21,31
1377,32,16,21,31
1378,32,16,21,31
1379,32,16,21,31
1380,32,16,21,31
1381,32,16,21,31
1382,32,16,21,31
1383,32,16,21,31
1384,32,16,21,31
1385,32,16,21,31
1386,32,16,21,31
1387,32,16,21,31
1388,32,16,21,31
1389,31,17,21,31
1390,31,17,21,31
1391,31,17,21,31
1392,31,17,21,31
1393,31,16,22,31
1394,31,16,22,31
1395,31,16,22,31
1396,31,16,22,31
1397,31,16,22,31
1398,31,15,23,31
1399,31,15,23,31
1400,31,15,23,31
1401,31,15,23,31
1402,31,15,23,31
1403,31,15,23,31
1404,31,15,23,31
1405,31,15,23,31
1406,31,15,23,31
1407,29,17,23,31
1408,29,17,23,31
1409,29,17,23,31
1410,29,17,23,31
1411,29,17,22,32
1412,29,17,22,32
1413,29,17,22,32
1414,29,17,22,32
1415,29,17,22,32
1416,29,17,22,32
1417,29,17,22,32
1418,29,17,22,32
1419,29,17,22,32
1420,29,17,22,32
1421,29,17,22,32
1422,29,17,22,32
1423,29,17,22,32
1424,29,17,22,32
1425,29,17,22,32
1426,29,17,22,32
1427,28,18,22,32
1428,28,18,22,32
1429,28,17,23,32
1430,28,17,23,32
1431,28,17,23,32
1432,28,17,23,32
1433,28,17,23,32
1434,28,17,23,32
1435,28,17,23,32
1436,27,18,23,32
1437,27,18,23,32
1438,27,18,23,32
1439,27,18,23,32
1440,27,18,23,32
1441,27,18,23,32
1442,27,17,24,32
1443,26,18,24,32
1444,25,19,24,32
1445,25,19,24,32
1446,25,19,24,32
1447,25,19,24,32
1448,25,19,24,32
1449,25,19,24,32
1450,25,18,25,32
1451,25,18,25,32
1452,25,17,26,32
1453,25,16,27,32
1454,25,16,27,32
1455,25,16,27,32
1456,25,16,27,32
1457,25,16,27,32
1458,25,16,27,32
1459,25,16,27,32
1460,25,16,27,32
1461,25,16,27,32
1462,25,16,27,32
1463,25,16,27,32
1464,25,16,26,33
1465,25,16,26,33
1466,25,16,25,34
1467,25,16,25,34
1468,25,16,25,34
1469,25,16,25,34
1470,25,16,25,34
1471,25,16,25,34
1472,25,16,25,34
1473,25,16,25,34
1474,25,16,25,34
1475,25,16,25,34
1476,25,14,27,34
1477,25,14,27,34
1478,25,13,28,34
1479,25,13,28,34
1480,25,13,28,34
1481,25,13,28,34
1482,24,14,28,34
1483,24,14,28,34
1484,24,14,28,34
1485,24,14,28,34
1486,24,14,28,34
1487,24,14,28,34
1488,24,14,28,34
1489,24,14,27,35
1490,24,14,27,35
1491,24,14,27,35
1492,24,14,27,35
1493,24,14,27,35
1494,23,15,27,35
1495,23,15,27,35
1496,23,15,27,35
1497,23,15,27,35
1498,23,15,27,35
1499,23,15,27,35
1500,23,15,27,35
1501,23,15,27,35
1502,23,15,26,36
1503,23,15,26,36
1504,22,16,26,36
1505,22,16,26,36
1506,22,16,26,36
1507,22,16,26,36
1508,22,16,26,36
1509,22,16,26,36
1510,22,16,26,36
1511,22,16,26,36
1512,22,16,26,36
1513,22,16,26,36
1514,22,16,26,36
1515,21,17,26,36
1516,21,17,26,36
1517,21,17,26,36
1518,21,17,26,36
1519,21,17,25,37
1520,21,17,25,37
1521,21,17,24,38
1522,21,16,25,38
1523,21,15,25,39
1524,21,15,25,39
1525,21,15,25,39
1526,21,15,24,40
1527,21,15,24,40
1528,21,15,23,41
1529,21,15,23,41
1530,21,15,23,41
1531,21,15,23,41
1532,21,15,22,42
1533,21,15,22,42
1534,21,15,22,42
1535,21,15,22,42
1536,21,15,22,42
1537,21,15,22,42
1538,21,15,20,44
1539,21,15,20,44
1540,21,15,20,44
1541,21,14,21,44
1542,21,14,20,45
1543,21,14,20,45
1544,21,14,20,45
1545,21,14,19,46
1546,21,14,19,46
1547,21,14,19,46
1548,21,14,19,46
1549,21,14,18,47
1550,21,14,16,49
1551,21,14,16,49
1552,20,15,16,49
1553,20,15,16,49
1554,20,15,15,50
1555,20,15,15,50
1556,20,15,15,50
1557,20,15,15,50
1558,20,15,15,50
1559,20,14,16,50
1560,20,14,16,50
1561,20,14,16,50
1562,20,14,16,50
1563,20,13,17,50
1564,20,13,17,50
1565,19,14,17,50
1566,19,14,17,50
1567,19,14,17,50
1568,19,14,17,50
1569,19,14,17,50
1570,19,14,17,50
1571,19,14,17,50
1572,19,14,16,51
1573,18,14,16,52
1574,18,14,16,52
1575,18,14,16,52
1576,18,14,16,52
1577,18,14,16,52
1578,18,14,16,52
1579,18,14,16,52
1580,18,14,16,52
1581,18,14,16,52
1582,18,14,16,52
1583,18,14,16,52
1584,18,14,16,52
1585,18,14,16,52
1586,18,14,16,52
1587,18,14,16,52
1588,18,14,16,52
1589,18,14,16,52
1590,18,13,17,52
1591,18,13,17,52
1592,18,13,17,52
1593,18,13,17,52
1594,18,13,16,53
1595,18,13,16,53
1596,18,13,16,53
1597,18,13,16,53
1598,18,13,16,53
1599,18,13,15,54
1600,18,13,15,54
1601,18,13,15,54
1602,18,13,15,54
1603,18,13,15,54
1604,18,13,15,54
1605,18,13,15,54
1606,18,13,15,54
1607,18,13,15,54
1608,18,11,17,54
1609,18,11,17,54
1610,18,11,17,54
1611,18,11,17,54
1612,18,11,17,54
1613,18,11,17,54
1614,18,11,17,54
1615,18,11,17,54
1616,18,11,17,54
1617,18,11,17,54
1618,18,11,17,54
1619,18,11,17,54
1620,18,11,17,54
1621,18,11,17,54
1622,18,11,17,54
1623,18,11,17,54
1624,18,11,17,54
1625,18,11,17,54
1626,18,11,17,54
1627,18,11,17,54
1628,18,10,18,54
1629,18,10,18,54
1630,18,10,17,55
1631,18,10,17,55
1632,18,10,17,55
1633,18,10,17,55
1634,18,10,17,55
1635,18,10,17,55
1636,18,10,17,55
1637,18,9,18,55
1638,18,9,18,55
1639,18,9,18,55
1640,18,9,18,55
1641,18,9,18,55
1642,18,9,18,55
1643,18,9,17,56
1644,18,8,18,56
1645,18,7,19,56
1646,18,7,19,56
1647,18,7,19,56
1648,18,7,19,56
1649,18,7,19,56
1650,18,7,19,56
1651,18,7,18,57
1652,18,7,18,57
1653,18,7,17,58
1654,18,7,16,59
1655,18,7,16,59
1656,18,7,16,59
1657,18,7,16,59
1658,18,7,16,59
1659,18,7,16,59
1660,18,7,16,59
1661,18,7,16,59
1662,18,7,16,59
1663,18,7,16,59
1664,18,7,16,59
1665,18,7,16,59
1666,18,7,16,59
1667,18,7,16,59
1668,18,7,16,59
1669,18,7,16,59
1670,18,7,16,59
1671,18,7,16,59
1672,18,7,16,59
1673,18,7,16,59
1674,18,7,16,59
1675,18,7,16,59
1676,18,7,16,59
1677,18,7,14,61
1678,18,7,14,61
1679,18,7,13,62
1680,18,7,13,62
1681,18,7,13,62
1682,18,7,13,62
1683,18,6,14,62
1684,18,6,14,62
1685,18,6,14,62
1686,18,6,14,62
1687,18,6,14,62
1688,18,6,14,62
1689,18,6,14,62
1690,18,6,14,62
1691,18,6,14,62
1692,18,6,14,62
1693,18,6,14,62
1694,18,6,14,62
1695,18,5,15,62
1696,18,5,15,62
1697,18,5,15,62
1698,18,5,15,62
1699,18,5,15,62
1700,18,5,15,62
1701,18,5,15,62
1702,18,5,15,62
1703,18,5,15,62
1704,18,5,15,62
1705,18,4,16,62
1706,18,4,16,62
1707,18,4,16,62
1708,18,4,16,62
1709,18,4,16,62
1710,18,4,16,62
1711,18,4,16,62
1712,18,4,16,62
1713,18,4,16,62
1714,18,4,16,62
1715,18,4,16,62
1716,18,3,17,62
1717,18,3,17,62
1718,18,3,17,62
1719,18,3,17,62
1720,18,3,17,62
1721,18,3,17,62
1722,18,3,17,62
1723,17,4,16,63
1724,17,4,15,64
1725,17,4,15,64
1726,17,4,15,64
1727,17,4,15,64
1728,16,5,15,64
1729,16,5,15,64
1730,16,5,15,64
1731,15,6,15,64
1732,15,6,15,64
1733,15,6,15,64
1734,15,6,15,64
1735,15,6,15,64
1736,15,6,15,64
1737,15,6,15,64
1738,15,6,15,64
1739,15,6,15,64
1740,13,8,15,64
1741,13,8,15,64
1742,13,8,14,65
1743,13,8,14,65
1744,13,8,14,65
1745,13,8,14,65
1746,13,8,14,65
1747,13,8,14,65
1748,13,8,14,65
1749,13,8,14,65
1750,13,8,14,65
1751,13,8,14,65
1752,13,8,14,65
1753,13,7,15,65
1754,13,7,15,65
1755,13,7,15,65
1756,13,7,15,65
1757,13,7,15,65
1758,13,7,15,65
1759,13,7,15,65
1760,13,7,14,66
1761,13,7,14,66
1762,13,7,14,66
1763,13,7,14,66
1764,13,7,13,67
1765,13,7,13,67
1766,13,6,14,67
1767,13,6,14,67
1768,13,6,14,67
1769,12,7,14,67
1770,12,7,14,67
1771,12,7,14,67
1772,12,7,14,67
1773,12,7,14,67
1774,12,6,14,68
1775,12,6,14,68
1776,12,6,14,68
1777,12,6,14,68
1778,12,6,14,68
1779,11,7,14,68
1780,11,7,14,68
1781,11,7,14,68
1782,11,7,14,68
1783,11,7,14,68
1784,11,7,14,68
1785,11,7,14,68
1786,11,7,14,68
1787,11,7,14,68
1788,11,7,14,68
1789,11,7,14,68
1790,11,7,14,68
1791,11,7,13,69
1792,11,7,13,69
1793,11,7,13,69
1794,11,7,13,69
1795,11,7,13,69
1796,11,7,13,69
1797,11,7,13,69
1798,11,7,13,69
1799,11,7,13,69
1800,11,7,13,69
1801,11,7,13,69
1802,11,7,13,69
1803,11,7,13,69
1804,11,7,13,69
1805,11,7,13,69
1806,11,7,13,69
1807,11,7,13,69
1808,11,7,13,69
1809,11,7,11,71
1810,11,7,11,71
1811,11,7,11,71
1812,11,7,11,71
1813,11,7,11,71
1814,11,7,11,71
1815,11,7,11,71
1816,11,7,11,71
1817,11,7,11,71
1818,11,7,11,71
1819,11,7,11,71
1820,11,7,11,71
1821,11,7,11,71
1822,11,7,11,71
1823,11,7,11,71
1824,11,7,11,71
1825,11,7,11,71
1826,11,7,11,71
1827,11,7,11,71
1828,11,7,11,71
1829,11,7,10,72
1830,11,7,10,72
1831,11,7,10,72
1832,11,7,10,72
1833,11,7,10,72
1834,11,7,10,72
1835,11,7,10,72
1836,11,7,10,72
1837,11,7,10,72
1838,11,7,9,73
1839,11,7,9,73
1840,10,8,9,73
1841,10,8,9,73
1842,10,8,9,73
1843,10,8,9,73
1844,10,8,9,73
1845,10,8,8,74
1846,10,8,7,75
1847,10,8,7,75
1848,10,8,7,75
1849,10,8,7,75
1850,10,8,7,75
1851,10,8,7,75
1852,10,8,7,75
1853,10,8,7,75
1854,10,8,7,75
1855,10,8,7,75
1856,10,8,7,75
1857,10,8,7,75
1858,10,8,7,75
1859,10,8,7,75
1860,10,8,7,75
1861,10,8,7,75
1862,10,8,7,75
1863,10,8,7,75
1864,10,8,7,75
1865,10,8,7,75
1866,10,8,7,75
1867,10,8,7,75
1868,10,8,7,75
1869,10,8,7,75
1870,10,8,7,75
1871,10,8,7,75
1872,10,8,7,75
1873,10,8,7,75
1874,10,8,7,75
1875,10,8,7,75
1876,10,8,7,75
1877,10,8,7,75
1878,10,8,7,75
1879,10,8,7,75
1880,10,8,7,75
1881,10,8,7,75
1882,10,8,7,75
1883,10,8,7,75
1884,10,8,6,76
1885,10,8,6,76
1886,10,8,6,76
1887,10,8,6,76
1888,10,8,6,76
1889,10,8,6,76
1890,10,8,6,76
1891,10,8,6,76
1892,10,8,6,76
1893,10,8,6,76
1894,10,8,6,76
1895,10,8,6,76
1896,10,8,5,77
1897,10,8,5,77
1898,10,8,5,77
1899,10,8,5,77
1900,10,8,5,77
1901,10,8,5,77
1902,10,8,5,77
1903,10,8,5,77
1904,10,8,5,77
1905,10,8,5,77
1906,9,9,4,78
1907,9,9,4,78
1908,9,9,4,78
1909,9,9,4,78
1910,9,9,4,78
1911,9,9,4,78
1912,9,9,4,78
1913,9,9,4,78
1914,9,9,4,78
1915,9,9,4,78
1916,9,9,4,78
1917,9,9,3,79
1918,9,9,3,79
1919,9,9,3,79
1920,9,9,3,79
1921,9,9,3,79
1922,9,9,3,79
1923,9,9,3,79
1924,9,8,4,79
1925,9,8,4,79
1926,9,8,4,79
1927,9,8,4,79
1928,9,8,4,79
1929,9,7,5,79
1930,9,7,5,79
1931,9,7,5,79
1932,9,6,6,79
1933,9,6,6,79
1934,9,6,6,79
1935,9,6,6,79
1936,9,6,6,79
1937,9,6,6,79
1938,9,6,6,79
1939,9,6,6,79
1940,9,6,6,79
1941,9,4,8,79
1942,9,4,8,79
1943,9,4,8,79
1944,9,4,8,79
1945,9,4,8,79
1946,9,4,8,79
1947,9,4,8,79
1948,9,4,8,79
1949,9,4,8,79
1950,9,4,8,79
1951,9,4,8,79
1952,9,4,8,79
1953,9,4,8,79
1954,9,4,7,80
1955,9,4,7,80
1956,9,4,7,80
1957,9,4,7,80
1958,9,4,7,80
1959,9,4,7,80
1960,9,4,7,80
1961,9,4,7,80
1962,9,4,7,80
1963,9,4,7,80
1964,9,4,7,80
1965,9,4,7,80
1966,9,4,7,80
1967,9,4,6,81
1968,9,4,6,81
1969,9,4,6,81
1970,9,3,7,81
1971,9,3,7,81
1972,9,3,7,81
1973,9,3,7,81
1974,9,3,7,81
1975,9,3,6,82
1976,9,3,6,82
1977,9,3,6,82
1978,9,3,6,82
1979,9,3,6,82
1980,9,2,7,82
1981,9,2,7,82
1982,9,2,7,82
1983,9,2,7,82
1984,9,2,7,82
1985,9,2,7,82
1986,9,2,7,82
1987,9,2,7,82
1988,9,2,7,82
1989,9,2,7,82
1990,9,2,7,82
1991,9,2,7,82
1992,9,2,7,82
1993,9,2,7,82
1994,9,2,7,82
1995,9,2,7,82
1996,9,2,7,82
1997,9,2,7,82
1998,9,2,7,82
1999,9,2,7,82
2000,9,2,7,82
