"tick","total"
0,0
1,0
2,0
3,0
4,0
5,0
6,0
7,0
8,0
9,0
10,0
11,0
12,0
13,0
14,0
15,0
16,0
17,0
18,0
19,0
20,0
21,0
22,0
23,0
24,0
25,0
26,0
27,0
28,0
29,0
30,0
31,0
32,0
33,0
34,0
35,0
36,0
37,0
38,0
39,0
40,0
41,0
42,0
43,0
44,0
45,0
46,0
47,0
48,0
49,0
50,0
51,0
52,0
53,0
54,0
55,0
56,0
57,0
58,0
59,0
60,0
61,0
62,0
63,0
64,0
65,0
66,0
67,0
68,0
69,0
70,0
71,0
72,0
73,0
74,0
75,0
76,0
77,0
78,0
79,0
80,0
81,0
82,0
83,0
84,0
85,0
86,0
87,0
88,0
89,0
90,0
91,0
92,0
93,0
94,0
95,0
96,0
97,0
98,0
99,0
100,0
101,0
102,0
103,0
104,0
105,0
106,0
107,0
108,0
109,0
110,0
111,0
112,0
113,0
114,0
115,0
116,0
117,0
118,0
119,0
120,0
121,0
122,0
123,0
124,0
125,0
126,0
127,0
128,0
129,0
130,0
131,0
132,0
133,0
134,0
135,0
136,0
137,0
138,0
139,0
140,0
141,0
142,0
143,0
144,0
145,0
146,0
147,0
148,0
149,0
150,0
151,0
152,0
153,0
154,0
155,0
156,0
157,0
158,0
159,0
160,0
161,0
162,0
163,0
164,0
165,0
166,0
167,0
168,0
169,0
170,0
171,0
172,0
173,0
174,0
175,0
176,0
177,0
178,0
179,0
180,0
181,0
182,0
183,0
184,0
185,0
186,0
187,0
188,0
189,0
190,0
191,0
192,0
193,0
194,0
195,0
196,0
197,0
198,0
199,0
200,0
201,0
202,0
203,0
204,0
205,0
206,0
207,0
208,0
209,0
210,0
211,0
212,0
213,0
214,0
215,0
216,0
217,1
218,1
219,1
220,1
221,1
222,1
223,1
224,1
225,1
226,1
227,1
228,1
229,1
230,1
231,1
232,1
233,2
234,2
235,3
236,3
237,3
238,3
239,3
240,3
241,3
242,3
243,3
244,4
245,4
246,4
247,4
248,4
249,5
250,5
251,6
252,6
253,6
254,6
255,6
256,6
257,6
258,6
259,6
260,6
261,6
262,6
263,6
264,6
265,6
266,6
267,6
268,6
269,6
270,6
271,6
272,6
273,6
274,7
275,7
276,7
277,8
278,8
279,8
280,9
281,9
282,9
283,9
284,9
285,9
286,9
287,9
288,9
289,9
290,9
291,9
292,9
293,9
294,10
295,10
296,10
297,10
298,10
299,10
300,10
301,10
302,11
303,11
304,11
305,11
306,11
307,11
308,11
309,11
310,11
311,11
312,11
313,11
314,11
315,11
316,11
317,11
318,11
319,11
320,11
321,11
322,11
323,11
324,12
325,12
326,12
327,12
328,12
329,13
330,13
331,13
332,13
333,13
334,13
335,13
336,13
337,13
338,13
339,13
340,13
341,13
342,13
343,13
344,13
345,13
346,13
347,13
348,13
349,13
350,13
351,13
352,13
353,13
354,13
355,13
356,14
357,14
358,14
359,14
360,14
361,14
362,14
363,14
364,14
365,14
366,14
367,14
368,14
369,14
370,14
371,14
372,15
373,16
374,16
375,16
376,16
377,16
378,16
379,16
380,16
381,16
382,16
383,16
384,17
385,17
386,17
387,17
388,17
389,17
390,17
391,18
392,19
393,19
394,19
395,19
396,19
397,20
398,20
399,20
400,20
401,20
402,20
403,21
404,21
405,21
406,21
407,21
408,21
409,21
410,21
411,21
412,22
413,22
414,22
415,22
416,22
417,22
418,22
419,22
420,22
421,22
422,22
423,22
424,22
425,22
426,22
427,22
428,22
429,22
430,22
431,22
432,22
433,22
434,24
435,24
436,24
437,24
438,24
439,24
440,25
441,25
442,25
443,25
444,25
445,25
446,25
447,25
448,25
449,25
450,26
451,26
452,26
453,26
454,26
455,26
456,26
457,26
458,26
459,26
460,26
461,26
462,26
463,26
464,26
465,26
466,26
467,26
468,26
469,26
470,26
471,26
472,26
473,26
474,26
475,26
476,26
477,27
478,27
479,27
480,27
481,27
482,27
483,27
484,27
485,27
486,27
487,27
488,27
489,27
490,28
491,28
492,28
493,28
494,28
495,28
496,28
497,28
498,28
499,28
500,28
501,28
502,28
503,28
504,28
505,28
506,28
507,28
508,28
509,28
510,28
511,28
512,28
513,28
514,28
515,29
516,29
517,29
518,29
519,29
520,29
521,29
522,29
523,29
524,29
525,29
526,29
527,29
528,29
529,29
530,29
531,29
532,29
533,29
534,29
535,29
536,29
537,29
538,29
539,29
540,29
541,30
542,30
543,30
544,30
545,30
546,30
547,30
548,30
549,30
550,30
551,30
552,30
553,30
554,30
555,30
556,30
557,30
558,30
559,30
560,30
561,30
562,30
563,30
564,30
565,30
566,30
567,30
568,30
569,30
570,30
571,30
572,30
573,30
574,30
575,30
576,30
577,30
578,30
579,30
580,30
581,30
582,30
583,30
584,30
585,30
586,30
587,30
588,30
589,30
590,30
591,30
592,30
593,30
594,30
595,30
596,30
597,30
598,30
599,30
600,30
601,30
602,30
603,30
604,30
605,30
606,30
607,30
608,30
609,30
610,30
611,30
612,30
613,30
614,30
615,30
616,30
617,30
618,30
619,30
620,30
621,30
622,30
623,30
624,30
625,30
626,30
627,30
628,30
629,30
630,30
631,30
632,30
633,30
634,30
635,30
636,30
637,30
638,30
639,30
640,30
641,30
642,30
643,30
644,30
645,30
646,30
647,30
648,30
649,30
650,30
651,30
652,30
653,30
654,30
655,30
656,30
657,30
658,30
659,30
660,30
661,30
662,30
663,30
664,30
665,30
666,30
667,30
668,30
669,30
670,30
671,30
672,30
673,30
674,30
675,30
676,30
677,30
678,30
679,30
680,30
681,30
682,30
683,30
684,30
685,30
686,30
687,30
688,30
689,30
690,30
691,30
692,30
693,30
694,30
695,30
696,30
697,30
698,31
699,31
700,31
701,31
702,31
703,31
704,31
705,31
706,31
707,31
708,31
709,31
710,31
711,31
712,31
713,31
714,31
715,31
716,31
717,31
718,31
719,31
720,31
721,31
722,31
723,31
724,31
725,31
726,31
727,31
728,31
729,31
730,31
731,31
732,31
733,31
734,31
735,31
736,31
737,31
738,31
739,31
740,31
741,31
742,31
743,31
744,31
745,31
746,31
747,31
748,31
749,31
750,31
751,31
752,31
753,31
754,31
755,31
756,31
757,31
758,31
759,31
760,31
761,31
762,31
763,31
764,31
765,31
766,31
767,31
768,31
769,31
770,31
771,31
772,31
773,31
774,31
775,31
776,31
777,31
778,31
779,31
780,31
781,31
782,31
783,31
784,31
785,31
786,31
787,31
788,31
789,31
790,31
791,31
792,31
793,31
794,31
795,31
796,31
797,31
798,31
799,31
800,31
801,31
802,31
803,31
804,31
805,31
806,31
807,31
808,31
809,31
810,31
811,31
812,31
813,31
814,31
815,31
816,32
817,32
818,32
819,32
820,32
821,32
822,32
823,32
824,32
825,32
826,32
827,32
828,32
829,32
830,32
831,33
832,34
833,34
834,34
835,34
836,34
837,35
838,35
839,35
840,35
841,35
842,35
843,35
844,35
845,35
846,36
847,36
848,36
849,36
850,36
851,37
852,37
853,37
854,37
855,38
856,38
857,38
858,38
859,38
860,38
861,38
862,38
863,38
864,38
865,38
866,38
867,38
868,38
869,39
870,39
871,39
872,39
873,39
874,39
875,39
876,39
877,39
878,39
879,39
880,39
881,39
882,39
883,39
884,39
885,39
886,39
887,39
888,39
889,39
890,39
891,39
892,39
893,39
894,39
895,39
896,39
897,39
898,39
899,39
900,39
901,39
902,39
903,39
904,39
905,39
906,39
907,39
908,39
909,39
910,39
911,39
912,39
913,39
914,39
915,39
916,39
917,39
918,39
919,39
920,39
921,39
922,39
923,39
924,40
925,40
926,40
927,40
928,40
929,40
930,40
931,40
932,40
933,40
934,40
935,40
936,40
937,40
938,40
939,40
940,40
941,40
942,40
943,40
944,40
945,40
946,40
947,40
948,40
949,40
950,40
951,40
952,40
953,40
954,40
955,40
956,40
957,40
958,40
959,40
960,40
961,40
962,40
963,40
964,40
965,41
966,41
967,41
968,41
969,42
970,42
971,42
972,42
973,42
974,42
975,42
976,42
977,42
978,42
979,43
980,43
981,43
982,43
983,44
984,44
985,44
986,44
987,44
988,44
989,44
990,44
991,44
992,44
993,44
994,44
995,45
996,45
997,45
998,45
999,45
1000,45
1001,45
1002,45
1003,46
1004,47
1005,48
1006,48
1007,48
1008,48
1009,48
1010,48
1011,48
1012,48
1013,48
1014,48
1015,48
1016,48
1017,48
1018,48
1019,48
1020,48
1021,48
1022,48
1023,48
1024,48
1025,48
1026,48
1027,48
1028,48
1029,48
1030,48
1031,48
1032,48
1033,48
1034,48
1035,49
1036,49
1037,49
1038,49
1039,49
1040,49
1041,49
1042,49
1043,49
1044,49
1045,49
1046,49
1047,49
1048,49
1049,49
1050,49
1051,49
1052,49
1053,49
1054,49
1055,49
1056,49
1057,49
1058,49
1059,49
1060,49
1061,49
1062,49
1063,49
1064,49
1065,49
1066,49
1067,49
1068,49
1069,49
1070,49
1071,49
1072,50
1073,50
1074,51
1075,51
1076,51
1077,51
1078,51
1079,51
1080,51
1081,51
1082,51
1083,51
1084,51
1085,51
1086,51
1087,51
1088,51
1089,51
1090,51
1091,51
1092,51
1093,51
1094,51
1095,51
1096,51
1097,51
1098,51
1099,51
1100,51
1101,51
1102,51
1103,51
1104,51
1105,51
1106,51
1107,51
1108,51
1109,51
1110,51
1111,51
1112,51
1113,51
1114,51
1115,51
1116,51
1117,51
1118,51
1119,51
1120,51
1121,51
1122,51
1123,51
1124,51
1125,51
1126,51
1127,51
1128,51
1129,51
1130,51
1131,51
1132,51
1133,51
1134,51
1135,51
1136,51
1137,51
1138,51
1139,51
1140,51
1141,51
1142,51
1143,51
1144,51
1145,51
1146,51
1147,51
1148,51
1149,51
1150,51
1151,51
1152,51
1153,51
1154,51
1155,51
1156,51
1157,51
1158,51
1159,52
1160,52
1161,52
1162,52
1163,52
1164,52
1165,52
1166,52
1167,52
1168,52
1169,52
1170,52
1171,52
1172,52
1173,52
1174,52
1175,52
1176,52
1177,52
1178,52
1179,52
1180,52
1181,52
1182,52
1183,52
1184,52
1185,52
1186,52
1187,52
1188,52
1189,52
1190,52
1191,52
1192,52
1193,52
1194,52
1195,53
1196,53
1197,54
1198,54
1199,54
1200,54
1201,54
1202,54
1203,54
1204,54
1205,54
1206,54
1207,54
1208,54
1209,54
1210,54
1211,54
1212,54
1213,54
1214,54
1215,54
1216,54
1217,54
1218,54
1219,54
1220,54
1221,54
1222,54
1223,54
1224,54
1225,55
1226,55
1227,55
1228,55
1229,55
1230,55
1231,55
1232,55
1233,55
1234,55
1235,55
1236,55
1237,55
1238,55
1239,55
1240,55
1241,55
1242,55
1243,55
1244,55
1245,55
1246,56
1247,56
1248,56
1249,56
1250,56
1251,56
1252,57
1253,57
1254,57
1255,57
1256,57
1257,57
1258,57
1259,57
1260,57
1261,57
1262,57
1263,57
1264,57
1265,57
1266,57
1267,58
1268,58
1269,58
1270,58
1271,58
1272,58
1273,58
1274,58
1275,58
1276,58
1277,58
1278,59
1279,59
1280,59
1281,59
1282,59
1283,60
1284,60
1285,60
1286,60
1287,60
1288,60
1289,60
1290,60
1291,60
1292,60
1293,60
1294,60
1295,60
1296,60
1297,60
1298,60
1299,60
1300,60
1301,60
1302,60
1303,60
1304,60
1305,60
1306,60
1307,60
1308,60
1309,60
1310,60
1311,60
1312,60
1313,60
1314,60
1315,60
1316,60
1317,60
1318,60
1319,60
1320,60
1321,60
1322,60
1323,60
1324,61
1325,61
1326,61
1327,61
1328,61
1329,61
1330,62
1331,62
1332,62
1333,62
1334,62
1335,62
1336,62
1337,62
1338,62
1339,62
1340,62
1341,63
1342,63
1343,63
1344,63
1345,63
1346,63
1347,63
1348,63
1349,63
1350,63
1351,63
1352,63
1353,63
1354,63
1355,63
1356,63
1357,63
1358,63
1359,63
1360,63
1361,63
1362,63
1363,64
1364,64
1365,64
1366,65
1367,65
1368,65
1369,65
1370,65
1371,65
1372,65
1373,65
1374,65
1375,65
1376,65
1377,65
1378,65
1379,65
1380,65
1381,65
1382,65
1383,65
1384,65
1385,65
1386,66
1387,66
1388,66
1389,66
1390,66
1391,66
1392,66
1393,66
1394,66
1395,66
1396,66
1397,66
1398,66
1399,66
1400,66
1401,66
1402,66
1403,66
1404,66
1405,66
1406,66
1407,66
1408,66
1409,66
1410,66
1411,66
1412,66
1413,66
1414,66
1415,66
1416,66
1417,66
1418,66
1419,66
1420,66
1421,66
1422,66
1423,66
1424,66
1425,66
1426,66
1427,66
1428,67
1429,68
1430,68
1431,68
1432,68
1433,68
1434,68
1435,68
1436,68
1437,68
1438,68
1439,68
1440,68
1441,68
1442,68
1443,68
1444,68
1445,68
1446,68
1447,68
1448,68
1449,68
1450,68
1451,68
1452,69
1453,69
1454,69
1455,69
1456,69
1457,69
1458,69
1459,69
1460,69
1461,69
1462,69
1463,69
1464,69
1465,69
1466,69
1467,69
1468,69
1469,69
1470,69
1471,69
1472,69
1473,69
1474,69
1475,69
1476,69
1477,69
1478,69
1479,69
1480,69
1481,69
1482,69
1483,69
1484,69
1485,69
1486,69
1487,69
1488,70
1489,70
1490,70
1491,70
1492,70
1493,70
1494,70
1495,70
1496,70
1497,70
1498,70
1499,70
1500,70
1501,70
1502,70
1503,70
1504,70
1505,70
1506,70
1507,70
1508,71
1509,72
1510,73
1511,74
1512,75
1513,76
1514,77
1515,78
1516,79
1517,80
1518,80
1519,80
1520,80
1521,80
1522,80
1523,80
1524,80
1525,80
1526,80
1527,80
1528,80
1529,80
1530,80
1531,81
1532,81
1533,81
1534,81
1535,81
1536,81
1537,81
1538,81
1539,81
1540,81
1541,81
1542,81
1543,81
1544,81
1545,81
1546,81
1547,81
1548,81
1549,81
1550,81
1551,81
1552,81
1553,81
1554,81
1555,82
1556,82
1557,82
1558,82
1559,82
1560,82
1561,82
1562,82
1563,82
1564,82
1565,82
1566,82
1567,82
1568,82
1569,82
1570,82
1571,82
1572,82
1573,82
1574,82
1575,82
1576,82
1577,82
1578,82
1579,82
1580,82
1581,82
1582,82
1583,82
1584,82
1585,82
1586,82
1587,82
1588,82
1589,82
1590,82
1591,82
1592,82
1593,82
1594,82
1595,82
1596,82
1597,82
1598,82
1599,83
1600,83
1601,83
1602,83
1603,83
1604,83
1605,83
1606,83
1607,83
1608,83
1609,83
1610,83
1611,83
1612,83
1613,83
1614,83
1615,83
1616,84
1617,84
1618,84
1619,84
1620,84
1621,84
1622,84
1623,84
1624,84
1625,84
1626,84
1627,84
1628,84
1629,84
1630,84
1631,84
1632,84
1633,84
1634,84
1635,84
1636,84
1637,84
1638,84
1639,84
1640,84
1641,84
1642,84
1643,84
1644,84
1645,84
1646,84
1647,85
1648,85
1649,85
1650,85
1651,85
1652,85
1653,85
1654,85
1655,85
1656,85
1657,85
1658,85
1659,85
1660,85
1661,85
1662,85
1663,85
1664,85
1665,85
1666,85
1667,85
1668,85
1669,85
1670,85
1671,85
1672,85
1673,85
1674,85
1675,85
1676,85
1677,85
1678,85
1679,85
1680,85
1681,85
1682,85
1683,85
1684,85
1685,85
1686,85
1687,85
1688,85
1689,85
1690,85
1691,85
1692,86
1693,86
1694,86
1695,88
1696,88
1697,88
1698,88
1699,88
1700,88
1701,88
1702,88
1703,88
1704,88
1705,88
1706,88
1707,88
1708,88
1709,88
1710,88
1711,88
1712,88
1713,89
1714,89
1715,90
1716,90
1717,90
1718,90
1719,90
1720,90
1721,90
1722,90
1723,90
1724,90
1725,90
1726,90
1727,90
1728,90
1729,90
1730,90
1731,90
1732,90
1733,90
1734,90
1735,90
1736,90
1737,90
1738,90
1739,90
1740,90
1741,90
1742,90
1743,90
1744,90
1745,91
1746,91
1747,91
1748,91
1749,92
1750,92
1751,92
1752,93
1753,93
1754,93
1755,93
1756,93
1757,93
1758,93
1759,93
1760,93
1761,93
1762,93
1763,93
1764,93
1765,93
1766,93
1767,93
1768,93
1769,93
1770,93
1771,93
1772,93
1773,93
1774,93
1775,93
1776,93
1777,93
1778,94
1779,94
1780,94
1781,94
1782,94
1783,94
1784,94
1785,94
1786,94
1787,94
1788,94
1789,94
1790,94
1791,94
1792,94
1793,94
1794,94
1795,94
1796,94
1797,94
1798,94
1799,94
1800,94
1801,94
1802,94
1803,94
1804,94
1805,94
1806,94
1807,94
1808,94
1809,94
1810,94
1811,94
1812,94
1813,94
1814,94
1815,94
1816,94
1817,94
1818,95
1819,95
1820,95
1821,95
1822,95
1823,95
1824,95
1825,95
1826,95
1827,96
1828,96
1829,96
1830,96
1831,96
1832,96
1833,96
1834,96
1835,96
1836,96
1837,97
1838,97
1839,97
1840,97
1841,97
1842,97
1843,97
1844,97
1845,97
1846,97
1847,97
1848,97
1849,97
1850,97
1851,97
1852,97
1853,97
1854,97
1855,97
1856,97
1857,97
1858,97
1859,98
1860,98
1861,98
1862,98
1863,98
1864,98
1865,98
1866,98
1867,98
1868,98
1869,98
1870,98
1871,98
1872,98
1873,98
1874,98
1875,98
1876,98
1877,98
1878,98
1879,99
1880,99
1881,99
1882,99
1883,100
1884,100
1885,100
1886,100
1887,100
1888,100
1889,100
1890,100
1891,100
1892,100
1893,100
1894,100
1895,100
1896,100
1897,100
1898,100
1899,100
1900,100
1901,100
1902,100
1903,100
1904,100
1905,100
1906,100
1907,100
1908,100
1909,101
1910,101
1911,101
1912,101
1913,101
1914,101
1915,101
1916,101
1917,101
1918,101
1919,101
1920,101
1921,102
1922,102
1923,102
1924,102
1925,102
1926,102
1927,102
1928,102
1929,102
1930,102
1931,102
1932,102
1933,102
1934,102
1935,102
1936,102
1937,102
1938,102
1939,102
1940,102
1941,102
1942,102
1943,102
1944,102
1945,102
1946,102
1947,102
1948,102
1949,102
1950,102
1951,102
1952,102
1953,102
1954,102
1955,102
1956,102
1957,102
1958,102
1959,102
1960,102
1961,102
1962,103
1963,103
1964,103
1965,103
1966,103
1967,103
1968,103
1969,103
1970,103
1971,103
1972,103
1973,103
1974,103
1975,103
1976,103
1977,103
1978,103
1979,103
1980,103
1981,103
1982,103
1983,103
1984,103
1985,103
1986,103
1987,103
1988,103
1989,103
1990,103
1991,103
1992,103
1993,103
1994,103
1995,103
1996,103
1997,103
1998,103
1999,103
2000,103
