"tick","total"
0,0
1,0
2,0
3,0
4,0
5,0
6,0
7,0
8,0
9,0
10,0
11,0
12,0
13,0
14,0
15,0
16,0
17,0
18,0
19,0
20,0
21,0
22,0
23,0
24,0
25,0
26,0
27,0
28,0
29,0
30,0
31,0
32,0
33,0
34,0
35,0
36,0
37,0
38,0
39,0
40,0
41,0
42,0
43,0
44,0
45,0
46,0
47,0
48,0
49,0
50,0
51,0
52,0
53,0
54,0
55,0
56,0
57,0
58,0
59,0
60,0
61,0
62,0
63,0
64,0
65,0
66,0
67,0
68,0
69,0
70,0
71,0
72,0
73,0
74,0
75,0
76,0
77,0
78,0
79,0
80,0
81,0
82,0
83,0
84,0
85,0
86,0
87,0
88,0
89,0
90,0
91,0
92,0
93,0
94,0
95,0
96,0
97,0
98,0
99,0
100,0
101,0
102,0
103,0
104,0
105,0
106,0
107,0
108,0
109,0
110,0
111,0
112,0
113,0
114,0
115,0
116,0
117,0
118,0
119,0
120,0
121,0
122,0
123,0
124,0
125,0
126,0
127,0
128,0
129,0
130,0
131,0
132,0
133,0
134,0
135,0
136,0
137,0
138,0
139,0
140,0
141,0
142,0
143,0
144,0
145,0
146,0
147,0
148,0
149,0
150,0
151,0
152,0
153,0
154,0
155,0
156,0
157,0
158,0
159,0
160,0
161,0
162,0
163,0
164,0
165,0
166,0
167,0
168,0
169,0
170,0
171,0
172,0
173,0
174,0
175,0
176,0
177,0
178,0
179,0
180,0
181,0
182,0
183,0
184,0
185,0
186,0
187,0
188,0
189,0
190,0
191,0
192,0
193,0
194,0
195,0
196,0
197,0
198,0
199,0
200,0
201,0
202,0
203,0
204,0
205,0
206,0
207,0
208,0
209,0
210,0
211,0
212,0
213,0
214,0
215,0
216,0
217,0
218,0
219,0
220,0
221,0
222,0
223,0
224,0
225,0
226,0
227,0
228,0
229,0
230,0
231,0
232,0
233,0
234,0
235,0
236,0
237,0
238,0
239,0
240,0
241,0
242,0
243,0
244,0
245,0
246,0
247,0
248,0
249,0
250,0
251,0
252,0
253,0
254,0
255,0
256,0
257,1
258,1
259,1
260,1
261,1
262,1
263,1
264,1
265,1
266,1
267,1
268,1
269,1
270,1
271,1
272,1
273,1
274,2
275,2
276,2
277,2
278,2
279,2
280,2
281,2
282,2
283,3
284,3
285,4
286,4
287,4
288,4
289,4
290,4
291,4
292,4
293,4
294,4
295,4
296,4
297,4
298,4
299,4
300,4
301,4
302,4
303,4
304,5
305,5
306,5
307,5
308,5
309,5
310,5
311,5
312,5
313,5
314,5
315,5
316,5
317,6
318,6
319,6
320,6
321,6
322,6
323,6
324,6
325,6
326,6
327,6
328,6
329,6
330,7
331,7
332,7
333,7
334,7
335,7
336,7
337,8
338,8
339,8
340,9
341,9
342,9
343,9
344,9
345,9
346,10
347,10
348,10
349,10
350,10
351,10
352,10
353,10
354,10
355,10
356,10
357,10
358,11
359,11
360,11
361,12
362,12
363,12
364,12
365,12
366,12
367,12
368,13
369,13
370,13
371,13
372,13
373,13
374,13
375,13
376,13
377,13
378,13
379,13
380,14
381,15
382,15
383,15
384,15
385,15
386,16
387,16
388,17
389,18
390,19
391,19
392,19
393,19
394,19
395,19
396,19
397,19
398,19
399,19
400,19
401,19
402,20
403,20
404,20
405,20
406,20
407,20
408,20
409,20
410,20
411,20
412,20
413,20
414,21
415,21
416,21
417,21
418,21
419,22
420,22
421,22
422,22
423,23
424,23
425,23
426,23
427,23
428,23
429,23
430,23
431,24
432,24
433,24
434,25
435,25
436,25
437,25
438,25
439,25
440,25
441,25
442,25
443,25
444,25
445,25
446,25
447,25
448,25
449,25
450,25
451,25
452,25
453,25
454,25
455,25
456,25
457,25
458,25
459,25
460,25
461,25
462,25
463,25
464,25
465,25
466,25
467,25
468,25
469,25
470,25
471,25
472,25
473,25
474,25
475,25
476,25
477,25
478,25
479,25
480,25
481,25
482,25
483,25
484,25
485,25
486,25
487,25
488,25
489,25
490,25
491,25
492,25
493,25
494,25
495,25
496,25
497,25
498,25
499,25
500,25
501,25
502,25
503,25
504,25
505,25
506,25
507,25
508,25
509,25
510,25
511,25
512,25
513,25
514,25
515,25
516,25
517,25
518,25
519,25
520,25
521,25
522,25
523,25
524,25
525,25
526,25
527,25
528,25
529,25
530,25
531,25
532,25
533,25
534,25
535,25
536,25
537,25
538,25
539,25
540,25
541,25
542,25
543,25
544,25
545,25
546,26
547,26
548,26
549,26
550,26
551,26
552,26
553,26
554,26
555,27
556,27
557,28
558,28
559,28
560,28
561,28
562,28
563,28
564,28
565,28
566,28
567,29
568,29
569,29
570,29
571,30
572,30
573,30
574,30
575,30
576,30
577,30
578,30
579,30
580,30
581,30
582,30
583,30
584,30
585,30
586,30
587,30
588,30
589,30
590,30
591,30
592,30
593,30
594,31
595,31
596,31
597,31
598,31
599,31
600,31
601,31
602,31
603,31
604,31
605,31
606,31
607,31
608,31
609,31
610,32
611,32
612,32
613,32
614,32
615,32
616,33
617,33
618,33
619,33
620,33
621,33
622,33
623,33
624,33
625,33
626,33
627,33
628,33
629,33
630,33
631,33
632,33
633,34
634,34
635,34
636,34
637,34
638,34
639,34
640,34
641,34
642,34
643,34
644,34
645,34
646,34
647,34
648,34
649,34
650,34
651,35
652,35
653,35
654,35
655,35
656,35
657,35
658,35
659,35
660,35
661,35
662,35
663,35
664,35
665,35
666,35
667,35
668,35
669,35
670,35
671,35
672,35
673,35
674,35
675,35
676,35
677,35
678,35
679,35
680,35
681,35
682,35
683,35
684,35
685,35
686,35
687,35
688,35
689,36
690,36
691,36
692,36
693,36
694,36
695,36
696,36
697,36
698,36
699,36
700,36
701,36
702,36
703,36
704,36
705,36
706,36
707,36
708,37
709,37
710,37
711,37
712,37
713,37
714,37
715,37
716,37
717,37
718,37
719,37
720,38
721,39
722,39
723,39
724,39
725,39
726,39
727,40
728,40
729,40
730,40
731,40
732,40
733,40
734,40
735,40
736,40
737,40
738,40
739,40
740,40
741,40
742,40
743,40
744,40
745,40
746,40
747,40
748,40
749,40
750,41
751,41
752,41
753,41
754,41
755,41
756,41
757,42
758,42
759,42
760,42
761,42
762,42
763,42
764,42
765,42
766,42
767,42
768,42
769,42
770,42
771,42
772,42
773,42
774,42
775,42
776,42
777,42
778,42
779,42
780,42
781,42
782,42
783,42
784,42
785,42
786,42
787,42
788,42
789,42
790,43
791,43
792,43
793,43
794,43
795,43
796,43
797,43
798,43
799,43
800,43
801,43
802,43
803,43
804,43
805,43
806,43
807,43
808,44
809,44
810,44
811,44
812,44
813,44
814,44
815,44
816,44
817,44
818,44
819,44
820,44
821,44
822,44
823,44
824,44
825,44
826,44
827,44
828,44
829,44
830,44
831,44
832,44
833,44
834,44
835,44
836,44
837,44
838,44
839,44
840,44
841,44
842,45
843,45
844,45
845,45
846,45
847,45
848,45
849,45
850,45
851,45
852,45
853,45
854,45
855,45
856,45
857,45
858,45
859,45
860,45
861,45
862,45
863,45
864,45
865,45
866,45
867,45
868,45
869,45
870,45
871,45
872,45
873,45
874,46
875,46
876,46
877,46
878,46
879,46
880,46
881,46
882,46
883,46
884,46
885,46
886,46
887,46
888,46
889,46
890,46
891,46
892,46
893,46
894,46
895,46
896,46
897,46
898,46
899,46
900,46
901,46
902,46
903,46
904,46
905,46
906,46
907,46
908,46
909,46
910,46
911,46
912,46
913,46
914,46
915,46
916,46
917,46
918,46
919,46
920,46
921,46
922,46
923,46
924,46
925,46
926,46
927,46
928,46
929,46
930,46
931,46
932,46
933,47
934,47
935,47
936,47
937,47
938,47
939,47
940,47
941,47
942,48
943,48
944,48
945,48
946,48
947,49
948,49
949,49
950,49
951,49
952,49
953,49
954,49
955,49
956,49
957,49
958,49
959,49
960,49
961,49
962,49
963,49
964,49
965,49
966,49
967,49
968,49
969,49
970,49
971,49
972,49
973,49
974,49
975,49
976,49
977,49
978,50
979,50
980,50
981,50
982,51
983,51
984,51
985,52
986,52
987,52
988,52
989,52
990,52
991,52
992,52
993,52
994,52
995,52
996,52
997,52
998,52
999,52
1000,52
1001,52
1002,52
1003,52
1004,52
1005,52
1006,52
1007,52
1008,52
1009,53
1010,53
1011,53
1012,53
1013,53
1014,53
1015,53
1016,53
1017,54
1018,54
1019,54
1020,54
1021,54
1022,54
1023,55
1024,55
1025,55
1026,55
1027,55
1028,55
1029,55
1030,55
1031,55
1032,55
1033,55
1034,55
1035,55
1036,55
1037,55
1038,55
1039,55
1040,55
1041,55
1042,55
1043,55
1044,55
1045,55
1046,56
1047,56
1048,56
1049,56
1050,56
1051,56
1052,56
1053,56
1054,56
1055,56
1056,56
1057,56
1058,56
1059,56
1060,56
1061,56
1062,56
1063,56
1064,56
1065,56
1066,56
1067,56
1068,56
1069,56
1070,56
1071,56
1072,56
1073,56
1074,56
1075,56
1076,56
1077,56
1078,56
1079,56
1080,56
1081,57
1082,57
1083,57
1084,57
1085,57
1086,57
1087,57
1088,57
1089,57
1090,57
1091,57
1092,57
1093,57
1094,58
1095,58
1096,58
1097,58
1098,58
1099,58
1100,59
1101,59
1102,59
1103,59
1104,59
1105,59
1106,59
1107,59
1108,59
1109,60
1110,60
1111,60
1112,60
1113,60
1114,60
1115,60
1116,60
1117,60
1118,60
1119,61
1120,61
1121,61
1122,61
1123,61
1124,61
1125,61
1126,61
1127,61
1128,61
1129,61
1130,61
1131,62
1132,62
1133,62
1134,62
1135,62
1136,62
1137,62
1138,62
1139,62
1140,62
1141,62
1142,62
1143,62
1144,62
1145,62
1146,62
1147,62
1148,62
1149,62
1150,62
1151,62
1152,62
1153,62
1154,62
1155,62
1156,62
1157,62
1158,63
1159,63
1160,63
1161,63
1162,63
1163,63
1164,63
1165,63
1166,63
1167,63
1168,63
1169,63
1170,63
1171,63
1172,64
1173,64
1174,64
1175,64
1176,64
1177,64
1178,64
1179,64
1180,65
1181,65
1182,65
1183,65
1184,65
1185,65
1186,65
1187,65
1188,65
1189,66
1190,66
1191,66
1192,66
1193,66
1194,66
1195,66
1196,66
1197,66
1198,66
1199,66
1200,66
1201,66
1202,66
1203,66
1204,66
1205,66
1206,66
1207,66
1208,66
1209,66
1210,66
1211,66
1212,66
1213,66
1214,66
1215,66
1216,66
1217,66
1218,66
1219,66
1220,66
1221,66
1222,66
1223,66
1224,66
1225,66
1226,66
1227,66
1228,66
1229,66
1230,66
1231,66
1232,66
1233,66
1234,66
1235,66
1236,66
1237,66
1238,66
1239,66
1240,66
1241,66
1242,66
1243,66
1244,66
1245,66
1246,66
1247,66
1248,66
1249,66
1250,66
1251,66
1252,66
1253,66
1254,66
1255,66
1256,66
1257,66
1258,66
1259,66
1260,66
1261,66
1262,66
1263,66
1264,66
1265,66
1266,66
1267,66
1268,66
1269,66
1270,66
1271,66
1272,66
1273,66
1274,66
1275,66
1276,66
1277,66
1278,66
1279,66
1280,66
1281,66
1282,66
1283,66
1284,66
1285,66
1286,66
1287,66
1288,66
1289,66
1290,66
1291,66
1292,66
1293,66
1294,66
1295,66
1296,66
1297,66
1298,66
1299,66
1300,66
1301,66
1302,66
1303,67
1304,67
1305,67
1306,67
1307,67
1308,67
1309,67
1310,67
1311,67
1312,67
1313,67
1314,67
1315,67
1316,67
1317,67
1318,67
1319,67
1320,67
1321,67
1322,67
1323,67
1324,67
1325,67
1326,67
1327,67
1328,67
1329,67
1330,67
1331,67
1332,67
1333,67
1334,67
1335,67
1336,67
1337,67
1338,67
1339,67
1340,67
1341,67
1342,68
1343,68
1344,68
1345,68
1346,68
1347,68
1348,68
1349,68
1350,68
1351,68
1352,68
1353,68
1354,69
1355,69
1356,69
1357,69
1358,69
1359,69
1360,69
1361,69
1362,69
1363,69
1364,69
1365,69
1366,69
1367,69
1368,69
1369,69
1370,69
1371,69
1372,69
1373,69
1374,69
1375,69
1376,69
1377,69
1378,69
1379,69
1380,69
1381,69
1382,69
1383,69
1384,69
1385,69
1386,69
1387,69
1388,69
1389,69
1390,69
1391,70
1392,70
1393,70
1394,70
1395,70
1396,70
1397,70
1398,70
1399,70
1400,70
1401,70
1402,70
1403,70
1404,70
1405,70
1406,70
1407,70
1408,70
1409,70
1410,70
1411,70
1412,70
1413,70
1414,70
1415,70
1416,70
1417,70
1418,70
1419,70
1420,70
1421,70
1422,70
1423,70
1424,71
1425,71
1426,72
1427,72
1428,72
1429,72
1430,72
1431,72
1432,72
1433,72
1434,72
1435,73
1436,73
1437,73
1438,73
1439,73
1440,75
1441,75
1442,75
1443,75
1444,75
1445,75
1446,75
1447,75
1448,75
1449,75
1450,75
1451,75
1452,75
1453,75
1454,75
1455,75
1456,75
1457,75
1458,75
1459,75
1460,75
1461,75
1462,75
1463,75
1464,75
1465,75
1466,75
1467,75
1468,75
1469,75
1470,75
1471,75
1472,75
1473,75
1474,75
1475,75
1476,75
1477,75
1478,76
1479,76
1480,76
1481,76
1482,76
1483,76
1484,76
1485,76
1486,76
1487,76
1488,76
1489,76
1490,76
1491,76
1492,76
1493,76
1494,76
1495,76
1496,76
1497,76
1498,76
1499,76
1500,76
1501,76
1502,77
1503,77
1504,77
1505,77
1506,77
1507,77
1508,77
1509,77
1510,77
1511,77
1512,77
1513,77
1514,77
1515,77
1516,78
1517,78
1518,78
1519,78
1520,79
1521,79
1522,79
1523,79
1524,79
1525,79
1526,79
1527,79
1528,79
1529,80
1530,80
1531,80
1532,80
1533,80
1534,80
1535,80
1536,80
1537,80
1538,80
1539,81
1540,82
1541,82
1542,82
1543,82
1544,82
1545,82
1546,82
1547,82
1548,82
1549,82
1550,82
1551,82
1552,82
1553,82
1554,82
1555,82
1556,82
1557,82
1558,82
1559,82
1560,82
1561,82
1562,82
1563,82
1564,82
1565,82
1566,82
1567,82
1568,82
1569,82
1570,82
1571,82
1572,82
1573,82
1574,82
1575,82
1576,82
1577,82
1578,82
1579,82
1580,82
1581,83
1582,83
1583,83
1584,83
1585,83
1586,83
1587,83
1588,83
1589,83
1590,83
1591,83
1592,83
1593,83
1594,83
1595,83
1596,83
1597,83
1598,83
1599,83
1600,83
1601,83
1602,84
1603,84
1604,84
1605,84
1606,84
1607,84
1608,84
1609,84
1610,84
1611,85
1612,85
1613,85
1614,85
1615,86
1616,86
1617,87
1618,88
1619,88
1620,88
1621,88
1622,88
1623,88
1624,88
1625,88
1626,88
1627,88
1628,88
1629,88
1630,89
1631,89
1632,89
1633,89
1634,90
1635,90
1636,90
1637,90
1638,90
1639,90
1640,90
1641,91
1642,91
1643,91
1644,91
1645,91
1646,91
1647,91
1648,91
1649,91
1650,91
1651,91
1652,91
1653,92
1654,92
1655,92
1656,92
1657,92
1658,92
1659,92
1660,92
1661,92
1662,92
1663,92
1664,92
1665,92
1666,92
1667,92
1668,92
1669,92
1670,92
1671,92
1672,92
1673,92
1674,92
1675,92
1676,92
1677,92
1678,93
1679,93
1680,93
1681,93
1682,93
1683,93
1684,93
1685,93
1686,93
1687,93
1688,93
1689,93
1690,93
1691,93
1692,93
1693,93
1694,93
1695,93
1696,93
1697,93
1698,93
1699,93
1700,93
1701,93
1702,93
1703,93
1704,93
1705,93
1706,93
1707,93
1708,93
1709,93
1710,93
1711,93
1712,93
1713,93
1714,93
1715,93
1716,93
1717,93
1718,93
1719,93
1720,93
1721,93
1722,93
1723,93
1724,93
1725,93
1726,93
1727,93
1728,93
1729,93
1730,93
1731,93
1732,93
1733,93
1734,93
1735,93
1736,93
1737,93
1738,93
1739,93
1740,93
1741,93
1742,93
1743,93
1744,93
1745,93
1746,93
1747,93
1748,93
1749,93
1750,93
1751,93
1752,93
1753,93
1754,93
1755,93
1756,93
1757,93
1758,93
1759,93
1760,93
1761,93
1762,93
1763,93
1764,93
1765,93
1766,93
1767,93
1768,93
1769,93
1770,93
1771,93
1772,93
1773,93
1774,93
1775,93
1776,93
1777,93
1778,93
1779,93
1780,93
1781,93
1782,93
1783,93
1784,93
1785,93
1786,93
1787,93
1788,93
1789,93
1790,93
1791,94
1792,94
1793,94
1794,94
1795,94
1796,94
1797,94
1798,94
1799,94
1800,94
1801,94
1802,94
1803,94
1804,94
1805,94
1806,94
1807,94
1808,94
1809,94
1810,95
1811,95
1812,95
1813,95
1814,95
1815,95
1816,95
1817,95
1818,95
1819,95
1820,95
1821,95
1822,95
1823,95
1824,95
1825,95
1826,96
1827,96
1828,96
1829,96
1830,96
1831,96
1832,96
1833,96
1834,96
1835,96
1836,96
1837,96
1838,96
1839,96
1840,96
1841,96
1842,96
1843,96
1844,96
1845,96
1846,96
1847,96
1848,96
1849,96
1850,96
1851,96
1852,96
1853,96
1854,96
1855,96
1856,96
1857,96
1858,96
1859,96
1860,96
1861,96
1862,96
1863,96
1864,96
1865,96
1866,96
1867,96
1868,96
1869,96
1870,96
1871,96
1872,96
1873,96
1874,96
1875,96
1876,96
1877,96
1878,96
1879,97
1880,98
1881,98
1882,98
1883,98
1884,98
1885,98
1886,99
1887,99
1888,99
1889,99
1890,99
1891,99
1892,99
1893,99
1894,99
1895,99
1896,99
1897,99
1898,99
1899,99
1900,99
1901,99
1902,99
1903,99
1904,99
1905,100
1906,100
1907,100
1908,100
1909,100
1910,100
1911,100
1912,100
1913,100
1914,100
1915,100
1916,100
1917,100
1918,100
1919,100
1920,100
1921,100
1922,100
1923,100
1924,100
1925,100
1926,100
1927,100
1928,100
1929,100
1930,100
1931,100
1932,100
1933,100
1934,100
1935,100
1936,100
1937,100
1938,100
1939,100
1940,100
1941,100
1942,100
1943,100
1944,100
1945,100
1946,100
1947,100
1948,100
1949,101
1950,101
1951,101
1952,101
1953,101
1954,101
1955,101
1956,101
1957,101
1958,101
1959,101
1960,101
1961,101
1962,101
1963,101
1964,101
1965,101
1966,101
1967,101
1968,101
1969,101
1970,101
1971,101
1972,101
1973,101
1974,101
1975,101
1976,101
1977,101
1978,101
1979,101
1980,101
1981,101
1982,101
1983,101
1984,101
1985,101
1986,101
1987,101
1988,101
1989,101
1990,101
1991,101
1992,101
1993,101
1994,102
1995,102
1996,102
1997,102
1998,102
1999,102
2000,103
