"tick","total"
0,0
1,0
2,0
3,0
4,0
5,0
6,0
7,1
8,1
9,1
10,1
11,1
12,1
13,1
14,1
15,1
16,1
17,1
18,1
19,1
20,1
21,1
22,1
23,1
24,1
25,1
26,1
27,1
28,1
29,1
30,1
31,1
32,1
33,1
34,1
35,1
36,1
37,1
38,1
39,1
40,1
41,1
42,1
43,1
44,1
45,1
46,1
47,1
48,1
49,1
50,1
51,1
52,1
53,1
54,1
55,1
56,1
57,1
58,1
59,1
60,1
61,1
62,1
63,1
64,1
65,1
66,1
67,1
68,1
69,1
70,1
71,1
72,1
73,1
74,1
75,1
76,1
77,1
78,1
79,1
80,1
81,1
82,1
83,1
84,1
85,1
86,1
87,1
88,1
89,1
90,1
91,1
92,1
93,1
94,1
95,1
96,1
97,1
98,1
99,1
100,1
101,1
102,1
103,1
104,1
105,1
106,1
107,1
108,1
109,1
110,1
111,1
112,1
113,1
114,1
115,1
116,1
117,1
118,1
119,1
120,1
121,1
122,1
123,1
124,1
125,1
126,1
127,1
128,1
129,1
130,1
131,1
132,1
133,1
134,1
135,1
136,1
137,1
138,1
139,1
140,1
141,1
142,1
143,1
144,1
145,1
146,1
147,1
148,1
149,1
150,1
151,1
152,1
153,1
154,1
155,1
156,1
157,1
158,1
159,1
160,1
161,1
162,1
163,1
164,1
165,1
166,1
167,1
168,1
169,1
170,1
171,1
172,1
173,1
174,1
175,1
176,1
177,1
178,1
179,1
180,1
181,1
182,1
183,1
184,1
185,1
186,1
187,1
188,1
189,1
190,1
191,1
192,1
193,1
194,1
195,1
196,1
197,1
198,1
199,1
200,1
201,1
202,1
203,1
204,1
205,1
206,1
207,1
208,1
209,1
210,1
211,1
212,1
213,1
214,1
215,1
216,1
217,1
218,1
219,1
220,1
221,1
222,1
223,1
224,1
225,1
226,1
227,1
228,1
229,1
230,1
231,1
232,1
233,1
234,1
235,1
236,1
237,1
238,1
239,1
240,1
241,1
242,1
243,2
244,3
245,3
246,3
247,3
248,3
249,3
250,3
251,3
252,3
253,3
254,3
255,3
256,3
257,3
258,3
259,3
260,3
261,3
262,3
263,3
264,3
265,4
266,4
267,4
268,4
269,4
270,4
271,4
272,4
273,4
274,4
275,4
276,4
277,4
278,4
279,4
280,4
281,4
282,4
283,4
284,5
285,5
286,5
287,6
288,6
289,6
290,6
291,7
292,7
293,7
294,7
295,8
296,8
297,8
298,8
299,8
300,8
301,9
302,10
303,11
304,11
305,11
306,11
307,11
308,11
309,11
310,11
311,11
312,11
313,11
314,13
315,13
316,13
317,14
318,14
319,14
320,14
321,14
322,14
323,14
324,15
325,16
326,16
327,16
328,16
329,16
330,16
331,16
332,16
333,16
334,16
335,16
336,16
337,16
338,16
339,16
340,16
341,16
342,16
343,16
344,16
345,16
346,17
347,17
348,17
349,17
350,17
351,17
352,17
353,17
354,17
355,17
356,17
357,17
358,17
359,17
360,17
361,17
362,17
363,17
364,17
365,17
366,17
367,17
368,17
369,17
370,17
371,17
372,17
373,17
374,17
375,17
376,17
377,17
378,17
379,17
380,17
381,17
382,17
383,17
384,17
385,17
386,17
387,17
388,17
389,17
390,17
391,17
392,17
393,17
394,17
395,17
396,17
397,17
398,17
399,17
400,17
401,17
402,17
403,17
404,17
405,17
406,17
407,17
408,17
409,17
410,17
411,17
412,17
413,17
414,17
415,17
416,17
417,17
418,17
419,18
420,18
421,18
422,18
423,18
424,18
425,18
426,18
427,19
428,19
429,20
430,20
431,20
432,20
433,20
434,20
435,20
436,20
437,20
438,20
439,20
440,20
441,20
442,20
443,20
444,20
445,20
446,20
447,20
448,20
449,20
450,20
451,20
452,20
453,20
454,20
455,20
456,21
457,21
458,21
459,21
460,21
461,21
462,21
463,21
464,21
465,21
466,21
467,21
468,21
469,21
470,21
471,21
472,21
473,21
474,21
475,21
476,21
477,21
478,21
479,21
480,21
481,21
482,21
483,21
484,21
485,21
486,21
487,21
488,21
489,21
490,21
491,21
492,21
493,21
494,21
495,21
496,21
497,21
498,21
499,21
500,21
501,21
502,21
503,21
504,21
505,21
506,21
507,21
508,21
509,21
510,21
511,21
512,21
513,21
514,21
515,21
516,21
517,21
518,21
519,21
520,21
521,21
522,21
523,21
524,21
525,21
526,21
527,21
528,21
529,21
530,21
531,21
532,21
533,21
534,21
535,21
536,21
537,21
538,21
539,21
540,21
541,21
542,21
543,21
544,21
545,22
546,22
547,22
548,22
549,22
550,22
551,22
552,22
553,22
554,22
555,22
556,22
557,22
558,22
559,22
560,22
561,22
562,22
563,22
564,22
565,22
566,22
567,22
568,22
569,22
570,22
571,22
572,22
573,22
574,22
575,22
576,23
577,23
578,23
579,23
580,23
581,23
582,24
583,25
584,25
585,25
586,25
587,25
588,25
589,25
590,25
591,25
592,25
593,25
594,25
595,25
596,25
597,25
598,25
599,25
600,25
601,25
602,25
603,26
604,26
605,26
606,26
607,26
608,26
609,26
610,26
611,26
612,26
613,26
614,26
615,28
616,28
617,28
618,28
619,28
620,28
621,28
622,28
623,28
624,28
625,28
626,28
627,29
628,29
629,29
630,29
631,29
632,29
633,29
634,29
635,29
636,29
637,29
638,29
639,29
640,30
641,30
642,30
643,30
644,30
645,30
646,30
647,30
648,30
649,30
650,30
651,30
652,30
653,30
654,30
655,30
656,30
657,30
658,30
659,30
660,30
661,30
662,30
663,30
664,30
665,30
666,30
667,31
668,31
669,31
670,31
671,32
672,33
673,33
674,33
675,33
676,33
677,33
678,33
679,33
680,33
681,33
682,33
683,33
684,33
685,33
686,33
687,33
688,33
689,33
690,33
691,33
692,33
693,33
694,33
695,33
696,33
697,33
698,33
699,33
700,33
701,33
702,33
703,33
704,33
705,33
706,33
707,33
708,33
709,33
710,33
711,34
712,34
713,34
714,34
715,34
716,34
717,34
718,34
719,34
720,34
721,34
722,34
723,35
724,35
725,35
726,35
727,36
728,36
729,36
730,37
731,37
732,37
733,37
734,37
735,37
736,37
737,37
738,37
739,37
740,37
741,37
742,37
743,37
744,37
745,37
746,37
747,37
748,37
749,37
750,37
751,37
752,37
753,37
754,37
755,37
756,40
757,40
758,40
759,40
760,40
761,40
762,40
763,40
764,40
765,40
766,40
767,40
768,40
769,40
770,41
771,41
772,41
773,41
774,41
775,41
776,41
777,42
778,42
779,42
780,42
781,42
782,42
783,43
784,43
785,43
786,43
787,43
788,43
789,43
790,44
791,44
792,44
793,44
794,44
795,44
796,44
797,44
798,44
799,44
800,44
801,44
802,44
803,44
804,44
805,44
806,44
807,44
808,44
809,44
810,44
811,44
812,44
813,44
814,44
815,44
816,44
817,44
818,44
819,44
820,44
821,44
822,44
823,45
824,45
825,45
826,46
827,46
828,46
829,46
830,46
831,46
832,46
833,46
834,46
835,46
836,46
837,46
838,46
839,46
840,46
841,46
842,46
843,46
844,46
845,46
846,46
847,46
848,46
849,46
850,46
851,46
852,46
853,46
854,46
855,46
856,46
857,46
858,46
859,46
860,46
861,46
862,46
863,46
864,46
865,46
866,46
867,46
868,46
869,46
870,46
871,46
872,46
873,46
874,46
875,46
876,46
877,46
878,46
879,46
880,46
881,46
882,46
883,46
884,46
885,46
886,46
887,46
888,46
889,46
890,46
891,46
892,46
893,46
894,46
895,46
896,46
897,46
898,46
899,46
900,46
901,46
902,46
903,46
904,46
905,46
906,46
907,46
908,46
909,46
910,46
911,46
912,46
913,46
914,46
915,46
916,46
917,46
918,46
919,46
920,46
921,46
922,46
923,46
924,46
925,46
926,46
927,47
928,47
929,47
930,47
931,47
932,47
933,47
934,47
935,47
936,47
937,47
938,47
939,47
940,47
941,47
942,47
943,47
944,47
945,47
946,47
947,47
948,47
949,47
950,47
951,47
952,47
953,47
954,47
955,47
956,47
957,48
958,48
959,48
960,48
961,48
962,48
963,48
964,48
965,48
966,48
967,48
968,48
969,49
970,49
971,49
972,49
973,49
974,49
975,49
976,49
977,49
978,49
979,49
980,49
981,49
982,49
983,49
984,49
985,49
986,50
987,50
988,50
989,50
990,50
991,50
992,50
993,50
994,50
995,50
996,50
997,51
998,51
999,51
1000,51
1001,51
1002,51
1003,51
1004,51
1005,51
1006,51
1007,51
1008,51
1009,51
1010,51
1011,51
1012,51
1013,51
1014,51
1015,51
1016,51
1017,51
1018,51
1019,51
1020,51
1021,51
1022,51
1023,51
1024,51
1025,51
1026,51
1027,51
1028,51
1029,51
1030,51
1031,51
1032,51
1033,51
1034,51
1035,52
1036,52
1037,52
1038,52
1039,52
1040,52
1041,52
1042,52
1043,52
1044,52
1045,52
1046,52
1047,52
1048,52
1049,52
1050,52
1051,52
1052,52
1053,53
1054,53
1055,53
1056,53
1057,53
1058,53
1059,54
1060,54
1061,54
1062,54
1063,54
1064,54
1065,54
1066,54
1067,54
1068,54
1069,54
1070,54
1071,54
1072,54
1073,54
1074,54
1075,54
1076,54
1077,54
1078,54
1079,54
1080,54
1081,54
1082,54
1083,54
1084,54
1085,54
1086,54
1087,54
1088,54
1089,54
1090,54
1091,54
1092,54
1093,54
1094,54
1095,54
1096,54
1097,54
1098,54
1099,54
1100,54
1101,54
1102,54
1103,54
1104,54
1105,54
1106,54
1107,54
1108,54
1109,54
1110,54
1111,54
1112,54
1113,54
1114,54
1115,54
1116,54
1117,54
1118,54
1119,54
1120,54
1121,54
1122,54
1123,54
1124,54
1125,54
1126,54
1127,54
1128,55
1129,55
1130,55
1131,55
1132,55
1133,55
1134,55
1135,56
1136,56
1137,56
1138,56
1139,56
1140,56
1141,56
1142,56
1143,56
1144,57
1145,57
1146,57
1147,57
1148,57
1149,57
1150,57
1151,57
1152,57
1153,57
1154,57
1155,57
1156,57
1157,57
1158,57
1159,57
1160,57
1161,57
1162,57
1163,57
1164,57
1165,57
1166,57
1167,57
1168,57
1169,57
1170,57
1171,57
1172,57
1173,57
1174,57
1175,57
1176,57
1177,57
1178,57
1179,57
1180,57
1181,57
1182,57
1183,57
1184,57
1185,57
1186,57
1187,57
1188,57
1189,57
1190,57
1191,57
1192,57
1193,57
1194,58
1195,58
1196,58
1197,58
1198,58
1199,58
1200,59
1201,59
1202,59
1203,59
1204,59
1205,59
1206,59
1207,59
1208,59
1209,59
1210,59
1211,59
1212,59
1213,59
1214,59
1215,59
1216,59
1217,59
1218,60
1219,60
1220,60
1221,60
1222,60
1223,60
1224,60
1225,61
1226,61
1227,62
1228,62
1229,62
1230,62
1231,62
1232,62
1233,62
1234,62
1235,62
1236,62
1237,62
1238,62
1239,62
1240,62
1241,62
1242,62
1243,62
1244,62
1245,62
1246,62
1247,62
1248,62
1249,62
1250,62
1251,62
1252,62
1253,62
1254,62
1255,62
1256,62
1257,62
1258,62
1259,62
1260,62
1261,62
1262,62
1263,62
1264,62
1265,62
1266,62
1267,62
1268,62
1269,62
1270,62
1271,62
1272,62
1273,62
1274,63
1275,63
1276,63
1277,63
1278,63
1279,63
1280,63
1281,63
1282,63
1283,63
1284,63
1285,63
1286,63
1287,63
1288,63
1289,63
1290,63
1291,63
1292,63
1293,63
1294,63
1295,63
1296,63
1297,63
1298,63
1299,63
1300,63
1301,63
1302,63
1303,63
1304,63
1305,63
1306,63
1307,63
1308,63
1309,63
1310,63
1311,63
1312,63
1313,63
1314,63
1315,63
1316,63
1317,63
1318,63
1319,63
1320,63
1321,64
1322,64
1323,64
1324,64
1325,64
1326,64
1327,64
1328,64
1329,64
1330,64
1331,64
1332,64
1333,64
1334,64
1335,65
1336,65
1337,65
1338,65
1339,65
1340,65
1341,65
1342,65
1343,65
1344,65
1345,65
1346,65
1347,65
1348,65
1349,65
1350,65
1351,65
1352,65
1353,65
1354,65
1355,65
1356,65
1357,65
1358,65
1359,65
1360,65
1361,65
1362,65
1363,65
1364,65
1365,65
1366,65
1367,65
1368,65
1369,65
1370,65
1371,65
1372,65
1373,65
1374,65
1375,65
1376,65
1377,65
1378,65
1379,65
1380,65
1381,65
1382,65
1383,65
1384,65
1385,66
1386,66
1387,66
1388,66
1389,66
1390,66
1391,66
1392,66
1393,66
1394,66
1395,66
1396,66
1397,66
1398,66
1399,66
1400,66
1401,66
1402,66
1403,66
1404,66
1405,66
1406,66
1407,66
1408,66
1409,66
1410,66
1411,67
1412,67
1413,67
1414,67
1415,67
1416,67
1417,67
1418,67
1419,67
1420,67
1421,67
1422,67
1423,67
1424,67
1425,67
1426,67
1427,67
1428,67
1429,67
1430,67
1431,67
1432,67
1433,67
1434,67
1435,67
1436,67
1437,67
1438,67
1439,67
1440,67
1441,67
1442,67
1443,67
1444,67
1445,67
1446,67
1447,67
1448,67
1449,67
1450,67
1451,67
1452,67
1453,67
1454,67
1455,67
1456,67
1457,67
1458,67
1459,67
1460,67
1461,67
1462,67
1463,67
1464,67
1465,67
1466,68
1467,68
1468,68
1469,68
1470,68
1471,68
1472,68
1473,68
1474,68
1475,68
1476,68
1477,68
1478,68
1479,68
1480,68
1481,68
1482,68
1483,68
1484,68
1485,69
1486,69
1487,69
1488,69
1489,69
1490,69
1491,69
1492,69
1493,69
1494,69
1495,69
1496,69
1497,69
1498,69
1499,69
1500,69
1501,69
1502,69
1503,69
1504,69
1505,69
1506,69
1507,69
1508,69
1509,69
1510,69
1511,69
1512,69
1513,69
1514,69
1515,69
1516,69
1517,69
1518,69
1519,69
1520,69
1521,70
1522,70
1523,70
1524,70
1525,70
1526,70
1527,70
1528,70
1529,70
1530,70
1531,70
1532,70
1533,70
1534,70
1535,70
1536,70
1537,70
1538,70
1539,70
1540,70
1541,70
1542,70
1543,70
1544,70
1545,70
1546,70
1547,70
1548,70
1549,70
1550,70
1551,70
1552,70
1553,70
1554,70
1555,70
1556,70
1557,70
1558,70
1559,70
1560,70
1561,70
1562,70
1563,70
1564,70
1565,70
1566,70
1567,70
1568,70
1569,70
1570,71
1571,71
1572,71
1573,71
1574,71
1575,71
1576,71
1577,71
1578,71
1579,71
1580,71
1581,72
1582,72
1583,72
1584,72
1585,72
1586,72
1587,73
1588,73
1589,73
1590,73
1591,73
1592,73
1593,74
1594,75
1595,75
1596,75
1597,76
1598,76
1599,76
1600,76
1601,76
1602,76
1603,76
1604,76
1605,76
1606,76
1607,76
1608,76
1609,76
1610,76
1611,76
1612,76
1613,76
1614,76
1615,76
1616,76
1617,76
1618,76
1619,76
1620,76
1621,76
1622,76
1623,76
1624,76
1625,76
1626,76
1627,76
1628,76
1629,76
1630,76
1631,76
1632,76
1633,76
1634,76
1635,76
1636,76
1637,76
1638,76
1639,77
1640,77
1641,77
1642,77
1643,77
1644,77
1645,77
1646,77
1647,77
1648,77
1649,77
1650,77
1651,77
1652,77
1653,77
1654,77
1655,77
1656,77
1657,77
1658,77
1659,77
1660,77
1661,77
1662,77
1663,77
1664,77
1665,77
1666,77
1667,77
1668,78
1669,78
1670,78
1671,78
1672,78
1673,78
1674,78
1675,78
1676,78
1677,78
1678,78
1679,78
1680,78
1681,78
1682,78
1683,78
1684,79
1685,79
1686,79
1687,79
1688,79
1689,79
1690,80
1691,80
1692,80
1693,81
1694,81
1695,81
1696,81
1697,81
1698,81
1699,81
1700,81
1701,81
1702,81
1703,81
1704,82
1705,82
1706,82
1707,82
1708,82
1709,83
1710,83
1711,83
1712,83
1713,83
1714,83
1715,83
1716,83
1717,83
1718,84
1719,84
1720,84
1721,84
1722,84
1723,84
1724,84
1725,84
1726,84
1727,84
1728,84
1729,84
1730,84
1731,84
1732,84
1733,84
1734,85
1735,85
1736,85
1737,85
1738,85
1739,86
1740,86
1741,86
1742,86
1743,86
1744,86
1745,86
1746,86
1747,86
1748,86
1749,86
1750,86
1751,86
1752,86
1753,86
1754,86
1755,86
1756,86
1757,86
1758,86
1759,86
1760,86
1761,86
1762,86
1763,87
1764,87
1765,87
1766,87
1767,87
1768,87
1769,87
1770,87
1771,87
1772,87
1773,87
1774,87
1775,87
1776,87
1777,87
1778,87
1779,87
1780,87
1781,87
1782,87
1783,87
1784,87
1785,87
1786,87
1787,87
1788,87
1789,87
1790,87
1791,87
1792,87
1793,87
1794,87
1795,87
1796,87
1797,87
1798,87
1799,87
1800,87
1801,87
1802,87
1803,87
1804,87
1805,87
1806,87
1807,87
1808,87
1809,87
1810,87
1811,87
1812,87
1813,87
1814,87
1815,87
1816,87
1817,87
1818,87
1819,87
1820,87
1821,87
1822,87
1823,87
1824,88
1825,88
1826,88
1827,88
1828,89
1829,89
1830,89
1831,89
1832,89
1833,89
1834,89
1835,89
1836,89
1837,89
1838,89
1839,89
1840,89
1841,89
1842,89
1843,89
1844,89
1845,89
1846,89
1847,89
1848,89
1849,89
1850,89
1851,89
1852,89
1853,89
1854,89
1855,89
1856,89
1857,89
1858,89
1859,89
1860,89
1861,89
1862,90
1863,90
1864,90
1865,90
1866,90
1867,90
1868,90
1869,90
1870,90
1871,90
1872,90
1873,90
1874,90
1875,90
1876,90
1877,90
1878,90
1879,90
1880,90
1881,90
1882,90
1883,90
1884,90
1885,90
1886,90
1887,90
1888,90
1889,90
1890,90
1891,90
1892,90
1893,90
1894,90
1895,90
1896,90
1897,90
1898,90
1899,92
1900,92
1901,92
1902,92
1903,92
1904,92
1905,92
1906,92
1907,92
1908,93
1909,93
1910,93
1911,93
1912,94
1913,94
1914,94
1915,94
1916,94
1917,94
1918,94
1919,94
1920,94
1921,94
1922,94
1923,95
1924,95
1925,95
1926,95
1927,95
1928,95
1929,95
1930,95
1931,95
1932,95
1933,95
1934,95
1935,95
1936,95
1937,95
1938,95
1939,95
1940,95
1941,95
1942,95
1943,95
1944,96
1945,96
1946,96
1947,96
1948,96
1949,96
1950,96
1951,96
1952,96
1953,96
1954,96
1955,96
1956,96
1957,96
1958,96
1959,96
1960,96
1961,96
1962,96
1963,96
1964,96
1965,96
1966,96
1967,97
1968,97
1969,98
1970,99
1971,99
1972,99
1973,99
1974,99
1975,99
1976,99
1977,99
1978,99
1979,99
1980,99
1981,99
1982,99
1983,99
1984,99
1985,99
1986,99
1987,99
1988,99
1989,99
1990,99
1991,99
1992,99
1993,99
1994,99
1995,99
1996,99
1997,99
1998,99
1999,99
2000,99
