"tick","total"
0,0
1,1
2,1
3,1
4,1
5,1
6,1
7,1
8,1
9,1
10,1
11,1
12,1
13,1
14,1
15,1
16,1
17,1
18,1
19,1
20,1
21,1
22,1
23,1
24,1
25,1
26,1
27,1
28,1
29,1
30,1
31,1
32,1
33,1
34,1
35,1
36,1
37,1
38,1
39,1
40,1
41,1
42,1
43,1
44,1
45,1
46,1
47,1
48,1
49,1
50,1
51,1
52,1
53,1
54,1
55,1
56,1
57,1
58,1
59,1
60,1
61,1
62,1
63,1
64,1
65,1
66,1
67,1
68,1
69,1
70,1
71,1
72,1
73,1
74,1
75,1
76,1
77,1
78,1
79,1
80,1
81,1
82,1
83,1
84,1
85,1
86,1
87,1
88,1
89,1
90,1
91,1
92,1
93,1
94,1
95,1
96,1
97,1
98,1
99,1
100,1
101,1
102,1
103,1
104,1
105,1
106,1
107,1
108,1
109,1
110,1
111,1
112,1
113,1
114,1
115,1
116,1
117,1
118,1
119,1
120,1
121,1
122,1
123,1
124,1
125,1
126,1
127,1
128,1
129,1
130,1
131,1
132,1
133,1
134,1
135,1
136,1
137,1
138,1
139,1
140,1
141,1
142,1
143,1
144,1
145,1
146,1
147,1
148,1
149,1
150,1
151,1
152,1
153,1
154,1
155,1
156,1
157,1
158,1
159,1
160,1
161,1
162,1
163,1
164,1
165,1
166,1
167,1
168,1
169,1
170,1
171,1
172,1
173,1
174,1
175,1
176,1
177,1
178,1
179,1
180,1
181,1
182,1
183,1
184,1
185,1
186,1
187,1
188,1
189,1
190,1
191,1
192,1
193,1
194,1
195,1
196,1
197,1
198,1
199,1
200,1
201,1
202,1
203,1
204,1
205,1
206,1
207,1
208,1
209,1
210,1
211,1
212,1
213,1
214,1
215,1
216,1
217,1
218,1
219,1
220,1
221,1
222,1
223,1
224,1
225,1
226,1
227,1
228,1
229,1
230,1
231,1
232,1
233,1
234,1
235,1
236,1
237,1
238,1
239,1
240,1
241,1
242,1
243,1
244,1
245,1
246,1
247,1
248,1
249,1
250,2
251,2
252,2
253,2
254,2
255,2
256,2
257,2
258,2
259,2
260,2
261,2
262,2
263,3
264,3
265,3
266,3
267,3
268,3
269,3
270,3
271,4
272,4
273,4
274,4
275,5
276,5
277,6
278,6
279,6
280,7
281,8
282,8
283,8
284,8
285,10
286,10
287,10
288,11
289,11
290,11
291,11
292,11
293,12
294,12
295,12
296,12
297,12
298,12
299,12
300,12
301,12
302,12
303,12
304,12
305,13
306,13
307,14
308,15
309,15
310,15
311,15
312,16
313,16
314,16
315,16
316,17
317,17
318,17
319,17
320,17
321,17
322,17
323,17
324,17
325,17
326,17
327,17
328,17
329,17
330,17
331,17
332,17
333,17
334,18
335,18
336,19
337,19
338,19
339,19
340,19
341,19
342,19
343,19
344,19
345,19
346,19
347,19
348,19
349,19
350,19
351,19
352,19
353,19
354,19
355,19
356,20
357,20
358,20
359,20
360,20
361,21
362,21
363,21
364,21
365,21
366,21
367,21
368,22
369,22
370,22
371,22
372,23
373,23
374,23
375,24
376,24
377,24
378,24
379,24
380,24
381,24
382,24
383,24
384,25
385,25
386,25
387,25
388,25
389,25
390,25
391,25
392,25
393,25
394,25
395,25
396,25
397,25
398,25
399,26
400,26
401,26
402,26
403,26
404,26
405,26
406,26
407,26
408,26
409,26
410,26
411,26
412,26
413,27
414,27
415,27
416,27
417,27
418,27
419,27
420,27
421,28
422,28
423,28
424,28
425,28
426,28
427,28
428,28
429,28
430,28
431,28
432,28
433,28
434,28
435,28
436,29
437,29
438,30
439,30
440,30
441,30
442,30
443,30
444,30
445,30
446,30
447,30
448,30
449,30
450,30
451,30
452,30
453,30
454,30
455,30
456,30
457,30
458,30
459,30
460,30
461,30
462,30
463,30
464,30
465,30
466,30
467,30
468,30
469,30
470,30
471,30
472,30
473,30
474,30
475,30
476,30
477,30
478,30
479,30
480,30
481,30
482,30
483,30
484,30
485,30
486,30
487,30
488,30
489,30
490,30
491,30
492,30
493,30
494,30
495,30
496,30
497,30
498,30
499,30
500,30
501,30
502,30
503,30
504,30
505,30
506,30
507,30
508,30
509,30
510,30
511,30
512,30
513,30
514,30
515,30
516,30
517,30
518,30
519,30
520,30
521,30
522,30
523,30
524,30
525,30
526,30
527,30
528,30
529,30
530,30
531,30
532,30
533,30
534,30
535,30
536,30
537,30
538,30
539,30
540,30
541,30
542,30
543,30
544,30
545,30
546,30
547,30
548,30
549,30
550,30
551,30
552,30
553,30
554,30
555,30
556,30
557,30
558,30
559,30
560,30
561,30
562,30
563,30
564,30
565,30
566,30
567,30
568,30
569,30
570,30
571,30
572,30
573,30
574,30
575,30
576,30
577,30
578,30
579,30
580,30
581,30
582,30
583,30
584,30
585,30
586,30
587,30
588,30
589,30
590,30
591,30
592,30
593,30
594,30
595,30
596,30
597,30
598,30
599,30
600,30
601,30
602,30
603,30
604,30
605,30
606,30
607,30
608,30
609,31
610,31
611,31
612,31
613,31
614,31
615,31
616,31
617,31
618,31
619,31
620,31
621,31
622,31
623,31
624,31
625,31
626,31
627,31
628,31
629,31
630,32
631,32
632,32
633,32
634,32
635,32
636,32
637,32
638,32
639,32
640,32
641,32
642,32
643,32
644,32
645,32
646,32
647,33
648,33
649,33
650,33
651,33
652,33
653,33
654,33
655,33
656,33
657,33
658,33
659,33
660,33
661,33
662,33
663,33
664,33
665,33
666,33
667,33
668,33
669,33
670,33
671,33
672,33
673,33
674,33
675,34
676,34
677,34
678,34
679,34
680,34
681,34
682,34
683,34
684,34
685,34
686,34
687,34
688,34
689,34
690,34
691,34
692,34
693,34
694,34
695,34
696,34
697,34
698,34
699,34
700,34
701,34
702,34
703,34
704,34
705,34
706,34
707,34
708,34
709,34
710,34
711,34
712,34
713,34
714,34
715,34
716,34
717,34
718,34
719,34
720,34
721,34
722,34
723,34
724,34
725,34
726,34
727,34
728,34
729,34
730,34
731,34
732,34
733,34
734,34
735,34
736,34
737,34
738,34
739,34
740,34
741,34
742,34
743,34
744,34
745,34
746,34
747,35
748,35
749,35
750,35
751,35
752,35
753,36
754,36
755,36
756,36
757,36
758,36
759,36
760,36
761,36
762,36
763,36
764,36
765,36
766,36
767,36
768,36
769,36
770,37
771,37
772,37
773,37
774,37
775,37
776,37
777,37
778,37
779,37
780,37
781,37
782,37
783,37
784,37
785,37
786,37
787,37
788,37
789,37
790,37
791,37
792,37
793,37
794,37
795,38
796,38
797,38
798,38
799,38
800,38
801,38
802,38
803,38
804,38
805,38
806,38
807,38
808,38
809,38
810,38
811,38
812,38
813,38
814,38
815,38
816,38
817,38
818,38
819,38
820,38
821,38
822,38
823,38
824,38
825,38
826,38
827,38
828,38
829,38
830,38
831,38
832,38
833,38
834,39
835,39
836,39
837,39
838,39
839,39
840,39
841,39
842,39
843,39
844,39
845,39
846,39
847,39
848,39
849,39
850,39
851,39
852,39
853,39
854,39
855,39
856,39
857,39
858,39
859,39
860,39
861,39
862,39
863,39
864,39
865,39
866,39
867,39
868,39
869,39
870,39
871,39
872,39
873,39
874,40
875,40
876,40
877,40
878,40
879,40
880,40
881,40
882,40
883,40
884,40
885,40
886,40
887,40
888,40
889,40
890,40
891,40
892,40
893,40
894,40
895,40
896,40
897,40
898,40
899,40
900,40
901,40
902,40
903,40
904,40
905,40
906,40
907,40
908,40
909,40
910,40
911,40
912,40
913,40
914,40
915,40
916,40
917,40
918,40
919,40
920,40
921,40
922,40
923,40
924,40
925,40
926,40
927,41
928,41
929,41
930,41
931,41
932,41
933,41
934,41
935,41
936,41
937,42
938,42
939,42
940,42
941,42
942,42
943,43
944,43
945,43
946,43
947,43
948,43
949,43
950,43
951,43
952,43
953,43
954,43
955,43
956,43
957,43
958,43
959,44
960,44
961,44
962,44
963,44
964,44
965,44
966,44
967,44
968,44
969,44
970,44
971,44
972,44
973,44
974,44
975,44
976,44
977,44
978,44
979,44
980,44
981,44
982,44
983,44
984,44
985,44
986,44
987,44
988,44
989,44
990,44
991,44
992,44
993,44
994,44
995,44
996,44
997,44
998,44
999,44
1000,44
1001,44
1002,44
1003,44
1004,44
1005,44
1006,44
1007,44
1008,44
1009,44
1010,44
1011,44
1012,44
1013,45
1014,45
1015,45
1016,45
1017,45
1018,45
1019,45
1020,46
1021,46
1022,46
1023,46
1024,46
1025,46
1026,46
1027,46
1028,46
1029,46
1030,46
1031,46
1032,46
1033,46
1034,46
1035,46
1036,46
1037,46
1038,46
1039,46
1040,46
1041,46
1042,46
1043,46
1044,46
1045,46
1046,46
1047,46
1048,47
1049,47
1050,47
1051,47
1052,47
1053,47
1054,47
1055,47
1056,47
1057,47
1058,47
1059,47
1060,47
1061,47
1062,47
1063,47
1064,48
1065,49
1066,49
1067,49
1068,49
1069,49
1070,49
1071,49
1072,49
1073,49
1074,49
1075,49
1076,49
1077,49
1078,49
1079,49
1080,49
1081,49
1082,49
1083,49
1084,49
1085,49
1086,49
1087,49
1088,49
1089,49
1090,50
1091,50
1092,50
1093,50
1094,50
1095,50
1096,50
1097,50
1098,50
1099,50
1100,50
1101,50
1102,50
1103,50
1104,50
1105,51
1106,51
1107,51
1108,51
1109,51
1110,51
1111,51
1112,51
1113,51
1114,51
1115,51
1116,51
1117,51
1118,51
1119,51
1120,51
1121,51
1122,51
1123,51
1124,51
1125,51
1126,51
1127,52
1128,52
1129,52
1130,52
1131,52
1132,52
1133,52
1134,52
1135,52
1136,52
1137,52
1138,52
1139,52
1140,52
1141,52
1142,52
1143,52
1144,52
1145,52
1146,52
1147,52
1148,52
1149,52
1150,52
1151,53
1152,53
1153,53
1154,53
1155,53
1156,53
1157,53
1158,53
1159,53
1160,53
1161,53
1162,53
1163,54
1164,54
1165,54
1166,54
1167,54
1168,54
1169,54
1170,54
1171,54
1172,54
1173,54
1174,54
1175,54
1176,54
1177,54
1178,54
1179,54
1180,54
1181,54
1182,54
1183,54
1184,54
1185,54
1186,54
1187,54
1188,54
1189,54
1190,54
1191,54
1192,54
1193,54
1194,54
1195,54
1196,54
1197,54
1198,54
1199,54
1200,54
1201,54
1202,54
1203,54
1204,54
1205,55
1206,55
1207,55
1208,55
1209,55
1210,55
1211,55
1212,55
1213,55
1214,55
1215,55
1216,55
1217,55
1218,55
1219,55
1220,55
1221,55
1222,55
1223,55
1224,55
1225,55
1226,55
1227,55
1228,55
1229,55
1230,55
1231,55
1232,55
1233,55
1234,55
1235,55
1236,55
1237,55
1238,55
1239,55
1240,55
1241,55
1242,55
1243,55
1244,55
1245,55
1246,55
1247,55
1248,55
1249,55
1250,55
1251,55
1252,55
1253,55
1254,55
1255,55
1256,55
1257,55
1258,55
1259,55
1260,55
1261,55
1262,55
1263,55
1264,55
1265,55
1266,55
1267,55
1268,55
1269,55
1270,55
1271,55
1272,55
1273,55
1274,55
1275,55
1276,55
1277,55
1278,55
1279,55
1280,55
1281,55
1282,55
1283,55
1284,55
1285,55
1286,55
1287,55
1288,55
1289,55
1290,55
1291,55
1292,55
1293,55
1294,55
1295,55
1296,55
1297,55
1298,55
1299,55
1300,55
1301,56
1302,56
1303,56
1304,56
1305,56
1306,56
1307,56
1308,56
1309,56
1310,56
1311,56
1312,56
1313,56
1314,57
1315,57
1316,57
1317,57
1318,57
1319,57
1320,57
1321,57
1322,57
1323,57
1324,57
1325,57
1326,57
1327,57
1328,58
1329,58
1330,58
1331,58
1332,58
1333,58
1334,58
1335,58
1336,58
1337,58
1338,58
1339,58
1340,58
1341,58
1342,58
1343,58
1344,58
1345,58
1346,58
1347,58
1348,58
1349,58
1350,58
1351,59
1352,59
1353,59
1354,59
1355,59
1356,59
1357,59
1358,59
1359,59
1360,59
1361,59
1362,59
1363,59
1364,59
1365,59
1366,59
1367,59
1368,59
1369,59
1370,59
1371,59
1372,59
1373,60
1374,60
1375,60
1376,60
1377,60
1378,60
1379,60
1380,60
1381,60
1382,60
1383,60
1384,60
1385,60
1386,60
1387,60
1388,60
1389,61
1390,61
1391,61
1392,61
1393,61
1394,61
1395,61
1396,61
1397,61
1398,61
1399,61
1400,61
1401,61
1402,61
1403,61
1404,61
1405,61
1406,61
1407,61
1408,61
1409,61
1410,62
1411,62
1412,62
1413,62
1414,62
1415,63
1416,63
1417,63
1418,63
1419,63
1420,63
1421,64
1422,64
1423,64
1424,64
1425,64
1426,64
1427,64
1428,64
1429,64
1430,64
1431,64
1432,64
1433,64
1434,64
1435,64
1436,64
1437,64
1438,64
1439,64
1440,64
1441,64
1442,64
1443,64
1444,64
1445,64
1446,64
1447,64
1448,64
1449,64
1450,64
1451,64
1452,64
1453,64
1454,64
1455,64
1456,64
1457,64
1458,64
1459,64
1460,64
1461,64
1462,64
1463,64
1464,64
1465,64
1466,64
1467,64
1468,64
1469,64
1470,64
1471,64
1472,64
1473,64
1474,64
1475,64
1476,64
1477,64
1478,64
1479,64
1480,64
1481,64
1482,64
1483,64
1484,64
1485,64
1486,64
1487,64
1488,64
1489,64
1490,65
1491,65
1492,65
1493,65
1494,65
1495,65
1496,65
1497,65
1498,65
1499,65
1500,65
1501,65
1502,65
1503,65
1504,65
1505,65
1506,65
1507,65
1508,65
1509,65
1510,65
1511,65
1512,65
1513,66
1514,66
1515,66
1516,66
1517,66
1518,66
1519,66
1520,66
1521,66
1522,66
1523,66
1524,66
1525,66
1526,66
1527,66
1528,66
1529,66
1530,66
1531,66
1532,66
1533,66
1534,66
1535,66
1536,66
1537,66
1538,66
1539,66
1540,66
1541,66
1542,66
1543,66
1544,66
1545,66
1546,66
1547,66
1548,66
1549,66
1550,66
1551,66
1552,66
1553,66
1554,66
1555,66
1556,67
1557,67
1558,67
1559,67
1560,67
1561,67
1562,67
1563,67
1564,68
1565,68
1566,68
1567,68
1568,68
1569,68
1570,68
1571,68
1572,68
1573,68
1574,68
1575,69
1576,69
1577,69
1578,69
1579,69
1580,69
1581,69
1582,69
1583,69
1584,69
1585,69
1586,69
1587,70
1588,70
1589,70
1590,70
1591,70
1592,70
1593,70
1594,70
1595,70
1596,70
1597,70
1598,70
1599,70
1600,70
1601,70
1602,70
1603,70
1604,70
1605,70
1606,70
1607,70
1608,70
1609,70
1610,70
1611,70
1612,70
1613,71
1614,71
1615,71
1616,71
1617,71
1618,71
1619,71
1620,71
1621,71
1622,71
1623,72
1624,72
1625,72
1626,72
1627,72
1628,72
1629,72
1630,72
1631,72
1632,72
1633,72
1634,72
1635,72
1636,72
1637,72
1638,72
1639,72
1640,72
1641,72
1642,72
1643,72
1644,72
1645,72
1646,72
1647,72
1648,72
1649,72
1650,72
1651,72
1652,72
1653,72
1654,72
1655,72
1656,72
1657,72
1658,72
1659,72
1660,72
1661,72
1662,72
1663,72
1664,72
1665,72
1666,72
1667,72
1668,72
1669,72
1670,72
1671,72
1672,73
1673,73
1674,73
1675,73
1676,73
1677,73
1678,73
1679,73
1680,73
1681,73
1682,73
1683,73
1684,74
1685,74
1686,74
1687,74
1688,74
1689,74
1690,74
1691,74
1692,74
1693,74
1694,74
1695,74
1696,74
1697,74
1698,74
1699,74
1700,74
1701,74
1702,74
1703,74
1704,74
1705,74
1706,74
1707,74
1708,74
1709,74
1710,74
1711,74
1712,74
1713,74
1714,74
1715,74
1716,74
1717,74
1718,74
1719,74
1720,74
1721,74
1722,74
1723,74
1724,74
1725,74
1726,74
1727,74
1728,74
1729,74
1730,74
1731,74
1732,74
1733,74
1734,75
1735,75
1736,75
1737,75
1738,76
1739,76
1740,76
1741,76
1742,76
1743,76
1744,76
1745,76
1746,76
1747,76
1748,77
1749,77
1750,77
1751,77
1752,77
1753,77
1754,77
1755,78
1756,78
1757,78
1758,78
1759,78
1760,78
1761,78
1762,78
1763,78
1764,78
1765,78
1766,78
1767,78
1768,78
1769,78
1770,78
1771,78
1772,78
1773,78
1774,78
1775,78
1776,78
1777,78
1778,78
1779,78
1780,78
1781,79
1782,80
1783,80
1784,80
1785,80
1786,80
1787,80
1788,80
1789,80
1790,80
1791,80
1792,80
1793,80
1794,80
1795,80
1796,80
1797,80
1798,80
1799,80
1800,80
1801,80
1802,80
1803,80
1804,80
1805,81
1806,81
1807,81
1808,81
1809,81
1810,81
1811,81
1812,81
1813,81
1814,81
1815,81
1816,81
1817,82
1818,83
1819,83
1820,83
1821,83
1822,83
1823,83
1824,83
1825,83
1826,83
1827,83
1828,83
1829,83
1830,83
1831,83
1832,83
1833,83
1834,83
1835,83
1836,83
1837,83
1838,83
1839,83
1840,83
1841,83
1842,83
1843,83
1844,83
1845,83
1846,83
1847,84
1848,84
1849,84
1850,84
1851,84
1852,84
1853,84
1854,84
1855,84
1856,84
1857,84
1858,84
1859,85
1860,85
1861,85
1862,86
1863,86
1864,86
1865,86
1866,86
1867,87
1868,87
1869,87
1870,87
1871,87
1872,87
1873,88
1874,88
1875,88
1876,88
1877,88
1878,88
1879,88
1880,88
1881,88
1882,88
1883,88
1884,88
1885,88
1886,88
1887,88
1888,88
1889,88
1890,88
1891,89
1892,89
1893,89
1894,89
1895,89
1896,89
1897,89
1898,89
1899,89
1900,90
1901,90
1902,90
1903,90
1904,90
1905,90
1906,90
1907,90
1908,90
1909,90
1910,90
1911,90
1912,90
1913,91
1914,91
1915,92
1916,92
1917,92
1918,92
1919,92
1920,92
1921,92
1922,92
1923,92
1924,92
1925,92
1926,92
1927,92
1928,93
1929,93
1930,93
1931,93
1932,93
1933,93
1934,93
1935,93
1936,93
1937,93
1938,93
1939,93
1940,93
1941,93
1942,93
1943,93
1944,93
1945,93
1946,93
1947,93
1948,93
1949,93
1950,93
1951,93
1952,93
1953,93
1954,93
1955,93
1956,93
1957,93
1958,93
1959,93
1960,93
1961,93
1962,93
1963,93
1964,93
1965,93
1966,93
1967,93
1968,93
1969,93
1970,93
1971,93
1972,93
1973,93
1974,93
1975,93
1976,93
1977,93
1978,93
1979,93
1980,93
1981,93
1982,93
1983,93
1984,93
1985,93
1986,93
1987,93
1988,93
1989,93
1990,93
1991,93
1992,93
1993,93
1994,93
1995,93
1996,93
1997,93
1998,93
1999,93
2000,93
