"tick","total"
0,0
1,0
2,0
3,0
4,0
5,0
6,0
7,0
8,0
9,0
10,0
11,0
12,0
13,0
14,0
15,0
16,0
17,0
18,0
19,0
20,0
21,0
22,0
23,0
24,0
25,0
26,0
27,0
28,0
29,0
30,0
31,0
32,0
33,0
34,0
35,0
36,0
37,0
38,0
39,0
40,0
41,0
42,0
43,0
44,0
45,0
46,0
47,0
48,0
49,0
50,0
51,0
52,0
53,0
54,0
55,0
56,0
57,0
58,0
59,0
60,0
61,0
62,0
63,0
64,0
65,0
66,0
67,0
68,0
69,0
70,0
71,0
72,0
73,0
74,0
75,0
76,0
77,0
78,0
79,0
80,0
81,0
82,0
83,0
84,0
85,0
86,0
87,0
88,0
89,0
90,0
91,0
92,0
93,0
94,0
95,0
96,0
97,0
98,0
99,0
100,0
101,0
102,0
103,0
104,0
105,0
106,0
107,0
108,0
109,0
110,0
111,0
112,0
113,0
114,0
115,0
116,0
117,0
118,0
119,0
120,0
121,0
122,0
123,0
124,0
125,0
126,0
127,0
128,0
129,0
130,0
131,0
132,0
133,0
134,0
135,0
136,0
137,0
138,0
139,0
140,0
141,1
142,1
143,1
144,1
145,1
146,1
147,1
148,1
149,1
150,1
151,1
152,1
153,1
154,1
155,1
156,1
157,1
158,1
159,1
160,1
161,1
162,1
163,1
164,1
165,1
166,1
167,1
168,1
169,1
170,1
171,1
172,1
173,1
174,1
175,1
176,1
177,1
178,1
179,1
180,1
181,1
182,1
183,1
184,1
185,1
186,1
187,1
188,1
189,1
190,1
191,1
192,1
193,1
194,1
195,1
196,1
197,1
198,1
199,1
200,1
201,1
202,1
203,1
204,1
205,1
206,1
207,1
208,1
209,1
210,1
211,1
212,1
213,1
214,1
215,1
216,1
217,1
218,1
219,1
220,1
221,1
222,1
223,1
224,1
225,1
226,1
227,1
228,1
229,1
230,1
231,1
232,1
233,1
234,1
235,1
236,1
237,1
238,1
239,1
240,1
241,1
242,1
243,1
244,1
245,1
246,1
247,1
248,1
249,1
250,1
251,1
252,1
253,1
254,1
255,1
256,1
257,1
258,1
259,1
260,1
261,1
262,1
263,1
264,1
265,1
266,1
267,1
268,1
269,1
270,1
271,1
272,1
273,1
274,1
275,2
276,2
277,2
278,2
279,2
280,2
281,2
282,2
283,2
284,2
285,2
286,2
287,2
288,2
289,2
290,2
291,3
292,3
293,3
294,5
295,5
296,5
297,5
298,6
299,6
300,6
301,6
302,7
303,7
304,7
305,8
306,8
307,8
308,8
309,8
310,8
311,8
312,8
313,8
314,8
315,8
316,8
317,8
318,9
319,9
320,9
321,9
322,9
323,9
324,9
325,9
326,9
327,9
328,9
329,9
330,9
331,9
332,9
333,9
334,9
335,9
336,9
337,9
338,9
339,9
340,9
341,9
342,9
343,9
344,9
345,9
346,11
347,11
348,11
349,13
350,13
351,14
352,14
353,14
354,14
355,14
356,14
357,14
358,14
359,15
360,15
361,15
362,15
363,16
364,16
365,16
366,16
367,16
368,17
369,17
370,18
371,18
372,18
373,19
374,19
375,19
376,19
377,20
378,20
379,21
380,21
381,21
382,21
383,21
384,21
385,22
386,22
387,22
388,22
389,22
390,22
391,22
392,23
393,23
394,23
395,23
396,23
397,23
398,23
399,23
400,24
401,24
402,24
403,24
404,24
405,24
406,24
407,24
408,24
409,24
410,24
411,24
412,24
413,24
414,24
415,24
416,24
417,24
418,24
419,24
420,24
421,24
422,24
423,24
424,24
425,24
426,24
427,24
428,24
429,24
430,24
431,24
432,24
433,24
434,24
435,24
436,24
437,24
438,24
439,25
440,25
441,25
442,25
443,25
444,25
445,25
446,25
447,25
448,25
449,25
450,25
451,25
452,25
453,25
454,25
455,25
456,25
457,25
458,25
459,25
460,25
461,25
462,25
463,25
464,25
465,25
466,25
467,25
468,25
469,25
470,25
471,25
472,25
473,25
474,25
475,25
476,25
477,25
478,25
479,25
480,25
481,25
482,25
483,25
484,25
485,25
486,25
487,25
488,25
489,25
490,25
491,25
492,25
493,25
494,25
495,25
496,25
497,25
498,25
499,25
500,25
501,25
502,25
503,25
504,25
505,25
506,25
507,25
508,25
509,25
510,25
511,25
512,25
513,25
514,25
515,25
516,25
517,25
518,25
519,25
520,25
521,25
522,25
523,25
524,25
525,25
526,25
527,26
528,26
529,26
530,26
531,26
532,26
533,26
534,26
535,26
536,26
537,26
538,26
539,26
540,26
541,26
542,26
543,26
544,26
545,26
546,26
547,26
548,26
549,26
550,26
551,26
552,26
553,26
554,26
555,26
556,26
557,26
558,26
559,26
560,26
561,26
562,26
563,26
564,26
565,26
566,26
567,26
568,26
569,26
570,26
571,26
572,26
573,26
574,26
575,26
576,26
577,26
578,26
579,26
580,26
581,26
582,26
583,26
584,26
585,26
586,26
587,26
588,26
589,26
590,26
591,26
592,26
593,26
594,26
595,26
596,26
597,26
598,26
599,26
600,26
601,26
602,26
603,26
604,26
605,26
606,26
607,26
608,26
609,26
610,26
611,26
612,26
613,26
614,26
615,26
616,26
617,26
618,26
619,26
620,26
621,26
622,26
623,26
624,26
625,26
626,26
627,26
628,26
629,26
630,27
631,27
632,27
633,27
634,27
635,27
636,27
637,27
638,27
639,27
640,27
641,27
642,27
643,27
644,27
645,27
646,27
647,27
648,27
649,27
650,27
651,27
652,27
653,27
654,27
655,27
656,27
657,27
658,27
659,27
660,27
661,27
662,27
663,27
664,27
665,27
666,27
667,27
668,28
669,28
670,29
671,29
672,29
673,29
674,29
675,30
676,30
677,31
678,31
679,31
680,31
681,31
682,31
683,31
684,31
685,31
686,31
687,31
688,31
689,31
690,31
691,31
692,31
693,31
694,32
695,32
696,33
697,33
698,33
699,33
700,33
701,33
702,33
703,33
704,33
705,33
706,33
707,33
708,33
709,33
710,33
711,33
712,33
713,33
714,33
715,34
716,34
717,34
718,34
719,34
720,34
721,34
722,34
723,34
724,34
725,34
726,34
727,34
728,34
729,34
730,34
731,34
732,34
733,34
734,34
735,34
736,34
737,34
738,34
739,34
740,34
741,34
742,34
743,34
744,34
745,34
746,34
747,34
748,34
749,35
750,35
751,35
752,35
753,35
754,35
755,35
756,35
757,35
758,35
759,35
760,35
761,35
762,35
763,35
764,35
765,35
766,35
767,35
768,35
769,35
770,35
771,35
772,35
773,35
774,35
775,35
776,35
777,35
778,35
779,35
780,35
781,35
782,37
783,37
784,37
785,37
786,37
787,37
788,37
789,37
790,37
791,37
792,37
793,37
794,37
795,37
796,37
797,37
798,37
799,37
800,37
801,37
802,37
803,37
804,37
805,37
806,37
807,37
808,37
809,37
810,37
811,37
812,37
813,37
814,37
815,37
816,37
817,37
818,37
819,37
820,37
821,37
822,37
823,37
824,37
825,37
826,37
827,37
828,37
829,37
830,37
831,37
832,37
833,37
834,37
835,37
836,37
837,37
838,37
839,37
840,37
841,37
842,37
843,37
844,37
845,37
846,37
847,37
848,37
849,37
850,37
851,38
852,38
853,38
854,38
855,38
856,38
857,38
858,38
859,38
860,38
861,38
862,38
863,39
864,39
865,39
866,39
867,39
868,39
869,39
870,39
871,39
872,39
873,39
874,39
875,40
876,41
877,41
878,41
879,41
880,42
881,42
882,42
883,42
884,42
885,42
886,42
887,42
888,42
889,42
890,42
891,42
892,42
893,42
894,42
895,42
896,42
897,42
898,43
899,43
900,43
901,43
902,43
903,43
904,43
905,43
906,43
907,43
908,43
909,43
910,43
911,43
912,43
913,43
914,43
915,43
916,43
917,43
918,43
919,43
920,43
921,43
922,43
923,43
924,43
925,43
926,43
927,43
928,43
929,43
930,43
931,44
932,44
933,44
934,44
935,44
936,44
937,44
938,44
939,44
940,44
941,44
942,44
943,44
944,44
945,44
946,44
947,44
948,44
949,44
950,44
951,44
952,44
953,44
954,44
955,44
956,44
957,44
958,44
959,44
960,44
961,44
962,44
963,44
964,44
965,44
966,44
967,44
968,44
969,44
970,45
971,45
972,45
973,45
974,45
975,45
976,45
977,45
978,45
979,45
980,45
981,45
982,45
983,45
984,45
985,45
986,46
987,46
988,46
989,46
990,46
991,46
992,46
993,46
994,46
995,46
996,46
997,46
998,47
999,47
1000,47
1001,47
1002,47
1003,47
1004,47
1005,47
1006,47
1007,47
1008,47
1009,48
1010,48
1011,48
1012,48
1013,48
1014,48
1015,48
1016,48
1017,48
1018,48
1019,48
1020,48
1021,48
1022,48
1023,48
1024,48
1025,49
1026,49
1027,49
1028,49
1029,49
1030,49
1031,49
1032,49
1033,49
1034,49
1035,49
1036,49
1037,49
1038,49
1039,49
1040,49
1041,49
1042,49
1043,49
1044,49
1045,49
1046,49
1047,49
1048,49
1049,49
1050,49
1051,49
1052,49
1053,49
1054,50
1055,50
1056,50
1057,51
1058,51
1059,51
1060,51
1061,51
1062,51
1063,52
1064,52
1065,52
1066,52
1067,52
1068,52
1069,52
1070,52
1071,52
1072,52
1073,52
1074,52
1075,52
1076,52
1077,52
1078,52
1079,52
1080,52
1081,52
1082,52
1083,52
1084,52
1085,52
1086,52
1087,52
1088,52
1089,52
1090,52
1091,52
1092,52
1093,52
1094,52
1095,52
1096,52
1097,52
1098,52
1099,52
1100,52
1101,52
1102,52
1103,52
1104,52
1105,52
1106,52
1107,52
1108,52
1109,52
1110,52
1111,52
1112,52
1113,52
1114,52
1115,52
1116,52
1117,52
1118,52
1119,52
1120,52
1121,52
1122,52
1123,52
1124,52
1125,52
1126,52
1127,52
1128,52
1129,52
1130,52
1131,52
1132,52
1133,52
1134,52
1135,52
1136,52
1137,52
1138,52
1139,52
1140,52
1141,52
1142,52
1143,52
1144,52
1145,52
1146,52
1147,52
1148,52
1149,52
1150,52
1151,52
1152,52
1153,52
1154,52
1155,52
1156,52
1157,52
1158,52
1159,52
1160,52
1161,52
1162,52
1163,52
1164,52
1165,52
1166,52
1167,52
1168,52
1169,52
1170,52
1171,52
1172,52
1173,52
1174,52
1175,52
1176,52
1177,52
1178,52
1179,52
1180,52
1181,52
1182,52
1183,52
1184,52
1185,52
1186,52
1187,52
1188,52
1189,52
1190,52
1191,52
1192,52
1193,52
1194,52
1195,52
1196,52
1197,52
1198,52
1199,52
1200,52
1201,52
1202,52
1203,52
1204,52
1205,53
1206,53
1207,53
1208,53
1209,53
1210,53
1211,53
1212,53
1213,53
1214,53
1215,53
1216,53
1217,53
1218,53
1219,53
1220,53
1221,53
1222,53
1223,53
1224,53
1225,53
1226,53
1227,53
1228,53
1229,53
1230,53
1231,53
1232,53
1233,53
1234,53
1235,53
1236,53
1237,53
1238,53
1239,53
1240,53
1241,53
1242,54
1243,54
1244,54
1245,54
1246,54
1247,54
1248,54
1249,54
1250,54
1251,54
1252,54
1253,54
1254,54
1255,54
1256,54
1257,54
1258,54
1259,54
1260,54
1261,54
1262,54
1263,54
1264,54
1265,54
1266,54
1267,54
1268,54
1269,54
1270,54
1271,54
1272,54
1273,54
1274,54
1275,55
1276,55
1277,55
1278,55
1279,55
1280,55
1281,55
1282,55
1283,55
1284,55
1285,55
1286,55
1287,55
1288,55
1289,55
1290,55
1291,55
1292,55
1293,55
1294,55
1295,55
1296,55
1297,55
1298,55
1299,55
1300,55
1301,55
1302,55
1303,55
1304,55
1305,55
1306,55
1307,55
1308,55
1309,55
1310,55
1311,55
1312,55
1313,55
1314,55
1315,55
1316,55
1317,55
1318,55
1319,55
1320,55
1321,55
1322,55
1323,55
1324,56
1325,56
1326,56
1327,56
1328,57
1329,57
1330,57
1331,57
1332,57
1333,57
1334,57
1335,57
1336,57
1337,58
1338,58
1339,58
1340,58
1341,58
1342,58
1343,58
1344,58
1345,58
1346,58
1347,58
1348,59
1349,59
1350,59
1351,59
1352,59
1353,59
1354,59
1355,59
1356,60
1357,60
1358,60
1359,60
1360,60
1361,60
1362,60
1363,60
1364,60
1365,60
1366,61
1367,61
1368,61
1369,62
1370,62
1371,62
1372,62
1373,62
1374,62
1375,62
1376,62
1377,62
1378,62
1379,62
1380,62
1381,62
1382,62
1383,62
1384,62
1385,62
1386,62
1387,62
1388,62
1389,62
1390,62
1391,62
1392,62
1393,62
1394,62
1395,62
1396,62
1397,62
1398,62
1399,62
1400,62
1401,62
1402,62
1403,62
1404,63
1405,63
1406,63
1407,63
1408,64
1409,64
1410,64
1411,64
1412,64
1413,65
1414,65
1415,65
1416,66
1417,67
1418,67
1419,67
1420,67
1421,67
1422,67
1423,67
1424,67
1425,67
1426,67
1427,67
1428,67
1429,67
1430,67
1431,67
1432,67
1433,67
1434,67
1435,67
1436,67
1437,67
1438,67
1439,69
1440,69
1441,69
1442,70
1443,70
1444,70
1445,70
1446,71
1447,71
1448,71
1449,71
1450,71
1451,71
1452,71
1453,71
1454,71
1455,72
1456,72
1457,72
1458,72
1459,72
1460,72
1461,72
1462,72
1463,72
1464,72
1465,72
1466,72
1467,72
1468,72
1469,72
1470,72
1471,72
1472,72
1473,72
1474,72
1475,72
1476,72
1477,72
1478,72
1479,72
1480,72
1481,72
1482,72
1483,72
1484,72
1485,72
1486,72
1487,72
1488,72
1489,72
1490,72
1491,72
1492,72
1493,72
1494,72
1495,72
1496,72
1497,72
1498,73
1499,73
1500,73
1501,73
1502,73
1503,73
1504,73
1505,73
1506,73
1507,73
1508,73
1509,73
1510,73
1511,73
1512,73
1513,73
1514,73
1515,73
1516,73
1517,73
1518,73
1519,73
1520,73
1521,73
1522,73
1523,73
1524,73
1525,73
1526,73
1527,73
1528,73
1529,73
1530,73
1531,73
1532,73
1533,73
1534,73
1535,73
1536,73
1537,73
1538,73
1539,73
1540,73
1541,73
1542,73
1543,73
1544,73
1545,73
1546,73
1547,73
1548,73
1549,73
1550,73
1551,73
1552,73
1553,73
1554,73
1555,73
1556,73
1557,73
1558,73
1559,73
1560,73
1561,73
1562,73
1563,73
1564,73
1565,73
1566,73
1567,73
1568,73
1569,73
1570,73
1571,73
1572,73
1573,73
1574,74
1575,74
1576,74
1577,74
1578,74
1579,74
1580,74
1581,74
1582,74
1583,74
1584,74
1585,74
1586,74
1587,74
1588,74
1589,74
1590,75
1591,75
1592,75
1593,75
1594,75
1595,75
1596,75
1597,75
1598,75
1599,75
1600,75
1601,75
1602,75
1603,75
1604,75
1605,75
1606,75
1607,75
1608,75
1609,75
1610,75
1611,75
1612,75
1613,75
1614,75
1615,75
1616,75
1617,75
1618,75
1619,75
1620,75
1621,76
1622,76
1623,76
1624,76
1625,76
1626,76
1627,76
1628,76
1629,76
1630,76
1631,77
1632,77
1633,77
1634,77
1635,77
1636,77
1637,77
1638,77
1639,77
1640,77
1641,77
1642,77
1643,77
1644,77
1645,77
1646,77
1647,77
1648,77
1649,77
1650,77
1651,77
1652,78
1653,78
1654,78
1655,78
1656,78
1657,78
1658,78
1659,78
1660,78
1661,78
1662,78
1663,78
1664,78
1665,78
1666,78
1667,78
1668,78
1669,78
1670,79
1671,79
1672,79
1673,79
1674,79
1675,79
1676,79
1677,79
1678,79
1679,79
1680,79
1681,79
1682,79
1683,80
1684,80
1685,80
1686,80
1687,80
1688,80
1689,80
1690,80
1691,80
1692,80
1693,80
1694,80
1695,80
1696,80
1697,80
1698,80
1699,80
1700,80
1701,80
1702,80
1703,80
1704,80
1705,80
1706,80
1707,80
1708,80
1709,80
1710,80
1711,80
1712,80
1713,80
1714,80
1715,80
1716,80
1717,80
1718,80
1719,80
1720,80
1721,80
1722,80
1723,80
1724,80
1725,80
1726,80
1727,80
1728,80
1729,80
1730,80
1731,80
1732,80
1733,80
1734,80
1735,81
1736,81
1737,81
1738,81
1739,81
1740,81
1741,82
1742,82
1743,82
1744,82
1745,82
1746,82
1747,82
1748,82
1749,82
1750,82
1751,82
1752,82
1753,82
1754,82
1755,82
1756,82
1757,82
1758,83
1759,83
1760,83
1761,83
1762,83
1763,83
1764,83
1765,83
1766,83
1767,83
1768,83
1769,83
1770,84
1771,84
1772,84
1773,84
1774,84
1775,84
1776,85
1777,85
1778,85
1779,85
1780,86
1781,86
1782,86
1783,86
1784,86
1785,87
1786,87
1787,87
1788,87
1789,87
1790,87
1791,87
1792,87
1793,87
1794,87
1795,87
1796,87
1797,87
1798,87
1799,87
1800,87
1801,87
1802,87
1803,87
1804,87
1805,87
1806,87
1807,87
1808,87
1809,87
1810,87
1811,87
1812,87
1813,88
1814,88
1815,88
1816,88
1817,88
1818,88
1819,88
1820,88
1821,88
1822,88
1823,88
1824,88
1825,88
1826,88
1827,88
1828,88
1829,88
1830,88
1831,89
1832,89
1833,89
1834,89
1835,89
1836,89
1837,89
1838,89
1839,89
1840,89
1841,90
1842,90
1843,90
1844,90
1845,90
1846,90
1847,90
1848,90
1849,90
1850,90
1851,90
1852,90
1853,90
1854,90
1855,90
1856,90
1857,90
1858,90
1859,90
1860,90
1861,90
1862,90
1863,90
1864,90
1865,90
1866,90
1867,90
1868,90
1869,90
1870,90
1871,90
1872,90
1873,90
1874,90
1875,90
1876,90
1877,90
1878,90
1879,90
1880,90
1881,90
1882,90
1883,90
1884,90
1885,90
1886,90
1887,90
1888,90
1889,90
1890,90
1891,90
1892,90
1893,90
1894,90
1895,90
1896,90
1897,90
1898,90
1899,90
1900,90
1901,90
1902,90
1903,90
1904,90
1905,90
1906,90
1907,90
1908,90
1909,90
1910,90
1911,90
1912,90
1913,90
1914,90
1915,90
1916,90
1917,90
1918,90
1919,90
1920,90
1921,91
1922,91
1923,91
1924,91
1925,91
1926,91
1927,91
1928,91
1929,91
1930,91
1931,91
1932,91
1933,91
1934,91
1935,91
1936,91
1937,91
1938,91
1939,91
1940,91
1941,91
1942,91
1943,91
1944,91
1945,91
1946,91
1947,91
1948,91
1949,91
1950,91
1951,91
1952,91
1953,91
1954,91
1955,91
1956,91
1957,91
1958,91
1959,91
1960,91
1961,91
1962,91
1963,91
1964,91
1965,91
1966,91
1967,91
1968,91
1969,91
1970,91
1971,91
1972,91
1973,91
1974,91
1975,91
1976,91
1977,91
1978,91
1979,91
1980,91
1981,91
1982,91
1983,91
1984,91
1985,92
1986,92
1987,92
1988,92
1989,92
1990,92
1991,92
1992,92
1993,92
1994,92
1995,92
1996,92
1997,92
1998,92
1999,92
2000,92
