"tick","total"
0,0
1,0
2,0
3,0
4,0
5,0
6,0
7,0
8,0
9,0
10,0
11,0
12,0
13,0
14,0
15,0
16,0
17,0
18,0
19,0
20,0
21,0
22,0
23,0
24,0
25,0
26,0
27,0
28,0
29,0
30,0
31,0
32,0
33,0
34,0
35,0
36,0
37,0
38,0
39,0
40,0
41,0
42,0
43,0
44,0
45,0
46,0
47,0
48,0
49,0
50,0
51,0
52,0
53,0
54,0
55,0
56,0
57,0
58,0
59,0
60,0
61,0
62,0
63,0
64,0
65,0
66,0
67,0
68,0
69,0
70,0
71,0
72,0
73,0
74,0
75,0
76,0
77,0
78,0
79,0
80,0
81,0
82,0
83,0
84,0
85,0
86,0
87,0
88,0
89,0
90,0
91,0
92,0
93,0
94,0
95,0
96,0
97,0
98,0
99,0
100,0
101,0
102,0
103,0
104,0
105,0
106,0
107,0
108,0
109,0
110,0
111,0
112,0
113,0
114,0
115,0
116,0
117,0
118,0
119,0
120,0
121,0
122,0
123,0
124,0
125,0
126,0
127,0
128,0
129,0
130,0
131,0
132,0
133,0
134,0
135,0
136,0
137,0
138,0
139,0
140,0
141,0
142,0
143,0
144,0
145,0
146,0
147,0
148,0
149,0
150,0
151,0
152,0
153,0
154,0
155,0
156,0
157,0
158,0
159,0
160,0
161,0
162,0
163,0
164,0
165,0
166,0
167,0
168,0
169,0
170,0
171,0
172,0
173,0
174,0
175,0
176,0
177,0
178,0
179,0
180,0
181,0
182,0
183,0
184,0
185,0
186,0
187,0
188,0
189,0
190,0
191,0
192,0
193,0
194,0
195,0
196,0
197,0
198,0
199,0
200,0
201,0
202,0
203,0
204,0
205,0
206,0
207,0
208,0
209,0
210,0
211,0
212,0
213,0
214,0
215,0
216,0
217,0
218,0
219,0
220,0
221,0
222,0
223,0
224,0
225,0
226,0
227,0
228,0
229,0
230,0
231,0
232,0
233,0
234,0
235,0
236,0
237,0
238,0
239,0
240,0
241,0
242,0
243,0
244,0
245,0
246,0
247,0
248,0
249,0
250,0
251,0
252,0
253,0
254,0
255,0
256,0
257,0
258,0
259,0
260,0
261,0
262,0
263,0
264,0
265,0
266,0
267,0
268,0
269,0
270,0
271,0
272,0
273,0
274,0
275,0
276,0
277,0
278,0
279,1
280,1
281,1
282,1
283,1
284,1
285,1
286,1
287,1
288,1
289,1
290,1
291,1
292,1
293,1
294,1
295,1
296,1
297,1
298,1
299,1
300,1
301,1
302,1
303,1
304,1
305,1
306,2
307,2
308,2
309,2
310,2
311,2
312,2
313,2
314,2
315,2
316,2
317,2
318,2
319,3
320,3
321,3
322,3
323,3
324,5
325,5
326,5
327,5
328,5
329,5
330,5
331,5
332,5
333,5
334,5
335,6
336,6
337,6
338,6
339,6
340,6
341,6
342,6
343,6
344,6
345,6
346,6
347,6
348,6
349,6
350,6
351,6
352,6
353,6
354,6
355,6
356,7
357,7
358,7
359,7
360,7
361,7
362,8
363,8
364,8
365,8
366,9
367,9
368,9
369,9
370,9
371,9
372,9
373,9
374,9
375,10
376,10
377,10
378,10
379,10
380,10
381,10
382,11
383,11
384,12
385,12
386,13
387,13
388,13
389,13
390,13
391,13
392,13
393,13
394,13
395,13
396,13
397,13
398,13
399,13
400,13
401,14
402,14
403,14
404,14
405,15
406,15
407,15
408,16
409,16
410,17
411,17
412,17
413,18
414,18
415,18
416,18
417,19
418,19
419,19
420,19
421,19
422,19
423,19
424,19
425,19
426,19
427,19
428,22
429,22
430,22
431,22
432,22
433,22
434,22
435,22
436,22
437,22
438,22
439,22
440,22
441,22
442,22
443,23
444,23
445,23
446,23
447,23
448,23
449,23
450,23
451,23
452,23
453,23
454,23
455,23
456,24
457,25
458,25
459,25
460,25
461,25
462,25
463,25
464,25
465,25
466,25
467,25
468,25
469,25
470,25
471,25
472,25
473,25
474,25
475,25
476,25
477,26
478,26
479,27
480,27
481,28
482,28
483,28
484,28
485,28
486,28
487,28
488,28
489,28
490,28
491,28
492,29
493,29
494,29
495,29
496,29
497,29
498,29
499,29
500,30
501,30
502,30
503,30
504,30
505,30
506,30
507,30
508,30
509,30
510,30
511,30
512,30
513,30
514,30
515,30
516,30
517,30
518,30
519,30
520,30
521,30
522,30
523,30
524,30
525,30
526,30
527,30
528,30
529,30
530,30
531,30
532,30
533,30
534,30
535,30
536,30
537,30
538,30
539,30
540,30
541,30
542,30
543,30
544,30
545,30
546,30
547,30
548,30
549,30
550,30
551,30
552,30
553,30
554,30
555,30
556,30
557,30
558,30
559,30
560,30
561,30
562,30
563,30
564,30
565,30
566,30
567,30
568,30
569,30
570,30
571,30
572,30
573,30
574,30
575,30
576,30
577,30
578,30
579,30
580,30
581,30
582,30
583,30
584,30
585,30
586,30
587,30
588,30
589,30
590,30
591,30
592,30
593,30
594,30
595,30
596,30
597,30
598,30
599,30
600,30
601,30
602,30
603,30
604,30
605,30
606,30
607,30
608,30
609,30
610,30
611,30
612,30
613,30
614,30
615,30
616,30
617,30
618,30
619,30
620,31
621,31
622,31
623,31
624,31
625,31
626,31
627,31
628,31
629,31
630,31
631,31
632,31
633,31
634,31
635,31
636,31
637,31
638,31
639,31
640,31
641,31
642,31
643,31
644,31
645,31
646,31
647,31
648,31
649,31
650,31
651,31
652,31
653,31
654,31
655,31
656,31
657,31
658,31
659,31
660,31
661,31
662,31
663,32
664,32
665,32
666,32
667,32
668,32
669,32
670,32
671,32
672,32
673,32
674,32
675,32
676,32
677,32
678,32
679,32
680,32
681,32
682,32
683,32
684,32
685,32
686,32
687,32
688,32
689,32
690,32
691,32
692,32
693,32
694,32
695,32
696,32
697,32
698,32
699,32
700,32
701,32
702,32
703,32
704,32
705,32
706,32
707,32
708,32
709,32
710,32
711,32
712,32
713,32
714,32
715,32
716,32
717,32
718,32
719,32
720,32
721,32
722,32
723,32
724,32
725,32
726,32
727,32
728,32
729,32
730,32
731,32
732,32
733,32
734,32
735,32
736,32
737,32
738,32
739,32
740,32
741,32
742,32
743,32
744,32
745,32
746,32
747,32
748,32
749,32
750,32
751,32
752,32
753,32
754,32
755,32
756,32
757,32
758,32
759,32
760,32
761,32
762,32
763,32
764,32
765,32
766,32
767,32
768,32
769,32
770,32
771,32
772,32
773,32
774,32
775,32
776,32
777,32
778,32
779,33
780,33
781,33
782,33
783,33
784,33
785,34
786,34
787,34
788,34
789,34
790,34
791,34
792,34
793,34
794,34
795,34
796,34
797,34
798,34
799,34
800,34
801,34
802,35
803,35
804,35
805,35
806,35
807,35
808,35
809,35
810,36
811,36
812,36
813,36
814,36
815,36
816,36
817,36
818,36
819,36
820,36
821,36
822,36
823,36
824,36
825,36
826,36
827,36
828,36
829,36
830,36
831,36
832,36
833,36
834,36
835,36
836,36
837,36
838,36
839,36
840,36
841,36
842,36
843,36
844,36
845,36
846,36
847,36
848,36
849,36
850,36
851,36
852,36
853,36
854,36
855,36
856,37
857,37
858,37
859,37
860,37
861,37
862,37
863,37
864,37
865,37
866,37
867,38
868,38
869,38
870,38
871,38
872,38
873,38
874,38
875,38
876,38
877,38
878,38
879,38
880,38
881,38
882,38
883,38
884,38
885,38
886,38
887,38
888,38
889,38
890,38
891,38
892,38
893,38
894,38
895,38
896,38
897,38
898,38
899,38
900,38
901,38
902,38
903,38
904,38
905,38
906,38
907,38
908,38
909,38
910,39
911,39
912,39
913,39
914,39
915,39
916,39
917,39
918,39
919,39
920,39
921,39
922,39
923,39
924,39
925,39
926,39
927,39
928,39
929,39
930,39
931,39
932,39
933,39
934,39
935,39
936,39
937,39
938,39
939,39
940,39
941,39
942,40
943,40
944,40
945,40
946,40
947,40
948,40
949,40
950,40
951,41
952,41
953,41
954,41
955,41
956,41
957,41
958,41
959,41
960,41
961,41
962,41
963,41
964,41
965,41
966,41
967,41
968,41
969,41
970,41
971,41
972,41
973,41
974,41
975,41
976,41
977,41
978,41
979,41
980,41
981,41
982,41
983,41
984,41
985,41
986,41
987,41
988,41
989,41
990,41
991,41
992,41
993,41
994,41
995,41
996,41
997,41
998,41
999,41
1000,41
1001,41
1002,41
1003,41
1004,41
1005,41
1006,41
1007,41
1008,41
1009,41
1010,41
1011,42
1012,42
1013,42
1014,42
1015,42
1016,42
1017,42
1018,42
1019,42
1020,42
1021,42
1022,42
1023,42
1024,42
1025,43
1026,43
1027,43
1028,44
1029,44
1030,44
1031,44
1032,44
1033,44
1034,44
1035,44
1036,45
1037,45
1038,45
1039,45
1040,45
1041,45
1042,45
1043,45
1044,45
1045,45
1046,45
1047,45
1048,45
1049,45
1050,45
1051,45
1052,45
1053,45
1054,45
1055,45
1056,45
1057,45
1058,45
1059,45
1060,45
1061,45
1062,46
1063,46
1064,46
1065,46
1066,46
1067,47
1068,47
1069,47
1070,47
1071,47
1072,47
1073,47
1074,47
1075,47
1076,47
1077,47
1078,47
1079,47
1080,47
1081,47
1082,47
1083,47
1084,47
1085,47
1086,47
1087,47
1088,47
1089,47
1090,47
1091,47
1092,47
1093,47
1094,47
1095,47
1096,47
1097,47
1098,47
1099,47
1100,47
1101,47
1102,47
1103,47
1104,47
1105,47
1106,47
1107,47
1108,47
1109,48
1110,48
1111,48
1112,48
1113,48
1114,48
1115,48
1116,48
1117,48
1118,48
1119,48
1120,48
1121,48
1122,48
1123,48
1124,48
1125,48
1126,48
1127,48
1128,48
1129,48
1130,48
1131,48
1132,49
1133,49
1134,49
1135,49
1136,49
1137,49
1138,49
1139,49
1140,49
1141,50
1142,50
1143,50
1144,50
1145,50
1146,50
1147,50
1148,50
1149,50
1150,50
1151,50
1152,50
1153,50
1154,50
1155,50
1156,50
1157,50
1158,50
1159,50
1160,50
1161,50
1162,50
1163,50
1164,50
1165,50
1166,50
1167,50
1168,50
1169,50
1170,50
1171,50
1172,50
1173,50
1174,50
1175,50
1176,50
1177,50
1178,51
1179,51
1180,51
1181,51
1182,51
1183,51
1184,51
1185,51
1186,51
1187,51
1188,51
1189,51
1190,51
1191,51
1192,51
1193,51
1194,51
1195,51
1196,52
1197,52
1198,52
1199,52
1200,52
1201,52
1202,52
1203,52
1204,52
1205,52
1206,52
1207,52
1208,52
1209,52
1210,52
1211,52
1212,52
1213,52
1214,52
1215,52
1216,52
1217,53
1218,53
1219,53
1220,53
1221,53
1222,53
1223,53
1224,53
1225,53
1226,53
1227,53
1228,53
1229,53
1230,53
1231,53
1232,53
1233,53
1234,53
1235,53
1236,53
1237,53
1238,53
1239,53
1240,53
1241,53
1242,53
1243,53
1244,53
1245,53
1246,53
1247,53
1248,53
1249,53
1250,53
1251,53
1252,53
1253,53
1254,53
1255,53
1256,53
1257,53
1258,53
1259,53
1260,53
1261,53
1262,53
1263,53
1264,53
1265,53
1266,53
1267,53
1268,53
1269,53
1270,53
1271,53
1272,53
1273,53
1274,53
1275,53
1276,53
1277,53
1278,53
1279,53
1280,53
1281,53
1282,53
1283,53
1284,54
1285,54
1286,54
1287,55
1288,55
1289,55
1290,56
1291,56
1292,56
1293,56
1294,56
1295,57
1296,57
1297,57
1298,57
1299,57
1300,57
1301,57
1302,57
1303,57
1304,57
1305,57
1306,57
1307,57
1308,57
1309,57
1310,57
1311,57
1312,58
1313,58
1314,58
1315,58
1316,58
1317,58
1318,58
1319,58
1320,58
1321,58
1322,58
1323,58
1324,58
1325,58
1326,58
1327,58
1328,58
1329,58
1330,58
1331,58
1332,58
1333,58
1334,58
1335,58
1336,58
1337,58
1338,58
1339,58
1340,58
1341,58
1342,58
1343,58
1344,58
1345,58
1346,58
1347,59
1348,59
1349,59
1350,59
1351,59
1352,59
1353,59
1354,59
1355,59
1356,59
1357,59
1358,59
1359,59
1360,59
1361,59
1362,59
1363,59
1364,59
1365,59
1366,59
1367,59
1368,59
1369,59
1370,59
1371,59
1372,59
1373,59
1374,59
1375,59
1376,59
1377,59
1378,59
1379,59
1380,59
1381,59
1382,59
1383,59
1384,60
1385,60
1386,60
1387,60
1388,60
1389,60
1390,60
1391,60
1392,60
1393,60
1394,61
1395,61
1396,61
1397,61
1398,61
1399,61
1400,61
1401,61
1402,61
1403,61
1404,61
1405,61
1406,61
1407,61
1408,61
1409,61
1410,61
1411,61
1412,61
1413,61
1414,61
1415,61
1416,61
1417,61
1418,61
1419,61
1420,61
1421,61
1422,61
1423,61
1424,61
1425,61
1426,61
1427,62
1428,62
1429,62
1430,62
1431,62
1432,62
1433,62
1434,62
1435,62
1436,62
1437,62
1438,62
1439,62
1440,62
1441,62
1442,62
1443,62
1444,63
1445,63
1446,63
1447,64
1448,64
1449,65
1450,65
1451,65
1452,65
1453,65
1454,65
1455,65
1456,65
1457,65
1458,65
1459,65
1460,65
1461,65
1462,66
1463,66
1464,66
1465,66
1466,66
1467,66
1468,67
1469,67
1470,67
1471,67
1472,67
1473,67
1474,67
1475,67
1476,67
1477,67
1478,67
1479,68
1480,69
1481,69
1482,69
1483,69
1484,69
1485,69
1486,69
1487,69
1488,69
1489,69
1490,69
1491,69
1492,69
1493,69
1494,69
1495,69
1496,69
1497,69
1498,69
1499,69
1500,69
1501,69
1502,69
1503,69
1504,69
1505,69
1506,70
1507,71
1508,71
1509,71
1510,72
1511,72
1512,72
1513,72
1514,72
1515,73
1516,73
1517,73
1518,74
1519,74
1520,75
1521,75
1522,75
1523,75
1524,75
1525,75
1526,75
1527,75
1528,75
1529,75
1530,75
1531,75
1532,75
1533,75
1534,75
1535,75
1536,75
1537,75
1538,75
1539,75
1540,75
1541,75
1542,75
1543,75
1544,75
1545,75
1546,75
1547,75
1548,75
1549,75
1550,75
1551,75
1552,75
1553,75
1554,75
1555,75
1556,75
1557,75
1558,75
1559,75
1560,75
1561,75
1562,75
1563,75
1564,75
1565,75
1566,75
1567,75
1568,75
1569,75
1570,75
1571,75
1572,75
1573,75
1574,75
1575,75
1576,75
1577,75
1578,75
1579,75
1580,75
1581,75
1582,75
1583,75
1584,75
1585,75
1586,75
1587,75
1588,75
1589,75
1590,75
1591,75
1592,75
1593,75
1594,75
1595,75
1596,75
1597,75
1598,75
1599,75
1600,75
1601,75
1602,75
1603,75
1604,75
1605,75
1606,75
1607,75
1608,75
1609,75
1610,75
1611,75
1612,75
1613,75
1614,75
1615,75
1616,75
1617,75
1618,75
1619,75
1620,75
1621,75
1622,75
1623,75
1624,75
1625,75
1626,75
1627,75
1628,75
1629,75
1630,75
1631,75
1632,75
1633,75
1634,75
1635,75
1636,75
1637,75
1638,75
1639,75
1640,75
1641,75
1642,75
1643,75
1644,75
1645,75
1646,75
1647,75
1648,75
1649,75
1650,75
1651,75
1652,75
1653,75
1654,75
1655,75
1656,75
1657,75
1658,75
1659,75
1660,75
1661,75
1662,75
1663,75
1664,75
1665,76
1666,76
1667,76
1668,76
1669,76
1670,76
1671,76
1672,76
1673,76
1674,76
1675,76
1676,76
1677,76
1678,76
1679,76
1680,76
1681,76
1682,76
1683,76
1684,76
1685,76
1686,76
1687,77
1688,77
1689,77
1690,77
1691,77
1692,77
1693,77
1694,77
1695,77
1696,77
1697,78
1698,78
1699,78
1700,78
1701,78
1702,78
1703,78
1704,78
1705,78
1706,80
1707,80
1708,80
1709,80
1710,80
1711,80
1712,80
1713,80
1714,80
1715,82
1716,82
1717,82
1718,82
1719,82
1720,82
1721,83
1722,84
1723,84
1724,84
1725,84
1726,84
1727,85
1728,85
1729,85
1730,85
1731,85
1732,85
1733,85
1734,85
1735,85
1736,85
1737,85
1738,85
1739,85
1740,85
1741,85
1742,85
1743,85
1744,85
1745,85
1746,85
1747,86
1748,86
1749,86
1750,87
1751,87
1752,87
1753,87
1754,87
1755,87
1756,87
1757,87
1758,87
1759,87
1760,87
1761,87
1762,87
1763,87
1764,87
1765,87
1766,88
1767,88
1768,88
1769,88
1770,88
1771,88
1772,88
1773,88
1774,88
1775,88
1776,88
1777,88
1778,88
1779,88
1780,88
1781,89
1782,89
1783,89
1784,89
1785,89
1786,89
1787,89
1788,89
1789,89
1790,89
1791,89
1792,90
1793,90
1794,90
1795,90
1796,90
1797,90
1798,90
1799,90
1800,90
1801,90
1802,90
1803,90
1804,90
1805,90
1806,90
1807,90
1808,90
1809,90
1810,90
1811,90
1812,90
1813,90
1814,90
1815,90
1816,90
1817,90
1818,90
1819,90
1820,90
1821,90
1822,90
1823,90
1824,90
1825,90
1826,90
1827,90
1828,90
1829,90
1830,90
1831,90
1832,90
1833,90
1834,90
1835,90
1836,90
1837,90
1838,90
1839,90
1840,90
1841,90
1842,90
1843,90
1844,90
1845,90
1846,90
1847,90
1848,90
1849,90
1850,91
1851,91
1852,91
1853,91
1854,91
1855,91
1856,92
1857,92
1858,92
1859,92
1860,92
1861,92
1862,92
1863,92
1864,92
1865,93
1866,93
1867,93
1868,93
1869,93
1870,93
1871,93
1872,93
1873,94
1874,94
1875,94
1876,94
1877,94
1878,94
1879,94
1880,94
1881,94
1882,94
1883,94
1884,94
1885,94
1886,94
1887,94
1888,94
1889,94
1890,94
1891,94
1892,94
1893,94
1894,94
1895,94
1896,94
1897,94
1898,94
1899,94
1900,94
1901,94
1902,94
1903,94
1904,94
1905,94
1906,94
1907,94
1908,94
1909,94
1910,94
1911,94
1912,94
1913,94
1914,94
1915,94
1916,94
1917,94
1918,94
1919,94
1920,94
1921,94
1922,94
1923,94
1924,94
1925,94
1926,94
1927,94
1928,94
1929,94
1930,94
1931,94
1932,94
1933,94
1934,94
1935,94
1936,94
1937,94
1938,94
1939,94
1940,94
1941,94
1942,94
1943,94
1944,94
1945,94
1946,94
1947,94
1948,94
1949,94
1950,94
1951,94
1952,94
1953,94
1954,94
1955,94
1956,94
1957,94
1958,94
1959,94
1960,94
1961,94
1962,94
1963,94
1964,94
1965,95
1966,95
1967,95
1968,95
1969,95
1970,95
1971,95
1972,95
1973,96
1974,96
1975,96
1976,96
1977,96
1978,96
1979,96
1980,96
1981,96
1982,96
1983,96
1984,96
1985,97
1986,97
1987,97
1988,97
1989,97
1990,97
1991,97
1992,97
1993,97
1994,97
1995,97
1996,97
1997,97
1998,97
1999,97
2000,98
