"tick","total"
0,0
1,0
2,0
3,0
4,0
5,0
6,0
7,0
8,0
9,0
10,0
11,0
12,0
13,0
14,0
15,0
16,0
17,0
18,0
19,0
20,0
21,0
22,0
23,0
24,0
25,0
26,0
27,0
28,0
29,0
30,0
31,0
32,0
33,0
34,0
35,0
36,0
37,0
38,0
39,0
40,0
41,0
42,0
43,0
44,0
45,0
46,0
47,0
48,0
49,0
50,0
51,0
52,0
53,0
54,0
55,0
56,0
57,0
58,0
59,0
60,0
61,0
62,0
63,0
64,0
65,0
66,0
67,0
68,0
69,0
70,0
71,0
72,0
73,0
74,0
75,0
76,0
77,0
78,0
79,0
80,0
81,0
82,0
83,0
84,0
85,0
86,0
87,0
88,0
89,0
90,0
91,0
92,0
93,0
94,0
95,0
96,0
97,0
98,0
99,0
100,0
101,0
102,0
103,0
104,0
105,0
106,0
107,0
108,0
109,0
110,0
111,0
112,0
113,0
114,0
115,0
116,0
117,0
118,0
119,0
120,0
121,0
122,0
123,0
124,0
125,0
126,0
127,0
128,0
129,0
130,0
131,0
132,0
133,0
134,0
135,0
136,0
137,0
138,0
139,0
140,0
141,0
142,0
143,0
144,0
145,0
146,0
147,0
148,0
149,0
150,0
151,0
152,0
153,0
154,0
155,0
156,0
157,0
158,0
159,0
160,0
161,0
162,0
163,0
164,0
165,0
166,0
167,0
168,0
169,0
170,0
171,0
172,0
173,0
174,0
175,0
176,0
177,0
178,0
179,0
180,0
181,0
182,0
183,0
184,0
185,0
186,0
187,0
188,0
189,0
190,0
191,0
192,0
193,0
194,0
195,0
196,0
197,0
198,0
199,0
200,0
201,0
202,0
203,0
204,0
205,0
206,0
207,0
208,0
209,0
210,0
211,0
212,0
213,0
214,0
215,0
216,0
217,0
218,0
219,0
220,0
221,0
222,0
223,0
224,0
225,0
226,0
227,1
228,2
229,2
230,2
231,2
232,2
233,2
234,2
235,2
236,2
237,2
238,2
239,2
240,2
241,2
242,3
243,3
244,3
245,4
246,4
247,4
248,4
249,5
250,5
251,5
252,5
253,7
254,8
255,8
256,8
257,8
258,8
259,9
260,9
261,9
262,9
263,9
264,10
265,10
266,10
267,10
268,10
269,10
270,10
271,10
272,10
273,10
274,11
275,11
276,11
277,11
278,11
279,11
280,11
281,11
282,11
283,11
284,11
285,12
286,12
287,12
288,12
289,12
290,13
291,13
292,13
293,13
294,13
295,13
296,13
297,13
298,15
299,15
300,15
301,16
302,16
303,16
304,16
305,16
306,16
307,16
308,16
309,16
310,17
311,17
312,17
313,17
314,17
315,17
316,18
317,18
318,19
319,19
320,20
321,20
322,20
323,20
324,20
325,20
326,20
327,20
328,20
329,21
330,21
331,21
332,21
333,21
334,21
335,21
336,21
337,21
338,21
339,21
340,21
341,21
342,21
343,21
344,21
345,22
346,22
347,22
348,22
349,22
350,22
351,22
352,22
353,22
354,22
355,22
356,22
357,22
358,22
359,22
360,22
361,22
362,22
363,22
364,22
365,22
366,22
367,22
368,22
369,22
370,22
371,23
372,23
373,25
374,25
375,25
376,25
377,25
378,25
379,25
380,25
381,25
382,25
383,25
384,25
385,25
386,25
387,25
388,25
389,25
390,25
391,25
392,25
393,26
394,26
395,26
396,26
397,26
398,26
399,26
400,26
401,26
402,26
403,26
404,26
405,26
406,26
407,26
408,26
409,26
410,26
411,26
412,26
413,26
414,26
415,26
416,26
417,26
418,26
419,26
420,26
421,26
422,26
423,26
424,26
425,26
426,26
427,26
428,26
429,26
430,26
431,26
432,26
433,26
434,26
435,27
436,27
437,27
438,27
439,27
440,27
441,27
442,27
443,27
444,27
445,27
446,27
447,27
448,27
449,27
450,27
451,27
452,27
453,27
454,27
455,27
456,27
457,27
458,27
459,27
460,27
461,27
462,28
463,28
464,28
465,28
466,28
467,28
468,28
469,28
470,28
471,28
472,28
473,29
474,29
475,29
476,29
477,29
478,29
479,29
480,30
481,30
482,30
483,30
484,30
485,30
486,30
487,30
488,30
489,30
490,30
491,30
492,30
493,30
494,30
495,30
496,30
497,30
498,30
499,30
500,30
501,30
502,30
503,31
504,31
505,31
506,31
507,31
508,31
509,31
510,31
511,31
512,31
513,31
514,31
515,31
516,31
517,31
518,31
519,31
520,31
521,32
522,33
523,33
524,33
525,33
526,33
527,33
528,33
529,33
530,33
531,33
532,33
533,33
534,33
535,33
536,33
537,33
538,33
539,33
540,33
541,33
542,33
543,33
544,33
545,33
546,33
547,33
548,33
549,33
550,33
551,33
552,33
553,33
554,33
555,33
556,33
557,33
558,33
559,33
560,33
561,33
562,33
563,33
564,33
565,33
566,33
567,33
568,33
569,33
570,33
571,33
572,33
573,33
574,33
575,33
576,33
577,33
578,33
579,33
580,33
581,33
582,33
583,33
584,33
585,33
586,33
587,33
588,34
589,34
590,34
591,34
592,34
593,35
594,35
595,35
596,35
597,35
598,35
599,35
600,35
601,35
602,35
603,35
604,35
605,35
606,35
607,35
608,36
609,36
610,36
611,36
612,36
613,36
614,36
615,36
616,36
617,36
618,36
619,36
620,36
621,36
622,36
623,36
624,36
625,36
626,36
627,36
628,36
629,36
630,36
631,36
632,36
633,36
634,36
635,36
636,36
637,36
638,36
639,36
640,36
641,36
642,36
643,36
644,36
645,36
646,36
647,36
648,36
649,36
650,36
651,36
652,36
653,36
654,36
655,36
656,36
657,36
658,36
659,36
660,36
661,36
662,36
663,36
664,36
665,36
666,36
667,37
668,37
669,37
670,37
671,37
672,37
673,37
674,37
675,37
676,37
677,37
678,37
679,37
680,37
681,37
682,37
683,37
684,37
685,37
686,37
687,37
688,37
689,37
690,37
691,37
692,37
693,37
694,37
695,37
696,37
697,37
698,37
699,37
700,37
701,37
702,37
703,37
704,37
705,37
706,37
707,37
708,37
709,37
710,37
711,37
712,37
713,37
714,37
715,37
716,38
717,38
718,38
719,38
720,38
721,38
722,38
723,38
724,38
725,38
726,38
727,38
728,38
729,38
730,38
731,38
732,38
733,38
734,38
735,39
736,39
737,39
738,39
739,39
740,39
741,39
742,39
743,39
744,39
745,39
746,39
747,39
748,40
749,40
750,40
751,40
752,40
753,40
754,40
755,40
756,41
757,41
758,41
759,41
760,41
761,41
762,41
763,41
764,41
765,41
766,41
767,41
768,41
769,41
770,42
771,42
772,42
773,42
774,42
775,42
776,42
777,42
778,42
779,42
780,42
781,42
782,43
783,43
784,43
785,43
786,43
787,43
788,43
789,43
790,43
791,43
792,43
793,43
794,43
795,43
796,43
797,43
798,43
799,43
800,43
801,43
802,44
803,44
804,44
805,44
806,44
807,44
808,44
809,44
810,44
811,44
812,44
813,44
814,44
815,44
816,45
817,45
818,45
819,45
820,45
821,45
822,45
823,45
824,45
825,45
826,45
827,45
828,45
829,45
830,45
831,45
832,45
833,45
834,45
835,45
836,45
837,45
838,45
839,45
840,45
841,45
842,46
843,46
844,46
845,46
846,46
847,46
848,46
849,46
850,46
851,46
852,46
853,46
854,46
855,46
856,46
857,46
858,46
859,46
860,47
861,47
862,47
863,48
864,48
865,49
866,49
867,49
868,49
869,49
870,49
871,49
872,50
873,50
874,50
875,50
876,50
877,50
878,50
879,50
880,50
881,50
882,50
883,50
884,50
885,50
886,50
887,50
888,50
889,50
890,50
891,50
892,50
893,50
894,50
895,50
896,50
897,50
898,50
899,50
900,50
901,50
902,50
903,50
904,51
905,51
906,51
907,51
908,51
909,51
910,51
911,52
912,52
913,52
914,52
915,52
916,53
917,53
918,53
919,53
920,53
921,54
922,54
923,54
924,54
925,54
926,54
927,54
928,54
929,54
930,54
931,54
932,54
933,54
934,54
935,54
936,54
937,54
938,54
939,55
940,55
941,55
942,55
943,55
944,55
945,55
946,55
947,55
948,55
949,55
950,55
951,55
952,55
953,56
954,56
955,56
956,56
957,56
958,56
959,56
960,56
961,56
962,56
963,56
964,56
965,56
966,56
967,56
968,56
969,56
970,56
971,56
972,56
973,56
974,56
975,56
976,56
977,56
978,56
979,56
980,56
981,56
982,56
983,56
984,56
985,56
986,56
987,56
988,56
989,56
990,56
991,56
992,56
993,56
994,56
995,57
996,57
997,57
998,57
999,57
1000,57
1001,57
1002,57
1003,57
1004,57
1005,57
1006,57
1007,57
1008,57
1009,57
1010,57
1011,57
1012,57
1013,57
1014,57
1015,57
1016,57
1017,57
1018,57
1019,57
1020,57
1021,57
1022,57
1023,57
1024,57
1025,57
1026,57
1027,57
1028,57
1029,57
1030,57
1031,57
1032,57
1033,57
1034,57
1035,57
1036,57
1037,57
1038,57
1039,57
1040,57
1041,57
1042,57
1043,57
1044,57
1045,57
1046,57
1047,57
1048,57
1049,57
1050,57
1051,57
1052,57
1053,57
1054,57
1055,57
1056,57
1057,57
1058,57
1059,57
1060,58
1061,58
1062,58
1063,58
1064,58
1065,58
1066,58
1067,58
1068,58
1069,58
1070,58
1071,58
1072,58
1073,58
1074,58
1075,58
1076,58
1077,58
1078,58
1079,58
1080,58
1081,58
1082,58
1083,58
1084,58
1085,58
1086,58
1087,58
1088,58
1089,58
1090,58
1091,58
1092,58
1093,58
1094,58
1095,58
1096,58
1097,58
1098,58
1099,58
1100,58
1101,58
1102,58
1103,58
1104,58
1105,58
1106,58
1107,58
1108,58
1109,58
1110,58
1111,58
1112,58
1113,58
1114,58
1115,58
1116,58
1117,58
1118,58
1119,58
1120,58
1121,58
1122,58
1123,58
1124,58
1125,58
1126,58
1127,58
1128,58
1129,58
1130,58
1131,58
1132,58
1133,58
1134,58
1135,58
1136,58
1137,58
1138,58
1139,58
1140,58
1141,58
1142,58
1143,58
1144,58
1145,58
1146,58
1147,58
1148,58
1149,58
1150,58
1151,58
1152,58
1153,58
1154,58
1155,59
1156,59
1157,59
1158,59
1159,59
1160,59
1161,59
1162,59
1163,59
1164,59
1165,59
1166,59
1167,59
1168,59
1169,59
1170,59
1171,59
1172,59
1173,59
1174,59
1175,59
1176,59
1177,59
1178,59
1179,59
1180,59
1181,59
1182,59
1183,59
1184,59
1185,59
1186,59
1187,59
1188,59
1189,59
1190,59
1191,59
1192,59
1193,59
1194,59
1195,59
1196,59
1197,59
1198,59
1199,59
1200,59
1201,60
1202,60
1203,60
1204,60
1205,60
1206,60
1207,60
1208,60
1209,60
1210,60
1211,60
1212,60
1213,60
1214,60
1215,60
1216,60
1217,60
1218,60
1219,60
1220,60
1221,60
1222,60
1223,60
1224,60
1225,60
1226,60
1227,60
1228,60
1229,60
1230,60
1231,60
1232,60
1233,60
1234,60
1235,60
1236,60
1237,61
1238,61
1239,61
1240,61
1241,61
1242,61
1243,61
1244,61
1245,61
1246,61
1247,61
1248,61
1249,61
1250,61
1251,61
1252,61
1253,61
1254,61
1255,61
1256,61
1257,61
1258,61
1259,62
1260,62
1261,62
1262,62
1263,62
1264,62
1265,62
1266,62
1267,62
1268,62
1269,62
1270,62
1271,62
1272,62
1273,62
1274,62
1275,62
1276,62
1277,62
1278,62
1279,62
1280,62
1281,62
1282,62
1283,62
1284,62
1285,62
1286,62
1287,62
1288,62
1289,62
1290,62
1291,62
1292,62
1293,62
1294,62
1295,62
1296,63
1297,64
1298,64
1299,64
1300,64
1301,64
1302,64
1303,64
1304,64
1305,64
1306,64
1307,64
1308,64
1309,64
1310,64
1311,64
1312,64
1313,64
1314,64
1315,65
1316,65
1317,65
1318,65
1319,65
1320,65
1321,65
1322,65
1323,65
1324,65
1325,65
1326,65
1327,65
1328,66
1329,66
1330,66
1331,66
1332,66
1333,66
1334,66
1335,66
1336,66
1337,67
1338,67
1339,67
1340,67
1341,67
1342,67
1343,67
1344,67
1345,67
1346,67
1347,67
1348,67
1349,67
1350,67
1351,67
1352,67
1353,67
1354,67
1355,67
1356,67
1357,67
1358,67
1359,67
1360,67
1361,67
1362,67
1363,67
1364,67
1365,67
1366,67
1367,67
1368,67
1369,67
1370,67
1371,68
1372,68
1373,68
1374,68
1375,68
1376,68
1377,68
1378,68
1379,68
1380,68
1381,69
1382,69
1383,69
1384,69
1385,69
1386,69
1387,69
1388,69
1389,69
1390,69
1391,69
1392,69
1393,69
1394,69
1395,69
1396,69
1397,69
1398,69
1399,69
1400,69
1401,69
1402,69
1403,69
1404,69
1405,69
1406,69
1407,69
1408,69
1409,69
1410,69
1411,69
1412,69
1413,69
1414,70
1415,70
1416,70
1417,70
1418,70
1419,70
1420,70
1421,70
1422,70
1423,70
1424,70
1425,70
1426,70
1427,70
1428,70
1429,70
1430,70
1431,70
1432,70
1433,70
1434,70
1435,70
1436,70
1437,70
1438,70
1439,70
1440,70
1441,70
1442,70
1443,70
1444,70
1445,70
1446,70
1447,70
1448,71
1449,71
1450,71
1451,71
1452,71
1453,71
1454,72
1455,72
1456,72
1457,72
1458,72
1459,73
1460,73
1461,73
1462,73
1463,73
1464,73
1465,73
1466,73
1467,73
1468,73
1469,73
1470,73
1471,73
1472,73
1473,73
1474,73
1475,73
1476,73
1477,73
1478,73
1479,73
1480,73
1481,73
1482,73
1483,73
1484,73
1485,73
1486,73
1487,73
1488,73
1489,74
1490,74
1491,74
1492,74
1493,74
1494,74
1495,74
1496,74
1497,74
1498,74
1499,74
1500,74
1501,74
1502,74
1503,74
1504,74
1505,74
1506,74
1507,75
1508,75
1509,75
1510,75
1511,75
1512,75
1513,75
1514,75
1515,75
1516,75
1517,75
1518,75
1519,75
1520,75
1521,75
1522,75
1523,75
1524,75
1525,75
1526,75
1527,75
1528,75
1529,75
1530,75
1531,75
1532,75
1533,75
1534,75
1535,75
1536,75
1537,75
1538,75
1539,75
1540,76
1541,76
1542,76
1543,76
1544,76
1545,76
1546,76
1547,76
1548,76
1549,76
1550,76
1551,76
1552,76
1553,76
1554,77
1555,77
1556,77
1557,77
1558,77
1559,77
1560,77
1561,77
1562,77
1563,77
1564,77
1565,77
1566,77
1567,77
1568,77
1569,77
1570,77
1571,77
1572,77
1573,77
1574,77
1575,77
1576,77
1577,77
1578,77
1579,77
1580,77
1581,77
1582,77
1583,77
1584,77
1585,78
1586,78
1587,78
1588,78
1589,78
1590,78
1591,78
1592,78
1593,78
1594,78
1595,78
1596,78
1597,78
1598,78
1599,78
1600,78
1601,78
1602,78
1603,78
1604,78
1605,78
1606,78
1607,78
1608,78
1609,78
1610,79
1611,79
1612,79
1613,79
1614,79
1615,79
1616,79
1617,79
1618,79
1619,79
1620,79
1621,79
1622,79
1623,79
1624,79
1625,79
1626,79
1627,79
1628,79
1629,79
1630,79
1631,79
1632,79
1633,79
1634,79
1635,79
1636,79
1637,79
1638,79
1639,79
1640,79
1641,79
1642,79
1643,79
1644,79
1645,79
1646,79
1647,79
1648,79
1649,79
1650,79
1651,79
1652,79
1653,79
1654,79
1655,79
1656,79
1657,79
1658,79
1659,79
1660,79
1661,79
1662,79
1663,79
1664,79
1665,79
1666,79
1667,79
1668,79
1669,79
1670,79
1671,79
1672,79
1673,79
1674,79
1675,79
1676,79
1677,79
1678,79
1679,79
1680,79
1681,79
1682,79
1683,79
1684,79
1685,79
1686,79
1687,79
1688,79
1689,79
1690,79
1691,79
1692,79
1693,79
1694,79
1695,79
1696,80
1697,80
1698,80
1699,80
1700,80
1701,80
1702,80
1703,80
1704,80
1705,80
1706,80
1707,80
1708,80
1709,80
1710,80
1711,80
1712,80
1713,80
1714,80
1715,80
1716,80
1717,80
1718,80
1719,80
1720,80
1721,80
1722,80
1723,80
1724,80
1725,80
1726,80
1727,80
1728,80
1729,80
1730,80
1731,80
1732,80
1733,80
1734,81
1735,81
1736,81
1737,81
1738,81
1739,81
1740,81
1741,81
1742,81
1743,81
1744,81
1745,81
1746,81
1747,81
1748,81
1749,82
1750,82
1751,82
1752,82
1753,82
1754,82
1755,82
1756,82
1757,82
1758,82
1759,82
1760,82
1761,82
1762,82
1763,82
1764,82
1765,82
1766,82
1767,82
1768,82
1769,82
1770,82
1771,82
1772,82
1773,82
1774,82
1775,82
1776,82
1777,82
1778,82
1779,82
1780,82
1781,82
1782,82
1783,82
1784,83
1785,83
1786,83
1787,83
1788,83
1789,84
1790,84
1791,84
1792,84
1793,84
1794,84
1795,84
1796,84
1797,84
1798,84
1799,84
1800,84
1801,84
1802,84
1803,84
1804,84
1805,84
1806,84
1807,84
1808,84
1809,84
1810,84
1811,84
1812,84
1813,84
1814,84
1815,84
1816,84
1817,84
1818,84
1819,84
1820,84
1821,84
1822,85
1823,85
1824,85
1825,85
1826,85
1827,85
1828,85
1829,85
1830,85
1831,85
1832,85
1833,85
1834,85
1835,85
1836,85
1837,85
1838,85
1839,85
1840,85
1841,85
1842,86
1843,86
1844,86
1845,86
1846,86
1847,86
1848,86
1849,86
1850,86
1851,86
1852,86
1853,86
1854,86
1855,86
1856,86
1857,86
1858,87
1859,87
1860,88
1861,88
1862,88
1863,89
1864,89
1865,89
1866,89
1867,89
1868,89
1869,89
1870,89
1871,89
1872,89
1873,89
1874,89
1875,89
1876,89
1877,89
1878,89
1879,89
1880,89
1881,89
1882,89
1883,89
1884,89
1885,89
1886,89
1887,89
1888,89
1889,89
1890,89
1891,89
1892,89
1893,90
1894,90
1895,90
1896,90
1897,90
1898,90
1899,90
1900,90
1901,90
1902,90
1903,90
1904,90
1905,90
1906,90
1907,90
1908,90
1909,90
1910,90
1911,90
1912,90
1913,90
1914,90
1915,90
1916,90
1917,90
1918,90
1919,90
1920,90
1921,91
1922,91
1923,91
1924,91
1925,91
1926,91
1927,91
1928,91
1929,91
1930,91
1931,91
1932,91
1933,91
1934,91
1935,91
1936,91
1937,91
1938,91
1939,91
1940,91
1941,91
1942,91
1943,91
1944,91
1945,91
1946,91
1947,91
1948,91
1949,91
1950,91
1951,91
1952,91
1953,91
1954,91
1955,91
1956,91
1957,91
1958,91
1959,91
1960,91
1961,92
1962,93
1963,93
1964,93
1965,93
1966,93
1967,94
1968,94
1969,94
1970,94
1971,94
1972,94
1973,94
1974,94
1975,94
1976,94
1977,94
1978,94
1979,94
1980,94
1981,94
1982,94
1983,94
1984,94
1985,94
1986,94
1987,94
1988,94
1989,94
1990,94
1991,94
1992,95
1993,95
1994,96
1995,96
1996,97
1997,97
1998,97
1999,97
2000,97
