run,imax,rmax
0,54,107
1,50,108
2,60,115
3,59,114
4,51,103
5,49,105
6,58,97
7,54,106
8,56,95
9,57,105
10,55,118
11,60,96
12,51,120
13,62,95
14,56,110
15,53,118
16,61,104
17,61,104
18,51,103
19,53,116
20,58,108
21,50,92
22,51,110
23,60,92
24,54,107
25,55,106
26,52,101
27,56,111
28,51,100
29,61,90
30,58,94
31,59,105
32,48,90
33,54,106
34,54,103
35,58,90
36,65,103
37,52,101
38,51,102
39,55,94
40,50,106
41,54,105
42,58,93
43,61,104
44,53,98
45,58,93
46,63,99
47,69,103
48,61,95
49,53,116
50,59,109
51,51,108
52,49,101
53,52,97
54,57,106
55,56,93
56,65,113
57,59,107
58,58,103
59,59,102
60,60,105
61,54,107
62,59,120
63,61,99
64,64,90
65,58,92
66,54,105
67,66,98
68,61,91
69,67,110
70,59,117
71,53,106
72,48,103
73,49,104
74,57,94
75,55,99
76,61,112
77,66,93
78,54,102
79,58,96
80,54,104
81,49,101
82,51,106
83,59,100
84,53,104
85,57,102
86,56,106
87,59,111
88,48,114
89,59,118
90,58,99
91,55,111
92,56,105
93,60,97
94,61,94
95,50,100
96,58,91
97,54,92
98,49,97
99,67,117
100,54,109
101,56,109
102,59,107
103,61,106
104,55,100
105,54,95
106,58,106
107,58,114
108,55,106
109,55,99
110,62,105
111,63,102
112,56,98
113,60,98
114,55,95
115,55,92
116,55,93
117,55,107
118,64,97
119,59,98
120,52,105
121,51,111
122,51,107
123,51,87
124,62,108
125,52,103
126,57,110
127,53,96
128,60,99
129,64,113
130,64,102
131,60,105
132,59,102
133,50,92
134,60,99
135,51,106
136,55,104
137,56,97
138,53,90
139,60,100
140,65,104
141,63,99
142,55,104
143,52,93
144,60,108
145,56,109
146,56,90
147,51,100
148,50,95
149,50,110
150,64,99
151,50,104
152,54,101
153,59,105
154,61,88
155,56,104
156,54,106
157,50,105
158,54,107
159,54,100
160,63,97
161,51,113
162,53,102
163,52,99
164,49,114
165,56,106
166,61,87
167,60,95
168,63,101
169,53,111
170,51,99
171,61,96
172,45,102
173,54,108
174,55,107
175,63,100
176,51,100
177,62,109
178,61,100
179,56,102
180,65,100
181,54,98
182,60,104
183,53,97
184,54,102
185,56,104
186,58,103
187,52,103
188,50,101
189,57,114
190,56,114
191,63,111
192,63,97
193,51,92
194,50,102
195,56,107
196,55,106
197,57,100
198,53,103
199,49,99
200,69,109
201,51,104
202,59,93
203,60,105
204,56,103
205,56,103
206,57,102
207,52,116
208,52,110
209,53,95
210,66,97
211,58,108
212,58,97
213,50,109
214,58,104
215,56,95
216,57,104
217,49,96
218,60,93
219,51,111
220,62,112
221,66,97
222,52,109
223,57,108
224,55,102
225,54,96
226,57,98
227,55,96
228,61,105
229,58,113
230,62,104
231,58,109
232,55,111
233,61,103
234,50,99
235,59,110
236,60,109
237,56,106
238,56,108
239,59,107
240,63,111
241,55,97
242,51,100
243,52,110
244,66,101
245,54,91
246,50,116
247,54,105
248,64,99
249,58,108
250,65,90
251,52,102
252,53,110
253,50,105
254,48,100
255,53,108
256,57,131
257,53,93
258,54,107
259,52,101
260,54,111
261,55,106
262,51,111
263,67,108
264,55,104
265,59,113
266,61,90
267,57,104
268,52,116
269,56,103
270,61,98
271,52,97
272,51,105
273,56,105
274,52,100
275,67,94
276,54,100
277,56,95
278,54,105
279,59,91
280,65,103
281,63,110
282,53,97
283,56,108
284,56,114
285,56,108
286,50,112
287,60,95
288,52,92
289,59,90
290,50,102
291,55,99
292,55,103
293,54,104
294,55,108
295,60,105
296,54,102
297,56,101
298,57,98
299,53,100
300,58,114
301,55,110
302,55,98
303,62,110
304,56,101
305,64,99
306,63,100
307,62,97
308,56,108
309,59,115
310,64,120
311,55,123
312,61,99
313,56,96
314,53,105
315,51,94
316,56,110
317,61,103
318,56,107
319,50,113
320,52,110
321,61,118
322,44,101
323,55,98
324,49,97
325,56,106
326,62,92
327,57,93
328,55,98
329,66,107
330,52,80
331,56,103
332,65,116
333,58,103
334,55,107
335,52,96
336,57,101
337,63,89
338,65,102
339,59,103
340,52,107
341,59,104
342,55,101
343,58,107
344,56,96
345,62,98
346,50,108
347,60,116
348,47,120
349,47,116
350,52,96
351,60,110
352,56,110
353,60,100
354,66,96
355,47,96
356,62,102
357,54,98
358,48,98
359,62,95
360,60,101
361,57,101
362,58,110
363,47,102
364,57,113
365,46,113
366,57,118
367,62,100
368,53,121
369,60,104
370,57,96
371,54,110
372,61,97
373,57,88
374,54,100
375,49,111
376,59,104
377,53,97
378,56,114
379,65,123
380,66,92
381,49,107
382,52,91
383,60,105
384,48,98
385,54,90
386,54,101
387,49,98
388,55,101
389,55,97
390,46,94
391,56,113
392,72,100
393,53,100
394,49,108
395,61,108
396,52,108
397,54,107
398,52,94
399,47,103
400,55,105
401,64,98
402,61,111
403,68,105
404,59,97
405,52,100
406,54,93
407,58,92
408,60,97
409,63,114
410,56,112
411,54,105
412,56,106
413,49,103
414,54,99
415,62,101
416,52,112
417,66,92
418,60,103
419,54,91
420,53,99
421,60,91
422,50,96
423,53,105
424,56,103
425,57,108
426,58,92
427,55,91
428,62,110
429,60,115
430,65,101
431,51,100
432,54,105
433,63,101
434,60,92
435,56,91
436,70,86
437,63,113
438,63,95
439,56,101
440,52,110
441,56,102
442,62,107
443,52,108
444,54,97
445,60,90
446,55,95
447,65,103
448,65,96
449,62,102
450,55,104
451,49,103
452,67,100
453,61,99
454,49,91
455,57,111
456,58,105
457,61,98
458,58,100
459,60,112
460,60,93
461,56,107
462,52,95
463,55,108
464,51,109
465,60,103
466,58,110
467,53,98
468,56,91
469,60,109
470,54,110
471,67,100
472,55,104
473,52,104
474,58,112
475,61,90
476,52,95
477,51,112
478,62,100
479,62,98
480,46,103
481,62,98
482,55,99
483,58,104
484,59,112
485,63,91
486,53,87
487,63,105
488,59,97
489,54,120
490,53,116
491,56,106
492,51,98
493,49,103
494,60,110
495,48,101
496,57,104
497,54,95
498,49,97
499,61,112
500,62,100
501,55,104
502,50,108
503,52,116
504,63,109
505,47,111
506,56,99
507,51,92
508,53,107
509,51,85
510,61,118
511,57,100
512,55,94
513,55,88
514,63,100
515,58,102
516,55,107
517,56,115
518,59,108
519,61,94
520,64,97
521,61,110
522,55,95
523,57,97
524,54,84
525,70,99
526,53,94
527,51,105
528,48,87
529,50,101
530,53,103
531,54,96
532,55,112
533,48,94
534,59,98
535,68,111
536,55,101
537,53,91
538,65,113
539,56,111
540,52,92
541,53,97
542,65,106
543,56,106
544,55,100
545,57,99
546,55,111
547,56,101
548,61,99
549,53,110
550,51,92
551,60,99
552,72,90
553,51,101
554,54,102
555,55,91
556,68,107
557,51,91
558,56,94
559,58,90
560,58,95
561,58,104
562,59,89
563,60,107
564,54,106
565,49,108
566,53,89
567,56,104
568,51,107
569,62,103
570,55,119
571,67,101
572,57,98
573,49,90
574,54,101
575,60,93
576,55,103
577,53,121
578,52,99
579,58,104
580,59,94
581,59,107
582,54,98
583,52,110
584,48,93
585,56,107
586,57,102
587,50,100
588,54,100
589,62,103
590,59,106
591,55,108
592,48,102
593,55,101
594,61,103
595,55,103
596,59,100
597,48,91
598,54,103
599,52,102
600,52,117
601,56,95
602,52,99
603,50,106
604,56,94
605,64,91
606,50,111
607,52,95
608,60,108
609,58,109
610,56,114
611,52,107
612,52,105
613,60,105
614,54,96
615,48,91
616,61,100
617,52,106
618,54,101
619,61,100
620,59,99
621,51,97
622,56,108
623,47,99
624,65,114
625,53,99
626,52,121
627,67,94
628,56,102
629,52,102
630,53,103
631,54,94
632,54,96
633,54,85
634,58,97
635,61,99
636,58,105
637,58,101
638,52,102
639,66,107
640,56,108
641,50,103
642,55,93
643,45,104
644,63,99
645,61,104
646,57,95
647,60,101
648,60,101
649,56,108
650,54,108
651,49,100
652,56,105
653,52,89
654,54,102
655,58,102
656,59,95
657,53,102
658,60,100
659,52,100
660,51,108
661,49,84
662,49,106
663,58,98
664,49,112
665,52,100
666,51,102
667,45,99
668,53,100
669,56,98
670,57,100
671,50,96
672,58,107
673,55,104
674,59,113
675,60,105
676,51,99
677,51,96
678,60,95
679,52,92
680,60,94
681,55,110
682,56,106
683,55,101
684,59,107
685,59,102
686,57,108
687,55,96
688,66,109
689,48,99
690,54,109
691,60,108
692,59,109
693,62,102
694,60,99
695,59,105
696,58,123
697,56,105
698,55,106
699,57,106
700,52,99
701,63,100
702,58,110
703,59,109
704,64,92
705,61,104
706,52,93
707,58,97
708,48,111
709,55,111
710,58,103
711,60,95
712,67,106
713,53,100
714,58,111
715,54,94
716,60,91
717,60,100
718,61,104
719,60,113
720,52,109
721,68,103
722,49,104
723,60,101
724,54,94
725,60,105
726,64,101
727,54,106
728,59,112
729,59,94
730,68,96
731,70,108
732,55,99
733,49,93
734,58,111
735,49,103
736,53,94
737,53,84
738,54,107
739,54,110
740,56,112
741,52,112
742,49,103
743,56,101
744,61,101
745,62,93
746,63,114
747,54,102
748,47,102
749,57,95
750,57,102
751,46,95
752,58,97
753,57,107
754,54,97
755,58,101
756,60,112
757,59,97
758,52,108
759,60,126
760,58,92
761,57,94
762,53,115
763,51,109
764,59,107
765,55,114
766,54,96
767,63,109
768,55,100
769,52,94
770,58,98
771,59,111
772,51,102
773,57,97
774,54,98
775,48,104
776,51,102
777,55,106
778,47,99
779,58,97
780,56,99
781,53,97
782,52,89
783,58,102
784,51,95
785,57,99
786,51,108
787,64,108
788,55,112
789,53,94
790,56,109
791,57,104
792,54,110
793,57,100
794,57,110
795,59,110
796,50,102
797,56,117
798,65,121
799,63,112
800,60,103
801,47,105
802,56,116
803,49,102
804,49,93
805,56,120
806,60,120
807,57,94
808,52,101
809,61,106
810,58,94
811,52,92
812,66,93
813,52,108
814,54,96
815,64,104
816,54,110
817,60,101
818,53,102
819,65,98
820,55,102
821,60,102
822,55,101
823,55,115
824,61,85
825,58,97
826,67,106
827,57,95
828,59,109
829,54,89
830,58,95
831,66,91
832,58,111
833,54,104
834,57,104
835,49,110
836,58,97
837,61,90
838,57,112
839,61,98
840,56,103
841,64,114
842,57,111
843,51,120
844,55,93
845,60,97
846,55,107
847,53,102
848,59,99
849,60,97
850,51,107
851,55,107
852,64,95
853,62,105
854,56,109
855,60,99
856,48,96
857,52,98
858,58,104
859,54,114
860,52,91
861,61,103
862,54,103
863,63,109
864,61,96
865,52,104
866,59,94
867,56,106
868,59,97
869,60,115
870,60,107
871,53,97
872,53,108
873,62,106
874,54,101
875,55,101
876,49,106
877,58,122
878,56,109
879,54,107
880,50,106
881,59,111
882,53,91
883,57,94
884,55,106
885,53,99
886,55,111
887,61,97
888,58,94
889,63,108
890,56,100
891,61,91
892,59,107
893,58,89
894,49,91
895,55,103
896,46,100
897,59,103
898,58,109
899,62,126
900,54,88
901,58,101
902,56,102
903,54,122
904,56,101
905,55,104
906,61,84
907,53,97
908,55,106
909,64,110
910,57,101
911,60,100
912,62,90
913,54,97
914,60,99
915,54,104
916,53,92
917,62,100
918,51,112
919,63,102
920,52,106
921,57,102
922,59,104
923,52,101
924,57,95
925,56,111
926,59,97
927,53,111
928,54,105
929,52,100
930,56,98
931,57,100
932,66,98
933,55,107
934,61,121
935,63,109
936,54,86
937,57,96
938,56,108
939,51,105
940,52,105
941,55,108
942,58,102
943,65,98
944,53,101
945,57,114
946,58,106
947,64,90
948,47,100
949,51,106
950,58,105
951,56,114
952,52,101
953,55,115
954,64,108
955,58,98
956,68,102
957,46,92
958,48,110
959,56,105
960,51,100
961,55,98
962,55,103
963,60,105
964,54,110
965,52,94
966,66,98
967,52,95
968,51,98
969,49,97
970,57,105
971,51,111
972,53,99
973,53,107
974,57,93
975,53,102
976,60,104
977,61,101
978,51,99
979,69,113
980,60,90
981,55,99
982,60,100
983,66,104
984,61,100
985,63,105
986,58,102
987,60,104
988,51,106
989,59,105
990,59,111
991,53,92
992,67,111
993,53,115
994,49,103
995,57,100
996,59,111
997,54,91
998,57,104
999,55,95
