"tick","susceptible","exposed","infectious","recovered"
0,99,1,0,0
1,99,1,0,0
2,99,1,0,0
3,99,1,0,0
4,99,1,0,0
5,99,1,0,0
6,99,1,0,0
7,99,1,0,0
8,99,1,0,0
9,99,1,0,0
10,99,1,0,0
11,99,1,0,0
12,99,1,0,0
13,99,1,0,0
14,99,1,0,0
15,99,1,0,0
16,99,1,0,0
17,99,1,0,0
18,99,1,0,0
19,99,1,0,0
20,99,1,0,0
21,99,1,0,0
22,99,1,0,0
23,99,1,0,0
24,99,1,0,0
25,99,1,0,0
26,99,1,0,0
27,99,1,0,0
28,99,1,0,0
29,99,1,0,0
30,99,1,0,0
31,99,1,0,0
32,99,1,0,0
33,99,1,0,0
34,99,1,0,0
35,99,1,0,0
36,99,1,0,0
37,99,1,0,0
38,99,1,0,0
39,99,1,0,0
40,99,1,0,0
41,99,1,0,0
42,99,1,0,0
43,99,1,0,0
44,99,1,0,0
45,99,1,0,0
46,99,1,0,0
47,99,1,0,0
48,99,1,0,0
49,99,1,0,0
50,99,1,0,0
51,99,1,0,0
52,99,1,0,0
53,99,1,0,0
54,99,1,0,0
55,99,1,0,0
56,99,1,0,0
57,99,1,0,0
58,99,1,0,0
59,99,1,0,0
60,99,1,0,0
61,99,1,0,0
62,99,1,0,0
63,99,1,0,0
64,99,1,0,0
65,99,1,0,0
66,99,1,0,0
67,99,1,0,0
68,99,1,0,0
69,99,1,0,0
70,99,1,0,0
71,99,1,0,0
72,99,1,0,0
73,99,1,0,0
74,99,1,0,0
75,99,1,0,0
76,99,1,0,0
77,99,1,0,0
78,99,1,0,0
79,99,1,0,0
80,99,1,0,0
81,99,1,0,0
82,99,1,0,0
83,99,1,0,0
84,99,1,0,0
85,99,1,0,0
86,99,1,0,0
87,99,1,0,0
88,99,1,0,0
89,99,1,0,0
90,99,1,0,0
91,99,1,0,0
92,99,1,0,0
93,99,1,0,0
94,99,1,0,0
95,99,1,0,0
96,99,1,0,0
97,99,1,0,0
98,99,1,0,0
99,99,1,0,0
100,99,1,0,0
101,99,1,0,0
102,99,1,0,0
103,99,1,0,0
104,99,1,0,0
105,99,1,0,0
106,99,1,0,0
107,99,1,0,0
108,99,1,0,0
109,99,1,0,0
110,99,1,0,0
111,99,1,0,0
112,99,1,0,0
113,99,1,0,0
114,99,1,0,0
115,99,1,0,0
116,99,1,0,0
117,99,1,0,0
118,99,1,0,0
119,99,1,0,0
120,99,1,0,0
121,99,1,0,0
122,99,1,0,0
123,99,1,0,0
124,99,1,0,0
125,99,1,0,0
126,99,1,0,0
127,99,1,0,0
128,99,1,0,0
129,99,1,0,0
130,99,1,0,0
131,99,1,0,0
132,99,1,0,0
133,99,1,0,0
134,99,1,0,0
135,99,1,0,0
136,99,1,0,0
137,99,1,0,0
138,99,1,0,0
139,99,1,0,0
140,99,1,0,0
141,99,1,0,0
142,99,1,0,0
143,99,1,0,0
144,99,1,0,0
145,99,1,0,0
146,99,1,0,0
147,99,1,0,0
148,99,1,0,0
149,99,1,0,0
150,99,1,0,0
151,99,1,0,0
152,99,1,0,0
153,99,1,0,0
154,99,1,0,0
155,99,1,0,0
156,99,1,0,0
157,99,1,0,0
158,99,1,0,0
159,99,1,0,0
160,99,1,0,0
161,99,1,0,0
162,99,1,0,0
163,99,1,0,0
164,99,1,0,0
165,99,1,0,0
166,99,1,0,0
167,99,1,0,0
168,99,1,0,0
169,99,1,0,0
170,99,1,0,0
171,99,1,0,0
172,99,1,0,0
173,99,1,0,0
174,99,1,0,0
175,99,1,0,0
176,99,1,0,0
177,99,1,0,0
178,99,1,0,0
179,99,1,0,0
180,99,1,0,0
181,99,1,0,0
182,99,1,0,0
183,99,1,0,0
184,99,1,0,0
185,99,1,0,0
186,99,1,0,0
187,99,1,0,0
188,99,1,0,0
189,99,1,0,0
190,99,1,0,0
191,99,1,0,0
192,99,1,0,0
193,99,1,0,0
194,99,1,0,0
195,99,1,0,0
196,99,1,0,0
197,99,1,0,0
198,99,1,0,0
199,99,1,0,0
200,99,1,0,0
201,99,0,1,0
202,99,0,1,0
203,99,0,1,0
204,99,0,1,0
205,99,0,1,0
206,99,0,1,0
207,99,0,1,0
208,99,0,1,0
209,99,0,1,0
210,99,0,1,0
211,99,0,1,0
212,99,0,1,0
213,99,0,1,0
214,99,0,1,0
215,99,0,1,0
216,99,0,1,0
217,99,0,1,0
218,99,0,1,0
219,99,0,1,0
220,99,0,1,0
221,99,0,1,0
222,99,0,1,0
223,99,0,1,0
224,99,0,1,0
225,99,0,1,0
226,99,0,1,0
227,99,0,1,0
228,99,0,1,0
229,99,0,1,0
230,99,0,1,0
231,99,0,1,0
232,99,0,1,0
233,99,0,1,0
234,99,0,1,0
235,99,0,1,0
236,99,0,1,0
237,99,0,1,0
238,99,0,1,0
239,99,0,1,0
240,99,0,1,0
241,99,0,1,0
242,99,0,1,0
243,99,0,1,0
244,99,0,1,0
245,99,0,1,0
246,99,0,1,0
247,99,0,1,0
248,99,0,1,0
249,99,0,1,0
250,99,0,1,0
251,99,0,1,0
252,99,0,1,0
253,99,0,1,0
254,99,0,1,0
255,99,0,1,0
256,99,0,1,0
257,99,0,1,0
258,99,0,1,0
259,99,0,1,0
260,99,0,1,0
261,99,0,1,0
262,99,0,1,0
263,99,0,1,0
264,99,0,1,0
265,99,0,1,0
266,99,0,1,0
267,99,0,1,0
268,99,0,1,0
269,99,0,1,0
270,99,0,1,0
271,99,0,1,0
272,99,0,1,0
273,99,0,1,0
274,99,0,1,0
275,99,0,1,0
276,99,0,1,0
277,99,0,1,0
278,99,0,1,0
279,99,0,1,0
280,99,0,1,0
281,99,0,1,0
282,99,0,1,0
283,99,0,1,0
284,99,0,1,0
285,99,0,1,0
286,99,0,1,0
287,99,0,1,0
288,99,0,1,0
289,99,0,1,0
290,99,0,1,0
291,99,0,1,0
292,99,0,1,0
293,99,0,1,0
294,99,0,1,0
295,99,0,1,0
296,99,0,1,0
297,99,0,1,0
298,99,0,1,0
299,99,0,1,0
300,99,0,1,0
301,99,0,1,0
302,99,0,1,0
303,98,1,1,0
304,98,1,1,0
305,98,1,1,0
306,98,1,1,0
307,98,1,1,0
308,98,1,1,0
309,98,1,1,0
310,98,1,1,0
311,98,1,1,0
312,98,1,1,0
313,98,1,1,0
314,98,1,1,0
315,98,1,1,0
316,98,1,1,0
317,98,1,1,0
318,98,1,1,0
319,98,1,1,0
320,98,1,1,0
321,98,1,1,0
322,98,1,1,0
323,98,1,1,0
324,98,1,1,0
325,98,1,1,0
326,98,1,1,0
327,98,1,1,0
328,98,1,1,0
329,98,1,1,0
330,98,1,1,0
331,98,1,1,0
332,98,1,1,0
333,98,1,1,0
334,98,1,1,0
335,98,1,1,0
336,98,1,1,0
337,98,1,1,0
338,98,1,1,0
339,98,1,1,0
340,98,1,1,0
341,98,1,1,0
342,98,1,1,0
343,98,1,1,0
344,98,1,1,0
345,98,1,1,0
346,98,1,1,0
347,98,1,1,0
348,98,1,1,0
349,98,1,1,0
350,98,1,1,0
351,98,1,1,0
352,98,1,1,0
353,98,1,1,0
354,98,1,1,0
355,98,1,1,0
356,98,1,1,0
357,98,1,1,0
358,98,1,1,0
359,98,1,1,0
360,98,1,1,0
361,98,1,1,0
362,98,1,1,0
363,98,1,1,0
364,98,1,1,0
365,98,1,1,0
366,98,1,1,0
367,98,1,1,0
368,98,1,1,0
369,98,1,1,0
370,97,2,1,0
371,97,2,1,0
372,97,2,1,0
373,97,2,1,0
374,97,2,1,0
375,97,2,1,0
376,97,2,1,0
377,97,2,1,0
378,97,2,1,0
379,97,2,1,0
380,97,2,1,0
381,97,2,1,0
382,97,2,1,0
383,97,2,1,0
384,97,2,1,0
385,97,2,1,0
386,97,2,1,0
387,97,2,1,0
388,97,2,1,0
389,97,2,1,0
390,97,2,1,0
391,97,2,1,0
392,97,2,1,0
393,97,2,1,0
394,97,2,1,0
395,97,2,1,0
396,97,2,1,0
397,97,2,1,0
398,97,2,1,0
399,97,2,1,0
400,97,2,1,0
401,97,2,1,0
402,97,2,0,1
403,97,2,0,1
404,97,2,0,1
405,97,2,0,1
406,97,2,0,1
407,97,2,0,1
408,97,2,0,1
409,97,2,0,1
410,97,2,0,1
411,97,2,0,1
412,97,2,0,1
413,97,2,0,1
414,97,2,0,1
415,97,2,0,1
416,97,2,0,1
417,97,2,0,1
418,97,2,0,1
419,97,2,0,1
420,97,2,0,1
421,97,2,0,1
422,97,2,0,1
423,97,2,0,1
424,97,2,0,1
425,97,2,0,1
426,97,2,0,1
427,97,2,0,1
428,97,2,0,1
429,97,2,0,1
430,97,2,0,1
431,97,2,0,1
432,97,2,0,1
433,97,2,0,1
434,97,2,0,1
435,97,2,0,1
436,97,2,0,1
437,97,2,0,1
438,97,2,0,1
439,97,2,0,1
440,97,2,0,1
441,97,2,0,1
442,97,2,0,1
443,97,2,0,1
444,97,2,0,1
445,97,2,0,1
446,97,2,0,1
447,97,2,0,1
448,97,2,0,1
449,97,2,0,1
450,97,2,0,1
451,97,2,0,1
452,97,2,0,1
453,97,2,0,1
454,97,2,0,1
455,97,2,0,1
456,97,2,0,1
457,97,2,0,1
458,97,2,0,1
459,97,2,0,1
460,97,2,0,1
461,97,2,0,1
462,97,2,0,1
463,97,2,0,1
464,97,2,0,1
465,97,2,0,1
466,97,2,0,1
467,97,2,0,1
468,97,2,0,1
469,97,2,0,1
470,97,2,0,1
471,97,2,0,1
472,97,2,0,1
473,97,2,0,1
474,97,2,0,1
475,97,2,0,1
476,97,2,0,1
477,97,2,0,1
478,97,2,0,1
479,97,2,0,1
480,97,2,0,1
481,97,2,0,1
482,97,2,0,1
483,97,2,0,1
484,97,2,0,1
485,97,2,0,1
486,97,2,0,1
487,97,2,0,1
488,97,2,0,1
489,97,2,0,1
490,97,2,0,1
491,97,2,0,1
492,97,2,0,1
493,97,2,0,1
494,97,2,0,1
495,97,2,0,1
496,97,2,0,1
497,97,2,0,1
498,97,2,0,1
499,97,2,0,1
500,97,2,0,1
501,97,2,0,1
502,97,2,0,1
503,97,2,0,1
504,97,1,1,1
505,96,2,1,1
506,95,3,1,1
507,94,4,1,1
508,94,4,1,1
509,94,4,1,1
510,94,4,1,1
511,94,4,1,1
512,93,5,1,1
513,93,5,1,1
514,93,5,1,1
515,93,5,1,1
516,93,5,1,1
517,93,5,1,1
518,93,5,1,1
519,93,5,1,1
520,93,5,1,1
521,93,5,1,1
522,93,5,1,1
523,93,5,1,1
524,93,5,1,1
525,93,5,1,1
526,93,5,1,1
527,93,5,1,1
528,93,5,1,1
529,93,5,1,1
530,93,5,1,1
531,93,5,1,1
532,93,5,1,1
533,93,5,1,1
534,93,5,1,1
535,93,5,1,1
536,93,5,1,1
537,93,5,1,1
538,93,5,1,1
539,93,5,1,1
540,93,5,1,1
541,93,5,1,1
542,93,5,1,1
543,93,5,1,1
544,93,5,1,1
545,93,5,1,1
546,93,5,1,1
547,93,5,1,1
548,93,5,1,1
549,93,5,1,1
550,93,5,1,1
551,93,5,1,1
552,93,5,1,1
553,93,5,1,1
554,93,5,1,1
555,93,5,1,1
556,93,5,1,1
557,93,5,1,1
558,93,5,1,1
559,93,5,1,1
560,93,5,1,1
561,93,5,1,1
562,93,5,1,1
563,92,6,1,1
564,92,6,1,1
565,92,6,1,1
566,92,6,1,1
567,92,6,1,1
568,92,6,1,1
569,92,6,1,1
570,91,7,1,1
571,91,6,2,1
572,91,6,2,1
573,91,6,2,1
574,91,6,2,1
575,91,6,2,1
576,91,6,2,1
577,91,6,2,1
578,91,6,2,1
579,91,6,2,1
580,91,6,2,1
581,91,6,2,1
582,91,6,2,1
583,91,6,2,1
584,91,6,2,1
585,91,6,2,1
586,91,6,2,1
587,91,6,2,1
588,91,6,2,1
589,91,6,2,1
590,91,6,2,1
591,91,6,2,1
592,91,6,2,1
593,91,6,2,1
594,91,6,2,1
595,91,6,2,1
596,91,6,2,1
597,91,6,2,1
598,91,6,2,1
599,91,6,2,1
600,91,6,2,1
601,91,6,2,1
602,91,6,2,1
603,91,6,2,1
604,91,6,2,1
605,91,6,2,1
606,91,6,2,1
607,91,6,2,1
608,91,6,2,1
609,91,6,2,1
610,91,6,2,1
611,91,6,2,1
612,91,6,2,1
613,91,6,2,1
614,91,6,2,1
615,91,6,2,1
616,91,6,2,1
617,91,6,2,1
618,91,6,2,1
619,91,6,2,1
620,91,6,2,1
621,91,6,2,1
622,91,6,2,1
623,91,6,2,1
624,91,6,2,1
625,91,6,2,1
626,91,6,2,1
627,91,6,2,1
628,91,6,2,1
629,91,6,2,1
630,91,6,2,1
631,91,6,2,1
632,91,6,2,1
633,91,6,2,1
634,91,6,2,1
635,91,6,2,1
636,91,6,2,1
637,91,6,2,1
638,91,6,2,1
639,90,7,2,1
640,89,8,2,1
641,89,8,2,1
642,89,8,2,1
643,89,8,2,1
644,89,8,2,1
645,89,8,2,1
646,89,8,2,1
647,89,8,2,1
648,89,8,2,1
649,89,8,2,1
650,89,8,2,1
651,89,8,2,1
652,89,8,2,1
653,89,8,2,1
654,89,8,2,1
655,89,8,2,1
656,89,8,2,1
657,89,8,2,1
658,89,8,2,1
659,89,8,2,1
660,89,8,2,1
661,89,8,2,1
662,89,8,2,1
663,89,8,2,1
664,88,9,2,1
665,88,9,2,1
666,88,9,2,1
667,88,9,2,1
668,88,9,2,1
669,88,9,2,1
670,88,9,2,1
671,88,9,2,1
672,88,9,2,1
673,88,9,2,1
674,88,9,2,1
675,88,9,2,1
676,88,9,2,1
677,88,9,2,1
678,88,9,2,1
679,88,9,2,1
680,88,9,2,1
681,88,9,2,1
682,88,9,2,1
683,88,9,2,1
684,88,9,2,1
685,88,9,2,1
686,88,9,2,1
687,88,9,2,1
688,88,9,2,1
689,88,9,2,1
690,88,9,2,1
691,88,9,2,1
692,88,9,2,1
693,88,9,2,1
694,88,9,2,1
695,88,9,2,1
696,88,9,2,1
697,88,9,2,1
698,88,9,2,1
699,88,9,2,1
700,88,9,2,1
701,88,9,2,1
702,88,9,2,1
703,88,9,2,1
704,88,9,2,1
705,88,9,1,2
706,88,8,2,2
707,87,8,3,2
708,87,7,4,2
709,87,7,4,2
710,87,7,4,2
711,87,7,4,2
712,87,7,4,2
713,86,7,5,2
714,86,7,5,2
715,86,7,5,2
716,86,7,5,2
717,86,7,5,2
718,86,7,5,2
719,86,7,5,2
720,86,7,5,2
721,86,7,5,2
722,86,7,5,2
723,86,7,5,2
724,86,7,5,2
725,86,7,5,2
726,86,7,5,2
727,86,7,5,2
728,85,8,5,2
729,85,8,5,2
730,85,8,5,2
731,85,8,5,2
732,85,8,5,2
733,85,8,5,2
734,85,8,5,2
735,85,8,5,2
736,85,8,5,2
737,85,8,5,2
738,85,8,5,2
739,85,8,5,2
740,85,8,5,2
741,85,8,5,2
742,84,9,5,2
743,84,9,5,2
744,84,9,5,2
745,84,9,5,2
746,84,9,5,2
747,84,9,5,2
748,84,9,5,2
749,84,9,5,2
750,84,9,5,2
751,84,9,5,2
752,84,9,5,2
753,84,9,5,2
754,84,9,5,2
755,84,9,5,2
756,84,9,5,2
757,84,9,5,2
758,84,9,5,2
759,84,9,5,2
760,84,9,5,2
761,84,9,5,2
762,84,9,5,2
763,84,9,5,2
764,84,8,6,2
765,83,9,6,2
766,83,9,6,2
767,83,9,6,2
768,82,10,6,2
769,82,10,6,2
770,82,10,6,2
771,82,9,7,2
772,82,9,6,3
773,82,9,6,3
774,82,9,6,3
775,82,9,6,3
776,82,9,6,3
777,82,9,6,3
778,82,9,6,3
779,82,9,6,3
780,82,9,6,3
781,81,10,6,3
782,81,10,6,3
783,81,10,6,3
784,81,10,6,3
785,81,10,6,3
786,81,10,6,3
787,81,10,6,3
788,81,10,6,3
789,81,10,6,3
790,81,10,6,3
791,81,10,6,3
792,81,10,6,3
793,81,10,6,3
794,81,10,6,3
795,81,10,6,3
796,81,10,6,3
797,81,10,6,3
798,81,10,6,3
799,81,10,6,3
800,81,10,6,3
801,81,10,6,3
802,81,10,6,3
803,81,10,6,3
804,81,10,6,3
805,81,10,6,3
806,81,10,6,3
807,81,10,6,3
808,81,10,6,3
809,81,10,6,3
810,81,10,6,3
811,81,10,6,3
812,81,10,6,3
813,81,10,6,3
814,81,10,6,3
815,81,10,6,3
816,81,10,6,3
817,81,10,6,3
818,81,10,6,3
819,81,10,6,3
820,81,10,6,3
821,81,10,6,3
822,81,10,6,3
823,81,10,6,3
824,81,10,6,3
825,81,10,6,3
826,81,10,6,3
827,81,10,6,3
828,81,10,6,3
829,81,10,6,3
830,81,10,6,3
831,81,10,6,3
832,81,10,6,3
833,81,10,6,3
834,81,10,6,3
835,81,10,6,3
836,80,11,6,3
837,80,11,6,3
838,80,11,6,3
839,80,11,6,3
840,80,10,7,3
841,80,9,8,3
842,80,9,8,3
843,80,9,8,3
844,79,10,8,3
845,79,10,8,3
846,79,10,8,3
847,79,10,8,3
848,79,10,8,3
849,79,10,8,3
850,79,10,8,3
851,79,10,8,3
852,79,10,8,3
853,79,10,8,3
854,79,10,8,3
855,79,10,8,3
856,79,10,8,3
857,79,10,8,3
858,79,10,8,3
859,79,10,8,3
860,79,10,8,3
861,79,10,8,3
862,79,10,8,3
863,79,10,8,3
864,79,10,8,3
865,79,9,9,3
866,79,9,9,3
867,79,9,9,3
868,79,9,9,3
869,79,9,9,3
870,79,9,9,3
871,79,9,9,3
872,79,9,9,3
873,79,9,9,3
874,79,9,9,3
875,79,9,9,3
876,79,9,9,3
877,79,9,9,3
878,79,9,9,3
879,79,9,9,3
880,79,9,9,3
881,79,9,9,3
882,79,9,9,3
883,79,9,9,3
884,78,10,9,3
885,78,10,9,3
886,78,10,9,3
887,78,10,9,3
888,78,10,9,3
889,78,10,9,3
890,78,10,9,3
891,78,10,9,3
892,78,10,9,3
893,78,10,9,3
894,78,10,9,3
895,78,10,9,3
896,77,11,9,3
897,77,11,9,3
898,77,11,9,3
899,77,11,9,3
900,77,11,9,3
901,77,11,9,3
902,77,11,9,3
903,77,11,9,3
904,77,11,9,3
905,77,11,9,3
906,77,11,9,3
907,77,11,8,4
908,77,10,8,5
909,77,10,7,6
910,77,10,7,6
911,77,10,7,6
912,77,10,7,6
913,77,10,7,6
914,77,9,7,7
915,77,9,7,7
916,77,9,7,7
917,77,9,7,7
918,76,10,7,7
919,76,10,7,7
920,76,10,7,7
921,76,10,7,7
922,76,10,7,7
923,76,10,7,7
924,76,10,7,7
925,76,10,7,7
926,76,10,7,7
927,76,10,7,7
928,76,10,7,7
929,76,9,8,7
930,75,10,8,7
931,75,10,8,7
932,75,10,8,7
933,74,11,8,7
934,74,11,8,7
935,73,12,8,7
936,73,12,8,7
937,73,12,8,7
938,72,13,8,7
939,72,13,8,7
940,71,14,8,7
941,71,14,8,7
942,71,14,8,7
943,71,13,9,7
944,69,15,9,7
945,69,15,9,7
946,69,15,9,7
947,69,15,9,7
948,69,15,9,7
949,69,15,9,7
950,69,15,9,7
951,69,15,9,7
952,68,16,9,7
953,68,16,9,7
954,68,16,9,7
955,68,16,9,7
956,68,16,9,7
957,68,16,9,7
958,68,16,9,7
959,68,16,9,7
960,68,16,9,7
961,68,16,9,7
962,68,16,9,7
963,68,16,9,7
964,68,16,9,7
965,67,17,8,8
966,67,16,9,8
967,67,16,9,8
968,67,16,9,8
969,67,15,10,8
970,67,15,10,8
971,66,16,10,8
972,66,16,9,9
973,66,16,9,9
974,66,16,9,9
975,66,16,9,9
976,66,16,9,9
977,66,16,9,9
978,66,16,9,9
979,65,17,9,9
980,65,17,9,9
981,65,17,9,9
982,65,16,10,9
983,65,16,10,9
984,65,16,10,9
985,65,16,10,9
986,65,16,10,9
987,64,17,10,9
988,64,17,10,9
989,64,17,10,9
990,64,17,10,9
991,64,17,10,9
992,64,17,10,9
993,64,17,10,9
994,64,17,10,9
995,64,17,10,9
996,64,17,10,9
997,64,17,10,9
998,64,17,10,9
999,64,17,10,9
1000,64,17,10,9
1001,64,17,10,9
1002,64,17,10,9
1003,64,17,10,9
1004,64,17,10,9
1005,64,17,10,9
1006,64,17,10,9
1007,63,18,10,9
1008,63,18,10,9
1009,63,18,10,9
1010,63,18,10,9
1011,63,18,10,9
1012,63,18,10,9
1013,63,18,10,9
1014,63,18,10,9
1015,63,18,10,9
1016,62,19,10,9
1017,62,19,10,9
1018,62,19,10,9
1019,62,19,10,9
1020,62,19,10,9
1021,62,19,10,9
1022,62,19,10,9
1023,62,19,10,9
1024,62,19,10,9
1025,62,19,10,9
1026,62,19,10,9
1027,61,20,10,9
1028,61,20,10,9
1029,61,20,10,9
1030,61,20,10,9
1031,61,20,10,9
1032,61,20,10,9
1033,61,20,10,9
1034,61,20,10,9
1035,61,20,10,9
1036,61,20,10,9
1037,60,20,11,9
1038,60,20,11,9
1039,60,20,11,9
1040,60,20,11,9
1041,60,20,10,10
1042,60,20,9,11
1043,60,20,9,11
1044,60,20,9,11
1045,60,19,10,11
1046,59,20,10,11
1047,59,20,10,11
1048,58,21,10,11
1049,58,21,10,11
1050,57,22,10,11
1051,56,23,10,11
1052,56,23,10,11
1053,55,24,10,11
1054,54,25,10,11
1055,54,25,10,11
1056,54,25,10,11
1057,54,25,10,11
1058,54,25,10,11
1059,54,25,10,11
1060,54,25,10,11
1061,54,25,10,11
1062,54,25,10,11
1063,54,25,10,11
1064,54,25,10,11
1065,54,25,10,11
1066,54,25,9,12
1067,54,25,9,12
1068,54,25,9,12
1069,54,25,9,12
1070,54,25,9,12
1071,54,25,9,12
1072,54,25,9,12
1073,54,25,9,12
1074,54,25,9,12
1075,54,25,9,12
1076,54,25,9,12
1077,54,25,9,12
1078,54,25,9,12
1079,54,25,9,12
1080,54,25,9,12
1081,54,25,9,12
1082,54,25,9,12
1083,54,25,9,12
1084,54,25,9,12
1085,54,24,10,12
1086,54,24,10,12
1087,54,24,10,12
1088,54,24,10,12
1089,54,24,10,12
1090,54,24,10,12
1091,54,24,10,12
1092,53,25,10,12
1093,53,25,10,12
1094,53,25,10,12
1095,53,25,10,12
1096,53,25,10,12
1097,53,24,11,12
1098,53,24,11,12
1099,53,24,11,12
1100,53,24,11,12
1101,53,24,11,12
1102,53,24,11,12
1103,53,24,11,12
1104,53,24,11,12
1105,53,24,11,12
1106,53,24,11,12
1107,53,24,11,12
1108,53,24,11,12
1109,53,24,10,13
1110,53,24,10,13
1111,53,24,10,13
1112,53,24,10,13
1113,52,25,10,13
1114,52,25,10,13
1115,52,25,9,14
1116,52,25,9,14
1117,52,25,9,14
1118,52,25,9,14
1119,52,24,10,14
1120,52,24,10,14
1121,52,24,10,14
1122,52,24,10,14
1123,52,24,10,14
1124,52,24,10,14
1125,50,26,10,14
1126,50,26,10,14
1127,50,26,10,14
1128,50,26,10,14
1129,50,26,10,14
1130,50,26,9,15
1131,50,25,10,15
1132,50,25,10,15
1133,50,25,10,15
1134,50,24,11,15
1135,50,24,11,15
1136,50,23,12,15
1137,50,23,12,15
1138,50,23,12,15
1139,49,23,13,15
1140,48,24,13,15
1141,48,23,14,15
1142,48,23,14,15
1143,48,23,14,15
1144,48,23,13,16
1145,48,21,15,16
1146,48,21,15,16
1147,48,21,15,16
1148,48,21,15,16
1149,48,21,15,16
1150,48,21,15,16
1151,48,21,15,16
1152,48,21,15,16
1153,47,21,16,16
1154,46,22,16,16
1155,46,22,16,16
1156,46,22,16,16
1157,46,22,16,16
1158,46,22,16,16
1159,46,22,16,16
1160,46,22,16,16
1161,46,22,16,16
1162,46,22,16,16
1163,46,22,16,16
1164,46,22,16,16
1165,46,22,16,16
1166,46,21,17,16
1167,46,21,16,17
1168,45,22,16,17
1169,45,22,16,17
1170,45,22,15,18
1171,45,22,15,18
1172,45,21,16,18
1173,45,21,16,18
1174,45,21,16,18
1175,45,21,16,18
1176,44,22,16,18
1177,43,23,16,18
1178,43,23,16,18
1179,43,23,16,18
1180,43,22,17,18
1181,43,22,17,18
1182,42,23,17,18
1183,42,23,16,19
1184,42,23,16,19
1185,42,23,16,19
1186,42,23,16,19
1187,42,23,16,19
1188,42,22,17,19
1189,42,22,17,19
1190,42,22,17,19
1191,42,22,17,19
1192,42,22,17,19
1193,41,23,17,19
1194,41,23,17,19
1195,41,23,17,19
1196,41,23,17,19
1197,41,23,17,19
1198,41,23,17,19
1199,41,23,17,19
1200,41,23,17,19
1201,41,23,17,19
1202,41,23,17,19
1203,41,23,17,19
1204,41,23,17,19
1205,41,23,17,19
1206,41,23,17,19
1207,41,23,17,19
1208,41,22,18,19
1209,40,23,18,19
1210,40,23,18,19
1211,40,23,18,19
1212,40,23,18,19
1213,40,23,18,19
1214,40,23,18,19
1215,40,23,18,19
1216,40,23,18,19
1217,40,22,19,19
1218,40,22,19,19
1219,40,22,19,19
1220,40,22,19,19
1221,40,22,19,19
1222,40,22,19,19
1223,40,22,19,19
1224,40,22,19,19
1225,40,22,19,19
1226,40,22,19,19
1227,40,22,19,19
1228,40,21,20,19
1229,40,21,20,19
1230,40,21,20,19
1231,39,22,20,19
1232,39,22,20,19
1233,39,22,20,19
1234,39,22,20,19
1235,39,22,20,19
1236,38,23,20,19
1237,38,23,20,19
1238,37,23,20,20
1239,36,24,20,20
1240,36,24,20,20
1241,36,24,20,20
1242,36,24,20,20
1243,36,24,20,20
1244,36,24,20,20
1245,36,24,20,20
1246,36,24,19,21
1247,36,23,20,21
1248,36,23,20,21
1249,36,22,21,21
1250,36,22,21,21
1251,36,21,22,21
1252,36,20,23,21
1253,36,20,23,21
1254,36,19,24,21
1255,36,18,25,21
1256,36,18,25,21
1257,36,18,25,21
1258,36,18,25,21
1259,36,18,25,21
1260,36,18,25,21
1261,36,18,25,21
1262,36,18,25,21
1263,36,18,25,21
1264,36,18,25,21
1265,36,18,25,21
1266,36,18,25,21
1267,36,18,25,21
1268,35,19,25,21
1269,35,19,25,21
1270,34,20,25,21
1271,34,20,25,21
1272,34,20,25,21
1273,34,20,25,21
1274,34,20,25,21
1275,34,20,25,21
1276,34,20,25,21
1277,34,20,25,21
1278,34,20,25,21
1279,34,20,25,21
1280,33,21,25,21
1281,33,21,25,21
1282,33,21,25,21
1283,33,21,25,21
1284,33,21,25,21
1285,33,21,25,21
1286,33,21,24,22
1287,33,21,24,22
1288,33,21,24,22
1289,33,21,24,22
1290,33,21,24,22
1291,33,21,24,22
1292,33,21,24,22
1293,33,20,25,22
1294,33,20,25,22
1295,33,20,25,22
1296,33,20,25,22
1297,33,20,25,22
1298,32,21,24,23
1299,32,21,24,23
1300,32,21,24,23
1301,32,21,24,23
1302,32,21,24,23
1303,32,21,24,23
1304,31,22,24,23
1305,31,22,24,23
1306,31,22,24,23
1307,31,22,24,23
1308,31,22,24,23
1309,31,22,24,23
1310,31,22,24,23
1311,31,22,24,23
1312,31,22,24,23
1313,31,22,24,23
1314,31,21,25,23
1315,31,21,25,23
1316,31,21,25,23
1317,31,21,25,23
1318,31,21,25,23
1319,31,21,25,23
1320,31,21,24,24
1321,31,21,24,24
1322,31,21,24,24
1323,30,22,24,24
1324,30,22,24,24
1325,30,22,24,24
1326,30,20,26,24
1327,30,20,26,24
1328,30,20,26,24
1329,30,20,26,24
1330,30,20,26,24
1331,30,20,26,24
1332,30,20,25,25
1333,30,20,25,25
1334,30,20,25,25
1335,30,20,24,26
1336,30,20,24,26
1337,30,20,23,27
1338,30,20,23,27
1339,30,20,23,27
1340,30,19,23,28
1341,30,18,24,28
1342,30,18,23,29
1343,30,18,23,29
1344,30,18,23,29
1345,29,19,23,29
1346,29,19,21,31
1347,29,19,21,31
1348,29,19,21,31
1349,29,19,21,31
1350,28,20,21,31
1351,28,20,21,31
1352,28,20,21,31
1353,27,21,21,31
1354,27,20,21,32
1355,27,19,22,32
1356,27,19,22,32
1357,27,19,22,32
1358,27,19,22,32
1359,27,19,22,32
1360,27,19,22,32
1361,27,19,22,32
1362,27,19,22,32
1363,27,19,22,32
1364,27,19,22,32
1365,27,19,22,32
1366,27,19,22,32
1367,27,19,21,33
1368,27,19,21,33
1369,27,18,22,33
1370,27,18,22,33
1371,27,18,22,33
1372,26,19,22,33
1373,26,19,21,34
1374,26,19,21,34
1375,26,19,21,34
1376,26,19,21,34
1377,26,18,22,34
1378,26,17,23,34
1379,26,17,23,34
1380,26,17,23,34
1381,26,17,22,35
1382,26,17,22,35
1383,26,16,23,35
1384,26,16,23,35
1385,26,16,23,35
1386,26,16,23,35
1387,25,17,23,35
1388,24,18,23,35
1389,24,18,22,36
1390,24,18,22,36
1391,24,18,22,36
1392,24,18,22,36
1393,24,18,22,36
1394,24,17,23,36
1395,24,17,23,36
1396,24,17,23,36
1397,24,17,23,36
1398,24,17,23,36
1399,24,17,23,36
1400,24,17,23,36
1401,24,17,23,36
1402,24,17,23,36
1403,24,17,23,36
1404,24,17,23,36
1405,24,17,23,36
1406,24,17,23,36
1407,24,17,23,36
1408,23,18,23,36
1409,23,18,22,37
1410,23,17,23,37
1411,22,18,23,37
1412,22,18,23,37
1413,22,18,23,37
1414,22,18,23,37
1415,22,18,23,37
1416,22,18,23,37
1417,22,18,23,37
1418,22,18,22,38
1419,22,18,22,38
1420,22,18,22,38
1421,22,18,22,38
1422,22,18,22,38
1423,22,18,22,38
1424,22,18,22,38
1425,22,18,22,38
1426,22,18,22,38
1427,22,18,22,38
1428,22,18,22,38
1429,22,18,21,39
1430,22,18,21,39
1431,22,18,21,39
1432,22,17,22,39
1433,22,17,22,39
1434,22,17,22,39
1435,22,17,22,39
1436,22,17,22,39
1437,22,16,23,39
1438,22,16,23,39
1439,22,15,23,40
1440,22,14,24,40
1441,22,14,24,40
1442,22,14,24,40
1443,22,14,24,40
1444,22,14,24,40
1445,21,15,24,40
1446,21,15,24,40
1447,21,15,24,40
1448,21,15,23,41
1449,21,15,23,41
1450,21,15,22,42
1451,21,15,22,42
1452,21,15,21,43
1453,21,15,20,44
1454,21,15,20,44
1455,21,15,19,45
1456,21,15,18,46
1457,21,15,18,46
1458,21,15,18,46
1459,21,15,18,46
1460,21,15,18,46
1461,21,15,18,46
1462,21,15,18,46
1463,21,15,18,46
1464,21,15,18,46
1465,21,15,18,46
1466,21,15,18,46
1467,21,15,18,46
1468,20,16,18,46
1469,20,15,19,46
1470,20,15,19,46
1471,20,14,20,46
1472,20,14,20,46
1473,20,14,20,46
1474,20,14,20,46
1475,20,14,20,46
1476,20,14,20,46
1477,20,14,20,46
1478,20,14,20,46
1479,20,14,20,46
1480,20,14,20,46
1481,20,13,21,46
1482,20,13,21,46
1483,20,13,21,46
1484,20,13,21,46
1485,19,14,21,46
1486,19,14,21,46
1487,19,14,21,46
1488,19,14,21,46
1489,19,14,21,46
1490,19,14,21,46
1491,19,14,21,46
1492,19,14,21,46
1493,19,14,21,46
1494,19,14,20,47
1495,19,14,20,47
1496,19,14,20,47
1497,19,14,20,47
1498,19,14,20,47
1499,19,13,21,47
1500,19,13,21,47
1501,19,13,21,47
1502,19,13,21,47
1503,19,13,21,47
1504,19,13,21,47
1505,19,12,22,47
1506,19,12,22,47
1507,19,12,22,47
1508,19,12,22,47
1509,19,12,22,47
1510,19,12,22,47
1511,19,12,22,47
1512,19,12,22,47
1513,19,12,22,47
1514,19,12,22,47
1515,19,12,21,48
1516,19,12,21,48
1517,19,12,21,48
1518,19,12,21,48
1519,19,12,21,48
1520,19,12,21,48
1521,19,12,21,48
1522,19,12,21,48
1523,19,12,21,48
1524,19,11,22,48
1525,19,11,22,48
1526,19,11,22,48
1527,19,11,20,50
1528,19,11,20,50
1529,19,11,20,50
1530,19,11,20,50
1531,19,11,20,50
1532,19,11,20,50
1533,19,11,20,50
1534,19,11,20,50
1535,19,11,20,50
1536,19,11,20,50
1537,19,11,20,50
1538,19,11,20,50
1539,19,11,20,50
1540,19,11,20,50
1541,19,11,19,51
1542,19,11,18,52
1543,19,11,18,52
1544,19,11,18,52
1545,19,11,18,52
1546,19,10,19,52
1547,19,10,19,52
1548,19,10,19,52
1549,19,10,19,52
1550,19,10,19,52
1551,19,9,20,52
1552,19,9,20,52
1553,19,9,20,52
1554,19,8,21,52
1555,19,8,20,53
1556,19,8,19,54
1557,19,8,19,54
1558,19,8,19,54
1559,19,8,19,54
1560,19,8,19,54
1561,19,8,19,54
1562,19,8,19,54
1563,19,8,19,54
1564,18,9,19,54
1565,18,9,19,54
1566,18,9,19,54
1567,18,9,19,54
1568,18,9,19,54
1569,17,10,19,54
1570,17,10,18,55
1571,17,10,18,55
1572,17,10,18,55
1573,17,9,19,55
1574,17,9,19,55
1575,17,9,19,55
1576,17,9,19,55
1577,17,9,19,55
1578,17,9,18,56
1579,17,9,17,57
1580,17,9,17,57
1581,17,9,17,57
1582,17,9,17,57
1583,17,9,17,57
1584,17,9,16,58
1585,17,9,16,58
1586,17,9,16,58
1587,17,9,16,58
1588,17,8,17,58
1589,17,7,18,58
1590,17,7,18,58
1591,17,7,18,58
1592,17,7,18,58
1593,17,7,18,58
1594,17,7,18,58
1595,17,7,17,59
1596,17,7,17,59
1597,17,7,17,59
1598,17,7,17,59
1599,17,7,17,59
1600,17,7,17,59
1601,17,7,17,59
1602,17,7,17,59
1603,17,7,17,59
1604,17,7,17,59
1605,17,7,17,59
1606,17,7,17,59
1607,17,7,17,59
1608,17,7,17,59
1609,17,6,18,59
1610,17,6,18,59
1611,16,7,17,60
1612,15,7,18,60
1613,15,7,18,60
1614,15,7,18,60
1615,15,7,18,60
1616,15,7,18,60
1617,15,7,18,60
1618,15,7,18,60
1619,15,7,18,60
1620,15,7,18,60
1621,15,7,18,60
1622,15,7,18,60
1623,15,7,18,60
1624,15,7,18,60
1625,15,7,18,60
1626,15,7,18,60
1627,14,8,18,60
1628,14,8,18,60
1629,14,8,18,60
1630,14,8,18,60
1631,14,8,18,60
1632,14,8,18,60
1633,14,8,17,61
1634,14,8,17,61
1635,14,8,17,61
1636,14,8,17,61
1637,14,8,17,61
1638,14,8,16,62
1639,14,8,16,62
1640,14,8,15,63
1641,14,8,14,64
1642,14,8,14,64
1643,14,8,14,64
1644,14,8,14,64
1645,14,8,14,64
1646,14,7,15,64
1647,14,7,15,64
1648,14,7,15,64
1649,14,7,15,64
1650,14,7,15,64
1651,14,7,15,64
1652,14,7,15,64
1653,14,7,15,64
1654,14,7,15,64
1655,14,7,15,64
1656,14,7,15,64
1657,14,7,15,64
1658,14,7,15,64
1659,14,7,15,64
1660,14,7,15,64
1661,14,7,15,64
1662,14,7,15,64
1663,14,7,15,64
1664,14,7,15,64
1665,14,7,15,64
1666,14,7,15,64
1667,14,7,15,64
1668,14,7,15,64
1669,14,6,16,64
1670,14,6,15,65
1671,14,6,15,65
1672,14,6,14,66
1673,14,6,14,66
1674,14,6,14,66
1675,14,6,14,66
1676,14,6,14,66
1677,14,6,14,66
1678,14,6,14,66
1679,14,6,14,66
1680,14,6,14,66
1681,14,6,14,66
1682,14,6,13,67
1683,14,6,13,67
1684,14,6,13,67
1685,14,6,13,67
1686,14,5,14,67
1687,14,5,14,67
1688,14,5,14,67
1689,14,5,14,67
1690,14,5,14,67
1691,14,5,14,67
1692,14,5,14,67
1693,14,5,14,67
1694,14,5,14,67
1695,14,5,14,67
1696,14,5,14,67
1697,14,5,14,67
1698,14,5,14,67
1699,14,5,14,67
1700,14,5,13,68
1701,14,5,13,68
1702,14,5,13,68
1703,14,5,13,68
1704,14,5,13,68
1705,14,5,13,68
1706,14,5,12,69
1707,14,5,12,69
1708,14,5,12,69
1709,14,5,12,69
1710,14,5,12,69
1711,14,5,12,69
1712,14,5,12,69
1713,14,5,12,69
1714,14,5,12,69
1715,14,5,12,69
1716,14,5,12,69
1717,14,5,12,69
1718,14,5,12,69
1719,14,5,12,69
1720,14,5,12,69
1721,14,5,12,69
1722,14,5,12,69
1723,14,5,12,69
1724,14,5,12,69
1725,14,5,11,70
1726,14,5,11,70
1727,14,5,11,70
1728,14,5,11,70
1729,14,5,11,70
1730,14,5,11,70
1731,14,5,11,70
1732,14,5,11,70
1733,14,5,11,70
1734,14,5,11,70
1735,14,5,11,70
1736,14,5,11,70
1737,14,5,11,70
1738,14,5,11,70
1739,14,5,11,70
1740,14,5,11,70
1741,14,5,11,70
1742,14,5,11,70
1743,14,5,11,70
1744,14,5,11,70
1745,14,5,11,70
1746,14,5,11,70
1747,14,5,10,71
1748,14,5,10,71
1749,14,5,10,71
1750,14,5,10,71
1751,14,5,10,71
1752,14,5,9,72
1753,14,5,9,72
1754,14,5,9,72
1755,14,5,8,73
1756,14,5,8,73
1757,14,5,8,73
1758,14,5,8,73
1759,14,5,8,73
1760,14,5,8,73
1761,14,5,8,73
1762,14,5,8,73
1763,14,5,8,73
1764,14,5,8,73
1765,14,4,9,73
1766,14,4,9,73
1767,14,4,9,73
1768,14,4,9,73
1769,14,4,9,73
1770,14,3,10,73
1771,14,3,10,73
1772,14,3,10,73
1773,14,3,10,73
1774,14,3,9,74
1775,14,3,9,74
1776,14,3,9,74
1777,14,3,9,74
1778,14,3,9,74
1779,14,3,9,74
1780,14,3,9,74
1781,13,4,9,74
1782,13,4,9,74
1783,13,4,9,74
1784,13,4,9,74
1785,13,4,9,74
1786,13,4,9,74
1787,13,4,9,74
1788,13,4,9,74
1789,13,4,8,75
1790,13,4,7,76
1791,13,4,7,76
1792,13,4,7,76
1793,13,4,7,76
1794,13,4,7,76
1795,13,4,7,76
1796,13,4,7,76
1797,13,4,7,76
1798,13,4,7,76
1799,13,4,7,76
1800,13,4,7,76
1801,13,4,7,76
1802,13,4,7,76
1803,13,4,7,76
1804,13,4,7,76
1805,13,4,7,76
1806,13,4,7,76
1807,13,4,7,76
1808,13,4,7,76
1809,13,4,7,76
1810,13,4,6,77
1811,13,4,6,77
1812,13,3,7,77
1813,13,2,7,78
1814,13,2,7,78
1815,13,2,7,78
1816,13,2,7,78
1817,13,2,7,78
1818,13,2,7,78
1819,13,2,7,78
1820,13,2,7,78
1821,13,2,7,78
1822,13,2,7,78
1823,13,2,7,78
1824,13,2,7,78
1825,13,2,7,78
1826,13,2,7,78
1827,13,2,7,78
1828,13,1,8,78
1829,13,1,8,78
1830,13,1,8,78
1831,13,1,8,78
1832,13,1,8,78
1833,13,1,8,78
1834,13,1,8,78
1835,13,1,8,78
1836,13,1,8,78
1837,13,1,8,78
1838,13,1,8,78
1839,13,1,8,78
1840,13,1,8,78
1841,13,1,8,78
1842,13,1,8,78
1843,13,1,8,78
1844,13,1,8,78
1845,13,1,8,78
1846,13,1,8,78
1847,13,1,7,79
1848,13,1,7,79
1849,13,1,7,79
1850,13,1,7,79
1851,13,1,7,79
1852,13,1,7,79
1853,13,1,7,79
1854,13,1,7,79
1855,13,1,7,79
1856,13,1,7,79
1857,13,1,7,79
1858,13,1,7,79
1859,13,1,7,79
1860,13,1,7,79
1861,13,1,7,79
1862,13,1,7,79
1863,13,1,7,79
1864,13,1,7,79
1865,13,1,7,79
1866,13,1,7,79
1867,13,1,7,79
1868,13,1,7,79
1869,13,1,7,79
1870,13,1,6,80
1871,13,1,6,80
1872,13,1,6,80
1873,13,1,6,80
1874,13,1,6,80
1875,13,1,6,80
1876,13,1,6,80
1877,13,1,6,80
1878,13,1,6,80
1879,13,1,6,80
1880,13,1,6,80
1881,13,1,6,80
1882,13,1,6,80
1883,13,1,6,80
1884,13,1,6,80
1885,13,1,6,80
1886,13,1,6,80
1887,13,1,5,81
1888,13,1,5,81
1889,13,1,5,81
1890,13,1,5,81
1891,13,1,5,81
1892,13,1,5,81
1893,13,1,5,81
1894,13,1,5,81
1895,13,1,5,81
1896,13,1,5,81
1897,13,1,5,81
1898,13,1,5,81
1899,13,1,5,81
1900,13,1,5,81
1901,13,1,5,81
1902,13,1,5,81
1903,13,1,5,81
1904,13,1,5,81
1905,13,1,5,81
1906,13,1,5,81
1907,13,1,5,81
1908,13,1,5,81
1909,13,1,5,81
1910,13,1,5,81
1911,13,1,5,81
1912,13,1,5,81
1913,13,1,5,81
1914,13,1,5,81
1915,13,1,5,81
1916,13,1,5,81
1917,13,1,5,81
1918,13,1,5,81
1919,13,1,5,81
1920,13,1,5,81
1921,13,1,5,81
1922,13,1,5,81
1923,13,1,5,81
1924,13,1,5,81
1925,13,1,5,81
1926,13,1,5,81
1927,13,1,5,81
1928,13,1,5,81
1929,13,1,5,81
1930,13,1,5,81
1931,13,1,5,81
1932,13,1,5,81
1933,13,1,5,81
1934,13,1,5,81
1935,13,1,5,81
1936,13,1,5,81
1937,13,1,5,81
1938,13,1,5,81
1939,13,1,5,81
1940,13,1,5,81
1941,13,1,5,81
1942,13,1,5,81
1943,13,1,5,81
1944,13,1,5,81
1945,13,1,5,81
1946,13,1,5,81
1947,13,1,5,81
1948,13,1,5,81
1949,13,1,5,81
1950,13,1,5,81
1951,13,1,5,81
1952,13,1,5,81
1953,13,1,5,81
1954,13,1,5,81
1955,13,1,5,81
1956,13,1,5,81
1957,13,1,5,81
1958,13,1,5,81
1959,13,1,5,81
1960,13,1,5,81
1961,13,1,5,81
1962,13,1,5,81
1963,13,1,5,81
1964,13,1,5,81
1965,13,1,5,81
1966,13,1,4,82
1967,13,1,4,82
1968,13,1,4,82
1969,13,1,4,82
1970,13,1,4,82
1971,13,1,3,83
1972,13,1,3,83
1973,13,1,3,83
1974,13,1,3,83
1975,13,1,3,83
1976,13,1,3,83
1977,13,1,3,83
1978,13,1,3,83
1979,13,1,3,83
1980,13,1,3,83
1981,13,1,3,83
1982,13,0,4,83
1983,13,0,4,83
1984,13,0,4,83
1985,13,0,4,83
1986,13,0,4,83
1987,13,0,4,83
1988,13,0,4,83
1989,13,0,4,83
1990,13,0,4,83
1991,13,0,4,83
1992,13,0,4,83
1993,13,0,4,83
1994,13,0,4,83
1995,13,0,4,83
1996,13,0,4,83
1997,13,0,4,83
1998,13,0,4,83
1999,13,0,4,83
2000,13,0,4,83
