"tick","total"
0,0
1,0
2,0
3,0
4,0
5,0
6,0
7,0
8,0
9,0
10,0
11,0
12,0
13,0
14,0
15,0
16,0
17,0
18,0
19,0
20,0
21,0
22,0
23,0
24,0
25,0
26,0
27,0
28,0
29,0
30,0
31,0
32,0
33,0
34,0
35,0
36,0
37,0
38,0
39,0
40,0
41,0
42,0
43,0
44,0
45,0
46,0
47,0
48,0
49,0
50,0
51,0
52,0
53,0
54,0
55,0
56,0
57,0
58,0
59,0
60,0
61,0
62,0
63,0
64,0
65,0
66,0
67,0
68,0
69,0
70,0
71,0
72,0
73,0
74,0
75,0
76,0
77,0
78,0
79,0
80,0
81,0
82,0
83,0
84,0
85,0
86,0
87,0
88,0
89,0
90,0
91,0
92,0
93,0
94,0
95,0
96,0
97,0
98,0
99,0
100,0
101,0
102,0
103,0
104,0
105,0
106,0
107,0
108,0
109,1
110,1
111,1
112,1
113,1
114,1
115,1
116,1
117,1
118,1
119,1
120,1
121,1
122,1
123,1
124,1
125,1
126,1
127,1
128,1
129,1
130,1
131,1
132,1
133,1
134,1
135,1
136,1
137,1
138,1
139,1
140,1
141,1
142,1
143,1
144,1
145,1
146,1
147,1
148,1
149,1
150,1
151,1
152,1
153,1
154,1
155,1
156,1
157,1
158,1
159,1
160,1
161,1
162,1
163,1
164,1
165,1
166,1
167,1
168,1
169,1
170,1
171,1
172,1
173,1
174,1
175,1
176,1
177,1
178,1
179,1
180,1
181,1
182,1
183,1
184,1
185,1
186,1
187,1
188,1
189,1
190,1
191,1
192,1
193,1
194,1
195,1
196,1
197,1
198,1
199,1
200,1
201,1
202,1
203,1
204,1
205,1
206,1
207,1
208,1
209,1
210,1
211,1
212,1
213,1
214,1
215,1
216,1
217,1
218,1
219,1
220,1
221,1
222,1
223,1
224,1
225,1
226,1
227,1
228,1
229,1
230,1
231,1
232,1
233,1
234,1
235,2
236,2
237,2
238,2
239,2
240,2
241,3
242,3
243,4
244,5
245,5
246,5
247,5
248,5
249,5
250,5
251,5
252,5
253,5
254,5
255,5
256,5
257,5
258,5
259,5
260,6
261,6
262,6
263,6
264,6
265,6
266,6
267,6
268,6
269,6
270,7
271,7
272,7
273,7
274,7
275,7
276,7
277,7
278,7
279,7
280,9
281,9
282,9
283,10
284,10
285,11
286,11
287,11
288,11
289,11
290,11
291,11
292,11
293,11
294,11
295,11
296,11
297,11
298,11
299,11
300,11
301,11
302,12
303,12
304,12
305,12
306,12
307,13
308,14
309,14
310,14
311,14
312,14
313,14
314,14
315,14
316,14
317,14
318,14
319,14
320,14
321,14
322,14
323,14
324,14
325,14
326,14
327,15
328,15
329,15
330,16
331,16
332,16
333,16
334,17
335,17
336,17
337,17
338,17
339,17
340,17
341,18
342,18
343,18
344,18
345,18
346,18
347,18
348,18
349,18
350,18
351,18
352,18
353,18
354,18
355,18
356,19
357,19
358,19
359,19
360,19
361,19
362,19
363,19
364,19
365,19
366,19
367,19
368,19
369,19
370,19
371,19
372,19
373,19
374,19
375,19
376,19
377,20
378,20
379,20
380,20
381,20
382,20
383,20
384,20
385,20
386,20
387,20
388,20
389,20
390,20
391,20
392,20
393,20
394,20
395,20
396,20
397,20
398,20
399,20
400,20
401,20
402,20
403,20
404,20
405,20
406,20
407,20
408,20
409,20
410,20
411,20
412,20
413,20
414,20
415,20
416,20
417,20
418,20
419,20
420,20
421,20
422,20
423,20
424,21
425,21
426,21
427,21
428,21
429,21
430,21
431,21
432,21
433,21
434,21
435,21
436,21
437,21
438,21
439,21
440,21
441,21
442,21
443,21
444,21
445,21
446,21
447,21
448,21
449,21
450,21
451,21
452,21
453,21
454,21
455,21
456,21
457,21
458,21
459,21
460,22
461,22
462,23
463,23
464,23
465,24
466,24
467,24
468,24
469,24
470,24
471,24
472,24
473,24
474,24
475,24
476,24
477,24
478,24
479,24
480,24
481,24
482,24
483,24
484,24
485,24
486,24
487,24
488,24
489,24
490,24
491,25
492,26
493,26
494,26
495,26
496,26
497,26
498,26
499,26
500,26
501,26
502,26
503,26
504,26
505,26
506,26
507,26
508,26
509,26
510,26
511,26
512,26
513,26
514,26
515,26
516,26
517,26
518,26
519,26
520,26
521,26
522,26
523,26
524,26
525,26
526,26
527,26
528,26
529,26
530,26
531,27
532,28
533,28
534,28
535,28
536,28
537,28
538,28
539,28
540,29
541,29
542,29
543,29
544,29
545,29
546,29
547,29
548,29
549,29
550,29
551,29
552,29
553,29
554,29
555,29
556,29
557,29
558,30
559,30
560,30
561,30
562,30
563,30
564,30
565,30
566,30
567,30
568,30
569,31
570,31
571,31
572,31
573,31
574,31
575,31
576,31
577,31
578,32
579,33
580,34
581,35
582,37
583,38
584,39
585,39
586,39
587,39
588,39
589,39
590,39
591,39
592,39
593,39
594,39
595,39
596,39
597,39
598,39
599,39
600,39
601,39
602,39
603,39
604,39
605,39
606,39
607,39
608,39
609,39
610,39
611,39
612,39
613,39
614,39
615,39
616,39
617,39
618,39
619,39
620,39
621,39
622,39
623,39
624,39
625,39
626,39
627,39
628,40
629,40
630,40
631,40
632,40
633,40
634,40
635,40
636,40
637,40
638,40
639,40
640,40
641,40
642,40
643,40
644,40
645,40
646,40
647,40
648,40
649,40
650,41
651,41
652,41
653,41
654,41
655,41
656,41
657,41
658,41
659,41
660,41
661,41
662,41
663,41
664,41
665,41
666,41
667,41
668,41
669,41
670,41
671,41
672,41
673,41
674,41
675,41
676,41
677,41
678,41
679,41
680,41
681,41
682,41
683,42
684,42
685,42
686,42
687,42
688,42
689,42
690,42
691,42
692,42
693,42
694,42
695,42
696,42
697,42
698,42
699,42
700,42
701,42
702,42
703,42
704,42
705,42
706,42
707,42
708,42
709,42
710,42
711,42
712,42
713,42
714,42
715,42
716,42
717,42
718,42
719,42
720,42
721,42
722,42
723,42
724,42
725,42
726,42
727,42
728,42
729,42
730,42
731,42
732,42
733,42
734,42
735,42
736,42
737,42
738,42
739,42
740,42
741,42
742,42
743,42
744,42
745,42
746,42
747,42
748,42
749,42
750,42
751,42
752,42
753,42
754,42
755,42
756,43
757,43
758,43
759,43
760,43
761,43
762,43
763,43
764,44
765,44
766,44
767,44
768,44
769,44
770,44
771,44
772,44
773,44
774,44
775,44
776,44
777,44
778,44
779,44
780,44
781,44
782,44
783,44
784,44
785,44
786,44
787,44
788,44
789,44
790,44
791,44
792,44
793,44
794,44
795,44
796,44
797,44
798,44
799,44
800,44
801,44
802,44
803,44
804,44
805,44
806,44
807,44
808,44
809,44
810,44
811,44
812,44
813,44
814,44
815,44
816,44
817,44
818,44
819,45
820,45
821,45
822,45
823,45
824,45
825,45
826,45
827,45
828,45
829,45
830,45
831,46
832,46
833,46
834,46
835,46
836,46
837,46
838,46
839,47
840,47
841,47
842,47
843,47
844,47
845,47
846,47
847,47
848,47
849,47
850,47
851,47
852,47
853,47
854,47
855,47
856,47
857,47
858,47
859,47
860,47
861,47
862,47
863,47
864,47
865,47
866,47
867,47
868,47
869,47
870,47
871,47
872,47
873,47
874,47
875,47
876,47
877,47
878,47
879,47
880,47
881,47
882,47
883,47
884,47
885,47
886,47
887,47
888,47
889,47
890,47
891,47
892,47
893,47
894,47
895,48
896,48
897,48
898,48
899,48
900,48
901,48
902,48
903,48
904,48
905,48
906,48
907,48
908,48
909,48
910,48
911,48
912,48
913,48
914,48
915,48
916,48
917,48
918,48
919,48
920,49
921,49
922,49
923,49
924,49
925,49
926,49
927,49
928,49
929,49
930,49
931,49
932,49
933,49
934,49
935,49
936,49
937,49
938,49
939,49
940,49
941,49
942,49
943,49
944,49
945,49
946,49
947,49
948,49
949,49
950,49
951,49
952,49
953,49
954,49
955,49
956,49
957,49
958,49
959,49
960,49
961,49
962,49
963,49
964,49
965,49
966,49
967,49
968,49
969,49
970,49
971,50
972,50
973,50
974,50
975,50
976,50
977,50
978,50
979,50
980,50
981,50
982,50
983,50
984,50
985,50
986,50
987,50
988,50
989,50
990,50
991,50
992,50
993,50
994,50
995,50
996,50
997,51
998,51
999,51
1000,51
1001,51
1002,51
1003,51
1004,52
1005,52
1006,52
1007,52
1008,52
1009,52
1010,52
1011,52
1012,52
1013,52
1014,52
1015,52
1016,52
1017,52
1018,52
1019,52
1020,52
1021,52
1022,52
1023,52
1024,52
1025,52
1026,52
1027,52
1028,52
1029,52
1030,52
1031,52
1032,52
1033,52
1034,53
1035,53
1036,53
1037,53
1038,53
1039,53
1040,53
1041,53
1042,53
1043,53
1044,53
1045,53
1046,53
1047,53
1048,53
1049,53
1050,53
1051,53
1052,53
1053,53
1054,53
1055,53
1056,53
1057,53
1058,55
1059,55
1060,55
1061,55
1062,55
1063,55
1064,55
1065,55
1066,56
1067,56
1068,56
1069,56
1070,56
1071,56
1072,56
1073,56
1074,56
1075,56
1076,56
1077,56
1078,56
1079,56
1080,57
1081,57
1082,57
1083,57
1084,57
1085,57
1086,57
1087,57
1088,57
1089,57
1090,57
1091,57
1092,57
1093,57
1094,58
1095,58
1096,58
1097,58
1098,58
1099,58
1100,58
1101,58
1102,58
1103,58
1104,58
1105,58
1106,58
1107,58
1108,58
1109,58
1110,58
1111,58
1112,58
1113,58
1114,58
1115,58
1116,58
1117,58
1118,58
1119,58
1120,58
1121,58
1122,58
1123,58
1124,58
1125,58
1126,58
1127,58
1128,58
1129,58
1130,58
1131,58
1132,58
1133,59
1134,59
1135,59
1136,59
1137,59
1138,59
1139,59
1140,59
1141,59
1142,59
1143,59
1144,59
1145,59
1146,59
1147,59
1148,59
1149,59
1150,59
1151,59
1152,59
1153,59
1154,59
1155,59
1156,59
1157,59
1158,59
1159,59
1160,59
1161,59
1162,59
1163,59
1164,59
1165,59
1166,59
1167,59
1168,59
1169,59
1170,59
1171,59
1172,59
1173,59
1174,59
1175,59
1176,59
1177,59
1178,59
1179,59
1180,59
1181,59
1182,59
1183,59
1184,59
1185,59
1186,59
1187,59
1188,59
1189,59
1190,59
1191,59
1192,59
1193,59
1194,59
1195,59
1196,59
1197,59
1198,59
1199,59
1200,59
1201,59
1202,59
1203,59
1204,59
1205,59
1206,59
1207,59
1208,59
1209,59
1210,59
1211,60
1212,60
1213,60
1214,60
1215,60
1216,60
1217,60
1218,60
1219,60
1220,60
1221,60
1222,60
1223,60
1224,60
1225,60
1226,60
1227,60
1228,60
1229,60
1230,60
1231,60
1232,60
1233,60
1234,60
1235,60
1236,60
1237,60
1238,60
1239,60
1240,60
1241,60
1242,60
1243,60
1244,60
1245,60
1246,60
1247,60
1248,61
1249,61
1250,61
1251,61
1252,61
1253,61
1254,61
1255,61
1256,61
1257,61
1258,61
1259,61
1260,61
1261,61
1262,61
1263,61
1264,61
1265,61
1266,61
1267,61
1268,61
1269,61
1270,61
1271,61
1272,61
1273,61
1274,62
1275,62
1276,62
1277,62
1278,62
1279,62
1280,62
1281,62
1282,62
1283,62
1284,62
1285,62
1286,62
1287,62
1288,62
1289,62
1290,62
1291,62
1292,62
1293,62
1294,62
1295,62
1296,62
1297,62
1298,62
1299,62
1300,62
1301,62
1302,62
1303,62
1304,62
1305,62
1306,62
1307,62
1308,62
1309,62
1310,62
1311,62
1312,63
1313,63
1314,63
1315,63
1316,63
1317,63
1318,63
1319,63
1320,63
1321,63
1322,63
1323,63
1324,63
1325,63
1326,63
1327,63
1328,63
1329,63
1330,63
1331,63
1332,63
1333,63
1334,63
1335,63
1336,63
1337,63
1338,63
1339,63
1340,63
1341,63
1342,63
1343,63
1344,63
1345,64
1346,64
1347,64
1348,64
1349,64
1350,64
1351,64
1352,64
1353,64
1354,64
1355,64
1356,64
1357,64
1358,64
1359,64
1360,64
1361,64
1362,64
1363,64
1364,64
1365,64
1366,64
1367,64
1368,64
1369,64
1370,64
1371,64
1372,64
1373,64
1374,64
1375,64
1376,64
1377,64
1378,64
1379,64
1380,64
1381,64
1382,64
1383,64
1384,64
1385,64
1386,64
1387,64
1388,64
1389,64
1390,64
1391,64
1392,64
1393,64
1394,64
1395,64
1396,64
1397,64
1398,64
1399,64
1400,65
1401,65
1402,65
1403,65
1404,65
1405,65
1406,65
1407,65
1408,65
1409,65
1410,65
1411,66
1412,66
1413,66
1414,66
1415,66
1416,66
1417,66
1418,66
1419,66
1420,66
1421,66
1422,66
1423,66
1424,66
1425,66
1426,66
1427,66
1428,66
1429,66
1430,66
1431,66
1432,66
1433,66
1434,66
1435,66
1436,66
1437,67
1438,67
1439,67
1440,67
1441,67
1442,67
1443,67
1444,67
1445,67
1446,67
1447,67
1448,67
1449,67
1450,67
1451,67
1452,67
1453,67
1454,67
1455,67
1456,67
1457,67
1458,67
1459,67
1460,67
1461,67
1462,67
1463,67
1464,67
1465,67
1466,67
1467,67
1468,67
1469,67
1470,67
1471,67
1472,67
1473,67
1474,67
1475,67
1476,67
1477,68
1478,68
1479,68
1480,68
1481,68
1482,68
1483,68
1484,68
1485,68
1486,68
1487,68
1488,68
1489,68
1490,68
1491,68
1492,68
1493,68
1494,68
1495,68
1496,68
1497,68
1498,68
1499,69
1500,69
1501,69
1502,69
1503,69
1504,69
1505,69
1506,69
1507,69
1508,69
1509,69
1510,69
1511,69
1512,69
1513,69
1514,69
1515,69
1516,69
1517,69
1518,69
1519,69
1520,69
1521,69
1522,69
1523,69
1524,69
1525,70
1526,70
1527,70
1528,70
1529,70
1530,70
1531,70
1532,70
1533,70
1534,70
1535,70
1536,70
1537,70
1538,70
1539,70
1540,70
1541,70
1542,70
1543,70
1544,70
1545,70
1546,70
1547,70
1548,70
1549,70
1550,70
1551,70
1552,70
1553,70
1554,70
1555,70
1556,70
1557,70
1558,70
1559,70
1560,70
1561,70
1562,70
1563,70
1564,70
1565,70
1566,70
1567,70
1568,70
1569,70
1570,70
1571,70
1572,70
1573,70
1574,70
1575,70
1576,70
1577,70
1578,70
1579,70
1580,70
1581,70
1582,70
1583,70
1584,70
1585,70
1586,71
1587,71
1588,71
1589,71
1590,71
1591,71
1592,71
1593,71
1594,71
1595,71
1596,71
1597,71
1598,71
1599,71
1600,71
1601,71
1602,72
1603,72
1604,72
1605,72
1606,72
1607,72
1608,72
1609,72
1610,72
1611,72
1612,73
1613,73
1614,73
1615,73
1616,73
1617,73
1618,73
1619,74
1620,74
1621,74
1622,74
1623,74
1624,74
1625,74
1626,74
1627,74
1628,74
1629,74
1630,74
1631,74
1632,74
1633,74
1634,74
1635,74
1636,74
1637,74
1638,74
1639,74
1640,74
1641,74
1642,74
1643,74
1644,74
1645,74
1646,74
1647,74
1648,74
1649,74
1650,74
1651,74
1652,74
1653,74
1654,74
1655,74
1656,74
1657,74
1658,74
1659,74
1660,74
1661,74
1662,74
1663,74
1664,74
1665,74
1666,74
1667,74
1668,74
1669,74
1670,74
1671,74
1672,74
1673,74
1674,74
1675,74
1676,74
1677,74
1678,74
1679,74
1680,74
1681,74
1682,74
1683,74
1684,74
1685,74
1686,74
1687,74
1688,74
1689,74
1690,74
1691,74
1692,74
1693,75
1694,75
1695,75
1696,75
1697,75
1698,75
1699,75
1700,75
1701,75
1702,75
1703,75
1704,75
1705,75
1706,75
1707,75
1708,75
1709,75
1710,75
1711,76
1712,76
1713,76
1714,76
1715,76
1716,76
1717,76
1718,76
1719,76
1720,76
1721,76
1722,76
1723,76
1724,76
1725,76
1726,77
1727,77
1728,77
1729,77
1730,77
1731,78
1732,79
1733,79
1734,79
1735,79
1736,79
1737,79
1738,79
1739,79
1740,79
1741,79
1742,79
1743,79
1744,79
1745,79
1746,79
1747,79
1748,79
1749,79
1750,79
1751,79
1752,79
1753,79
1754,79
1755,79
1756,80
1757,80
1758,80
1759,80
1760,80
1761,81
1762,81
1763,81
1764,81
1765,81
1766,81
1767,81
1768,81
1769,81
1770,81
1771,82
1772,82
1773,82
1774,82
1775,82
1776,82
1777,82
1778,82
1779,82
1780,82
1781,82
1782,82
1783,82
1784,82
1785,82
1786,82
1787,82
1788,82
1789,82
1790,82
1791,82
1792,82
1793,82
1794,82
1795,82
1796,82
1797,82
1798,82
1799,82
1800,82
1801,83
1802,83
1803,83
1804,83
1805,83
1806,83
1807,83
1808,83
1809,83
1810,84
1811,84
1812,84
1813,84
1814,84
1815,84
1816,84
1817,84
1818,84
1819,84
1820,84
1821,84
1822,84
1823,85
1824,85
1825,85
1826,85
1827,85
1828,85
1829,85
1830,85
1831,85
1832,85
1833,85
1834,85
1835,85
1836,85
1837,85
1838,85
1839,85
1840,85
1841,86
1842,86
1843,86
1844,86
1845,86
1846,86
1847,86
1848,86
1849,86
1850,86
1851,86
1852,86
1853,86
1854,86
1855,86
1856,86
1857,86
1858,86
1859,86
1860,86
1861,86
1862,86
1863,86
1864,87
1865,87
1866,88
1867,88
1868,88
1869,88
1870,88
1871,88
1872,88
1873,89
1874,89
1875,89
1876,89
1877,89
1878,89
1879,89
1880,89
1881,89
1882,89
1883,89
1884,89
1885,89
1886,89
1887,89
1888,89
1889,89
1890,89
1891,89
1892,89
1893,89
1894,89
1895,89
1896,89
1897,89
1898,89
1899,89
1900,89
1901,89
1902,89
1903,89
1904,89
1905,89
1906,89
1907,89
1908,89
1909,90
1910,90
1911,91
1912,91
1913,91
1914,91
1915,91
1916,91
1917,91
1918,91
1919,91
1920,91
1921,91
1922,91
1923,91
1924,91
1925,91
1926,91
1927,91
1928,92
1929,92
1930,92
1931,92
1932,92
1933,92
1934,92
1935,92
1936,92
1937,92
1938,92
1939,92
1940,92
1941,92
1942,92
1943,92
1944,92
1945,92
1946,92
1947,92
1948,92
1949,92
1950,92
1951,92
1952,92
1953,92
1954,92
1955,92
1956,92
1957,92
1958,92
1959,92
1960,92
1961,92
1962,92
1963,92
1964,92
1965,92
1966,92
1967,92
1968,92
1969,92
1970,92
1971,92
1972,92
1973,92
1974,92
1975,92
1976,92
1977,92
1978,92
1979,92
1980,92
1981,92
1982,92
1983,92
1984,93
1985,94
1986,94
1987,94
1988,94
1989,94
1990,94
1991,94
1992,94
1993,95
1994,95
1995,95
1996,95
1997,95
1998,95
1999,95
2000,95
