"tick","total"
0,0
1,0
2,0
3,0
4,0
5,0
6,0
7,0
8,0
9,0
10,0
11,0
12,0
13,0
14,0
15,0
16,0
17,0
18,0
19,0
20,0
21,0
22,0
23,0
24,0
25,0
26,0
27,0
28,0
29,0
30,0
31,0
32,0
33,0
34,0
35,0
36,0
37,0
38,0
39,0
40,0
41,0
42,0
43,0
44,0
45,0
46,0
47,0
48,0
49,0
50,0
51,0
52,0
53,0
54,0
55,0
56,0
57,0
58,0
59,0
60,0
61,0
62,0
63,0
64,0
65,0
66,0
67,0
68,0
69,0
70,0
71,0
72,0
73,0
74,0
75,0
76,0
77,0
78,0
79,0
80,0
81,0
82,0
83,0
84,0
85,0
86,0
87,0
88,0
89,0
90,0
91,0
92,0
93,0
94,0
95,0
96,0
97,0
98,0
99,0
100,0
101,0
102,0
103,0
104,0
105,0
106,0
107,0
108,0
109,0
110,0
111,0
112,0
113,0
114,0
115,0
116,0
117,0
118,0
119,0
120,0
121,0
122,0
123,0
124,0
125,0
126,0
127,0
128,0
129,0
130,0
131,0
132,0
133,0
134,0
135,0
136,0
137,0
138,0
139,0
140,0
141,0
142,0
143,0
144,0
145,0
146,0
147,0
148,0
149,0
150,0
151,0
152,0
153,0
154,0
155,0
156,0
157,0
158,0
159,0
160,0
161,0
162,0
163,0
164,0
165,0
166,0
167,0
168,0
169,0
170,0
171,0
172,0
173,0
174,0
175,0
176,0
177,0
178,0
179,0
180,0
181,0
182,0
183,0
184,0
185,0
186,0
187,0
188,0
189,0
190,0
191,0
192,0
193,0
194,0
195,0
196,0
197,0
198,0
199,0
200,0
201,0
202,0
203,0
204,0
205,0
206,0
207,0
208,0
209,0
210,0
211,0
212,0
213,0
214,0
215,0
216,0
217,0
218,0
219,0
220,0
221,0
222,0
223,0
224,0
225,0
226,0
227,0
228,0
229,0
230,0
231,0
232,0
233,0
234,0
235,0
236,0
237,0
238,0
239,0
240,0
241,0
242,0
243,1
244,1
245,1
246,1
247,1
248,1
249,1
250,1
251,1
252,1
253,3
254,4
255,4
256,5
257,5
258,5
259,5
260,5
261,5
262,5
263,5
264,5
265,5
266,5
267,5
268,5
269,5
270,5
271,5
272,5
273,5
274,5
275,5
276,5
277,5
278,5
279,5
280,5
281,5
282,6
283,6
284,6
285,7
286,7
287,7
288,7
289,7
290,7
291,7
292,7
293,7
294,7
295,7
296,7
297,7
298,7
299,8
300,8
301,8
302,8
303,8
304,8
305,8
306,9
307,9
308,9
309,9
310,9
311,9
312,9
313,9
314,9
315,9
316,9
317,10
318,10
319,10
320,10
321,11
322,12
323,12
324,13
325,13
326,13
327,13
328,13
329,13
330,13
331,13
332,14
333,14
334,14
335,14
336,14
337,14
338,14
339,14
340,14
341,14
342,14
343,14
344,14
345,14
346,14
347,14
348,14
349,14
350,14
351,14
352,14
353,15
354,15
355,15
356,15
357,15
358,15
359,15
360,15
361,15
362,15
363,15
364,16
365,16
366,16
367,16
368,16
369,16
370,16
371,16
372,16
373,16
374,17
375,17
376,17
377,17
378,17
379,17
380,19
381,20
382,20
383,20
384,20
385,20
386,20
387,20
388,20
389,20
390,20
391,20
392,20
393,20
394,20
395,20
396,20
397,21
398,22
399,24
400,24
401,25
402,25
403,25
404,25
405,26
406,26
407,26
408,26
409,26
410,26
411,26
412,26
413,26
414,26
415,26
416,26
417,26
418,26
419,26
420,27
421,27
422,27
423,27
424,27
425,27
426,27
427,27
428,27
429,27
430,28
431,28
432,28
433,28
434,28
435,28
436,28
437,28
438,28
439,28
440,28
441,28
442,28
443,28
444,29
445,29
446,29
447,29
448,29
449,29
450,29
451,29
452,29
453,29
454,29
455,29
456,30
457,30
458,30
459,30
460,30
461,30
462,30
463,30
464,30
465,30
466,30
467,30
468,30
469,30
470,30
471,30
472,30
473,30
474,30
475,30
476,30
477,30
478,30
479,30
480,30
481,30
482,30
483,30
484,30
485,30
486,30
487,30
488,30
489,30
490,30
491,30
492,30
493,30
494,30
495,30
496,30
497,30
498,30
499,30
500,30
501,30
502,30
503,30
504,30
505,30
506,30
507,30
508,30
509,30
510,30
511,30
512,30
513,30
514,30
515,30
516,30
517,30
518,30
519,30
520,30
521,30
522,30
523,30
524,30
525,30
526,30
527,30
528,30
529,30
530,30
531,30
532,30
533,30
534,30
535,30
536,30
537,30
538,30
539,30
540,30
541,30
542,30
543,30
544,30
545,30
546,30
547,30
548,30
549,30
550,30
551,30
552,30
553,30
554,30
555,30
556,30
557,30
558,30
559,30
560,30
561,30
562,30
563,30
564,30
565,30
566,30
567,30
568,30
569,30
570,30
571,31
572,31
573,31
574,31
575,31
576,31
577,31
578,31
579,31
580,31
581,31
582,31
583,31
584,31
585,31
586,31
587,31
588,31
589,31
590,31
591,31
592,31
593,31
594,31
595,31
596,31
597,31
598,31
599,31
600,31
601,31
602,31
603,31
604,31
605,31
606,31
607,31
608,31
609,31
610,31
611,31
612,31
613,31
614,31
615,31
616,31
617,31
618,31
619,31
620,31
621,31
622,31
623,31
624,31
625,32
626,32
627,32
628,32
629,32
630,32
631,32
632,32
633,32
634,32
635,32
636,32
637,32
638,32
639,32
640,32
641,33
642,33
643,33
644,33
645,33
646,33
647,33
648,33
649,33
650,33
651,33
652,33
653,33
654,34
655,34
656,35
657,35
658,35
659,35
660,35
661,35
662,35
663,35
664,35
665,35
666,35
667,35
668,35
669,35
670,35
671,35
672,35
673,35
674,35
675,36
676,36
677,36
678,36
679,36
680,36
681,36
682,36
683,36
684,37
685,37
686,37
687,37
688,37
689,37
690,38
691,38
692,38
693,38
694,38
695,38
696,38
697,38
698,38
699,38
700,38
701,38
702,38
703,38
704,38
705,38
706,38
707,38
708,38
709,38
710,38
711,38
712,38
713,38
714,38
715,38
716,38
717,38
718,38
719,38
720,38
721,38
722,38
723,38
724,38
725,38
726,38
727,38
728,38
729,38
730,38
731,38
732,39
733,39
734,39
735,39
736,39
737,39
738,39
739,39
740,39
741,39
742,39
743,39
744,39
745,39
746,39
747,39
748,39
749,39
750,39
751,39
752,39
753,40
754,40
755,40
756,40
757,40
758,40
759,40
760,40
761,40
762,40
763,40
764,40
765,40
766,40
767,40
768,40
769,40
770,40
771,40
772,40
773,40
774,40
775,40
776,40
777,40
778,40
779,40
780,40
781,40
782,40
783,41
784,41
785,41
786,41
787,41
788,41
789,41
790,41
791,41
792,42
793,42
794,43
795,44
796,45
797,46
798,47
799,48
800,49
801,50
802,50
803,50
804,50
805,50
806,50
807,50
808,51
809,51
810,51
811,51
812,51
813,51
814,51
815,51
816,51
817,51
818,51
819,51
820,51
821,51
822,51
823,51
824,52
825,52
826,52
827,52
828,52
829,52
830,53
831,53
832,53
833,53
834,53
835,53
836,53
837,53
838,53
839,53
840,53
841,53
842,53
843,53
844,53
845,54
846,54
847,55
848,55
849,55
850,55
851,55
852,55
853,55
854,55
855,55
856,55
857,55
858,55
859,55
860,55
861,55
862,55
863,55
864,55
865,55
866,55
867,55
868,55
869,55
870,55
871,55
872,56
873,56
874,56
875,56
876,56
877,56
878,56
879,56
880,56
881,57
882,57
883,57
884,58
885,58
886,58
887,58
888,58
889,58
890,58
891,58
892,58
893,58
894,58
895,58
896,58
897,58
898,58
899,58
900,58
901,58
902,58
903,58
904,58
905,58
906,58
907,58
908,58
909,58
910,58
911,58
912,58
913,58
914,58
915,58
916,58
917,58
918,58
919,58
920,58
921,58
922,58
923,58
924,58
925,58
926,58
927,58
928,58
929,58
930,58
931,58
932,58
933,58
934,58
935,58
936,58
937,58
938,58
939,58
940,58
941,58
942,58
943,58
944,58
945,58
946,58
947,58
948,58
949,58
950,59
951,59
952,59
953,59
954,59
955,59
956,59
957,59
958,59
959,59
960,59
961,59
962,59
963,59
964,59
965,59
966,59
967,59
968,59
969,59
970,59
971,59
972,59
973,59
974,59
975,59
976,59
977,59
978,59
979,59
980,59
981,59
982,59
983,59
984,59
985,59
986,59
987,59
988,59
989,59
990,60
991,60
992,60
993,60
994,60
995,60
996,60
997,60
998,60
999,60
1000,60
1001,60
1002,60
1003,60
1004,60
1005,60
1006,60
1007,60
1008,60
1009,60
1010,60
1011,60
1012,60
1013,60
1014,60
1015,60
1016,60
1017,60
1018,60
1019,60
1020,60
1021,60
1022,60
1023,60
1024,60
1025,60
1026,60
1027,60
1028,60
1029,60
1030,60
1031,60
1032,60
1033,60
1034,60
1035,60
1036,60
1037,60
1038,60
1039,60
1040,60
1041,60
1042,60
1043,60
1044,60
1045,61
1046,61
1047,61
1048,61
1049,61
1050,61
1051,61
1052,61
1053,61
1054,61
1055,61
1056,61
1057,61
1058,61
1059,61
1060,61
1061,61
1062,61
1063,61
1064,61
1065,61
1066,61
1067,61
1068,61
1069,61
1070,61
1071,61
1072,61
1073,61
1074,61
1075,61
1076,61
1077,61
1078,61
1079,61
1080,61
1081,61
1082,61
1083,61
1084,61
1085,61
1086,61
1087,61
1088,61
1089,61
1090,61
1091,61
1092,61
1093,61
1094,61
1095,61
1096,61
1097,61
1098,61
1099,61
1100,61
1101,61
1102,61
1103,61
1104,61
1105,61
1106,61
1107,61
1108,61
1109,61
1110,61
1111,61
1112,61
1113,61
1114,61
1115,61
1116,61
1117,61
1118,61
1119,61
1120,61
1121,61
1122,61
1123,61
1124,61
1125,61
1126,61
1127,61
1128,61
1129,61
1130,61
1131,61
1132,61
1133,61
1134,61
1135,61
1136,61
1137,61
1138,61
1139,61
1140,61
1141,61
1142,61
1143,61
1144,61
1145,61
1146,61
1147,61
1148,61
1149,61
1150,61
1151,61
1152,61
1153,61
1154,61
1155,61
1156,61
1157,61
1158,61
1159,61
1160,61
1161,61
1162,61
1163,61
1164,61
1165,61
1166,61
1167,61
1168,61
1169,61
1170,61
1171,61
1172,61
1173,61
1174,61
1175,61
1176,62
1177,62
1178,62
1179,62
1180,62
1181,62
1182,62
1183,62
1184,62
1185,62
1186,62
1187,62
1188,62
1189,62
1190,62
1191,62
1192,62
1193,63
1194,63
1195,63
1196,63
1197,63
1198,63
1199,63
1200,63
1201,63
1202,63
1203,63
1204,63
1205,63
1206,63
1207,63
1208,64
1209,64
1210,64
1211,64
1212,64
1213,64
1214,64
1215,64
1216,64
1217,64
1218,64
1219,64
1220,64
1221,64
1222,64
1223,64
1224,64
1225,64
1226,64
1227,64
1228,64
1229,64
1230,64
1231,64
1232,64
1233,64
1234,64
1235,64
1236,64
1237,64
1238,64
1239,64
1240,64
1241,64
1242,64
1243,64
1244,64
1245,64
1246,64
1247,64
1248,64
1249,64
1250,64
1251,64
1252,64
1253,64
1254,64
1255,64
1256,64
1257,64
1258,64
1259,64
1260,64
1261,64
1262,64
1263,64
1264,64
1265,64
1266,64
1267,64
1268,64
1269,64
1270,64
1271,64
1272,64
1273,64
1274,64
1275,64
1276,64
1277,64
1278,64
1279,64
1280,64
1281,64
1282,64
1283,64
1284,64
1285,64
1286,64
1287,64
1288,64
1289,64
1290,64
1291,64
1292,64
1293,64
1294,64
1295,64
1296,65
1297,65
1298,65
1299,65
1300,65
1301,65
1302,65
1303,65
1304,65
1305,65
1306,66
1307,66
1308,66
1309,66
1310,66
1311,66
1312,66
1313,66
1314,66
1315,66
1316,66
1317,66
1318,66
1319,66
1320,66
1321,66
1322,66
1323,66
1324,66
1325,66
1326,66
1327,66
1328,66
1329,66
1330,66
1331,66
1332,66
1333,66
1334,66
1335,67
1336,67
1337,67
1338,67
1339,67
1340,67
1341,67
1342,67
1343,67
1344,67
1345,67
1346,67
1347,67
1348,67
1349,68
1350,68
1351,68
1352,68
1353,69
1354,69
1355,69
1356,70
1357,71
1358,71
1359,71
1360,71
1361,71
1362,71
1363,71
1364,71
1365,71
1366,71
1367,72
1368,72
1369,72
1370,72
1371,72
1372,72
1373,72
1374,72
1375,72
1376,73
1377,73
1378,73
1379,73
1380,73
1381,73
1382,73
1383,73
1384,73
1385,73
1386,74
1387,74
1388,74
1389,74
1390,74
1391,74
1392,74
1393,75
1394,75
1395,75
1396,75
1397,75
1398,75
1399,75
1400,76
1401,76
1402,76
1403,76
1404,76
1405,76
1406,76
1407,76
1408,76
1409,76
1410,76
1411,76
1412,76
1413,76
1414,76
1415,76
1416,76
1417,76
1418,76
1419,76
1420,76
1421,76
1422,76
1423,76
1424,76
1425,76
1426,76
1427,76
1428,76
1429,76
1430,76
1431,76
1432,76
1433,77
1434,77
1435,77
1436,77
1437,77
1438,77
1439,77
1440,77
1441,77
1442,77
1443,77
1444,77
1445,78
1446,78
1447,78
1448,78
1449,78
1450,78
1451,78
1452,78
1453,78
1454,78
1455,78
1456,78
1457,78
1458,78
1459,78
1460,78
1461,78
1462,78
1463,79
1464,79
1465,79
1466,79
1467,79
1468,79
1469,79
1470,79
1471,79
1472,79
1473,79
1474,79
1475,79
1476,79
1477,79
1478,79
1479,79
1480,79
1481,79
1482,79
1483,79
1484,79
1485,79
1486,79
1487,79
1488,79
1489,79
1490,79
1491,79
1492,79
1493,79
1494,79
1495,79
1496,79
1497,80
1498,80
1499,80
1500,80
1501,80
1502,81
1503,81
1504,81
1505,81
1506,81
1507,82
1508,82
1509,82
1510,82
1511,82
1512,83
1513,83
1514,83
1515,83
1516,83
1517,83
1518,83
1519,83
1520,83
1521,83
1522,83
1523,83
1524,83
1525,83
1526,83
1527,83
1528,83
1529,83
1530,83
1531,83
1532,83
1533,83
1534,83
1535,83
1536,83
1537,83
1538,83
1539,83
1540,83
1541,83
1542,83
1543,83
1544,83
1545,83
1546,84
1547,84
1548,84
1549,84
1550,84
1551,84
1552,84
1553,84
1554,84
1555,84
1556,84
1557,84
1558,84
1559,84
1560,84
1561,84
1562,84
1563,84
1564,84
1565,84
1566,84
1567,84
1568,84
1569,84
1570,84
1571,84
1572,84
1573,84
1574,84
1575,84
1576,84
1577,85
1578,85
1579,85
1580,86
1581,86
1582,86
1583,87
1584,87
1585,87
1586,87
1587,87
1588,87
1589,87
1590,87
1591,87
1592,87
1593,87
1594,87
1595,87
1596,87
1597,87
1598,87
1599,87
1600,87
1601,87
1602,87
1603,87
1604,87
1605,87
1606,87
1607,87
1608,87
1609,87
1610,87
1611,87
1612,87
1613,87
1614,87
1615,87
1616,87
1617,87
1618,87
1619,87
1620,87
1621,87
1622,87
1623,87
1624,87
1625,87
1626,87
1627,87
1628,87
1629,87
1630,87
1631,87
1632,87
1633,87
1634,87
1635,87
1636,87
1637,88
1638,88
1639,88
1640,88
1641,88
1642,88
1643,88
1644,88
1645,88
1646,88
1647,88
1648,88
1649,89
1650,89
1651,89
1652,89
1653,89
1654,89
1655,89
1656,89
1657,89
1658,89
1659,89
1660,89
1661,89
1662,89
1663,89
1664,89
1665,89
1666,89
1667,89
1668,89
1669,89
1670,89
1671,89
1672,89
1673,89
1674,89
1675,89
1676,89
1677,89
1678,89
1679,89
1680,89
1681,89
1682,89
1683,89
1684,89
1685,89
1686,89
1687,89
1688,89
1689,89
1690,89
1691,89
1692,89
1693,89
1694,89
1695,89
1696,89
1697,89
1698,89
1699,89
1700,89
1701,89
1702,89
1703,89
1704,89
1705,89
1706,89
1707,89
1708,89
1709,89
1710,89
1711,89
1712,89
1713,89
1714,89
1715,89
1716,90
1717,90
1718,90
1719,90
1720,90
1721,90
1722,90
1723,90
1724,90
1725,90
1726,90
1727,90
1728,90
1729,90
1730,90
1731,90
1732,90
1733,91
1734,91
1735,91
1736,91
1737,92
1738,92
1739,92
1740,92
1741,92
1742,92
1743,92
1744,92
1745,92
1746,92
1747,92
1748,92
1749,92
1750,93
1751,93
1752,94
1753,94
1754,94
1755,94
1756,94
1757,94
1758,94
1759,94
1760,94
1761,94
1762,94
1763,95
1764,95
1765,95
1766,95
1767,95
1768,95
1769,95
1770,95
1771,95
1772,95
1773,96
1774,96
1775,96
1776,96
1777,96
1778,96
1779,96
1780,96
1781,96
1782,96
1783,96
1784,96
1785,96
1786,96
1787,96
1788,96
1789,96
1790,96
1791,96
1792,96
1793,96
1794,96
1795,96
1796,96
1797,96
1798,96
1799,96
1800,96
1801,96
1802,96
1803,96
1804,96
1805,96
1806,96
1807,96
1808,96
1809,96
1810,96
1811,96
1812,96
1813,96
1814,96
1815,96
1816,96
1817,96
1818,96
1819,96
1820,96
1821,96
1822,96
1823,96
1824,96
1825,96
1826,96
1827,96
1828,96
1829,96
1830,96
1831,96
1832,96
1833,96
1834,96
1835,96
1836,96
1837,96
1838,96
1839,96
1840,96
1841,97
1842,97
1843,97
1844,97
1845,97
1846,97
1847,97
1848,97
1849,97
1850,97
1851,97
1852,97
1853,97
1854,97
1855,97
1856,97
1857,97
1858,97
1859,97
1860,97
1861,97
1862,97
1863,97
1864,97
1865,97
1866,97
1867,97
1868,97
1869,97
1870,97
1871,97
1872,97
1873,97
1874,97
1875,97
1876,97
1877,97
1878,97
1879,97
1880,97
1881,97
1882,98
1883,98
1884,98
1885,98
1886,98
1887,98
1888,98
1889,98
1890,98
1891,98
1892,98
1893,98
1894,98
1895,98
1896,98
1897,98
1898,98
1899,98
1900,98
1901,98
1902,98
1903,98
1904,98
1905,98
1906,98
1907,98
1908,98
1909,98
1910,98
1911,98
1912,98
1913,98
1914,98
1915,98
1916,98
1917,98
1918,98
1919,98
1920,98
1921,98
1922,98
1923,98
1924,98
1925,98
1926,98
1927,98
1928,99
1929,99
1930,99
1931,99
1932,99
1933,99
1934,99
1935,99
1936,99
1937,99
1938,100
1939,100
1940,100
1941,100
1942,100
1943,100
1944,100
1945,100
1946,100
1947,100
1948,100
1949,100
1950,100
1951,100
1952,100
1953,100
1954,100
1955,100
1956,101
1957,101
1958,101
1959,101
1960,101
1961,101
1962,101
1963,101
1964,101
1965,101
1966,101
1967,101
1968,101
1969,101
1970,101
1971,101
1972,101
1973,101
1974,101
1975,101
1976,101
1977,101
1978,101
1979,102
1980,102
1981,103
1982,103
1983,103
1984,103
1985,104
1986,104
1987,104
1988,104
1989,104
1990,104
1991,104
1992,104
1993,104
1994,104
1995,104
1996,104
1997,104
1998,105
1999,105
2000,105
