"tick","x_0","y_0","size_0","x_1","y_1","size_1","x_2","y_2","size_2"
0,-1.3362,-20.32,10,-31.2279,30.8282,10,14.9459,23.844,10
1,-1.3362,-20.32,10,-31.2279,30.8282,10,14.9459,23.844,10
2,-1.3362,-20.32,10,-31.2279,30.8282,10,14.9459,23.844,10
3,-1.3362,-20.32,10,-31.2279,30.8282,10,14.9459,23.844,10
4,-1.3362,-20.32,10,-31.2279,30.8282,10,14.9459,23.844,10
5,-1.3362,-20.32,10,-31.2279,30.8282,10,14.9459,23.844,10
6,-1.3362,-20.32,10,-31.2279,30.8282,10,14.9459,23.844,10
7,-1.3362,-20.32,10,-31.2279,30.8282,10,14.9459,23.844,10
8,-1.3362,-20.32,10,-31.2279,30.8282,10,14.9459,23.844,10
9,-1.3362,-20.32,10,-31.2279,30.8282,10,14.9459,23.844,10
10,-1.3362,-20.32,10,-31.2279,30.8282,10,14.9459,23.844,10
11,-1.3362,-20.32,10,-31.2279,30.8282,10,14.9459,23.844,10
12,-1.3362,-20.32,10,-31.2279,30.8282,10,14.9459,23.844,10
13,-1.3362,-20.32,10,-31.2279,30.8282,10,14.9459,23.844,10
14,-1.3362,-20.32,10,-31.2279,30.8282,10,14.9459,23.844,10
15,-1.3362,-20.32,10,-31.2279,30.8282,10,14.9459,23.844,10
16,-1.3362,-20.32,10,-31.2279,30.8282,10,14.9459,23.844,10
17,-1.3362,-20.32,10,-31.2279,30.8282,10,14.9459,23.844,10
18,-1.3362,-20.32,10,-31.2279,30.8282,10,14.9459,23.844,10
19,-1.3362,-20.32,10,-31.2279,30.8282,10,14.9459,23.844,10
20,-1.3362,-20.32,10,-31.2279,30.8282,10,14.9459,23.844,10
21,-1.3362,-20.32,10,-31.2279,30.8282,10,14.9459,23.844,10
22,-1.3362,-20.32,10,-31.2279,30.8282,10,14.9459,23.844,10
23,-1.3362,-20.32,10,-31.2279,30.8282,10,14.9459,23.844,10
24,-1.3362,-20.32,10,-31.2279,30.8282,10,14.9459,23.844,10
25,-1.3362,-20.32,10,-31.2279,30.8282,10,14.9459,23.844,10
26,-1.3362,-20.32,10,-31.2279,30.8282,10,14.9459,23.844,10
27,-1.3362,-20.32,10,-31.2279,30.8282,10,14.9459,23.844,10
28,-1.3362,-20.32,10,-31.2279,30.8282,10,14.9459,23.844,10
29,-1.3362,-20.32,10,-31.2279,30.8282,10,14.9459,23.844,10
30,-1.3362,-20.32,10,-31.2279,30.8282,10,14.9459,23.844,10
31,-1.3362,-20.32,10,-31.2279,30.8282,10,14.9459,23.844,10
32,-1.3362,-20.32,10,-31.2279,30.8282,10,14.9459,23.844,10
33,-1.3362,-20.32,10,-31.2279,30.8282,10,14.9459,23.844,10
34,-1.3362,-20.32,10,-31.2279,30.8282,10,14.9459,23.844,10
35,-1.3362,-20.32,10,-31.2279,30.8282,9,14.9459,23.844,10
36,-1.3362,-20.32,10,-31.2279,30.8282,9,14.9459,23.844,10
37,-1.3362,-20.32,10,-31.2279,30.8282,9,14.9459,23.844,10
38,-1.3362,-20.32,10,-31.2279,30.8282,9,14.9459,23.844,10
39,-1.3362,-20.32,10,-31.2279,30.8282,9,14.9459,23.844,10
40,-1.3362,-20.32,10,-31.2279,30.8282,9,14.9459,23.844,10
41,-1.3362,-20.32,10,-31.2279,30.8282,9,14.9459,23.844,10
42,-1.3362,-20.32,10,-31.2279,30.8282,9,14.9459,23.844,10
43,-1.3362,-20.32,10,-31.2279,30.8282,9,14.9459,23.844,10
44,-1.3362,-20.32,10,-31.2279,30.8282,9,14.9459,23.844,10
45,-1.3362,-20.32,10,-31.2279,30.8282,9,14.9459,23.844,10
46,-1.3362,-20.32,10,-31.2279,30.8282,9,14.9459,23.844,10
47,-1.3362,-20.32,10,-31.2279,30.8282,9,14.9459,23.844,10
48,-1.3362,-20.32,10,-31.2279,30.8282,9,14.9459,23.844,10
49,-1.3362,-20.32,10,-31.2279,30.8282,9,14.9459,23.844,10
50,-1.3362,-20.32,10,-31.2279,30.8282,9,14.9459,23.844,10
51,-1.3362,-20.32,10,-31.2279,30.8282,9,14.9459,23.844,10
52,-1.3362,-20.32,10,-31.2279,30.8282,9,14.9459,23.844,10
53,-1.3362,-20.32,10,-31.2279,30.8282,9,14.9459,23.844,10
54,-1.3362,-20.32,10,-31.2279,30.8282,9,14.9459,23.844,10
55,-1.3362,-20.32,10,-31.2279,30.8282,9,14.9459,23.844,10
56,-1.3362,-20.32,10,-31.2279,30.8282,9,14.9459,23.844,10
57,-1.3362,-20.32,10,-31.2279,30.8282,9,14.9459,23.844,10
58,-1.3362,-20.32,10,-31.2279,30.8282,9,14.9459,23.844,10
59,-1.3362,-20.32,10,-31.2279,30.8282,9,14.9459,23.844,10
60,-1.3362,-20.32,10,-31.2279,30.8282,9,14.9459,23.844,10
61,-1.3362,-20.32,10,-31.2279,30.8282,9,14.9459,23.844,10
62,-1.3362,-20.32,10,-31.2279,30.8282,9,14.9459,23.844,10
63,-1.3362,-20.32,10,-31.2279,30.8282,9,14.9459,23.844,10
64,-1.3362,-20.32,10,-31.2279,30.8282,9,14.9459,23.844,10
65,-1.3362,-20.32,10,-31.2279,30.8282,9,14.9459,23.844,10
66,-1.3362,-20.32,10,-31.2279,30.8282,9,14.9459,23.844,10
67,-1.3362,-20.32,10,-31.2279,30.8282,9,14.9459,23.844,10
68,-1.3362,-20.32,10,-31.2279,30.8282,9,14.9459,23.844,10
69,-1.3362,-20.32,10,-31.2279,30.8282,9,14.9459,23.844,10
70,-1.3362,-20.32,10,-31.2279,30.8282,9,14.9459,23.844,10
71,-1.3362,-20.32,10,-31.2279,30.8282,9,14.9459,23.844,10
72,-1.3362,-20.32,10,-31.2279,30.8282,9,14.9459,23.844,10
73,-1.3362,-20.32,10,-31.2279,30.8282,9,14.9459,23.844,10
74,-1.3362,-20.32,10,-31.2279,30.8282,9,14.9459,23.844,10
75,-1.3362,-20.32,10,-31.2279,30.8282,9,14.9459,23.844,10
76,-1.3362,-20.32,10,-31.2279,30.8282,9,14.9459,23.844,10
77,-1.3362,-20.32,10,-31.2279,30.8282,9,14.9459,23.844,10
78,-1.3362,-20.32,10,-31.2279,30.8282,9,14.9459,23.844,10
79,-1.3362,-20.32,10,-31.2279,30.8282,9,14.9459,23.844,10
80,-1.3362,-20.32,10,-31.2279,30.8282,9,14.9459,23.844,10
81,-1.3362,-20.32,10,-31.2279,30.8282,9,14.9459,23.844,10
82,-1.3362,-20.32,10,-31.2279,30.8282,9,14.9459,23.844,10
83,-1.3362,-20.32,10,-31.2279,30.8282,9,14.9459,23.844,10
84,-1.3362,-20.32,10,-31.2279,30.8282,9,14.9459,23.844,10
85,-1.3362,-20.32,10,-31.2279,30.8282,9,14.9459,23.844,10
86,-1.3362,-20.32,10,-31.2279,30.8282,9,14.9459,23.844,10
87,-1.3362,-20.32,10,-31.2279,30.8282,9,14.9459,23.844,10
88,-1.3362,-20.32,10,-31.2279,30.8282,9,14.9459,23.844,10
89,-1.3362,-20.32,10,-31.2279,30.8282,9,14.9459,23.844,10
90,-1.3362,-20.32,10,-31.2279,30.8282,9,14.9459,23.844,10
91,-1.3362,-20.32,10,-31.2279,30.8282,9,14.9459,23.844,10
92,-1.3362,-20.32,10,-31.2279,30.8282,9,14.9459,23.844,10
93,-1.3362,-20.32,10,-31.2279,30.8282,9,14.9459,23.844,10
94,-1.3362,-20.32,10,-31.2279,30.8282,9,14.9459,23.844,10
95,-1.3362,-20.32,10,-31.2279,30.8282,9,14.9459,23.844,10
96,-1.3362,-20.32,10,-31.2279,30.8282,9,14.9459,23.844,10
97,-1.3362,-20.32,10,-31.2279,30.8282,9,14.9459,23.844,10
98,-1.3362,-20.32,10,-31.2279,30.8282,9,14.9459,23.844,10
99,-1.3362,-20.32,10,-31.2279,30.8282,9,14.9459,23.844,10
100,-1.3362,-20.32,10,-31.2279,30.8282,9,14.9459,23.844,10
101,-1.3362,-20.32,10,-31.2279,30.8282,9,14.9459,23.844,10
102,-1.3362,-20.32,10,-31.2279,30.8282,9,14.9459,23.844,10
103,-1.3362,-20.32,10,-31.2279,30.8282,9,14.9459,23.844,10
104,-1.3362,-20.32,10,-31.2279,30.8282,9,14.9459,23.844,10
105,-1.3362,-20.32,10,-31.2279,30.8282,9,14.9459,23.844,10
106,-1.3362,-20.32,10,-31.2279,30.8282,9,14.9459,23.844,10
107,-1.3362,-20.32,10,-31.2279,30.8282,9,14.9459,23.844,10
108,-1.3362,-20.32,10,-31.2279,30.8282,9,14.9459,23.844,10
109,-1.3362,-20.32,10,-31.2279,30.8282,9,14.9459,23.844,10
110,-1.3362,-20.32,10,-31.2279,30.8282,9,14.9459,23.844,10
111,-1.3362,-20.32,10,-31.2279,30.8282,9,14.9459,23.844,10
112,-1.3362,-20.32,10,-31.2279,30.8282,9,14.9459,23.844,10
113,-1.3362,-20.32,10,-31.2279,30.8282,9,14.9459,23.844,10
114,-1.3362,-20.32,10,-31.2279,30.8282,9,14.9459,23.844,10
115,-1.3362,-20.32,10,-31.2279,30.8282,9,14.9459,23.844,10
116,-1.3362,-20.32,10,-31.2279,30.8282,9,14.9459,23.844,10
117,-1.3362,-20.32,10,-31.2279,30.8282,9,14.9459,23.844,10
118,-1.3362,-20.32,10,-31.2279,30.8282,9,14.9459,23.844,10
119,-1.3362,-20.32,10,-31.2279,30.8282,9,14.9459,23.844,10
120,-1.3362,-20.32,10,-31.2279,30.8282,9,14.9459,23.844,10
121,-1.3362,-20.32,10,-31.2279,30.8282,9,14.9459,23.844,10
122,-1.3362,-20.32,10,-31.2279,30.8282,9,14.9459,23.844,10
123,-1.3362,-20.32,10,-31.2279,30.8282,9,14.9459,23.844,10
124,-1.3362,-20.32,10,-31.2279,30.8282,9,14.9459,23.844,10
125,-1.3362,-20.32,10,-31.2279,30.8282,9,14.9459,23.844,10
126,-1.3362,-20.32,10,-31.2279,30.8282,9,14.9459,23.844,10
127,-1.3362,-20.32,10,-31.2279,30.8282,9,14.9459,23.844,10
128,-1.3362,-20.32,10,-31.2279,30.8282,9,14.9459,23.844,10
129,-1.3362,-20.32,10,-31.2279,30.8282,9,14.9459,23.844,10
130,-1.3362,-20.32,10,-31.2279,30.8282,9,14.9459,23.844,10
131,-1.3362,-20.32,10,-31.2279,30.8282,9,14.9459,23.844,10
132,-1.3362,-20.32,10,-31.2279,30.8282,9,14.9459,23.844,10
133,-1.3362,-20.32,10,-31.2279,30.8282,9,14.9459,23.844,10
134,-1.3362,-20.32,10,-31.2279,30.8282,9,14.9459,23.844,10
135,-1.3362,-20.32,10,-31.2279,30.8282,9,14.9459,23.844,10
136,-1.3362,-20.32,10,-31.2279,30.8282,9,14.9459,23.844,10
137,-1.3362,-20.32,10,-31.2279,30.8282,9,14.9459,23.844,10
138,-1.3362,-20.32,10,-31.2279,30.8282,9,14.9459,23.844,10
139,-1.3362,-20.32,10,-31.2279,30.8282,9,14.9459,23.844,10
140,-1.3362,-20.32,10,-31.2279,30.8282,9,14.9459,23.844,10
141,-1.3362,-20.32,10,-31.2279,30.8282,9,14.9459,23.844,10
142,-1.3362,-20.32,10,-31.2279,30.8282,9,14.9459,23.844,10
143,-1.3362,-20.32,10,-31.2279,30.8282,9,14.9459,23.844,10
144,-1.3362,-20.32,10,-31.2279,30.8282,9,14.9459,23.844,10
145,-1.3362,-20.32,10,-31.2279,30.8282,9,14.9459,23.844,10
146,-1.3362,-20.32,10,-31.2279,30.8282,9,14.9459,23.844,10
147,-1.3362,-20.32,10,-31.2279,30.8282,9,14.9459,23.844,10
148,-1.3362,-20.32,10,-31.2279,30.8282,9,14.9459,23.844,10
149,-1.3362,-20.32,10,-31.2279,30.8282,9,14.9459,23.844,10
150,-1.3362,-20.32,10,-31.2279,30.8282,9,14.9459,23.844,10
151,-1.3362,-20.32,10,-31.2279,30.8282,9,14.9459,23.844,10
152,-1.3362,-20.32,10,-31.2279,30.8282,9,14.9459,23.844,10
153,-1.3362,-20.32,10,-31.2279,30.8282,9,14.9459,23.844,10
154,-1.3362,-20.32,10,-31.2279,30.8282,9,14.9459,23.844,10
155,-1.3362,-20.32,10,-31.2279,30.8282,9,14.9459,23.844,10
156,-1.3362,-20.32,10,-31.2279,30.8282,9,14.9459,23.844,10
157,-1.3362,-20.32,10,-31.2279,30.8282,9,14.9459,23.844,10
158,-1.3362,-20.32,10,-31.2279,30.8282,9,14.9459,23.844,10
159,-1.3362,-20.32,10,-31.2279,30.8282,9,14.9459,23.844,10
160,-1.3362,-20.32,10,-31.2279,30.8282,9,14.9459,23.844,10
161,-1.3362,-20.32,10,-31.2279,30.8282,9,14.9459,23.844,10
162,-1.3362,-20.32,10,-31.2279,30.8282,9,14.9459,23.844,10
163,-1.3362,-20.32,10,-31.2279,30.8282,9,14.9459,23.844,10
164,-1.3362,-20.32,10,-31.2279,30.8282,9,14.9459,23.844,10
165,-1.3362,-20.32,10,-31.2279,30.8282,9,14.9459,23.844,10
166,-1.3362,-20.32,10,-31.2279,30.8282,9,14.9459,23.844,10
167,-1.3362,-20.32,10,-31.2279,30.8282,9,14.9459,23.844,10
168,-1.3362,-20.32,10,-31.2279,30.8282,9,14.9459,23.844,10
169,-1.3362,-20.32,10,-31.2279,30.8282,9,14.9459,23.844,10
170,-1.3362,-20.32,10,-31.2279,30.8282,9,14.9459,23.844,10
171,-1.3362,-20.32,10,-31.2279,30.8282,9,14.9459,23.844,10
172,-1.3362,-20.32,10,-31.2279,30.8282,9,14.9459,23.844,10
173,-1.3362,-20.32,10,-31.2279,30.8282,9,14.9459,23.844,10
174,-1.3362,-20.32,10,-31.2279,30.8282,9,14.9459,23.844,10
175,-1.3362,-20.32,10,-31.2279,30.8282,9,14.9459,23.844,10
176,-1.3362,-20.32,10,-31.2279,30.8282,9,14.9459,23.844,10
177,-1.3362,-20.32,10,-31.2279,30.8282,9,14.9459,23.844,10
178,-1.3362,-20.32,10,-31.2279,30.8282,9,14.9459,23.844,10
179,-1.3362,-20.32,10,-31.2279,30.8282,9,14.9459,23.844,10
180,-1.3362,-20.32,10,-31.2279,30.8282,9,14.9459,23.844,10
181,-1.3362,-20.32,10,-31.2279,30.8282,9,14.9459,23.844,10
182,-1.3362,-20.32,10,-31.2279,30.8282,9,14.9459,23.844,10
183,-1.3362,-20.32,10,-31.2279,30.8282,9,14.9459,23.844,10
184,-1.3362,-20.32,10,-31.2279,30.8282,9,14.9459,23.844,10
185,-1.3362,-20.32,10,-31.2279,30.8282,9,14.9459,23.844,10
186,-1.3362,-20.32,10,-31.2279,30.8282,9,14.9459,23.844,10
187,-1.3362,-20.32,10,-31.2279,30.8282,9,14.9459,23.844,10
188,-1.3362,-20.32,10,-31.2279,30.8282,9,14.9459,23.844,10
189,-1.3362,-20.32,10,-31.2279,30.8282,9,14.9459,23.844,10
190,-1.3362,-20.32,10,-31.2279,30.8282,9,14.9459,23.844,10
191,-1.3362,-20.32,10,-31.2279,30.8282,9,14.9459,23.844,10
192,-1.3362,-20.32,10,-31.2279,30.8282,9,14.9459,23.844,10
193,-1.3362,-20.32,10,-31.2279,30.8282,9,14.9459,23.844,10
194,-1.3362,-20.32,10,-31.2279,30.8282,9,14.9459,23.844,10
195,-1.3362,-20.32,10,-31.2279,30.8282,9,14.9459,23.844,10
196,-1.3362,-20.32,10,-31.2279,30.8282,9,14.9459,23.844,10
197,-1.3362,-20.32,10,-31.2279,30.8282,9,14.9459,23.844,10
198,-1.3362,-20.32,10,-31.2279,30.8282,9,14.9459,23.844,10
199,-1.3362,-20.32,10,-31.2279,30.8282,9,14.9459,23.844,10
200,-1.3362,-20.32,10,-31.2279,30.8282,9,14.9459,23.844,10
201,-1.3362,-20.32,10,-31.2279,30.8282,9,14.9459,23.844,10
202,-1.3362,-20.32,10,-31.2279,30.8282,9,14.9459,23.844,10
203,-1.3362,-20.32,10,-31.2279,30.8282,9,14.9459,23.844,10
204,-1.3362,-20.32,10,-31.2279,30.8282,9,14.9459,23.844,10
205,-1.3362,-20.32,10,-31.2279,30.8282,9,14.9459,23.844,10
206,-1.3362,-20.32,10,-31.2279,30.8282,9,14.9459,23.844,10
207,-1.3362,-20.32,10,-31.2279,30.8282,9,14.9459,23.844,10
208,-1.3362,-20.32,10,-31.2279,30.8282,9,14.9459,23.844,10
209,-1.3362,-20.32,10,-31.2279,30.8282,9,14.9459,23.844,10
210,-1.3362,-20.32,10,-31.2279,30.8282,9,14.9459,23.844,10
211,-1.3362,-20.32,10,-31.2279,30.8282,9,14.9459,23.844,10
212,-1.3362,-20.32,10,-31.2279,30.8282,9,14.9459,23.844,10
213,-1.3362,-20.32,10,-31.2279,30.8282,9,14.9459,23.844,10
214,-1.3362,-20.32,10,-31.2279,30.8282,9,14.9459,23.844,10
215,-1.3362,-20.32,10,-31.2279,30.8282,9,14.9459,23.844,10
216,-1.3362,-20.32,10,-31.2279,30.8282,9,14.9459,23.844,10
217,-1.3362,-20.32,10,-31.2279,30.8282,9,14.9459,23.844,10
218,-1.3362,-20.32,10,-31.2279,30.8282,9,14.9459,23.844,10
219,-1.3362,-20.32,10,-31.2279,30.8282,9,14.9459,23.844,10
220,-1.3362,-20.32,10,-31.2279,30.8282,9,14.9459,23.844,10
221,-1.3362,-20.32,10,-31.2279,30.8282,9,14.9459,23.844,10
222,-1.3362,-20.32,10,-31.2279,30.8282,9,14.9459,23.844,10
223,-1.3362,-20.32,10,-31.2279,30.8282,9,14.9459,23.844,10
224,-1.3362,-20.32,10,-31.2279,30.8282,9,14.9459,23.844,10
225,-1.3362,-20.32,10,-31.2279,30.8282,9,14.9459,23.844,10
226,-1.3362,-20.32,10,-31.2279,30.8282,9,14.9459,23.844,10
227,-1.3362,-20.32,10,-31.2279,30.8282,9,14.9459,23.844,10
228,-1.3362,-20.32,10,-31.2279,30.8282,9,14.9459,23.844,10
229,-1.3362,-20.32,10,-31.2279,30.8282,9,14.9459,23.844,10
230,-1.3362,-20.32,10,-31.2279,30.8282,9,14.9459,23.844,10
231,-1.3362,-20.32,10,-31.2279,30.8282,9,14.9459,23.844,10
232,-1.3362,-20.32,10,-31.2279,30.8282,9,14.9459,23.844,10
233,-1.3362,-20.32,10,-31.2279,30.8282,9,14.9459,23.844,10
234,-1.3362,-20.32,10,-31.2279,30.8282,9,14.9459,23.844,10
235,-1.3362,-20.32,10,-31.2279,30.8282,9,14.9459,23.844,10
236,-1.3362,-20.32,10,-31.2279,30.8282,9,14.9459,23.844,10
237,-1.3362,-20.32,10,-31.2279,30.8282,9,14.9459,23.844,10
238,-1.3362,-20.32,10,-31.2279,30.8282,9,14.9459,23.844,10
239,-1.3362,-20.32,10,-31.2279,30.8282,9,14.9459,23.844,10
240,-1.3362,-20.32,10,-31.2279,30.8282,9,14.9459,23.844,10
241,-1.3362,-20.32,10,-31.2279,30.8282,9,14.9459,23.844,10
242,-1.3362,-20.32,10,-31.2279,30.8282,9,14.9459,23.844,10
243,-1.3362,-20.32,10,-31.2279,30.8282,9,14.9459,23.844,10
244,-1.3362,-20.32,10,-31.2279,30.8282,9,14.9459,23.844,10
245,-1.3362,-20.32,10,-31.2279,30.8282,9,14.9459,23.844,10
246,-1.3362,-20.32,10,-31.2279,30.8282,9,14.9459,23.844,10
247,-1.3362,-20.32,10,-31.2279,30.8282,9,14.9459,23.844,10
248,-1.3362,-20.32,10,-31.2279,30.8282,9,14.9459,23.844,10
249,-1.3362,-20.32,10,-31.2279,30.8282,9,14.9459,23.844,10
250,-1.3362,-20.32,10,-31.2279,30.8282,9,14.9459,23.844,10
251,-1.3362,-20.32,10,-31.2279,30.8282,9,14.9459,23.844,10
252,-1.3362,-20.32,10,-31.2279,30.8282,9,14.9459,23.844,10
253,-1.3362,-20.32,10,-31.2279,30.8282,9,14.9459,23.844,10
254,-1.3362,-20.32,10,-31.2279,30.8282,9,14.9459,23.844,10
255,-1.3362,-20.32,10,-31.2279,30.8282,9,14.9459,23.844,10
256,-1.3362,-20.32,10,-31.2279,30.8282,9,14.9459,23.844,10
257,-1.3362,-20.32,10,-31.2279,30.8282,9,14.9459,23.844,10
258,-1.3362,-20.32,10,-31.2279,30.8282,9,14.9459,23.844,10
259,-1.3362,-20.32,10,-31.2279,30.8282,9,14.9459,23.844,10
260,-1.3362,-20.32,10,-31.2279,30.8282,9,14.9459,23.844,10
261,-1.3362,-20.32,10,-31.2279,30.8282,9,14.9459,23.844,10
262,-1.3362,-20.32,10,-31.2279,30.8282,9,14.9459,23.844,10
263,-1.3362,-20.32,10,-31.2279,30.8282,9,14.9459,23.844,10
264,-1.3362,-20.32,10,-31.2279,30.8282,9,14.9459,23.844,10
265,-1.3362,-20.32,10,-31.2279,30.8282,9,14.9459,23.844,9
266,-1.3362,-20.32,10,-31.2279,30.8282,9,14.9459,23.844,9
267,-1.3362,-20.32,10,-31.2279,30.8282,9,14.9459,23.844,9
268,-1.3362,-20.32,10,-31.2279,30.8282,9,14.9459,23.844,9
269,-1.3362,-20.32,10,-31.2279,30.8282,9,14.9459,23.844,9
270,-1.3362,-20.32,10,-31.2279,30.8282,9,14.9459,23.844,9
271,-1.3362,-20.32,10,-31.2279,30.8282,9,14.9459,23.844,9
272,-1.3362,-20.32,10,-31.2279,30.8282,9,14.9459,23.844,9
273,-1.3362,-20.32,10,-31.2279,30.8282,9,14.9459,23.844,9
274,-1.3362,-20.32,10,-31.2279,30.8282,9,14.9459,23.844,9
275,-1.3362,-20.32,10,-31.2279,30.8282,9,14.9459,23.844,9
276,-1.3362,-20.32,10,-31.2279,30.8282,9,14.9459,23.844,9
277,-1.3362,-20.32,10,-31.2279,30.8282,9,14.9459,23.844,9
278,-1.3362,-20.32,10,-31.2279,30.8282,9,14.9459,23.844,9
279,-1.3362,-20.32,10,-31.2279,30.8282,9,14.9459,23.844,9
280,-1.3362,-20.32,10,-31.2279,30.8282,9,14.9459,23.844,9
281,-1.3362,-20.32,10,-31.2279,30.8282,9,14.9459,23.844,9
282,-1.3362,-20.32,10,-31.2279,30.8282,9,14.9459,23.844,9
283,-1.3362,-20.32,10,-31.2279,30.8282,9,14.9459,23.844,9
284,-1.3362,-20.32,10,-31.2279,30.8282,9,14.9459,23.844,9
285,-1.3362,-20.32,10,-31.2279,30.8282,9,14.9459,23.844,9
286,-1.3362,-20.32,10,-31.2279,30.8282,9,14.9459,23.844,9
287,-1.3362,-20.32,10,-31.2279,30.8282,9,14.9459,23.844,9
288,-1.3362,-20.32,10,-31.2279,30.8282,9,14.9459,23.844,9
289,-1.3362,-20.32,10,-31.2279,30.8282,9,14.9459,23.844,9
290,-1.3362,-20.32,10,-31.2279,30.8282,9,14.9459,23.844,9
291,-1.3362,-20.32,10,-31.2279,30.8282,9,14.9459,23.844,9
292,-1.3362,-20.32,10,-31.2279,30.8282,9,14.9459,23.844,9
293,-1.3362,-20.32,10,-31.2279,30.8282,9,14.9459,23.844,9
294,-1.3362,-20.32,10,-31.2279,30.8282,9,14.9459,23.844,9
295,-1.3362,-20.32,10,-31.2279,30.8282,9,14.9459,23.844,9
296,-1.3362,-20.32,10,-31.2279,30.8282,9,14.9459,23.844,9
297,-1.3362,-20.32,10,-31.2279,30.8282,9,14.9459,23.844,9
298,-1.3362,-20.32,10,-31.2279,30.8282,9,14.9459,23.844,9
299,-1.3362,-20.32,10,-31.2279,30.8282,9,14.9459,23.844,9
300,-1.3362,-20.32,10,-31.2279,30.8282,9,14.9459,23.844,9
301,-1.3362,-20.32,10,-31.2279,30.8282,9,14.9459,23.844,9
302,-1.3362,-20.32,10,-31.2279,30.8282,9,14.9459,23.844,9
303,-1.3362,-20.32,10,-31.2279,30.8282,9,14.9459,23.844,9
304,-1.3362,-20.32,10,-31.2279,30.8282,9,14.9459,23.844,9
305,-1.3362,-20.32,10,-31.2279,30.8282,9,14.9459,23.844,9
306,-1.3362,-20.32,10,-31.2279,30.8282,9,14.9459,23.844,9
307,-1.3362,-20.32,10,-31.2279,30.8282,9,14.9459,23.844,9
308,-1.3362,-20.32,10,-31.2279,30.8282,9,14.9459,23.844,9
309,-1.3362,-20.32,10,-31.2279,30.8282,9,14.9459,23.844,9
310,-1.3362,-20.32,10,-31.2279,30.8282,9,14.9459,23.844,9
311,-1.3362,-20.32,10,-31.2279,30.8282,9,14.9459,23.844,9
312,-1.3362,-20.32,10,-31.2279,30.8282,9,14.9459,23.844,9
313,-1.3362,-20.32,10,-31.2279,30.8282,9,14.9459,23.844,9
314,-1.3362,-20.32,10,-31.2279,30.8282,9,14.9459,23.844,9
315,-1.3362,-20.32,10,-31.2279,30.8282,9,14.9459,23.844,9
316,-1.3362,-20.32,10,-31.2279,30.8282,9,14.9459,23.844,9
317,-1.3362,-20.32,10,-31.2279,30.8282,9,14.9459,23.844,9
318,-1.3362,-20.32,10,-31.2279,30.8282,9,14.9459,23.844,9
319,-1.3362,-20.32,10,-31.2279,30.8282,9,14.9459,23.844,9
320,-1.3362,-20.32,10,-31.2279,30.8282,9,14.9459,23.844,9
321,-1.3362,-20.32,10,-31.2279,30.8282,9,14.9459,23.844,9
322,-1.3362,-20.32,10,-31.2279,30.8282,9,14.9459,23.844,9
323,-1.3362,-20.32,10,-31.2279,30.8282,9,14.9459,23.844,9
324,-1.3362,-20.32,10,-31.2279,30.8282,9,14.9459,23.844,9
325,-1.3362,-20.32,10,-31.2279,30.8282,9,14.9459,23.844,9
326,-1.3362,-20.32,10,-31.2279,30.8282,9,14.9459,23.844,9
327,-1.3362,-20.32,10,-31.2279,30.8282,9,14.9459,23.844,9
328,-1.3362,-20.32,10,-31.2279,30.8282,9,14.9459,23.844,9
329,-1.3362,-20.32,10,-31.2279,30.8282,9,14.9459,23.844,9
330,-1.3362,-20.32,10,-31.2279,30.8282,9,14.9459,23.844,9
331,-1.3362,-20.32,10,-31.2279,30.8282,9,14.9459,23.844,9
332,-1.3362,-20.32,10,-31.2279,30.8282,9,14.9459,23.844,9
333,-1.3362,-20.32,10,-31.2279,30.8282,9,14.9459,23.844,9
334,-1.3362,-20.32,10,-31.2279,30.8282,9,14.9459,23.844,9
335,-1.3362,-20.32,10,-31.2279,30.8282,9,14.9459,23.844,9
336,-1.3362,-20.32,10,-31.2279,30.8282,9,14.9459,23.844,9
337,-1.3362,-20.32,10,-31.2279,30.8282,9,14.9459,23.844,9
338,-1.3362,-20.32,10,-31.2279,30.8282,9,14.9459,23.844,9
339,-1.3362,-20.32,10,-31.2279,30.8282,9,14.9459,23.844,9
340,-1.3362,-20.32,10,-31.2279,30.8282,9,14.9459,23.844,9
341,-1.3362,-20.32,10,-31.2279,30.8282,9,14.9459,23.844,9
342,-1.3362,-20.32,10,-31.2279,30.8282,9,14.9459,23.844,9
343,-1.3362,-20.32,10,-31.2279,30.8282,9,14.9459,23.844,9
344,-1.3362,-20.32,10,-31.2279,30.8282,9,14.9459,23.844,9
345,-1.3362,-20.32,10,-31.2279,30.8282,9,14.9459,23.844,9
346,-1.3362,-20.32,10,-31.2279,30.8282,9,14.9459,23.844,9
347,-1.3362,-20.32,10,-31.2279,30.8282,9,14.9459,23.844,9
348,-1.3362,-20.32,10,-31.2279,30.8282,9,14.9459,23.844,9
349,-1.3362,-20.32,10,-31.2279,30.8282,9,14.9459,23.844,9
350,-1.3362,-20.32,10,-31.2279,30.8282,9,14.9459,23.844,9
351,-1.3362,-20.32,10,-31.2279,30.8282,9,14.9459,23.844,9
352,-1.3362,-20.32,10,-31.2279,30.8282,9,14.9459,23.844,9
353,-1.3362,-20.32,10,-31.2279,30.8282,9,14.9459,23.844,9
354,-1.3362,-20.32,10,-31.2279,30.8282,9,14.9459,23.844,9
355,-1.3362,-20.32,10,-31.2279,30.8282,9,14.9459,23.844,9
356,-1.3362,-20.32,10,-31.2279,30.8282,9,14.9459,23.844,9
357,-1.3362,-20.32,10,-31.2279,30.8282,9,14.9459,23.844,9
358,-1.3362,-20.32,10,-31.2279,30.8282,9,14.9459,23.844,9
359,-1.3362,-20.32,10,-31.2279,30.8282,9,14.9459,23.844,9
360,-1.3362,-20.32,10,-31.2279,30.8282,9,14.9459,23.844,9
361,-1.3362,-20.32,10,-31.2279,30.8282,9,14.9459,23.844,9
362,-1.3362,-20.32,10,-31.2279,30.8282,9,14.9459,23.844,9
363,-1.3362,-20.32,10,-31.2279,30.8282,9,14.9459,23.844,9
364,-1.3362,-20.32,10,-31.2279,30.8282,9,14.9459,23.844,9
365,-1.3362,-20.32,10,-31.2279,30.8282,9,14.9459,23.844,9
366,-1.3362,-20.32,10,-31.2279,30.8282,9,14.9459,23.844,9
367,-1.3362,-20.32,10,-31.2279,30.8282,9,14.9459,23.844,9
368,-1.3362,-20.32,10,-31.2279,30.8282,9,14.9459,23.844,9
369,-1.3362,-20.32,10,-31.2279,30.8282,9,14.9459,23.844,9
370,-1.3362,-20.32,10,-31.2279,30.8282,9,14.9459,23.844,9
371,-1.3362,-20.32,10,-31.2279,30.8282,9,14.9459,23.844,9
372,-1.3362,-20.32,10,-31.2279,30.8282,9,14.9459,23.844,9
373,-1.3362,-20.32,10,-31.2279,30.8282,9,14.9459,23.844,9
374,-1.3362,-20.32,10,-31.2279,30.8282,9,14.9459,23.844,9
375,-1.3362,-20.32,10,-31.2279,30.8282,9,14.9459,23.844,9
376,-1.3362,-20.32,10,-31.2279,30.8282,9,14.9459,23.844,9
377,-1.3362,-20.32,10,-31.2279,30.8282,9,14.9459,23.844,9
378,-1.3362,-20.32,10,-31.2279,30.8282,9,14.9459,23.844,9
379,-1.3362,-20.32,10,-31.2279,30.8282,9,14.9459,23.844,9
380,-1.3362,-20.32,10,-31.2279,30.8282,9,14.9459,23.844,9
381,-1.3362,-20.32,10,-31.2279,30.8282,9,14.9459,23.844,9
382,-1.3362,-20.32,10,-31.2279,30.8282,9,14.9459,23.844,9
383,-1.3362,-20.32,10,-31.2279,30.8282,9,14.9459,23.844,9
384,-1.3362,-20.32,10,-31.2279,30.8282,9,14.9459,23.844,9
385,-1.3362,-20.32,10,-31.2279,30.8282,9,14.9459,23.844,9
386,-1.3362,-20.32,10,-31.2279,30.8282,9,14.9459,23.844,9
387,-1.3362,-20.32,10,-31.2279,30.8282,9,14.9459,23.844,9
388,-1.3362,-20.32,10,-31.2279,30.8282,9,14.9459,23.844,9
389,-1.3362,-20.32,10,-31.2279,30.8282,9,14.9459,23.844,9
390,-1.3362,-20.32,10,-31.2279,30.8282,9,14.9459,23.844,9
391,-1.3362,-20.32,10,-31.2279,30.8282,9,14.9459,23.844,9
392,-1.3362,-20.32,10,-31.2279,30.8282,9,14.9459,23.844,9
393,-1.3362,-20.32,10,-31.2279,30.8282,9,14.9459,23.844,9
394,-1.3362,-20.32,10,-31.2279,30.8282,9,14.9459,23.844,9
395,-1.3362,-20.32,10,-31.2279,30.8282,9,14.9459,23.844,9
396,-1.3362,-20.32,10,-31.2279,30.8282,9,14.9459,23.844,9
397,-1.3362,-20.32,10,-31.2279,30.8282,9,14.9459,23.844,9
398,-1.3362,-20.32,10,-31.2279,30.8282,9,14.9459,23.844,9
399,-1.3362,-20.32,10,-31.2279,30.8282,9,14.9459,23.844,9
400,-1.3362,-20.32,10,-31.2279,30.8282,9,14.9459,23.844,9
401,-1.3362,-20.32,10,-31.2279,30.8282,9,14.9459,23.844,9
402,-1.3362,-20.32,10,-31.2279,30.8282,9,14.9459,23.844,9
403,-1.3362,-20.32,10,-31.2279,30.8282,9,14.9459,23.844,9
404,-1.3362,-20.32,10,-31.2279,30.8282,9,14.9459,23.844,9
405,-1.3362,-20.32,10,-31.2279,30.8282,9,14.9459,23.844,9
406,-1.3362,-20.32,10,-31.2279,30.8282,9,14.9459,23.844,9
407,-1.3362,-20.32,10,-31.2279,30.8282,9,14.9459,23.844,9
408,-1.3362,-20.32,10,-31.2279,30.8282,9,14.9459,23.844,9
409,-1.3362,-20.32,10,-31.2279,30.8282,9,14.9459,23.844,9
410,-1.3362,-20.32,10,-31.2279,30.8282,9,14.9459,23.844,9
411,-1.3362,-20.32,10,-31.2279,30.8282,9,14.9459,23.844,9
412,-1.3362,-20.32,10,-31.2279,30.8282,9,14.9459,23.844,9
413,-1.3362,-20.32,10,-31.2279,30.8282,9,14.9459,23.844,9
414,-1.3362,-20.32,10,-31.2279,30.8282,9,14.9459,23.844,9
415,-1.3362,-20.32,10,-31.2279,30.8282,9,14.9459,23.844,9
416,-1.3362,-20.32,10,-31.2279,30.8282,9,14.9459,23.844,9
417,-1.3362,-20.32,10,-31.2279,30.8282,9,14.9459,23.844,9
418,-1.3362,-20.32,10,-31.2279,30.8282,9,14.9459,23.844,9
419,-1.3362,-20.32,10,-31.2279,30.8282,9,14.9459,23.844,9
420,-1.3362,-20.32,10,-31.2279,30.8282,9,14.9459,23.844,9
421,-1.3362,-20.32,10,-31.2279,30.8282,9,14.9459,23.844,9
422,-1.3362,-20.32,10,-31.2279,30.8282,9,14.9459,23.844,9
423,-1.3362,-20.32,10,-31.2279,30.8282,9,14.9459,23.844,9
424,-1.3362,-20.32,10,-31.2279,30.8282,9,14.9459,23.844,9
425,-1.3362,-20.32,10,-31.2279,30.8282,9,14.9459,23.844,9
426,-1.3362,-20.32,10,-31.2279,30.8282,9,14.9459,23.844,9
427,-1.3362,-20.32,10,-31.2279,30.8282,9,14.9459,23.844,9
428,-1.3362,-20.32,10,-31.2279,30.8282,9,14.9459,23.844,9
429,-1.3362,-20.32,10,-31.2279,30.8282,9,14.9459,23.844,9
430,-1.3362,-20.32,10,-31.2279,30.8282,9,14.9459,23.844,9
431,-1.3362,-20.32,10,-31.2279,30.8282,9,14.9459,23.844,9
432,-1.3362,-20.32,10,-31.2279,30.8282,9,14.9459,23.844,9
433,-1.3362,-20.32,10,-31.2279,30.8282,9,14.9459,23.844,9
434,-1.3362,-20.32,10,-31.2279,30.8282,9,14.9459,23.844,9
435,-1.3362,-20.32,10,-31.2279,30.8282,9,14.9459,23.844,9
436,-1.3362,-20.32,10,-31.2279,30.8282,9,14.9459,23.844,9
437,-1.3362,-20.32,10,-31.2279,30.8282,9,14.9459,23.844,9
438,-1.3362,-20.32,10,-31.2279,30.8282,9,14.9459,23.844,9
439,-1.3362,-20.32,10,-31.2279,30.8282,9,14.9459,23.844,9
440,-1.3362,-20.32,10,-31.2279,30.8282,9,14.9459,23.844,9
441,-1.3362,-20.32,10,-31.2279,30.8282,9,14.9459,23.844,9
442,-1.3362,-20.32,10,-31.2279,30.8282,9,14.9459,23.844,9
443,-1.3362,-20.32,10,-31.2279,30.8282,9,14.9459,23.844,9
444,-1.3362,-20.32,10,-31.2279,30.8282,9,14.9459,23.844,9
445,-1.3362,-20.32,10,-31.2279,30.8282,9,14.9459,23.844,9
446,-1.3362,-20.32,10,-31.2279,30.8282,9,14.9459,23.844,9
447,-1.3362,-20.32,10,-31.2279,30.8282,9,14.9459,23.844,9
448,-1.3362,-20.32,10,-31.2279,30.8282,9,14.9459,23.844,9
449,-1.3362,-20.32,10,-31.2279,30.8282,9,14.9459,23.844,9
450,-1.3362,-20.32,10,-31.2279,30.8282,9,14.9459,23.844,9
451,-1.3362,-20.32,10,-31.2279,30.8282,9,14.9459,23.844,9
452,-1.3362,-20.32,10,-31.2279,30.8282,9,14.9459,23.844,9
453,-1.3362,-20.32,10,-31.2279,30.8282,9,14.9459,23.844,9
454,-1.3362,-20.32,10,-31.2279,30.8282,9,14.9459,23.844,9
455,-1.3362,-20.32,10,-31.2279,30.8282,9,14.9459,23.844,9
456,-1.3362,-20.32,10,-31.2279,30.8282,9,14.9459,23.844,9
457,-1.3362,-20.32,10,-31.2279,30.8282,9,14.9459,23.844,9
458,-1.3362,-20.32,10,-31.2279,30.8282,9,14.9459,23.844,9
459,-1.3362,-20.32,10,-31.2279,30.8282,9,14.9459,23.844,9
460,-1.3362,-20.32,10,-31.2279,30.8282,9,14.9459,23.844,9
461,-1.3362,-20.32,10,-31.2279,30.8282,9,14.9459,23.844,9
462,-1.3362,-20.32,10,-31.2279,30.8282,9,14.9459,23.844,9
463,-1.3362,-20.32,10,-31.2279,30.8282,9,14.9459,23.844,9
464,-1.3362,-20.32,10,-31.2279,30.8282,9,14.9459,23.844,9
465,-1.3362,-20.32,10,-31.2279,30.8282,9,14.9459,23.844,9
466,-1.3362,-20.32,10,-31.2279,30.8282,9,14.9459,23.844,9
467,-1.3362,-20.32,10,-31.2279,30.8282,9,14.9459,23.844,8
468,-1.3362,-20.32,10,-31.2279,30.8282,9,14.9459,23.844,8
469,-1.3362,-20.32,10,-31.2279,30.8282,9,14.9459,23.844,8
470,-1.3362,-20.32,10,-31.2279,30.8282,9,14.9459,23.844,8
471,-1.3362,-20.32,10,-31.2279,30.8282,9,14.9459,23.844,8
472,-1.3362,-20.32,10,-31.2279,30.8282,9,14.9459,23.844,8
473,-1.3362,-20.32,10,-31.2279,30.8282,9,14.9459,23.844,8
474,-1.3362,-20.32,10,-31.2279,30.8282,8,14.9459,23.844,8
475,-1.3362,-20.32,10,-31.2279,30.8282,8,14.9459,23.844,8
476,-1.3362,-20.32,10,-31.2279,30.8282,8,14.9459,23.844,8
477,-1.3362,-20.32,10,-31.2279,30.8282,8,14.9459,23.844,8
478,-1.3362,-20.32,10,-31.2279,30.8282,8,14.9459,23.844,8
479,-1.3362,-20.32,10,-31.2279,30.8282,8,14.9459,23.844,8
480,-1.3362,-20.32,10,-31.2279,30.8282,8,14.9459,23.844,8
481,-1.3362,-20.32,10,-31.2279,30.8282,8,14.9459,23.844,8
482,-1.3362,-20.32,10,-31.2279,30.8282,8,14.9459,23.844,8
483,-1.3362,-20.32,10,-31.2279,30.8282,8,14.9459,23.844,8
484,-1.3362,-20.32,10,-31.2279,30.8282,8,14.9459,23.844,8
485,-1.3362,-20.32,10,-31.2279,30.8282,8,14.9459,23.844,8
486,-1.3362,-20.32,10,-31.2279,30.8282,8,14.9459,23.844,8
487,-1.3362,-20.32,10,-31.2279,30.8282,8,14.9459,23.844,8
488,-1.3362,-20.32,10,-31.2279,30.8282,8,14.9459,23.844,8
489,-1.3362,-20.32,10,-31.2279,30.8282,8,14.9459,23.844,8
490,-1.3362,-20.32,10,-31.2279,30.8282,8,14.9459,23.844,8
491,-1.3362,-20.32,10,-31.2279,30.8282,8,14.9459,23.844,8
492,-1.3362,-20.32,10,-31.2279,30.8282,8,14.9459,23.844,8
493,-1.3362,-20.32,10,-31.2279,30.8282,8,14.9459,23.844,8
494,-1.3362,-20.32,10,-31.2279,30.8282,8,14.9459,23.844,8
495,-1.3362,-20.32,10,-31.2279,30.8282,8,14.9459,23.844,8
496,-1.3362,-20.32,10,-31.2279,30.8282,8,14.9459,23.844,8
497,-1.3362,-20.32,10,-31.2279,30.8282,8,14.9459,23.844,8
498,-1.3362,-20.32,10,-31.2279,30.8282,8,14.9459,23.844,8
499,-1.3362,-20.32,10,-31.2279,30.8282,8,14.9459,23.844,8
500,-1.3362,-20.32,10,-31.2279,30.8282,8,14.9459,23.844,8
501,-1.3362,-20.32,10,-31.2279,30.8282,8,14.9459,23.844,8
502,-1.3362,-20.32,10,-31.2279,30.8282,8,14.9459,23.844,8
503,-1.3362,-20.32,10,-31.2279,30.8282,8,14.9459,23.844,8
504,-1.3362,-20.32,10,-31.2279,30.8282,8,14.9459,23.844,8
505,-1.3362,-20.32,10,-31.2279,30.8282,8,14.9459,23.844,8
506,-1.3362,-20.32,10,-31.2279,30.8282,8,14.9459,23.844,8
507,-1.3362,-20.32,10,-31.2279,30.8282,8,14.9459,23.844,8
508,-1.3362,-20.32,10,-31.2279,30.8282,8,14.9459,23.844,8
509,-1.3362,-20.32,10,-31.2279,30.8282,8,14.9459,23.844,8
510,-1.3362,-20.32,10,-31.2279,30.8282,8,14.9459,23.844,8
511,-1.3362,-20.32,10,-31.2279,30.8282,8,14.9459,23.844,8
512,-1.3362,-20.32,10,-31.2279,30.8282,8,14.9459,23.844,8
513,-1.3362,-20.32,10,-31.2279,30.8282,8,14.9459,23.844,8
514,-1.3362,-20.32,10,-31.2279,30.8282,8,14.9459,23.844,8
515,-1.3362,-20.32,10,-31.2279,30.8282,8,14.9459,23.844,8
516,-1.3362,-20.32,10,-31.2279,30.8282,8,14.9459,23.844,8
517,-1.3362,-20.32,10,-31.2279,30.8282,8,14.9459,23.844,8
518,-1.3362,-20.32,10,-31.2279,30.8282,8,14.9459,23.844,8
519,-1.3362,-20.32,10,-31.2279,30.8282,8,14.9459,23.844,8
520,-1.3362,-20.32,10,-31.2279,30.8282,8,14.9459,23.844,8
521,-1.3362,-20.32,10,-31.2279,30.8282,8,14.9459,23.844,8
522,-1.3362,-20.32,10,-31.2279,30.8282,8,14.9459,23.844,8
523,-1.3362,-20.32,10,-31.2279,30.8282,8,14.9459,23.844,8
524,-1.3362,-20.32,10,-31.2279,30.8282,8,14.9459,23.844,8
525,-1.3362,-20.32,10,-31.2279,30.8282,8,14.9459,23.844,8
526,-1.3362,-20.32,10,-31.2279,30.8282,8,14.9459,23.844,8
527,-1.3362,-20.32,10,-31.2279,30.8282,8,14.9459,23.844,8
528,-1.3362,-20.32,10,-31.2279,30.8282,8,14.9459,23.844,8
529,-1.3362,-20.32,10,-31.2279,30.8282,8,14.9459,23.844,8
530,-1.3362,-20.32,10,-31.2279,30.8282,8,14.9459,23.844,8
531,-1.3362,-20.32,10,-31.2279,30.8282,8,14.9459,23.844,8
532,-1.3362,-20.32,10,-31.2279,30.8282,8,14.9459,23.844,8
533,-1.3362,-20.32,10,-31.2279,30.8282,8,14.9459,23.844,8
534,-1.3362,-20.32,10,-31.2279,30.8282,8,14.9459,23.844,8
535,-1.3362,-20.32,10,-31.2279,30.8282,8,14.9459,23.844,8
536,-1.3362,-20.32,10,-31.2279,30.8282,8,14.9459,23.844,8
537,-1.3362,-20.32,10,-31.2279,30.8282,8,14.9459,23.844,8
538,-1.3362,-20.32,10,-31.2279,30.8282,8,14.9459,23.844,8
539,-1.3362,-20.32,10,-31.2279,30.8282,8,14.9459,23.844,8
540,-1.3362,-20.32,10,-31.2279,30.8282,8,14.9459,23.844,8
541,-1.3362,-20.32,10,-31.2279,30.8282,8,14.9459,23.844,8
542,-1.3362,-20.32,10,-31.2279,30.8282,8,14.9459,23.844,8
543,-1.3362,-20.32,10,-31.2279,30.8282,8,14.9459,23.844,8
544,-1.3362,-20.32,10,-31.2279,30.8282,8,14.9459,23.844,8
545,-1.3362,-20.32,10,-31.2279,30.8282,8,14.9459,23.844,8
546,-1.3362,-20.32,10,-31.2279,30.8282,8,14.9459,23.844,8
547,-1.3362,-20.32,10,-31.2279,30.8282,8,14.9459,23.844,8
548,-1.3362,-20.32,10,-31.2279,30.8282,8,14.9459,23.844,8
549,-1.3362,-20.32,10,-31.2279,30.8282,8,14.9459,23.844,8
550,-1.3362,-20.32,10,-31.2279,30.8282,8,14.9459,23.844,8
551,-1.3362,-20.32,10,-31.2279,30.8282,8,14.9459,23.844,8
552,-1.3362,-20.32,10,-31.2279,30.8282,8,14.9459,23.844,8
553,-1.3362,-20.32,10,-31.2279,30.8282,8,14.9459,23.844,8
554,-1.3362,-20.32,10,-31.2279,30.8282,8,14.9459,23.844,8
555,-1.3362,-20.32,10,-31.2279,30.8282,8,14.9459,23.844,8
556,-1.3362,-20.32,10,-31.2279,30.8282,8,14.9459,23.844,8
557,-1.3362,-20.32,10,-31.2279,30.8282,8,14.9459,23.844,8
558,-1.3362,-20.32,10,-31.2279,30.8282,8,14.9459,23.844,8
559,-1.3362,-20.32,10,-31.2279,30.8282,8,14.9459,23.844,8
560,-1.3362,-20.32,10,-31.2279,30.8282,8,14.9459,23.844,8
561,-1.3362,-20.32,10,-31.2279,30.8282,8,14.9459,23.844,8
562,-1.3362,-20.32,10,-31.2279,30.8282,8,14.9459,23.844,8
563,-1.3362,-20.32,10,-31.2279,30.8282,8,14.9459,23.844,8
564,-1.3362,-20.32,10,-31.2279,30.8282,8,14.9459,23.844,8
565,-1.3362,-20.32,10,-31.2279,30.8282,8,14.9459,23.844,8
566,-1.3362,-20.32,10,-31.2279,30.8282,8,14.9459,23.844,8
567,-1.3362,-20.32,10,-31.2279,30.8282,8,14.9459,23.844,8
568,-1.3362,-20.32,10,-31.2279,30.8282,8,14.9459,23.844,8
569,-1.3362,-20.32,10,-31.2279,30.8282,8,14.9459,23.844,8
570,-1.3362,-20.32,10,-31.2279,30.8282,8,14.9459,23.844,8
571,-1.3362,-20.32,10,-31.2279,30.8282,8,14.9459,23.844,8
572,-1.3362,-20.32,10,-31.2279,30.8282,8,14.9459,23.844,8
573,-1.3362,-20.32,10,-31.2279,30.8282,8,14.9459,23.844,8
574,-1.3362,-20.32,10,-31.2279,30.8282,8,14.9459,23.844,8
575,-1.3362,-20.32,10,-31.2279,30.8282,8,14.9459,23.844,8
576,-1.3362,-20.32,10,-31.2279,30.8282,8,14.9459,23.844,8
577,-1.3362,-20.32,10,-31.2279,30.8282,8,14.9459,23.844,8
578,-1.3362,-20.32,10,-31.2279,30.8282,8,14.9459,23.844,8
579,-1.3362,-20.32,10,-31.2279,30.8282,8,14.9459,23.844,8
580,-1.3362,-20.32,10,-31.2279,30.8282,8,14.9459,23.844,8
581,-1.3362,-20.32,10,-31.2279,30.8282,8,14.9459,23.844,8
582,-1.3362,-20.32,10,-31.2279,30.8282,8,14.9459,23.844,8
583,-1.3362,-20.32,10,-31.2279,30.8282,8,14.9459,23.844,8
584,-1.3362,-20.32,10,-31.2279,30.8282,8,14.9459,23.844,8
585,-1.3362,-20.32,10,-31.2279,30.8282,8,14.9459,23.844,8
586,-1.3362,-20.32,10,-31.2279,30.8282,8,14.9459,23.844,8
587,-1.3362,-20.32,10,-31.2279,30.8282,8,14.9459,23.844,8
588,-1.3362,-20.32,10,-31.2279,30.8282,8,14.9459,23.844,8
589,-1.3362,-20.32,10,-31.2279,30.8282,8,14.9459,23.844,8
590,-1.3362,-20.32,10,-31.2279,30.8282,8,14.9459,23.844,8
591,-1.3362,-20.32,10,-31.2279,30.8282,8,14.9459,23.844,8
592,-1.3362,-20.32,10,-31.2279,30.8282,8,14.9459,23.844,8
593,-1.3362,-20.32,10,-31.2279,30.8282,8,14.9459,23.844,8
594,-1.3362,-20.32,10,-31.2279,30.8282,8,14.9459,23.844,8
595,-1.3362,-20.32,10,-31.2279,30.8282,8,14.9459,23.844,8
596,-1.3362,-20.32,10,-31.2279,30.8282,8,14.9459,23.844,8
597,-1.3362,-20.32,10,-31.2279,30.8282,8,14.9459,23.844,8
598,-1.3362,-20.32,10,-31.2279,30.8282,8,14.9459,23.844,8
599,-1.3362,-20.32,10,-31.2279,30.8282,8,14.9459,23.844,8
600,-1.3362,-20.32,10,-31.2279,30.8282,8,14.9459,23.844,8
601,-1.3362,-20.32,10,-31.2279,30.8282,8,14.9459,23.844,8
602,-1.3362,-20.32,10,-31.2279,30.8282,8,14.9459,23.844,8
603,-1.3362,-20.32,10,-31.2279,30.8282,8,14.9459,23.844,8
604,-1.3362,-20.32,10,-31.2279,30.8282,8,14.9459,23.844,8
605,-1.3362,-20.32,10,-31.2279,30.8282,8,14.9459,23.844,8
606,-1.3362,-20.32,10,-31.2279,30.8282,8,14.9459,23.844,8
607,-1.3362,-20.32,10,-31.2279,30.8282,8,14.9459,23.844,8
608,-1.3362,-20.32,10,-31.2279,30.8282,8,14.9459,23.844,8
609,-1.3362,-20.32,10,-31.2279,30.8282,8,14.9459,23.844,8
610,-1.3362,-20.32,10,-31.2279,30.8282,8,14.9459,23.844,8
611,-1.3362,-20.32,10,-31.2279,30.8282,8,14.9459,23.844,8
612,-1.3362,-20.32,10,-31.2279,30.8282,8,14.9459,23.844,8
613,-1.3362,-20.32,10,-31.2279,30.8282,8,14.9459,23.844,8
614,-1.3362,-20.32,10,-31.2279,30.8282,8,14.9459,23.844,7
615,-1.3362,-20.32,10,-31.2279,30.8282,8,14.9459,23.844,7
616,-1.3362,-20.32,10,-31.2279,30.8282,8,14.9459,23.844,7
617,-1.3362,-20.32,10,-31.2279,30.8282,8,14.9459,23.844,7
618,-1.3362,-20.32,10,-31.2279,30.8282,8,14.9459,23.844,7
619,-1.3362,-20.32,10,-31.2279,30.8282,8,14.9459,23.844,7
620,-1.3362,-20.32,10,-31.2279,30.8282,8,14.9459,23.844,7
621,-1.3362,-20.32,10,-31.2279,30.8282,8,14.9459,23.844,7
622,-1.3362,-20.32,10,-31.2279,30.8282,8,14.9459,23.844,7
623,-1.3362,-20.32,10,-31.2279,30.8282,8,14.9459,23.844,7
624,-1.3362,-20.32,10,-31.2279,30.8282,8,14.9459,23.844,7
625,-1.3362,-20.32,10,-31.2279,30.8282,8,14.9459,23.844,7
626,-1.3362,-20.32,10,-31.2279,30.8282,8,14.9459,23.844,7
627,-1.3362,-20.32,10,-31.2279,30.8282,8,14.9459,23.844,7
628,-1.3362,-20.32,10,-31.2279,30.8282,8,14.9459,23.844,7
629,-1.3362,-20.32,10,-31.2279,30.8282,8,14.9459,23.844,7
630,-1.3362,-20.32,10,-31.2279,30.8282,8,14.9459,23.844,7
631,-1.3362,-20.32,10,-31.2279,30.8282,8,14.9459,23.844,7
632,-1.3362,-20.32,10,-31.2279,30.8282,8,14.9459,23.844,7
633,-1.3362,-20.32,10,-31.2279,30.8282,8,14.9459,23.844,7
634,-1.3362,-20.32,10,-31.2279,30.8282,8,14.9459,23.844,7
635,-1.3362,-20.32,10,-31.2279,30.8282,8,14.9459,23.844,7
636,-1.3362,-20.32,10,-31.2279,30.8282,8,14.9459,23.844,7
637,-1.3362,-20.32,10,-31.2279,30.8282,8,14.9459,23.844,7
638,-1.3362,-20.32,10,-31.2279,30.8282,8,14.9459,23.844,7
639,-1.3362,-20.32,10,-31.2279,30.8282,8,14.9459,23.844,7
640,-1.3362,-20.32,10,-31.2279,30.8282,8,14.9459,23.844,7
641,-1.3362,-20.32,10,-31.2279,30.8282,8,14.9459,23.844,7
642,-1.3362,-20.32,10,-31.2279,30.8282,8,14.9459,23.844,7
643,-1.3362,-20.32,10,-31.2279,30.8282,8,14.9459,23.844,7
644,-1.3362,-20.32,10,-31.2279,30.8282,8,14.9459,23.844,7
645,-1.3362,-20.32,10,-31.2279,30.8282,8,14.9459,23.844,7
646,-1.3362,-20.32,10,-31.2279,30.8282,8,14.9459,23.844,7
647,-1.3362,-20.32,10,-31.2279,30.8282,8,14.9459,23.844,7
648,-1.3362,-20.32,10,-31.2279,30.8282,8,14.9459,23.844,7
649,-1.3362,-20.32,10,-31.2279,30.8282,8,14.9459,23.844,7
650,-1.3362,-20.32,10,-31.2279,30.8282,8,14.9459,23.844,7
651,-1.3362,-20.32,10,-31.2279,30.8282,8,14.9459,23.844,7
652,-1.3362,-20.32,10,-31.2279,30.8282,8,14.9459,23.844,7
653,-1.3362,-20.32,10,-31.2279,30.8282,8,14.9459,23.844,7
654,-1.3362,-20.32,10,-31.2279,30.8282,8,14.9459,23.844,7
655,-1.3362,-20.32,10,-31.2279,30.8282,8,14.9459,23.844,7
656,-1.3362,-20.32,10,-31.2279,30.8282,8,14.9459,23.844,7
657,-1.3362,-20.32,10,-31.2279,30.8282,8,14.9459,23.844,7
658,-1.3362,-20.32,10,-31.2279,30.8282,8,14.9459,23.844,7
659,-1.3362,-20.32,10,-31.2279,30.8282,8,14.9459,23.844,7
660,-1.3362,-20.32,10,-31.2279,30.8282,8,14.9459,23.844,7
661,-1.3362,-20.32,10,-31.2279,30.8282,8,14.9459,23.844,7
662,-1.3362,-20.32,10,-31.2279,30.8282,8,14.9459,23.844,7
663,-1.3362,-20.32,10,-31.2279,30.8282,8,14.9459,23.844,7
664,-1.3362,-20.32,10,-31.2279,30.8282,8,14.9459,23.844,7
665,-1.3362,-20.32,10,-31.2279,30.8282,8,14.9459,23.844,7
666,-1.3362,-20.32,10,-31.2279,30.8282,8,14.9459,23.844,7
667,-1.3362,-20.32,10,-31.2279,30.8282,8,14.9459,23.844,7
668,-1.3362,-20.32,10,-31.2279,30.8282,8,14.9459,23.844,7
669,-1.3362,-20.32,10,-31.2279,30.8282,8,14.9459,23.844,7
670,-1.3362,-20.32,10,-31.2279,30.8282,8,14.9459,23.844,7
671,-1.3362,-20.32,10,-31.2279,30.8282,8,14.9459,23.844,7
672,-1.3362,-20.32,10,-31.2279,30.8282,8,14.9459,23.844,7
673,-1.3362,-20.32,10,-31.2279,30.8282,8,14.9459,23.844,7
674,-1.3362,-20.32,10,-31.2279,30.8282,8,14.9459,23.844,7
675,-1.3362,-20.32,10,-31.2279,30.8282,8,14.9459,23.844,7
676,-1.3362,-20.32,10,-31.2279,30.8282,8,14.9459,23.844,7
677,-1.3362,-20.32,10,-31.2279,30.8282,8,14.9459,23.844,7
678,-1.3362,-20.32,10,-31.2279,30.8282,8,14.9459,23.844,7
679,-1.3362,-20.32,10,-31.2279,30.8282,8,14.9459,23.844,7
680,-1.3362,-20.32,10,-31.2279,30.8282,8,14.9459,23.844,7
681,-1.3362,-20.32,10,-31.2279,30.8282,8,14.9459,23.844,7
682,-1.3362,-20.32,10,-31.2279,30.8282,8,14.9459,23.844,7
683,-1.3362,-20.32,10,-31.2279,30.8282,8,14.9459,23.844,7
684,-1.3362,-20.32,10,-31.2279,30.8282,8,14.9459,23.844,7
685,-1.3362,-20.32,10,-31.2279,30.8282,8,14.9459,23.844,7
686,-1.3362,-20.32,10,-31.2279,30.8282,8,14.9459,23.844,7
687,-1.3362,-20.32,10,-31.2279,30.8282,8,14.9459,23.844,7
688,-1.3362,-20.32,10,-31.2279,30.8282,8,14.9459,23.844,7
689,-1.3362,-20.32,10,-31.2279,30.8282,8,14.9459,23.844,7
690,-1.3362,-20.32,10,-31.2279,30.8282,8,14.9459,23.844,7
691,-1.3362,-20.32,10,-31.2279,30.8282,8,14.9459,23.844,7
692,-1.3362,-20.32,10,-31.2279,30.8282,8,14.9459,23.844,7
693,-1.3362,-20.32,10,-31.2279,30.8282,8,14.9459,23.844,7
694,-1.3362,-20.32,10,-31.2279,30.8282,8,14.9459,23.844,7
695,-1.3362,-20.32,10,-31.2279,30.8282,8,14.9459,23.844,7
696,-1.3362,-20.32,10,-31.2279,30.8282,8,14.9459,23.844,7
697,-1.3362,-20.32,10,-31.2279,30.8282,8,14.9459,23.844,7
698,-1.3362,-20.32,10,-31.2279,30.8282,8,14.9459,23.844,7
699,-1.3362,-20.32,10,-31.2279,30.8282,8,14.9459,23.844,7
700,-1.3362,-20.32,10,-31.2279,30.8282,8,14.9459,23.844,7
701,-1.3362,-20.32,10,-31.2279,30.8282,8,14.9459,23.844,7
702,-1.3362,-20.32,10,-31.2279,30.8282,8,14.9459,23.844,7
703,-1.3362,-20.32,10,-31.2279,30.8282,8,14.9459,23.844,7
704,-1.3362,-20.32,10,-31.2279,30.8282,8,14.9459,23.844,7
705,-1.3362,-20.32,10,-31.2279,30.8282,8,14.9459,23.844,7
706,-1.3362,-20.32,10,-31.2279,30.8282,8,14.9459,23.844,7
707,-1.3362,-20.32,10,-31.2279,30.8282,7,14.9459,23.844,7
708,-1.3362,-20.32,10,-31.2279,30.8282,7,14.9459,23.844,7
709,-1.3362,-20.32,10,-31.2279,30.8282,7,14.9459,23.844,7
710,-1.3362,-20.32,10,-31.2279,30.8282,7,14.9459,23.844,7
711,-1.3362,-20.32,10,-31.2279,30.8282,7,14.9459,23.844,7
712,-1.3362,-20.32,10,-31.2279,30.8282,7,14.9459,23.844,7
713,-1.3362,-20.32,10,-31.2279,30.8282,7,14.9459,23.844,7
714,-1.3362,-20.32,10,-31.2279,30.8282,7,14.9459,23.844,7
715,-1.3362,-20.32,10,-31.2279,30.8282,7,14.9459,23.844,7
716,-1.3362,-20.32,10,-31.2279,30.8282,7,14.9459,23.844,7
717,-1.3362,-20.32,10,-31.2279,30.8282,7,14.9459,23.844,7
718,-1.3362,-20.32,10,-31.2279,30.8282,7,14.9459,23.844,7
719,-1.3362,-20.32,10,-31.2279,30.8282,7,14.9459,23.844,7
720,-1.3362,-20.32,10,-31.2279,30.8282,7,14.9459,23.844,7
721,-1.3362,-20.32,10,-31.2279,30.8282,7,14.9459,23.844,7
722,-1.3362,-20.32,10,-31.2279,30.8282,7,14.9459,23.844,7
723,-1.3362,-20.32,10,-31.2279,30.8282,7,14.9459,23.844,7
724,-1.3362,-20.32,10,-31.2279,30.8282,7,14.9459,23.844,7
725,-1.3362,-20.32,10,-31.2279,30.8282,7,14.9459,23.844,7
726,-1.3362,-20.32,10,-31.2279,30.8282,7,14.9459,23.844,7
727,-1.3362,-20.32,10,-31.2279,30.8282,7,14.9459,23.844,7
728,-1.3362,-20.32,10,-31.2279,30.8282,7,14.9459,23.844,7
729,-1.3362,-20.32,10,-31.2279,30.8282,7,14.9459,23.844,7
730,-1.3362,-20.32,10,-31.2279,30.8282,7,14.9459,23.844,7
731,-1.3362,-20.32,10,-31.2279,30.8282,7,14.9459,23.844,7
732,-1.3362,-20.32,10,-31.2279,30.8282,7,14.9459,23.844,7
733,-1.3362,-20.32,10,-31.2279,30.8282,7,14.9459,23.844,7
734,-1.3362,-20.32,10,-31.2279,30.8282,7,14.9459,23.844,7
735,-1.3362,-20.32,10,-31.2279,30.8282,7,14.9459,23.844,7
736,-1.3362,-20.32,10,-31.2279,30.8282,7,14.9459,23.844,7
737,-1.3362,-20.32,10,-31.2279,30.8282,7,14.9459,23.844,7
738,-1.3362,-20.32,10,-31.2279,30.8282,7,14.9459,23.844,7
739,-1.3362,-20.32,10,-31.2279,30.8282,7,14.9459,23.844,7
740,-1.3362,-20.32,10,-31.2279,30.8282,7,14.9459,23.844,7
741,-1.3362,-20.32,10,-31.2279,30.8282,7,14.9459,23.844,7
742,-1.3362,-20.32,10,-31.2279,30.8282,7,14.9459,23.844,7
743,-1.3362,-20.32,10,-31.2279,30.8282,7,14.9459,23.844,7
744,-1.3362,-20.32,10,-31.2279,30.8282,7,14.9459,23.844,7
745,-1.3362,-20.32,10,-31.2279,30.8282,7,14.9459,23.844,7
746,-1.3362,-20.32,10,-31.2279,30.8282,7,14.9459,23.844,7
747,-1.3362,-20.32,10,-31.2279,30.8282,7,14.9459,23.844,7
748,-1.3362,-20.32,10,-31.2279,30.8282,7,14.9459,23.844,7
749,-1.3362,-20.32,10,-31.2279,30.8282,7,14.9459,23.844,7
750,-1.3362,-20.32,10,-31.2279,30.8282,7,14.9459,23.844,7
751,-1.3362,-20.32,10,-31.2279,30.8282,7,14.9459,23.844,7
752,-1.3362,-20.32,10,-31.2279,30.8282,7,14.9459,23.844,7
753,-1.3362,-20.32,10,-31.2279,30.8282,7,14.9459,23.844,7
754,-1.3362,-20.32,9,-31.2279,30.8282,7,14.9459,23.844,7
755,-1.3362,-20.32,9,-31.2279,30.8282,7,14.9459,23.844,7
756,-1.3362,-20.32,9,-31.2279,30.8282,7,14.9459,23.844,7
757,-1.3362,-20.32,9,-31.2279,30.8282,7,14.9459,23.844,7
758,-1.3362,-20.32,9,-31.2279,30.8282,7,14.9459,23.844,7
759,-1.3362,-20.32,9,-31.2279,30.8282,7,14.9459,23.844,7
760,-1.3362,-20.32,9,-31.2279,30.8282,7,14.9459,23.844,7
761,-1.3362,-20.32,9,-31.2279,30.8282,7,14.9459,23.844,7
762,-1.3362,-20.32,9,-31.2279,30.8282,7,14.9459,23.844,7
763,-1.3362,-20.32,9,-31.2279,30.8282,7,14.9459,23.844,7
764,-1.3362,-20.32,9,-31.2279,30.8282,7,14.9459,23.844,7
765,-1.3362,-20.32,9,-31.2279,30.8282,7,14.9459,23.844,7
766,-1.3362,-20.32,9,-31.2279,30.8282,7,14.9459,23.844,7
767,-1.3362,-20.32,9,-31.2279,30.8282,7,14.9459,23.844,7
768,-1.3362,-20.32,9,-31.2279,30.8282,7,14.9459,23.844,7
769,-1.3362,-20.32,9,-31.2279,30.8282,7,14.9459,23.844,7
770,-1.3362,-20.32,9,-31.2279,30.8282,7,14.9459,23.844,7
771,-1.3362,-20.32,9,-31.2279,30.8282,7,14.9459,23.844,7
772,-1.3362,-20.32,9,-31.2279,30.8282,7,14.9459,23.844,7
773,-1.3362,-20.32,9,-31.2279,30.8282,7,14.9459,23.844,7
774,-1.3362,-20.32,9,-31.2279,30.8282,7,14.9459,23.844,7
775,-1.3362,-20.32,9,-31.2279,30.8282,7,14.9459,23.844,7
776,-1.3362,-20.32,9,-31.2279,30.8282,7,14.9459,23.844,7
777,-1.3362,-20.32,9,-31.2279,30.8282,7,14.9459,23.844,7
778,-1.3362,-20.32,9,-31.2279,30.8282,7,14.9459,23.844,7
779,-1.3362,-20.32,9,-31.2279,30.8282,7,14.9459,23.844,7
780,-1.3362,-20.32,9,-31.2279,30.8282,7,14.9459,23.844,7
781,-1.3362,-20.32,9,-31.2279,30.8282,7,14.9459,23.844,7
782,-1.3362,-20.32,9,-31.2279,30.8282,7,14.9459,23.844,7
783,-1.3362,-20.32,9,-31.2279,30.8282,7,14.9459,23.844,7
784,-1.3362,-20.32,9,-31.2279,30.8282,7,14.9459,23.844,7
785,-1.3362,-20.32,9,-31.2279,30.8282,7,14.9459,23.844,7
786,-1.3362,-20.32,9,-31.2279,30.8282,7,14.9459,23.844,7
787,-1.3362,-20.32,9,-31.2279,30.8282,7,14.9459,23.844,7
788,-1.3362,-20.32,9,-31.2279,30.8282,7,14.9459,23.844,7
789,-1.3362,-20.32,9,-31.2279,30.8282,7,14.9459,23.844,7
790,-1.3362,-20.32,9,-31.2279,30.8282,7,14.9459,23.844,7
791,-1.3362,-20.32,9,-31.2279,30.8282,7,14.9459,23.844,7
792,-1.3362,-20.32,9,-31.2279,30.8282,7,14.9459,23.844,7
793,-1.3362,-20.32,9,-31.2279,30.8282,7,14.9459,23.844,7
794,-1.3362,-20.32,9,-31.2279,30.8282,7,14.9459,23.844,7
795,-1.3362,-20.32,9,-31.2279,30.8282,7,14.9459,23.844,7
796,-1.3362,-20.32,9,-31.2279,30.8282,7,14.9459,23.844,7
797,-1.3362,-20.32,9,-31.2279,30.8282,7,14.9459,23.844,7
798,-1.3362,-20.32,9,-31.2279,30.8282,7,14.9459,23.844,7
799,-1.3362,-20.32,9,-31.2279,30.8282,7,14.9459,23.844,7
800,-1.3362,-20.32,9,-31.2279,30.8282,7,14.9459,23.844,7
801,-1.3362,-20.32,9,-31.2279,30.8282,7,14.9459,23.844,7
802,-1.3362,-20.32,9,-31.2279,30.8282,7,14.9459,23.844,7
803,-1.3362,-20.32,9,-31.2279,30.8282,7,14.9459,23.844,7
804,-1.3362,-20.32,9,-31.2279,30.8282,7,14.9459,23.844,7
805,-1.3362,-20.32,9,-31.2279,30.8282,7,14.9459,23.844,7
806,-1.3362,-20.32,9,-31.2279,30.8282,7,14.9459,23.844,7
807,-1.3362,-20.32,9,-31.2279,30.8282,7,14.9459,23.844,7
808,-1.3362,-20.32,9,-31.2279,30.8282,7,14.9459,23.844,7
809,-1.3362,-20.32,9,-31.2279,30.8282,7,14.9459,23.844,7
810,-1.3362,-20.32,9,-31.2279,30.8282,7,14.9459,23.844,7
811,-1.3362,-20.32,9,-31.2279,30.8282,7,14.9459,23.844,7
812,-1.3362,-20.32,9,-31.2279,30.8282,7,14.9459,23.844,7
813,-1.3362,-20.32,9,-31.2279,30.8282,7,14.9459,23.844,7
814,-1.3362,-20.32,9,-31.2279,30.8282,7,14.9459,23.844,7
815,-1.3362,-20.32,9,-31.2279,30.8282,7,14.9459,23.844,7
816,-1.3362,-20.32,9,-31.2279,30.8282,7,14.9459,23.844,7
817,-1.3362,-20.32,9,-31.2279,30.8282,7,14.9459,23.844,7
818,-1.3362,-20.32,9,-31.2279,30.8282,7,14.9459,23.844,7
819,-1.3362,-20.32,9,-31.2279,30.8282,7,14.9459,23.844,7
820,-1.3362,-20.32,9,-31.2279,30.8282,7,14.9459,23.844,7
821,-1.3362,-20.32,9,-31.2279,30.8282,7,14.9459,23.844,7
822,-1.3362,-20.32,9,-31.2279,30.8282,7,14.9459,23.844,7
823,-1.3362,-20.32,9,-31.2279,30.8282,7,14.9459,23.844,7
824,-1.3362,-20.32,9,-31.2279,30.8282,7,14.9459,23.844,7
825,-1.3362,-20.32,9,-31.2279,30.8282,7,14.9459,23.844,7
826,-1.3362,-20.32,9,-31.2279,30.8282,7,14.9459,23.844,7
827,-1.3362,-20.32,9,-31.2279,30.8282,7,14.9459,23.844,7
828,-1.3362,-20.32,9,-31.2279,30.8282,7,14.9459,23.844,7
829,-1.3362,-20.32,9,-31.2279,30.8282,7,14.9459,23.844,7
830,-1.3362,-20.32,9,-31.2279,30.8282,7,14.9459,23.844,7
831,-1.3362,-20.32,9,-31.2279,30.8282,7,14.9459,23.844,7
832,-1.3362,-20.32,9,-31.2279,30.8282,7,14.9459,23.844,7
833,-1.3362,-20.32,9,-31.2279,30.8282,7,14.9459,23.844,7
834,-1.3362,-20.32,9,-31.2279,30.8282,7,14.9459,23.844,7
835,-1.3362,-20.32,9,-31.2279,30.8282,7,14.9459,23.844,7
836,-1.3362,-20.32,9,-31.2279,30.8282,7,14.9459,23.844,7
837,-1.3362,-20.32,9,-31.2279,30.8282,7,14.9459,23.844,7
838,-1.3362,-20.32,9,-31.2279,30.8282,7,14.9459,23.844,7
839,-1.3362,-20.32,9,-31.2279,30.8282,7,14.9459,23.844,7
840,-1.3362,-20.32,9,-31.2279,30.8282,7,14.9459,23.844,7
841,-1.3362,-20.32,9,-31.2279,30.8282,7,14.9459,23.844,7
842,-1.3362,-20.32,9,-31.2279,30.8282,7,14.9459,23.844,7
843,-1.3362,-20.32,9,-31.2279,30.8282,7,14.9459,23.844,7
844,-1.3362,-20.32,9,-31.2279,30.8282,7,14.9459,23.844,7
845,-1.3362,-20.32,9,-31.2279,30.8282,7,14.9459,23.844,7
846,-1.3362,-20.32,9,-31.2279,30.8282,7,14.9459,23.844,7
847,-1.3362,-20.32,9,-31.2279,30.8282,7,14.9459,23.844,7
848,-1.3362,-20.32,9,-31.2279,30.8282,7,14.9459,23.844,7
849,-1.3362,-20.32,9,-31.2279,30.8282,7,14.9459,23.844,7
850,-1.3362,-20.32,9,-31.2279,30.8282,7,14.9459,23.844,7
851,-1.3362,-20.32,9,-31.2279,30.8282,7,14.9459,23.844,7
852,-1.3362,-20.32,9,-31.2279,30.8282,7,14.9459,23.844,7
853,-1.3362,-20.32,9,-31.2279,30.8282,7,14.9459,23.844,7
854,-1.3362,-20.32,9,-31.2279,30.8282,7,14.9459,23.844,7
855,-1.3362,-20.32,9,-31.2279,30.8282,7,14.9459,23.844,7
856,-1.3362,-20.32,9,-31.2279,30.8282,7,14.9459,23.844,7
857,-1.3362,-20.32,9,-31.2279,30.8282,7,14.9459,23.844,7
858,-1.3362,-20.32,9,-31.2279,30.8282,7,14.9459,23.844,7
859,-1.3362,-20.32,9,-31.2279,30.8282,7,14.9459,23.844,7
860,-1.3362,-20.32,9,-31.2279,30.8282,7,14.9459,23.844,7
861,-1.3362,-20.32,9,-31.2279,30.8282,7,14.9459,23.844,7
862,-1.3362,-20.32,9,-31.2279,30.8282,7,14.9459,23.844,7
863,-1.3362,-20.32,9,-31.2279,30.8282,7,14.9459,23.844,7
864,-1.3362,-20.32,9,-31.2279,30.8282,7,14.9459,23.844,7
865,-1.3362,-20.32,9,-31.2279,30.8282,7,14.9459,23.844,7
866,-1.3362,-20.32,9,-31.2279,30.8282,7,14.9459,23.844,7
867,-1.3362,-20.32,9,-31.2279,30.8282,7,14.9459,23.844,7
868,-1.3362,-20.32,9,-31.2279,30.8282,7,14.9459,23.844,7
869,-1.3362,-20.32,9,-31.2279,30.8282,7,14.9459,23.844,7
870,-1.3362,-20.32,9,-31.2279,30.8282,7,14.9459,23.844,7
871,-1.3362,-20.32,9,-31.2279,30.8282,7,14.9459,23.844,7
872,-1.3362,-20.32,9,-31.2279,30.8282,7,14.9459,23.844,7
873,-1.3362,-20.32,9,-31.2279,30.8282,7,14.9459,23.844,7
874,-1.3362,-20.32,9,-31.2279,30.8282,7,14.9459,23.844,7
875,-1.3362,-20.32,9,-31.2279,30.8282,7,14.9459,23.844,7
876,-1.3362,-20.32,9,-31.2279,30.8282,7,14.9459,23.844,7
877,-1.3362,-20.32,9,-31.2279,30.8282,7,14.9459,23.844,7
878,-1.3362,-20.32,9,-31.2279,30.8282,7,14.9459,23.844,7
879,-1.3362,-20.32,9,-31.2279,30.8282,7,14.9459,23.844,7
880,-1.3362,-20.32,9,-31.2279,30.8282,7,14.9459,23.844,7
881,-1.3362,-20.32,9,-31.2279,30.8282,7,14.9459,23.844,7
882,-1.3362,-20.32,9,-31.2279,30.8282,7,14.9459,23.844,7
883,-1.3362,-20.32,9,-31.2279,30.8282,7,14.9459,23.844,7
884,-1.3362,-20.32,9,-31.2279,30.8282,7,14.9459,23.844,7
885,-1.3362,-20.32,9,-31.2279,30.8282,7,14.9459,23.844,7
886,-1.3362,-20.32,9,-31.2279,30.8282,7,14.9459,23.844,7
887,-1.3362,-20.32,9,-31.2279,30.8282,7,14.9459,23.844,7
888,-1.3362,-20.32,9,-31.2279,30.8282,7,14.9459,23.844,7
889,-1.3362,-20.32,9,-31.2279,30.8282,7,14.9459,23.844,7
890,-1.3362,-20.32,9,-31.2279,30.8282,7,14.9459,23.844,7
891,-1.3362,-20.32,9,-31.2279,30.8282,7,14.9459,23.844,7
892,-1.3362,-20.32,9,-31.2279,30.8282,7,14.9459,23.844,7
893,-1.3362,-20.32,9,-31.2279,30.8282,7,14.9459,23.844,7
894,-1.3362,-20.32,9,-31.2279,30.8282,7,14.9459,23.844,7
895,-1.3362,-20.32,9,-31.2279,30.8282,7,14.9459,23.844,7
896,-1.3362,-20.32,9,-31.2279,30.8282,7,14.9459,23.844,7
897,-1.3362,-20.32,9,-31.2279,30.8282,7,14.9459,23.844,7
898,-1.3362,-20.32,9,-31.2279,30.8282,7,14.9459,23.844,7
899,-1.3362,-20.32,9,-31.2279,30.8282,7,14.9459,23.844,7
900,-1.3362,-20.32,9,-31.2279,30.8282,7,14.9459,23.844,7
901,-1.3362,-20.32,9,-31.2279,30.8282,7,14.9459,23.844,7
902,-1.3362,-20.32,9,-31.2279,30.8282,7,14.9459,23.844,7
903,-1.3362,-20.32,9,-31.2279,30.8282,7,14.9459,23.844,7
904,-1.3362,-20.32,9,-31.2279,30.8282,7,14.9459,23.844,7
905,-1.3362,-20.32,9,-31.2279,30.8282,7,14.9459,23.844,7
906,-1.3362,-20.32,9,-31.2279,30.8282,7,14.9459,23.844,7
907,-1.3362,-20.32,9,-31.2279,30.8282,7,14.9459,23.844,7
908,-1.3362,-20.32,9,-31.2279,30.8282,7,14.9459,23.844,7
909,-1.3362,-20.32,9,-31.2279,30.8282,7,14.9459,23.844,7
910,-1.3362,-20.32,9,-31.2279,30.8282,7,14.9459,23.844,7
911,-1.3362,-20.32,9,-31.2279,30.8282,7,14.9459,23.844,7
912,-1.3362,-20.32,9,-31.2279,30.8282,7,14.9459,23.844,7
913,-1.3362,-20.32,9,-31.2279,30.8282,7,14.9459,23.844,7
914,-1.3362,-20.32,9,-31.2279,30.8282,7,14.9459,23.844,7
915,-1.3362,-20.32,9,-31.2279,30.8282,7,14.9459,23.844,7
916,-1.3362,-20.32,9,-31.2279,30.8282,7,14.9459,23.844,7
917,-1.3362,-20.32,9,-31.2279,30.8282,7,14.9459,23.844,7
918,-1.3362,-20.32,9,-31.2279,30.8282,7,14.9459,23.844,7
919,-1.3362,-20.32,9,-31.2279,30.8282,7,14.9459,23.844,7
920,-1.3362,-20.32,9,-31.2279,30.8282,7,14.9459,23.844,7
921,-1.3362,-20.32,9,-31.2279,30.8282,7,14.9459,23.844,7
922,-1.3362,-20.32,9,-31.2279,30.8282,7,14.9459,23.844,7
923,-1.3362,-20.32,9,-31.2279,30.8282,7,14.9459,23.844,7
924,-1.3362,-20.32,9,-31.2279,30.8282,7,14.9459,23.844,7
925,-1.3362,-20.32,9,-31.2279,30.8282,7,14.9459,23.844,7
926,-1.3362,-20.32,9,-31.2279,30.8282,7,14.9459,23.844,7
927,-1.3362,-20.32,9,-31.2279,30.8282,7,14.9459,23.844,7
928,-1.3362,-20.32,9,-31.2279,30.8282,7,14.9459,23.844,7
929,-1.3362,-20.32,9,-31.2279,30.8282,7,14.9459,23.844,7
930,-1.3362,-20.32,9,-31.2279,30.8282,7,14.9459,23.844,7
931,-1.3362,-20.32,9,-31.2279,30.8282,7,14.9459,23.844,7
932,-1.3362,-20.32,9,-31.2279,30.8282,7,14.9459,23.844,7
933,-1.3362,-20.32,8,-31.2279,30.8282,7,14.9459,23.844,7
934,-1.3362,-20.32,8,-31.2279,30.8282,7,14.9459,23.844,7
935,-1.3362,-20.32,8,-31.2279,30.8282,7,14.9459,23.844,7
936,-1.3362,-20.32,8,-31.2279,30.8282,7,14.9459,23.844,7
937,-1.3362,-20.32,8,-31.2279,30.8282,7,14.9459,23.844,7
938,-1.3362,-20.32,8,-31.2279,30.8282,7,14.9459,23.844,7
939,-1.3362,-20.32,8,-31.2279,30.8282,7,14.9459,23.844,7
940,-1.3362,-20.32,8,-31.2279,30.8282,7,14.9459,23.844,7
941,-1.3362,-20.32,8,-31.2279,30.8282,7,14.9459,23.844,7
942,-1.3362,-20.32,8,-31.2279,30.8282,7,14.9459,23.844,7
943,-1.3362,-20.32,8,-31.2279,30.8282,7,14.9459,23.844,7
944,-1.3362,-20.32,8,-31.2279,30.8282,7,14.9459,23.844,7
945,-1.3362,-20.32,8,-31.2279,30.8282,7,14.9459,23.844,7
946,-1.3362,-20.32,8,-31.2279,30.8282,7,14.9459,23.844,7
947,-1.3362,-20.32,8,-31.2279,30.8282,7,14.9459,23.844,7
948,-1.3362,-20.32,8,-31.2279,30.8282,7,14.9459,23.844,7
949,-1.3362,-20.32,8,-31.2279,30.8282,7,14.9459,23.844,7
950,-1.3362,-20.32,8,-31.2279,30.8282,7,14.9459,23.844,7
951,-1.3362,-20.32,8,-31.2279,30.8282,7,14.9459,23.844,7
952,-1.3362,-20.32,8,-31.2279,30.8282,7,14.9459,23.844,7
953,-1.3362,-20.32,8,-31.2279,30.8282,7,14.9459,23.844,7
954,-1.3362,-20.32,8,-31.2279,30.8282,7,14.9459,23.844,7
955,-1.3362,-20.32,8,-31.2279,30.8282,7,14.9459,23.844,7
956,-1.3362,-20.32,8,-31.2279,30.8282,7,14.9459,23.844,7
957,-1.3362,-20.32,8,-31.2279,30.8282,7,14.9459,23.844,7
958,-1.3362,-20.32,8,-31.2279,30.8282,7,14.9459,23.844,7
959,-1.3362,-20.32,8,-31.2279,30.8282,7,14.9459,23.844,7
960,-1.3362,-20.32,8,-31.2279,30.8282,7,14.9459,23.844,7
961,-1.3362,-20.32,8,-31.2279,30.8282,7,14.9459,23.844,7
962,-1.3362,-20.32,8,-31.2279,30.8282,7,14.9459,23.844,7
963,-1.3362,-20.32,8,-31.2279,30.8282,7,14.9459,23.844,7
964,-1.3362,-20.32,8,-31.2279,30.8282,7,14.9459,23.844,7
965,-1.3362,-20.32,8,-31.2279,30.8282,7,14.9459,23.844,7
966,-1.3362,-20.32,8,-31.2279,30.8282,7,14.9459,23.844,7
967,-1.3362,-20.32,8,-31.2279,30.8282,7,14.9459,23.844,7
968,-1.3362,-20.32,8,-31.2279,30.8282,7,14.9459,23.844,7
969,-1.3362,-20.32,8,-31.2279,30.8282,7,14.9459,23.844,7
970,-1.3362,-20.32,8,-31.2279,30.8282,7,14.9459,23.844,7
971,-1.3362,-20.32,8,-31.2279,30.8282,7,14.9459,23.844,7
972,-1.3362,-20.32,8,-31.2279,30.8282,7,14.9459,23.844,7
973,-1.3362,-20.32,8,-31.2279,30.8282,7,14.9459,23.844,7
974,-1.3362,-20.32,8,-31.2279,30.8282,7,14.9459,23.844,7
975,-1.3362,-20.32,8,-31.2279,30.8282,7,14.9459,23.844,7
976,-1.3362,-20.32,8,-31.2279,30.8282,7,14.9459,23.844,7
977,-1.3362,-20.32,8,-31.2279,30.8282,7,14.9459,23.844,7
978,-1.3362,-20.32,8,-31.2279,30.8282,7,14.9459,23.844,7
979,-1.3362,-20.32,8,-31.2279,30.8282,7,14.9459,23.844,7
980,-1.3362,-20.32,8,-31.2279,30.8282,7,14.9459,23.844,7
981,-1.3362,-20.32,8,-31.2279,30.8282,7,14.9459,23.844,7
982,-1.3362,-20.32,8,-31.2279,30.8282,7,14.9459,23.844,7
983,-1.3362,-20.32,8,-31.2279,30.8282,7,14.9459,23.844,7
984,-1.3362,-20.32,8,-31.2279,30.8282,7,14.9459,23.844,7
985,-1.3362,-20.32,8,-31.2279,30.8282,7,14.9459,23.844,7
986,-1.3362,-20.32,8,-31.2279,30.8282,7,14.9459,23.844,7
987,-1.3362,-20.32,8,-31.2279,30.8282,7,14.9459,23.844,7
988,-1.3362,-20.32,8,-31.2279,30.8282,7,14.9459,23.844,7
989,-1.3362,-20.32,8,-31.2279,30.8282,7,14.9459,23.844,7
990,-1.3362,-20.32,8,-31.2279,30.8282,7,14.9459,23.844,7
991,-1.3362,-20.32,8,-31.2279,30.8282,7,14.9459,23.844,7
992,-1.3362,-20.32,8,-31.2279,30.8282,7,14.9459,23.844,7
993,-1.3362,-20.32,8,-31.2279,30.8282,7,14.9459,23.844,7
994,-1.3362,-20.32,8,-31.2279,30.8282,7,14.9459,23.844,7
995,-1.3362,-20.32,8,-31.2279,30.8282,7,14.9459,23.844,7
996,-1.3362,-20.32,8,-31.2279,30.8282,7,14.9459,23.844,7
997,-1.3362,-20.32,8,-31.2279,30.8282,7,14.9459,23.844,7
998,-1.3362,-20.32,8,-31.2279,30.8282,7,14.9459,23.844,7
999,-1.3362,-20.32,8,-31.2279,30.8282,7,14.9459,23.844,7
1000,-1.3362,-20.32,8,-31.2279,30.8282,7,14.9459,23.844,7
