"tick","total"
0,0
1,0
2,0
3,0
4,0
5,0
6,0
7,0
8,0
9,0
10,0
11,0
12,0
13,0
14,0
15,0
16,0
17,0
18,0
19,0
20,0
21,0
22,0
23,0
24,0
25,0
26,0
27,0
28,0
29,0
30,0
31,0
32,0
33,0
34,0
35,0
36,0
37,0
38,0
39,0
40,0
41,0
42,0
43,0
44,0
45,0
46,0
47,0
48,0
49,0
50,0
51,0
52,0
53,0
54,0
55,0
56,0
57,0
58,0
59,0
60,0
61,0
62,0
63,0
64,0
65,0
66,0
67,0
68,0
69,0
70,0
71,0
72,0
73,0
74,0
75,0
76,0
77,0
78,0
79,0
80,0
81,0
82,0
83,0
84,0
85,0
86,0
87,0
88,0
89,0
90,0
91,0
92,0
93,0
94,0
95,0
96,0
97,0
98,0
99,0
100,0
101,0
102,0
103,0
104,0
105,0
106,0
107,0
108,0
109,0
110,0
111,0
112,0
113,0
114,0
115,0
116,0
117,0
118,0
119,0
120,0
121,0
122,0
123,0
124,0
125,0
126,0
127,0
128,0
129,0
130,0
131,0
132,0
133,0
134,0
135,0
136,0
137,0
138,0
139,0
140,0
141,0
142,0
143,0
144,0
145,0
146,0
147,0
148,0
149,0
150,0
151,0
152,0
153,0
154,0
155,0
156,0
157,0
158,0
159,0
160,0
161,0
162,0
163,0
164,0
165,0
166,0
167,0
168,0
169,0
170,0
171,0
172,0
173,0
174,0
175,0
176,0
177,0
178,0
179,0
180,0
181,0
182,0
183,0
184,0
185,0
186,0
187,0
188,0
189,0
190,0
191,0
192,0
193,0
194,0
195,0
196,0
197,0
198,0
199,0
200,0
201,0
202,0
203,0
204,0
205,0
206,0
207,0
208,0
209,0
210,0
211,0
212,0
213,0
214,0
215,0
216,0
217,1
218,1
219,1
220,1
221,1
222,1
223,1
224,1
225,1
226,1
227,1
228,1
229,1
230,1
231,1
232,1
233,1
234,1
235,1
236,1
237,1
238,1
239,1
240,1
241,1
242,1
243,1
244,1
245,1
246,2
247,3
248,3
249,3
250,3
251,4
252,4
253,4
254,4
255,4
256,4
257,4
258,4
259,4
260,4
261,4
262,4
263,4
264,5
265,5
266,5
267,5
268,5
269,5
270,5
271,5
272,5
273,5
274,5
275,5
276,5
277,5
278,5
279,5
280,5
281,5
282,5
283,5
284,5
285,6
286,6
287,6
288,6
289,6
290,6
291,6
292,6
293,6
294,6
295,7
296,8
297,8
298,8
299,8
300,8
301,8
302,8
303,8
304,8
305,8
306,8
307,8
308,8
309,8
310,8
311,8
312,8
313,8
314,8
315,8
316,8
317,8
318,8
319,8
320,8
321,8
322,8
323,8
324,8
325,8
326,9
327,9
328,9
329,9
330,10
331,11
332,11
333,11
334,11
335,11
336,12
337,12
338,12
339,12
340,13
341,13
342,13
343,13
344,13
345,13
346,13
347,13
348,13
349,13
350,13
351,13
352,13
353,13
354,13
355,13
356,13
357,15
358,15
359,15
360,15
361,15
362,15
363,15
364,15
365,15
366,15
367,15
368,15
369,15
370,15
371,15
372,15
373,15
374,16
375,16
376,16
377,16
378,16
379,16
380,16
381,16
382,17
383,17
384,17
385,17
386,18
387,18
388,19
389,19
390,19
391,19
392,19
393,19
394,19
395,19
396,19
397,19
398,19
399,19
400,19
401,19
402,19
403,19
404,19
405,19
406,19
407,19
408,19
409,19
410,19
411,19
412,19
413,19
414,19
415,19
416,19
417,19
418,19
419,19
420,19
421,19
422,19
423,19
424,19
425,19
426,19
427,19
428,19
429,19
430,19
431,19
432,19
433,19
434,19
435,19
436,19
437,19
438,19
439,19
440,19
441,19
442,19
443,19
444,19
445,19
446,19
447,19
448,19
449,19
450,19
451,19
452,19
453,19
454,20
455,20
456,20
457,20
458,20
459,20
460,20
461,20
462,20
463,20
464,20
465,20
466,20
467,20
468,20
469,20
470,20
471,20
472,20
473,20
474,20
475,20
476,20
477,21
478,21
479,21
480,21
481,21
482,21
483,21
484,21
485,21
486,21
487,21
488,21
489,21
490,23
491,24
492,24
493,24
494,24
495,24
496,24
497,24
498,24
499,24
500,24
501,24
502,25
503,25
504,25
505,25
506,25
507,25
508,25
509,25
510,25
511,25
512,25
513,26
514,26
515,26
516,26
517,26
518,26
519,26
520,26
521,26
522,26
523,26
524,26
525,26
526,27
527,27
528,27
529,27
530,27
531,27
532,27
533,27
534,27
535,27
536,27
537,27
538,27
539,27
540,27
541,27
542,27
543,27
544,27
545,27
546,27
547,27
548,27
549,27
550,27
551,28
552,28
553,28
554,28
555,28
556,28
557,28
558,28
559,28
560,28
561,28
562,28
563,28
564,28
565,28
566,28
567,28
568,28
569,28
570,28
571,28
572,28
573,28
574,28
575,28
576,28
577,28
578,28
579,28
580,28
581,28
582,28
583,28
584,28
585,28
586,28
587,28
588,28
589,28
590,28
591,28
592,28
593,28
594,28
595,28
596,28
597,28
598,28
599,28
600,28
601,28
602,28
603,28
604,28
605,28
606,28
607,28
608,29
609,29
610,30
611,30
612,30
613,30
614,30
615,30
616,30
617,30
618,30
619,30
620,30
621,30
622,31
623,31
624,31
625,31
626,31
627,31
628,31
629,31
630,32
631,32
632,32
633,32
634,32
635,32
636,32
637,32
638,32
639,32
640,32
641,32
642,32
643,32
644,32
645,32
646,32
647,32
648,32
649,32
650,33
651,33
652,33
653,33
654,33
655,33
656,34
657,34
658,34
659,34
660,34
661,34
662,34
663,34
664,34
665,34
666,35
667,35
668,35
669,35
670,35
671,35
672,35
673,35
674,35
675,35
676,35
677,35
678,35
679,35
680,35
681,35
682,35
683,35
684,35
685,35
686,35
687,35
688,35
689,35
690,35
691,35
692,35
693,35
694,35
695,35
696,35
697,35
698,35
699,35
700,35
701,35
702,35
703,35
704,35
705,35
706,35
707,35
708,35
709,35
710,35
711,35
712,35
713,35
714,35
715,35
716,35
717,35
718,35
719,35
720,35
721,35
722,35
723,35
724,35
725,35
726,35
727,35
728,35
729,35
730,35
731,35
732,35
733,35
734,35
735,35
736,35
737,35
738,35
739,35
740,35
741,35
742,35
743,35
744,35
745,35
746,35
747,35
748,35
749,35
750,35
751,35
752,35
753,35
754,35
755,35
756,35
757,35
758,35
759,35
760,35
761,35
762,35
763,36
764,36
765,36
766,36
767,36
768,36
769,36
770,36
771,36
772,36
773,36
774,36
775,36
776,36
777,36
778,36
779,36
780,36
781,36
782,36
783,36
784,36
785,36
786,36
787,36
788,36
789,36
790,36
791,36
792,36
793,36
794,36
795,36
796,36
797,36
798,36
799,36
800,36
801,36
802,36
803,36
804,36
805,36
806,36
807,36
808,36
809,36
810,36
811,36
812,36
813,36
814,36
815,36
816,36
817,36
818,36
819,37
820,37
821,37
822,37
823,37
824,37
825,37
826,37
827,37
828,37
829,37
830,37
831,37
832,37
833,37
834,37
835,37
836,37
837,37
838,37
839,37
840,37
841,37
842,37
843,37
844,37
845,37
846,37
847,37
848,37
849,37
850,37
851,37
852,37
853,37
854,37
855,37
856,37
857,37
858,37
859,37
860,37
861,37
862,37
863,37
864,37
865,37
866,37
867,37
868,37
869,37
870,37
871,37
872,37
873,37
874,37
875,37
876,37
877,37
878,37
879,37
880,37
881,37
882,37
883,37
884,37
885,37
886,37
887,37
888,37
889,37
890,37
891,37
892,37
893,37
894,37
895,37
896,37
897,37
898,37
899,37
900,37
901,37
902,37
903,37
904,37
905,37
906,37
907,37
908,37
909,37
910,37
911,37
912,37
913,37
914,37
915,37
916,37
917,37
918,37
919,37
920,37
921,37
922,37
923,37
924,37
925,37
926,37
927,37
928,37
929,37
930,37
931,37
932,37
933,37
934,37
935,37
936,37
937,37
938,37
939,37
940,37
941,37
942,37
943,37
944,37
945,37
946,37
947,37
948,37
949,37
950,37
951,37
952,37
953,37
954,38
955,38
956,38
957,38
958,38
959,38
960,38
961,38
962,38
963,38
964,38
965,38
966,38
967,38
968,39
969,39
970,39
971,39
972,39
973,39
974,39
975,39
976,39
977,39
978,39
979,40
980,40
981,40
982,40
983,40
984,40
985,40
986,40
987,40
988,40
989,40
990,40
991,40
992,40
993,40
994,40
995,40
996,40
997,40
998,40
999,40
1000,40
1001,40
1002,40
1003,40
1004,40
1005,40
1006,40
1007,41
1008,41
1009,41
1010,42
1011,42
1012,42
1013,42
1014,42
1015,42
1016,42
1017,42
1018,42
1019,43
1020,43
1021,43
1022,43
1023,43
1024,43
1025,43
1026,43
1027,43
1028,43
1029,43
1030,43
1031,43
1032,43
1033,43
1034,43
1035,43
1036,44
1037,44
1038,44
1039,44
1040,44
1041,44
1042,44
1043,44
1044,45
1045,45
1046,45
1047,45
1048,45
1049,45
1050,45
1051,47
1052,47
1053,47
1054,47
1055,47
1056,47
1057,47
1058,47
1059,47
1060,47
1061,47
1062,47
1063,47
1064,47
1065,48
1066,49
1067,50
1068,50
1069,50
1070,50
1071,50
1072,50
1073,50
1074,50
1075,50
1076,50
1077,50
1078,50
1079,50
1080,50
1081,50
1082,50
1083,50
1084,51
1085,51
1086,51
1087,51
1088,52
1089,52
1090,52
1091,52
1092,53
1093,53
1094,54
1095,54
1096,54
1097,54
1098,54
1099,54
1100,54
1101,54
1102,54
1103,54
1104,54
1105,54
1106,54
1107,54
1108,54
1109,54
1110,54
1111,54
1112,55
1113,55
1114,55
1115,55
1116,55
1117,55
1118,55
1119,55
1120,55
1121,55
1122,55
1123,55
1124,55
1125,55
1126,55
1127,55
1128,55
1129,55
1130,55
1131,56
1132,56
1133,56
1134,56
1135,56
1136,56
1137,56
1138,56
1139,56
1140,56
1141,56
1142,56
1143,56
1144,56
1145,56
1146,56
1147,56
1148,56
1149,56
1150,56
1151,56
1152,56
1153,56
1154,56
1155,56
1156,56
1157,56
1158,56
1159,56
1160,56
1161,56
1162,56
1163,56
1164,56
1165,56
1166,56
1167,56
1168,56
1169,56
1170,56
1171,56
1172,56
1173,56
1174,56
1175,56
1176,56
1177,56
1178,56
1179,56
1180,56
1181,56
1182,56
1183,56
1184,56
1185,56
1186,56
1187,56
1188,56
1189,56
1190,56
1191,56
1192,56
1193,56
1194,56
1195,57
1196,57
1197,57
1198,57
1199,57
1200,57
1201,57
1202,57
1203,57
1204,57
1205,57
1206,57
1207,57
1208,57
1209,58
1210,58
1211,58
1212,58
1213,58
1214,58
1215,58
1216,58
1217,58
1218,58
1219,58
1220,58
1221,58
1222,58
1223,58
1224,58
1225,59
1226,60
1227,60
1228,60
1229,60
1230,60
1231,60
1232,60
1233,60
1234,60
1235,60
1236,60
1237,60
1238,60
1239,60
1240,60
1241,60
1242,60
1243,60
1244,60
1245,60
1246,60
1247,60
1248,60
1249,60
1250,60
1251,60
1252,60
1253,60
1254,60
1255,60
1256,60
1257,60
1258,60
1259,60
1260,60
1261,60
1262,60
1263,60
1264,60
1265,60
1266,60
1267,60
1268,60
1269,60
1270,60
1271,60
1272,60
1273,60
1274,60
1275,60
1276,60
1277,60
1278,61
1279,61
1280,61
1281,61
1282,61
1283,61
1284,61
1285,61
1286,61
1287,61
1288,61
1289,61
1290,61
1291,61
1292,61
1293,61
1294,61
1295,61
1296,61
1297,61
1298,61
1299,61
1300,61
1301,61
1302,61
1303,61
1304,61
1305,61
1306,61
1307,61
1308,61
1309,61
1310,61
1311,61
1312,61
1313,61
1314,61
1315,61
1316,61
1317,61
1318,61
1319,61
1320,61
1321,61
1322,61
1323,61
1324,61
1325,61
1326,61
1327,61
1328,61
1329,61
1330,61
1331,61
1332,61
1333,61
1334,61
1335,61
1336,61
1337,61
1338,61
1339,61
1340,61
1341,61
1342,61
1343,61
1344,61
1345,61
1346,61
1347,61
1348,61
1349,61
1350,61
1351,61
1352,61
1353,61
1354,61
1355,61
1356,61
1357,61
1358,61
1359,61
1360,61
1361,61
1362,61
1363,61
1364,61
1365,61
1366,61
1367,61
1368,61
1369,61
1370,61
1371,61
1372,61
1373,61
1374,61
1375,61
1376,61
1377,61
1378,61
1379,61
1380,61
1381,61
1382,61
1383,61
1384,61
1385,61
1386,61
1387,61
1388,61
1389,61
1390,61
1391,61
1392,61
1393,61
1394,61
1395,61
1396,61
1397,61
1398,61
1399,61
1400,61
1401,61
1402,61
1403,61
1404,61
1405,61
1406,61
1407,61
1408,61
1409,61
1410,61
1411,61
1412,61
1413,61
1414,61
1415,61
1416,61
1417,61
1418,62
1419,62
1420,62
1421,62
1422,62
1423,62
1424,62
1425,62
1426,62
1427,62
1428,62
1429,62
1430,62
1431,62
1432,62
1433,62
1434,62
1435,62
1436,62
1437,62
1438,62
1439,62
1440,62
1441,62
1442,62
1443,62
1444,62
1445,62
1446,62
1447,62
1448,62
1449,62
1450,62
1451,62
1452,62
1453,63
1454,63
1455,63
1456,63
1457,63
1458,63
1459,63
1460,63
1461,63
1462,63
1463,63
1464,63
1465,63
1466,63
1467,63
1468,63
1469,63
1470,64
1471,64
1472,65
1473,65
1474,65
1475,65
1476,65
1477,65
1478,65
1479,65
1480,65
1481,65
1482,65
1483,65
1484,65
1485,65
1486,65
1487,65
1488,65
1489,65
1490,65
1491,65
1492,65
1493,65
1494,65
1495,65
1496,65
1497,65
1498,66
1499,66
1500,66
1501,66
1502,66
1503,66
1504,67
1505,67
1506,67
1507,67
1508,67
1509,67
1510,67
1511,67
1512,67
1513,67
1514,67
1515,67
1516,67
1517,67
1518,67
1519,67
1520,67
1521,67
1522,67
1523,67
1524,68
1525,68
1526,68
1527,68
1528,68
1529,68
1530,68
1531,68
1532,68
1533,68
1534,68
1535,68
1536,68
1537,68
1538,68
1539,68
1540,68
1541,68
1542,68
1543,68
1544,68
1545,68
1546,68
1547,68
1548,68
1549,68
1550,68
1551,68
1552,68
1553,68
1554,68
1555,68
1556,68
1557,68
1558,68
1559,68
1560,68
1561,68
1562,68
1563,68
1564,68
1565,68
1566,68
1567,68
1568,68
1569,68
1570,68
1571,69
1572,69
1573,69
1574,69
1575,69
1576,69
1577,69
1578,69
1579,69
1580,69
1581,69
1582,69
1583,69
1584,69
1585,69
1586,69
1587,69
1588,69
1589,69
1590,69
1591,69
1592,69
1593,69
1594,69
1595,69
1596,69
1597,69
1598,69
1599,69
1600,69
1601,69
1602,69
1603,69
1604,69
1605,69
1606,69
1607,69
1608,69
1609,69
1610,69
1611,69
1612,69
1613,69
1614,69
1615,69
1616,70
1617,70
1618,70
1619,70
1620,70
1621,70
1622,70
1623,70
1624,70
1625,70
1626,70
1627,71
1628,71
1629,71
1630,72
1631,72
1632,72
1633,72
1634,72
1635,72
1636,73
1637,73
1638,73
1639,73
1640,73
1641,73
1642,73
1643,73
1644,73
1645,73
1646,73
1647,73
1648,73
1649,73
1650,74
1651,74
1652,74
1653,74
1654,74
1655,74
1656,74
1657,75
1658,75
1659,75
1660,75
1661,75
1662,75
1663,75
1664,75
1665,75
1666,75
1667,76
1668,76
1669,76
1670,76
1671,76
1672,76
1673,76
1674,76
1675,76
1676,76
1677,76
1678,77
1679,77
1680,77
1681,77
1682,77
1683,77
1684,77
1685,77
1686,77
1687,77
1688,77
1689,77
1690,78
1691,78
1692,78
1693,78
1694,78
1695,78
1696,78
1697,78
1698,78
1699,78
1700,78
1701,78
1702,79
1703,79
1704,79
1705,79
1706,79
1707,79
1708,79
1709,79
1710,79
1711,79
1712,79
1713,80
1714,80
1715,80
1716,80
1717,81
1718,81
1719,81
1720,81
1721,81
1722,81
1723,81
1724,81
1725,81
1726,81
1727,81
1728,81
1729,81
1730,81
1731,81
1732,81
1733,81
1734,81
1735,81
1736,81
1737,81
1738,81
1739,81
1740,81
1741,81
1742,81
1743,81
1744,81
1745,81
1746,81
1747,81
1748,81
1749,81
1750,81
1751,81
1752,81
1753,81
1754,81
1755,81
1756,81
1757,81
1758,81
1759,81
1760,81
1761,81
1762,81
1763,81
1764,81
1765,81
1766,81
1767,81
1768,81
1769,81
1770,81
1771,81
1772,81
1773,81
1774,81
1775,81
1776,81
1777,81
1778,82
1779,82
1780,82
1781,82
1782,82
1783,83
1784,83
1785,83
1786,83
1787,83
1788,83
1789,83
1790,83
1791,83
1792,83
1793,83
1794,83
1795,83
1796,83
1797,83
1798,83
1799,83
1800,83
1801,83
1802,83
1803,83
1804,83
1805,83
1806,84
1807,84
1808,84
1809,84
1810,84
1811,84
1812,84
1813,84
1814,84
1815,84
1816,84
1817,84
1818,84
1819,84
1820,84
1821,84
1822,84
1823,84
1824,84
1825,84
1826,84
1827,84
1828,84
1829,84
1830,84
1831,84
1832,84
1833,84
1834,84
1835,84
1836,84
1837,85
1838,85
1839,85
1840,85
1841,85
1842,85
1843,85
1844,85
1845,85
1846,85
1847,85
1848,85
1849,85
1850,85
1851,85
1852,85
1853,85
1854,85
1855,85
1856,85
1857,85
1858,85
1859,85
1860,85
1861,85
1862,85
1863,85
1864,85
1865,85
1866,85
1867,85
1868,85
1869,85
1870,85
1871,85
1872,85
1873,85
1874,85
1875,85
1876,85
1877,85
1878,85
1879,85
1880,85
1881,85
1882,85
1883,85
1884,85
1885,85
1886,85
1887,85
1888,85
1889,86
1890,87
1891,87
1892,87
1893,87
1894,87
1895,87
1896,87
1897,88
1898,88
1899,88
1900,88
1901,88
1902,88
1903,88
1904,88
1905,88
1906,88
1907,88
1908,88
1909,88
1910,89
1911,89
1912,89
1913,89
1914,89
1915,89
1916,89
1917,89
1918,89
1919,89
1920,89
1921,89
1922,89
1923,89
1924,89
1925,89
1926,89
1927,89
1928,89
1929,89
1930,89
1931,89
1932,89
1933,89
1934,89
1935,89
1936,89
1937,89
1938,89
1939,89
1940,89
1941,89
1942,89
1943,89
1944,89
1945,90
1946,90
1947,90
1948,90
1949,91
1950,91
1951,92
1952,92
1953,92
1954,92
1955,92
1956,92
1957,92
1958,92
1959,92
1960,92
1961,92
1962,92
1963,92
1964,92
1965,92
1966,92
1967,92
1968,92
1969,92
1970,92
1971,92
1972,92
1973,92
1974,92
1975,92
1976,92
1977,92
1978,92
1979,92
1980,92
1981,92
1982,92
1983,92
1984,93
1985,93
1986,93
1987,93
1988,93
1989,93
1990,93
1991,93
1992,94
1993,94
1994,94
1995,94
1996,94
1997,94
1998,94
1999,94
2000,94
