"tick","total"
0,0
1,0
2,0
3,0
4,0
5,0
6,0
7,0
8,0
9,0
10,0
11,0
12,0
13,0
14,0
15,0
16,0
17,0
18,0
19,0
20,0
21,0
22,0
23,0
24,0
25,0
26,0
27,0
28,0
29,0
30,0
31,0
32,0
33,0
34,0
35,0
36,0
37,0
38,0
39,0
40,0
41,0
42,0
43,0
44,0
45,0
46,0
47,0
48,0
49,0
50,0
51,0
52,0
53,0
54,0
55,0
56,0
57,0
58,0
59,0
60,0
61,0
62,0
63,0
64,0
65,0
66,0
67,0
68,0
69,0
70,0
71,0
72,0
73,0
74,0
75,0
76,0
77,0
78,0
79,0
80,0
81,0
82,0
83,0
84,0
85,0
86,0
87,0
88,0
89,0
90,0
91,0
92,0
93,0
94,0
95,0
96,0
97,0
98,0
99,0
100,0
101,0
102,0
103,0
104,0
105,0
106,0
107,0
108,0
109,0
110,0
111,0
112,0
113,0
114,0
115,1
116,2
117,2
118,2
119,2
120,2
121,3
122,3
123,3
124,3
125,3
126,3
127,3
128,3
129,4
130,4
131,4
132,4
133,4
134,4
135,4
136,4
137,4
138,4
139,4
140,4
141,5
142,6
143,6
144,6
145,6
146,6
147,6
148,7
149,8
150,8
151,9
152,9
153,9
154,9
155,9
156,9
157,9
158,9
159,9
160,9
161,10
162,11
163,11
164,11
165,11
166,11
167,11
168,11
169,11
170,11
171,11
172,11
173,11
174,11
175,11
176,11
177,11
178,12
179,12
180,12
181,12
182,12
183,12
184,12
185,12
186,12
187,13
188,13
189,13
190,13
191,14
192,14
193,14
194,14
195,14
196,14
197,14
198,14
199,14
200,14
201,14
202,14
203,14
204,14
205,14
206,14
207,14
208,15
209,15
210,15
211,15
212,15
213,15
214,15
215,16
216,17
217,18
218,19
219,19
220,19
221,19
222,19
223,19
224,19
225,19
226,19
227,19
228,19
229,19
230,19
231,19
232,19
233,19
234,19
235,19
236,19
237,19
238,19
239,19
240,19
241,19
242,20
243,20
244,20
245,21
246,21
247,21
248,21
249,21
250,21
251,21
252,21
253,21
254,21
255,21
256,21
257,21
258,21
259,21
260,21
261,21
262,22
263,22
264,22
265,22
266,22
267,22
268,22
269,22
270,22
271,23
272,23
273,23
274,23
275,23
276,23
277,23
278,23
279,23
280,23
281,23
282,23
283,24
284,25
285,25
286,25
287,26
288,26
289,26
290,26
291,26
292,26
293,27
294,27
295,28
296,28
297,28
298,28
299,28
300,28
301,28
302,28
303,28
304,28
305,28
306,28
307,28
308,28
309,28
310,28
311,28
312,28
313,28
314,28
315,28
316,28
317,28
318,28
319,28
320,28
321,28
322,28
323,28
324,28
325,28
326,28
327,28
328,28
329,28
330,28
331,28
332,28
333,28
334,28
335,29
336,29
337,29
338,29
339,29
340,29
341,30
342,30
343,30
344,30
345,30
346,30
347,30
348,30
349,30
350,30
351,30
352,31
353,31
354,31
355,31
356,31
357,31
358,31
359,31
360,31
361,31
362,31
363,32
364,33
365,33
366,33
367,33
368,33
369,33
370,33
371,33
372,33
373,33
374,33
375,33
376,33
377,33
378,33
379,33
380,33
381,33
382,33
383,33
384,33
385,33
386,34
387,34
388,34
389,34
390,34
391,34
392,34
393,34
394,34
395,34
396,34
397,34
398,34
399,34
400,34
401,34
402,34
403,34
404,34
405,34
406,34
407,34
408,34
409,34
410,34
411,34
412,34
413,34
414,34
415,34
416,34
417,34
418,34
419,35
420,35
421,35
422,35
423,35
424,35
425,35
426,35
427,35
428,35
429,35
430,36
431,37
432,37
433,37
434,37
435,37
436,37
437,37
438,37
439,37
440,37
441,38
442,38
443,38
444,39
445,39
446,39
447,39
448,39
449,39
450,39
451,39
452,39
453,39
454,39
455,39
456,39
457,39
458,39
459,39
460,39
461,39
462,39
463,39
464,39
465,39
466,39
467,39
468,39
469,39
470,39
471,40
472,40
473,40
474,40
475,40
476,41
477,41
478,41
479,41
480,41
481,41
482,41
483,41
484,41
485,41
486,41
487,41
488,41
489,41
490,41
491,42
492,42
493,42
494,42
495,42
496,42
497,43
498,43
499,43
500,43
501,43
502,43
503,43
504,43
505,43
506,43
507,43
508,43
509,43
510,43
511,43
512,43
513,43
514,43
515,43
516,43
517,43
518,43
519,44
520,44
521,44
522,44
523,44
524,44
525,44
526,44
527,44
528,44
529,44
530,44
531,44
532,44
533,44
534,44
535,44
536,44
537,45
538,45
539,45
540,45
541,45
542,45
543,45
544,45
545,45
546,45
547,45
548,45
549,45
550,45
551,45
552,45
553,45
554,45
555,45
556,45
557,45
558,45
559,45
560,45
561,45
562,45
563,45
564,46
565,46
566,46
567,46
568,46
569,46
570,46
571,46
572,46
573,46
574,46
575,46
576,46
577,46
578,46
579,46
580,46
581,46
582,46
583,46
584,46
585,46
586,46
587,46
588,46
589,46
590,46
591,46
592,46
593,46
594,46
595,46
596,47
597,48
598,48
599,48
600,48
601,48
602,48
603,48
604,48
605,48
606,48
607,48
608,48
609,48
610,48
611,48
612,48
613,48
614,48
615,48
616,48
617,48
618,48
619,48
620,48
621,48
622,48
623,48
624,48
625,48
626,48
627,48
628,48
629,48
630,48
631,48
632,48
633,48
634,49
635,49
636,49
637,49
638,49
639,49
640,49
641,49
642,49
643,49
644,49
645,49
646,49
647,50
648,50
649,50
650,50
651,51
652,51
653,51
654,51
655,51
656,51
657,51
658,51
659,51
660,51
661,51
662,51
663,51
664,51
665,51
666,51
667,51
668,51
669,51
670,51
671,51
672,51
673,51
674,51
675,51
676,51
677,51
678,51
679,51
680,51
681,51
682,51
683,51
684,51
685,51
686,51
687,51
688,51
689,51
690,51
691,51
692,51
693,51
694,51
695,51
696,51
697,51
698,51
699,51
700,51
701,51
702,51
703,51
704,51
705,51
706,51
707,51
708,51
709,51
710,51
711,51
712,51
713,51
714,51
715,51
716,51
717,51
718,51
719,51
720,51
721,51
722,51
723,51
724,51
725,51
726,51
727,51
728,51
729,51
730,51
731,51
732,51
733,51
734,51
735,51
736,51
737,51
738,51
739,51
740,52
741,53
742,53
743,53
744,53
745,53
746,53
747,53
748,54
749,54
750,54
751,54
752,54
753,54
754,54
755,54
756,54
757,54
758,54
759,54
760,54
761,54
762,54
763,54
764,54
765,54
766,54
767,54
768,54
769,55
770,55
771,55
772,55
773,55
774,55
775,55
776,55
777,55
778,55
779,55
780,55
781,55
782,55
783,55
784,55
785,55
786,55
787,55
788,55
789,55
790,55
791,57
792,57
793,57
794,57
795,57
796,58
797,58
798,58
799,58
800,58
801,58
802,58
803,58
804,58
805,58
806,58
807,58
808,58
809,58
810,58
811,58
812,58
813,58
814,58
815,58
816,58
817,58
818,58
819,59
820,59
821,59
822,59
823,59
824,59
825,59
826,59
827,59
828,59
829,59
830,59
831,59
832,59
833,59
834,59
835,59
836,59
837,59
838,61
839,61
840,61
841,61
842,61
843,61
844,61
845,61
846,61
847,61
848,61
849,61
850,61
851,61
852,61
853,61
854,61
855,61
856,61
857,62
858,62
859,63
860,63
861,63
862,63
863,63
864,63
865,63
866,63
867,63
868,63
869,63
870,63
871,63
872,63
873,63
874,63
875,63
876,63
877,63
878,63
879,63
880,63
881,63
882,63
883,63
884,63
885,63
886,63
887,63
888,63
889,63
890,63
891,63
892,63
893,64
894,64
895,64
896,64
897,65
898,66
899,66
900,66
901,66
902,66
903,66
904,66
905,66
906,66
907,66
908,68
909,68
910,69
911,69
912,69
913,69
914,69
915,69
916,69
917,69
918,69
919,69
920,69
921,71
922,71
923,71
924,71
925,71
926,71
927,71
928,71
929,71
930,71
931,72
932,72
933,72
934,72
935,73
936,73
937,73
938,73
939,73
940,73
941,73
942,73
943,74
944,74
945,74
946,74
947,74
948,74
949,74
950,74
951,74
952,74
953,74
954,75
955,75
956,75
957,75
958,75
959,76
960,76
961,76
962,76
963,76
964,76
965,76
966,76
967,76
968,76
969,76
970,76
971,76
972,76
973,76
974,76
975,76
976,76
977,76
978,76
979,76
980,76
981,76
982,76
983,76
984,76
985,76
986,76
987,76
988,76
989,76
990,76
991,76
992,76
993,76
994,76
995,76
996,76
997,76
998,76
999,76
1000,76
1001,76
1002,77
1003,77
1004,78
1005,78
1006,78
1007,78
1008,78
1009,79
1010,79
1011,79
1012,79
1013,79
1014,79
1015,79
1016,79
1017,79
1018,79
1019,79
1020,79
1021,79
1022,79
1023,79
1024,79
1025,79
1026,79
1027,79
1028,79
1029,79
1030,79
1031,79
1032,79
1033,79
1034,79
1035,79
1036,79
1037,79
1038,79
1039,79
1040,79
1041,79
1042,79
1043,79
1044,79
1045,79
1046,79
1047,79
1048,79
1049,79
1050,79
1051,79
1052,79
1053,79
1054,79
1055,79
1056,79
1057,79
1058,79
1059,79
1060,80
1061,80
1062,80
1063,80
1064,80
1065,80
1066,80
1067,80
1068,80
1069,80
1070,80
1071,80
1072,80
1073,80
1074,81
1075,81
1076,81
1077,81
1078,81
1079,81
1080,81
1081,81
1082,81
1083,81
1084,81
1085,81
1086,81
1087,81
1088,81
1089,81
1090,81
1091,81
1092,81
1093,81
1094,81
1095,81
1096,81
1097,81
1098,81
1099,81
1100,81
1101,81
1102,81
1103,81
1104,81
1105,81
1106,81
1107,81
1108,81
1109,81
1110,81
1111,81
1112,81
1113,81
1114,81
1115,81
1116,81
1117,81
1118,81
1119,81
1120,81
1121,81
1122,81
1123,81
1124,81
1125,81
1126,81
1127,81
1128,81
1129,81
1130,81
1131,81
1132,81
1133,81
1134,81
1135,81
1136,81
1137,81
1138,81
1139,81
1140,81
1141,81
1142,81
1143,81
1144,81
1145,81
1146,81
1147,81
1148,81
1149,81
1150,81
1151,81
1152,81
1153,81
1154,81
1155,81
1156,81
1157,81
1158,81
1159,81
1160,81
1161,81
1162,81
1163,81
1164,81
1165,81
1166,81
1167,81
1168,81
1169,81
1170,81
1171,81
1172,82
1173,83
1174,83
1175,83
1176,83
1177,83
1178,83
1179,83
1180,83
1181,83
1182,83
1183,83
1184,83
1185,83
1186,83
1187,83
1188,84
1189,84
1190,84
1191,84
1192,84
1193,84
1194,84
1195,84
1196,84
1197,84
1198,84
1199,84
1200,84
1201,84
1202,84
1203,84
1204,84
1205,84
1206,84
1207,84
1208,84
1209,84
1210,84
1211,84
1212,84
1213,84
1214,84
1215,84
1216,85
1217,85
1218,85
1219,86
1220,86
1221,86
1222,86
1223,86
1224,86
1225,86
1226,86
1227,86
1228,86
1229,86
1230,86
1231,86
1232,86
1233,86
1234,86
1235,86
1236,86
1237,86
1238,86
1239,86
1240,86
1241,86
1242,86
1243,86
1244,86
1245,86
1246,86
1247,86
1248,86
1249,86
1250,86
1251,86
1252,86
1253,86
1254,86
1255,86
1256,86
1257,86
1258,86
1259,87
1260,87
1261,87
1262,87
1263,88
1264,88
1265,88
1266,88
1267,88
1268,88
1269,88
1270,88
1271,88
1272,88
1273,89
1274,89
1275,89
1276,89
1277,89
1278,89
1279,89
1280,89
1281,90
1282,90
1283,90
1284,90
1285,90
1286,90
1287,90
1288,90
1289,91
1290,91
1291,91
1292,91
1293,91
1294,91
1295,91
1296,92
1297,92
1298,92
1299,92
1300,92
1301,92
1302,93
1303,93
1304,93
1305,93
1306,93
1307,93
1308,93
1309,93
1310,93
1311,94
1312,94
1313,94
1314,94
1315,94
1316,94
1317,94
1318,94
1319,94
1320,94
1321,94
1322,94
1323,94
1324,94
1325,94
1326,95
1327,95
1328,95
1329,95
1330,96
1331,96
1332,96
1333,97
1334,97
1335,97
1336,97
1337,97
1338,97
1339,97
1340,97
1341,99
1342,99
1343,99
1344,99
1345,99
1346,99
1347,100
1348,100
1349,100
1350,100
1351,100
1352,100
1353,100
1354,100
1355,100
1356,100
1357,100
1358,100
1359,100
1360,100
1361,100
1362,100
1363,100
1364,100
1365,100
1366,100
1367,100
1368,100
1369,100
1370,100
1371,100
1372,100
1373,100
1374,100
1375,100
1376,100
1377,100
1378,100
1379,100
1380,100
1381,100
1382,100
1383,100
1384,100
1385,100
1386,100
1387,100
1388,100
1389,100
1390,100
1391,100
1392,100
1393,100
1394,100
1395,100
1396,100
1397,100
1398,100
1399,100
1400,100
1401,100
1402,100
1403,100
1404,100
1405,100
1406,100
1407,100
1408,100
1409,100
1410,100
1411,100
1412,100
1413,100
1414,100
1415,100
1416,100
1417,100
1418,100
1419,100
1420,101
1421,101
1422,101
1423,101
1424,101
1425,101
1426,101
1427,101
1428,101
1429,101
1430,101
1431,102
1432,102
1433,102
1434,102
1435,102
1436,102
1437,102
1438,102
1439,102
1440,102
1441,102
1442,102
1443,102
1444,102
1445,102
1446,102
1447,102
1448,102
1449,102
1450,102
1451,102
1452,102
1453,102
1454,102
1455,102
1456,102
1457,102
1458,102
1459,102
1460,102
1461,102
1462,102
1463,102
1464,102
1465,102
1466,102
1467,102
1468,102
1469,102
1470,102
1471,103
1472,103
1473,103
1474,103
1475,103
1476,103
1477,103
1478,103
1479,103
1480,103
1481,103
1482,103
1483,103
1484,103
1485,104
1486,104
1487,104
1488,104
1489,104
1490,104
1491,104
1492,104
1493,104
1494,104
1495,104
1496,104
1497,104
1498,104
1499,104
1500,104
1501,104
1502,104
1503,104
1504,104
1505,104
1506,104
1507,104
1508,104
1509,104
1510,104
1511,104
1512,104
1513,104
1514,104
1515,104
1516,104
1517,104
1518,104
1519,104
1520,104
1521,104
1522,104
1523,104
1524,104
1525,104
1526,104
1527,104
1528,104
1529,104
1530,104
1531,104
1532,104
1533,104
1534,105
1535,105
1536,105
1537,105
1538,105
1539,105
1540,105
1541,105
1542,105
1543,105
1544,105
1545,105
1546,105
1547,105
1548,105
1549,105
1550,105
1551,106
1552,106
1553,106
1554,106
1555,106
1556,106
1557,106
1558,106
1559,106
1560,106
1561,106
1562,106
1563,106
1564,107
1565,108
1566,108
1567,108
1568,108
1569,108
1570,108
1571,109
1572,109
1573,110
1574,110
1575,110
1576,110
1577,110
1578,111
1579,111
1580,111
1581,111
1582,111
1583,112
1584,113
1585,113
1586,113
1587,113
1588,113
1589,113
1590,113
1591,113
1592,113
1593,113
1594,113
1595,113
1596,113
1597,113
1598,113
1599,113
1600,113
1601,113
1602,113
1603,113
1604,113
1605,113
1606,113
1607,113
1608,113
1609,113
1610,113
1611,113
1612,113
1613,113
1614,113
1615,113
1616,113
1617,113
1618,113
1619,113
1620,113
1621,113
1622,113
1623,113
1624,113
1625,113
1626,113
1627,113
1628,113
1629,113
1630,113
1631,113
1632,113
1633,113
1634,113
1635,113
1636,113
1637,113
1638,113
1639,113
1640,113
1641,113
1642,113
1643,113
1644,113
1645,113
1646,113
1647,113
1648,113
1649,113
1650,114
1651,114
1652,114
1653,114
1654,114
1655,114
1656,114
1657,114
1658,114
1659,114
1660,114
1661,114
1662,114
1663,114
1664,114
1665,114
1666,114
1667,114
1668,114
1669,114
1670,114
1671,114
1672,114
1673,114
1674,114
1675,114
1676,114
1677,114
1678,114
1679,114
1680,114
1681,114
1682,114
1683,114
1684,114
1685,114
1686,114
1687,114
1688,114
1689,114
1690,114
1691,114
1692,114
1693,114
1694,114
1695,114
1696,114
1697,114
1698,114
1699,114
1700,114
1701,115
1702,115
1703,115
1704,116
1705,116
1706,116
1707,117
1708,117
1709,117
1710,117
1711,117
1712,117
1713,117
1714,117
1715,117
1716,117
1717,117
1718,117
1719,117
1720,118
1721,118
1722,118
1723,118
1724,118
1725,118
1726,118
1727,119
1728,119
1729,119
1730,120
1731,120
1732,120
1733,120
1734,121
1735,121
1736,121
1737,121
1738,121
1739,121
1740,121
1741,121
1742,121
1743,121
1744,121
1745,121
1746,121
1747,121
1748,121
1749,121
1750,121
1751,121
1752,121
1753,121
1754,121
1755,121
1756,121
1757,122
1758,122
1759,122
1760,122
1761,122
1762,123
1763,123
1764,123
1765,123
1766,123
1767,123
1768,123
1769,124
1770,124
1771,124
1772,124
1773,124
1774,124
1775,124
1776,124
1777,124
1778,124
1779,125
1780,125
1781,125
1782,125
1783,125
1784,125
1785,125
1786,125
1787,125
1788,125
1789,125
1790,125
1791,125
1792,125
1793,125
1794,125
1795,125
1796,125
1797,125
1798,125
1799,125
1800,125
1801,125
1802,125
1803,125
1804,125
1805,125
1806,125
1807,125
1808,125
1809,125
1810,125
1811,125
1812,125
1813,125
1814,125
1815,125
1816,125
1817,125
1818,125
1819,125
1820,125
1821,125
1822,125
1823,125
1824,125
1825,125
1826,125
1827,125
1828,125
1829,125
1830,125
1831,125
1832,125
1833,125
1834,125
1835,125
1836,125
1837,126
1838,126
1839,126
1840,126
1841,126
1842,126
1843,126
1844,126
1845,126
1846,126
1847,126
1848,126
1849,126
1850,126
1851,126
1852,126
1853,126
1854,126
1855,126
1856,126
1857,126
1858,126
1859,126
1860,126
1861,126
1862,126
1863,126
1864,126
1865,126
1866,126
1867,126
1868,126
1869,126
1870,126
1871,126
1872,126
1873,126
1874,126
1875,126
1876,126
1877,126
1878,126
1879,126
1880,126
1881,126
1882,126
1883,126
1884,126
1885,126
1886,126
1887,126
1888,126
1889,126
1890,126
1891,126
1892,126
1893,126
1894,126
1895,126
1896,127
1897,127
1898,128
1899,128
1900,128
1901,128
1902,128
1903,128
1904,128
1905,128
1906,128
1907,128
1908,128
1909,128
1910,129
1911,129
1912,129
1913,129
1914,129
1915,129
1916,129
1917,129
1918,129
1919,129
1920,129
1921,129
1922,129
1923,129
1924,129
1925,129
1926,129
1927,129
1928,129
1929,129
1930,129
1931,129
1932,129
1933,129
1934,130
1935,130
1936,130
1937,130
1938,130
1939,130
1940,130
1941,130
1942,130
1943,130
1944,130
1945,130
1946,130
1947,130
1948,131
1949,131
1950,131
1951,132
1952,132
1953,132
1954,132
1955,133
1956,133
1957,133
1958,133
1959,133
1960,133
1961,133
1962,133
1963,133
1964,133
1965,133
1966,133
1967,133
1968,133
1969,133
1970,133
1971,133
1972,133
1973,133
1974,133
1975,133
1976,133
1977,133
1978,133
1979,133
1980,133
1981,134
1982,134
1983,134
1984,135
1985,135
1986,135
1987,135
1988,135
1989,135
1990,135
1991,135
1992,135
1993,135
1994,136
1995,136
1996,136
1997,136
1998,136
1999,136
2000,136
