"tick","total"
0,0
1,0
2,0
3,0
4,0
5,0
6,0
7,0
8,0
9,0
10,0
11,0
12,0
13,0
14,0
15,0
16,0
17,0
18,0
19,0
20,0
21,0
22,0
23,0
24,0
25,0
26,0
27,0
28,0
29,0
30,0
31,0
32,0
33,0
34,0
35,0
36,0
37,0
38,0
39,0
40,0
41,0
42,0
43,0
44,0
45,0
46,0
47,0
48,0
49,0
50,0
51,0
52,0
53,0
54,0
55,0
56,0
57,0
58,0
59,0
60,0
61,0
62,0
63,0
64,0
65,0
66,0
67,0
68,0
69,0
70,0
71,0
72,0
73,0
74,0
75,0
76,0
77,0
78,0
79,0
80,0
81,0
82,0
83,0
84,0
85,0
86,0
87,0
88,0
89,0
90,0
91,0
92,0
93,0
94,0
95,0
96,0
97,0
98,0
99,0
100,0
101,0
102,0
103,0
104,0
105,0
106,0
107,0
108,0
109,0
110,0
111,0
112,0
113,0
114,0
115,0
116,0
117,0
118,0
119,0
120,0
121,0
122,0
123,0
124,0
125,0
126,0
127,0
128,0
129,0
130,0
131,0
132,0
133,0
134,0
135,0
136,0
137,0
138,0
139,0
140,0
141,0
142,0
143,0
144,0
145,0
146,0
147,0
148,0
149,0
150,0
151,0
152,0
153,0
154,0
155,0
156,0
157,0
158,0
159,0
160,0
161,0
162,0
163,0
164,0
165,0
166,0
167,0
168,0
169,0
170,0
171,0
172,0
173,0
174,0
175,0
176,0
177,0
178,0
179,0
180,0
181,0
182,0
183,0
184,0
185,0
186,0
187,0
188,0
189,0
190,0
191,0
192,0
193,0
194,0
195,0
196,0
197,0
198,0
199,0
200,0
201,0
202,0
203,0
204,0
205,0
206,0
207,0
208,0
209,0
210,0
211,0
212,0
213,1
214,1
215,1
216,1
217,1
218,1
219,1
220,1
221,1
222,1
223,1
224,1
225,1
226,1
227,1
228,1
229,1
230,1
231,1
232,1
233,1
234,1
235,1
236,1
237,2
238,2
239,2
240,2
241,2
242,2
243,2
244,2
245,2
246,2
247,2
248,2
249,2
250,2
251,2
252,2
253,2
254,2
255,3
256,3
257,3
258,3
259,3
260,3
261,3
262,3
263,3
264,4
265,4
266,4
267,4
268,4
269,4
270,4
271,4
272,4
273,4
274,4
275,4
276,4
277,4
278,4
279,4
280,4
281,4
282,4
283,4
284,4
285,4
286,4
287,5
288,5
289,5
290,5
291,5
292,5
293,5
294,5
295,5
296,5
297,5
298,5
299,6
300,7
301,7
302,7
303,8
304,8
305,8
306,8
307,8
308,8
309,8
310,9
311,9
312,9
313,9
314,9
315,9
316,9
317,9
318,9
319,9
320,9
321,9
322,9
323,9
324,9
325,9
326,9
327,10
328,10
329,11
330,11
331,12
332,12
333,12
334,12
335,12
336,12
337,12
338,12
339,12
340,12
341,12
342,12
343,12
344,12
345,12
346,12
347,12
348,12
349,12
350,12
351,12
352,12
353,12
354,12
355,12
356,12
357,13
358,13
359,13
360,13
361,14
362,15
363,15
364,15
365,15
366,15
367,15
368,15
369,16
370,16
371,16
372,16
373,16
374,16
375,16
376,16
377,16
378,16
379,16
380,16
381,16
382,16
383,16
384,16
385,16
386,16
387,16
388,16
389,16
390,16
391,16
392,16
393,16
394,16
395,16
396,16
397,16
398,16
399,16
400,16
401,16
402,16
403,16
404,16
405,16
406,16
407,16
408,16
409,16
410,16
411,16
412,16
413,16
414,16
415,16
416,16
417,16
418,16
419,16
420,16
421,16
422,16
423,16
424,16
425,16
426,16
427,16
428,16
429,16
430,17
431,17
432,18
433,19
434,19
435,19
436,19
437,19
438,19
439,19
440,19
441,19
442,19
443,19
444,19
445,20
446,20
447,20
448,21
449,21
450,21
451,21
452,21
453,21
454,21
455,21
456,21
457,21
458,21
459,21
460,21
461,21
462,21
463,21
464,21
465,21
466,21
467,21
468,21
469,21
470,21
471,21
472,21
473,21
474,21
475,22
476,22
477,22
478,22
479,22
480,22
481,22
482,22
483,22
484,22
485,22
486,22
487,23
488,23
489,23
490,23
491,23
492,23
493,23
494,23
495,23
496,23
497,24
498,24
499,24
500,24
501,24
502,24
503,24
504,24
505,25
506,26
507,26
508,26
509,26
510,26
511,26
512,26
513,26
514,26
515,26
516,26
517,26
518,26
519,26
520,26
521,26
522,26
523,26
524,26
525,26
526,26
527,27
528,27
529,27
530,27
531,27
532,27
533,28
534,28
535,28
536,28
537,28
538,28
539,28
540,28
541,28
542,28
543,28
544,28
545,28
546,28
547,28
548,28
549,28
550,28
551,28
552,28
553,28
554,28
555,28
556,28
557,28
558,28
559,28
560,29
561,29
562,29
563,29
564,29
565,29
566,29
567,29
568,29
569,29
570,29
571,29
572,29
573,29
574,29
575,29
576,29
577,29
578,29
579,29
580,29
581,29
582,29
583,29
584,29
585,29
586,29
587,29
588,29
589,29
590,29
591,29
592,29
593,29
594,29
595,29
596,29
597,29
598,29
599,29
600,29
601,29
602,29
603,29
604,29
605,29
606,29
607,31
608,31
609,31
610,31
611,31
612,31
613,31
614,31
615,31
616,31
617,31
618,31
619,31
620,31
621,31
622,31
623,31
624,31
625,31
626,31
627,31
628,31
629,31
630,32
631,33
632,33
633,34
634,34
635,35
636,35
637,35
638,35
639,35
640,35
641,35
642,35
643,35
644,35
645,35
646,35
647,35
648,35
649,35
650,36
651,36
652,36
653,37
654,37
655,37
656,38
657,38
658,38
659,38
660,38
661,39
662,39
663,39
664,39
665,39
666,39
667,39
668,39
669,39
670,39
671,39
672,39
673,39
674,39
675,39
676,39
677,39
678,39
679,39
680,39
681,39
682,39
683,39
684,39
685,39
686,39
687,39
688,39
689,39
690,39
691,39
692,39
693,39
694,39
695,39
696,39
697,39
698,39
699,39
700,39
701,39
702,39
703,39
704,39
705,39
706,39
707,39
708,39
709,39
710,40
711,40
712,40
713,40
714,40
715,41
716,41
717,41
718,41
719,41
720,41
721,41
722,41
723,42
724,42
725,43
726,43
727,43
728,44
729,44
730,44
731,44
732,44
733,44
734,45
735,45
736,45
737,45
738,46
739,46
740,46
741,46
742,46
743,46
744,46
745,46
746,46
747,46
748,46
749,46
750,46
751,46
752,46
753,47
754,47
755,47
756,47
757,47
758,47
759,48
760,48
761,49
762,49
763,49
764,49
765,49
766,49
767,49
768,49
769,49
770,49
771,49
772,49
773,49
774,49
775,49
776,49
777,49
778,49
779,49
780,49
781,49
782,49
783,49
784,49
785,50
786,50
787,50
788,50
789,50
790,50
791,50
792,50
793,50
794,50
795,50
796,50
797,50
798,50
799,50
800,50
801,50
802,50
803,50
804,51
805,51
806,51
807,51
808,51
809,52
810,52
811,52
812,52
813,52
814,52
815,52
816,52
817,52
818,52
819,52
820,52
821,52
822,52
823,52
824,53
825,53
826,53
827,53
828,53
829,53
830,53
831,53
832,53
833,53
834,53
835,53
836,53
837,53
838,53
839,53
840,53
841,54
842,54
843,54
844,54
845,54
846,54
847,54
848,54
849,54
850,54
851,54
852,54
853,54
854,54
855,55
856,55
857,55
858,55
859,55
860,55
861,55
862,55
863,55
864,55
865,56
866,56
867,56
868,56
869,56
870,56
871,56
872,56
873,56
874,56
875,56
876,56
877,56
878,56
879,56
880,56
881,56
882,56
883,56
884,56
885,56
886,56
887,56
888,56
889,56
890,56
891,56
892,56
893,56
894,56
895,56
896,56
897,57
898,57
899,57
900,57
901,57
902,57
903,57
904,58
905,58
906,58
907,58
908,58
909,58
910,59
911,59
912,59
913,59
914,59
915,59
916,59
917,59
918,60
919,60
920,60
921,60
922,60
923,60
924,60
925,60
926,60
927,60
928,60
929,60
930,60
931,60
932,60
933,60
934,60
935,60
936,60
937,60
938,60
939,60
940,60
941,60
942,60
943,60
944,60
945,60
946,60
947,60
948,60
949,60
950,60
951,60
952,60
953,60
954,60
955,60
956,60
957,60
958,60
959,60
960,60
961,60
962,60
963,60
964,60
965,60
966,60
967,61
968,61
969,61
970,61
971,61
972,61
973,61
974,61
975,61
976,61
977,61
978,61
979,61
980,61
981,61
982,61
983,61
984,61
985,61
986,61
987,61
988,61
989,61
990,61
991,61
992,61
993,61
994,61
995,61
996,61
997,61
998,61
999,61
1000,61
1001,61
1002,61
1003,61
1004,61
1005,61
1006,61
1007,61
1008,61
1009,61
1010,61
1011,61
1012,62
1013,63
1014,63
1015,64
1016,64
1017,64
1018,64
1019,64
1020,64
1021,64
1022,64
1023,64
1024,64
1025,64
1026,64
1027,64
1028,64
1029,64
1030,64
1031,64
1032,64
1033,64
1034,64
1035,64
1036,64
1037,64
1038,64
1039,64
1040,64
1041,64
1042,64
1043,64
1044,64
1045,64
1046,64
1047,64
1048,64
1049,64
1050,64
1051,64
1052,64
1053,64
1054,64
1055,64
1056,64
1057,64
1058,64
1059,64
1060,64
1061,64
1062,64
1063,64
1064,64
1065,64
1066,64
1067,64
1068,64
1069,64
1070,64
1071,64
1072,64
1073,64
1074,64
1075,64
1076,64
1077,64
1078,64
1079,64
1080,64
1081,64
1082,64
1083,64
1084,64
1085,64
1086,64
1087,64
1088,64
1089,64
1090,64
1091,64
1092,64
1093,64
1094,64
1095,64
1096,64
1097,64
1098,64
1099,64
1100,64
1101,64
1102,64
1103,64
1104,64
1105,64
1106,64
1107,64
1108,64
1109,64
1110,64
1111,64
1112,64
1113,64
1114,64
1115,64
1116,65
1117,65
1118,65
1119,65
1120,65
1121,65
1122,65
1123,65
1124,65
1125,65
1126,65
1127,65
1128,65
1129,65
1130,65
1131,65
1132,65
1133,65
1134,65
1135,65
1136,65
1137,65
1138,65
1139,65
1140,65
1141,65
1142,65
1143,65
1144,65
1145,65
1146,65
1147,65
1148,65
1149,65
1150,66
1151,66
1152,66
1153,66
1154,66
1155,66
1156,66
1157,66
1158,66
1159,66
1160,66
1161,66
1162,66
1163,66
1164,66
1165,66
1166,66
1167,66
1168,66
1169,66
1170,66
1171,66
1172,66
1173,66
1174,66
1175,66
1176,66
1177,66
1178,66
1179,66
1180,66
1181,66
1182,66
1183,66
1184,66
1185,66
1186,66
1187,66
1188,66
1189,66
1190,66
1191,66
1192,66
1193,66
1194,66
1195,66
1196,66
1197,66
1198,66
1199,66
1200,66
1201,66
1202,66
1203,66
1204,66
1205,66
1206,66
1207,66
1208,66
1209,66
1210,66
1211,66
1212,66
1213,66
1214,66
1215,66
1216,66
1217,66
1218,66
1219,66
1220,66
1221,66
1222,66
1223,66
1224,66
1225,66
1226,66
1227,66
1228,66
1229,66
1230,66
1231,66
1232,66
1233,66
1234,66
1235,66
1236,66
1237,66
1238,66
1239,66
1240,66
1241,66
1242,66
1243,66
1244,66
1245,66
1246,66
1247,66
1248,66
1249,66
1250,66
1251,66
1252,66
1253,66
1254,66
1255,66
1256,66
1257,66
1258,66
1259,66
1260,66
1261,66
1262,66
1263,66
1264,66
1265,66
1266,66
1267,66
1268,66
1269,66
1270,66
1271,66
1272,66
1273,66
1274,66
1275,66
1276,66
1277,66
1278,66
1279,66
1280,66
1281,66
1282,66
1283,66
1284,66
1285,66
1286,66
1287,66
1288,66
1289,66
1290,66
1291,66
1292,66
1293,66
1294,66
1295,66
1296,66
1297,66
1298,66
1299,66
1300,66
1301,66
1302,66
1303,66
1304,66
1305,66
1306,66
1307,66
1308,66
1309,67
1310,67
1311,67
1312,67
1313,67
1314,67
1315,67
1316,67
1317,67
1318,67
1319,67
1320,67
1321,67
1322,67
1323,67
1324,67
1325,67
1326,68
1327,68
1328,68
1329,68
1330,68
1331,68
1332,68
1333,68
1334,68
1335,68
1336,68
1337,68
1338,68
1339,68
1340,68
1341,68
1342,69
1343,69
1344,69
1345,69
1346,69
1347,69
1348,69
1349,69
1350,69
1351,69
1352,69
1353,69
1354,69
1355,69
1356,69
1357,69
1358,69
1359,70
1360,70
1361,70
1362,71
1363,71
1364,71
1365,71
1366,71
1367,71
1368,72
1369,72
1370,72
1371,72
1372,72
1373,72
1374,72
1375,72
1376,72
1377,72
1378,72
1379,73
1380,73
1381,73
1382,73
1383,73
1384,73
1385,73
1386,73
1387,73
1388,73
1389,73
1390,74
1391,74
1392,74
1393,74
1394,74
1395,75
1396,75
1397,75
1398,75
1399,75
1400,75
1401,76
1402,76
1403,76
1404,76
1405,76
1406,76
1407,76
1408,76
1409,76
1410,76
1411,76
1412,76
1413,76
1414,76
1415,76
1416,76
1417,77
1418,77
1419,77
1420,77
1421,77
1422,77
1423,77
1424,77
1425,77
1426,77
1427,77
1428,77
1429,78
1430,78
1431,78
1432,78
1433,78
1434,78
1435,78
1436,78
1437,78
1438,78
1439,78
1440,78
1441,78
1442,78
1443,78
1444,78
1445,78
1446,78
1447,78
1448,78
1449,78
1450,78
1451,78
1452,78
1453,78
1454,78
1455,78
1456,78
1457,78
1458,78
1459,78
1460,78
1461,78
1462,78
1463,78
1464,78
1465,78
1466,78
1467,78
1468,78
1469,78
1470,78
1471,78
1472,78
1473,79
1474,79
1475,79
1476,79
1477,79
1478,79
1479,79
1480,79
1481,79
1482,79
1483,79
1484,79
1485,79
1486,79
1487,79
1488,80
1489,80
1490,80
1491,80
1492,80
1493,80
1494,80
1495,80
1496,80
1497,80
1498,80
1499,80
1500,80
1501,80
1502,80
1503,80
1504,80
1505,80
1506,80
1507,80
1508,80
1509,80
1510,80
1511,80
1512,80
1513,80
1514,80
1515,80
1516,80
1517,80
1518,80
1519,80
1520,80
1521,80
1522,80
1523,80
1524,80
1525,80
1526,80
1527,80
1528,80
1529,80
1530,80
1531,80
1532,80
1533,80
1534,80
1535,80
1536,80
1537,80
1538,80
1539,80
1540,80
1541,80
1542,80
1543,80
1544,80
1545,80
1546,80
1547,80
1548,80
1549,80
1550,80
1551,80
1552,80
1553,80
1554,80
1555,80
1556,80
1557,80
1558,80
1559,80
1560,80
1561,80
1562,80
1563,80
1564,80
1565,80
1566,80
1567,80
1568,80
1569,80
1570,80
1571,80
1572,80
1573,80
1574,80
1575,80
1576,80
1577,80
1578,80
1579,80
1580,80
1581,80
1582,80
1583,80
1584,80
1585,80
1586,80
1587,80
1588,80
1589,81
1590,81
1591,82
1592,82
1593,82
1594,82
1595,82
1596,82
1597,82
1598,82
1599,82
1600,83
1601,83
1602,83
1603,83
1604,83
1605,83
1606,83
1607,83
1608,83
1609,83
1610,83
1611,83
1612,83
1613,83
1614,83
1615,83
1616,83
1617,83
1618,83
1619,83
1620,83
1621,83
1622,83
1623,83
1624,83
1625,83
1626,84
1627,84
1628,84
1629,84
1630,84
1631,84
1632,84
1633,84
1634,84
1635,84
1636,84
1637,85
1638,85
1639,85
1640,85
1641,85
1642,85
1643,85
1644,85
1645,85
1646,85
1647,85
1648,85
1649,85
1650,85
1651,85
1652,85
1653,85
1654,85
1655,85
1656,85
1657,85
1658,85
1659,85
1660,85
1661,85
1662,86
1663,86
1664,86
1665,86
1666,86
1667,86
1668,86
1669,86
1670,86
1671,86
1672,86
1673,86
1674,86
1675,86
1676,87
1677,87
1678,87
1679,87
1680,87
1681,87
1682,88
1683,88
1684,88
1685,88
1686,88
1687,88
1688,88
1689,88
1690,88
1691,88
1692,88
1693,88
1694,88
1695,88
1696,88
1697,88
1698,88
1699,88
1700,88
1701,88
1702,89
1703,89
1704,89
1705,89
1706,89
1707,89
1708,89
1709,89
1710,89
1711,89
1712,89
1713,89
1714,89
1715,91
1716,92
1717,92
1718,93
1719,93
1720,93
1721,93
1722,93
1723,93
1724,93
1725,93
1726,93
1727,93
1728,93
1729,93
1730,93
1731,93
1732,93
1733,93
1734,93
1735,93
1736,93
1737,93
1738,93
1739,93
1740,93
1741,93
1742,93
1743,93
1744,93
1745,93
1746,93
1747,94
1748,94
1749,94
1750,95
1751,95
1752,96
1753,97
1754,97
1755,97
1756,97
1757,98
1758,98
1759,98
1760,98
1761,98
1762,98
1763,98
1764,98
1765,98
1766,98
1767,98
1768,98
1769,98
1770,98
1771,99
1772,99
1773,99
1774,99
1775,99
1776,99
1777,99
1778,99
1779,99
1780,99
1781,99
1782,99
1783,99
1784,99
1785,99
1786,99
1787,99
1788,99
1789,99
1790,99
1791,99
1792,99
1793,99
1794,99
1795,99
1796,99
1797,99
1798,99
1799,99
1800,99
1801,99
1802,100
1803,101
1804,102
1805,102
1806,102
1807,102
1808,102
1809,102
1810,102
1811,102
1812,102
1813,102
1814,102
1815,102
1816,102
1817,102
1818,102
1819,102
1820,102
1821,102
1822,102
1823,102
1824,102
1825,102
1826,102
1827,102
1828,102
1829,102
1830,102
1831,102
1832,102
1833,102
1834,102
1835,102
1836,102
1837,102
1838,102
1839,102
1840,102
1841,102
1842,102
1843,102
1844,102
1845,102
1846,102
1847,102
1848,102
1849,102
1850,102
1851,102
1852,102
1853,102
1854,102
1855,102
1856,102
1857,102
1858,102
1859,102
1860,102
1861,102
1862,102
1863,102
1864,102
1865,102
1866,102
1867,102
1868,102
1869,102
1870,102
1871,102
1872,102
1873,102
1874,102
1875,102
1876,102
1877,102
1878,102
1879,102
1880,102
1881,102
1882,102
1883,102
1884,102
1885,102
1886,102
1887,102
1888,102
1889,102
1890,102
1891,102
1892,102
1893,102
1894,102
1895,102
1896,102
1897,102
1898,102
1899,102
1900,102
1901,102
1902,102
1903,102
1904,102
1905,102
1906,102
1907,102
1908,102
1909,102
1910,102
1911,102
1912,102
1913,102
1914,102
1915,102
1916,102
1917,102
1918,102
1919,102
1920,102
1921,102
1922,102
1923,102
1924,102
1925,102
1926,102
1927,102
1928,103
1929,103
1930,103
1931,103
1932,103
1933,103
1934,103
1935,103
1936,103
1937,104
1938,105
1939,105
1940,105
1941,105
1942,105
1943,105
1944,105
1945,105
1946,106
1947,106
1948,106
1949,106
1950,106
1951,106
1952,106
1953,106
1954,106
1955,106
1956,106
1957,106
1958,106
1959,106
1960,106
1961,106
1962,106
1963,106
1964,106
1965,106
1966,106
1967,106
1968,106
1969,106
1970,106
1971,106
1972,106
1973,106
1974,106
1975,106
1976,106
1977,106
1978,106
1979,106
1980,106
1981,107
1982,107
1983,107
1984,107
1985,107
1986,107
1987,108
1988,108
1989,108
1990,108
1991,109
1992,110
1993,110
1994,110
1995,110
1996,110
1997,110
1998,110
1999,110
2000,110
