"tick","total"
0,0
1,0
2,0
3,0
4,0
5,0
6,0
7,0
8,0
9,0
10,0
11,0
12,0
13,0
14,0
15,0
16,0
17,0
18,0
19,0
20,0
21,0
22,0
23,0
24,0
25,0
26,0
27,0
28,0
29,0
30,0
31,0
32,0
33,0
34,0
35,0
36,0
37,0
38,0
39,0
40,0
41,0
42,0
43,0
44,0
45,0
46,0
47,0
48,0
49,0
50,0
51,0
52,0
53,0
54,0
55,0
56,0
57,0
58,0
59,0
60,0
61,0
62,0
63,0
64,0
65,0
66,0
67,0
68,0
69,0
70,0
71,0
72,0
73,0
74,0
75,0
76,0
77,0
78,0
79,0
80,0
81,0
82,0
83,0
84,0
85,0
86,0
87,0
88,0
89,0
90,0
91,0
92,0
93,0
94,0
95,0
96,0
97,0
98,0
99,0
100,0
101,0
102,0
103,0
104,0
105,0
106,0
107,0
108,0
109,0
110,0
111,0
112,0
113,0
114,0
115,0
116,0
117,0
118,0
119,0
120,0
121,0
122,0
123,0
124,0
125,0
126,0
127,0
128,0
129,0
130,0
131,0
132,0
133,0
134,0
135,0
136,0
137,0
138,0
139,0
140,0
141,0
142,0
143,0
144,0
145,0
146,0
147,0
148,0
149,0
150,0
151,0
152,0
153,0
154,0
155,0
156,0
157,0
158,0
159,0
160,0
161,0
162,0
163,0
164,0
165,0
166,0
167,0
168,0
169,0
170,0
171,0
172,0
173,0
174,0
175,0
176,0
177,0
178,0
179,0
180,0
181,0
182,0
183,0
184,0
185,0
186,0
187,0
188,0
189,0
190,0
191,0
192,0
193,0
194,0
195,0
196,0
197,0
198,0
199,0
200,0
201,0
202,0
203,0
204,0
205,0
206,0
207,0
208,0
209,0
210,0
211,0
212,0
213,0
214,0
215,0
216,0
217,0
218,0
219,0
220,0
221,0
222,0
223,0
224,0
225,0
226,0
227,0
228,0
229,0
230,0
231,0
232,0
233,0
234,0
235,0
236,0
237,0
238,0
239,0
240,0
241,0
242,0
243,0
244,0
245,0
246,0
247,0
248,0
249,0
250,0
251,0
252,1
253,1
254,1
255,1
256,1
257,1
258,1
259,1
260,1
261,1
262,1
263,1
264,1
265,1
266,2
267,2
268,2
269,2
270,2
271,2
272,2
273,2
274,2
275,2
276,2
277,2
278,2
279,2
280,2
281,3
282,4
283,4
284,4
285,4
286,4
287,5
288,5
289,5
290,5
291,5
292,5
293,5
294,5
295,5
296,5
297,5
298,5
299,5
300,5
301,5
302,5
303,5
304,6
305,7
306,8
307,8
308,8
309,8
310,8
311,9
312,9
313,9
314,9
315,9
316,9
317,9
318,9
319,9
320,9
321,9
322,9
323,9
324,9
325,9
326,9
327,9
328,9
329,11
330,12
331,13
332,13
333,13
334,13
335,13
336,13
337,13
338,13
339,14
340,15
341,15
342,15
343,16
344,16
345,16
346,16
347,16
348,17
349,17
350,17
351,17
352,17
353,17
354,17
355,17
356,17
357,18
358,18
359,18
360,18
361,18
362,18
363,18
364,18
365,18
366,18
367,18
368,18
369,18
370,18
371,18
372,18
373,18
374,18
375,18
376,18
377,19
378,19
379,20
380,20
381,20
382,20
383,20
384,20
385,20
386,20
387,21
388,22
389,22
390,22
391,22
392,23
393,23
394,24
395,24
396,24
397,24
398,25
399,26
400,26
401,26
402,26
403,26
404,26
405,26
406,26
407,26
408,26
409,26
410,26
411,26
412,27
413,27
414,28
415,28
416,28
417,28
418,28
419,28
420,28
421,28
422,28
423,28
424,28
425,28
426,28
427,28
428,28
429,28
430,28
431,28
432,29
433,29
434,29
435,29
436,29
437,29
438,29
439,29
440,29
441,29
442,29
443,29
444,29
445,29
446,29
447,29
448,29
449,29
450,29
451,29
452,29
453,29
454,29
455,29
456,29
457,30
458,30
459,30
460,30
461,30
462,30
463,30
464,30
465,30
466,30
467,30
468,30
469,30
470,30
471,30
472,30
473,30
474,30
475,30
476,30
477,30
478,30
479,30
480,30
481,30
482,30
483,30
484,30
485,30
486,30
487,30
488,30
489,30
490,30
491,30
492,30
493,30
494,30
495,30
496,30
497,30
498,30
499,30
500,30
501,30
502,30
503,30
504,30
505,30
506,30
507,30
508,30
509,30
510,30
511,30
512,30
513,30
514,31
515,31
516,31
517,31
518,31
519,31
520,31
521,31
522,31
523,31
524,31
525,31
526,31
527,31
528,31
529,31
530,31
531,31
532,31
533,31
534,31
535,31
536,31
537,32
538,32
539,32
540,32
541,32
542,32
543,32
544,33
545,33
546,33
547,33
548,33
549,33
550,33
551,33
552,33
553,33
554,33
555,33
556,33
557,33
558,33
559,33
560,33
561,33
562,34
563,34
564,34
565,34
566,34
567,34
568,34
569,34
570,34
571,34
572,34
573,34
574,34
575,34
576,34
577,34
578,34
579,34
580,34
581,34
582,34
583,34
584,34
585,34
586,34
587,34
588,34
589,34
590,34
591,34
592,34
593,34
594,34
595,34
596,34
597,34
598,34
599,34
600,34
601,34
602,34
603,34
604,34
605,34
606,34
607,34
608,34
609,34
610,34
611,34
612,34
613,34
614,34
615,34
616,34
617,34
618,34
619,34
620,34
621,34
622,34
623,34
624,34
625,34
626,34
627,34
628,34
629,34
630,34
631,34
632,34
633,34
634,34
635,34
636,34
637,34
638,34
639,34
640,34
641,34
642,34
643,34
644,34
645,34
646,34
647,34
648,34
649,34
650,34
651,34
652,34
653,34
654,34
655,34
656,34
657,34
658,34
659,34
660,34
661,34
662,34
663,34
664,34
665,34
666,34
667,34
668,34
669,34
670,35
671,35
672,35
673,35
674,35
675,35
676,35
677,35
678,35
679,35
680,35
681,35
682,35
683,35
684,35
685,35
686,35
687,35
688,35
689,35
690,35
691,35
692,35
693,35
694,35
695,35
696,35
697,35
698,35
699,35
700,35
701,35
702,35
703,35
704,35
705,35
706,35
707,35
708,35
709,35
710,35
711,35
712,35
713,35
714,35
715,35
716,35
717,35
718,35
719,35
720,35
721,35
722,35
723,35
724,35
725,35
726,35
727,36
728,36
729,36
730,36
731,36
732,36
733,36
734,36
735,36
736,36
737,36
738,36
739,36
740,36
741,36
742,37
743,38
744,38
745,38
746,38
747,38
748,38
749,38
750,38
751,38
752,38
753,38
754,38
755,38
756,38
757,38
758,39
759,39
760,39
761,39
762,39
763,39
764,39
765,39
766,39
767,39
768,39
769,39
770,39
771,39
772,39
773,39
774,39
775,39
776,39
777,39
778,39
779,39
780,39
781,39
782,39
783,39
784,39
785,39
786,39
787,39
788,39
789,39
790,39
791,39
792,39
793,39
794,39
795,39
796,39
797,39
798,39
799,39
800,39
801,39
802,39
803,39
804,39
805,39
806,39
807,39
808,39
809,39
810,39
811,39
812,39
813,39
814,39
815,39
816,39
817,39
818,39
819,39
820,39
821,39
822,40
823,40
824,40
825,40
826,41
827,41
828,41
829,41
830,41
831,41
832,41
833,41
834,41
835,41
836,41
837,41
838,41
839,41
840,41
841,41
842,41
843,41
844,41
845,41
846,41
847,41
848,41
849,41
850,41
851,41
852,41
853,42
854,42
855,42
856,42
857,42
858,42
859,42
860,42
861,42
862,42
863,42
864,42
865,42
866,42
867,42
868,42
869,42
870,42
871,42
872,42
873,42
874,42
875,42
876,42
877,42
878,42
879,42
880,42
881,42
882,42
883,42
884,42
885,42
886,42
887,43
888,43
889,43
890,43
891,43
892,43
893,43
894,43
895,43
896,43
897,43
898,43
899,43
900,43
901,43
902,43
903,43
904,43
905,43
906,43
907,43
908,43
909,43
910,43
911,43
912,43
913,43
914,43
915,43
916,43
917,43
918,43
919,43
920,43
921,43
922,43
923,43
924,43
925,43
926,43
927,43
928,43
929,43
930,43
931,43
932,43
933,43
934,43
935,43
936,43
937,43
938,43
939,43
940,44
941,44
942,44
943,44
944,44
945,44
946,44
947,44
948,44
949,44
950,44
951,44
952,44
953,44
954,45
955,45
956,45
957,45
958,45
959,45
960,45
961,45
962,45
963,45
964,45
965,45
966,45
967,45
968,45
969,45
970,45
971,45
972,45
973,45
974,45
975,45
976,45
977,45
978,45
979,45
980,45
981,45
982,45
983,45
984,45
985,45
986,45
987,45
988,45
989,45
990,45
991,45
992,45
993,45
994,45
995,45
996,45
997,45
998,45
999,45
1000,45
1001,45
1002,45
1003,45
1004,45
1005,45
1006,45
1007,46
1008,46
1009,46
1010,46
1011,46
1012,46
1013,46
1014,46
1015,46
1016,46
1017,46
1018,46
1019,46
1020,46
1021,46
1022,46
1023,46
1024,46
1025,46
1026,46
1027,46
1028,46
1029,46
1030,46
1031,46
1032,46
1033,46
1034,46
1035,46
1036,46
1037,46
1038,46
1039,46
1040,46
1041,46
1042,46
1043,46
1044,46
1045,46
1046,46
1047,46
1048,46
1049,46
1050,46
1051,46
1052,46
1053,46
1054,46
1055,46
1056,46
1057,46
1058,46
1059,46
1060,46
1061,46
1062,46
1063,46
1064,46
1065,46
1066,46
1067,46
1068,46
1069,46
1070,46
1071,46
1072,47
1073,47
1074,47
1075,47
1076,47
1077,47
1078,47
1079,47
1080,47
1081,47
1082,47
1083,47
1084,47
1085,47
1086,47
1087,47
1088,47
1089,47
1090,48
1091,48
1092,48
1093,48
1094,48
1095,48
1096,48
1097,48
1098,48
1099,48
1100,48
1101,48
1102,48
1103,48
1104,48
1105,48
1106,48
1107,48
1108,48
1109,48
1110,48
1111,48
1112,48
1113,48
1114,48
1115,48
1116,48
1117,48
1118,48
1119,48
1120,48
1121,48
1122,48
1123,48
1124,48
1125,48
1126,48
1127,48
1128,48
1129,48
1130,48
1131,48
1132,48
1133,48
1134,48
1135,48
1136,48
1137,49
1138,49
1139,50
1140,50
1141,50
1142,50
1143,50
1144,50
1145,50
1146,50
1147,50
1148,50
1149,50
1150,50
1151,50
1152,50
1153,50
1154,50
1155,50
1156,50
1157,50
1158,50
1159,51
1160,51
1161,51
1162,51
1163,51
1164,51
1165,51
1166,51
1167,52
1168,52
1169,52
1170,52
1171,52
1172,52
1173,52
1174,52
1175,52
1176,52
1177,52
1178,52
1179,52
1180,52
1181,52
1182,52
1183,52
1184,52
1185,52
1186,52
1187,52
1188,52
1189,52
1190,52
1191,53
1192,53
1193,53
1194,53
1195,53
1196,53
1197,53
1198,53
1199,53
1200,53
1201,53
1202,53
1203,53
1204,53
1205,53
1206,53
1207,53
1208,53
1209,53
1210,53
1211,53
1212,53
1213,53
1214,53
1215,53
1216,53
1217,53
1218,53
1219,53
1220,53
1221,53
1222,53
1223,53
1224,54
1225,54
1226,54
1227,54
1228,54
1229,54
1230,54
1231,54
1232,54
1233,54
1234,54
1235,55
1236,55
1237,55
1238,55
1239,55
1240,55
1241,55
1242,55
1243,55
1244,56
1245,56
1246,56
1247,56
1248,56
1249,56
1250,56
1251,56
1252,56
1253,56
1254,57
1255,57
1256,57
1257,57
1258,57
1259,57
1260,57
1261,57
1262,57
1263,57
1264,57
1265,57
1266,58
1267,58
1268,58
1269,58
1270,58
1271,58
1272,58
1273,58
1274,58
1275,58
1276,58
1277,58
1278,59
1279,59
1280,59
1281,59
1282,59
1283,59
1284,59
1285,60
1286,60
1287,60
1288,60
1289,60
1290,61
1291,61
1292,61
1293,61
1294,61
1295,61
1296,61
1297,61
1298,61
1299,61
1300,61
1301,61
1302,61
1303,61
1304,61
1305,61
1306,61
1307,61
1308,61
1309,61
1310,61
1311,61
1312,61
1313,61
1314,61
1315,61
1316,61
1317,61
1318,61
1319,61
1320,61
1321,61
1322,61
1323,61
1324,61
1325,61
1326,61
1327,61
1328,61
1329,61
1330,61
1331,61
1332,61
1333,61
1334,61
1335,61
1336,61
1337,62
1338,62
1339,62
1340,62
1341,63
1342,63
1343,63
1344,63
1345,63
1346,63
1347,63
1348,63
1349,63
1350,63
1351,63
1352,63
1353,63
1354,64
1355,64
1356,64
1357,64
1358,64
1359,64
1360,64
1361,64
1362,64
1363,64
1364,64
1365,64
1366,65
1367,66
1368,66
1369,66
1370,66
1371,66
1372,66
1373,66
1374,66
1375,66
1376,66
1377,66
1378,66
1379,66
1380,66
1381,66
1382,66
1383,66
1384,67
1385,67
1386,67
1387,67
1388,67
1389,67
1390,67
1391,67
1392,67
1393,67
1394,67
1395,67
1396,67
1397,67
1398,67
1399,67
1400,67
1401,67
1402,67
1403,67
1404,67
1405,67
1406,67
1407,67
1408,67
1409,67
1410,67
1411,67
1412,67
1413,67
1414,67
1415,67
1416,67
1417,67
1418,67
1419,67
1420,67
1421,67
1422,67
1423,67
1424,67
1425,68
1426,68
1427,68
1428,68
1429,68
1430,68
1431,68
1432,68
1433,68
1434,68
1435,68
1436,68
1437,68
1438,68
1439,68
1440,68
1441,68
1442,68
1443,68
1444,68
1445,68
1446,68
1447,68
1448,68
1449,68
1450,68
1451,68
1452,68
1453,68
1454,68
1455,68
1456,68
1457,68
1458,68
1459,68
1460,68
1461,68
1462,68
1463,68
1464,68
1465,68
1466,68
1467,68
1468,68
1469,68
1470,68
1471,68
1472,68
1473,68
1474,68
1475,68
1476,68
1477,68
1478,68
1479,68
1480,68
1481,68
1482,68
1483,68
1484,68
1485,68
1486,68
1487,68
1488,68
1489,68
1490,68
1491,68
1492,68
1493,68
1494,68
1495,68
1496,68
1497,68
1498,68
1499,68
1500,68
1501,68
1502,68
1503,68
1504,68
1505,69
1506,69
1507,69
1508,69
1509,69
1510,69
1511,69
1512,69
1513,69
1514,69
1515,69
1516,70
1517,70
1518,70
1519,70
1520,70
1521,70
1522,70
1523,70
1524,70
1525,70
1526,70
1527,70
1528,70
1529,70
1530,70
1531,70
1532,70
1533,70
1534,71
1535,71
1536,71
1537,71
1538,71
1539,71
1540,71
1541,71
1542,71
1543,71
1544,71
1545,71
1546,72
1547,72
1548,72
1549,73
1550,73
1551,73
1552,73
1553,73
1554,73
1555,73
1556,73
1557,74
1558,74
1559,74
1560,74
1561,74
1562,74
1563,74
1564,74
1565,74
1566,74
1567,74
1568,74
1569,74
1570,74
1571,74
1572,74
1573,74
1574,74
1575,74
1576,74
1577,74
1578,74
1579,74
1580,74
1581,74
1582,74
1583,74
1584,74
1585,74
1586,74
1587,75
1588,76
1589,76
1590,76
1591,76
1592,77
1593,77
1594,77
1595,77
1596,77
1597,77
1598,77
1599,77
1600,77
1601,77
1602,77
1603,77
1604,77
1605,77
1606,77
1607,77
1608,78
1609,78
1610,78
1611,78
1612,78
1613,78
1614,78
1615,78
1616,78
1617,79
1618,79
1619,79
1620,80
1621,80
1622,80
1623,80
1624,80
1625,80
1626,80
1627,80
1628,80
1629,80
1630,80
1631,81
1632,81
1633,81
1634,81
1635,81
1636,81
1637,81
1638,81
1639,81
1640,81
1641,81
1642,81
1643,81
1644,81
1645,81
1646,81
1647,81
1648,81
1649,81
1650,81
1651,81
1652,81
1653,81
1654,81
1655,81
1656,81
1657,81
1658,81
1659,81
1660,81
1661,81
1662,81
1663,81
1664,81
1665,81
1666,81
1667,81
1668,81
1669,81
1670,81
1671,81
1672,81
1673,81
1674,81
1675,81
1676,81
1677,81
1678,81
1679,81
1680,81
1681,81
1682,81
1683,81
1684,81
1685,82
1686,82
1687,82
1688,82
1689,82
1690,82
1691,82
1692,82
1693,82
1694,82
1695,82
1696,82
1697,82
1698,82
1699,82
1700,82
1701,82
1702,82
1703,82
1704,82
1705,82
1706,82
1707,82
1708,82
1709,82
1710,82
1711,82
1712,82
1713,82
1714,82
1715,82
1716,82
1717,82
1718,82
1719,82
1720,82
1721,82
1722,82
1723,82
1724,82
1725,83
1726,83
1727,83
1728,83
1729,83
1730,83
1731,83
1732,83
1733,83
1734,83
1735,83
1736,83
1737,83
1738,83
1739,83
1740,83
1741,83
1742,83
1743,83
1744,83
1745,83
1746,83
1747,83
1748,84
1749,84
1750,84
1751,84
1752,84
1753,84
1754,84
1755,84
1756,84
1757,84
1758,85
1759,85
1760,85
1761,85
1762,85
1763,85
1764,85
1765,85
1766,85
1767,85
1768,85
1769,85
1770,85
1771,85
1772,85
1773,85
1774,85
1775,85
1776,85
1777,85
1778,85
1779,85
1780,85
1781,85
1782,85
1783,85
1784,85
1785,85
1786,85
1787,85
1788,86
1789,86
1790,86
1791,86
1792,86
1793,86
1794,86
1795,86
1796,86
1797,86
1798,86
1799,86
1800,86
1801,86
1802,86
1803,86
1804,86
1805,86
1806,86
1807,86
1808,86
1809,86
1810,86
1811,86
1812,86
1813,86
1814,86
1815,86
1816,86
1817,87
1818,87
1819,87
1820,87
1821,87
1822,87
1823,87
1824,87
1825,87
1826,87
1827,87
1828,87
1829,87
1830,87
1831,87
1832,87
1833,87
1834,87
1835,87
1836,88
1837,88
1838,88
1839,88
1840,88
1841,88
1842,88
1843,88
1844,88
1845,88
1846,88
1847,88
1848,88
1849,88
1850,88
1851,88
1852,88
1853,88
1854,88
1855,88
1856,88
1857,88
1858,88
1859,88
1860,88
1861,88
1862,88
1863,88
1864,88
1865,88
1866,88
1867,88
1868,88
1869,88
1870,88
1871,89
1872,89
1873,89
1874,89
1875,89
1876,89
1877,89
1878,89
1879,89
1880,89
1881,89
1882,89
1883,89
1884,89
1885,89
1886,89
1887,89
1888,90
1889,90
1890,90
1891,90
1892,90
1893,90
1894,90
1895,90
1896,90
1897,90
1898,90
1899,90
1900,90
1901,90
1902,90
1903,91
1904,91
1905,91
1906,91
1907,91
1908,91
1909,92
1910,92
1911,92
1912,92
1913,92
1914,92
1915,92
1916,92
1917,92
1918,92
1919,92
1920,92
1921,92
1922,92
1923,92
1924,92
1925,92
1926,92
1927,92
1928,92
1929,92
1930,92
1931,92
1932,92
1933,92
1934,92
1935,92
1936,92
1937,92
1938,92
1939,92
1940,92
1941,92
1942,92
1943,92
1944,92
1945,92
1946,92
1947,92
1948,92
1949,92
1950,92
1951,92
1952,92
1953,92
1954,92
1955,92
1956,92
1957,93
1958,93
1959,94
1960,94
1961,94
1962,94
1963,94
1964,94
1965,94
1966,94
1967,95
1968,95
1969,96
1970,96
1971,96
1972,96
1973,96
1974,96
1975,96
1976,96
1977,96
1978,96
1979,96
1980,96
1981,96
1982,96
1983,96
1984,96
1985,96
1986,96
1987,96
1988,96
1989,96
1990,96
1991,96
1992,96
1993,96
1994,96
1995,96
1996,96
1997,96
1998,96
1999,96
2000,96
