"tick","total"
0,0
1,0
2,0
3,0
4,0
5,0
6,0
7,0
8,0
9,0
10,0
11,0
12,0
13,0
14,0
15,0
16,0
17,0
18,0
19,0
20,0
21,0
22,0
23,0
24,0
25,0
26,0
27,0
28,0
29,0
30,0
31,0
32,0
33,0
34,0
35,0
36,0
37,0
38,0
39,0
40,0
41,0
42,0
43,0
44,0
45,0
46,0
47,0
48,0
49,0
50,0
51,0
52,0
53,0
54,0
55,0
56,0
57,0
58,0
59,0
60,0
61,0
62,0
63,0
64,0
65,0
66,0
67,0
68,0
69,0
70,0
71,0
72,0
73,0
74,0
75,0
76,0
77,0
78,0
79,0
80,0
81,0
82,0
83,0
84,0
85,0
86,0
87,0
88,0
89,0
90,0
91,0
92,0
93,0
94,0
95,0
96,0
97,0
98,0
99,0
100,0
101,0
102,0
103,0
104,0
105,0
106,0
107,0
108,0
109,0
110,0
111,0
112,0
113,0
114,0
115,0
116,0
117,0
118,0
119,0
120,0
121,0
122,0
123,0
124,0
125,0
126,0
127,0
128,0
129,0
130,0
131,0
132,0
133,0
134,0
135,0
136,0
137,0
138,0
139,0
140,0
141,0
142,0
143,0
144,0
145,0
146,0
147,0
148,0
149,0
150,0
151,0
152,0
153,0
154,0
155,0
156,0
157,0
158,0
159,0
160,0
161,0
162,0
163,0
164,0
165,0
166,0
167,0
168,0
169,0
170,0
171,0
172,0
173,0
174,0
175,0
176,0
177,0
178,0
179,0
180,0
181,0
182,0
183,0
184,0
185,0
186,0
187,0
188,0
189,0
190,0
191,0
192,0
193,0
194,0
195,0
196,0
197,0
198,0
199,0
200,0
201,0
202,0
203,0
204,0
205,0
206,0
207,0
208,0
209,0
210,0
211,0
212,1
213,1
214,1
215,1
216,1
217,1
218,1
219,1
220,1
221,1
222,1
223,1
224,1
225,1
226,1
227,1
228,1
229,1
230,1
231,1
232,1
233,1
234,1
235,1
236,1
237,1
238,1
239,1
240,1
241,1
242,1
243,1
244,1
245,1
246,2
247,2
248,2
249,2
250,2
251,2
252,2
253,2
254,2
255,2
256,2
257,2
258,2
259,2
260,3
261,3
262,4
263,4
264,4
265,4
266,4
267,4
268,4
269,5
270,5
271,5
272,5
273,5
274,5
275,5
276,5
277,5
278,5
279,5
280,5
281,5
282,6
283,6
284,6
285,6
286,6
287,6
288,6
289,6
290,6
291,6
292,6
293,6
294,7
295,7
296,7
297,7
298,7
299,7
300,7
301,7
302,7
303,7
304,7
305,8
306,8
307,8
308,9
309,9
310,9
311,10
312,10
313,10
314,10
315,11
316,11
317,11
318,11
319,11
320,11
321,11
322,11
323,11
324,11
325,11
326,11
327,11
328,12
329,12
330,12
331,12
332,12
333,12
334,12
335,12
336,13
337,13
338,13
339,13
340,13
341,13
342,13
343,13
344,13
345,13
346,13
347,13
348,13
349,13
350,13
351,14
352,15
353,15
354,15
355,15
356,15
357,15
358,15
359,15
360,15
361,15
362,15
363,15
364,15
365,15
366,15
367,16
368,16
369,16
370,16
371,16
372,16
373,16
374,16
375,17
376,17
377,18
378,18
379,19
380,20
381,20
382,20
383,20
384,20
385,20
386,20
387,20
388,20
389,20
390,20
391,20
392,20
393,20
394,20
395,20
396,20
397,20
398,20
399,20
400,20
401,20
402,20
403,20
404,20
405,21
406,21
407,21
408,21
409,21
410,21
411,21
412,21
413,21
414,21
415,21
416,21
417,21
418,21
419,21
420,21
421,21
422,21
423,21
424,21
425,21
426,21
427,21
428,21
429,21
430,21
431,21
432,21
433,21
434,21
435,21
436,21
437,21
438,22
439,22
440,23
441,23
442,23
443,23
444,23
445,23
446,23
447,23
448,23
449,23
450,23
451,24
452,24
453,24
454,24
455,24
456,25
457,25
458,25
459,25
460,25
461,25
462,25
463,25
464,25
465,25
466,26
467,27
468,27
469,27
470,27
471,27
472,27
473,27
474,27
475,27
476,27
477,28
478,28
479,28
480,28
481,28
482,28
483,28
484,28
485,28
486,28
487,28
488,28
489,28
490,28
491,28
492,28
493,28
494,29
495,29
496,29
497,29
498,29
499,29
500,29
501,29
502,29
503,29
504,29
505,29
506,29
507,29
508,29
509,29
510,29
511,29
512,29
513,29
514,29
515,29
516,29
517,29
518,29
519,29
520,29
521,29
522,29
523,29
524,29
525,29
526,29
527,29
528,29
529,29
530,29
531,29
532,29
533,29
534,29
535,29
536,29
537,29
538,29
539,29
540,29
541,29
542,29
543,30
544,30
545,30
546,30
547,30
548,30
549,30
550,30
551,30
552,30
553,30
554,30
555,30
556,30
557,30
558,30
559,30
560,30
561,30
562,30
563,30
564,30
565,30
566,30
567,30
568,30
569,30
570,30
571,30
572,30
573,30
574,30
575,30
576,30
577,30
578,30
579,30
580,30
581,30
582,30
583,30
584,30
585,30
586,30
587,30
588,30
589,30
590,30
591,30
592,30
593,30
594,31
595,31
596,31
597,31
598,31
599,31
600,31
601,31
602,31
603,31
604,31
605,31
606,31
607,31
608,31
609,31
610,31
611,31
612,31
613,31
614,31
615,31
616,31
617,32
618,32
619,32
620,32
621,32
622,32
623,32
624,32
625,32
626,32
627,32
628,32
629,32
630,32
631,32
632,32
633,32
634,32
635,32
636,32
637,32
638,32
639,32
640,32
641,32
642,32
643,32
644,32
645,33
646,33
647,33
648,33
649,33
650,33
651,33
652,33
653,33
654,33
655,33
656,33
657,33
658,33
659,33
660,33
661,33
662,33
663,33
664,34
665,34
666,34
667,34
668,34
669,35
670,35
671,35
672,35
673,36
674,36
675,36
676,36
677,36
678,36
679,36
680,36
681,36
682,38
683,38
684,38
685,38
686,38
687,38
688,38
689,38
690,38
691,38
692,38
693,38
694,38
695,38
696,38
697,38
698,38
699,38
700,38
701,38
702,38
703,38
704,38
705,38
706,38
707,38
708,38
709,38
710,38
711,38
712,38
713,38
714,38
715,38
716,38
717,38
718,38
719,38
720,38
721,38
722,38
723,39
724,39
725,39
726,39
727,40
728,40
729,40
730,40
731,40
732,40
733,40
734,40
735,40
736,40
737,40
738,40
739,41
740,41
741,41
742,41
743,41
744,41
745,41
746,41
747,41
748,41
749,41
750,41
751,41
752,41
753,41
754,41
755,41
756,41
757,41
758,41
759,41
760,41
761,41
762,41
763,41
764,41
765,41
766,41
767,41
768,41
769,41
770,41
771,41
772,41
773,41
774,41
775,41
776,41
777,41
778,41
779,41
780,41
781,41
782,41
783,42
784,42
785,42
786,42
787,42
788,42
789,42
790,42
791,42
792,42
793,42
794,42
795,42
796,42
797,42
798,42
799,42
800,42
801,42
802,42
803,42
804,42
805,42
806,42
807,42
808,42
809,42
810,42
811,42
812,42
813,42
814,42
815,43
816,43
817,43
818,43
819,43
820,43
821,43
822,43
823,43
824,43
825,44
826,44
827,44
828,44
829,44
830,44
831,44
832,44
833,44
834,44
835,44
836,44
837,44
838,44
839,44
840,44
841,44
842,44
843,44
844,44
845,44
846,44
847,44
848,44
849,44
850,44
851,44
852,44
853,44
854,44
855,44
856,44
857,44
858,44
859,44
860,44
861,44
862,44
863,44
864,44
865,44
866,44
867,44
868,44
869,44
870,44
871,44
872,44
873,44
874,44
875,44
876,44
877,44
878,45
879,45
880,46
881,46
882,46
883,46
884,46
885,46
886,46
887,46
888,46
889,46
890,46
891,46
892,46
893,46
894,46
895,46
896,46
897,46
898,46
899,46
900,46
901,46
902,46
903,47
904,47
905,47
906,47
907,47
908,47
909,47
910,47
911,47
912,47
913,48
914,48
915,48
916,48
917,48
918,48
919,48
920,48
921,48
922,48
923,48
924,48
925,48
926,48
927,48
928,48
929,48
930,48
931,48
932,48
933,48
934,48
935,48
936,48
937,48
938,48
939,48
940,48
941,48
942,48
943,49
944,49
945,50
946,50
947,50
948,50
949,50
950,50
951,50
952,50
953,50
954,50
955,50
956,50
957,50
958,50
959,50
960,51
961,51
962,51
963,51
964,51
965,51
966,51
967,51
968,52
969,52
970,52
971,52
972,52
973,52
974,52
975,52
976,52
977,52
978,52
979,52
980,52
981,52
982,52
983,52
984,52
985,52
986,52
987,52
988,53
989,53
990,53
991,53
992,53
993,53
994,53
995,53
996,53
997,53
998,53
999,53
1000,53
1001,53
1002,53
1003,53
1004,53
1005,53
1006,53
1007,53
1008,53
1009,54
1010,54
1011,54
1012,54
1013,54
1014,54
1015,54
1016,54
1017,54
1018,54
1019,54
1020,54
1021,54
1022,54
1023,54
1024,54
1025,54
1026,54
1027,54
1028,54
1029,55
1030,55
1031,55
1032,55
1033,55
1034,55
1035,55
1036,56
1037,56
1038,56
1039,56
1040,56
1041,56
1042,56
1043,56
1044,56
1045,56
1046,56
1047,56
1048,56
1049,56
1050,56
1051,56
1052,56
1053,56
1054,56
1055,56
1056,56
1057,56
1058,56
1059,56
1060,56
1061,56
1062,56
1063,56
1064,56
1065,56
1066,56
1067,56
1068,56
1069,56
1070,56
1071,56
1072,56
1073,56
1074,56
1075,56
1076,56
1077,56
1078,56
1079,56
1080,56
1081,56
1082,56
1083,56
1084,57
1085,57
1086,57
1087,57
1088,57
1089,57
1090,57
1091,58
1092,58
1093,58
1094,58
1095,58
1096,58
1097,58
1098,58
1099,58
1100,58
1101,58
1102,58
1103,58
1104,58
1105,58
1106,58
1107,58
1108,59
1109,59
1110,59
1111,59
1112,59
1113,59
1114,59
1115,59
1116,59
1117,59
1118,59
1119,59
1120,59
1121,59
1122,59
1123,59
1124,59
1125,59
1126,59
1127,59
1128,59
1129,59
1130,59
1131,59
1132,59
1133,59
1134,59
1135,59
1136,59
1137,59
1138,59
1139,59
1140,59
1141,59
1142,59
1143,59
1144,59
1145,59
1146,59
1147,59
1148,59
1149,59
1150,59
1151,59
1152,59
1153,59
1154,59
1155,59
1156,59
1157,59
1158,59
1159,59
1160,59
1161,59
1162,59
1163,59
1164,59
1165,59
1166,59
1167,59
1168,59
1169,59
1170,59
1171,59
1172,59
1173,59
1174,59
1175,59
1176,59
1177,59
1178,59
1179,59
1180,59
1181,59
1182,59
1183,59
1184,59
1185,59
1186,59
1187,59
1188,59
1189,60
1190,60
1191,60
1192,60
1193,60
1194,60
1195,60
1196,60
1197,60
1198,60
1199,60
1200,60
1201,60
1202,60
1203,60
1204,60
1205,60
1206,60
1207,60
1208,60
1209,60
1210,60
1211,60
1212,60
1213,60
1214,60
1215,60
1216,60
1217,60
1218,61
1219,61
1220,61
1221,61
1222,61
1223,61
1224,61
1225,61
1226,61
1227,61
1228,61
1229,61
1230,61
1231,61
1232,61
1233,61
1234,61
1235,61
1236,61
1237,61
1238,61
1239,61
1240,61
1241,61
1242,61
1243,61
1244,61
1245,61
1246,61
1247,61
1248,61
1249,61
1250,61
1251,61
1252,61
1253,61
1254,62
1255,62
1256,62
1257,62
1258,63
1259,63
1260,63
1261,63
1262,63
1263,63
1264,63
1265,63
1266,63
1267,63
1268,63
1269,63
1270,63
1271,63
1272,63
1273,63
1274,63
1275,63
1276,63
1277,63
1278,63
1279,63
1280,63
1281,63
1282,63
1283,64
1284,64
1285,64
1286,64
1287,64
1288,64
1289,64
1290,64
1291,64
1292,64
1293,64
1294,64
1295,64
1296,66
1297,66
1298,66
1299,66
1300,66
1301,66
1302,66
1303,66
1304,66
1305,66
1306,66
1307,66
1308,66
1309,66
1310,66
1311,66
1312,66
1313,66
1314,66
1315,66
1316,67
1317,67
1318,67
1319,68
1320,68
1321,68
1322,68
1323,68
1324,68
1325,68
1326,68
1327,70
1328,70
1329,70
1330,70
1331,70
1332,70
1333,70
1334,70
1335,70
1336,70
1337,70
1338,70
1339,70
1340,70
1341,70
1342,70
1343,70
1344,70
1345,70
1346,70
1347,70
1348,70
1349,70
1350,70
1351,70
1352,70
1353,70
1354,70
1355,70
1356,70
1357,71
1358,71
1359,71
1360,71
1361,71
1362,71
1363,71
1364,71
1365,71
1366,71
1367,71
1368,71
1369,71
1370,71
1371,71
1372,71
1373,71
1374,72
1375,73
1376,73
1377,73
1378,73
1379,73
1380,74
1381,74
1382,74
1383,74
1384,74
1385,74
1386,74
1387,75
1388,75
1389,75
1390,76
1391,76
1392,76
1393,76
1394,76
1395,76
1396,76
1397,76
1398,76
1399,76
1400,76
1401,76
1402,76
1403,76
1404,76
1405,76
1406,76
1407,76
1408,76
1409,77
1410,77
1411,77
1412,77
1413,78
1414,78
1415,78
1416,79
1417,79
1418,79
1419,79
1420,79
1421,79
1422,79
1423,79
1424,79
1425,79
1426,79
1427,79
1428,79
1429,79
1430,79
1431,79
1432,79
1433,79
1434,79
1435,79
1436,79
1437,79
1438,79
1439,79
1440,79
1441,79
1442,79
1443,79
1444,79
1445,79
1446,79
1447,79
1448,79
1449,79
1450,79
1451,79
1452,79
1453,79
1454,79
1455,79
1456,79
1457,79
1458,79
1459,79
1460,79
1461,80
1462,80
1463,80
1464,80
1465,80
1466,81
1467,81
1468,81
1469,81
1470,81
1471,81
1472,81
1473,81
1474,81
1475,81
1476,81
1477,81
1478,81
1479,81
1480,81
1481,81
1482,81
1483,81
1484,81
1485,81
1486,81
1487,81
1488,82
1489,82
1490,82
1491,82
1492,82
1493,82
1494,82
1495,83
1496,83
1497,83
1498,83
1499,83
1500,83
1501,83
1502,84
1503,84
1504,84
1505,85
1506,85
1507,85
1508,85
1509,85
1510,85
1511,85
1512,85
1513,85
1514,85
1515,85
1516,86
1517,87
1518,88
1519,88
1520,88
1521,88
1522,89
1523,89
1524,89
1525,89
1526,89
1527,89
1528,89
1529,89
1530,89
1531,89
1532,89
1533,90
1534,90
1535,90
1536,90
1537,90
1538,90
1539,90
1540,90
1541,90
1542,90
1543,90
1544,90
1545,91
1546,91
1547,91
1548,92
1549,92
1550,92
1551,92
1552,92
1553,92
1554,92
1555,92
1556,92
1557,92
1558,92
1559,92
1560,92
1561,92
1562,92
1563,92
1564,92
1565,92
1566,92
1567,92
1568,93
1569,93
1570,93
1571,93
1572,93
1573,93
1574,93
1575,93
1576,93
1577,93
1578,93
1579,93
1580,93
1581,93
1582,93
1583,93
1584,93
1585,93
1586,93
1587,93
1588,93
1589,93
1590,93
1591,93
1592,93
1593,93
1594,93
1595,93
1596,93
1597,93
1598,93
1599,93
1600,93
1601,93
1602,93
1603,93
1604,93
1605,93
1606,93
1607,93
1608,93
1609,93
1610,93
1611,93
1612,93
1613,93
1614,93
1615,93
1616,93
1617,93
1618,93
1619,93
1620,93
1621,93
1622,93
1623,93
1624,93
1625,93
1626,93
1627,93
1628,93
1629,93
1630,93
1631,93
1632,93
1633,93
1634,93
1635,93
1636,93
1637,93
1638,93
1639,93
1640,93
1641,93
1642,93
1643,93
1644,93
1645,93
1646,93
1647,93
1648,93
1649,93
1650,93
1651,93
1652,93
1653,93
1654,93
1655,93
1656,93
1657,93
1658,93
1659,93
1660,93
1661,94
1662,94
1663,94
1664,94
1665,94
1666,94
1667,94
1668,94
1669,94
1670,94
1671,94
1672,94
1673,94
1674,94
1675,94
1676,94
1677,94
1678,94
1679,94
1680,94
1681,94
1682,94
1683,94
1684,94
1685,94
1686,95
1687,95
1688,95
1689,95
1690,95
1691,95
1692,95
1693,96
1694,96
1695,96
1696,96
1697,96
1698,96
1699,96
1700,96
1701,96
1702,97
1703,97
1704,97
1705,97
1706,97
1707,97
1708,97
1709,97
1710,97
1711,97
1712,97
1713,97
1714,97
1715,97
1716,97
1717,97
1718,97
1719,97
1720,97
1721,97
1722,97
1723,97
1724,97
1725,97
1726,97
1727,97
1728,97
1729,97
1730,97
1731,97
1732,97
1733,97
1734,97
1735,97
1736,97
1737,97
1738,97
1739,97
1740,97
1741,97
1742,97
1743,97
1744,97
1745,97
1746,97
1747,98
1748,98
1749,98
1750,98
1751,98
1752,98
1753,98
1754,98
1755,98
1756,98
1757,98
1758,98
1759,98
1760,98
1761,98
1762,99
1763,100
1764,100
1765,100
1766,100
1767,100
1768,100
1769,100
1770,100
1771,100
1772,100
1773,100
1774,100
1775,100
1776,100
1777,100
1778,100
1779,100
1780,100
1781,100
1782,100
1783,100
1784,100
1785,100
1786,100
1787,101
1788,101
1789,101
1790,101
1791,101
1792,101
1793,101
1794,101
1795,101
1796,101
1797,101
1798,101
1799,101
1800,101
1801,101
1802,101
1803,102
1804,102
1805,102
1806,102
1807,102
1808,103
1809,103
1810,103
1811,103
1812,103
1813,103
1814,103
1815,103
1816,105
1817,105
1818,105
1819,105
1820,105
1821,105
1822,105
1823,105
1824,105
1825,105
1826,105
1827,105
1828,105
1829,105
1830,105
1831,105
1832,105
1833,105
1834,105
1835,105
1836,105
1837,106
1838,106
1839,106
1840,106
1841,106
1842,106
1843,106
1844,106
1845,106
1846,106
1847,106
1848,107
1849,107
1850,107
1851,107
1852,107
1853,107
1854,107
1855,107
1856,107
1857,107
1858,107
1859,107
1860,107
1861,107
1862,107
1863,107
1864,107
1865,107
1866,107
1867,108
1868,108
1869,108
1870,108
1871,108
1872,108
1873,108
1874,108
1875,108
1876,108
1877,108
1878,108
1879,108
1880,108
1881,108
1882,108
1883,109
1884,109
1885,109
1886,110
1887,110
1888,110
1889,110
1890,111
1891,111
1892,111
1893,111
1894,111
1895,111
1896,111
1897,111
1898,111
1899,111
1900,111
1901,111
1902,111
1903,111
1904,111
1905,111
1906,111
1907,111
1908,111
1909,111
1910,111
1911,111
1912,111
1913,111
1914,111
1915,111
1916,111
1917,111
1918,111
1919,111
1920,111
1921,111
1922,111
1923,111
1924,111
1925,111
1926,112
1927,112
1928,112
1929,113
1930,113
1931,113
1932,113
1933,113
1934,113
1935,113
1936,113
1937,113
1938,113
1939,113
1940,113
1941,113
1942,113
1943,113
1944,113
1945,113
1946,113
1947,113
1948,113
1949,113
1950,113
1951,113
1952,113
1953,113
1954,113
1955,113
1956,113
1957,113
1958,113
1959,113
1960,113
1961,113
1962,113
1963,113
1964,113
1965,113
1966,113
1967,113
1968,113
1969,113
1970,113
1971,113
1972,113
1973,113
1974,113
1975,113
1976,113
1977,113
1978,113
1979,113
1980,113
1981,113
1982,113
1983,113
1984,113
1985,113
1986,113
1987,113
1988,113
1989,114
1990,114
1991,114
1992,114
1993,114
1994,114
1995,114
1996,114
1997,114
1998,114
1999,114
2000,114
