"tick","total"
0,0
1,0
2,0
3,0
4,0
5,0
6,0
7,0
8,0
9,0
10,0
11,0
12,0
13,0
14,0
15,0
16,0
17,0
18,0
19,0
20,0
21,0
22,0
23,0
24,0
25,0
26,0
27,0
28,0
29,0
30,0
31,0
32,0
33,0
34,0
35,0
36,0
37,0
38,0
39,0
40,0
41,0
42,0
43,0
44,0
45,0
46,0
47,0
48,0
49,0
50,0
51,0
52,0
53,0
54,0
55,0
56,0
57,0
58,0
59,0
60,0
61,0
62,0
63,0
64,0
65,0
66,0
67,0
68,0
69,0
70,0
71,0
72,0
73,0
74,0
75,0
76,0
77,0
78,0
79,0
80,0
81,0
82,0
83,0
84,0
85,0
86,0
87,0
88,0
89,0
90,0
91,0
92,0
93,0
94,0
95,0
96,0
97,0
98,0
99,0
100,0
101,0
102,0
103,0
104,0
105,0
106,0
107,0
108,0
109,0
110,0
111,0
112,0
113,1
114,2
115,2
116,2
117,2
118,2
119,2
120,2
121,2
122,2
123,2
124,2
125,3
126,3
127,3
128,3
129,3
130,3
131,3
132,4
133,4
134,4
135,4
136,4
137,4
138,4
139,4
140,4
141,4
142,4
143,4
144,5
145,5
146,5
147,5
148,5
149,5
150,5
151,5
152,5
153,5
154,5
155,5
156,5
157,5
158,5
159,5
160,5
161,5
162,5
163,5
164,5
165,5
166,5
167,5
168,5
169,5
170,6
171,6
172,6
173,6
174,7
175,7
176,7
177,7
178,7
179,7
180,7
181,7
182,7
183,7
184,7
185,7
186,7
187,11
188,11
189,11
190,11
191,12
192,12
193,12
194,12
195,13
196,14
197,14
198,14
199,15
200,15
201,15
202,15
203,15
204,15
205,15
206,15
207,15
208,15
209,15
210,15
211,16
212,16
213,16
214,16
215,16
216,16
217,16
218,16
219,16
220,16
221,16
222,16
223,16
224,16
225,16
226,16
227,16
228,16
229,16
230,16
231,16
232,16
233,16
234,16
235,17
236,17
237,17
238,17
239,17
240,17
241,17
242,17
243,17
244,18
245,18
246,18
247,18
248,18
249,19
250,19
251,19
252,19
253,19
254,19
255,19
256,19
257,19
258,19
259,19
260,20
261,20
262,20
263,21
264,21
265,21
266,21
267,22
268,22
269,22
270,22
271,22
272,22
273,22
274,22
275,22
276,22
277,23
278,23
279,23
280,23
281,24
282,24
283,24
284,24
285,25
286,25
287,25
288,25
289,25
290,25
291,25
292,25
293,25
294,26
295,26
296,26
297,26
298,26
299,26
300,26
301,26
302,26
303,26
304,26
305,26
306,26
307,27
308,27
309,27
310,27
311,27
312,27
313,27
314,27
315,27
316,27
317,27
318,27
319,28
320,28
321,28
322,28
323,28
324,28
325,28
326,29
327,29
328,29
329,29
330,29
331,29
332,29
333,30
334,30
335,30
336,30
337,30
338,30
339,30
340,30
341,30
342,30
343,30
344,30
345,30
346,30
347,30
348,30
349,30
350,31
351,31
352,31
353,32
354,32
355,32
356,32
357,32
358,32
359,32
360,32
361,32
362,32
363,33
364,33
365,33
366,33
367,33
368,33
369,34
370,35
371,35
372,35
373,35
374,35
375,35
376,35
377,35
378,35
379,35
380,36
381,36
382,36
383,36
384,36
385,36
386,36
387,36
388,36
389,36
390,36
391,36
392,36
393,36
394,36
395,36
396,36
397,36
398,36
399,36
400,36
401,36
402,36
403,36
404,36
405,36
406,36
407,36
408,36
409,37
410,37
411,37
412,37
413,37
414,37
415,37
416,37
417,37
418,37
419,37
420,37
421,37
422,37
423,37
424,37
425,37
426,37
427,37
428,37
429,37
430,37
431,37
432,37
433,37
434,37
435,37
436,37
437,37
438,37
439,37
440,37
441,37
442,37
443,37
444,37
445,37
446,37
447,37
448,37
449,37
450,37
451,37
452,37
453,37
454,37
455,37
456,37
457,37
458,37
459,37
460,37
461,37
462,37
463,37
464,37
465,37
466,37
467,37
468,37
469,37
470,37
471,37
472,37
473,37
474,37
475,38
476,38
477,39
478,39
479,39
480,39
481,39
482,39
483,39
484,39
485,39
486,39
487,39
488,39
489,39
490,39
491,39
492,39
493,39
494,39
495,39
496,39
497,39
498,39
499,41
500,41
501,41
502,41
503,41
504,42
505,42
506,42
507,42
508,42
509,43
510,43
511,43
512,43
513,43
514,43
515,43
516,43
517,44
518,44
519,44
520,45
521,45
522,45
523,45
524,45
525,45
526,45
527,45
528,45
529,45
530,45
531,45
532,45
533,45
534,45
535,45
536,45
537,45
538,46
539,47
540,47
541,48
542,48
543,48
544,48
545,48
546,48
547,50
548,50
549,50
550,50
551,50
552,50
553,50
554,50
555,51
556,51
557,51
558,51
559,51
560,51
561,51
562,51
563,51
564,51
565,52
566,52
567,52
568,52
569,52
570,52
571,52
572,52
573,52
574,52
575,52
576,52
577,52
578,52
579,52
580,52
581,52
582,52
583,52
584,52
585,52
586,52
587,52
588,52
589,52
590,52
591,52
592,52
593,52
594,52
595,52
596,52
597,52
598,52
599,52
600,52
601,53
602,53
603,53
604,53
605,53
606,53
607,53
608,53
609,53
610,53
611,53
612,53
613,53
614,53
615,53
616,53
617,53
618,53
619,53
620,53
621,53
622,53
623,53
624,53
625,53
626,53
627,53
628,53
629,53
630,53
631,53
632,53
633,53
634,53
635,53
636,53
637,53
638,53
639,53
640,53
641,53
642,53
643,53
644,53
645,53
646,53
647,53
648,53
649,53
650,53
651,53
652,53
653,53
654,54
655,54
656,54
657,54
658,54
659,54
660,55
661,55
662,55
663,55
664,55
665,55
666,55
667,55
668,56
669,56
670,56
671,56
672,56
673,56
674,56
675,56
676,56
677,56
678,57
679,57
680,57
681,57
682,57
683,57
684,57
685,57
686,57
687,58
688,58
689,59
690,59
691,59
692,59
693,59
694,59
695,59
696,59
697,59
698,59
699,59
700,59
701,59
702,59
703,59
704,59
705,59
706,59
707,59
708,59
709,59
710,59
711,59
712,59
713,59
714,59
715,59
716,59
717,59
718,59
719,59
720,59
721,60
722,60
723,62
724,62
725,62
726,62
727,62
728,62
729,62
730,62
731,62
732,62
733,63
734,63
735,63
736,64
737,65
738,65
739,65
740,65
741,65
742,65
743,67
744,67
745,67
746,67
747,67
748,67
749,67
750,67
751,68
752,68
753,68
754,68
755,68
756,68
757,68
758,68
759,68
760,68
761,68
762,68
763,68
764,68
765,68
766,68
767,68
768,68
769,68
770,68
771,68
772,68
773,68
774,68
775,68
776,68
777,68
778,68
779,68
780,68
781,68
782,69
783,69
784,69
785,69
786,69
787,69
788,69
789,69
790,69
791,69
792,69
793,70
794,70
795,70
796,70
797,70
798,71
799,71
800,71
801,71
802,71
803,71
804,71
805,72
806,72
807,72
808,72
809,72
810,72
811,72
812,72
813,72
814,73
815,73
816,73
817,73
818,74
819,74
820,74
821,74
822,74
823,74
824,74
825,74
826,74
827,74
828,74
829,74
830,74
831,74
832,74
833,75
834,76
835,76
836,76
837,76
838,76
839,76
840,76
841,76
842,76
843,76
844,76
845,76
846,76
847,76
848,76
849,76
850,76
851,76
852,76
853,76
854,76
855,76
856,76
857,76
858,76
859,76
860,76
861,76
862,76
863,76
864,76
865,76
866,76
867,76
868,77
869,77
870,77
871,77
872,77
873,77
874,77
875,77
876,77
877,77
878,77
879,77
880,77
881,77
882,77
883,77
884,77
885,77
886,77
887,77
888,77
889,77
890,77
891,77
892,77
893,77
894,77
895,77
896,77
897,77
898,77
899,77
900,77
901,77
902,77
903,77
904,77
905,77
906,77
907,77
908,77
909,78
910,78
911,78
912,78
913,78
914,78
915,78
916,78
917,78
918,78
919,78
920,78
921,78
922,78
923,78
924,78
925,78
926,78
927,78
928,78
929,78
930,79
931,79
932,79
933,79
934,79
935,79
936,79
937,79
938,79
939,79
940,79
941,79
942,79
943,79
944,79
945,79
946,79
947,79
948,79
949,79
950,79
951,79
952,79
953,79
954,79
955,79
956,79
957,79
958,79
959,79
960,79
961,79
962,79
963,79
964,79
965,79
966,79
967,79
968,80
969,80
970,80
971,80
972,80
973,80
974,80
975,80
976,80
977,80
978,80
979,80
980,80
981,80
982,80
983,80
984,80
985,81
986,81
987,81
988,81
989,81
990,81
991,81
992,81
993,81
994,82
995,82
996,82
997,82
998,82
999,82
1000,82
1001,82
1002,82
1003,82
1004,82
1005,82
1006,82
1007,82
1008,83
1009,83
1010,83
1011,83
1012,84
1013,84
1014,84
1015,84
1016,84
1017,84
1018,84
1019,84
1020,84
1021,84
1022,84
1023,84
1024,84
1025,84
1026,84
1027,84
1028,84
1029,84
1030,84
1031,84
1032,84
1033,84
1034,84
1035,84
1036,84
1037,84
1038,86
1039,86
1040,86
1041,86
1042,86
1043,86
1044,86
1045,86
1046,86
1047,86
1048,86
1049,86
1050,86
1051,86
1052,86
1053,86
1054,86
1055,86
1056,86
1057,86
1058,86
1059,86
1060,86
1061,86
1062,86
1063,86
1064,86
1065,86
1066,86
1067,86
1068,86
1069,87
1070,87
1071,87
1072,87
1073,87
1074,87
1075,87
1076,87
1077,87
1078,87
1079,88
1080,88
1081,88
1082,88
1083,88
1084,88
1085,88
1086,88
1087,88
1088,88
1089,88
1090,88
1091,88
1092,88
1093,88
1094,88
1095,88
1096,88
1097,88
1098,88
1099,88
1100,88
1101,88
1102,88
1103,88
1104,88
1105,88
1106,88
1107,88
1108,88
1109,88
1110,88
1111,88
1112,88
1113,88
1114,88
1115,88
1116,89
1117,89
1118,89
1119,89
1120,89
1121,89
1122,89
1123,89
1124,89
1125,89
1126,89
1127,89
1128,89
1129,89
1130,89
1131,89
1132,90
1133,90
1134,90
1135,90
1136,90
1137,90
1138,90
1139,90
1140,91
1141,92
1142,92
1143,92
1144,92
1145,92
1146,92
1147,92
1148,92
1149,92
1150,92
1151,92
1152,92
1153,92
1154,92
1155,92
1156,92
1157,92
1158,92
1159,92
1160,92
1161,92
1162,92
1163,92
1164,92
1165,92
1166,92
1167,92
1168,92
1169,92
1170,92
1171,92
1172,93
1173,93
1174,93
1175,93
1176,93
1177,93
1178,93
1179,93
1180,94
1181,94
1182,94
1183,94
1184,94
1185,94
1186,94
1187,94
1188,94
1189,94
1190,94
1191,94
1192,94
1193,94
1194,94
1195,95
1196,96
1197,96
1198,96
1199,96
1200,96
1201,96
1202,96
1203,96
1204,96
1205,96
1206,96
1207,96
1208,96
1209,96
1210,96
1211,96
1212,97
1213,97
1214,97
1215,97
1216,97
1217,97
1218,97
1219,97
1220,97
1221,97
1222,97
1223,97
1224,97
1225,97
1226,97
1227,97
1228,97
1229,97
1230,97
1231,97
1232,97
1233,97
1234,97
1235,97
1236,98
1237,98
1238,99
1239,99
1240,99
1241,99
1242,99
1243,99
1244,99
1245,99
1246,99
1247,99
1248,99
1249,99
1250,100
1251,100
1252,100
1253,100
1254,100
1255,100
1256,100
1257,101
1258,101
1259,101
1260,102
1261,102
1262,102
1263,103
1264,103
1265,103
1266,103
1267,103
1268,103
1269,103
1270,104
1271,105
1272,105
1273,105
1274,105
1275,105
1276,105
1277,105
1278,105
1279,105
1280,105
1281,105
1282,105
1283,105
1284,105
1285,105
1286,105
1287,105
1288,105
1289,105
1290,105
1291,105
1292,105
1293,105
1294,105
1295,105
1296,105
1297,105
1298,105
1299,105
1300,105
1301,105
1302,105
1303,105
1304,105
1305,105
1306,105
1307,105
1308,105
1309,105
1310,105
1311,105
1312,105
1313,105
1314,105
1315,105
1316,105
1317,105
1318,105
1319,105
1320,105
1321,105
1322,105
1323,105
1324,105
1325,105
1326,105
1327,105
1328,105
1329,105
1330,105
1331,105
1332,105
1333,105
1334,105
1335,105
1336,105
1337,105
1338,105
1339,105
1340,105
1341,105
1342,105
1343,105
1344,105
1345,105
1346,105
1347,105
1348,105
1349,105
1350,106
1351,106
1352,106
1353,106
1354,106
1355,106
1356,106
1357,106
1358,106
1359,106
1360,106
1361,106
1362,106
1363,107
1364,107
1365,107
1366,107
1367,107
1368,107
1369,107
1370,108
1371,108
1372,108
1373,108
1374,109
1375,109
1376,109
1377,109
1378,109
1379,109
1380,109
1381,109
1382,109
1383,109
1384,109
1385,109
1386,109
1387,109
1388,109
1389,109
1390,109
1391,109
1392,109
1393,109
1394,109
1395,109
1396,109
1397,109
1398,109
1399,109
1400,109
1401,109
1402,109
1403,109
1404,109
1405,109
1406,109
1407,109
1408,109
1409,109
1410,110
1411,110
1412,110
1413,110
1414,111
1415,111
1416,111
1417,111
1418,111
1419,111
1420,112
1421,112
1422,112
1423,112
1424,113
1425,113
1426,113
1427,113
1428,113
1429,113
1430,113
1431,113
1432,113
1433,113
1434,113
1435,113
1436,113
1437,113
1438,113
1439,113
1440,113
1441,113
1442,113
1443,113
1444,113
1445,113
1446,113
1447,113
1448,113
1449,113
1450,113
1451,113
1452,113
1453,113
1454,113
1455,113
1456,113
1457,113
1458,114
1459,114
1460,114
1461,114
1462,114
1463,114
1464,114
1465,114
1466,114
1467,114
1468,114
1469,114
1470,114
1471,114
1472,115
1473,115
1474,115
1475,115
1476,115
1477,115
1478,115
1479,115
1480,115
1481,115
1482,115
1483,115
1484,116
1485,116
1486,116
1487,116
1488,116
1489,116
1490,116
1491,116
1492,116
1493,116
1494,116
1495,116
1496,116
1497,116
1498,116
1499,116
1500,116
1501,116
1502,116
1503,116
1504,116
1505,116
1506,116
1507,116
1508,117
1509,117
1510,117
1511,117
1512,117
1513,117
1514,117
1515,117
1516,117
1517,117
1518,117
1519,117
1520,117
1521,117
1522,117
1523,117
1524,117
1525,117
1526,117
1527,117
1528,117
1529,117
1530,117
1531,117
1532,117
1533,117
1534,117
1535,117
1536,117
1537,117
1538,117
1539,117
1540,117
1541,117
1542,117
1543,117
1544,117
1545,117
1546,117
1547,117
1548,117
1549,117
1550,117
1551,117
1552,117
1553,117
1554,117
1555,117
1556,117
1557,117
1558,117
1559,117
1560,117
1561,117
1562,117
1563,117
1564,117
1565,117
1566,117
1567,117
1568,117
1569,117
1570,118
1571,118
1572,118
1573,118
1574,118
1575,118
1576,118
1577,118
1578,118
1579,118
1580,118
1581,118
1582,118
1583,118
1584,118
1585,118
1586,118
1587,118
1588,118
1589,118
1590,119
1591,119
1592,119
1593,119
1594,119
1595,119
1596,119
1597,119
1598,119
1599,119
1600,119
1601,119
1602,120
1603,120
1604,120
1605,121
1606,121
1607,121
1608,121
1609,121
1610,121
1611,121
1612,121
1613,121
1614,121
1615,121
1616,121
1617,121
1618,121
1619,121
1620,121
1621,121
1622,121
1623,122
1624,122
1625,123
1626,123
1627,123
1628,123
1629,123
1630,124
1631,124
1632,124
1633,124
1634,124
1635,124
1636,124
1637,124
1638,124
1639,124
1640,124
1641,124
1642,124
1643,124
1644,124
1645,124
1646,124
1647,124
1648,124
1649,124
1650,124
1651,124
1652,124
1653,124
1654,124
1655,124
1656,124
1657,124
1658,124
1659,124
1660,124
1661,124
1662,124
1663,124
1664,124
1665,124
1666,124
1667,124
1668,124
1669,124
1670,124
1671,124
1672,124
1673,124
1674,124
1675,124
1676,124
1677,124
1678,124
1679,124
1680,124
1681,124
1682,124
1683,126
1684,126
1685,126
1686,126
1687,126
1688,126
1689,126
1690,127
1691,127
1692,127
1693,127
1694,127
1695,127
1696,127
1697,127
1698,127
1699,127
1700,127
1701,127
1702,127
1703,127
1704,127
1705,127
1706,127
1707,127
1708,127
1709,127
1710,127
1711,127
1712,128
1713,128
1714,128
1715,128
1716,128
1717,128
1718,128
1719,128
1720,128
1721,128
1722,128
1723,128
1724,128
1725,128
1726,128
1727,128
1728,128
1729,128
1730,128
1731,128
1732,128
1733,128
1734,128
1735,128
1736,128
1737,128
1738,129
1739,129
1740,129
1741,129
1742,130
1743,130
1744,130
1745,130
1746,130
1747,130
1748,130
1749,130
1750,130
1751,130
1752,130
1753,130
1754,130
1755,130
1756,130
1757,130
1758,130
1759,130
1760,131
1761,131
1762,131
1763,131
1764,131
1765,131
1766,131
1767,131
1768,132
1769,133
1770,133
1771,133
1772,133
1773,133
1774,133
1775,133
1776,133
1777,133
1778,133
1779,133
1780,133
1781,133
1782,133
1783,133
1784,133
1785,134
1786,134
1787,134
1788,134
1789,134
1790,134
1791,134
1792,134
1793,134
1794,134
1795,134
1796,134
1797,134
1798,134
1799,134
1800,134
1801,134
1802,134
1803,134
1804,134
1805,134
1806,134
1807,134
1808,134
1809,134
1810,134
1811,134
1812,134
1813,134
1814,134
1815,134
1816,135
1817,135
1818,135
1819,135
1820,135
1821,136
1822,136
1823,136
1824,136
1825,136
1826,136
1827,136
1828,136
1829,136
1830,136
1831,136
1832,136
1833,136
1834,136
1835,136
1836,136
1837,136
1838,136
1839,136
1840,136
1841,136
1842,136
1843,136
1844,136
1845,136
1846,136
1847,136
1848,136
1849,136
1850,136
1851,136
1852,136
1853,136
1854,136
1855,136
1856,137
1857,137
1858,137
1859,137
1860,137
1861,137
1862,137
1863,137
1864,137
1865,137
1866,137
1867,137
1868,137
1869,137
1870,137
1871,137
1872,137
1873,137
1874,137
1875,137
1876,138
1877,138
1878,138
1879,138
1880,138
1881,138
1882,138
1883,138
1884,138
1885,139
1886,139
1887,139
1888,139
1889,139
1890,139
1891,139
1892,139
1893,139
1894,139
1895,139
1896,139
1897,139
1898,139
1899,139
1900,139
1901,139
1902,139
1903,139
1904,139
1905,139
1906,139
1907,139
1908,139
1909,139
1910,139
1911,139
1912,139
1913,139
1914,139
1915,139
1916,139
1917,139
1918,139
1919,139
1920,139
1921,139
1922,139
1923,139
1924,139
1925,139
1926,139
1927,139
1928,139
1929,139
1930,139
1931,139
1932,139
1933,139
1934,139
1935,139
1936,139
1937,139
1938,139
1939,139
1940,139
1941,139
1942,139
1943,139
1944,139
1945,139
1946,139
1947,139
1948,139
1949,139
1950,139
1951,139
1952,139
1953,139
1954,139
1955,139
1956,139
1957,139
1958,139
1959,139
1960,139
1961,139
1962,139
1963,139
1964,139
1965,139
1966,139
1967,139
1968,139
1969,139
1970,139
1971,139
1972,139
1973,139
1974,139
1975,139
1976,139
1977,139
1978,139
1979,139
1980,139
1981,139
1982,139
1983,139
1984,139
1985,139
1986,139
1987,140
1988,140
1989,140
1990,140
1991,140
1992,140
1993,140
1994,140
1995,140
1996,140
1997,140
1998,140
1999,140
2000,141
