"tick","total"
0,0
1,0
2,0
3,0
4,0
5,0
6,0
7,0
8,0
9,0
10,0
11,0
12,0
13,0
14,0
15,0
16,0
17,0
18,0
19,0
20,0
21,0
22,0
23,0
24,0
25,0
26,0
27,0
28,0
29,0
30,0
31,0
32,0
33,0
34,0
35,0
36,0
37,0
38,0
39,0
40,0
41,0
42,0
43,0
44,0
45,0
46,0
47,0
48,0
49,0
50,0
51,0
52,0
53,0
54,0
55,0
56,0
57,0
58,0
59,0
60,0
61,0
62,0
63,0
64,0
65,0
66,0
67,0
68,0
69,0
70,0
71,0
72,0
73,0
74,0
75,0
76,0
77,0
78,0
79,0
80,0
81,0
82,0
83,0
84,0
85,0
86,0
87,0
88,0
89,0
90,0
91,0
92,0
93,0
94,0
95,0
96,0
97,0
98,0
99,0
100,0
101,0
102,0
103,0
104,0
105,0
106,0
107,0
108,0
109,0
110,0
111,0
112,0
113,0
114,0
115,0
116,0
117,0
118,0
119,0
120,0
121,0
122,0
123,0
124,0
125,0
126,0
127,0
128,0
129,0
130,0
131,0
132,0
133,0
134,0
135,0
136,0
137,0
138,0
139,0
140,0
141,0
142,0
143,0
144,0
145,0
146,0
147,0
148,0
149,0
150,0
151,0
152,0
153,0
154,0
155,0
156,0
157,0
158,0
159,0
160,0
161,0
162,0
163,0
164,0
165,0
166,0
167,0
168,0
169,0
170,0
171,0
172,0
173,0
174,0
175,0
176,0
177,0
178,0
179,0
180,0
181,0
182,0
183,0
184,0
185,0
186,0
187,0
188,0
189,0
190,0
191,0
192,0
193,0
194,0
195,0
196,0
197,0
198,0
199,0
200,0
201,0
202,0
203,0
204,0
205,0
206,0
207,0
208,0
209,0
210,0
211,0
212,0
213,0
214,0
215,0
216,0
217,0
218,0
219,0
220,0
221,0
222,0
223,0
224,0
225,0
226,0
227,0
228,0
229,0
230,0
231,0
232,0
233,0
234,0
235,0
236,0
237,0
238,0
239,0
240,0
241,0
242,0
243,0
244,0
245,0
246,0
247,0
248,0
249,0
250,0
251,0
252,0
253,0
254,0
255,0
256,0
257,0
258,0
259,0
260,0
261,0
262,0
263,0
264,1
265,1
266,1
267,1
268,1
269,1
270,1
271,1
272,1
273,1
274,1
275,1
276,1
277,1
278,1
279,1
280,1
281,2
282,2
283,2
284,2
285,2
286,2
287,2
288,2
289,2
290,2
291,2
292,2
293,2
294,2
295,2
296,2
297,2
298,2
299,2
300,2
301,2
302,2
303,2
304,2
305,2
306,2
307,2
308,3
309,3
310,3
311,3
312,3
313,3
314,3
315,4
316,4
317,4
318,4
319,4
320,5
321,5
322,5
323,5
324,5
325,5
326,5
327,6
328,6
329,6
330,6
331,6
332,7
333,7
334,7
335,7
336,7
337,7
338,8
339,9
340,9
341,9
342,9
343,9
344,9
345,9
346,9
347,9
348,9
349,9
350,9
351,9
352,9
353,10
354,10
355,11
356,11
357,11
358,11
359,11
360,11
361,11
362,11
363,11
364,11
365,11
366,11
367,11
368,11
369,11
370,11
371,11
372,11
373,11
374,12
375,12
376,12
377,12
378,13
379,13
380,13
381,13
382,13
383,13
384,13
385,13
386,14
387,14
388,14
389,14
390,14
391,14
392,14
393,14
394,14
395,14
396,14
397,14
398,14
399,14
400,14
401,14
402,14
403,14
404,14
405,16
406,16
407,16
408,16
409,16
410,16
411,18
412,18
413,18
414,18
415,18
416,18
417,18
418,18
419,18
420,18
421,18
422,18
423,18
424,18
425,18
426,18
427,18
428,18
429,18
430,18
431,18
432,18
433,18
434,18
435,18
436,18
437,18
438,18
439,18
440,18
441,18
442,18
443,18
444,19
445,19
446,19
447,19
448,19
449,19
450,19
451,19
452,19
453,19
454,20
455,20
456,20
457,20
458,20
459,20
460,20
461,20
462,20
463,20
464,20
465,20
466,20
467,20
468,20
469,20
470,20
471,20
472,20
473,20
474,20
475,20
476,20
477,20
478,20
479,20
480,20
481,20
482,20
483,20
484,20
485,20
486,20
487,20
488,20
489,20
490,20
491,20
492,20
493,20
494,20
495,20
496,20
497,20
498,20
499,20
500,20
501,20
502,21
503,22
504,22
505,22
506,22
507,22
508,22
509,22
510,22
511,22
512,22
513,22
514,22
515,23
516,24
517,25
518,25
519,25
520,25
521,25
522,25
523,25
524,25
525,25
526,25
527,26
528,26
529,26
530,26
531,26
532,26
533,26
534,26
535,26
536,26
537,26
538,26
539,26
540,26
541,27
542,27
543,27
544,27
545,27
546,27
547,27
548,27
549,27
550,27
551,27
552,27
553,27
554,27
555,27
556,27
557,27
558,27
559,27
560,27
561,27
562,27
563,27
564,27
565,27
566,27
567,27
568,27
569,27
570,27
571,27
572,27
573,27
574,27
575,27
576,27
577,27
578,27
579,27
580,27
581,27
582,27
583,27
584,27
585,27
586,27
587,27
588,27
589,27
590,27
591,27
592,27
593,27
594,27
595,27
596,27
597,27
598,27
599,27
600,27
601,27
602,27
603,27
604,27
605,27
606,27
607,27
608,27
609,27
610,27
611,27
612,28
613,28
614,28
615,28
616,28
617,28
618,28
619,28
620,28
621,28
622,28
623,28
624,28
625,28
626,28
627,28
628,28
629,28
630,29
631,29
632,29
633,29
634,29
635,29
636,29
637,29
638,29
639,29
640,29
641,30
642,30
643,30
644,30
645,30
646,30
647,30
648,30
649,30
650,30
651,30
652,30
653,30
654,30
655,30
656,30
657,30
658,30
659,30
660,30
661,30
662,30
663,30
664,30
665,30
666,30
667,30
668,30
669,30
670,30
671,30
672,30
673,30
674,30
675,31
676,31
677,31
678,31
679,31
680,31
681,31
682,31
683,31
684,31
685,31
686,31
687,31
688,31
689,31
690,31
691,31
692,31
693,31
694,31
695,31
696,31
697,31
698,31
699,31
700,31
701,31
702,31
703,31
704,31
705,31
706,31
707,31
708,31
709,31
710,31
711,31
712,31
713,31
714,31
715,31
716,31
717,31
718,31
719,31
720,31
721,31
722,31
723,31
724,31
725,31
726,31
727,31
728,31
729,31
730,31
731,31
732,31
733,31
734,31
735,31
736,31
737,31
738,31
739,31
740,31
741,31
742,31
743,31
744,31
745,31
746,31
747,31
748,31
749,32
750,32
751,32
752,32
753,32
754,32
755,32
756,32
757,32
758,32
759,32
760,32
761,32
762,32
763,32
764,32
765,32
766,32
767,32
768,32
769,32
770,32
771,32
772,32
773,32
774,32
775,32
776,32
777,32
778,32
779,32
780,32
781,32
782,32
783,32
784,32
785,33
786,33
787,33
788,33
789,33
790,33
791,33
792,33
793,33
794,33
795,33
796,34
797,34
798,34
799,34
800,34
801,34
802,34
803,34
804,34
805,34
806,34
807,35
808,35
809,35
810,35
811,35
812,35
813,35
814,35
815,35
816,35
817,35
818,35
819,35
820,35
821,35
822,35
823,35
824,35
825,35
826,35
827,35
828,35
829,35
830,35
831,35
832,35
833,35
834,35
835,35
836,35
837,35
838,35
839,35
840,35
841,35
842,35
843,35
844,35
845,35
846,35
847,35
848,35
849,35
850,35
851,35
852,35
853,35
854,35
855,35
856,35
857,35
858,35
859,35
860,35
861,35
862,35
863,35
864,35
865,35
866,35
867,35
868,35
869,35
870,35
871,35
872,35
873,35
874,35
875,35
876,35
877,35
878,35
879,35
880,35
881,35
882,35
883,35
884,35
885,35
886,35
887,35
888,35
889,35
890,35
891,35
892,35
893,35
894,35
895,35
896,35
897,35
898,35
899,35
900,35
901,35
902,35
903,35
904,35
905,35
906,35
907,35
908,35
909,35
910,35
911,35
912,35
913,35
914,35
915,35
916,35
917,35
918,35
919,35
920,35
921,35
922,35
923,35
924,35
925,35
926,35
927,35
928,35
929,35
930,35
931,35
932,35
933,35
934,35
935,35
936,35
937,35
938,35
939,35
940,35
941,35
942,35
943,35
944,35
945,35
946,35
947,35
948,35
949,35
950,35
951,35
952,35
953,35
954,35
955,35
956,35
957,35
958,35
959,35
960,35
961,35
962,35
963,35
964,35
965,35
966,35
967,35
968,35
969,36
970,36
971,36
972,36
973,36
974,36
975,36
976,36
977,36
978,36
979,36
980,36
981,36
982,36
983,36
984,36
985,36
986,36
987,36
988,36
989,37
990,37
991,37
992,37
993,37
994,38
995,38
996,38
997,38
998,38
999,38
1000,38
1001,38
1002,38
1003,38
1004,38
1005,38
1006,38
1007,38
1008,38
1009,38
1010,38
1011,38
1012,39
1013,39
1014,39
1015,39
1016,39
1017,39
1018,40
1019,40
1020,40
1021,40
1022,40
1023,40
1024,40
1025,40
1026,40
1027,40
1028,40
1029,40
1030,40
1031,40
1032,40
1033,40
1034,40
1035,40
1036,40
1037,40
1038,40
1039,40
1040,40
1041,40
1042,40
1043,40
1044,40
1045,40
1046,40
1047,40
1048,40
1049,40
1050,40
1051,40
1052,40
1053,40
1054,40
1055,40
1056,40
1057,40
1058,40
1059,41
1060,41
1061,41
1062,41
1063,41
1064,41
1065,41
1066,41
1067,41
1068,41
1069,41
1070,41
1071,41
1072,41
1073,42
1074,42
1075,42
1076,42
1077,42
1078,42
1079,42
1080,42
1081,42
1082,42
1083,42
1084,42
1085,42
1086,42
1087,42
1088,42
1089,42
1090,42
1091,42
1092,42
1093,43
1094,43
1095,43
1096,43
1097,43
1098,43
1099,43
1100,43
1101,43
1102,43
1103,43
1104,43
1105,43
1106,43
1107,43
1108,44
1109,44
1110,44
1111,44
1112,44
1113,44
1114,44
1115,44
1116,44
1117,44
1118,44
1119,44
1120,44
1121,44
1122,45
1123,45
1124,45
1125,45
1126,45
1127,45
1128,45
1129,45
1130,45
1131,45
1132,45
1133,45
1134,45
1135,45
1136,45
1137,45
1138,45
1139,45
1140,45
1141,46
1142,46
1143,46
1144,46
1145,46
1146,46
1147,46
1148,47
1149,47
1150,47
1151,47
1152,47
1153,47
1154,47
1155,47
1156,47
1157,47
1158,47
1159,47
1160,47
1161,47
1162,47
1163,48
1164,48
1165,48
1166,48
1167,48
1168,48
1169,48
1170,48
1171,49
1172,49
1173,49
1174,49
1175,49
1176,49
1177,49
1178,49
1179,49
1180,49
1181,49
1182,49
1183,49
1184,49
1185,49
1186,49
1187,49
1188,49
1189,49
1190,49
1191,49
1192,49
1193,49
1194,49
1195,49
1196,49
1197,49
1198,49
1199,49
1200,49
1201,49
1202,50
1203,50
1204,50
1205,51
1206,51
1207,51
1208,51
1209,51
1210,51
1211,51
1212,51
1213,52
1214,52
1215,52
1216,52
1217,52
1218,52
1219,52
1220,52
1221,52
1222,52
1223,52
1224,52
1225,52
1226,53
1227,53
1228,53
1229,53
1230,53
1231,53
1232,54
1233,54
1234,54
1235,54
1236,54
1237,54
1238,55
1239,55
1240,55
1241,55
1242,56
1243,56
1244,56
1245,56
1246,56
1247,56
1248,56
1249,56
1250,56
1251,56
1252,56
1253,56
1254,56
1255,56
1256,56
1257,56
1258,56
1259,56
1260,56
1261,56
1262,56
1263,56
1264,56
1265,56
1266,56
1267,56
1268,56
1269,56
1270,56
1271,56
1272,56
1273,56
1274,56
1275,56
1276,56
1277,56
1278,56
1279,56
1280,56
1281,56
1282,56
1283,56
1284,56
1285,56
1286,56
1287,56
1288,56
1289,56
1290,56
1291,56
1292,56
1293,56
1294,56
1295,56
1296,56
1297,56
1298,56
1299,56
1300,56
1301,56
1302,56
1303,56
1304,56
1305,56
1306,56
1307,56
1308,56
1309,56
1310,56
1311,56
1312,56
1313,56
1314,56
1315,56
1316,56
1317,56
1318,56
1319,56
1320,56
1321,56
1322,56
1323,56
1324,56
1325,56
1326,56
1327,56
1328,56
1329,56
1330,56
1331,56
1332,56
1333,56
1334,56
1335,56
1336,56
1337,56
1338,56
1339,56
1340,56
1341,56
1342,56
1343,56
1344,56
1345,56
1346,56
1347,56
1348,56
1349,56
1350,56
1351,56
1352,56
1353,56
1354,56
1355,56
1356,56
1357,56
1358,56
1359,56
1360,56
1361,56
1362,56
1363,56
1364,56
1365,56
1366,56
1367,56
1368,56
1369,56
1370,56
1371,56
1372,56
1373,56
1374,56
1375,56
1376,56
1377,56
1378,56
1379,56
1380,56
1381,56
1382,56
1383,56
1384,56
1385,56
1386,56
1387,56
1388,56
1389,56
1390,56
1391,56
1392,56
1393,56
1394,56
1395,56
1396,57
1397,57
1398,57
1399,57
1400,57
1401,57
1402,57
1403,57
1404,57
1405,57
1406,57
1407,57
1408,57
1409,57
1410,58
1411,58
1412,58
1413,58
1414,59
1415,60
1416,61
1417,62
1418,63
1419,65
1420,67
1421,67
1422,67
1423,67
1424,67
1425,67
1426,67
1427,67
1428,67
1429,67
1430,67
1431,67
1432,67
1433,67
1434,67
1435,67
1436,67
1437,67
1438,67
1439,67
1440,67
1441,67
1442,67
1443,67
1444,67
1445,67
1446,67
1447,67
1448,67
1449,68
1450,68
1451,68
1452,68
1453,69
1454,69
1455,69
1456,69
1457,69
1458,69
1459,70
1460,70
1461,70
1462,71
1463,71
1464,71
1465,71
1466,71
1467,71
1468,71
1469,71
1470,71
1471,71
1472,71
1473,71
1474,71
1475,71
1476,71
1477,71
1478,71
1479,71
1480,71
1481,71
1482,71
1483,71
1484,71
1485,72
1486,72
1487,72
1488,72
1489,72
1490,72
1491,72
1492,72
1493,72
1494,72
1495,72
1496,72
1497,72
1498,72
1499,72
1500,72
1501,72
1502,72
1503,72
1504,72
1505,72
1506,72
1507,72
1508,72
1509,72
1510,72
1511,72
1512,72
1513,72
1514,72
1515,72
1516,72
1517,72
1518,72
1519,72
1520,72
1521,72
1522,72
1523,72
1524,72
1525,72
1526,72
1527,72
1528,72
1529,72
1530,72
1531,72
1532,73
1533,73
1534,73
1535,73
1536,73
1537,73
1538,73
1539,73
1540,73
1541,73
1542,74
1543,74
1544,74
1545,74
1546,74
1547,74
1548,74
1549,74
1550,74
1551,74
1552,74
1553,75
1554,75
1555,75
1556,76
1557,76
1558,76
1559,76
1560,76
1561,76
1562,76
1563,76
1564,76
1565,77
1566,77
1567,77
1568,77
1569,77
1570,77
1571,78
1572,78
1573,78
1574,78
1575,78
1576,78
1577,78
1578,78
1579,78
1580,78
1581,78
1582,78
1583,78
1584,78
1585,78
1586,78
1587,78
1588,78
1589,78
1590,78
1591,78
1592,78
1593,78
1594,78
1595,78
1596,78
1597,78
1598,78
1599,78
1600,78
1601,78
1602,78
1603,78
1604,78
1605,78
1606,78
1607,78
1608,78
1609,78
1610,78
1611,78
1612,78
1613,78
1614,78
1615,78
1616,78
1617,78
1618,78
1619,78
1620,78
1621,78
1622,78
1623,78
1624,78
1625,78
1626,78
1627,78
1628,78
1629,78
1630,78
1631,78
1632,78
1633,79
1634,79
1635,79
1636,79
1637,79
1638,79
1639,79
1640,79
1641,79
1642,79
1643,79
1644,79
1645,79
1646,79
1647,79
1648,79
1649,79
1650,79
1651,79
1652,79
1653,79
1654,79
1655,79
1656,79
1657,79
1658,80
1659,80
1660,80
1661,80
1662,80
1663,80
1664,80
1665,80
1666,81
1667,81
1668,81
1669,81
1670,81
1671,81
1672,81
1673,81
1674,81
1675,81
1676,81
1677,81
1678,81
1679,82
1680,82
1681,82
1682,82
1683,82
1684,82
1685,82
1686,82
1687,83
1688,83
1689,83
1690,83
1691,83
1692,83
1693,83
1694,83
1695,83
1696,83
1697,83
1698,83
1699,83
1700,83
1701,83
1702,83
1703,83
1704,83
1705,83
1706,83
1707,83
1708,83
1709,83
1710,83
1711,83
1712,83
1713,83
1714,83
1715,83
1716,83
1717,83
1718,83
1719,83
1720,83
1721,83
1722,83
1723,83
1724,83
1725,83
1726,83
1727,83
1728,83
1729,83
1730,83
1731,83
1732,83
1733,83
1734,83
1735,84
1736,84
1737,84
1738,84
1739,84
1740,84
1741,84
1742,84
1743,84
1744,84
1745,84
1746,84
1747,84
1748,84
1749,84
1750,84
1751,84
1752,84
1753,84
1754,84
1755,84
1756,84
1757,84
1758,84
1759,84
1760,84
1761,84
1762,84
1763,84
1764,84
1765,84
1766,84
1767,84
1768,84
1769,84
1770,84
1771,84
1772,84
1773,84
1774,84
1775,84
1776,84
1777,84
1778,84
1779,84
1780,84
1781,84
1782,84
1783,84
1784,85
1785,85
1786,85
1787,85
1788,85
1789,85
1790,85
1791,85
1792,85
1793,85
1794,86
1795,86
1796,86
1797,86
1798,86
1799,86
1800,86
1801,86
1802,86
1803,87
1804,87
1805,87
1806,87
1807,87
1808,87
1809,88
1810,88
1811,88
1812,89
1813,89
1814,90
1815,90
1816,90
1817,90
1818,90
1819,90
1820,90
1821,90
1822,90
1823,90
1824,90
1825,91
1826,91
1827,91
1828,91
1829,91
1830,91
1831,91
1832,91
1833,91
1834,91
1835,92
1836,92
1837,92
1838,92
1839,92
1840,92
1841,92
1842,92
1843,92
1844,93
1845,93
1846,93
1847,93
1848,93
1849,93
1850,93
1851,93
1852,93
1853,93
1854,93
1855,93
1856,93
1857,93
1858,93
1859,93
1860,93
1861,93
1862,93
1863,93
1864,93
1865,93
1866,93
1867,93
1868,94
1869,94
1870,94
1871,94
1872,94
1873,94
1874,94
1875,94
1876,94
1877,94
1878,94
1879,94
1880,95
1881,95
1882,95
1883,95
1884,95
1885,95
1886,95
1887,95
1888,95
1889,95
1890,95
1891,95
1892,95
1893,95
1894,95
1895,95
1896,95
1897,95
1898,95
1899,95
1900,95
1901,95
1902,95
1903,95
1904,95
1905,95
1906,95
1907,95
1908,95
1909,96
1910,96
1911,96
1912,96
1913,96
1914,97
1915,97
1916,97
1917,97
1918,97
1919,97
1920,97
1921,97
1922,97
1923,97
1924,97
1925,97
1926,97
1927,98
1928,98
1929,98
1930,98
1931,98
1932,98
1933,98
1934,98
1935,98
1936,98
1937,98
1938,98
1939,98
1940,98
1941,98
1942,98
1943,98
1944,98
1945,98
1946,98
1947,98
1948,98
1949,98
1950,99
1951,99
1952,99
1953,100
1954,100
1955,100
1956,100
1957,100
1958,100
1959,100
1960,100
1961,100
1962,100
1963,100
1964,100
1965,100
1966,100
1967,100
1968,100
1969,100
1970,100
1971,100
1972,100
1973,100
1974,100
1975,100
1976,100
1977,100
1978,100
1979,100
1980,100
1981,100
1982,100
1983,100
1984,100
1985,100
1986,100
1987,100
1988,100
1989,100
1990,100
1991,100
1992,100
1993,100
1994,100
1995,100
1996,100
1997,100
1998,100
1999,100
2000,100
