"tick","total"
0,0
1,0
2,0
3,0
4,0
5,0
6,0
7,0
8,0
9,0
10,0
11,0
12,1
13,1
14,1
15,1
16,1
17,1
18,1
19,1
20,1
21,1
22,1
23,1
24,1
25,1
26,2
27,2
28,2
29,2
30,2
31,2
32,2
33,2
34,2
35,2
36,2
37,2
38,2
39,2
40,2
41,3
42,3
43,3
44,3
45,3
46,4
47,4
48,5
49,6
50,6
51,6
52,6
53,6
54,6
55,6
56,6
57,7
58,7
59,7
60,7
61,7
62,7
63,7
64,8
65,10
66,11
67,12
68,13
69,14
70,15
71,15
72,16
73,16
74,16
75,16
76,16
77,16
78,16
79,16
80,16
81,16
82,17
83,17
84,17
85,17
86,17
87,17
88,17
89,17
90,17
91,17
92,17
93,17
94,17
95,17
96,18
97,19
98,19
99,19
100,19
101,19
102,19
103,19
104,19
105,19
106,19
107,19
108,20
109,20
110,20
111,20
112,20
113,20
114,20
115,20
116,20
117,20
118,20
119,21
120,21
121,21
122,21
123,21
124,21
125,21
126,22
127,22
128,22
129,22
130,23
131,23
132,24
133,24
134,24
135,24
136,24
137,24
138,25
139,25
140,26
141,26
142,26
143,26
144,26
145,27
146,27
147,27
148,27
149,27
150,27
151,27
152,27
153,27
154,28
155,28
156,28
157,30
158,30
159,30
160,30
161,30
162,30
163,30
164,30
165,30
166,30
167,31
168,31
169,31
170,31
171,31
172,31
173,31
174,31
175,31
176,31
177,31
178,31
179,31
180,32
181,32
182,32
183,32
184,32
185,32
186,32
187,32
188,33
189,33
190,33
191,33
192,33
193,33
194,33
195,33
196,33
197,33
198,33
199,33
200,33
201,33
202,33
203,33
204,34
205,34
206,34
207,34
208,34
209,34
210,34
211,34
212,35
213,36
214,36
215,36
216,36
217,36
218,36
219,36
220,36
221,36
222,36
223,36
224,36
225,36
226,36
227,36
228,36
229,36
230,36
231,36
232,36
233,36
234,36
235,36
236,36
237,36
238,37
239,37
240,37
241,37
242,37
243,37
244,37
245,37
246,37
247,37
248,37
249,37
250,37
251,37
252,37
253,37
254,37
255,37
256,37
257,37
258,37
259,37
260,37
261,37
262,37
263,38
264,38
265,38
266,38
267,38
268,38
269,38
270,38
271,38
272,38
273,38
274,38
275,38
276,38
277,38
278,38
279,38
280,38
281,38
282,38
283,38
284,38
285,38
286,38
287,38
288,39
289,39
290,39
291,39
292,39
293,39
294,39
295,39
296,39
297,39
298,39
299,39
300,39
301,39
302,39
303,39
304,39
305,39
306,39
307,39
308,39
309,39
310,39
311,39
312,39
313,39
314,39
315,39
316,39
317,39
318,39
319,39
320,39
321,39
322,39
323,39
324,39
325,39
326,39
327,39
328,39
329,39
330,39
331,41
332,41
333,41
334,41
335,41
336,41
337,41
338,41
339,41
340,42
341,42
342,42
343,42
344,42
345,42
346,42
347,42
348,42
349,42
350,42
351,42
352,42
353,42
354,42
355,42
356,42
357,43
358,43
359,43
360,43
361,43
362,43
363,43
364,43
365,43
366,43
367,43
368,43
369,43
370,43
371,44
372,44
373,44
374,44
375,44
376,44
377,44
378,45
379,45
380,45
381,45
382,45
383,45
384,45
385,45
386,46
387,46
388,46
389,47
390,47
391,47
392,47
393,47
394,47
395,48
396,48
397,48
398,48
399,48
400,48
401,48
402,48
403,49
404,49
405,49
406,49
407,49
408,49
409,49
410,49
411,49
412,49
413,49
414,49
415,50
416,50
417,50
418,51
419,51
420,51
421,51
422,51
423,51
424,51
425,51
426,51
427,51
428,51
429,51
430,51
431,51
432,51
433,51
434,51
435,51
436,51
437,51
438,51
439,51
440,51
441,51
442,51
443,51
444,51
445,51
446,51
447,51
448,51
449,51
450,51
451,51
452,51
453,51
454,51
455,51
456,51
457,51
458,51
459,52
460,52
461,52
462,52
463,52
464,53
465,53
466,53
467,53
468,53
469,53
470,53
471,53
472,53
473,53
474,53
475,53
476,53
477,53
478,53
479,53
480,53
481,53
482,53
483,53
484,53
485,53
486,53
487,53
488,53
489,53
490,53
491,54
492,54
493,54
494,54
495,54
496,54
497,54
498,54
499,54
500,55
501,55
502,55
503,55
504,55
505,55
506,55
507,55
508,56
509,56
510,56
511,56
512,56
513,56
514,56
515,56
516,56
517,57
518,57
519,58
520,58
521,58
522,59
523,59
524,59
525,59
526,59
527,59
528,59
529,60
530,60
531,60
532,60
533,60
534,60
535,60
536,60
537,60
538,60
539,60
540,60
541,61
542,61
543,61
544,61
545,61
546,61
547,61
548,61
549,61
550,61
551,61
552,61
553,61
554,61
555,61
556,61
557,61
558,62
559,62
560,62
561,62
562,62
563,62
564,62
565,62
566,62
567,63
568,63
569,63
570,63
571,63
572,63
573,63
574,63
575,63
576,63
577,63
578,63
579,63
580,63
581,63
582,63
583,63
584,63
585,63
586,64
587,64
588,64
589,64
590,64
591,64
592,64
593,64
594,64
595,64
596,64
597,64
598,64
599,64
600,65
601,65
602,65
603,65
604,65
605,65
606,65
607,65
608,66
609,66
610,66
611,66
612,66
613,66
614,66
615,66
616,66
617,66
618,66
619,66
620,66
621,67
622,67
623,67
624,67
625,68
626,68
627,68
628,68
629,68
630,68
631,68
632,68
633,68
634,68
635,68
636,69
637,69
638,70
639,70
640,70
641,70
642,70
643,70
644,70
645,70
646,70
647,70
648,70
649,70
650,70
651,70
652,70
653,70
654,70
655,71
656,71
657,71
658,71
659,71
660,71
661,71
662,71
663,71
664,71
665,71
666,71
667,71
668,71
669,71
670,71
671,71
672,71
673,72
674,73
675,73
676,73
677,73
678,73
679,73
680,73
681,73
682,73
683,73
684,73
685,73
686,73
687,73
688,73
689,73
690,73
691,73
692,73
693,73
694,73
695,73
696,73
697,73
698,73
699,73
700,73
701,73
702,73
703,73
704,73
705,73
706,73
707,73
708,73
709,73
710,73
711,73
712,73
713,73
714,73
715,73
716,73
717,73
718,73
719,73
720,73
721,73
722,73
723,73
724,74
725,74
726,74
727,74
728,74
729,74
730,74
731,75
732,75
733,75
734,75
735,75
736,75
737,75
738,75
739,75
740,75
741,75
742,75
743,76
744,76
745,76
746,76
747,76
748,76
749,76
750,76
751,76
752,76
753,76
754,76
755,76
756,76
757,76
758,76
759,76
760,76
761,76
762,77
763,77
764,77
765,77
766,77
767,77
768,77
769,77
770,77
771,77
772,77
773,77
774,77
775,77
776,77
777,78
778,78
779,78
780,78
781,78
782,78
783,78
784,78
785,78
786,79
787,79
788,79
789,79
790,79
791,79
792,79
793,79
794,79
795,79
796,79
797,80
798,80
799,80
800,80
801,81
802,81
803,81
804,81
805,81
806,81
807,82
808,82
809,82
810,82
811,83
812,83
813,83
814,83
815,83
816,83
817,83
818,83
819,83
820,83
821,83
822,84
823,84
824,84
825,84
826,84
827,84
828,84
829,84
830,84
831,84
832,84
833,84
834,84
835,85
836,85
837,85
838,85
839,85
840,85
841,85
842,85
843,85
844,85
845,85
846,85
847,85
848,85
849,85
850,85
851,85
852,85
853,85
854,85
855,85
856,85
857,85
858,87
859,87
860,88
861,88
862,88
863,88
864,88
865,88
866,88
867,88
868,88
869,88
870,88
871,88
872,89
873,89
874,89
875,89
876,89
877,89
878,89
879,89
880,89
881,89
882,89
883,89
884,89
885,89
886,89
887,89
888,89
889,89
890,89
891,89
892,89
893,89
894,89
895,89
896,89
897,89
898,89
899,89
900,89
901,89
902,89
903,89
904,89
905,89
906,89
907,89
908,89
909,89
910,89
911,89
912,89
913,89
914,89
915,89
916,89
917,89
918,89
919,89
920,89
921,89
922,89
923,89
924,89
925,89
926,89
927,90
928,90
929,90
930,90
931,90
932,90
933,90
934,90
935,90
936,90
937,90
938,90
939,90
940,90
941,90
942,91
943,91
944,91
945,91
946,91
947,91
948,91
949,91
950,91
951,91
952,91
953,91
954,91
955,91
956,91
957,91
958,91
959,91
960,91
961,91
962,91
963,91
964,91
965,91
966,91
967,91
968,91
969,91
970,91
971,91
972,91
973,91
974,91
975,91
976,91
977,91
978,91
979,91
980,91
981,91
982,91
983,91
984,91
985,91
986,91
987,91
988,91
989,91
990,91
991,91
992,91
993,91
994,91
995,91
996,91
997,91
998,91
999,91
1000,91
1001,91
1002,91
1003,91
1004,91
1005,91
1006,91
1007,91
1008,91
1009,91
1010,91
1011,91
1012,91
1013,91
1014,91
1015,92
1016,92
1017,92
1018,92
1019,92
1020,92
1021,93
1022,93
1023,93
1024,93
1025,93
1026,93
1027,94
1028,94
1029,95
1030,95
1031,96
1032,96
1033,96
1034,96
1035,96
1036,96
1037,96
1038,96
1039,96
1040,96
1041,96
1042,96
1043,96
1044,96
1045,96
1046,96
1047,96
1048,96
1049,96
1050,96
1051,96
1052,96
1053,96
1054,96
1055,96
1056,96
1057,96
1058,96
1059,96
1060,96
1061,96
1062,96
1063,96
1064,97
1065,97
1066,97
1067,97
1068,97
1069,97
1070,97
1071,97
1072,97
1073,97
1074,98
1075,98
1076,98
1077,98
1078,98
1079,98
1080,98
1081,98
1082,98
1083,98
1084,98
1085,98
1086,98
1087,98
1088,98
1089,98
1090,98
1091,98
1092,98
1093,98
1094,98
1095,98
1096,98
1097,98
1098,98
1099,98
1100,98
1101,99
1102,99
1103,99
1104,99
1105,99
1106,99
1107,99
1108,99
1109,99
1110,99
1111,99
1112,99
1113,99
1114,99
1115,99
1116,100
1117,101
1118,102
1119,102
1120,102
1121,102
1122,102
1123,102
1124,102
1125,103
1126,103
1127,104
1128,104
1129,104
1130,104
1131,104
1132,104
1133,104
1134,104
1135,104
1136,104
1137,104
1138,104
1139,104
1140,104
1141,104
1142,104
1143,104
1144,104
1145,105
1146,105
1147,105
1148,105
1149,105
1150,105
1151,105
1152,105
1153,105
1154,105
1155,105
1156,105
1157,105
1158,105
1159,105
1160,105
1161,106
1162,106
1163,106
1164,106
1165,106
1166,106
1167,106
1168,107
1169,107
1170,107
1171,107
1172,107
1173,107
1174,107
1175,107
1176,108
1177,108
1178,108
1179,108
1180,108
1181,108
1182,108
1183,108
1184,108
1185,108
1186,108
1187,108
1188,108
1189,108
1190,108
1191,108
1192,108
1193,108
1194,108
1195,108
1196,108
1197,108
1198,108
1199,108
1200,108
1201,108
1202,108
1203,108
1204,108
1205,108
1206,108
1207,109
1208,110
1209,111
1210,112
1211,113
1212,114
1213,115
1214,116
1215,117
1216,118
1217,118
1218,119
1219,119
1220,120
1221,120
1222,120
1223,121
1224,122
1225,122
1226,122
1227,122
1228,122
1229,122
1230,122
1231,122
1232,123
1233,123
1234,123
1235,124
1236,124
1237,124
1238,124
1239,124
1240,124
1241,124
1242,124
1243,124
1244,125
1245,126
1246,126
1247,126
1248,126
1249,126
1250,126
1251,126
1252,126
1253,126
1254,126
1255,126
1256,126
1257,126
1258,126
1259,126
1260,126
1261,126
1262,126
1263,126
1264,126
1265,126
1266,126
1267,126
1268,126
1269,126
1270,126
1271,126
1272,126
1273,126
1274,126
1275,126
1276,126
1277,126
1278,126
1279,126
1280,126
1281,126
1282,126
1283,126
1284,126
1285,126
1286,126
1287,126
1288,126
1289,127
1290,127
1291,127
1292,127
1293,127
1294,127
1295,127
1296,127
1297,127
1298,127
1299,127
1300,127
1301,127
1302,127
1303,127
1304,127
1305,127
1306,127
1307,127
1308,127
1309,127
1310,127
1311,127
1312,127
1313,127
1314,127
1315,127
1316,127
1317,127
1318,127
1319,127
1320,127
1321,127
1322,127
1323,127
1324,127
1325,128
1326,128
1327,128
1328,128
1329,128
1330,128
1331,128
1332,128
1333,128
1334,128
1335,128
1336,128
1337,128
1338,128
1339,128
1340,128
1341,128
1342,128
1343,128
1344,128
1345,128
1346,128
1347,128
1348,128
1349,128
1350,128
1351,128
1352,128
1353,128
1354,128
1355,128
1356,128
1357,128
1358,128
1359,128
1360,129
1361,129
1362,129
1363,129
1364,129
1365,129
1366,129
1367,129
1368,129
1369,131
1370,131
1371,131
1372,131
1373,131
1374,131
1375,131
1376,131
1377,131
1378,131
1379,131
1380,131
1381,131
1382,131
1383,131
1384,131
1385,131
1386,131
1387,131
1388,131
1389,131
1390,131
1391,131
1392,131
1393,131
1394,131
1395,131
1396,131
1397,131
1398,131
1399,131
1400,131
1401,131
1402,131
1403,131
1404,131
1405,131
1406,131
1407,131
1408,131
1409,131
1410,131
1411,131
1412,131
1413,131
1414,131
1415,132
1416,132
1417,132
1418,132
1419,133
1420,133
1421,133
1422,133
1423,134
1424,134
1425,134
1426,134
1427,135
1428,135
1429,135
1430,135
1431,135
1432,135
1433,135
1434,135
1435,135
1436,135
1437,136
1438,136
1439,136
1440,136
1441,136
1442,136
1443,136
1444,136
1445,136
1446,136
1447,136
1448,136
1449,136
1450,136
1451,136
1452,136
1453,136
1454,136
1455,136
1456,136
1457,136
1458,136
1459,137
1460,137
1461,137
1462,137
1463,137
1464,137
1465,137
1466,137
1467,137
1468,137
1469,137
1470,137
1471,137
1472,137
1473,137
1474,137
1475,137
1476,137
1477,137
1478,137
1479,137
1480,137
1481,137
1482,137
1483,137
1484,138
1485,138
1486,138
1487,138
1488,138
1489,139
1490,139
1491,139
1492,139
1493,139
1494,139
1495,139
1496,139
1497,139
1498,139
1499,139
1500,139
1501,139
1502,139
1503,139
1504,139
1505,139
1506,139
1507,139
1508,139
1509,139
1510,139
1511,139
1512,139
1513,139
1514,139
1515,139
1516,139
1517,139
1518,139
1519,139
1520,139
1521,139
1522,139
1523,139
1524,139
1525,139
1526,139
1527,139
1528,139
1529,139
1530,139
1531,139
1532,139
1533,139
1534,139
1535,139
1536,139
1537,139
1538,139
1539,139
1540,139
1541,140
1542,140
1543,140
1544,140
1545,140
1546,140
1547,140
1548,140
1549,140
1550,140
1551,140
1552,141
1553,141
1554,141
1555,141
1556,141
1557,142
1558,142
1559,142
1560,142
1561,142
1562,142
1563,142
1564,142
1565,142
1566,142
1567,142
1568,142
1569,142
1570,142
1571,142
1572,142
1573,142
1574,142
1575,142
1576,142
1577,142
1578,142
1579,142
1580,142
1581,142
1582,142
1583,142
1584,142
1585,142
1586,142
1587,142
1588,142
1589,142
1590,142
1591,142
1592,142
1593,142
1594,142
1595,142
1596,142
1597,142
1598,142
1599,142
1600,142
1601,143
1602,143
1603,143
1604,143
1605,143
1606,143
1607,143
1608,143
1609,143
1610,143
1611,143
1612,143
1613,143
1614,143
1615,143
1616,143
1617,143
1618,143
1619,143
1620,143
1621,143
1622,143
1623,143
1624,143
1625,144
1626,144
1627,144
1628,144
1629,144
1630,144
1631,144
1632,144
1633,144
1634,144
1635,144
1636,144
1637,144
1638,144
1639,144
1640,144
1641,144
1642,144
1643,144
1644,144
1645,144
1646,144
1647,144
1648,144
1649,144
1650,144
1651,144
1652,144
1653,144
1654,144
1655,144
1656,144
1657,144
1658,145
1659,145
1660,145
1661,145
1662,145
1663,145
1664,145
1665,145
1666,145
1667,145
1668,145
1669,146
1670,146
1671,146
1672,146
1673,146
1674,146
1675,146
1676,146
1677,146
1678,146
1679,146
1680,146
1681,146
1682,146
1683,146
1684,146
1685,146
1686,146
1687,146
1688,146
1689,146
1690,146
1691,146
1692,146
1693,146
1694,146
1695,146
1696,146
1697,146
1698,146
1699,146
1700,146
1701,146
1702,146
1703,146
1704,146
1705,146
1706,146
1707,146
1708,146
1709,146
1710,147
1711,147
1712,147
1713,147
1714,147
1715,147
1716,147
1717,147
1718,147
1719,147
1720,148
1721,148
1722,148
1723,148
1724,148
1725,148
1726,148
1727,148
1728,149
1729,149
1730,149
1731,149
1732,149
1733,149
1734,149
1735,149
1736,149
1737,149
1738,149
1739,149
1740,149
1741,149
1742,149
1743,149
1744,149
1745,149
1746,149
1747,149
1748,149
1749,149
1750,149
1751,149
1752,149
1753,149
1754,150
1755,150
1756,150
1757,150
1758,150
1759,150
1760,150
1761,150
1762,150
1763,150
1764,150
1765,150
1766,150
1767,150
1768,150
1769,150
1770,151
1771,152
1772,152
1773,152
1774,152
1775,152
1776,152
1777,152
1778,152
1779,152
1780,152
1781,152
1782,152
1783,152
1784,152
1785,152
1786,152
1787,152
1788,152
1789,152
1790,152
1791,153
1792,153
1793,153
1794,153
1795,153
1796,153
1797,153
1798,153
1799,153
1800,153
1801,154
1802,154
1803,154
1804,154
1805,154
1806,154
1807,154
1808,154
1809,154
1810,154
1811,154
1812,154
1813,154
1814,154
1815,155
1816,155
1817,155
1818,155
1819,155
1820,155
1821,155
1822,155
1823,155
1824,155
1825,155
1826,155
1827,155
1828,155
1829,155
1830,155
1831,155
1832,155
1833,155
1834,155
1835,155
1836,155
1837,155
1838,155
1839,155
1840,155
1841,155
1842,155
1843,155
1844,155
1845,155
1846,155
1847,155
1848,155
1849,155
1850,155
1851,155
1852,155
1853,155
1854,155
1855,155
1856,155
1857,155
1858,155
1859,155
1860,155
1861,155
1862,155
1863,155
1864,155
1865,155
1866,155
1867,155
1868,155
1869,155
1870,155
1871,155
1872,155
1873,156
1874,156
1875,156
1876,156
1877,156
1878,156
1879,156
1880,156
1881,156
1882,157
1883,157
1884,157
1885,157
1886,157
1887,157
1888,157
1889,157
1890,157
1891,157
1892,157
1893,157
1894,157
1895,157
1896,157
1897,157
1898,157
1899,157
1900,157
1901,157
1902,157
1903,157
1904,157
1905,157
1906,157
1907,157
1908,157
1909,157
1910,157
1911,158
1912,158
1913,158
1914,158
1915,158
1916,158
1917,158
1918,158
1919,158
1920,158
1921,158
1922,158
1923,158
1924,159
1925,159
1926,159
1927,160
1928,160
1929,160
1930,160
1931,160
1932,160
1933,161
1934,161
1935,161
1936,161
1937,161
1938,161
1939,161
1940,161
1941,161
1942,161
1943,161
1944,161
1945,161
1946,161
1947,161
1948,162
1949,162
1950,162
1951,162
1952,162
1953,162
1954,162
1955,162
1956,162
1957,163
1958,163
1959,163
1960,163
1961,163
1962,163
1963,163
1964,163
1965,163
1966,163
1967,163
1968,164
1969,164
1970,164
1971,164
1972,164
1973,164
1974,164
1975,164
1976,164
1977,164
1978,164
1979,164
1980,164
1981,164
1982,164
1983,164
1984,164
1985,164
1986,164
1987,164
1988,164
1989,164
1990,164
1991,164
1992,164
1993,164
1994,164
1995,164
1996,164
1997,164
1998,164
1999,164
2000,164
