"tick","total"
0,0
1,0
2,0
3,0
4,0
5,0
6,0
7,0
8,0
9,0
10,0
11,0
12,0
13,0
14,0
15,0
16,0
17,0
18,0
19,0
20,0
21,0
22,0
23,0
24,0
25,0
26,0
27,0
28,0
29,0
30,0
31,0
32,0
33,0
34,0
35,0
36,0
37,0
38,0
39,0
40,0
41,0
42,0
43,0
44,0
45,0
46,0
47,0
48,0
49,0
50,0
51,0
52,0
53,0
54,0
55,0
56,0
57,0
58,0
59,0
60,0
61,0
62,0
63,0
64,0
65,0
66,0
67,0
68,0
69,0
70,0
71,0
72,0
73,0
74,0
75,0
76,0
77,0
78,0
79,0
80,0
81,0
82,0
83,0
84,0
85,0
86,0
87,0
88,0
89,0
90,0
91,0
92,0
93,0
94,0
95,0
96,0
97,0
98,0
99,0
100,0
101,0
102,0
103,0
104,0
105,0
106,0
107,0
108,0
109,0
110,0
111,0
112,0
113,0
114,0
115,0
116,0
117,0
118,0
119,0
120,0
121,0
122,0
123,0
124,0
125,0
126,0
127,0
128,0
129,0
130,0
131,0
132,0
133,0
134,0
135,0
136,0
137,0
138,0
139,0
140,0
141,0
142,0
143,0
144,0
145,0
146,0
147,0
148,0
149,0
150,0
151,0
152,0
153,0
154,0
155,0
156,0
157,0
158,0
159,0
160,0
161,0
162,0
163,0
164,0
165,0
166,0
167,0
168,0
169,0
170,0
171,0
172,0
173,0
174,0
175,0
176,0
177,0
178,0
179,0
180,0
181,0
182,0
183,0
184,0
185,0
186,0
187,0
188,0
189,0
190,0
191,0
192,0
193,0
194,0
195,0
196,0
197,0
198,0
199,0
200,0
201,0
202,0
203,0
204,0
205,0
206,0
207,0
208,0
209,0
210,0
211,0
212,0
213,0
214,0
215,0
216,0
217,0
218,0
219,1
220,2
221,2
222,2
223,2
224,2
225,2
226,2
227,2
228,2
229,2
230,2
231,3
232,3
233,3
234,3
235,3
236,3
237,3
238,3
239,3
240,3
241,3
242,3
243,3
244,3
245,3
246,3
247,3
248,3
249,3
250,3
251,3
252,3
253,4
254,5
255,5
256,5
257,6
258,6
259,6
260,6
261,6
262,6
263,6
264,6
265,6
266,6
267,6
268,6
269,6
270,6
271,6
272,7
273,7
274,7
275,7
276,7
277,7
278,7
279,7
280,7
281,7
282,7
283,7
284,7
285,7
286,7
287,7
288,7
289,7
290,7
291,7
292,8
293,8
294,8
295,8
296,8
297,8
298,8
299,8
300,8
301,8
302,8
303,8
304,8
305,8
306,8
307,8
308,9
309,9
310,9
311,9
312,9
313,10
314,10
315,10
316,10
317,10
318,10
319,10
320,10
321,10
322,10
323,10
324,10
325,10
326,10
327,10
328,10
329,10
330,10
331,11
332,11
333,11
334,11
335,11
336,11
337,11
338,12
339,13
340,13
341,13
342,13
343,13
344,13
345,13
346,13
347,13
348,13
349,13
350,13
351,14
352,15
353,15
354,15
355,15
356,15
357,15
358,15
359,15
360,15
361,15
362,15
363,16
364,16
365,16
366,16
367,16
368,16
369,18
370,18
371,18
372,18
373,18
374,18
375,18
376,19
377,19
378,19
379,19
380,19
381,19
382,19
383,19
384,19
385,19
386,19
387,19
388,19
389,20
390,20
391,21
392,21
393,21
394,21
395,21
396,21
397,21
398,21
399,21
400,21
401,21
402,21
403,21
404,21
405,22
406,22
407,22
408,22
409,22
410,22
411,22
412,22
413,22
414,22
415,22
416,22
417,22
418,22
419,22
420,22
421,22
422,22
423,22
424,22
425,22
426,22
427,22
428,22
429,22
430,22
431,22
432,22
433,22
434,22
435,22
436,22
437,23
438,23
439,23
440,23
441,23
442,23
443,23
444,23
445,23
446,23
447,23
448,23
449,23
450,23
451,24
452,24
453,24
454,24
455,24
456,24
457,24
458,24
459,24
460,24
461,24
462,24
463,24
464,24
465,24
466,24
467,24
468,24
469,24
470,24
471,24
472,24
473,24
474,24
475,24
476,24
477,24
478,24
479,24
480,24
481,24
482,24
483,24
484,25
485,25
486,25
487,25
488,25
489,25
490,25
491,25
492,25
493,25
494,25
495,25
496,25
497,25
498,25
499,25
500,25
501,25
502,25
503,25
504,25
505,25
506,25
507,25
508,25
509,25
510,25
511,25
512,25
513,25
514,25
515,25
516,25
517,25
518,25
519,25
520,25
521,25
522,25
523,25
524,25
525,25
526,25
527,25
528,25
529,25
530,25
531,25
532,25
533,25
534,25
535,25
536,25
537,25
538,25
539,25
540,25
541,25
542,25
543,25
544,26
545,26
546,26
547,27
548,27
549,27
550,27
551,27
552,27
553,27
554,27
555,27
556,27
557,27
558,27
559,27
560,27
561,27
562,27
563,27
564,27
565,27
566,27
567,27
568,27
569,27
570,27
571,27
572,27
573,27
574,27
575,27
576,27
577,27
578,27
579,27
580,27
581,27
582,27
583,27
584,27
585,27
586,27
587,27
588,27
589,27
590,27
591,28
592,28
593,28
594,28
595,28
596,28
597,28
598,28
599,28
600,28
601,28
602,28
603,28
604,28
605,28
606,28
607,28
608,28
609,28
610,28
611,28
612,28
613,29
614,29
615,29
616,29
617,29
618,30
619,30
620,30
621,30
622,30
623,30
624,30
625,30
626,30
627,30
628,30
629,30
630,31
631,31
632,31
633,31
634,31
635,31
636,31
637,31
638,33
639,33
640,33
641,33
642,34
643,34
644,34
645,34
646,34
647,34
648,34
649,34
650,34
651,34
652,34
653,34
654,34
655,35
656,35
657,35
658,35
659,35
660,35
661,35
662,35
663,35
664,35
665,36
666,36
667,36
668,36
669,36
670,36
671,36
672,36
673,36
674,36
675,36
676,36
677,36
678,36
679,36
680,37
681,37
682,37
683,37
684,37
685,37
686,37
687,37
688,37
689,37
690,37
691,37
692,37
693,37
694,37
695,37
696,37
697,38
698,38
699,38
700,38
701,38
702,38
703,38
704,38
705,38
706,38
707,38
708,38
709,38
710,39
711,39
712,39
713,39
714,40
715,40
716,40
717,40
718,40
719,40
720,40
721,40
722,40
723,40
724,40
725,40
726,40
727,40
728,40
729,41
730,41
731,41
732,41
733,42
734,42
735,42
736,42
737,42
738,42
739,42
740,42
741,42
742,42
743,42
744,42
745,43
746,43
747,43
748,43
749,43
750,44
751,44
752,44
753,44
754,44
755,45
756,45
757,45
758,45
759,45
760,45
761,45
762,45
763,46
764,46
765,46
766,46
767,46
768,46
769,47
770,47
771,47
772,48
773,48
774,48
775,48
776,48
777,48
778,48
779,48
780,48
781,48
782,48
783,48
784,48
785,48
786,48
787,48
788,48
789,48
790,48
791,48
792,48
793,48
794,48
795,48
796,48
797,49
798,50
799,50
800,50
801,50
802,50
803,50
804,50
805,50
806,50
807,50
808,50
809,50
810,50
811,50
812,50
813,50
814,50
815,50
816,50
817,50
818,50
819,50
820,50
821,50
822,50
823,50
824,50
825,50
826,50
827,50
828,50
829,50
830,50
831,50
832,50
833,50
834,50
835,50
836,50
837,50
838,50
839,50
840,50
841,50
842,50
843,50
844,50
845,50
846,50
847,50
848,50
849,50
850,50
851,50
852,50
853,50
854,50
855,50
856,50
857,50
858,50
859,50
860,50
861,50
862,50
863,51
864,51
865,51
866,51
867,51
868,51
869,51
870,52
871,52
872,52
873,52
874,52
875,52
876,52
877,52
878,52
879,52
880,52
881,52
882,52
883,52
884,52
885,52
886,52
887,52
888,52
889,52
890,52
891,52
892,52
893,52
894,52
895,52
896,52
897,52
898,52
899,52
900,52
901,52
902,52
903,52
904,52
905,52
906,52
907,52
908,52
909,52
910,52
911,52
912,53
913,53
914,53
915,53
916,53
917,54
918,54
919,54
920,55
921,55
922,55
923,55
924,55
925,55
926,55
927,55
928,55
929,55
930,55
931,55
932,55
933,55
934,55
935,55
936,55
937,55
938,55
939,55
940,55
941,55
942,55
943,55
944,55
945,55
946,56
947,56
948,56
949,56
950,56
951,56
952,56
953,56
954,56
955,56
956,56
957,56
958,56
959,56
960,56
961,56
962,56
963,56
964,56
965,56
966,56
967,56
968,56
969,56
970,57
971,58
972,58
973,58
974,59
975,59
976,59
977,59
978,59
979,59
980,60
981,60
982,60
983,60
984,60
985,60
986,60
987,60
988,60
989,60
990,60
991,60
992,60
993,60
994,60
995,60
996,60
997,60
998,60
999,60
1000,60
1001,60
1002,60
1003,60
1004,60
1005,60
1006,60
1007,60
1008,60
1009,60
1010,60
1011,60
1012,60
1013,60
1014,60
1015,60
1016,60
1017,60
1018,60
1019,60
1020,61
1021,61
1022,61
1023,61
1024,61
1025,61
1026,61
1027,61
1028,61
1029,61
1030,61
1031,61
1032,61
1033,61
1034,61
1035,61
1036,61
1037,61
1038,61
1039,61
1040,61
1041,61
1042,61
1043,61
1044,61
1045,61
1046,61
1047,61
1048,61
1049,61
1050,61
1051,61
1052,61
1053,61
1054,61
1055,61
1056,61
1057,61
1058,62
1059,62
1060,62
1061,63
1062,63
1063,63
1064,63
1065,63
1066,63
1067,63
1068,63
1069,63
1070,63
1071,63
1072,63
1073,63
1074,63
1075,63
1076,63
1077,63
1078,63
1079,63
1080,63
1081,63
1082,63
1083,63
1084,63
1085,63
1086,63
1087,63
1088,63
1089,63
1090,63
1091,63
1092,63
1093,63
1094,63
1095,63
1096,63
1097,63
1098,63
1099,63
1100,63
1101,63
1102,63
1103,63
1104,63
1105,63
1106,63
1107,63
1108,63
1109,63
1110,63
1111,63
1112,63
1113,63
1114,63
1115,64
1116,64
1117,64
1118,64
1119,64
1120,64
1121,64
1122,64
1123,64
1124,64
1125,64
1126,64
1127,64
1128,64
1129,65
1130,65
1131,65
1132,65
1133,65
1134,65
1135,65
1136,65
1137,65
1138,65
1139,65
1140,65
1141,65
1142,65
1143,65
1144,65
1145,65
1146,65
1147,65
1148,65
1149,65
1150,65
1151,65
1152,65
1153,65
1154,65
1155,65
1156,65
1157,65
1158,65
1159,65
1160,65
1161,65
1162,65
1163,65
1164,65
1165,65
1166,65
1167,65
1168,65
1169,65
1170,65
1171,65
1172,65
1173,65
1174,65
1175,65
1176,65
1177,65
1178,65
1179,65
1180,65
1181,65
1182,65
1183,65
1184,65
1185,65
1186,65
1187,65
1188,65
1189,65
1190,65
1191,66
1192,66
1193,66
1194,66
1195,66
1196,66
1197,66
1198,66
1199,66
1200,66
1201,66
1202,66
1203,66
1204,66
1205,66
1206,66
1207,66
1208,66
1209,66
1210,66
1211,66
1212,66
1213,66
1214,66
1215,66
1216,66
1217,66
1218,66
1219,66
1220,66
1221,66
1222,66
1223,66
1224,66
1225,66
1226,66
1227,66
1228,66
1229,66
1230,66
1231,66
1232,66
1233,66
1234,66
1235,66
1236,66
1237,66
1238,66
1239,66
1240,66
1241,66
1242,66
1243,66
1244,66
1245,66
1246,67
1247,67
1248,67
1249,67
1250,67
1251,67
1252,67
1253,67
1254,67
1255,67
1256,67
1257,67
1258,67
1259,67
1260,67
1261,67
1262,67
1263,67
1264,67
1265,67
1266,67
1267,67
1268,67
1269,67
1270,67
1271,67
1272,67
1273,67
1274,67
1275,67
1276,67
1277,67
1278,67
1279,67
1280,67
1281,67
1282,67
1283,67
1284,67
1285,67
1286,67
1287,67
1288,67
1289,67
1290,67
1291,67
1292,67
1293,67
1294,67
1295,67
1296,67
1297,67
1298,67
1299,67
1300,67
1301,67
1302,67
1303,67
1304,67
1305,68
1306,68
1307,68
1308,68
1309,68
1310,68
1311,68
1312,68
1313,68
1314,68
1315,68
1316,68
1317,68
1318,68
1319,68
1320,68
1321,68
1322,68
1323,68
1324,68
1325,68
1326,68
1327,68
1328,68
1329,68
1330,68
1331,68
1332,68
1333,68
1334,68
1335,68
1336,68
1337,68
1338,68
1339,68
1340,68
1341,68
1342,68
1343,68
1344,68
1345,68
1346,68
1347,68
1348,68
1349,68
1350,68
1351,68
1352,69
1353,69
1354,69
1355,69
1356,69
1357,69
1358,69
1359,69
1360,69
1361,69
1362,69
1363,69
1364,69
1365,69
1366,70
1367,70
1368,70
1369,70
1370,70
1371,70
1372,70
1373,70
1374,70
1375,70
1376,70
1377,70
1378,70
1379,70
1380,70
1381,70
1382,71
1383,71
1384,71
1385,71
1386,71
1387,71
1388,71
1389,71
1390,71
1391,71
1392,71
1393,71
1394,71
1395,72
1396,72
1397,72
1398,73
1399,73
1400,73
1401,73
1402,73
1403,73
1404,74
1405,74
1406,74
1407,74
1408,74
1409,74
1410,75
1411,75
1412,75
1413,75
1414,75
1415,75
1416,75
1417,76
1418,76
1419,76
1420,77
1421,78
1422,78
1423,78
1424,78
1425,78
1426,78
1427,78
1428,78
1429,78
1430,78
1431,78
1432,79
1433,79
1434,79
1435,79
1436,79
1437,79
1438,79
1439,79
1440,79
1441,79
1442,79
1443,80
1444,80
1445,80
1446,80
1447,80
1448,80
1449,80
1450,80
1451,80
1452,81
1453,81
1454,81
1455,82
1456,82
1457,82
1458,82
1459,82
1460,82
1461,82
1462,82
1463,82
1464,83
1465,83
1466,83
1467,85
1468,85
1469,86
1470,86
1471,86
1472,86
1473,86
1474,86
1475,86
1476,86
1477,86
1478,86
1479,86
1480,86
1481,86
1482,86
1483,86
1484,86
1485,86
1486,86
1487,86
1488,86
1489,86
1490,86
1491,86
1492,86
1493,86
1494,86
1495,86
1496,86
1497,86
1498,86
1499,86
1500,86
1501,86
1502,86
1503,86
1504,86
1505,86
1506,86
1507,86
1508,86
1509,86
1510,86
1511,86
1512,86
1513,86
1514,86
1515,86
1516,86
1517,86
1518,86
1519,86
1520,86
1521,86
1522,86
1523,86
1524,86
1525,86
1526,86
1527,86
1528,86
1529,86
1530,86
1531,86
1532,86
1533,86
1534,86
1535,86
1536,86
1537,86
1538,86
1539,86
1540,86
1541,86
1542,86
1543,86
1544,86
1545,86
1546,86
1547,86
1548,86
1549,86
1550,86
1551,86
1552,87
1553,87
1554,87
1555,87
1556,87
1557,87
1558,87
1559,87
1560,87
1561,87
1562,87
1563,87
1564,87
1565,87
1566,87
1567,87
1568,87
1569,87
1570,87
1571,87
1572,87
1573,87
1574,87
1575,87
1576,88
1577,88
1578,88
1579,88
1580,88
1581,88
1582,88
1583,88
1584,88
1585,88
1586,88
1587,88
1588,88
1589,88
1590,88
1591,88
1592,88
1593,88
1594,88
1595,88
1596,88
1597,88
1598,88
1599,88
1600,88
1601,88
1602,88
1603,88
1604,88
1605,88
1606,88
1607,88
1608,88
1609,88
1610,88
1611,88
1612,88
1613,88
1614,88
1615,88
1616,88
1617,88
1618,88
1619,88
1620,88
1621,88
1622,88
1623,88
1624,88
1625,88
1626,88
1627,88
1628,89
1629,89
1630,89
1631,90
1632,90
1633,90
1634,90
1635,90
1636,90
1637,90
1638,90
1639,90
1640,90
1641,91
1642,91
1643,91
1644,91
1645,91
1646,91
1647,91
1648,91
1649,91
1650,91
1651,91
1652,91
1653,91
1654,91
1655,91
1656,91
1657,91
1658,91
1659,91
1660,91
1661,91
1662,91
1663,91
1664,91
1665,91
1666,91
1667,91
1668,91
1669,91
1670,91
1671,91
1672,91
1673,91
1674,91
1675,91
1676,91
1677,91
1678,91
1679,91
1680,91
1681,91
1682,91
1683,91
1684,91
1685,91
1686,91
1687,91
1688,91
1689,91
1690,91
1691,91
1692,91
1693,91
1694,91
1695,91
1696,91
1697,91
1698,91
1699,91
1700,91
1701,91
1702,91
1703,91
1704,91
1705,91
1706,91
1707,91
1708,91
1709,91
1710,91
1711,91
1712,91
1713,91
1714,91
1715,91
1716,91
1717,91
1718,91
1719,91
1720,91
1721,91
1722,91
1723,91
1724,91
1725,91
1726,91
1727,91
1728,91
1729,91
1730,91
1731,91
1732,91
1733,91
1734,91
1735,91
1736,91
1737,91
1738,91
1739,91
1740,91
1741,91
1742,92
1743,92
1744,92
1745,92
1746,92
1747,92
1748,92
1749,92
1750,92
1751,92
1752,92
1753,92
1754,92
1755,92
1756,92
1757,92
1758,92
1759,92
1760,92
1761,92
1762,92
1763,92
1764,92
1765,92
1766,92
1767,92
1768,92
1769,92
1770,92
1771,92
1772,92
1773,92
1774,92
1775,92
1776,92
1777,92
1778,92
1779,92
1780,92
1781,92
1782,92
1783,92
1784,92
1785,93
1786,93
1787,93
1788,93
1789,93
1790,93
1791,93
1792,93
1793,94
1794,94
1795,94
1796,94
1797,94
1798,94
1799,94
1800,94
1801,94
1802,94
1803,94
1804,94
1805,94
1806,94
1807,94
1808,94
1809,94
1810,94
1811,94
1812,94
1813,94
1814,94
1815,94
1816,94
1817,94
1818,94
1819,94
1820,94
1821,94
1822,94
1823,94
1824,94
1825,94
1826,94
1827,94
1828,94
1829,94
1830,94
1831,94
1832,94
1833,94
1834,94
1835,94
1836,95
1837,95
1838,95
1839,95
1840,95
1841,95
1842,95
1843,95
1844,95
1845,95
1846,95
1847,95
1848,95
1849,95
1850,95
1851,95
1852,95
1853,95
1854,95
1855,95
1856,95
1857,95
1858,95
1859,95
1860,95
1861,95
1862,95
1863,95
1864,95
1865,95
1866,95
1867,95
1868,95
1869,95
1870,95
1871,95
1872,95
1873,95
1874,95
1875,95
1876,96
1877,96
1878,96
1879,96
1880,96
1881,96
1882,96
1883,96
1884,96
1885,96
1886,96
1887,96
1888,96
1889,96
1890,96
1891,96
1892,96
1893,96
1894,96
1895,96
1896,96
1897,96
1898,96
1899,96
1900,96
1901,96
1902,96
1903,96
1904,97
1905,97
1906,97
1907,97
1908,97
1909,97
1910,97
1911,97
1912,97
1913,97
1914,98
1915,98
1916,98
1917,98
1918,98
1919,98
1920,98
1921,98
1922,99
1923,99
1924,99
1925,99
1926,99
1927,99
1928,99
1929,99
1930,100
1931,101
1932,101
1933,101
1934,101
1935,101
1936,101
1937,101
1938,101
1939,101
1940,101
1941,102
1942,102
1943,102
1944,102
1945,102
1946,102
1947,102
1948,102
1949,102
1950,102
1951,102
1952,102
1953,102
1954,102
1955,102
1956,103
1957,103
1958,103
1959,103
1960,103
1961,103
1962,103
1963,103
1964,104
1965,104
1966,104
1967,104
1968,104
1969,104
1970,104
1971,104
1972,104
1973,104
1974,104
1975,104
1976,104
1977,104
1978,104
1979,105
1980,105
1981,105
1982,105
1983,105
1984,105
1985,105
1986,105
1987,105
1988,107
1989,107
1990,107
1991,107
1992,107
1993,107
1994,107
1995,107
1996,107
1997,107
1998,107
1999,107
2000,107
