"tick","susceptible","exposed","infectious","recovered"
0,99,1,0,0
1,99,1,0,0
2,99,1,0,0
3,99,1,0,0
4,99,1,0,0
5,99,1,0,0
6,99,1,0,0
7,99,1,0,0
8,99,1,0,0
9,99,1,0,0
10,99,1,0,0
11,99,1,0,0
12,99,1,0,0
13,99,1,0,0
14,99,1,0,0
15,99,1,0,0
16,99,1,0,0
17,99,1,0,0
18,99,1,0,0
19,99,1,0,0
20,99,1,0,0
21,99,1,0,0
22,99,1,0,0
23,99,1,0,0
24,99,1,0,0
25,99,1,0,0
26,99,1,0,0
27,99,1,0,0
28,99,1,0,0
29,99,1,0,0
30,99,1,0,0
31,99,1,0,0
32,99,1,0,0
33,99,1,0,0
34,99,1,0,0
35,99,1,0,0
36,99,1,0,0
37,99,1,0,0
38,99,1,0,0
39,99,1,0,0
40,99,1,0,0
41,99,1,0,0
42,99,1,0,0
43,99,1,0,0
44,99,1,0,0
45,99,1,0,0
46,99,1,0,0
47,99,1,0,0
48,99,1,0,0
49,99,1,0,0
50,99,1,0,0
51,99,1,0,0
52,99,1,0,0
53,99,1,0,0
54,99,1,0,0
55,99,1,0,0
56,99,1,0,0
57,99,1,0,0
58,99,1,0,0
59,99,1,0,0
60,99,1,0,0
61,99,1,0,0
62,99,1,0,0
63,99,1,0,0
64,99,1,0,0
65,99,1,0,0
66,99,1,0,0
67,99,1,0,0
68,99,1,0,0
69,99,1,0,0
70,99,1,0,0
71,99,1,0,0
72,99,1,0,0
73,99,1,0,0
74,99,1,0,0
75,99,1,0,0
76,99,1,0,0
77,99,1,0,0
78,99,1,0,0
79,99,1,0,0
80,99,1,0,0
81,99,1,0,0
82,99,1,0,0
83,99,1,0,0
84,99,1,0,0
85,99,1,0,0
86,99,1,0,0
87,99,1,0,0
88,99,1,0,0
89,99,1,0,0
90,99,1,0,0
91,99,1,0,0
92,99,1,0,0
93,99,1,0,0
94,99,1,0,0
95,99,1,0,0
96,99,1,0,0
97,99,1,0,0
98,99,1,0,0
99,99,1,0,0
100,99,1,0,0
101,99,1,0,0
102,99,1,0,0
103,99,1,0,0
104,99,1,0,0
105,99,1,0,0
106,99,1,0,0
107,99,1,0,0
108,99,1,0,0
109,99,1,0,0
110,99,1,0,0
111,99,1,0,0
112,99,1,0,0
113,99,1,0,0
114,99,1,0,0
115,99,1,0,0
116,99,1,0,0
117,99,1,0,0
118,99,1,0,0
119,99,1,0,0
120,99,1,0,0
121,99,1,0,0
122,99,1,0,0
123,99,1,0,0
124,99,1,0,0
125,99,1,0,0
126,99,1,0,0
127,99,1,0,0
128,99,1,0,0
129,99,1,0,0
130,99,1,0,0
131,99,1,0,0
132,99,1,0,0
133,99,1,0,0
134,99,1,0,0
135,99,1,0,0
136,99,1,0,0
137,99,1,0,0
138,99,1,0,0
139,99,1,0,0
140,99,1,0,0
141,99,1,0,0
142,99,1,0,0
143,99,1,0,0
144,99,1,0,0
145,99,1,0,0
146,99,1,0,0
147,99,1,0,0
148,99,1,0,0
149,99,1,0,0
150,99,1,0,0
151,99,1,0,0
152,99,1,0,0
153,99,1,0,0
154,99,1,0,0
155,99,1,0,0
156,99,1,0,0
157,99,1,0,0
158,99,1,0,0
159,99,1,0,0
160,99,1,0,0
161,99,1,0,0
162,99,1,0,0
163,99,1,0,0
164,99,1,0,0
165,99,1,0,0
166,99,1,0,0
167,99,1,0,0
168,99,1,0,0
169,99,1,0,0
170,99,1,0,0
171,99,1,0,0
172,99,1,0,0
173,99,1,0,0
174,99,1,0,0
175,99,1,0,0
176,99,1,0,0
177,99,1,0,0
178,99,1,0,0
179,99,1,0,0
180,99,1,0,0
181,99,1,0,0
182,99,1,0,0
183,99,1,0,0
184,99,1,0,0
185,99,1,0,0
186,99,1,0,0
187,99,1,0,0
188,99,1,0,0
189,99,1,0,0
190,99,1,0,0
191,99,1,0,0
192,99,1,0,0
193,99,1,0,0
194,99,1,0,0
195,99,1,0,0
196,99,1,0,0
197,99,1,0,0
198,99,1,0,0
199,99,1,0,0
200,99,1,0,0
201,99,0,1,0
202,99,0,1,0
203,99,0,1,0
204,99,0,1,0
205,99,0,1,0
206,99,0,1,0
207,99,0,1,0
208,99,0,1,0
209,99,0,1,0
210,99,0,1,0
211,99,0,1,0
212,99,0,1,0
213,99,0,1,0
214,99,0,1,0
215,99,0,1,0
216,99,0,1,0
217,99,0,1,0
218,99,0,1,0
219,99,0,1,0
220,99,0,1,0
221,99,0,1,0
222,99,0,1,0
223,99,0,1,0
224,99,0,1,0
225,99,0,1,0
226,99,0,1,0
227,99,0,1,0
228,99,0,1,0
229,99,0,1,0
230,99,0,1,0
231,99,0,1,0
232,99,0,1,0
233,99,0,1,0
234,99,0,1,0
235,99,0,1,0
236,99,0,1,0
237,99,0,1,0
238,99,0,1,0
239,99,0,1,0
240,99,0,1,0
241,99,0,1,0
242,99,0,1,0
243,99,0,1,0
244,99,0,1,0
245,99,0,1,0
246,99,0,1,0
247,99,0,1,0
248,99,0,1,0
249,99,0,1,0
250,99,0,1,0
251,99,0,1,0
252,99,0,1,0
253,99,0,1,0
254,99,0,1,0
255,99,0,1,0
256,99,0,1,0
257,99,0,1,0
258,99,0,1,0
259,99,0,1,0
260,99,0,1,0
261,99,0,1,0
262,99,0,1,0
263,99,0,1,0
264,99,0,1,0
265,99,0,1,0
266,99,0,1,0
267,99,0,1,0
268,99,0,1,0
269,99,0,1,0
270,99,0,1,0
271,99,0,1,0
272,99,0,1,0
273,99,0,1,0
274,99,0,1,0
275,99,0,1,0
276,99,0,1,0
277,99,0,1,0
278,99,0,1,0
279,99,0,1,0
280,99,0,1,0
281,99,0,1,0
282,99,0,1,0
283,99,0,1,0
284,99,0,1,0
285,99,0,1,0
286,99,0,1,0
287,99,0,1,0
288,99,0,1,0
289,99,0,1,0
290,99,0,1,0
291,99,0,1,0
292,99,0,1,0
293,99,0,1,0
294,99,0,1,0
295,99,0,1,0
296,99,0,1,0
297,99,0,1,0
298,99,0,1,0
299,99,0,1,0
300,99,0,1,0
301,99,0,1,0
302,99,0,1,0
303,99,0,1,0
304,99,0,1,0
305,99,0,1,0
306,99,0,1,0
307,99,0,1,0
308,99,0,1,0
309,99,0,1,0
310,99,0,1,0
311,99,0,1,0
312,99,0,1,0
313,99,0,1,0
314,99,0,1,0
315,99,0,1,0
316,99,0,1,0
317,99,0,1,0
318,99,0,1,0
319,99,0,1,0
320,99,0,1,0
321,99,0,1,0
322,99,0,1,0
323,99,0,1,0
324,99,0,1,0
325,99,0,1,0
326,99,0,1,0
327,99,0,1,0
328,99,0,1,0
329,99,0,1,0
330,99,0,1,0
331,99,0,1,0
332,99,0,1,0
333,99,0,1,0
334,99,0,1,0
335,99,0,1,0
336,99,0,1,0
337,99,0,1,0
338,99,0,1,0
339,99,0,1,0
340,99,0,1,0
341,99,0,1,0
342,99,0,1,0
343,99,0,1,0
344,99,0,1,0
345,99,0,1,0
346,99,0,1,0
347,99,0,1,0
348,99,0,1,0
349,99,0,1,0
350,99,0,1,0
351,99,0,1,0
352,99,0,1,0
353,99,0,1,0
354,99,0,1,0
355,99,0,1,0
356,99,0,1,0
357,99,0,1,0
358,99,0,1,0
359,99,0,1,0
360,99,0,1,0
361,99,0,1,0
362,99,0,1,0
363,99,0,1,0
364,99,0,1,0
365,99,0,1,0
366,99,0,1,0
367,99,0,1,0
368,99,0,1,0
369,99,0,1,0
370,99,0,1,0
371,99,0,1,0
372,99,0,1,0
373,99,0,1,0
374,99,0,1,0
375,99,0,1,0
376,99,0,1,0
377,99,0,1,0
378,99,0,1,0
379,99,0,1,0
380,99,0,1,0
381,99,0,1,0
382,99,0,1,0
383,99,0,1,0
384,99,0,1,0
385,99,0,1,0
386,99,0,1,0
387,99,0,1,0
388,99,0,1,0
389,99,0,1,0
390,99,0,1,0
391,99,0,1,0
392,99,0,1,0
393,99,0,1,0
394,99,0,1,0
395,98,1,1,0
396,98,1,1,0
397,98,1,1,0
398,98,1,1,0
399,98,1,1,0
400,98,1,1,0
401,98,1,1,0
402,98,1,0,1
403,98,1,0,1
404,98,1,0,1
405,98,1,0,1
406,98,1,0,1
407,98,1,0,1
408,98,1,0,1
409,98,1,0,1
410,98,1,0,1
411,98,1,0,1
412,98,1,0,1
413,98,1,0,1
414,98,1,0,1
415,98,1,0,1
416,98,1,0,1
417,98,1,0,1
418,98,1,0,1
419,98,1,0,1
420,98,1,0,1
421,98,1,0,1
422,98,1,0,1
423,98,1,0,1
424,98,1,0,1
425,98,1,0,1
426,98,1,0,1
427,98,1,0,1
428,98,1,0,1
429,98,1,0,1
430,98,1,0,1
431,98,1,0,1
432,98,1,0,1
433,98,1,0,1
434,98,1,0,1
435,98,1,0,1
436,98,1,0,1
437,98,1,0,1
438,98,1,0,1
439,98,1,0,1
440,98,1,0,1
441,98,1,0,1
442,98,1,0,1
443,98,1,0,1
444,98,1,0,1
445,98,1,0,1
446,98,1,0,1
447,98,1,0,1
448,98,1,0,1
449,98,1,0,1
450,98,1,0,1
451,98,1,0,1
452,98,1,0,1
453,98,1,0,1
454,98,1,0,1
455,98,1,0,1
456,98,1,0,1
457,98,1,0,1
458,98,1,0,1
459,98,1,0,1
460,98,1,0,1
461,98,1,0,1
462,98,1,0,1
463,98,1,0,1
464,98,1,0,1
465,98,1,0,1
466,98,1,0,1
467,98,1,0,1
468,98,1,0,1
469,98,1,0,1
470,98,1,0,1
471,98,1,0,1
472,98,1,0,1
473,98,1,0,1
474,98,1,0,1
475,98,1,0,1
476,98,1,0,1
477,98,1,0,1
478,98,1,0,1
479,98,1,0,1
480,98,1,0,1
481,98,1,0,1
482,98,1,0,1
483,98,1,0,1
484,98,1,0,1
485,98,1,0,1
486,98,1,0,1
487,98,1,0,1
488,98,1,0,1
489,98,1,0,1
490,98,1,0,1
491,98,1,0,1
492,98,1,0,1
493,98,1,0,1
494,98,1,0,1
495,98,1,0,1
496,98,1,0,1
497,98,1,0,1
498,98,1,0,1
499,98,1,0,1
500,98,1,0,1
501,98,1,0,1
502,98,1,0,1
503,98,1,0,1
504,98,1,0,1
505,98,1,0,1
506,98,1,0,1
507,98,1,0,1
508,98,1,0,1
509,98,1,0,1
510,98,1,0,1
511,98,1,0,1
512,98,1,0,1
513,98,1,0,1
514,98,1,0,1
515,98,1,0,1
516,98,1,0,1
517,98,1,0,1
518,98,1,0,1
519,98,1,0,1
520,98,1,0,1
521,98,1,0,1
522,98,1,0,1
523,98,1,0,1
524,98,1,0,1
525,98,1,0,1
526,98,1,0,1
527,98,1,0,1
528,98,1,0,1
529,98,1,0,1
530,98,1,0,1
531,98,1,0,1
532,98,1,0,1
533,98,1,0,1
534,98,1,0,1
535,98,1,0,1
536,98,1,0,1
537,98,1,0,1
538,98,1,0,1
539,98,1,0,1
540,98,1,0,1
541,98,1,0,1
542,98,1,0,1
543,98,1,0,1
544,98,1,0,1
545,98,1,0,1
546,98,1,0,1
547,98,1,0,1
548,98,1,0,1
549,98,1,0,1
550,98,1,0,1
551,98,1,0,1
552,98,1,0,1
553,98,1,0,1
554,98,1,0,1
555,98,1,0,1
556,98,1,0,1
557,98,1,0,1
558,98,1,0,1
559,98,1,0,1
560,98,1,0,1
561,98,1,0,1
562,98,1,0,1
563,98,1,0,1
564,98,1,0,1
565,98,1,0,1
566,98,1,0,1
567,98,1,0,1
568,98,1,0,1
569,98,1,0,1
570,98,1,0,1
571,98,1,0,1
572,98,1,0,1
573,98,1,0,1
574,98,1,0,1
575,98,1,0,1
576,98,1,0,1
577,98,1,0,1
578,98,1,0,1
579,98,1,0,1
580,98,1,0,1
581,98,1,0,1
582,98,1,0,1
583,98,1,0,1
584,98,1,0,1
585,98,1,0,1
586,98,1,0,1
587,98,1,0,1
588,98,1,0,1
589,98,1,0,1
590,98,1,0,1
591,98,1,0,1
592,98,1,0,1
593,98,1,0,1
594,98,1,0,1
595,98,1,0,1
596,98,0,1,1
597,98,0,1,1
598,98,0,1,1
599,96,2,1,1
600,96,2,1,1
601,95,3,1,1
602,94,4,1,1
603,93,5,1,1
604,92,6,1,1
605,92,6,1,1
606,92,6,1,1
607,92,6,1,1
608,92,6,1,1
609,92,6,1,1
610,92,6,1,1
611,92,6,1,1
612,92,6,1,1
613,91,7,1,1
614,90,8,1,1
615,90,8,1,1
616,90,8,1,1
617,90,8,1,1
618,90,8,1,1
619,90,8,1,1
620,90,8,1,1
621,90,8,1,1
622,90,8,1,1
623,90,8,1,1
624,90,8,1,1
625,90,8,1,1
626,90,8,1,1
627,90,8,1,1
628,90,8,1,1
629,90,8,1,1
630,90,8,1,1
631,90,8,1,1
632,90,8,1,1
633,90,8,1,1
634,90,8,1,1
635,90,8,1,1
636,90,8,1,1
637,90,8,1,1
638,90,8,1,1
639,90,8,1,1
640,90,8,1,1
641,90,8,1,1
642,90,8,1,1
643,90,8,1,1
644,90,8,1,1
645,89,9,1,1
646,88,10,1,1
647,88,10,1,1
648,88,10,1,1
649,88,10,1,1
650,88,10,1,1
651,88,10,1,1
652,88,10,1,1
653,88,10,1,1
654,88,10,1,1
655,88,10,1,1
656,88,10,1,1
657,88,10,1,1
658,88,10,1,1
659,88,10,1,1
660,88,10,1,1
661,88,10,1,1
662,88,10,1,1
663,88,10,1,1
664,88,10,1,1
665,88,10,1,1
666,88,10,1,1
667,88,10,1,1
668,88,10,1,1
669,88,10,1,1
670,88,10,1,1
671,88,10,1,1
672,87,11,1,1
673,87,11,1,1
674,87,11,1,1
675,87,11,1,1
676,87,11,1,1
677,87,11,1,1
678,87,11,1,1
679,87,11,1,1
680,87,11,1,1
681,87,11,1,1
682,87,11,1,1
683,87,11,1,1
684,87,11,1,1
685,87,11,1,1
686,87,11,1,1
687,87,11,1,1
688,87,11,1,1
689,87,11,1,1
690,87,11,1,1
691,87,11,1,1
692,87,11,1,1
693,87,11,1,1
694,87,11,1,1
695,87,11,1,1
696,87,11,1,1
697,87,11,1,1
698,87,11,1,1
699,87,11,1,1
700,87,11,1,1
701,87,11,1,1
702,87,11,1,1
703,87,11,1,1
704,87,11,1,1
705,87,11,1,1
706,87,11,1,1
707,87,11,1,1
708,87,11,1,1
709,87,11,1,1
710,87,11,1,1
711,87,11,1,1
712,87,11,1,1
713,87,11,1,1
714,87,11,1,1
715,87,11,1,1
716,87,11,1,1
717,87,11,1,1
718,87,11,1,1
719,87,11,1,1
720,87,11,1,1
721,87,11,1,1
722,87,11,1,1
723,87,11,1,1
724,87,11,1,1
725,87,11,1,1
726,87,11,1,1
727,87,11,1,1
728,87,11,1,1
729,87,11,1,1
730,87,11,1,1
731,87,11,1,1
732,87,11,1,1
733,87,11,1,1
734,87,11,1,1
735,87,11,1,1
736,87,11,1,1
737,87,11,1,1
738,87,11,1,1
739,87,11,1,1
740,87,11,1,1
741,87,11,1,1
742,87,11,1,1
743,87,11,1,1
744,87,11,1,1
745,87,11,1,1
746,87,11,1,1
747,87,11,1,1
748,87,11,1,1
749,87,11,1,1
750,87,11,1,1
751,87,11,1,1
752,87,11,1,1
753,87,11,1,1
754,87,11,1,1
755,87,11,1,1
756,87,11,1,1
757,87,11,1,1
758,87,11,1,1
759,87,11,1,1
760,87,11,1,1
761,87,11,1,1
762,87,11,1,1
763,87,11,1,1
764,87,11,1,1
765,87,11,1,1
766,87,11,1,1
767,87,11,1,1
768,87,11,1,1
769,87,11,1,1
770,87,11,1,1
771,87,11,1,1
772,87,11,1,1
773,87,11,1,1
774,87,11,1,1
775,87,11,1,1
776,87,11,1,1
777,87,11,1,1
778,87,11,1,1
779,87,11,1,1
780,87,11,1,1
781,87,11,1,1
782,87,11,1,1
783,87,11,1,1
784,87,11,1,1
785,87,11,1,1
786,87,11,1,1
787,87,11,1,1
788,87,11,1,1
789,87,11,1,1
790,87,11,1,1
791,87,11,1,1
792,87,11,1,1
793,87,11,1,1
794,87,11,1,1
795,87,11,1,1
796,87,11,1,1
797,87,11,0,2
798,87,11,0,2
799,87,11,0,2
800,87,9,2,2
801,86,10,2,2
802,86,9,3,2
803,86,8,4,2
804,86,7,5,2
805,86,6,6,2
806,82,10,6,2
807,81,11,6,2
808,80,12,6,2
809,80,12,6,2
810,80,12,6,2
811,80,12,6,2
812,80,12,6,2
813,80,12,6,2
814,80,11,7,2
815,80,10,8,2
816,78,12,8,2
817,78,12,8,2
818,77,13,8,2
819,77,13,8,2
820,76,14,8,2
821,76,14,8,2
822,75,15,8,2
823,75,15,8,2
824,75,15,8,2
825,75,15,8,2
826,75,15,8,2
827,75,15,8,2
828,75,15,8,2
829,73,17,8,2
830,73,17,8,2
831,73,17,8,2
832,73,17,8,2
833,73,17,8,2
834,72,18,8,2
835,72,18,8,2
836,72,18,8,2
837,72,18,8,2
838,72,18,8,2
839,72,18,8,2
840,72,18,8,2
841,71,19,8,2
842,71,19,8,2
843,71,19,8,2
844,71,19,8,2
845,71,19,8,2
846,71,18,9,2
847,71,17,10,2
848,71,17,10,2
849,71,17,10,2
850,71,17,10,2
851,71,17,10,2
852,71,17,10,2
853,71,17,10,2
854,71,17,10,2
855,71,17,10,2
856,71,17,10,2
857,71,17,10,2
858,71,17,10,2
859,71,17,10,2
860,71,17,10,2
861,71,17,10,2
862,71,17,10,2
863,71,17,10,2
864,70,18,10,2
865,70,18,10,2
866,70,18,10,2
867,70,18,10,2
868,70,18,10,2
869,70,18,10,2
870,70,18,10,2
871,70,18,10,2
872,70,18,10,2
873,70,17,11,2
874,70,17,11,2
875,70,17,11,2
876,70,17,11,2
877,70,17,11,2
878,70,17,11,2
879,70,17,11,2
880,70,17,11,2
881,70,17,11,2
882,70,17,11,2
883,70,17,11,2
884,70,17,11,2
885,70,17,11,2
886,70,17,11,2
887,70,17,11,2
888,70,17,11,2
889,70,17,11,2
890,70,17,11,2
891,70,17,11,2
892,70,17,11,2
893,70,17,11,2
894,70,17,11,2
895,70,17,11,2
896,70,17,11,2
897,70,17,11,2
898,70,17,11,2
899,70,17,11,2
900,70,17,11,2
901,70,17,11,2
902,70,17,11,2
903,70,17,11,2
904,70,17,11,2
905,69,18,11,2
906,69,18,11,2
907,69,18,11,2
908,69,18,11,2
909,69,18,11,2
910,69,18,11,2
911,69,18,11,2
912,69,18,11,2
913,69,18,11,2
914,69,18,11,2
915,69,18,11,2
916,69,18,11,2
917,69,18,11,2
918,69,18,11,2
919,69,18,11,2
920,69,18,11,2
921,68,19,11,2
922,67,20,11,2
923,67,20,11,2
924,67,20,11,2
925,67,20,11,2
926,67,20,11,2
927,67,20,11,2
928,67,20,11,2
929,67,20,11,2
930,67,20,11,2
931,67,20,11,2
932,67,20,11,2
933,67,20,11,2
934,67,20,11,2
935,67,20,11,2
936,67,20,11,2
937,67,20,11,2
938,67,20,11,2
939,67,20,11,2
940,67,20,11,2
941,67,20,11,2
942,67,20,11,2
943,67,20,11,2
944,67,20,11,2
945,67,20,11,2
946,67,20,11,2
947,67,20,11,2
948,67,20,11,2
949,67,20,11,2
950,67,20,11,2
951,67,20,11,2
952,67,20,11,2
953,67,20,11,2
954,67,20,11,2
955,67,20,11,2
956,67,20,11,2
957,67,20,11,2
958,67,20,11,2
959,67,20,11,2
960,67,20,11,2
961,67,20,11,2
962,67,20,11,2
963,67,20,11,2
964,67,20,11,2
965,67,20,11,2
966,67,20,11,2
967,67,20,11,2
968,67,20,11,2
969,67,20,11,2
970,67,20,11,2
971,67,20,11,2
972,67,20,11,2
973,67,20,11,2
974,67,20,11,2
975,67,20,11,2
976,67,20,11,2
977,67,20,11,2
978,67,20,11,2
979,67,20,11,2
980,67,20,11,2
981,67,20,11,2
982,67,20,11,2
983,67,20,11,2
984,67,20,11,2
985,67,20,11,2
986,67,20,11,2
987,67,20,11,2
988,66,21,11,2
989,65,22,11,2
990,65,22,11,2
991,64,23,11,2
992,64,23,11,2
993,64,23,11,2
994,64,23,11,2
995,64,23,11,2
996,64,23,11,2
997,64,23,11,2
998,64,23,11,2
999,63,24,11,2
1000,63,24,11,2
1001,63,24,9,4
1002,63,23,10,4
1003,63,23,9,5
1004,63,23,8,6
1005,63,23,7,7
1006,63,23,6,8
1007,63,19,10,8
1008,63,18,11,8
1009,63,17,12,8
1010,62,18,12,8
1011,62,18,12,8
1012,62,18,12,8
1013,62,18,12,8
1014,62,18,12,8
1015,62,18,11,9
1016,62,18,10,10
1017,62,16,12,10
1018,62,16,12,10
1019,62,15,13,10
1020,62,15,13,10
1021,62,14,14,10
1022,62,14,14,10
1023,61,14,15,10
1024,61,14,15,10
1025,61,14,15,10
1026,61,14,15,10
1027,61,14,15,10
1028,61,14,15,10
1029,61,14,15,10
1030,60,13,17,10
1031,60,13,17,10
1032,60,13,17,10
1033,59,14,17,10
1034,58,15,17,10
1035,58,14,18,10
1036,58,14,18,10
1037,58,14,18,10
1038,58,14,18,10
1039,58,14,18,10
1040,58,14,18,10
1041,58,14,18,10
1042,58,13,19,10
1043,57,14,19,10
1044,57,14,19,10
1045,57,14,19,10
1046,57,14,19,10
1047,57,14,18,11
1048,56,15,17,12
1049,56,15,17,12
1050,56,15,17,12
1051,56,15,17,12
1052,56,15,17,12
1053,56,15,17,12
1054,56,15,17,12
1055,56,15,17,12
1056,56,15,17,12
1057,56,15,17,12
1058,56,15,17,12
1059,56,15,17,12
1060,56,15,17,12
1061,56,15,17,12
1062,56,15,17,12
1063,56,15,17,12
1064,56,15,17,12
1065,56,14,18,12
1066,56,14,18,12
1067,55,15,18,12
1068,55,15,18,12
1069,55,15,18,12
1070,55,15,18,12
1071,55,15,18,12
1072,54,16,18,12
1073,54,16,18,12
1074,54,16,17,13
1075,54,16,17,13
1076,54,16,17,13
1077,54,16,17,13
1078,54,16,17,13
1079,54,16,17,13
1080,53,17,17,13
1081,53,17,17,13
1082,53,17,17,13
1083,53,17,17,13
1084,53,17,17,13
1085,53,17,17,13
1086,53,17,17,13
1087,53,17,17,13
1088,53,17,17,13
1089,53,17,17,13
1090,53,17,17,13
1091,53,17,17,13
1092,53,17,17,13
1093,53,17,17,13
1094,53,17,17,13
1095,53,17,17,13
1096,53,17,17,13
1097,53,17,17,13
1098,53,17,17,13
1099,53,17,17,13
1100,53,17,17,13
1101,53,17,17,13
1102,53,17,17,13
1103,53,17,17,13
1104,53,17,17,13
1105,53,17,17,13
1106,53,16,18,13
1107,53,16,18,13
1108,53,16,18,13
1109,53,16,18,13
1110,53,16,18,13
1111,53,16,18,13
1112,53,16,18,13
1113,53,16,18,13
1114,53,16,18,13
1115,53,16,18,13
1116,53,16,18,13
1117,53,16,18,13
1118,53,16,18,13
1119,52,17,18,13
1120,52,17,18,13
1121,52,17,18,13
1122,52,16,19,13
1123,52,15,20,13
1124,52,15,20,13
1125,52,15,20,13
1126,52,15,20,13
1127,51,16,20,13
1128,51,16,20,13
1129,51,16,20,13
1130,51,16,20,13
1131,51,16,20,13
1132,51,16,20,13
1133,51,16,20,13
1134,51,16,20,13
1135,51,16,20,13
1136,51,16,20,13
1137,51,16,20,13
1138,51,16,20,13
1139,51,16,20,13
1140,50,17,20,13
1141,50,17,20,13
1142,50,17,20,13
1143,50,17,20,13
1144,50,17,20,13
1145,50,17,20,13
1146,50,17,20,13
1147,50,17,20,13
1148,50,17,20,13
1149,50,17,20,13
1150,50,17,20,13
1151,50,17,20,13
1152,50,17,20,13
1153,50,17,20,13
1154,50,17,20,13
1155,50,17,20,13
1156,50,17,20,13
1157,50,17,20,13
1158,50,17,20,13
1159,50,17,20,13
1160,50,17,20,13
1161,50,17,20,13
1162,50,17,20,13
1163,50,17,20,13
1164,50,17,20,13
1165,50,17,20,13
1166,50,17,20,13
1167,50,17,20,13
1168,49,18,20,13
1169,49,18,20,13
1170,49,18,20,13
1171,49,18,20,13
1172,49,18,20,13
1173,48,19,20,13
1174,48,19,20,13
1175,47,20,20,13
1176,47,20,20,13
1177,47,20,20,13
1178,47,20,20,13
1179,47,20,20,13
1180,47,20,20,13
1181,47,20,20,13
1182,47,20,20,13
1183,47,20,20,13
1184,47,20,20,13
1185,47,20,20,13
1186,47,20,20,13
1187,47,20,20,13
1188,47,20,20,13
1189,47,19,21,13
1190,47,18,22,13
1191,47,18,22,13
1192,47,17,23,13
1193,47,17,23,13
1194,47,17,23,13
1195,47,17,23,13
1196,47,17,23,13
1197,47,17,23,13
1198,47,17,23,13
1199,47,17,23,13
1200,47,16,24,13
1201,47,16,24,13
1202,47,16,24,13
1203,47,16,23,14
1204,47,16,23,14
1205,47,16,23,14
1206,47,16,23,14
1207,47,16,23,14
1208,47,16,19,18
1209,47,16,18,19
1210,47,16,17,20
1211,47,15,18,20
1212,47,15,18,20
1213,47,15,18,20
1214,46,16,18,20
1215,46,16,18,20
1216,46,16,18,20
1217,46,16,18,20
1218,46,16,16,22
1219,45,17,16,22
1220,45,17,15,23
1221,45,17,15,23
1222,45,17,14,24
1223,45,17,14,24
1224,45,16,14,25
1225,45,16,14,25
1226,45,16,14,25
1227,45,16,14,25
1228,45,16,14,25
1229,45,16,14,25
1230,45,16,14,25
1231,45,15,13,27
1232,45,15,13,27
1233,43,17,13,27
1234,42,17,14,27
1235,42,16,15,27
1236,40,18,14,28
1237,40,18,14,28
1238,40,18,14,28
1239,40,18,14,28
1240,40,18,14,28
1241,40,18,14,28
1242,40,18,14,28
1243,40,18,13,29
1244,40,17,14,29
1245,39,18,14,29
1246,39,18,14,29
1247,39,18,14,29
1248,39,18,14,29
1249,38,18,15,29
1250,38,18,15,29
1251,38,18,15,29
1252,38,18,15,29
1253,38,18,15,29
1254,38,18,15,29
1255,37,19,15,29
1256,37,19,15,29
1257,37,19,15,29
1258,36,20,15,29
1259,36,20,15,29
1260,36,20,15,29
1261,36,20,15,29
1262,36,20,15,29
1263,36,20,15,29
1264,36,20,15,29
1265,36,20,15,29
1266,36,20,14,30
1267,36,20,14,30
1268,36,19,15,30
1269,36,19,15,30
1270,36,19,15,30
1271,36,19,15,30
1272,36,19,15,30
1273,36,18,16,30
1274,36,18,16,30
1275,36,18,16,30
1276,36,18,16,30
1277,36,18,16,30
1278,36,18,16,30
1279,36,18,16,30
1280,36,18,16,30
1281,36,17,17,30
1282,36,17,17,30
1283,36,17,17,30
1284,36,17,17,30
1285,36,17,17,30
1286,36,17,17,30
1287,36,17,17,30
1288,36,17,17,30
1289,36,17,17,30
1290,36,17,17,30
1291,35,18,17,30
1292,35,18,17,30
1293,35,18,17,30
1294,35,18,17,30
1295,35,18,17,30
1296,35,18,17,30
1297,34,19,17,30
1298,34,19,17,30
1299,34,19,17,30
1300,34,19,17,30
1301,34,19,17,30
1302,34,19,17,30
1303,34,19,17,30
1304,34,19,17,30
1305,34,19,17,30
1306,34,19,17,30
1307,33,20,16,31
1308,33,20,16,31
1309,33,20,16,31
1310,33,20,16,31
1311,33,20,16,31
1312,33,20,16,31
1313,33,20,16,31
1314,33,20,16,31
1315,32,21,16,31
1316,32,21,16,31
1317,32,21,16,31
1318,32,21,16,31
1319,31,22,16,31
1320,31,21,17,31
1321,31,21,17,31
1322,31,21,17,31
1323,31,21,16,32
1324,31,21,15,33
1325,30,22,15,33
1326,30,22,15,33
1327,29,23,15,33
1328,29,22,16,33
1329,29,22,16,33
1330,29,22,16,33
1331,29,22,16,33
1332,29,22,16,33
1333,28,23,16,33
1334,28,23,16,33
1335,28,23,16,33
1336,28,23,16,33
1337,28,23,16,33
1338,28,23,16,33
1339,28,23,16,33
1340,28,23,16,33
1341,27,23,17,33
1342,27,23,17,33
1343,27,23,17,33
1344,27,23,17,33
1345,27,23,17,33
1346,27,23,17,33
1347,27,23,17,33
1348,27,23,17,33
1349,27,23,17,33
1350,27,23,17,33
1351,27,23,17,33
1352,27,23,17,33
1353,27,23,17,33
1354,27,23,17,33
1355,27,23,17,33
1356,27,23,17,33
1357,27,23,17,33
1358,27,23,17,33
1359,27,23,17,33
1360,27,23,17,33
1361,27,23,17,33
1362,27,23,17,33
1363,27,23,17,33
1364,27,23,17,33
1365,27,23,17,33
1366,27,23,17,33
1367,27,23,17,33
1368,27,23,17,33
1369,27,22,18,33
1370,27,22,18,33
1371,27,22,18,33
1372,27,22,18,33
1373,27,22,18,33
1374,27,21,19,33
1375,27,21,19,33
1376,27,20,20,33
1377,27,20,20,33
1378,27,20,20,33
1379,26,21,20,33
1380,26,21,20,33
1381,26,21,20,33
1382,26,21,20,33
1383,26,21,20,33
1384,26,21,20,33
1385,26,21,20,33
1386,26,21,20,33
1387,26,21,20,33
1388,26,21,20,33
1389,26,21,20,33
1390,26,21,19,34
1391,26,21,18,35
1392,26,21,18,35
1393,26,21,17,36
1394,26,21,17,36
1395,26,21,17,36
1396,26,21,17,36
1397,26,21,17,36
1398,26,21,17,36
1399,26,21,17,36
1400,26,21,17,36
1401,26,21,16,37
1402,26,21,16,37
1403,26,21,16,37
1404,26,21,16,37
1405,26,21,16,37
1406,26,21,16,37
1407,26,21,16,37
1408,26,21,16,37
1409,26,21,16,37
1410,26,21,16,37
1411,26,21,16,37
1412,26,21,15,38
1413,26,21,15,38
1414,26,21,15,38
1415,26,20,16,38
1416,26,20,16,38
1417,26,20,16,38
1418,26,20,16,38
1419,26,20,16,38
1420,26,19,17,38
1421,26,19,17,38
1422,26,19,17,38
1423,26,19,17,38
1424,26,19,17,38
1425,26,19,16,39
1426,26,19,16,39
1427,26,19,16,39
1428,26,19,16,39
1429,26,19,16,39
1430,26,19,16,39
1431,26,19,16,39
1432,26,19,15,40
1433,26,19,15,40
1434,26,17,17,40
1435,26,16,17,41
1436,26,16,16,42
1437,26,14,18,42
1438,26,14,18,42
1439,25,15,18,42
1440,25,15,18,42
1441,25,15,18,42
1442,25,15,18,42
1443,25,15,18,42
1444,25,15,18,42
1445,25,15,17,43
1446,25,14,18,43
1447,25,14,18,43
1448,25,14,18,43
1449,25,14,18,43
1450,25,13,18,44
1451,25,13,18,44
1452,25,13,18,44
1453,25,13,18,44
1454,25,13,18,44
1455,25,13,18,44
1456,25,12,19,44
1457,25,12,19,44
1458,25,12,19,44
1459,25,11,20,44
1460,25,11,20,44
1461,25,11,20,44
1462,25,11,20,44
1463,25,11,20,44
1464,25,11,20,44
1465,25,11,20,44
1466,25,11,20,44
1467,25,11,20,44
1468,25,11,20,44
1469,25,11,19,45
1470,25,11,19,45
1471,25,11,19,45
1472,25,11,19,45
1473,25,11,19,45
1474,25,11,18,46
1475,25,11,18,46
1476,25,11,18,46
1477,25,11,18,46
1478,25,11,18,46
1479,25,11,18,46
1480,25,11,18,46
1481,25,11,18,46
1482,25,11,17,47
1483,25,11,17,47
1484,25,11,17,47
1485,25,11,17,47
1486,25,11,17,47
1487,25,11,17,47
1488,25,11,17,47
1489,25,11,17,47
1490,25,11,17,47
1491,25,11,17,47
1492,25,10,18,47
1493,24,11,18,47
1494,24,11,18,47
1495,24,11,18,47
1496,24,11,18,47
1497,24,11,18,47
1498,24,10,19,47
1499,24,10,19,47
1500,24,10,19,47
1501,24,10,19,47
1502,24,10,19,47
1503,24,10,19,47
1504,24,10,19,47
1505,24,10,19,47
1506,24,10,19,47
1507,24,10,19,47
1508,24,9,20,47
1509,24,9,20,47
1510,24,9,20,47
1511,24,9,20,47
1512,24,9,20,47
1513,24,9,20,47
1514,24,9,20,47
1515,23,10,20,47
1516,22,10,21,47
1517,22,10,21,47
1518,22,10,21,47
1519,22,10,21,47
1520,22,9,22,47
1521,22,9,21,48
1522,22,9,21,48
1523,21,10,21,48
1524,21,10,21,48
1525,20,11,21,48
1526,20,10,22,48
1527,20,10,22,48
1528,20,9,23,48
1529,20,9,22,49
1530,20,9,22,49
1531,20,9,22,49
1532,20,9,22,49
1533,20,9,22,49
1534,20,8,23,49
1535,20,8,23,49
1536,20,8,23,49
1537,20,8,23,49
1538,20,8,23,49
1539,20,8,23,49
1540,20,8,23,49
1541,20,8,23,49
1542,20,7,23,50
1543,20,7,23,50
1544,20,7,23,50
1545,20,7,23,50
1546,20,7,23,50
1547,20,7,23,50
1548,20,7,23,50
1549,19,8,23,50
1550,19,8,23,50
1551,19,8,23,50
1552,19,8,23,50
1553,18,9,23,50
1554,18,9,23,50
1555,18,9,23,50
1556,18,9,23,50
1557,18,9,23,50
1558,18,9,23,50
1559,18,9,23,50
1560,18,9,23,50
1561,18,9,23,50
1562,18,9,23,50
1563,18,9,23,50
1564,18,9,23,50
1565,18,9,23,50
1566,18,9,23,50
1567,18,9,23,50
1568,18,9,23,50
1569,18,9,23,50
1570,18,9,22,51
1571,18,9,22,51
1572,18,9,22,51
1573,18,9,22,51
1574,18,9,22,51
1575,18,9,21,52
1576,18,9,21,52
1577,18,9,20,53
1578,18,9,20,53
1579,18,9,20,53
1580,17,9,21,53
1581,17,9,21,53
1582,17,9,21,53
1583,17,9,21,53
1584,17,9,21,53
1585,17,9,21,53
1586,17,9,21,53
1587,17,9,21,53
1588,17,9,21,53
1589,16,10,21,53
1590,16,10,21,53
1591,16,10,21,53
1592,14,12,21,53
1593,14,12,21,53
1594,14,12,21,53
1595,14,12,21,53
1596,14,12,21,53
1597,14,12,21,53
1598,14,12,21,53
1599,14,12,21,53
1600,14,12,21,53
1601,14,12,21,53
1602,14,12,21,53
1603,14,12,21,53
1604,14,12,21,53
1605,14,12,21,53
1606,14,12,21,53
1607,14,12,21,53
1608,14,12,21,53
1609,14,12,21,53
1610,14,12,21,53
1611,14,12,21,53
1612,14,12,21,53
1613,14,12,21,53
1614,14,12,21,53
1615,14,12,21,53
1616,14,12,20,54
1617,14,12,20,54
1618,14,12,20,54
1619,14,12,20,54
1620,14,12,20,54
1621,14,12,19,55
1622,14,12,19,55
1623,14,12,19,55
1624,14,12,19,55
1625,14,12,19,55
1626,14,12,19,55
1627,14,12,19,55
1628,14,12,19,55
1629,14,12,19,55
1630,14,12,19,55
1631,14,12,19,55
1632,14,12,19,55
1633,14,12,19,55
1634,14,12,19,55
1635,14,12,17,57
1636,14,12,16,58
1637,14,12,16,58
1638,14,12,14,60
1639,14,12,14,60
1640,14,11,15,60
1641,14,11,15,60
1642,14,11,15,60
1643,14,11,15,60
1644,13,12,15,60
1645,13,12,15,60
1646,13,12,15,60
1647,13,12,14,61
1648,13,12,14,61
1649,13,12,14,61
1650,13,12,14,61
1651,13,12,13,62
1652,13,12,13,62
1653,13,12,13,62
1654,13,12,13,62
1655,13,12,13,62
1656,13,12,13,62
1657,13,12,12,63
1658,13,12,12,63
1659,13,12,12,63
1660,13,12,11,64
1661,13,12,11,64
1662,13,12,11,64
1663,13,12,11,64
1664,13,12,11,64
1665,13,12,11,64
1666,13,12,11,64
1667,13,12,11,64
1668,13,12,11,64
1669,13,12,11,64
1670,13,12,11,64
1671,13,12,11,64
1672,13,12,11,64
1673,13,12,11,64
1674,13,12,11,64
1675,13,12,11,64
1676,13,12,11,64
1677,13,12,11,64
1678,13,12,11,64
1679,13,12,11,64
1680,13,12,11,64
1681,13,12,11,64
1682,13,12,11,64
1683,13,12,11,64
1684,13,12,11,64
1685,13,12,11,64
1686,13,12,11,64
1687,13,12,11,64
1688,13,12,11,64
1689,13,12,11,64
1690,13,12,11,64
1691,13,12,11,64
1692,13,12,11,64
1693,13,12,10,65
1694,13,11,11,65
1695,13,11,11,65
1696,13,11,11,65
1697,13,11,11,65
1698,13,11,11,65
1699,13,11,10,66
1700,13,11,10,66
1701,13,11,10,66
1702,13,11,10,66
1703,13,11,10,66
1704,13,11,10,66
1705,13,11,10,66
1706,13,11,10,66
1707,13,11,10,66
1708,13,11,10,66
1709,13,11,9,67
1710,13,11,9,67
1711,13,11,9,67
1712,13,11,9,67
1713,13,11,9,67
1714,13,11,9,67
1715,13,11,9,67
1716,13,10,10,67
1717,13,9,10,68
1718,13,9,10,68
1719,13,9,10,68
1720,13,9,10,68
1721,13,9,9,69
1722,13,9,9,69
1723,13,9,9,69
1724,13,8,10,69
1725,13,8,10,69
1726,13,7,11,69
1727,13,7,10,70
1728,13,7,10,70
1729,13,7,9,71
1730,13,7,9,71
1731,13,7,9,71
1732,13,7,9,71
1733,13,7,9,71
1734,13,7,9,71
1735,13,7,8,72
1736,13,7,8,72
1737,13,7,8,72
1738,13,7,8,72
1739,13,7,8,72
1740,13,7,8,72
1741,13,7,8,72
1742,13,7,8,72
1743,13,7,7,73
1744,13,7,7,73
1745,13,7,7,73
1746,13,7,7,73
1747,13,7,7,73
1748,13,7,7,73
1749,13,7,7,73
1750,13,6,8,73
1751,13,6,8,73
1752,13,6,8,73
1753,13,6,8,73
1754,13,5,9,73
1755,13,5,9,73
1756,13,5,9,73
1757,13,5,9,73
1758,13,5,9,73
1759,13,5,9,73
1760,13,5,9,73
1761,13,5,9,73
1762,13,5,9,73
1763,13,5,9,73
1764,13,5,9,73
1765,13,5,9,73
1766,13,5,9,73
1767,13,5,9,73
1768,13,5,9,73
1769,13,5,9,73
1770,13,5,9,73
1771,13,5,9,73
1772,13,5,9,73
1773,13,5,9,73
1774,13,5,9,73
1775,13,5,9,73
1776,13,5,9,73
1777,13,5,9,73
1778,13,5,9,73
1779,13,5,9,73
1780,13,5,9,73
1781,13,4,9,74
1782,13,4,9,74
1783,13,4,9,74
1784,13,4,9,74
1785,13,4,9,74
1786,13,4,9,74
1787,13,4,9,74
1788,13,4,9,74
1789,13,4,9,74
1790,13,3,10,74
1791,13,3,10,74
1792,13,3,10,74
1793,13,1,12,74
1794,13,1,12,74
1795,13,1,12,74
1796,13,1,12,74
1797,13,1,12,74
1798,13,1,12,74
1799,13,1,12,74
1800,13,1,12,74
1801,13,1,12,74
1802,13,1,12,74
1803,13,1,12,74
1804,13,1,12,74
1805,13,1,12,74
1806,13,1,12,74
1807,13,1,12,74
1808,13,1,12,74
1809,13,1,12,74
1810,13,1,12,74
1811,13,1,12,74
1812,13,1,12,74
1813,13,1,12,74
1814,13,1,12,74
1815,13,1,12,74
1816,13,1,12,74
1817,13,1,12,74
1818,13,1,12,74
1819,13,1,12,74
1820,13,1,12,74
1821,13,1,12,74
1822,13,1,12,74
1823,13,1,12,74
1824,13,1,12,74
1825,13,1,12,74
1826,13,1,12,74
1827,13,1,12,74
1828,13,1,12,74
1829,13,1,12,74
1830,13,1,12,74
1831,13,1,12,74
1832,13,1,12,74
1833,13,1,12,74
1834,13,1,12,74
1835,13,1,12,74
1836,13,1,12,74
1837,13,1,12,74
1838,13,1,12,74
1839,13,1,12,74
1840,13,1,12,74
1841,13,1,11,75
1842,13,1,11,75
1843,13,1,11,75
1844,13,1,11,75
1845,13,0,12,75
1846,13,0,12,75
1847,13,0,12,75
1848,13,0,12,75
1849,13,0,12,75
1850,13,0,12,75
1851,13,0,12,75
1852,13,0,12,75
1853,13,0,12,75
1854,13,0,12,75
1855,13,0,12,75
1856,13,0,12,75
1857,13,0,12,75
1858,13,0,12,75
1859,13,0,12,75
1860,13,0,12,75
1861,13,0,12,75
1862,13,0,12,75
1863,13,0,12,75
1864,13,0,12,75
1865,13,0,12,75
1866,13,0,12,75
1867,13,0,12,75
1868,13,0,12,75
1869,13,0,12,75
1870,13,0,12,75
1871,13,0,12,75
1872,13,0,12,75
1873,13,0,12,75
1874,13,0,12,75
1875,11,2,12,75
1876,11,2,12,75
1877,11,2,12,75
1878,11,2,12,75
1879,11,2,12,75
1880,11,2,12,75
1881,11,2,12,75
1882,11,2,12,75
1883,11,2,12,75
1884,11,2,12,75
1885,11,2,12,75
1886,11,2,12,75
1887,11,2,12,75
1888,11,2,12,75
1889,11,2,12,75
1890,11,2,12,75
1891,11,2,12,75
1892,11,2,12,75
1893,11,2,12,75
1894,11,2,12,75
1895,11,2,11,76
1896,11,2,11,76
1897,11,2,11,76
1898,11,2,11,76
1899,11,2,11,76
1900,11,2,11,76
1901,11,2,11,76
1902,11,2,11,76
1903,11,2,11,76
1904,11,2,11,76
1905,11,2,11,76
1906,11,2,11,76
1907,11,2,11,76
1908,11,2,11,76
1909,11,2,11,76
1910,11,2,11,76
1911,11,2,11,76
1912,11,2,11,76
1913,11,2,11,76
1914,11,2,11,76
1915,11,2,11,76
1916,11,2,11,76
1917,11,2,10,77
1918,11,2,9,78
1919,11,2,9,78
1920,11,2,9,78
1921,11,2,9,78
1922,11,2,9,78
1923,11,2,9,78
1924,11,2,9,78
1925,11,2,8,79
1926,10,3,8,79
1927,10,3,7,80
1928,10,3,7,80
1929,10,3,7,80
1930,10,3,7,80
1931,10,3,7,80
1932,10,3,7,80
1933,10,3,7,80
1934,10,3,7,80
1935,10,3,7,80
1936,10,3,7,80
1937,10,3,7,80
1938,10,3,7,80
1939,10,3,7,80
1940,10,3,7,80
1941,10,3,7,80
1942,10,3,7,80
1943,10,3,7,80
1944,10,3,7,80
1945,10,3,7,80
1946,10,3,7,80
1947,10,3,7,80
1948,10,3,7,80
1949,10,3,7,80
1950,10,3,7,80
1951,10,3,6,81
1952,10,3,6,81
1953,10,3,6,81
1954,10,3,6,81
1955,10,3,5,82
1956,10,3,5,82
1957,10,3,5,82
1958,10,3,5,82
1959,10,3,5,82
1960,10,3,5,82
1961,10,3,5,82
1962,10,3,5,82
1963,10,3,5,82
1964,10,3,5,82
1965,10,3,5,82
1966,10,3,5,82
1967,10,3,5,82
1968,10,3,5,82
1969,10,3,5,82
1970,10,3,5,82
1971,10,3,5,82
1972,10,3,5,82
1973,10,3,5,82
1974,10,3,5,82
1975,10,3,5,82
1976,10,3,5,82
1977,10,3,5,82
1978,10,3,5,82
1979,10,3,5,82
1980,10,3,5,82
1981,10,3,5,82
1982,10,3,4,83
1983,10,3,4,83
1984,10,3,4,83
1985,10,3,4,83
1986,10,3,4,83
1987,10,3,4,83
1988,10,3,4,83
1989,10,3,4,83
1990,10,3,4,83
1991,10,3,3,84
1992,10,3,3,84
1993,10,3,3,84
1994,10,3,1,86
1995,10,3,1,86
1996,10,3,1,86
1997,10,3,1,86
1998,10,3,1,86
1999,10,3,1,86
2000,10,3,1,86
