"tick","susceptible","exposed","infectious","recovered"
0,99,1,0,0
1,99,1,0,0
2,99,1,0,0
3,99,1,0,0
4,99,1,0,0
5,99,1,0,0
6,99,1,0,0
7,99,1,0,0
8,99,1,0,0
9,99,1,0,0
10,99,1,0,0
11,99,1,0,0
12,99,1,0,0
13,99,1,0,0
14,99,1,0,0
15,99,1,0,0
16,99,1,0,0
17,99,1,0,0
18,99,1,0,0
19,99,1,0,0
20,99,1,0,0
21,99,1,0,0
22,99,1,0,0
23,99,1,0,0
24,99,1,0,0
25,99,1,0,0
26,99,1,0,0
27,99,1,0,0
28,99,1,0,0
29,99,1,0,0
30,99,1,0,0
31,99,1,0,0
32,99,1,0,0
33,99,1,0,0
34,99,1,0,0
35,99,1,0,0
36,99,1,0,0
37,99,1,0,0
38,99,1,0,0
39,99,1,0,0
40,99,1,0,0
41,99,1,0,0
42,99,1,0,0
43,99,1,0,0
44,99,1,0,0
45,99,1,0,0
46,99,1,0,0
47,99,1,0,0
48,99,1,0,0
49,99,1,0,0
50,99,1,0,0
51,99,1,0,0
52,99,1,0,0
53,99,1,0,0
54,99,1,0,0
55,99,1,0,0
56,99,1,0,0
57,99,1,0,0
58,99,1,0,0
59,99,1,0,0
60,99,1,0,0
61,99,1,0,0
62,99,1,0,0
63,99,1,0,0
64,99,1,0,0
65,99,1,0,0
66,99,1,0,0
67,99,1,0,0
68,99,1,0,0
69,99,1,0,0
70,99,1,0,0
71,99,1,0,0
72,99,1,0,0
73,99,1,0,0
74,99,1,0,0
75,99,1,0,0
76,99,1,0,0
77,99,1,0,0
78,99,1,0,0
79,99,1,0,0
80,99,1,0,0
81,99,1,0,0
82,99,1,0,0
83,99,1,0,0
84,99,1,0,0
85,99,1,0,0
86,99,1,0,0
87,99,1,0,0
88,99,1,0,0
89,99,1,0,0
90,99,1,0,0
91,99,1,0,0
92,99,1,0,0
93,99,1,0,0
94,99,1,0,0
95,99,1,0,0
96,99,1,0,0
97,99,1,0,0
98,99,1,0,0
99,99,1,0,0
100,99,1,0,0
101,99,1,0,0
102,99,1,0,0
103,99,1,0,0
104,99,1,0,0
105,99,1,0,0
106,99,1,0,0
107,99,1,0,0
108,99,1,0,0
109,99,1,0,0
110,99,1,0,0
111,99,1,0,0
112,99,1,0,0
113,99,1,0,0
114,99,1,0,0
115,99,1,0,0
116,99,1,0,0
117,99,1,0,0
118,99,1,0,0
119,99,1,0,0
120,99,1,0,0
121,99,1,0,0
122,99,1,0,0
123,99,1,0,0
124,99,1,0,0
125,99,1,0,0
126,99,1,0,0
127,99,1,0,0
128,99,1,0,0
129,99,1,0,0
130,99,1,0,0
131,99,1,0,0
132,99,1,0,0
133,99,1,0,0
134,99,1,0,0
135,99,1,0,0
136,99,1,0,0
137,99,1,0,0
138,99,1,0,0
139,99,1,0,0
140,99,1,0,0
141,99,1,0,0
142,99,1,0,0
143,99,1,0,0
144,99,1,0,0
145,99,1,0,0
146,99,1,0,0
147,99,1,0,0
148,99,1,0,0
149,99,1,0,0
150,99,1,0,0
151,99,1,0,0
152,99,1,0,0
153,99,1,0,0
154,99,1,0,0
155,99,1,0,0
156,99,1,0,0
157,99,1,0,0
158,99,1,0,0
159,99,1,0,0
160,99,1,0,0
161,99,1,0,0
162,99,1,0,0
163,99,1,0,0
164,99,1,0,0
165,99,1,0,0
166,99,1,0,0
167,99,1,0,0
168,99,1,0,0
169,99,1,0,0
170,99,1,0,0
171,99,1,0,0
172,99,1,0,0
173,99,1,0,0
174,99,1,0,0
175,99,1,0,0
176,99,1,0,0
177,99,1,0,0
178,99,1,0,0
179,99,1,0,0
180,99,1,0,0
181,99,1,0,0
182,99,1,0,0
183,99,1,0,0
184,99,1,0,0
185,99,1,0,0
186,99,1,0,0
187,99,1,0,0
188,99,1,0,0
189,99,1,0,0
190,99,1,0,0
191,99,1,0,0
192,99,1,0,0
193,99,1,0,0
194,99,1,0,0
195,99,1,0,0
196,99,1,0,0
197,99,1,0,0
198,99,1,0,0
199,99,1,0,0
200,99,1,0,0
201,99,0,1,0
202,99,0,1,0
203,99,0,1,0
204,99,0,1,0
205,99,0,1,0
206,99,0,1,0
207,99,0,1,0
208,99,0,1,0
209,99,0,1,0
210,99,0,1,0
211,99,0,1,0
212,99,0,1,0
213,99,0,1,0
214,99,0,1,0
215,99,0,1,0
216,99,0,1,0
217,99,0,1,0
218,99,0,1,0
219,99,0,1,0
220,99,0,1,0
221,99,0,1,0
222,99,0,1,0
223,99,0,1,0
224,99,0,1,0
225,99,0,1,0
226,99,0,1,0
227,99,0,1,0
228,99,0,1,0
229,99,0,1,0
230,99,0,1,0
231,99,0,1,0
232,99,0,1,0
233,99,0,1,0
234,99,0,1,0
235,99,0,1,0
236,99,0,1,0
237,99,0,1,0
238,99,0,1,0
239,99,0,1,0
240,99,0,1,0
241,99,0,1,0
242,99,0,1,0
243,99,0,1,0
244,99,0,1,0
245,99,0,1,0
246,99,0,1,0
247,99,0,1,0
248,99,0,1,0
249,99,0,1,0
250,99,0,1,0
251,99,0,1,0
252,99,0,1,0
253,99,0,1,0
254,99,0,1,0
255,99,0,1,0
256,99,0,1,0
257,99,0,1,0
258,99,0,1,0
259,99,0,1,0
260,99,0,1,0
261,99,0,1,0
262,99,0,1,0
263,99,0,1,0
264,99,0,1,0
265,99,0,1,0
266,99,0,1,0
267,99,0,1,0
268,99,0,1,0
269,99,0,1,0
270,99,0,1,0
271,99,0,1,0
272,99,0,1,0
273,99,0,1,0
274,99,0,1,0
275,99,0,1,0
276,98,1,1,0
277,98,1,1,0
278,98,1,1,0
279,98,1,1,0
280,98,1,1,0
281,98,1,1,0
282,98,1,1,0
283,98,1,1,0
284,98,1,1,0
285,98,1,1,0
286,98,1,1,0
287,98,1,1,0
288,98,1,1,0
289,98,1,1,0
290,98,1,1,0
291,97,2,1,0
292,97,2,1,0
293,97,2,1,0
294,97,2,1,0
295,97,2,1,0
296,97,2,1,0
297,97,2,1,0
298,97,2,1,0
299,97,2,1,0
300,97,2,1,0
301,97,2,1,0
302,97,2,1,0
303,97,2,1,0
304,97,2,1,0
305,97,2,1,0
306,97,2,1,0
307,97,2,1,0
308,97,2,1,0
309,97,2,1,0
310,97,2,1,0
311,97,2,1,0
312,97,2,1,0
313,97,2,1,0
314,97,2,1,0
315,97,2,1,0
316,97,2,1,0
317,97,2,1,0
318,97,2,1,0
319,97,2,1,0
320,97,2,1,0
321,97,2,1,0
322,97,2,1,0
323,97,2,1,0
324,97,2,1,0
325,97,2,1,0
326,97,2,1,0
327,97,2,1,0
328,97,2,1,0
329,97,2,1,0
330,97,2,1,0
331,97,2,1,0
332,97,2,1,0
333,97,2,1,0
334,97,2,1,0
335,97,2,1,0
336,97,2,1,0
337,97,2,1,0
338,97,2,1,0
339,97,2,1,0
340,96,3,1,0
341,96,3,1,0
342,96,3,1,0
343,96,3,1,0
344,96,3,1,0
345,96,3,1,0
346,96,3,1,0
347,96,3,1,0
348,96,3,1,0
349,96,3,1,0
350,96,3,1,0
351,96,3,1,0
352,96,3,1,0
353,96,3,1,0
354,96,3,1,0
355,96,3,1,0
356,96,3,1,0
357,96,3,1,0
358,96,3,1,0
359,96,3,1,0
360,96,3,1,0
361,96,3,1,0
362,96,3,1,0
363,96,3,1,0
364,96,3,1,0
365,96,3,1,0
366,96,3,1,0
367,96,3,1,0
368,96,3,1,0
369,96,3,1,0
370,96,3,1,0
371,96,3,1,0
372,96,3,1,0
373,96,3,1,0
374,96,3,1,0
375,96,3,1,0
376,96,3,1,0
377,96,3,1,0
378,96,3,1,0
379,96,3,1,0
380,96,3,1,0
381,96,3,1,0
382,96,3,1,0
383,96,3,1,0
384,96,3,1,0
385,96,3,1,0
386,95,4,1,0
387,93,6,1,0
388,93,6,1,0
389,93,6,1,0
390,93,6,1,0
391,93,6,1,0
392,93,6,1,0
393,93,6,1,0
394,93,6,1,0
395,93,6,1,0
396,93,6,1,0
397,93,6,1,0
398,93,6,1,0
399,93,6,1,0
400,93,6,1,0
401,93,6,1,0
402,93,6,0,1
403,93,6,0,1
404,93,6,0,1
405,93,6,0,1
406,93,6,0,1
407,93,6,0,1
408,93,6,0,1
409,93,6,0,1
410,93,6,0,1
411,93,6,0,1
412,93,6,0,1
413,93,6,0,1
414,93,6,0,1
415,93,6,0,1
416,93,6,0,1
417,93,6,0,1
418,93,6,0,1
419,93,6,0,1
420,93,6,0,1
421,93,6,0,1
422,93,6,0,1
423,93,6,0,1
424,93,6,0,1
425,93,6,0,1
426,93,6,0,1
427,93,6,0,1
428,93,6,0,1
429,93,6,0,1
430,93,6,0,1
431,93,6,0,1
432,93,6,0,1
433,93,6,0,1
434,93,6,0,1
435,93,6,0,1
436,93,6,0,1
437,93,6,0,1
438,93,6,0,1
439,93,6,0,1
440,93,6,0,1
441,93,6,0,1
442,93,6,0,1
443,93,6,0,1
444,93,6,0,1
445,93,6,0,1
446,93,6,0,1
447,93,6,0,1
448,93,6,0,1
449,93,6,0,1
450,93,6,0,1
451,93,6,0,1
452,93,6,0,1
453,93,6,0,1
454,93,6,0,1
455,93,6,0,1
456,93,6,0,1
457,93,6,0,1
458,93,6,0,1
459,93,6,0,1
460,93,6,0,1
461,93,6,0,1
462,93,6,0,1
463,93,6,0,1
464,93,6,0,1
465,93,6,0,1
466,93,6,0,1
467,93,6,0,1
468,93,6,0,1
469,93,6,0,1
470,93,6,0,1
471,93,6,0,1
472,93,6,0,1
473,93,6,0,1
474,93,6,0,1
475,93,6,0,1
476,93,6,0,1
477,93,5,1,1
478,92,6,1,1
479,92,6,1,1
480,92,6,1,1
481,92,6,1,1
482,92,6,1,1
483,92,6,1,1
484,92,6,1,1
485,92,6,1,1
486,92,6,1,1
487,92,6,1,1
488,92,6,1,1
489,92,6,1,1
490,92,6,1,1
491,92,6,1,1
492,92,5,2,1
493,92,5,2,1
494,92,5,2,1
495,92,5,2,1
496,92,5,2,1
497,92,5,2,1
498,92,5,2,1
499,92,5,2,1
500,91,6,2,1
501,91,6,2,1
502,91,6,2,1
503,91,6,2,1
504,91,6,2,1
505,91,6,2,1
506,91,6,2,1
507,91,6,2,1
508,91,6,2,1
509,91,6,2,1
510,91,6,2,1
511,91,6,2,1
512,91,6,2,1
513,91,6,2,1
514,91,6,2,1
515,91,6,2,1
516,91,6,2,1
517,91,6,2,1
518,91,6,2,1
519,91,6,2,1
520,91,6,2,1
521,91,6,2,1
522,91,6,2,1
523,91,6,2,1
524,91,6,2,1
525,91,6,2,1
526,91,6,2,1
527,91,6,2,1
528,91,6,2,1
529,91,6,2,1
530,91,6,2,1
531,91,6,2,1
532,91,6,2,1
533,91,6,2,1
534,91,6,2,1
535,91,6,2,1
536,91,6,2,1
537,91,6,2,1
538,91,6,2,1
539,91,6,2,1
540,91,6,2,1
541,91,5,3,1
542,91,5,3,1
543,91,5,3,1
544,91,5,3,1
545,91,5,3,1
546,91,5,3,1
547,91,5,3,1
548,91,5,3,1
549,91,5,3,1
550,91,5,3,1
551,91,5,3,1
552,91,5,3,1
553,91,5,3,1
554,90,6,3,1
555,90,6,3,1
556,90,6,3,1
557,90,6,3,1
558,90,6,3,1
559,90,6,3,1
560,90,6,3,1
561,90,6,3,1
562,90,6,3,1
563,90,6,3,1
564,90,6,3,1
565,90,6,3,1
566,90,6,3,1
567,90,6,3,1
568,90,6,3,1
569,90,6,3,1
570,90,6,3,1
571,90,6,3,1
572,90,6,3,1
573,90,6,3,1
574,90,6,3,1
575,90,6,3,1
576,89,7,3,1
577,89,7,3,1
578,89,7,3,1
579,89,7,3,1
580,89,7,3,1
581,89,7,3,1
582,89,7,3,1
583,89,7,3,1
584,89,7,3,1
585,89,7,3,1
586,89,7,3,1
587,89,6,4,1
588,89,4,6,1
589,89,4,6,1
590,89,4,6,1
591,89,4,6,1
592,89,4,6,1
593,89,4,6,1
594,89,4,6,1
595,89,4,6,1
596,89,4,6,1
597,89,4,6,1
598,89,4,6,1
599,89,4,6,1
600,89,4,6,1
601,89,4,6,1
602,89,4,6,1
603,89,4,6,1
604,89,4,6,1
605,89,4,6,1
606,89,4,6,1
607,89,4,6,1
608,89,4,6,1
609,89,4,6,1
610,89,4,6,1
611,89,4,6,1
612,89,4,6,1
613,89,4,6,1
614,89,4,6,1
615,89,4,6,1
616,89,4,6,1
617,89,4,6,1
618,89,4,6,1
619,89,4,6,1
620,89,4,6,1
621,89,4,6,1
622,89,4,6,1
623,89,4,6,1
624,88,5,6,1
625,88,5,6,1
626,88,5,6,1
627,88,5,6,1
628,88,5,6,1
629,88,5,6,1
630,88,5,6,1
631,88,5,6,1
632,88,5,6,1
633,88,5,6,1
634,88,5,6,1
635,88,5,6,1
636,88,5,6,1
637,88,5,6,1
638,88,5,6,1
639,88,5,6,1
640,88,5,6,1
641,88,5,6,1
642,88,5,6,1
643,88,5,6,1
644,88,5,6,1
645,88,5,6,1
646,88,5,6,1
647,88,5,6,1
648,88,5,6,1
649,87,6,6,1
650,87,6,6,1
651,87,6,6,1
652,87,6,6,1
653,87,6,6,1
654,87,6,6,1
655,87,6,6,1
656,87,6,6,1
657,87,6,6,1
658,87,6,6,1
659,87,6,6,1
660,87,6,6,1
661,87,6,6,1
662,87,6,6,1
663,87,6,6,1
664,87,6,6,1
665,87,6,6,1
666,86,7,6,1
667,86,7,6,1
668,86,7,6,1
669,86,7,6,1
670,86,7,6,1
671,86,7,6,1
672,86,7,6,1
673,86,7,6,1
674,86,7,6,1
675,86,7,6,1
676,86,7,6,1
677,86,7,6,1
678,86,7,5,2
679,86,6,6,2
680,86,6,6,2
681,86,6,6,2
682,86,6,6,2
683,86,6,6,2
684,86,6,6,2
685,86,6,6,2
686,86,6,6,2
687,86,6,6,2
688,86,6,6,2
689,86,6,6,2
690,86,6,6,2
691,85,7,6,2
692,84,8,6,2
693,84,8,5,3
694,84,8,5,3
695,83,9,5,3
696,83,9,5,3
697,83,9,5,3
698,82,10,5,3
699,82,10,5,3
700,82,10,5,3
701,82,9,6,3
702,81,10,6,3
703,81,10,6,3
704,81,10,6,3
705,81,10,6,3
706,81,10,6,3
707,81,10,6,3
708,81,10,6,3
709,81,10,6,3
710,81,10,6,3
711,81,10,6,3
712,81,10,6,3
713,81,10,6,3
714,81,10,6,3
715,81,10,6,3
716,81,10,6,3
717,81,10,6,3
718,81,10,6,3
719,81,10,6,3
720,81,10,6,3
721,81,10,6,3
722,81,10,6,3
723,81,10,6,3
724,81,10,6,3
725,81,10,6,3
726,81,10,6,3
727,81,10,6,3
728,81,10,6,3
729,81,10,6,3
730,81,10,6,3
731,81,10,6,3
732,81,10,6,3
733,81,10,6,3
734,80,11,6,3
735,80,11,6,3
736,80,11,6,3
737,80,11,6,3
738,80,11,6,3
739,80,11,6,3
740,80,11,6,3
741,80,11,6,3
742,80,11,5,4
743,79,12,5,4
744,79,12,5,4
745,79,12,5,4
746,79,12,5,4
747,78,13,5,4
748,78,13,5,4
749,78,13,5,4
750,77,14,5,4
751,76,15,5,4
752,76,15,5,4
753,76,15,5,4
754,76,15,5,4
755,76,14,6,4
756,76,14,6,4
757,76,14,6,4
758,76,14,6,4
759,76,14,6,4
760,76,14,6,4
761,76,14,6,4
762,76,14,6,4
763,76,14,6,4
764,76,14,6,4
765,76,14,6,4
766,76,14,6,4
767,76,14,6,4
768,76,14,6,4
769,76,14,6,4
770,76,14,6,4
771,76,14,6,4
772,76,14,6,4
773,76,14,6,4
774,76,14,6,4
775,75,15,6,4
776,75,15,6,4
777,75,14,7,4
778,75,14,7,4
779,74,15,7,4
780,74,15,7,4
781,74,15,7,4
782,74,15,7,4
783,74,15,7,4
784,74,15,7,4
785,73,16,7,4
786,73,16,7,4
787,73,16,7,4
788,72,17,6,5
789,72,17,4,7
790,72,17,4,7
791,71,18,4,7
792,71,18,4,7
793,71,18,4,7
794,71,18,4,7
795,71,18,4,7
796,71,18,4,7
797,71,18,4,7
798,71,18,4,7
799,71,18,4,7
800,71,18,4,7
801,70,19,4,7
802,70,19,4,7
803,70,19,4,7
804,70,19,4,7
805,69,20,4,7
806,69,20,4,7
807,69,20,4,7
808,69,20,4,7
809,69,20,4,7
810,69,20,4,7
811,68,21,4,7
812,68,21,4,7
813,68,21,4,7
814,68,21,4,7
815,68,21,4,7
816,68,21,4,7
817,68,21,4,7
818,68,21,4,7
819,68,21,4,7
820,68,21,4,7
821,68,21,4,7
822,68,21,4,7
823,68,21,4,7
824,68,21,4,7
825,68,20,5,7
826,68,20,5,7
827,68,20,5,7
828,68,20,5,7
829,68,20,5,7
830,68,20,5,7
831,68,20,5,7
832,68,20,5,7
833,68,20,5,7
834,68,20,5,7
835,68,20,5,7
836,68,20,5,7
837,68,20,5,7
838,68,20,5,7
839,68,20,5,7
840,68,20,5,7
841,68,20,5,7
842,68,20,5,7
843,68,20,5,7
844,68,20,5,7
845,68,20,5,7
846,68,20,5,7
847,68,20,5,7
848,68,20,5,7
849,68,20,5,7
850,68,19,6,7
851,68,19,6,7
852,68,19,6,7
853,68,19,6,7
854,67,20,6,7
855,67,20,6,7
856,67,20,6,7
857,67,20,6,7
858,67,20,6,7
859,67,20,6,7
860,67,20,6,7
861,67,20,6,7
862,67,20,6,7
863,67,20,6,7
864,67,20,6,7
865,67,20,6,7
866,67,20,6,7
867,67,19,7,7
868,66,20,7,7
869,66,20,7,7
870,65,21,7,7
871,65,21,7,7
872,64,22,7,7
873,64,22,7,7
874,63,23,7,7
875,63,23,7,7
876,63,23,7,7
877,63,23,7,7
878,63,23,7,7
879,63,23,7,7
880,63,23,6,8
881,63,23,6,8
882,63,23,6,8
883,63,23,6,8
884,63,23,6,8
885,63,23,6,8
886,63,23,6,8
887,63,23,6,8
888,63,23,6,8
889,63,23,6,8
890,63,23,6,8
891,63,23,6,8
892,62,23,7,8
893,62,22,8,8
894,62,22,8,8
895,62,22,8,8
896,62,21,9,8
897,62,21,9,8
898,62,21,9,8
899,62,20,10,8
900,62,20,10,8
901,62,20,10,8
902,62,20,9,9
903,60,21,10,9
904,60,21,10,9
905,60,21,10,9
906,60,21,10,9
907,60,21,10,9
908,59,22,10,9
909,58,23,10,9
910,58,23,10,9
911,58,23,10,9
912,58,23,10,9
913,58,23,10,9
914,58,23,10,9
915,58,23,10,9
916,58,23,10,9
917,58,23,10,9
918,58,23,10,9
919,58,23,10,9
920,58,23,10,9
921,58,23,10,9
922,58,23,10,9
923,58,23,10,9
924,58,23,10,9
925,58,23,10,9
926,57,24,10,9
927,57,24,10,9
928,57,24,10,9
929,57,24,10,9
930,57,24,10,9
931,57,24,10,9
932,57,24,10,9
933,57,24,10,9
934,57,24,10,9
935,57,23,11,9
936,57,23,11,9
937,57,23,11,9
938,57,23,11,9
939,55,25,11,9
940,55,25,11,9
941,55,25,11,9
942,55,25,11,9
943,55,25,11,9
944,55,24,12,9
945,55,24,12,9
946,55,24,12,9
947,55,24,12,9
948,55,23,13,9
949,55,23,13,9
950,55,23,13,9
951,55,22,14,9
952,55,21,15,9
953,55,21,15,9
954,55,21,15,9
955,55,21,15,9
956,55,21,14,10
957,54,22,14,10
958,54,22,14,10
959,54,22,14,10
960,54,22,14,10
961,54,22,14,10
962,54,22,14,10
963,54,22,14,10
964,54,22,14,10
965,54,22,14,10
966,54,22,14,10
967,54,22,14,10
968,54,22,14,10
969,54,22,14,10
970,54,22,14,10
971,54,22,14,10
972,54,22,14,10
973,53,23,14,10
974,53,23,14,10
975,53,23,14,10
976,52,23,15,10
977,52,23,15,10
978,52,23,14,11
979,52,23,14,11
980,52,22,15,11
981,51,23,15,11
982,51,23,15,11
983,50,24,15,11
984,50,24,15,11
985,48,26,15,11
986,48,25,16,11
987,48,25,16,11
988,48,25,16,11
989,48,24,17,11
990,48,24,17,11
991,48,24,17,11
992,47,24,18,11
993,47,24,18,11
994,46,25,18,11
995,46,25,18,11
996,46,25,18,11
997,46,25,18,11
998,46,25,18,11
999,46,25,18,11
1000,46,25,18,11
1001,45,26,18,11
1002,45,25,19,11
1003,44,26,19,11
1004,43,27,19,11
1005,43,27,19,11
1006,43,26,20,11
1007,43,26,20,11
1008,43,26,20,11
1009,43,26,20,11
1010,42,27,20,11
1011,42,27,20,11
1012,42,26,21,11
1013,42,26,21,11
1014,42,26,21,11
1015,42,26,21,11
1016,42,26,21,11
1017,41,27,21,11
1018,41,27,21,11
1019,41,27,21,11
1020,41,27,21,11
1021,41,27,21,11
1022,41,27,21,11
1023,41,27,21,11
1024,41,27,21,11
1025,41,27,21,11
1026,41,27,20,12
1027,41,27,20,12
1028,41,27,20,12
1029,41,27,20,12
1030,41,27,20,12
1031,41,27,20,12
1032,41,27,20,12
1033,41,27,20,12
1034,41,27,20,12
1035,41,27,20,12
1036,41,27,20,12
1037,41,27,20,12
1038,41,27,20,12
1039,41,27,20,12
1040,40,28,20,12
1041,40,28,20,12
1042,40,28,20,12
1043,40,28,20,12
1044,40,28,20,12
1045,40,28,20,12
1046,40,28,20,12
1047,39,29,20,12
1048,39,29,20,12
1049,39,29,20,12
1050,39,29,20,12
1051,39,29,19,13
1052,39,29,19,13
1053,39,29,19,13
1054,39,29,19,13
1055,39,28,20,13
1056,39,28,20,13
1057,39,28,20,13
1058,39,28,20,13
1059,39,28,20,13
1060,38,29,20,13
1061,38,29,20,13
1062,38,29,20,13
1063,38,29,20,13
1064,38,29,20,13
1065,38,29,20,13
1066,36,31,20,13
1067,36,31,20,13
1068,35,32,19,14
1069,35,31,20,14
1070,35,31,20,14
1071,33,32,21,14
1072,33,32,21,14
1073,33,31,22,14
1074,33,31,22,14
1075,32,31,23,14
1076,31,32,23,14
1077,31,32,23,14
1078,31,32,23,14
1079,31,32,23,14
1080,31,32,23,14
1081,31,32,23,14
1082,31,32,23,14
1083,31,32,23,14
1084,31,32,23,14
1085,31,32,23,14
1086,31,32,23,14
1087,30,33,23,14
1088,30,33,23,14
1089,30,33,23,14
1090,30,33,23,14
1091,30,33,23,14
1092,30,33,23,14
1093,30,32,23,15
1094,30,32,22,16
1095,30,32,22,16
1096,30,32,22,16
1097,30,32,21,17
1098,30,32,21,17
1099,30,32,21,17
1100,30,32,20,18
1101,30,32,20,18
1102,30,32,20,18
1103,30,32,20,18
1104,30,30,21,19
1105,30,30,21,19
1106,30,30,21,19
1107,30,30,21,19
1108,30,30,21,19
1109,30,29,22,19
1110,30,28,23,19
1111,30,28,23,19
1112,30,28,23,19
1113,30,28,23,19
1114,30,28,23,19
1115,30,28,23,19
1116,30,28,23,19
1117,30,28,23,19
1118,30,28,23,19
1119,30,28,23,19
1120,30,28,23,19
1121,30,28,23,19
1122,30,28,23,19
1123,30,28,23,19
1124,30,28,23,19
1125,30,28,23,19
1126,30,28,23,19
1127,30,27,24,19
1128,30,27,24,19
1129,30,27,24,19
1130,30,27,24,19
1131,30,27,24,19
1132,30,27,24,19
1133,30,27,24,19
1134,30,27,24,19
1135,30,27,24,19
1136,30,27,23,20
1137,30,27,23,20
1138,30,27,23,20
1139,30,27,23,20
1140,30,25,25,20
1141,30,25,25,20
1142,30,25,25,20
1143,30,25,25,20
1144,30,25,25,20
1145,30,25,24,21
1146,30,25,24,21
1147,30,25,24,21
1148,30,25,24,21
1149,30,25,23,22
1150,30,25,23,22
1151,30,25,23,22
1152,30,25,22,23
1153,30,25,21,24
1154,30,25,21,24
1155,30,25,21,24
1156,30,25,21,24
1157,30,25,21,24
1158,30,24,22,24
1159,30,24,22,24
1160,30,24,22,24
1161,30,24,22,24
1162,30,24,22,24
1163,30,24,22,24
1164,30,24,22,24
1165,30,24,22,24
1166,30,24,22,24
1167,30,24,22,24
1168,30,24,22,24
1169,30,24,22,24
1170,30,24,22,24
1171,30,24,22,24
1172,30,24,22,24
1173,30,24,22,24
1174,30,23,23,24
1175,30,23,23,24
1176,30,23,23,24
1177,30,22,23,25
1178,30,22,23,25
1179,30,22,23,25
1180,30,22,23,25
1181,30,22,22,26
1182,30,21,23,26
1183,30,21,23,26
1184,30,20,24,26
1185,30,20,24,26
1186,30,18,26,26
1187,28,20,25,27
1188,27,21,25,27
1189,27,21,25,27
1190,27,21,24,28
1191,27,21,24,28
1192,27,21,24,28
1193,27,20,24,29
1194,27,20,24,29
1195,26,20,25,29
1196,26,20,25,29
1197,26,20,25,29
1198,26,20,25,29
1199,26,20,25,29
1200,26,20,25,29
1201,26,20,25,29
1202,26,19,26,29
1203,26,19,25,30
1204,26,18,26,30
1205,26,17,27,30
1206,26,17,27,30
1207,26,17,26,31
1208,25,18,26,31
1209,25,18,26,31
1210,25,18,26,31
1211,25,17,27,31
1212,25,17,27,31
1213,24,18,26,32
1214,24,18,26,32
1215,24,18,26,32
1216,24,18,26,32
1217,24,18,26,32
1218,24,17,27,32
1219,24,17,27,32
1220,24,17,27,32
1221,24,17,27,32
1222,24,17,27,32
1223,24,17,27,32
1224,24,17,27,32
1225,24,17,27,32
1226,24,17,27,32
1227,23,18,27,32
1228,23,18,27,32
1229,23,18,27,32
1230,23,18,27,32
1231,23,18,27,32
1232,23,18,27,32
1233,23,18,27,32
1234,23,18,27,32
1235,23,18,27,32
1236,23,18,27,32
1237,23,18,27,32
1238,22,19,27,32
1239,22,19,27,32
1240,22,19,27,32
1241,21,19,28,32
1242,20,20,28,32
1243,20,20,28,32
1244,20,20,28,32
1245,20,20,28,32
1246,20,20,28,32
1247,20,20,28,32
1248,20,19,29,32
1249,20,19,29,32
1250,20,19,29,32
1251,20,19,29,32
1252,20,19,29,32
1253,20,19,29,32
1254,20,19,29,32
1255,20,19,29,32
1256,20,19,28,33
1257,20,19,28,33
1258,20,19,28,33
1259,20,19,28,33
1260,20,19,28,33
1261,20,18,29,33
1262,20,18,29,33
1263,20,18,29,33
1264,20,18,29,33
1265,20,18,29,33
1266,20,18,29,33
1267,20,16,31,33
1268,20,16,31,33
1269,20,15,32,33
1270,20,15,31,34
1271,20,15,31,34
1272,20,13,32,35
1273,20,13,32,35
1274,20,13,31,36
1275,20,13,31,36
1276,20,12,31,37
1277,20,11,32,37
1278,20,11,32,37
1279,20,11,32,37
1280,20,11,32,37
1281,20,11,32,37
1282,20,11,32,37
1283,20,11,32,37
1284,20,11,32,37
1285,20,11,32,37
1286,20,11,32,37
1287,20,11,32,37
1288,20,10,33,37
1289,20,10,33,37
1290,20,10,33,37
1291,20,10,33,37
1292,20,10,33,37
1293,20,10,33,37
1294,20,10,32,38
1295,19,11,32,38
1296,19,11,32,38
1297,19,11,32,38
1298,19,11,32,38
1299,17,13,32,38
1300,17,13,32,38
1301,17,13,32,38
1302,17,13,32,38
1303,16,14,32,38
1304,16,14,32,38
1305,16,14,30,40
1306,16,14,30,40
1307,16,14,30,40
1308,16,14,30,40
1309,16,14,30,40
1310,16,14,29,41
1311,16,14,28,42
1312,16,14,28,42
1313,16,14,28,42
1314,16,14,28,42
1315,16,14,28,42
1316,16,14,28,42
1317,15,15,28,42
1318,15,15,28,42
1319,15,15,28,42
1320,14,16,28,42
1321,14,16,28,42
1322,14,16,28,42
1323,14,16,28,42
1324,14,16,28,42
1325,14,16,28,42
1326,14,16,28,42
1327,14,16,28,42
1328,14,16,27,43
1329,14,16,27,43
1330,14,16,27,43
1331,12,18,27,43
1332,12,18,27,43
1333,11,19,27,43
1334,11,19,27,43
1335,11,19,27,43
1336,11,19,27,43
1337,11,19,27,43
1338,11,19,27,43
1339,10,20,27,43
1340,10,20,27,43
1341,10,20,25,45
1342,10,20,25,45
1343,10,20,25,45
1344,10,20,25,45
1345,10,20,25,45
1346,10,20,25,45
1347,10,20,25,45
1348,10,20,25,45
1349,10,20,25,45
1350,10,20,25,45
1351,10,20,25,45
1352,10,20,25,45
1353,10,20,25,45
1354,10,20,25,45
1355,10,20,25,45
1356,10,20,25,45
1357,10,20,25,45
1358,10,20,25,45
1359,10,20,24,46
1360,10,20,24,46
1361,10,20,24,46
1362,10,20,24,46
1363,10,20,24,46
1364,10,20,24,46
1365,10,20,24,46
1366,10,20,24,46
1367,10,20,24,46
1368,10,20,24,46
1369,10,20,24,46
1370,10,20,24,46
1371,10,20,24,46
1372,10,20,24,46
1373,10,20,24,46
1374,10,20,24,46
1375,10,20,23,47
1376,10,20,23,47
1377,10,20,23,47
1378,10,20,22,48
1379,10,20,22,48
1380,10,20,22,48
1381,10,20,22,48
1382,10,20,22,48
1383,10,20,21,49
1384,10,20,21,49
1385,10,20,20,50
1386,10,20,20,50
1387,10,20,18,52
1388,10,18,20,52
1389,10,17,21,52
1390,9,18,21,52
1391,9,18,21,52
1392,9,18,21,52
1393,9,18,21,52
1394,9,18,20,53
1395,9,18,20,53
1396,9,17,20,54
1397,9,17,20,54
1398,9,17,20,54
1399,9,17,20,54
1400,9,17,20,54
1401,9,17,20,54
1402,9,17,20,54
1403,9,17,19,55
1404,9,17,19,55
1405,9,17,18,56
1406,9,17,17,57
1407,9,17,17,57
1408,9,17,17,57
1409,9,16,18,57
1410,9,16,18,57
1411,9,16,18,57
1412,9,16,17,58
1413,9,16,17,58
1414,9,15,18,58
1415,9,15,18,58
1416,9,15,18,58
1417,9,15,18,58
1418,9,15,18,58
1419,9,15,17,59
1420,9,15,17,59
1421,9,15,17,59
1422,9,15,17,59
1423,9,15,17,59
1424,9,15,17,59
1425,9,15,17,59
1426,9,15,17,59
1427,9,15,17,59
1428,9,14,18,59
1429,9,14,18,59
1430,9,14,18,59
1431,9,14,18,59
1432,9,14,18,59
1433,9,14,18,59
1434,9,14,18,59
1435,9,14,18,59
1436,9,14,18,59
1437,8,15,18,59
1438,8,15,18,59
1439,8,14,19,59
1440,8,14,19,59
1441,8,14,19,59
1442,8,13,19,60
1443,8,12,20,60
1444,8,12,20,60
1445,8,12,20,60
1446,8,12,20,60
1447,8,12,20,60
1448,8,12,20,60
1449,8,12,19,61
1450,8,12,19,61
1451,8,12,19,61
1452,8,12,19,61
1453,8,12,19,61
1454,8,12,19,61
1455,8,12,19,61
1456,8,12,19,61
1457,8,12,19,61
1458,8,12,19,61
1459,8,12,19,61
1460,8,12,19,61
1461,8,12,19,61
1462,8,12,18,62
1463,8,12,18,62
1464,8,12,18,62
1465,8,12,18,62
1466,8,12,18,62
1467,8,12,18,62
1468,8,12,16,64
1469,8,12,16,64
1470,8,12,15,65
1471,8,12,15,65
1472,8,12,15,65
1473,8,12,13,67
1474,8,12,13,67
1475,8,12,13,67
1476,8,12,13,67
1477,8,12,12,68
1478,8,12,11,69
1479,8,12,11,69
1480,8,12,11,69
1481,8,12,11,69
1482,8,12,11,69
1483,8,12,11,69
1484,8,12,11,69
1485,8,12,11,69
1486,8,12,11,69
1487,8,12,11,69
1488,8,12,11,69
1489,8,12,10,70
1490,8,12,10,70
1491,8,12,10,70
1492,8,12,10,70
1493,8,12,10,70
1494,8,12,10,70
1495,8,12,10,70
1496,8,11,11,70
1497,8,11,11,70
1498,8,11,11,70
1499,8,11,11,70
1500,8,9,13,70
1501,8,9,13,70
1502,8,9,13,70
1503,8,9,13,70
1504,8,8,14,70
1505,8,8,14,70
1506,8,8,14,70
1507,8,8,14,70
1508,8,8,14,70
1509,8,8,14,70
1510,8,8,14,70
1511,8,8,14,70
1512,8,8,14,70
1513,8,8,14,70
1514,8,8,14,70
1515,8,8,14,70
1516,8,8,14,70
1517,8,8,14,70
1518,8,7,15,70
1519,8,7,15,70
1520,8,7,15,70
1521,8,6,16,70
1522,8,6,16,70
1523,8,6,16,70
1524,8,6,16,70
1525,8,6,16,70
1526,8,6,16,70
1527,7,7,16,70
1528,7,7,16,70
1529,7,7,16,70
1530,5,9,16,70
1531,5,9,16,70
1532,5,7,18,70
1533,5,7,18,70
1534,5,6,19,70
1535,5,6,19,70
1536,5,6,19,70
1537,5,6,19,70
1538,5,6,19,70
1539,5,6,19,70
1540,5,5,20,70
1541,5,5,20,70
1542,5,5,20,70
1543,5,5,20,70
1544,5,5,20,70
1545,5,5,20,70
1546,5,5,20,70
1547,5,5,20,70
1548,5,5,20,70
1549,5,5,20,70
1550,5,5,20,70
1551,5,5,20,70
1552,4,6,20,70
1553,4,6,20,70
1554,4,6,20,70
1555,4,6,20,70
1556,4,6,20,70
1557,4,6,20,70
1558,4,6,20,70
1559,4,6,20,70
1560,4,6,20,70
1561,4,6,20,70
1562,4,6,20,70
1563,4,6,20,70
1564,4,6,20,70
1565,4,6,20,70
1566,4,6,20,70
1567,4,6,20,70
1568,4,6,20,70
1569,4,6,20,70
1570,4,6,20,70
1571,4,6,20,70
1572,4,6,20,70
1573,4,6,20,70
1574,4,6,20,70
1575,4,6,20,70
1576,4,6,20,70
1577,4,6,20,70
1578,4,6,20,70
1579,4,6,20,70
1580,4,6,20,70
1581,4,6,20,70
1582,4,6,20,70
1583,4,6,20,70
1584,4,6,20,70
1585,4,6,20,70
1586,4,6,20,70
1587,4,6,20,70
1588,4,6,20,70
1589,4,6,18,72
1590,4,6,17,73
1591,4,5,18,73
1592,4,5,18,73
1593,4,5,18,73
1594,4,5,18,73
1595,4,5,18,73
1596,4,5,18,73
1597,4,5,17,74
1598,4,5,17,74
1599,4,5,17,74
1600,4,5,17,74
1601,4,5,17,74
1602,4,5,17,74
1603,4,5,17,74
1604,4,5,17,74
1605,4,5,17,74
1606,4,5,17,74
1607,4,5,17,74
1608,4,5,17,74
1609,4,5,17,74
1610,4,5,16,75
1611,4,5,16,75
1612,4,5,16,75
1613,4,5,16,75
1614,4,5,16,75
1615,4,5,15,76
1616,4,5,15,76
1617,4,5,15,76
1618,4,5,15,76
1619,4,5,15,76
1620,4,5,15,76
1621,4,5,15,76
1622,4,5,15,76
1623,4,5,15,76
1624,4,5,15,76
1625,4,5,15,76
1626,4,5,15,76
1627,4,5,15,76
1628,4,5,15,76
1629,4,5,14,77
1630,4,5,14,77
1631,4,5,14,77
1632,4,5,14,77
1633,4,5,14,77
1634,4,5,14,77
1635,4,5,14,77
1636,4,5,14,77
1637,4,5,14,77
1638,4,4,15,77
1639,4,4,15,77
1640,4,4,14,78
1641,4,4,14,78
1642,4,4,14,78
1643,4,4,13,79
1644,4,4,12,80
1645,4,4,12,80
1646,4,4,12,80
1647,4,4,12,80
1648,4,4,12,80
1649,4,4,12,80
1650,4,4,12,80
1651,4,4,12,80
1652,4,4,12,80
1653,4,4,12,80
1654,4,4,12,80
1655,4,4,12,80
1656,4,4,12,80
1657,4,4,12,80
1658,4,4,12,80
1659,4,4,12,80
1660,4,4,12,80
1661,4,4,12,80
1662,4,4,12,80
1663,4,4,12,80
1664,4,4,12,80
1665,4,4,12,80
1666,4,4,12,80
1667,4,4,12,80
1668,4,4,12,80
1669,4,4,12,80
1670,4,4,12,80
1671,4,4,12,80
1672,4,4,12,80
1673,4,4,12,80
1674,4,4,12,80
1675,4,4,12,80
1676,4,4,12,80
1677,4,4,12,80
1678,4,4,12,80
1679,4,4,12,80
1680,4,4,12,80
1681,4,4,12,80
1682,4,4,12,80
1683,4,4,12,80
1684,4,4,12,80
1685,4,4,12,80
1686,4,4,12,80
1687,4,4,12,80
1688,4,4,12,80
1689,4,4,12,80
1690,4,4,12,80
1691,4,4,12,80
1692,4,4,12,80
1693,4,4,12,80
1694,4,4,12,80
1695,4,4,12,80
1696,4,4,12,80
1697,4,4,11,81
1698,4,4,11,81
1699,4,4,11,81
1700,4,4,11,81
1701,4,4,9,83
1702,4,4,9,83
1703,4,4,9,83
1704,4,4,9,83
1705,4,4,8,84
1706,4,4,8,84
1707,4,4,8,84
1708,4,4,8,84
1709,4,4,8,84
1710,4,4,8,84
1711,4,4,8,84
1712,4,4,8,84
1713,4,4,8,84
1714,4,4,8,84
1715,4,4,8,84
1716,4,4,8,84
1717,4,4,8,84
1718,4,4,8,84
1719,4,4,7,85
1720,4,4,7,85
1721,4,4,7,85
1722,4,4,6,86
1723,4,4,6,86
1724,4,4,6,86
1725,4,4,6,86
1726,4,4,6,86
1727,4,4,6,86
1728,4,3,7,86
1729,4,3,7,86
1730,4,3,7,86
1731,4,1,9,86
1732,4,1,9,86
1733,4,1,7,88
1734,3,2,7,88
1735,3,2,6,89
1736,3,2,6,89
1737,3,2,6,89
1738,3,2,6,89
1739,3,2,6,89
1740,3,2,6,89
1741,3,2,5,90
1742,3,2,5,90
1743,3,2,5,90
1744,3,2,5,90
1745,3,2,5,90
1746,3,2,5,90
1747,3,2,5,90
1748,3,2,5,90
1749,3,2,5,90
1750,3,2,5,90
1751,3,2,5,90
1752,3,2,5,90
1753,3,1,6,90
1754,3,1,6,90
1755,3,1,6,90
1756,3,1,6,90
1757,3,1,6,90
1758,3,1,6,90
1759,3,1,6,90
1760,3,1,6,90
1761,3,1,6,90
1762,3,1,6,90
1763,3,1,6,90
1764,3,1,6,90
1765,3,1,6,90
1766,3,1,6,90
1767,3,1,6,90
1768,3,1,6,90
1769,3,1,6,90
1770,3,1,6,90
1771,3,1,6,90
1772,3,1,6,90
1773,3,1,6,90
1774,3,1,6,90
1775,3,1,6,90
1776,3,1,6,90
1777,3,1,6,90
1778,3,1,6,90
1779,3,1,6,90
1780,3,1,6,90
1781,3,1,6,90
1782,3,1,6,90
1783,3,1,6,90
1784,3,1,6,90
1785,3,1,6,90
1786,3,1,6,90
1787,3,1,6,90
1788,3,1,6,90
1789,3,1,6,90
1790,3,1,6,90
1791,3,1,6,90
1792,3,1,5,91
1793,3,1,5,91
1794,3,1,5,91
1795,3,1,5,91
1796,3,1,5,91
1797,3,1,5,91
1798,3,1,5,91
1799,3,1,5,91
1800,3,1,5,91
1801,3,1,5,91
1802,3,1,5,91
1803,3,1,5,91
1804,3,1,5,91
1805,3,1,5,91
1806,3,1,5,91
1807,3,1,5,91
1808,3,1,5,91
1809,3,1,5,91
1810,3,1,5,91
1811,3,1,5,91
1812,3,1,5,91
1813,3,1,5,91
1814,3,1,5,91
1815,3,1,5,91
1816,3,1,5,91
1817,3,1,5,91
1818,3,1,5,91
1819,3,1,5,91
1820,3,1,5,91
1821,3,1,5,91
1822,3,1,5,91
1823,3,1,5,91
1824,3,1,5,91
1825,3,1,5,91
1826,3,1,5,91
1827,3,1,5,91
1828,3,1,5,91
1829,3,1,5,91
1830,3,1,5,91
1831,3,1,5,91
1832,3,1,5,91
1833,3,1,5,91
1834,3,1,5,91
1835,3,1,5,91
1836,3,1,5,91
1837,3,1,5,91
1838,3,1,5,91
1839,3,1,4,92
1840,3,1,4,92
1841,3,1,4,92
1842,3,1,4,92
1843,3,1,4,92
1844,3,1,4,92
1845,3,1,4,92
1846,3,1,4,92
1847,3,1,4,92
1848,3,1,4,92
1849,3,1,4,92
1850,3,1,4,92
1851,3,1,4,92
1852,3,1,4,92
1853,3,1,4,92
1854,3,1,4,92
1855,3,1,4,92
1856,3,1,4,92
1857,3,1,4,92
1858,3,1,4,92
1859,3,1,4,92
1860,3,1,4,92
1861,3,1,4,92
1862,3,1,4,92
1863,3,1,4,92
1864,3,1,4,92
1865,3,1,4,92
1866,3,1,4,92
1867,3,1,4,92
1868,3,1,4,92
1869,3,1,4,92
1870,3,1,4,92
1871,3,1,4,92
1872,3,1,4,92
1873,3,1,4,92
1874,3,1,4,92
1875,3,1,4,92
1876,3,1,4,92
1877,3,1,4,92
1878,3,1,4,92
1879,3,1,4,92
1880,3,1,4,92
1881,3,1,4,92
1882,3,1,4,92
1883,3,1,4,92
1884,3,1,4,92
1885,3,1,4,92
1886,3,1,4,92
1887,3,1,4,92
1888,3,1,4,92
1889,3,1,4,92
1890,3,1,4,92
1891,3,1,4,92
1892,3,1,4,92
1893,3,1,4,92
1894,3,1,4,92
1895,3,1,4,92
1896,3,1,4,92
1897,3,1,4,92
1898,3,1,4,92
1899,3,1,4,92
1900,3,1,4,92
1901,3,1,4,92
1902,3,1,4,92
1903,3,1,4,92
1904,3,1,4,92
1905,3,1,4,92
1906,3,1,4,92
1907,3,1,4,92
1908,3,1,4,92
1909,3,1,4,92
1910,3,1,4,92
1911,3,1,4,92
1912,3,1,4,92
1913,3,1,4,92
1914,3,1,4,92
1915,3,1,4,92
1916,3,1,4,92
1917,3,1,4,92
1918,3,1,4,92
1919,3,1,4,92
1920,3,1,4,92
1921,3,1,4,92
1922,3,1,4,92
1923,3,1,4,92
1924,3,1,4,92
1925,3,1,4,92
1926,3,1,4,92
1927,3,1,4,92
1928,3,1,4,92
1929,3,1,3,93
1930,3,1,3,93
1931,3,1,3,93
1932,3,1,1,95
1933,3,1,1,95
1934,3,1,1,95
1935,3,0,2,95
1936,3,0,2,95
1937,3,0,2,95
1938,3,0,2,95
1939,3,0,2,95
1940,3,0,2,95
1941,3,0,2,95
1942,3,0,2,95
1943,3,0,2,95
1944,3,0,2,95
1945,3,0,2,95
1946,3,0,2,95
1947,3,0,2,95
1948,3,0,2,95
1949,3,0,2,95
1950,3,0,2,95
1951,3,0,2,95
1952,3,0,2,95
1953,3,0,2,95
1954,3,0,1,96
1955,3,0,1,96
1956,3,0,1,96
1957,3,0,1,96
1958,3,0,1,96
1959,3,0,1,96
1960,3,0,1,96
1961,3,0,1,96
1962,3,0,1,96
1963,3,0,1,96
1964,3,0,1,96
1965,3,0,1,96
1966,3,0,1,96
1967,3,0,1,96
1968,3,0,1,96
1969,3,0,1,96
1970,3,0,1,96
1971,3,0,1,96
1972,3,0,1,96
1973,3,0,1,96
1974,3,0,1,96
1975,3,0,1,96
1976,3,0,1,96
1977,3,0,1,96
1978,3,0,1,96
1979,3,0,1,96
1980,3,0,1,96
1981,3,0,1,96
1982,3,0,1,96
1983,3,0,1,96
1984,3,0,1,96
1985,3,0,1,96
1986,3,0,1,96
1987,3,0,1,96
1988,3,0,1,96
1989,3,0,1,96
1990,3,0,1,96
1991,3,0,1,96
1992,3,0,1,96
1993,3,0,1,96
1994,3,0,1,96
1995,3,0,1,96
1996,3,0,1,96
1997,3,0,1,96
1998,3,0,1,96
1999,3,0,1,96
2000,3,0,1,96
