"tick","total"
0,0
1,0
2,0
3,0
4,0
5,0
6,0
7,0
8,0
9,0
10,0
11,0
12,0
13,0
14,0
15,0
16,0
17,0
18,0
19,0
20,0
21,0
22,0
23,0
24,0
25,0
26,0
27,0
28,0
29,0
30,0
31,0
32,0
33,0
34,0
35,0
36,0
37,0
38,0
39,0
40,0
41,0
42,0
43,0
44,0
45,0
46,0
47,0
48,0
49,0
50,0
51,0
52,0
53,0
54,0
55,0
56,0
57,0
58,0
59,0
60,0
61,0
62,0
63,0
64,0
65,0
66,0
67,0
68,0
69,0
70,0
71,0
72,0
73,0
74,0
75,0
76,0
77,0
78,0
79,0
80,0
81,0
82,0
83,0
84,0
85,0
86,0
87,0
88,0
89,0
90,0
91,0
92,0
93,0
94,0
95,0
96,0
97,0
98,0
99,0
100,0
101,0
102,0
103,0
104,0
105,0
106,0
107,0
108,0
109,0
110,0
111,0
112,0
113,0
114,0
115,0
116,0
117,0
118,0
119,0
120,0
121,0
122,0
123,0
124,0
125,0
126,0
127,0
128,0
129,0
130,0
131,0
132,0
133,0
134,0
135,0
136,0
137,0
138,0
139,0
140,0
141,0
142,0
143,0
144,0
145,0
146,0
147,0
148,0
149,0
150,0
151,0
152,0
153,0
154,0
155,0
156,0
157,0
158,0
159,0
160,0
161,0
162,0
163,0
164,0
165,0
166,0
167,0
168,0
169,0
170,0
171,0
172,0
173,0
174,0
175,0
176,0
177,0
178,0
179,0
180,0
181,0
182,0
183,0
184,0
185,0
186,0
187,0
188,0
189,0
190,0
191,0
192,0
193,0
194,0
195,0
196,0
197,0
198,0
199,0
200,0
201,0
202,0
203,0
204,0
205,0
206,0
207,0
208,0
209,0
210,0
211,0
212,0
213,0
214,0
215,0
216,0
217,0
218,0
219,1
220,1
221,1
222,1
223,1
224,1
225,1
226,1
227,1
228,1
229,1
230,1
231,1
232,1
233,1
234,1
235,1
236,1
237,1
238,1
239,1
240,1
241,1
242,1
243,1
244,1
245,1
246,1
247,1
248,2
249,2
250,2
251,2
252,3
253,3
254,3
255,3
256,3
257,3
258,3
259,3
260,3
261,4
262,4
263,4
264,5
265,5
266,5
267,5
268,5
269,5
270,5
271,5
272,5
273,5
274,6
275,7
276,7
277,7
278,7
279,7
280,7
281,7
282,7
283,7
284,7
285,7
286,7
287,7
288,7
289,8
290,9
291,9
292,9
293,9
294,9
295,9
296,9
297,9
298,9
299,9
300,9
301,9
302,9
303,9
304,9
305,10
306,10
307,11
308,11
309,11
310,12
311,12
312,12
313,13
314,14
315,14
316,14
317,14
318,14
319,14
320,14
321,14
322,14
323,14
324,14
325,14
326,14
327,14
328,14
329,14
330,14
331,14
332,14
333,14
334,14
335,14
336,14
337,14
338,14
339,14
340,14
341,14
342,14
343,14
344,14
345,14
346,14
347,14
348,14
349,14
350,14
351,14
352,15
353,15
354,15
355,15
356,15
357,15
358,15
359,16
360,16
361,16
362,17
363,17
364,17
365,17
366,17
367,17
368,17
369,17
370,17
371,18
372,18
373,18
374,18
375,18
376,18
377,18
378,18
379,18
380,18
381,20
382,20
383,20
384,20
385,20
386,20
387,20
388,20
389,20
390,20
391,20
392,20
393,20
394,20
395,20
396,20
397,20
398,20
399,20
400,20
401,20
402,20
403,20
404,20
405,20
406,20
407,20
408,20
409,20
410,20
411,20
412,20
413,20
414,20
415,20
416,21
417,21
418,21
419,21
420,21
421,21
422,21
423,21
424,21
425,22
426,22
427,22
428,22
429,22
430,22
431,23
432,23
433,23
434,23
435,23
436,23
437,23
438,23
439,23
440,23
441,23
442,23
443,23
444,23
445,23
446,23
447,23
448,23
449,23
450,23
451,23
452,23
453,23
454,23
455,23
456,23
457,23
458,23
459,23
460,23
461,23
462,23
463,23
464,23
465,23
466,23
467,23
468,23
469,23
470,23
471,23
472,23
473,23
474,23
475,23
476,23
477,23
478,23
479,23
480,23
481,23
482,23
483,23
484,23
485,23
486,23
487,23
488,24
489,24
490,24
491,24
492,24
493,24
494,24
495,24
496,24
497,24
498,24
499,24
500,24
501,24
502,24
503,24
504,24
505,24
506,24
507,24
508,24
509,24
510,24
511,24
512,24
513,24
514,24
515,25
516,25
517,25
518,25
519,25
520,25
521,25
522,25
523,25
524,25
525,25
526,25
527,25
528,25
529,25
530,25
531,25
532,25
533,25
534,25
535,25
536,25
537,25
538,25
539,25
540,25
541,25
542,25
543,25
544,25
545,25
546,25
547,25
548,25
549,25
550,25
551,25
552,25
553,25
554,25
555,25
556,25
557,25
558,25
559,25
560,25
561,25
562,25
563,25
564,25
565,25
566,25
567,25
568,25
569,25
570,25
571,25
572,25
573,25
574,25
575,25
576,25
577,25
578,25
579,25
580,25
581,25
582,25
583,25
584,25
585,25
586,25
587,25
588,25
589,25
590,25
591,25
592,25
593,26
594,26
595,26
596,26
597,26
598,26
599,26
600,26
601,26
602,26
603,26
604,26
605,26
606,26
607,26
608,26
609,26
610,26
611,26
612,26
613,26
614,26
615,26
616,26
617,26
618,26
619,26
620,26
621,26
622,26
623,26
624,26
625,26
626,27
627,27
628,27
629,27
630,27
631,27
632,27
633,27
634,27
635,27
636,27
637,27
638,27
639,27
640,27
641,27
642,27
643,27
644,27
645,27
646,27
647,27
648,27
649,27
650,27
651,27
652,27
653,27
654,27
655,27
656,28
657,28
658,28
659,29
660,29
661,29
662,29
663,29
664,29
665,29
666,29
667,29
668,29
669,29
670,29
671,29
672,29
673,29
674,29
675,29
676,29
677,29
678,29
679,29
680,29
681,29
682,29
683,29
684,29
685,29
686,29
687,29
688,29
689,29
690,29
691,29
692,29
693,29
694,29
695,29
696,29
697,29
698,29
699,29
700,29
701,29
702,29
703,29
704,29
705,29
706,29
707,29
708,29
709,29
710,29
711,29
712,29
713,29
714,29
715,29
716,30
717,30
718,30
719,30
720,30
721,30
722,30
723,30
724,30
725,30
726,30
727,30
728,30
729,30
730,30
731,30
732,30
733,30
734,30
735,30
736,30
737,30
738,30
739,30
740,30
741,30
742,30
743,30
744,30
745,30
746,30
747,30
748,30
749,30
750,30
751,30
752,30
753,30
754,30
755,30
756,30
757,30
758,30
759,30
760,30
761,30
762,30
763,30
764,30
765,30
766,30
767,30
768,30
769,30
770,30
771,30
772,30
773,30
774,30
775,30
776,30
777,30
778,30
779,30
780,30
781,30
782,30
783,30
784,30
785,30
786,30
787,31
788,31
789,31
790,31
791,31
792,31
793,31
794,31
795,31
796,31
797,31
798,31
799,31
800,31
801,31
802,31
803,31
804,31
805,31
806,31
807,31
808,31
809,31
810,31
811,31
812,32
813,32
814,32
815,32
816,32
817,32
818,32
819,32
820,32
821,32
822,33
823,33
824,33
825,33
826,33
827,33
828,33
829,33
830,33
831,33
832,33
833,33
834,33
835,33
836,33
837,33
838,33
839,33
840,33
841,33
842,33
843,33
844,33
845,33
846,33
847,33
848,33
849,33
850,33
851,33
852,33
853,33
854,33
855,33
856,33
857,33
858,33
859,33
860,33
861,33
862,33
863,33
864,33
865,33
866,33
867,33
868,33
869,33
870,34
871,34
872,34
873,34
874,34
875,34
876,34
877,34
878,34
879,35
880,35
881,35
882,35
883,35
884,35
885,35
886,35
887,35
888,35
889,35
890,35
891,35
892,35
893,35
894,35
895,35
896,35
897,35
898,35
899,35
900,35
901,35
902,35
903,35
904,35
905,35
906,35
907,35
908,35
909,35
910,35
911,35
912,35
913,35
914,35
915,35
916,35
917,35
918,35
919,35
920,35
921,35
922,35
923,35
924,35
925,35
926,35
927,35
928,35
929,35
930,35
931,35
932,35
933,35
934,35
935,35
936,35
937,36
938,36
939,36
940,36
941,36
942,36
943,36
944,36
945,36
946,36
947,36
948,36
949,36
950,36
951,36
952,36
953,36
954,36
955,36
956,36
957,36
958,36
959,36
960,36
961,36
962,36
963,36
964,36
965,36
966,36
967,36
968,36
969,36
970,36
971,36
972,36
973,36
974,36
975,36
976,36
977,36
978,36
979,36
980,36
981,36
982,36
983,36
984,36
985,36
986,36
987,36
988,36
989,36
990,36
991,36
992,36
993,36
994,36
995,36
996,36
997,36
998,36
999,36
1000,36
1001,37
1002,37
1003,37
1004,37
1005,37
1006,37
1007,37
1008,37
1009,37
1010,37
1011,37
1012,37
1013,38
1014,38
1015,38
1016,38
1017,38
1018,38
1019,38
1020,38
1021,38
1022,38
1023,38
1024,38
1025,38
1026,38
1027,38
1028,38
1029,38
1030,38
1031,38
1032,38
1033,38
1034,38
1035,38
1036,38
1037,38
1038,38
1039,38
1040,38
1041,38
1042,38
1043,38
1044,38
1045,38
1046,38
1047,39
1048,40
1049,40
1050,40
1051,40
1052,40
1053,40
1054,40
1055,40
1056,40
1057,40
1058,40
1059,40
1060,40
1061,40
1062,41
1063,41
1064,41
1065,41
1066,41
1067,42
1068,42
1069,42
1070,42
1071,42
1072,42
1073,42
1074,42
1075,42
1076,42
1077,42
1078,42
1079,42
1080,42
1081,42
1082,42
1083,42
1084,43
1085,43
1086,43
1087,43
1088,44
1089,44
1090,44
1091,44
1092,44
1093,44
1094,44
1095,44
1096,44
1097,44
1098,44
1099,44
1100,44
1101,44
1102,44
1103,44
1104,44
1105,44
1106,44
1107,44
1108,44
1109,44
1110,44
1111,44
1112,44
1113,44
1114,44
1115,44
1116,44
1117,44
1118,44
1119,44
1120,44
1121,44
1122,44
1123,44
1124,44
1125,45
1126,45
1127,46
1128,46
1129,47
1130,47
1131,47
1132,47
1133,47
1134,48
1135,48
1136,48
1137,48
1138,48
1139,48
1140,48
1141,48
1142,48
1143,48
1144,49
1145,49
1146,49
1147,49
1148,49
1149,49
1150,50
1151,50
1152,50
1153,50
1154,50
1155,50
1156,50
1157,50
1158,50
1159,50
1160,50
1161,51
1162,51
1163,51
1164,51
1165,51
1166,51
1167,51
1168,51
1169,51
1170,51
1171,51
1172,51
1173,51
1174,51
1175,51
1176,52
1177,52
1178,52
1179,52
1180,52
1181,52
1182,52
1183,52
1184,52
1185,52
1186,52
1187,52
1188,52
1189,52
1190,52
1191,52
1192,52
1193,52
1194,52
1195,52
1196,52
1197,52
1198,52
1199,52
1200,52
1201,52
1202,52
1203,52
1204,52
1205,53
1206,53
1207,53
1208,53
1209,53
1210,53
1211,53
1212,54
1213,54
1214,54
1215,54
1216,54
1217,54
1218,54
1219,54
1220,54
1221,54
1222,55
1223,55
1224,55
1225,55
1226,56
1227,56
1228,56
1229,56
1230,56
1231,56
1232,56
1233,56
1234,56
1235,56
1236,56
1237,56
1238,56
1239,56
1240,56
1241,56
1242,56
1243,56
1244,56
1245,56
1246,56
1247,56
1248,56
1249,56
1250,56
1251,57
1252,57
1253,57
1254,57
1255,57
1256,57
1257,57
1258,57
1259,57
1260,57
1261,57
1262,57
1263,57
1264,57
1265,57
1266,57
1267,57
1268,57
1269,57
1270,57
1271,57
1272,58
1273,58
1274,58
1275,58
1276,58
1277,58
1278,58
1279,58
1280,58
1281,58
1282,58
1283,58
1284,58
1285,58
1286,58
1287,58
1288,58
1289,58
1290,59
1291,59
1292,59
1293,59
1294,59
1295,59
1296,59
1297,59
1298,59
1299,59
1300,59
1301,59
1302,59
1303,59
1304,59
1305,59
1306,59
1307,59
1308,59
1309,59
1310,59
1311,59
1312,59
1313,59
1314,59
1315,59
1316,59
1317,59
1318,59
1319,59
1320,59
1321,59
1322,59
1323,59
1324,59
1325,59
1326,59
1327,59
1328,59
1329,59
1330,59
1331,59
1332,59
1333,59
1334,59
1335,59
1336,59
1337,59
1338,59
1339,59
1340,59
1341,59
1342,59
1343,59
1344,59
1345,59
1346,59
1347,59
1348,59
1349,59
1350,59
1351,59
1352,59
1353,59
1354,59
1355,59
1356,59
1357,59
1358,59
1359,59
1360,59
1361,59
1362,59
1363,59
1364,59
1365,59
1366,59
1367,59
1368,59
1369,59
1370,59
1371,59
1372,59
1373,59
1374,59
1375,59
1376,59
1377,59
1378,59
1379,59
1380,59
1381,59
1382,59
1383,59
1384,59
1385,59
1386,59
1387,59
1388,59
1389,59
1390,60
1391,61
1392,61
1393,61
1394,61
1395,61
1396,61
1397,61
1398,61
1399,61
1400,61
1401,61
1402,61
1403,61
1404,61
1405,61
1406,61
1407,61
1408,61
1409,61
1410,61
1411,61
1412,61
1413,61
1414,61
1415,61
1416,61
1417,61
1418,61
1419,61
1420,61
1421,61
1422,61
1423,61
1424,61
1425,61
1426,61
1427,61
1428,61
1429,61
1430,61
1431,61
1432,61
1433,61
1434,61
1435,61
1436,61
1437,61
1438,61
1439,61
1440,61
1441,61
1442,61
1443,61
1444,61
1445,61
1446,61
1447,61
1448,61
1449,61
1450,61
1451,61
1452,61
1453,61
1454,61
1455,61
1456,61
1457,61
1458,61
1459,61
1460,61
1461,61
1462,61
1463,61
1464,61
1465,61
1466,61
1467,61
1468,61
1469,61
1470,61
1471,61
1472,61
1473,62
1474,62
1475,62
1476,62
1477,62
1478,62
1479,62
1480,62
1481,62
1482,62
1483,62
1484,62
1485,62
1486,62
1487,62
1488,62
1489,62
1490,62
1491,62
1492,62
1493,62
1494,62
1495,62
1496,62
1497,62
1498,62
1499,62
1500,62
1501,62
1502,62
1503,63
1504,63
1505,63
1506,63
1507,63
1508,64
1509,64
1510,64
1511,64
1512,64
1513,64
1514,64
1515,64
1516,64
1517,64
1518,64
1519,64
1520,64
1521,64
1522,64
1523,64
1524,64
1525,64
1526,64
1527,64
1528,64
1529,64
1530,64
1531,64
1532,64
1533,65
1534,65
1535,65
1536,65
1537,65
1538,65
1539,65
1540,65
1541,65
1542,66
1543,66
1544,66
1545,66
1546,66
1547,66
1548,66
1549,66
1550,66
1551,66
1552,67
1553,67
1554,67
1555,67
1556,67
1557,67
1558,67
1559,67
1560,67
1561,67
1562,67
1563,67
1564,67
1565,67
1566,67
1567,68
1568,68
1569,68
1570,68
1571,68
1572,68
1573,68
1574,68
1575,68
1576,68
1577,68
1578,68
1579,68
1580,68
1581,68
1582,68
1583,68
1584,68
1585,68
1586,68
1587,69
1588,69
1589,69
1590,70
1591,70
1592,70
1593,71
1594,71
1595,71
1596,71
1597,72
1598,72
1599,72
1600,72
1601,72
1602,72
1603,72
1604,72
1605,72
1606,72
1607,72
1608,72
1609,72
1610,72
1611,72
1612,72
1613,72
1614,72
1615,72
1616,72
1617,72
1618,72
1619,72
1620,72
1621,73
1622,73
1623,73
1624,73
1625,74
1626,74
1627,74
1628,74
1629,74
1630,75
1631,75
1632,76
1633,76
1634,77
1635,79
1636,80
1637,80
1638,80
1639,80
1640,81
1641,81
1642,81
1643,81
1644,81
1645,81
1646,82
1647,82
1648,82
1649,82
1650,82
1651,82
1652,83
1653,83
1654,83
1655,84
1656,84
1657,84
1658,84
1659,84
1660,84
1661,84
1662,84
1663,84
1664,84
1665,84
1666,84
1667,84
1668,84
1669,84
1670,84
1671,84
1672,84
1673,84
1674,84
1675,84
1676,84
1677,84
1678,84
1679,85
1680,85
1681,85
1682,85
1683,86
1684,86
1685,86
1686,86
1687,86
1688,86
1689,86
1690,86
1691,86
1692,86
1693,86
1694,86
1695,86
1696,86
1697,86
1698,86
1699,86
1700,86
1701,86
1702,86
1703,86
1704,86
1705,86
1706,86
1707,86
1708,86
1709,86
1710,86
1711,86
1712,86
1713,86
1714,87
1715,87
1716,87
1717,87
1718,87
1719,87
1720,87
1721,87
1722,87
1723,87
1724,87
1725,87
1726,87
1727,87
1728,87
1729,87
1730,87
1731,87
1732,87
1733,87
1734,87
1735,87
1736,87
1737,87
1738,87
1739,87
1740,87
1741,87
1742,87
1743,87
1744,87
1745,87
1746,87
1747,88
1748,88
1749,88
1750,88
1751,88
1752,88
1753,88
1754,88
1755,89
1756,89
1757,89
1758,89
1759,89
1760,89
1761,89
1762,89
1763,89
1764,89
1765,89
1766,90
1767,90
1768,90
1769,90
1770,90
1771,90
1772,90
1773,90
1774,90
1775,90
1776,90
1777,90
1778,90
1779,90
1780,90
1781,90
1782,90
1783,90
1784,90
1785,90
1786,90
1787,90
1788,90
1789,90
1790,90
1791,90
1792,91
1793,91
1794,91
1795,91
1796,91
1797,91
1798,91
1799,91
1800,91
1801,91
1802,91
1803,91
1804,91
1805,91
1806,91
1807,91
1808,91
1809,91
1810,92
1811,92
1812,92
1813,92
1814,92
1815,92
1816,92
1817,92
1818,92
1819,92
1820,92
1821,92
1822,93
1823,93
1824,93
1825,93
1826,93
1827,93
1828,93
1829,93
1830,93
1831,93
1832,93
1833,93
1834,93
1835,93
1836,93
1837,93
1838,93
1839,94
1840,94
1841,94
1842,94
1843,94
1844,94
1845,94
1846,94
1847,95
1848,95
1849,95
1850,95
1851,95
1852,95
1853,95
1854,95
1855,95
1856,95
1857,95
1858,95
1859,95
1860,95
1861,95
1862,95
1863,95
1864,95
1865,95
1866,95
1867,95
1868,95
1869,95
1870,95
1871,95
1872,95
1873,95
1874,95
1875,95
1876,95
1877,95
1878,95
1879,95
1880,95
1881,95
1882,95
1883,95
1884,95
1885,95
1886,95
1887,95
1888,95
1889,95
1890,96
1891,96
1892,96
1893,96
1894,97
1895,97
1896,97
1897,97
1898,97
1899,97
1900,97
1901,97
1902,97
1903,97
1904,97
1905,97
1906,97
1907,98
1908,98
1909,98
1910,98
1911,99
1912,99
1913,99
1914,99
1915,99
1916,99
1917,99
1918,99
1919,99
1920,99
1921,99
1922,99
1923,99
1924,99
1925,99
1926,99
1927,99
1928,99
1929,99
1930,99
1931,99
1932,99
1933,99
1934,99
1935,99
1936,99
1937,99
1938,99
1939,99
1940,99
1941,99
1942,99
1943,99
1944,99
1945,99
1946,99
1947,99
1948,99
1949,99
1950,99
1951,99
1952,99
1953,99
1954,101
1955,101
1956,101
1957,101
1958,101
1959,101
1960,101
1961,101
1962,101
1963,101
1964,101
1965,101
1966,101
1967,101
1968,101
1969,101
1970,101
1971,101
1972,101
1973,101
1974,101
1975,101
1976,101
1977,101
1978,101
1979,101
1980,101
1981,101
1982,101
1983,101
1984,101
1985,101
1986,101
1987,101
1988,101
1989,101
1990,101
1991,101
1992,101
1993,101
1994,101
1995,101
1996,101
1997,101
1998,101
1999,101
2000,101
