"tick","total"
0,0
1,0
2,0
3,0
4,0
5,0
6,0
7,0
8,0
9,0
10,0
11,0
12,0
13,0
14,0
15,0
16,0
17,0
18,0
19,0
20,0
21,0
22,0
23,0
24,0
25,0
26,0
27,0
28,0
29,0
30,0
31,0
32,0
33,0
34,0
35,0
36,0
37,0
38,0
39,0
40,0
41,0
42,0
43,0
44,0
45,0
46,0
47,0
48,0
49,0
50,0
51,0
52,0
53,0
54,0
55,0
56,0
57,0
58,0
59,0
60,0
61,0
62,0
63,0
64,0
65,0
66,0
67,0
68,0
69,0
70,0
71,0
72,0
73,0
74,0
75,0
76,0
77,0
78,0
79,0
80,0
81,0
82,0
83,0
84,0
85,0
86,0
87,0
88,0
89,0
90,0
91,0
92,0
93,0
94,0
95,0
96,0
97,0
98,0
99,0
100,0
101,0
102,0
103,0
104,0
105,0
106,0
107,0
108,0
109,0
110,0
111,0
112,0
113,0
114,0
115,0
116,0
117,0
118,0
119,0
120,0
121,0
122,0
123,0
124,1
125,1
126,1
127,1
128,1
129,1
130,1
131,1
132,1
133,1
134,1
135,2
136,2
137,2
138,2
139,2
140,3
141,3
142,3
143,3
144,3
145,3
146,3
147,4
148,5
149,6
150,6
151,6
152,6
153,6
154,6
155,6
156,6
157,6
158,6
159,6
160,6
161,6
162,6
163,6
164,6
165,7
166,7
167,7
168,7
169,7
170,7
171,7
172,7
173,7
174,7
175,7
176,8
177,8
178,8
179,8
180,8
181,8
182,8
183,8
184,8
185,8
186,8
187,8
188,8
189,8
190,8
191,8
192,8
193,8
194,8
195,8
196,8
197,9
198,9
199,9
200,9
201,9
202,9
203,10
204,10
205,10
206,10
207,10
208,10
209,10
210,10
211,10
212,11
213,11
214,11
215,11
216,11
217,11
218,11
219,11
220,11
221,13
222,13
223,14
224,14
225,14
226,14
227,14
228,14
229,14
230,14
231,14
232,14
233,14
234,14
235,14
236,14
237,14
238,14
239,14
240,14
241,14
242,14
243,14
244,14
245,14
246,14
247,14
248,14
249,14
250,14
251,14
252,14
253,14
254,14
255,14
256,14
257,14
258,15
259,15
260,15
261,18
262,18
263,18
264,18
265,18
266,18
267,19
268,20
269,20
270,20
271,20
272,20
273,20
274,20
275,20
276,21
277,21
278,21
279,22
280,22
281,22
282,23
283,23
284,24
285,24
286,24
287,24
288,24
289,25
290,25
291,25
292,25
293,25
294,25
295,25
296,25
297,25
298,25
299,25
300,25
301,25
302,25
303,25
304,26
305,26
306,26
307,26
308,26
309,26
310,26
311,26
312,26
313,26
314,26
315,26
316,26
317,26
318,26
319,26
320,26
321,26
322,26
323,26
324,26
325,26
326,26
327,26
328,26
329,26
330,26
331,26
332,26
333,26
334,26
335,26
336,26
337,26
338,26
339,26
340,26
341,26
342,26
343,26
344,26
345,27
346,27
347,27
348,27
349,27
350,27
351,29
352,29
353,29
354,29
355,29
356,29
357,29
358,29
359,29
360,29
361,29
362,29
363,29
364,29
365,29
366,29
367,29
368,29
369,29
370,29
371,29
372,30
373,30
374,30
375,30
376,30
377,30
378,30
379,30
380,30
381,30
382,30
383,30
384,30
385,30
386,30
387,30
388,30
389,30
390,30
391,30
392,30
393,30
394,30
395,30
396,30
397,30
398,30
399,30
400,30
401,30
402,30
403,30
404,30
405,30
406,30
407,30
408,30
409,30
410,30
411,30
412,30
413,30
414,30
415,30
416,30
417,30
418,31
419,31
420,31
421,31
422,31
423,31
424,31
425,31
426,31
427,31
428,31
429,31
430,31
431,31
432,31
433,31
434,31
435,31
436,31
437,31
438,31
439,31
440,31
441,31
442,31
443,31
444,31
445,31
446,31
447,31
448,31
449,31
450,31
451,31
452,31
453,31
454,31
455,31
456,31
457,31
458,31
459,31
460,31
461,31
462,31
463,31
464,31
465,31
466,31
467,32
468,32
469,33
470,33
471,33
472,33
473,33
474,33
475,33
476,33
477,33
478,33
479,33
480,33
481,33
482,33
483,33
484,33
485,33
486,34
487,34
488,34
489,34
490,34
491,34
492,34
493,34
494,34
495,34
496,34
497,34
498,34
499,34
500,34
501,34
502,34
503,34
504,34
505,34
506,34
507,34
508,34
509,34
510,34
511,34
512,34
513,34
514,34
515,34
516,34
517,34
518,34
519,34
520,34
521,34
522,34
523,34
524,34
525,34
526,34
527,34
528,34
529,35
530,35
531,35
532,35
533,35
534,35
535,35
536,35
537,35
538,35
539,35
540,35
541,35
542,35
543,35
544,35
545,35
546,35
547,35
548,35
549,35
550,35
551,36
552,37
553,37
554,38
555,38
556,38
557,38
558,39
559,39
560,39
561,40
562,40
563,40
564,40
565,40
566,40
567,40
568,41
569,41
570,41
571,41
572,41
573,41
574,41
575,41
576,41
577,41
578,41
579,41
580,41
581,41
582,41
583,41
584,41
585,41
586,41
587,41
588,41
589,41
590,41
591,41
592,42
593,43
594,44
595,44
596,44
597,44
598,46
599,46
600,46
601,46
602,46
603,47
604,47
605,47
606,47
607,47
608,47
609,47
610,47
611,47
612,47
613,48
614,48
615,48
616,48
617,48
618,48
619,48
620,48
621,48
622,48
623,48
624,48
625,48
626,48
627,48
628,48
629,48
630,49
631,49
632,50
633,51
634,51
635,51
636,51
637,52
638,52
639,52
640,52
641,52
642,52
643,52
644,52
645,52
646,52
647,52
648,52
649,52
650,52
651,52
652,52
653,52
654,52
655,53
656,54
657,55
658,56
659,56
660,56
661,56
662,56
663,56
664,56
665,56
666,57
667,57
668,57
669,57
670,57
671,57
672,57
673,57
674,57
675,57
676,57
677,57
678,57
679,57
680,57
681,57
682,57
683,57
684,57
685,57
686,57
687,57
688,57
689,57
690,57
691,58
692,58
693,58
694,58
695,58
696,58
697,58
698,58
699,58
700,58
701,58
702,58
703,58
704,58
705,58
706,58
707,58
708,58
709,58
710,58
711,58
712,58
713,58
714,58
715,58
716,58
717,58
718,58
719,58
720,58
721,58
722,58
723,58
724,58
725,58
726,58
727,58
728,58
729,58
730,58
731,58
732,58
733,58
734,58
735,58
736,58
737,58
738,58
739,58
740,58
741,58
742,58
743,58
744,58
745,58
746,58
747,58
748,58
749,59
750,59
751,59
752,59
753,59
754,59
755,59
756,59
757,59
758,59
759,59
760,59
761,59
762,59
763,59
764,59
765,59
766,59
767,59
768,59
769,59
770,59
771,59
772,59
773,59
774,59
775,59
776,59
777,59
778,59
779,60
780,60
781,60
782,60
783,60
784,60
785,60
786,60
787,60
788,60
789,60
790,60
791,60
792,60
793,60
794,60
795,60
796,60
797,60
798,60
799,60
800,60
801,60
802,60
803,60
804,60
805,60
806,60
807,60
808,60
809,60
810,60
811,60
812,60
813,60
814,60
815,60
816,60
817,60
818,60
819,60
820,60
821,60
822,60
823,60
824,60
825,60
826,60
827,60
828,60
829,60
830,60
831,60
832,60
833,60
834,60
835,60
836,60
837,61
838,62
839,62
840,62
841,62
842,62
843,62
844,62
845,62
846,62
847,62
848,62
849,62
850,62
851,63
852,63
853,63
854,63
855,63
856,63
857,63
858,63
859,63
860,63
861,63
862,63
863,64
864,65
865,65
866,65
867,65
868,65
869,65
870,65
871,65
872,65
873,65
874,65
875,65
876,65
877,65
878,65
879,65
880,65
881,65
882,65
883,65
884,65
885,65
886,65
887,65
888,65
889,65
890,65
891,65
892,65
893,65
894,65
895,65
896,65
897,65
898,65
899,65
900,65
901,65
902,65
903,65
904,65
905,65
906,65
907,65
908,65
909,65
910,65
911,65
912,65
913,65
914,65
915,65
916,65
917,65
918,65
919,65
920,65
921,65
922,65
923,65
924,65
925,65
926,65
927,65
928,65
929,65
930,65
931,65
932,65
933,65
934,65
935,65
936,65
937,65
938,65
939,66
940,66
941,66
942,66
943,66
944,66
945,66
946,66
947,66
948,66
949,66
950,66
951,66
952,67
953,67
954,67
955,67
956,67
957,67
958,67
959,67
960,67
961,67
962,67
963,67
964,67
965,67
966,67
967,67
968,67
969,67
970,67
971,67
972,67
973,67
974,67
975,67
976,67
977,67
978,67
979,67
980,67
981,67
982,67
983,67
984,67
985,67
986,67
987,67
988,67
989,68
990,68
991,68
992,68
993,68
994,68
995,68
996,68
997,68
998,68
999,68
1000,68
1001,68
1002,68
1003,68
1004,68
1005,68
1006,68
1007,68
1008,68
1009,68
1010,68
1011,68
1012,68
1013,69
1014,69
1015,69
1016,69
1017,69
1018,69
1019,69
1020,69
1021,69
1022,69
1023,69
1024,69
1025,69
1026,69
1027,69
1028,69
1029,69
1030,69
1031,69
1032,70
1033,70
1034,70
1035,71
1036,71
1037,71
1038,71
1039,71
1040,71
1041,71
1042,71
1043,71
1044,71
1045,71
1046,71
1047,71
1048,71
1049,72
1050,72
1051,72
1052,72
1053,72
1054,72
1055,72
1056,72
1057,72
1058,73
1059,73
1060,74
1061,75
1062,76
1063,76
1064,76
1065,76
1066,76
1067,76
1068,76
1069,76
1070,76
1071,76
1072,76
1073,76
1074,76
1075,76
1076,76
1077,76
1078,76
1079,76
1080,76
1081,76
1082,76
1083,76
1084,76
1085,76
1086,76
1087,76
1088,76
1089,76
1090,76
1091,76
1092,76
1093,76
1094,76
1095,76
1096,76
1097,76
1098,76
1099,76
1100,77
1101,77
1102,77
1103,77
1104,77
1105,77
1106,77
1107,78
1108,79
1109,79
1110,79
1111,79
1112,79
1113,79
1114,79
1115,79
1116,80
1117,80
1118,81
1119,81
1120,81
1121,81
1122,81
1123,81
1124,81
1125,81
1126,81
1127,81
1128,81
1129,81
1130,81
1131,81
1132,81
1133,81
1134,81
1135,81
1136,81
1137,81
1138,81
1139,81
1140,81
1141,82
1142,82
1143,82
1144,82
1145,82
1146,82
1147,82
1148,82
1149,82
1150,82
1151,82
1152,82
1153,82
1154,82
1155,82
1156,82
1157,82
1158,83
1159,83
1160,83
1161,84
1162,85
1163,85
1164,85
1165,85
1166,85
1167,85
1168,85
1169,85
1170,85
1171,85
1172,85
1173,85
1174,85
1175,85
1176,85
1177,85
1178,85
1179,85
1180,85
1181,85
1182,85
1183,85
1184,85
1185,85
1186,85
1187,85
1188,85
1189,85
1190,85
1191,85
1192,85
1193,85
1194,85
1195,85
1196,85
1197,85
1198,85
1199,85
1200,85
1201,85
1202,85
1203,85
1204,85
1205,85
1206,85
1207,85
1208,85
1209,85
1210,85
1211,85
1212,85
1213,85
1214,85
1215,85
1216,85
1217,85
1218,85
1219,85
1220,85
1221,85
1222,85
1223,85
1224,85
1225,85
1226,85
1227,85
1228,85
1229,85
1230,85
1231,85
1232,85
1233,85
1234,85
1235,85
1236,85
1237,85
1238,85
1239,85
1240,85
1241,85
1242,85
1243,85
1244,85
1245,85
1246,85
1247,85
1248,85
1249,85
1250,86
1251,86
1252,86
1253,86
1254,87
1255,87
1256,87
1257,87
1258,87
1259,87
1260,87
1261,87
1262,87
1263,87
1264,87
1265,87
1266,87
1267,87
1268,87
1269,87
1270,87
1271,87
1272,88
1273,88
1274,88
1275,88
1276,88
1277,88
1278,88
1279,88
1280,88
1281,88
1282,88
1283,88
1284,88
1285,88
1286,88
1287,88
1288,88
1289,88
1290,88
1291,88
1292,88
1293,88
1294,88
1295,88
1296,88
1297,88
1298,88
1299,89
1300,89
1301,89
1302,89
1303,90
1304,90
1305,90
1306,90
1307,90
1308,90
1309,90
1310,90
1311,90
1312,90
1313,90
1314,90
1315,90
1316,90
1317,90
1318,90
1319,90
1320,90
1321,90
1322,90
1323,90
1324,90
1325,90
1326,90
1327,90
1328,90
1329,90
1330,90
1331,90
1332,90
1333,90
1334,90
1335,90
1336,90
1337,90
1338,90
1339,90
1340,90
1341,90
1342,90
1343,90
1344,90
1345,90
1346,90
1347,90
1348,90
1349,90
1350,90
1351,90
1352,90
1353,90
1354,90
1355,90
1356,90
1357,90
1358,90
1359,90
1360,91
1361,91
1362,91
1363,91
1364,91
1365,91
1366,91
1367,92
1368,92
1369,92
1370,92
1371,92
1372,92
1373,92
1374,92
1375,92
1376,92
1377,92
1378,92
1379,92
1380,92
1381,92
1382,92
1383,92
1384,92
1385,92
1386,92
1387,93
1388,93
1389,93
1390,93
1391,93
1392,93
1393,93
1394,93
1395,94
1396,94
1397,94
1398,94
1399,94
1400,94
1401,94
1402,94
1403,95
1404,95
1405,95
1406,96
1407,96
1408,96
1409,97
1410,97
1411,97
1412,97
1413,97
1414,97
1415,97
1416,97
1417,97
1418,97
1419,97
1420,97
1421,97
1422,97
1423,97
1424,97
1425,98
1426,98
1427,98
1428,98
1429,98
1430,98
1431,98
1432,98
1433,98
1434,98
1435,98
1436,98
1437,98
1438,98
1439,98
1440,98
1441,98
1442,98
1443,98
1444,98
1445,98
1446,98
1447,98
1448,99
1449,99
1450,99
1451,99
1452,100
1453,100
1454,100
1455,100
1456,100
1457,100
1458,100
1459,100
1460,100
1461,100
1462,100
1463,100
1464,100
1465,100
1466,100
1467,100
1468,100
1469,101
1470,101
1471,101
1472,101
1473,101
1474,101
1475,101
1476,101
1477,101
1478,101
1479,101
1480,101
1481,102
1482,102
1483,102
1484,102
1485,102
1486,102
1487,102
1488,102
1489,102
1490,102
1491,102
1492,102
1493,102
1494,102
1495,102
1496,102
1497,102
1498,102
1499,102
1500,102
1501,102
1502,102
1503,102
1504,102
1505,102
1506,102
1507,102
1508,102
1509,102
1510,102
1511,102
1512,102
1513,102
1514,103
1515,103
1516,103
1517,103
1518,103
1519,103
1520,103
1521,103
1522,103
1523,103
1524,103
1525,103
1526,103
1527,103
1528,103
1529,103
1530,103
1531,103
1532,103
1533,103
1534,103
1535,103
1536,103
1537,103
1538,103
1539,103
1540,103
1541,103
1542,103
1543,103
1544,103
1545,103
1546,103
1547,103
1548,103
1549,103
1550,103
1551,103
1552,103
1553,103
1554,103
1555,103
1556,103
1557,103
1558,103
1559,103
1560,103
1561,103
1562,103
1563,103
1564,103
1565,103
1566,103
1567,103
1568,103
1569,104
1570,104
1571,104
1572,104
1573,104
1574,104
1575,104
1576,104
1577,104
1578,104
1579,104
1580,104
1581,104
1582,104
1583,104
1584,104
1585,104
1586,104
1587,104
1588,104
1589,104
1590,104
1591,104
1592,104
1593,104
1594,104
1595,104
1596,104
1597,104
1598,104
1599,104
1600,104
1601,104
1602,104
1603,105
1604,105
1605,105
1606,105
1607,105
1608,106
1609,106
1610,106
1611,106
1612,106
1613,106
1614,106
1615,107
1616,107
1617,107
1618,108
1619,108
1620,108
1621,108
1622,108
1623,109
1624,109
1625,109
1626,109
1627,109
1628,110
1629,110
1630,110
1631,110
1632,110
1633,110
1634,111
1635,111
1636,111
1637,111
1638,112
1639,112
1640,113
1641,113
1642,114
1643,114
1644,115
1645,115
1646,115
1647,115
1648,115
1649,115
1650,115
1651,115
1652,115
1653,116
1654,116
1655,116
1656,116
1657,116
1658,116
1659,116
1660,116
1661,116
1662,116
1663,117
1664,117
1665,117
1666,117
1667,117
1668,118
1669,118
1670,118
1671,118
1672,119
1673,119
1674,119
1675,119
1676,119
1677,119
1678,119
1679,119
1680,119
1681,119
1682,119
1683,119
1684,119
1685,119
1686,119
1687,119
1688,119
1689,119
1690,119
1691,120
1692,120
1693,120
1694,120
1695,120
1696,120
1697,120
1698,120
1699,120
1700,120
1701,120
1702,120
1703,120
1704,120
1705,120
1706,120
1707,120
1708,120
1709,120
1710,120
1711,120
1712,120
1713,120
1714,120
1715,120
1716,120
1717,120
1718,120
1719,120
1720,120
1721,120
1722,120
1723,120
1724,120
1725,120
1726,120
1727,120
1728,120
1729,120
1730,120
1731,120
1732,120
1733,120
1734,121
1735,121
1736,121
1737,121
1738,121
1739,121
1740,122
1741,122
1742,122
1743,122
1744,123
1745,123
1746,123
1747,123
1748,123
1749,123
1750,123
1751,123
1752,123
1753,123
1754,123
1755,123
1756,123
1757,123
1758,123
1759,123
1760,123
1761,123
1762,123
1763,123
1764,123
1765,123
1766,123
1767,123
1768,123
1769,123
1770,123
1771,123
1772,123
1773,123
1774,123
1775,123
1776,123
1777,123
1778,123
1779,123
1780,123
1781,123
1782,123
1783,123
1784,123
1785,123
1786,123
1787,123
1788,123
1789,123
1790,123
1791,123
1792,123
1793,123
1794,123
1795,123
1796,123
1797,123
1798,123
1799,123
1800,123
1801,123
1802,123
1803,123
1804,123
1805,123
1806,123
1807,123
1808,123
1809,123
1810,123
1811,123
1812,123
1813,123
1814,123
1815,123
1816,123
1817,123
1818,123
1819,123
1820,123
1821,123
1822,123
1823,123
1824,123
1825,123
1826,123
1827,123
1828,123
1829,123
1830,123
1831,123
1832,123
1833,123
1834,123
1835,123
1836,123
1837,123
1838,123
1839,123
1840,123
1841,123
1842,123
1843,123
1844,123
1845,123
1846,123
1847,123
1848,123
1849,123
1850,123
1851,123
1852,123
1853,123
1854,123
1855,123
1856,123
1857,123
1858,124
1859,124
1860,124
1861,124
1862,124
1863,124
1864,124
1865,124
1866,124
1867,124
1868,124
1869,124
1870,124
1871,124
1872,124
1873,124
1874,124
1875,124
1876,125
1877,125
1878,125
1879,125
1880,125
1881,125
1882,125
1883,125
1884,125
1885,126
1886,126
1887,126
1888,126
1889,126
1890,126
1891,126
1892,126
1893,126
1894,126
1895,126
1896,126
1897,126
1898,126
1899,126
1900,126
1901,126
1902,126
1903,126
1904,126
1905,126
1906,126
1907,126
1908,126
1909,126
1910,126
1911,126
1912,126
1913,126
1914,126
1915,126
1916,126
1917,126
1918,126
1919,126
1920,126
1921,126
1922,126
1923,126
1924,126
1925,126
1926,126
1927,126
1928,126
1929,126
1930,126
1931,126
1932,126
1933,127
1934,127
1935,127
1936,127
1937,127
1938,127
1939,127
1940,127
1941,127
1942,127
1943,127
1944,127
1945,127
1946,127
1947,128
1948,128
1949,128
1950,128
1951,128
1952,128
1953,128
1954,128
1955,128
1956,129
1957,129
1958,129
1959,129
1960,129
1961,129
1962,129
1963,129
1964,131
1965,131
1966,132
1967,132
1968,132
1969,132
1970,132
1971,132
1972,132
1973,132
1974,132
1975,132
1976,132
1977,132
1978,132
1979,132
1980,132
1981,132
1982,132
1983,132
1984,132
1985,132
1986,132
1987,132
1988,132
1989,132
1990,132
1991,132
1992,132
1993,132
1994,132
1995,132
1996,132
1997,132
1998,132
1999,132
2000,132
