"tick","total"
0,0
1,0
2,0
3,0
4,0
5,0
6,0
7,0
8,0
9,0
10,0
11,0
12,0
13,0
14,0
15,0
16,0
17,0
18,0
19,0
20,0
21,0
22,0
23,0
24,0
25,0
26,0
27,0
28,0
29,0
30,0
31,0
32,0
33,0
34,0
35,0
36,0
37,0
38,0
39,0
40,0
41,0
42,0
43,0
44,0
45,0
46,0
47,0
48,0
49,0
50,0
51,0
52,0
53,0
54,0
55,0
56,0
57,0
58,0
59,0
60,0
61,0
62,0
63,0
64,0
65,0
66,0
67,0
68,0
69,0
70,0
71,0
72,0
73,0
74,0
75,0
76,0
77,0
78,0
79,0
80,0
81,0
82,0
83,0
84,0
85,0
86,0
87,0
88,0
89,0
90,0
91,0
92,0
93,0
94,0
95,0
96,0
97,0
98,0
99,0
100,0
101,0
102,0
103,0
104,0
105,0
106,0
107,0
108,0
109,0
110,0
111,0
112,0
113,0
114,0
115,0
116,0
117,0
118,0
119,0
120,0
121,0
122,0
123,0
124,0
125,0
126,0
127,0
128,0
129,0
130,0
131,0
132,0
133,0
134,0
135,0
136,0
137,0
138,0
139,0
140,0
141,0
142,0
143,0
144,0
145,0
146,0
147,0
148,0
149,0
150,0
151,0
152,0
153,0
154,0
155,0
156,0
157,0
158,0
159,0
160,0
161,0
162,0
163,0
164,0
165,0
166,0
167,0
168,0
169,0
170,0
171,0
172,0
173,0
174,0
175,0
176,0
177,0
178,0
179,0
180,0
181,0
182,0
183,0
184,0
185,0
186,0
187,0
188,0
189,0
190,0
191,0
192,0
193,0
194,0
195,0
196,0
197,0
198,0
199,0
200,0
201,0
202,0
203,0
204,0
205,0
206,0
207,0
208,0
209,0
210,0
211,0
212,1
213,1
214,1
215,1
216,1
217,1
218,1
219,1
220,1
221,2
222,2
223,2
224,2
225,3
226,3
227,3
228,3
229,3
230,3
231,3
232,3
233,3
234,3
235,3
236,4
237,4
238,4
239,4
240,4
241,5
242,5
243,5
244,5
245,5
246,5
247,5
248,5
249,5
250,5
251,5
252,5
253,5
254,5
255,6
256,6
257,6
258,6
259,6
260,6
261,6
262,6
263,6
264,6
265,6
266,6
267,6
268,6
269,6
270,6
271,6
272,6
273,6
274,6
275,6
276,6
277,6
278,6
279,6
280,6
281,7
282,7
283,7
284,7
285,7
286,7
287,8
288,8
289,8
290,8
291,9
292,9
293,9
294,9
295,9
296,9
297,9
298,9
299,9
300,9
301,10
302,10
303,10
304,10
305,10
306,10
307,10
308,10
309,11
310,11
311,11
312,11
313,11
314,11
315,11
316,11
317,11
318,11
319,11
320,11
321,11
322,11
323,11
324,11
325,11
326,11
327,11
328,12
329,12
330,12
331,12
332,12
333,12
334,12
335,13
336,13
337,13
338,14
339,14
340,14
341,14
342,14
343,14
344,14
345,14
346,14
347,14
348,14
349,14
350,14
351,14
352,14
353,14
354,15
355,15
356,15
357,15
358,15
359,15
360,16
361,16
362,16
363,16
364,16
365,16
366,16
367,16
368,16
369,16
370,16
371,16
372,16
373,16
374,16
375,16
376,16
377,16
378,16
379,16
380,16
381,16
382,16
383,16
384,16
385,16
386,16
387,16
388,17
389,17
390,17
391,18
392,18
393,18
394,18
395,18
396,18
397,18
398,18
399,18
400,18
401,18
402,18
403,19
404,19
405,19
406,19
407,19
408,19
409,19
410,19
411,20
412,20
413,21
414,21
415,21
416,21
417,21
418,21
419,21
420,21
421,21
422,21
423,21
424,21
425,21
426,21
427,21
428,21
429,21
430,21
431,21
432,21
433,21
434,21
435,21
436,21
437,21
438,21
439,21
440,21
441,21
442,21
443,21
444,21
445,21
446,21
447,21
448,22
449,22
450,22
451,22
452,22
453,22
454,22
455,22
456,22
457,22
458,22
459,22
460,22
461,22
462,23
463,23
464,23
465,23
466,23
467,23
468,23
469,23
470,23
471,23
472,23
473,23
474,23
475,23
476,24
477,24
478,24
479,24
480,24
481,24
482,24
483,24
484,24
485,24
486,24
487,24
488,24
489,24
490,24
491,24
492,24
493,25
494,25
495,25
496,25
497,25
498,25
499,25
500,25
501,25
502,25
503,25
504,25
505,26
506,26
507,26
508,26
509,26
510,26
511,26
512,27
513,27
514,27
515,27
516,27
517,27
518,27
519,27
520,27
521,27
522,27
523,27
524,27
525,28
526,28
527,28
528,28
529,28
530,28
531,28
532,28
533,29
534,29
535,29
536,29
537,30
538,30
539,30
540,30
541,30
542,30
543,30
544,30
545,30
546,30
547,30
548,30
549,30
550,30
551,30
552,30
553,30
554,30
555,30
556,30
557,30
558,30
559,31
560,31
561,31
562,31
563,31
564,31
565,31
566,31
567,31
568,31
569,31
570,31
571,31
572,31
573,31
574,31
575,31
576,31
577,31
578,31
579,31
580,31
581,31
582,31
583,31
584,31
585,31
586,31
587,31
588,31
589,31
590,31
591,31
592,31
593,32
594,32
595,32
596,32
597,32
598,32
599,32
600,32
601,32
602,32
603,32
604,33
605,33
606,33
607,33
608,33
609,33
610,33
611,33
612,33
613,33
614,33
615,33
616,33
617,33
618,33
619,33
620,33
621,33
622,33
623,33
624,34
625,34
626,34
627,34
628,34
629,34
630,34
631,34
632,34
633,34
634,34
635,34
636,34
637,34
638,34
639,34
640,34
641,34
642,34
643,34
644,34
645,34
646,34
647,34
648,34
649,34
650,34
651,34
652,34
653,34
654,34
655,34
656,34
657,34
658,34
659,34
660,34
661,34
662,34
663,34
664,34
665,34
666,34
667,34
668,35
669,35
670,35
671,35
672,35
673,35
674,35
675,36
676,36
677,36
678,36
679,36
680,36
681,37
682,37
683,37
684,37
685,38
686,38
687,39
688,39
689,39
690,39
691,39
692,39
693,39
694,39
695,39
696,39
697,39
698,39
699,39
700,39
701,39
702,39
703,39
704,40
705,40
706,40
707,40
708,40
709,40
710,40
711,40
712,40
713,40
714,40
715,40
716,40
717,40
718,41
719,41
720,41
721,41
722,41
723,41
724,41
725,41
726,41
727,42
728,42
729,42
730,42
731,42
732,42
733,42
734,42
735,42
736,42
737,42
738,42
739,42
740,42
741,42
742,42
743,42
744,42
745,43
746,43
747,43
748,43
749,43
750,43
751,43
752,43
753,43
754,43
755,43
756,43
757,43
758,43
759,43
760,43
761,43
762,43
763,43
764,43
765,43
766,43
767,43
768,43
769,43
770,43
771,43
772,43
773,43
774,43
775,43
776,43
777,43
778,44
779,44
780,44
781,44
782,44
783,44
784,44
785,46
786,46
787,46
788,46
789,46
790,46
791,46
792,47
793,47
794,47
795,47
796,47
797,47
798,47
799,47
800,48
801,48
802,48
803,48
804,48
805,48
806,48
807,48
808,48
809,48
810,48
811,48
812,48
813,48
814,48
815,48
816,48
817,48
818,48
819,48
820,48
821,48
822,48
823,49
824,49
825,50
826,50
827,50
828,50
829,50
830,50
831,50
832,51
833,51
834,51
835,51
836,51
837,51
838,52
839,52
840,52
841,52
842,52
843,52
844,52
845,52
846,52
847,52
848,52
849,52
850,52
851,52
852,52
853,52
854,52
855,52
856,52
857,52
858,53
859,53
860,53
861,53
862,53
863,53
864,53
865,53
866,54
867,54
868,54
869,54
870,54
871,54
872,54
873,54
874,54
875,54
876,54
877,54
878,54
879,54
880,54
881,54
882,54
883,54
884,54
885,54
886,54
887,54
888,54
889,54
890,54
891,54
892,54
893,54
894,54
895,54
896,54
897,54
898,54
899,54
900,54
901,55
902,55
903,55
904,55
905,55
906,55
907,55
908,55
909,55
910,55
911,55
912,55
913,55
914,56
915,56
916,56
917,56
918,56
919,56
920,56
921,56
922,56
923,56
924,56
925,56
926,56
927,56
928,57
929,57
930,57
931,57
932,57
933,57
934,57
935,57
936,57
937,57
938,57
939,57
940,57
941,57
942,58
943,58
944,58
945,58
946,58
947,58
948,58
949,58
950,58
951,58
952,58
953,58
954,58
955,58
956,58
957,58
958,58
959,58
960,58
961,58
962,58
963,58
964,58
965,58
966,58
967,58
968,58
969,58
970,58
971,58
972,58
973,58
974,58
975,58
976,58
977,58
978,58
979,58
980,58
981,59
982,59
983,59
984,59
985,59
986,59
987,59
988,59
989,59
990,59
991,59
992,59
993,59
994,60
995,60
996,60
997,60
998,60
999,60
1000,60
1001,60
1002,60
1003,60
1004,60
1005,60
1006,60
1007,60
1008,60
1009,60
1010,60
1011,60
1012,60
1013,60
1014,60
1015,60
1016,60
1017,60
1018,60
1019,60
1020,60
1021,60
1022,60
1023,60
1024,60
1025,60
1026,60
1027,60
1028,60
1029,60
1030,60
1031,60
1032,60
1033,61
1034,61
1035,61
1036,61
1037,61
1038,61
1039,61
1040,61
1041,61
1042,61
1043,61
1044,61
1045,61
1046,61
1047,61
1048,61
1049,61
1050,61
1051,61
1052,61
1053,61
1054,61
1055,61
1056,61
1057,61
1058,61
1059,61
1060,61
1061,61
1062,61
1063,61
1064,61
1065,61
1066,61
1067,61
1068,61
1069,61
1070,61
1071,61
1072,61
1073,61
1074,61
1075,61
1076,61
1077,61
1078,61
1079,61
1080,61
1081,61
1082,61
1083,61
1084,61
1085,61
1086,61
1087,62
1088,62
1089,62
1090,62
1091,62
1092,62
1093,62
1094,62
1095,62
1096,62
1097,62
1098,62
1099,62
1100,62
1101,62
1102,62
1103,62
1104,62
1105,62
1106,62
1107,62
1108,62
1109,62
1110,62
1111,62
1112,62
1113,62
1114,62
1115,62
1116,62
1117,62
1118,62
1119,62
1120,62
1121,62
1122,62
1123,62
1124,62
1125,62
1126,62
1127,62
1128,62
1129,62
1130,62
1131,62
1132,62
1133,62
1134,62
1135,62
1136,62
1137,62
1138,62
1139,62
1140,62
1141,62
1142,62
1143,62
1144,62
1145,62
1146,62
1147,62
1148,62
1149,62
1150,62
1151,62
1152,62
1153,62
1154,62
1155,62
1156,62
1157,62
1158,62
1159,62
1160,62
1161,62
1162,62
1163,62
1164,62
1165,62
1166,62
1167,62
1168,62
1169,62
1170,62
1171,62
1172,62
1173,62
1174,62
1175,62
1176,62
1177,62
1178,62
1179,62
1180,62
1181,62
1182,62
1183,62
1184,62
1185,62
1186,62
1187,62
1188,62
1189,62
1190,62
1191,62
1192,62
1193,62
1194,62
1195,62
1196,62
1197,62
1198,62
1199,62
1200,62
1201,62
1202,62
1203,62
1204,62
1205,62
1206,62
1207,62
1208,62
1209,62
1210,62
1211,62
1212,62
1213,62
1214,62
1215,62
1216,62
1217,62
1218,62
1219,62
1220,62
1221,62
1222,62
1223,62
1224,62
1225,62
1226,63
1227,63
1228,63
1229,63
1230,63
1231,63
1232,63
1233,63
1234,63
1235,63
1236,63
1237,63
1238,63
1239,63
1240,63
1241,63
1242,64
1243,64
1244,64
1245,64
1246,64
1247,64
1248,64
1249,64
1250,64
1251,64
1252,64
1253,64
1254,64
1255,65
1256,66
1257,66
1258,66
1259,66
1260,66
1261,66
1262,66
1263,66
1264,66
1265,66
1266,66
1267,66
1268,66
1269,66
1270,66
1271,66
1272,66
1273,66
1274,66
1275,66
1276,66
1277,66
1278,66
1279,66
1280,66
1281,66
1282,66
1283,66
1284,66
1285,66
1286,66
1287,66
1288,66
1289,66
1290,66
1291,66
1292,66
1293,66
1294,67
1295,67
1296,67
1297,67
1298,67
1299,67
1300,67
1301,67
1302,67
1303,67
1304,67
1305,67
1306,67
1307,67
1308,67
1309,68
1310,68
1311,69
1312,69
1313,69
1314,69
1315,69
1316,69
1317,69
1318,69
1319,69
1320,69
1321,69
1322,69
1323,69
1324,69
1325,69
1326,69
1327,69
1328,69
1329,69
1330,69
1331,69
1332,69
1333,69
1334,69
1335,69
1336,69
1337,69
1338,69
1339,69
1340,69
1341,69
1342,69
1343,69
1344,69
1345,69
1346,70
1347,70
1348,70
1349,70
1350,70
1351,70
1352,70
1353,70
1354,71
1355,71
1356,71
1357,71
1358,71
1359,71
1360,71
1361,71
1362,71
1363,71
1364,71
1365,71
1366,71
1367,71
1368,71
1369,71
1370,71
1371,71
1372,71
1373,71
1374,71
1375,71
1376,71
1377,71
1378,71
1379,72
1380,72
1381,72
1382,72
1383,72
1384,72
1385,72
1386,72
1387,72
1388,72
1389,72
1390,72
1391,72
1392,72
1393,72
1394,72
1395,72
1396,72
1397,72
1398,72
1399,72
1400,72
1401,72
1402,72
1403,72
1404,72
1405,72
1406,73
1407,74
1408,74
1409,74
1410,74
1411,74
1412,74
1413,74
1414,74
1415,74
1416,74
1417,74
1418,74
1419,74
1420,74
1421,74
1422,74
1423,74
1424,74
1425,74
1426,74
1427,74
1428,74
1429,74
1430,74
1431,74
1432,74
1433,74
1434,74
1435,74
1436,74
1437,74
1438,74
1439,74
1440,74
1441,75
1442,75
1443,75
1444,75
1445,75
1446,75
1447,75
1448,75
1449,75
1450,75
1451,75
1452,75
1453,75
1454,75
1455,75
1456,75
1457,75
1458,75
1459,75
1460,75
1461,75
1462,75
1463,75
1464,75
1465,75
1466,75
1467,75
1468,75
1469,75
1470,75
1471,75
1472,75
1473,75
1474,75
1475,75
1476,75
1477,76
1478,76
1479,76
1480,76
1481,76
1482,76
1483,76
1484,76
1485,76
1486,76
1487,76
1488,76
1489,76
1490,76
1491,76
1492,76
1493,76
1494,76
1495,76
1496,76
1497,76
1498,76
1499,76
1500,76
1501,76
1502,76
1503,76
1504,76
1505,76
1506,76
1507,76
1508,77
1509,77
1510,77
1511,77
1512,77
1513,77
1514,77
1515,77
1516,77
1517,77
1518,77
1519,77
1520,77
1521,77
1522,77
1523,77
1524,77
1525,77
1526,78
1527,78
1528,78
1529,78
1530,78
1531,78
1532,78
1533,78
1534,78
1535,78
1536,78
1537,78
1538,78
1539,78
1540,78
1541,78
1542,78
1543,78
1544,78
1545,78
1546,78
1547,78
1548,78
1549,78
1550,78
1551,78
1552,78
1553,78
1554,78
1555,78
1556,78
1557,78
1558,78
1559,78
1560,78
1561,78
1562,78
1563,79
1564,79
1565,79
1566,79
1567,80
1568,80
1569,80
1570,80
1571,80
1572,80
1573,80
1574,80
1575,80
1576,80
1577,80
1578,80
1579,80
1580,80
1581,80
1582,81
1583,81
1584,81
1585,81
1586,81
1587,81
1588,81
1589,81
1590,81
1591,81
1592,81
1593,81
1594,81
1595,81
1596,81
1597,81
1598,81
1599,81
1600,81
1601,81
1602,81
1603,81
1604,81
1605,81
1606,81
1607,81
1608,81
1609,81
1610,81
1611,81
1612,81
1613,81
1614,81
1615,81
1616,81
1617,82
1618,82
1619,82
1620,82
1621,82
1622,82
1623,84
1624,84
1625,84
1626,84
1627,84
1628,84
1629,84
1630,84
1631,84
1632,84
1633,84
1634,84
1635,84
1636,85
1637,85
1638,86
1639,86
1640,86
1641,86
1642,86
1643,86
1644,86
1645,86
1646,86
1647,86
1648,86
1649,86
1650,86
1651,86
1652,86
1653,86
1654,86
1655,86
1656,86
1657,86
1658,86
1659,86
1660,86
1661,86
1662,86
1663,86
1664,86
1665,86
1666,86
1667,86
1668,86
1669,86
1670,86
1671,86
1672,86
1673,86
1674,86
1675,86
1676,86
1677,86
1678,86
1679,86
1680,86
1681,86
1682,86
1683,86
1684,86
1685,86
1686,86
1687,86
1688,86
1689,86
1690,86
1691,86
1692,86
1693,86
1694,86
1695,86
1696,86
1697,86
1698,86
1699,86
1700,86
1701,86
1702,86
1703,86
1704,86
1705,86
1706,86
1707,86
1708,86
1709,86
1710,86
1711,86
1712,86
1713,86
1714,86
1715,86
1716,86
1717,86
1718,87
1719,87
1720,87
1721,87
1722,87
1723,87
1724,87
1725,87
1726,87
1727,87
1728,87
1729,87
1730,87
1731,87
1732,87
1733,87
1734,87
1735,87
1736,87
1737,87
1738,87
1739,87
1740,88
1741,88
1742,88
1743,88
1744,88
1745,89
1746,89
1747,89
1748,90
1749,90
1750,90
1751,90
1752,90
1753,90
1754,90
1755,90
1756,90
1757,90
1758,90
1759,90
1760,90
1761,90
1762,90
1763,90
1764,90
1765,90
1766,90
1767,90
1768,91
1769,91
1770,91
1771,91
1772,91
1773,91
1774,91
1775,91
1776,91
1777,91
1778,91
1779,91
1780,91
1781,91
1782,91
1783,91
1784,91
1785,91
1786,91
1787,91
1788,91
1789,91
1790,91
1791,91
1792,91
1793,91
1794,91
1795,91
1796,91
1797,91
1798,91
1799,91
1800,91
1801,91
1802,91
1803,92
1804,92
1805,92
1806,92
1807,92
1808,92
1809,92
1810,92
1811,92
1812,93
1813,93
1814,93
1815,93
1816,93
1817,93
1818,93
1819,93
1820,93
1821,93
1822,93
1823,94
1824,94
1825,94
1826,94
1827,94
1828,94
1829,94
1830,94
1831,94
1832,94
1833,94
1834,94
1835,94
1836,94
1837,94
1838,94
1839,94
1840,94
1841,94
1842,94
1843,95
1844,95
1845,95
1846,95
1847,95
1848,95
1849,95
1850,96
1851,96
1852,96
1853,96
1854,96
1855,96
1856,96
1857,96
1858,96
1859,96
1860,96
1861,96
1862,96
1863,96
1864,96
1865,96
1866,96
1867,96
1868,96
1869,96
1870,96
1871,96
1872,96
1873,96
1874,96
1875,96
1876,96
1877,96
1878,96
1879,96
1880,96
1881,97
1882,98
1883,98
1884,98
1885,98
1886,98
1887,98
1888,98
1889,98
1890,98
1891,98
1892,98
1893,98
1894,98
1895,98
1896,98
1897,98
1898,98
1899,98
1900,98
1901,98
1902,98
1903,98
1904,98
1905,98
1906,98
1907,98
1908,98
1909,98
1910,98
1911,98
1912,98
1913,98
1914,98
1915,98
1916,98
1917,98
1918,98
1919,98
1920,98
1921,98
1922,99
1923,100
1924,100
1925,100
1926,100
1927,100
1928,100
1929,100
1930,100
1931,100
1932,100
1933,100
1934,100
1935,100
1936,100
1937,100
1938,100
1939,100
1940,100
1941,100
1942,100
1943,100
1944,100
1945,100
1946,100
1947,100
1948,100
1949,100
1950,100
1951,101
1952,101
1953,101
1954,101
1955,101
1956,101
1957,102
1958,102
1959,102
1960,102
1961,102
1962,102
1963,102
1964,103
1965,103
1966,103
1967,103
1968,103
1969,104
1970,104
1971,104
1972,104
1973,104
1974,104
1975,104
1976,104
1977,104
1978,104
1979,104
1980,104
1981,104
1982,104
1983,105
1984,105
1985,105
1986,105
1987,105
1988,105
1989,105
1990,105
1991,105
1992,105
1993,105
1994,106
1995,107
1996,107
1997,107
1998,107
1999,107
2000,107
