"tick","total"
0,0
1,0
2,0
3,0
4,0
5,0
6,0
7,0
8,0
9,0
10,0
11,0
12,0
13,0
14,0
15,0
16,0
17,0
18,0
19,0
20,0
21,0
22,0
23,0
24,0
25,0
26,0
27,0
28,0
29,0
30,0
31,0
32,0
33,0
34,0
35,0
36,0
37,0
38,0
39,0
40,0
41,0
42,0
43,0
44,0
45,0
46,0
47,0
48,0
49,0
50,0
51,0
52,0
53,0
54,0
55,0
56,0
57,0
58,0
59,0
60,0
61,0
62,0
63,0
64,0
65,0
66,0
67,0
68,0
69,0
70,0
71,0
72,0
73,0
74,0
75,0
76,0
77,0
78,0
79,0
80,0
81,0
82,0
83,0
84,0
85,0
86,0
87,0
88,0
89,0
90,0
91,0
92,0
93,0
94,0
95,0
96,0
97,0
98,0
99,0
100,0
101,0
102,0
103,0
104,0
105,0
106,0
107,0
108,0
109,0
110,0
111,0
112,0
113,0
114,0
115,0
116,0
117,0
118,0
119,0
120,0
121,0
122,0
123,0
124,0
125,0
126,0
127,0
128,0
129,0
130,0
131,0
132,0
133,0
134,0
135,0
136,0
137,0
138,0
139,0
140,0
141,0
142,0
143,0
144,0
145,0
146,0
147,0
148,0
149,0
150,0
151,0
152,0
153,0
154,0
155,0
156,0
157,0
158,0
159,0
160,0
161,0
162,0
163,0
164,0
165,0
166,0
167,0
168,0
169,0
170,0
171,0
172,0
173,0
174,0
175,0
176,0
177,0
178,0
179,0
180,0
181,0
182,0
183,0
184,0
185,0
186,0
187,0
188,0
189,0
190,0
191,0
192,0
193,0
194,0
195,0
196,0
197,0
198,0
199,0
200,0
201,0
202,0
203,0
204,0
205,0
206,0
207,0
208,0
209,0
210,0
211,0
212,0
213,0
214,0
215,0
216,0
217,0
218,0
219,0
220,0
221,0
222,0
223,0
224,0
225,0
226,0
227,0
228,0
229,0
230,0
231,0
232,0
233,0
234,0
235,0
236,0
237,0
238,0
239,0
240,0
241,0
242,1
243,1
244,1
245,1
246,1
247,1
248,1
249,3
250,3
251,3
252,3
253,3
254,3
255,3
256,3
257,3
258,3
259,3
260,3
261,4
262,4
263,4
264,4
265,4
266,4
267,4
268,4
269,4
270,5
271,5
272,5
273,5
274,5
275,5
276,6
277,6
278,6
279,6
280,6
281,6
282,6
283,6
284,6
285,6
286,6
287,6
288,6
289,6
290,6
291,7
292,7
293,8
294,8
295,8
296,9
297,9
298,10
299,10
300,10
301,10
302,10
303,11
304,11
305,11
306,11
307,12
308,12
309,12
310,12
311,12
312,12
313,12
314,12
315,12
316,12
317,12
318,12
319,12
320,12
321,12
322,12
323,12
324,12
325,12
326,12
327,13
328,14
329,14
330,14
331,15
332,15
333,15
334,15
335,15
336,15
337,15
338,15
339,15
340,15
341,15
342,15
343,15
344,15
345,16
346,16
347,16
348,16
349,16
350,16
351,17
352,18
353,18
354,18
355,18
356,18
357,19
358,19
359,19
360,19
361,19
362,20
363,20
364,20
365,20
366,20
367,20
368,20
369,20
370,20
371,21
372,21
373,21
374,21
375,21
376,22
377,22
378,22
379,22
380,22
381,23
382,23
383,23
384,23
385,23
386,23
387,23
388,23
389,23
390,23
391,23
392,23
393,24
394,24
395,24
396,24
397,25
398,26
399,26
400,27
401,27
402,27
403,27
404,27
405,27
406,27
407,27
408,27
409,27
410,27
411,27
412,27
413,27
414,28
415,28
416,28
417,28
418,28
419,28
420,28
421,28
422,28
423,28
424,28
425,28
426,28
427,29
428,29
429,29
430,29
431,29
432,29
433,29
434,29
435,29
436,29
437,29
438,29
439,29
440,29
441,30
442,30
443,30
444,30
445,30
446,30
447,30
448,30
449,30
450,30
451,30
452,30
453,30
454,30
455,30
456,30
457,30
458,30
459,30
460,30
461,30
462,30
463,30
464,30
465,30
466,30
467,30
468,30
469,30
470,30
471,30
472,30
473,30
474,30
475,30
476,30
477,30
478,30
479,30
480,30
481,30
482,30
483,30
484,30
485,30
486,30
487,30
488,30
489,30
490,30
491,30
492,30
493,30
494,30
495,30
496,30
497,30
498,30
499,30
500,30
501,30
502,30
503,30
504,30
505,30
506,30
507,30
508,30
509,30
510,30
511,30
512,30
513,30
514,30
515,30
516,30
517,30
518,30
519,30
520,30
521,30
522,30
523,30
524,30
525,30
526,30
527,30
528,30
529,30
530,30
531,30
532,30
533,30
534,30
535,30
536,30
537,30
538,30
539,30
540,30
541,30
542,30
543,30
544,30
545,30
546,31
547,31
548,31
549,31
550,31
551,31
552,31
553,31
554,31
555,31
556,31
557,31
558,31
559,31
560,31
561,31
562,31
563,31
564,31
565,31
566,31
567,31
568,31
569,31
570,31
571,31
572,31
573,31
574,31
575,31
576,31
577,32
578,32
579,32
580,32
581,32
582,32
583,32
584,32
585,32
586,32
587,32
588,32
589,32
590,32
591,32
592,32
593,32
594,32
595,32
596,32
597,32
598,32
599,32
600,32
601,32
602,32
603,32
604,32
605,32
606,32
607,32
608,32
609,32
610,32
611,32
612,32
613,32
614,32
615,32
616,32
617,32
618,32
619,32
620,32
621,32
622,32
623,32
624,32
625,32
626,32
627,32
628,32
629,32
630,33
631,33
632,33
633,33
634,33
635,33
636,33
637,33
638,34
639,34
640,34
641,34
642,34
643,34
644,34
645,34
646,34
647,34
648,34
649,34
650,34
651,34
652,34
653,34
654,34
655,34
656,34
657,34
658,34
659,34
660,34
661,34
662,34
663,34
664,34
665,34
666,34
667,34
668,34
669,34
670,34
671,34
672,34
673,34
674,34
675,35
676,35
677,35
678,35
679,35
680,36
681,36
682,36
683,36
684,36
685,36
686,36
687,36
688,36
689,36
690,36
691,36
692,36
693,36
694,36
695,36
696,36
697,36
698,36
699,36
700,36
701,36
702,36
703,36
704,36
705,36
706,36
707,36
708,36
709,36
710,36
711,36
712,36
713,36
714,36
715,36
716,36
717,36
718,36
719,36
720,36
721,36
722,36
723,36
724,36
725,36
726,36
727,36
728,36
729,37
730,37
731,37
732,37
733,37
734,37
735,37
736,37
737,37
738,37
739,37
740,37
741,37
742,37
743,37
744,37
745,37
746,37
747,37
748,37
749,37
750,37
751,37
752,37
753,37
754,37
755,37
756,37
757,37
758,37
759,37
760,37
761,37
762,37
763,37
764,37
765,37
766,37
767,37
768,37
769,37
770,37
771,37
772,37
773,37
774,37
775,37
776,37
777,37
778,37
779,37
780,37
781,37
782,37
783,37
784,37
785,37
786,37
787,37
788,37
789,37
790,37
791,37
792,37
793,37
794,38
795,38
796,38
797,38
798,38
799,38
800,38
801,38
802,38
803,38
804,38
805,38
806,38
807,38
808,39
809,39
810,39
811,39
812,40
813,40
814,40
815,40
816,40
817,40
818,41
819,41
820,41
821,41
822,41
823,41
824,41
825,41
826,41
827,41
828,41
829,41
830,42
831,42
832,42
833,42
834,42
835,42
836,42
837,42
838,42
839,42
840,42
841,42
842,42
843,42
844,42
845,42
846,42
847,43
848,43
849,43
850,43
851,43
852,43
853,43
854,43
855,43
856,43
857,43
858,43
859,44
860,44
861,44
862,44
863,44
864,44
865,44
866,44
867,44
868,44
869,44
870,44
871,44
872,44
873,45
874,45
875,45
876,45
877,45
878,45
879,45
880,45
881,45
882,45
883,45
884,45
885,45
886,45
887,45
888,45
889,45
890,45
891,45
892,45
893,45
894,45
895,45
896,45
897,45
898,45
899,45
900,45
901,45
902,45
903,45
904,45
905,45
906,45
907,45
908,45
909,45
910,46
911,46
912,46
913,46
914,46
915,46
916,46
917,46
918,46
919,47
920,47
921,47
922,47
923,47
924,47
925,47
926,47
927,47
928,47
929,47
930,47
931,47
932,47
933,47
934,47
935,47
936,47
937,47
938,47
939,47
940,47
941,47
942,47
943,47
944,47
945,47
946,47
947,47
948,47
949,47
950,47
951,47
952,47
953,47
954,47
955,47
956,47
957,47
958,47
959,47
960,47
961,47
962,47
963,47
964,47
965,47
966,47
967,47
968,47
969,47
970,47
971,47
972,47
973,47
974,47
975,47
976,47
977,48
978,48
979,49
980,49
981,49
982,49
983,49
984,49
985,49
986,49
987,49
988,49
989,49
990,49
991,50
992,50
993,50
994,50
995,50
996,50
997,50
998,50
999,50
1000,51
1001,51
1002,51
1003,51
1004,51
1005,51
1006,51
1007,51
1008,51
1009,51
1010,51
1011,51
1012,51
1013,51
1014,51
1015,51
1016,51
1017,51
1018,51
1019,52
1020,52
1021,52
1022,52
1023,52
1024,52
1025,52
1026,52
1027,52
1028,52
1029,52
1030,52
1031,52
1032,52
1033,52
1034,52
1035,52
1036,52
1037,52
1038,52
1039,52
1040,52
1041,52
1042,52
1043,52
1044,52
1045,52
1046,52
1047,52
1048,52
1049,52
1050,52
1051,52
1052,52
1053,52
1054,52
1055,52
1056,52
1057,52
1058,52
1059,52
1060,52
1061,52
1062,52
1063,52
1064,52
1065,52
1066,52
1067,52
1068,52
1069,52
1070,52
1071,52
1072,52
1073,52
1074,52
1075,52
1076,52
1077,52
1078,53
1079,53
1080,53
1081,53
1082,53
1083,53
1084,53
1085,53
1086,53
1087,53
1088,53
1089,53
1090,53
1091,54
1092,54
1093,55
1094,55
1095,55
1096,55
1097,55
1098,55
1099,55
1100,55
1101,55
1102,55
1103,55
1104,55
1105,55
1106,55
1107,55
1108,55
1109,55
1110,55
1111,55
1112,55
1113,56
1114,56
1115,56
1116,56
1117,56
1118,56
1119,56
1120,57
1121,58
1122,58
1123,58
1124,58
1125,58
1126,58
1127,58
1128,58
1129,58
1130,58
1131,58
1132,58
1133,58
1134,58
1135,58
1136,58
1137,58
1138,58
1139,58
1140,59
1141,60
1142,60
1143,60
1144,60
1145,60
1146,60
1147,60
1148,60
1149,60
1150,60
1151,60
1152,60
1153,60
1154,60
1155,60
1156,60
1157,60
1158,60
1159,60
1160,60
1161,60
1162,61
1163,61
1164,61
1165,61
1166,61
1167,61
1168,61
1169,61
1170,61
1171,61
1172,61
1173,61
1174,61
1175,61
1176,61
1177,61
1178,61
1179,61
1180,61
1181,61
1182,61
1183,61
1184,61
1185,61
1186,61
1187,61
1188,61
1189,61
1190,61
1191,61
1192,61
1193,61
1194,61
1195,61
1196,61
1197,61
1198,61
1199,61
1200,61
1201,61
1202,61
1203,61
1204,61
1205,61
1206,61
1207,61
1208,61
1209,61
1210,61
1211,61
1212,61
1213,61
1214,61
1215,61
1216,61
1217,61
1218,61
1219,61
1220,61
1221,61
1222,61
1223,61
1224,61
1225,61
1226,61
1227,61
1228,61
1229,61
1230,61
1231,61
1232,61
1233,61
1234,61
1235,61
1236,61
1237,61
1238,61
1239,61
1240,61
1241,61
1242,61
1243,61
1244,61
1245,61
1246,61
1247,61
1248,61
1249,61
1250,61
1251,61
1252,61
1253,61
1254,61
1255,61
1256,61
1257,61
1258,61
1259,61
1260,61
1261,61
1262,61
1263,61
1264,61
1265,61
1266,61
1267,61
1268,61
1269,62
1270,62
1271,62
1272,62
1273,63
1274,63
1275,63
1276,63
1277,64
1278,64
1279,64
1280,64
1281,64
1282,64
1283,64
1284,64
1285,64
1286,64
1287,64
1288,64
1289,64
1290,64
1291,64
1292,64
1293,64
1294,64
1295,64
1296,64
1297,64
1298,64
1299,64
1300,64
1301,64
1302,64
1303,64
1304,64
1305,64
1306,64
1307,64
1308,64
1309,64
1310,64
1311,64
1312,64
1313,64
1314,64
1315,64
1316,64
1317,64
1318,64
1319,64
1320,64
1321,64
1322,65
1323,66
1324,66
1325,66
1326,66
1327,66
1328,66
1329,66
1330,66
1331,66
1332,66
1333,67
1334,67
1335,67
1336,67
1337,67
1338,67
1339,67
1340,68
1341,68
1342,68
1343,68
1344,68
1345,69
1346,70
1347,70
1348,70
1349,70
1350,70
1351,70
1352,70
1353,70
1354,70
1355,70
1356,70
1357,71
1358,71
1359,71
1360,71
1361,71
1362,71
1363,71
1364,71
1365,71
1366,71
1367,71
1368,71
1369,71
1370,71
1371,71
1372,71
1373,71
1374,71
1375,71
1376,71
1377,71
1378,71
1379,71
1380,71
1381,71
1382,71
1383,71
1384,71
1385,71
1386,71
1387,71
1388,72
1389,72
1390,72
1391,72
1392,72
1393,72
1394,72
1395,72
1396,72
1397,72
1398,72
1399,73
1400,73
1401,73
1402,73
1403,73
1404,73
1405,73
1406,73
1407,73
1408,73
1409,73
1410,73
1411,74
1412,74
1413,74
1414,74
1415,74
1416,74
1417,74
1418,74
1419,74
1420,74
1421,74
1422,74
1423,75
1424,75
1425,75
1426,76
1427,76
1428,77
1429,77
1430,77
1431,77
1432,77
1433,77
1434,77
1435,77
1436,77
1437,77
1438,77
1439,77
1440,78
1441,78
1442,78
1443,78
1444,78
1445,78
1446,78
1447,78
1448,78
1449,78
1450,78
1451,78
1452,78
1453,78
1454,78
1455,78
1456,78
1457,78
1458,78
1459,78
1460,78
1461,78
1462,78
1463,78
1464,78
1465,78
1466,78
1467,78
1468,78
1469,78
1470,78
1471,78
1472,79
1473,79
1474,79
1475,79
1476,79
1477,79
1478,79
1479,79
1480,79
1481,79
1482,79
1483,80
1484,80
1485,80
1486,80
1487,80
1488,80
1489,80
1490,80
1491,80
1492,81
1493,81
1494,81
1495,81
1496,81
1497,81
1498,82
1499,82
1500,82
1501,82
1502,82
1503,82
1504,82
1505,82
1506,82
1507,82
1508,82
1509,82
1510,82
1511,82
1512,82
1513,82
1514,82
1515,82
1516,82
1517,82
1518,82
1519,82
1520,82
1521,82
1522,82
1523,82
1524,82
1525,82
1526,82
1527,82
1528,82
1529,82
1530,82
1531,82
1532,82
1533,82
1534,82
1535,82
1536,82
1537,82
1538,82
1539,82
1540,82
1541,82
1542,82
1543,82
1544,82
1545,82
1546,82
1547,82
1548,82
1549,82
1550,82
1551,82
1552,82
1553,82
1554,82
1555,82
1556,82
1557,82
1558,82
1559,82
1560,82
1561,82
1562,82
1563,82
1564,82
1565,82
1566,82
1567,82
1568,82
1569,82
1570,82
1571,82
1572,82
1573,82
1574,82
1575,82
1576,82
1577,82
1578,82
1579,82
1580,82
1581,82
1582,82
1583,82
1584,82
1585,82
1586,82
1587,82
1588,82
1589,82
1590,82
1591,82
1592,82
1593,82
1594,82
1595,83
1596,84
1597,84
1598,84
1599,84
1600,84
1601,85
1602,85
1603,85
1604,85
1605,85
1606,85
1607,85
1608,85
1609,85
1610,85
1611,85
1612,85
1613,85
1614,86
1615,86
1616,86
1617,86
1618,86
1619,86
1620,86
1621,86
1622,86
1623,86
1624,86
1625,87
1626,87
1627,87
1628,87
1629,87
1630,87
1631,87
1632,87
1633,87
1634,87
1635,87
1636,87
1637,87
1638,87
1639,87
1640,87
1641,87
1642,87
1643,87
1644,87
1645,87
1646,87
1647,87
1648,87
1649,87
1650,87
1651,87
1652,87
1653,87
1654,87
1655,87
1656,87
1657,87
1658,88
1659,88
1660,88
1661,88
1662,89
1663,89
1664,89
1665,89
1666,89
1667,89
1668,89
1669,89
1670,89
1671,89
1672,89
1673,90
1674,90
1675,90
1676,90
1677,90
1678,90
1679,90
1680,90
1681,90
1682,90
1683,90
1684,90
1685,90
1686,90
1687,90
1688,91
1689,91
1690,91
1691,91
1692,92
1693,92
1694,93
1695,93
1696,93
1697,93
1698,93
1699,93
1700,93
1701,93
1702,93
1703,93
1704,93
1705,93
1706,93
1707,93
1708,93
1709,93
1710,93
1711,93
1712,93
1713,93
1714,93
1715,93
1716,93
1717,93
1718,93
1719,93
1720,93
1721,93
1722,93
1723,93
1724,93
1725,93
1726,93
1727,93
1728,93
1729,93
1730,93
1731,93
1732,93
1733,93
1734,93
1735,93
1736,93
1737,93
1738,93
1739,93
1740,93
1741,93
1742,93
1743,93
1744,93
1745,93
1746,93
1747,93
1748,93
1749,93
1750,93
1751,93
1752,93
1753,93
1754,93
1755,93
1756,93
1757,93
1758,93
1759,93
1760,93
1761,93
1762,93
1763,93
1764,93
1765,93
1766,93
1767,93
1768,93
1769,93
1770,93
1771,93
1772,93
1773,93
1774,93
1775,93
1776,93
1777,93
1778,93
1779,93
1780,93
1781,93
1782,93
1783,93
1784,93
1785,93
1786,93
1787,93
1788,93
1789,93
1790,93
1791,93
1792,93
1793,94
1794,94
1795,94
1796,94
1797,94
1798,94
1799,94
1800,94
1801,94
1802,94
1803,94
1804,94
1805,94
1806,94
1807,95
1808,95
1809,95
1810,95
1811,95
1812,95
1813,95
1814,95
1815,95
1816,95
1817,95
1818,95
1819,95
1820,95
1821,95
1822,95
1823,95
1824,95
1825,95
1826,95
1827,96
1828,96
1829,96
1830,96
1831,96
1832,96
1833,96
1834,96
1835,96
1836,97
1837,97
1838,97
1839,97
1840,97
1841,97
1842,97
1843,97
1844,97
1845,97
1846,97
1847,97
1848,97
1849,97
1850,97
1851,97
1852,97
1853,97
1854,97
1855,97
1856,97
1857,98
1858,98
1859,98
1860,98
1861,98
1862,98
1863,98
1864,98
1865,98
1866,98
1867,98
1868,98
1869,98
1870,98
1871,98
1872,98
1873,98
1874,98
1875,98
1876,98
1877,98
1878,98
1879,98
1880,98
1881,98
1882,98
1883,98
1884,98
1885,98
1886,98
1887,98
1888,98
1889,98
1890,98
1891,98
1892,98
1893,99
1894,99
1895,99
1896,99
1897,99
1898,99
1899,99
1900,99
1901,99
1902,99
1903,99
1904,99
1905,99
1906,99
1907,99
1908,99
1909,99
1910,99
1911,99
1912,99
1913,99
1914,99
1915,99
1916,99
1917,99
1918,99
1919,99
1920,99
1921,99
1922,99
1923,99
1924,99
1925,99
1926,99
1927,99
1928,99
1929,99
1930,99
1931,99
1932,99
1933,99
1934,99
1935,99
1936,99
1937,99
1938,99
1939,99
1940,99
1941,99
1942,99
1943,99
1944,99
1945,99
1946,99
1947,99
1948,99
1949,99
1950,99
1951,99
1952,99
1953,99
1954,99
1955,99
1956,99
1957,99
1958,99
1959,99
1960,99
1961,99
1962,99
1963,100
1964,100
1965,101
1966,101
1967,101
1968,101
1969,102
1970,102
1971,102
1972,102
1973,102
1974,102
1975,102
1976,102
1977,102
1978,102
1979,102
1980,102
1981,102
1982,102
1983,102
1984,102
1985,102
1986,102
1987,102
1988,102
1989,102
1990,102
1991,103
1992,103
1993,103
1994,103
1995,104
1996,104
1997,104
1998,104
1999,104
2000,104
