"tick","total"
0,0
1,0
2,0
3,0
4,0
5,0
6,0
7,0
8,0
9,0
10,0
11,0
12,0
13,0
14,0
15,0
16,0
17,0
18,0
19,0
20,0
21,0
22,0
23,0
24,0
25,0
26,0
27,0
28,0
29,0
30,0
31,0
32,0
33,0
34,0
35,0
36,0
37,0
38,0
39,0
40,0
41,0
42,0
43,0
44,0
45,0
46,0
47,0
48,0
49,0
50,0
51,0
52,0
53,0
54,0
55,0
56,0
57,0
58,0
59,0
60,0
61,0
62,0
63,0
64,0
65,0
66,0
67,0
68,0
69,0
70,0
71,0
72,0
73,0
74,0
75,0
76,0
77,0
78,0
79,0
80,0
81,0
82,0
83,0
84,0
85,0
86,0
87,0
88,0
89,0
90,0
91,0
92,0
93,0
94,0
95,0
96,0
97,0
98,0
99,0
100,0
101,0
102,0
103,0
104,0
105,0
106,0
107,0
108,0
109,0
110,0
111,0
112,0
113,0
114,0
115,0
116,0
117,0
118,0
119,0
120,0
121,0
122,0
123,0
124,0
125,0
126,0
127,0
128,1
129,1
130,1
131,1
132,1
133,1
134,1
135,1
136,1
137,1
138,1
139,1
140,1
141,1
142,1
143,1
144,1
145,1
146,1
147,2
148,2
149,2
150,2
151,2
152,2
153,3
154,3
155,3
156,3
157,3
158,3
159,3
160,3
161,3
162,3
163,4
164,5
165,5
166,5
167,5
168,6
169,6
170,6
171,6
172,6
173,6
174,6
175,6
176,6
177,6
178,6
179,6
180,6
181,7
182,7
183,8
184,8
185,8
186,8
187,8
188,8
189,8
190,8
191,9
192,9
193,9
194,9
195,10
196,10
197,10
198,10
199,10
200,10
201,10
202,10
203,10
204,10
205,10
206,10
207,10
208,10
209,10
210,10
211,10
212,10
213,10
214,11
215,11
216,11
217,11
218,12
219,12
220,12
221,12
222,12
223,12
224,12
225,14
226,14
227,14
228,14
229,14
230,14
231,14
232,14
233,14
234,14
235,14
236,14
237,15
238,16
239,16
240,16
241,16
242,16
243,16
244,16
245,16
246,16
247,16
248,16
249,16
250,16
251,16
252,16
253,16
254,16
255,17
256,17
257,17
258,17
259,17
260,17
261,17
262,17
263,17
264,18
265,18
266,18
267,18
268,18
269,18
270,18
271,18
272,18
273,18
274,18
275,18
276,18
277,18
278,18
279,20
280,20
281,21
282,21
283,21
284,22
285,22
286,22
287,22
288,22
289,22
290,22
291,22
292,22
293,22
294,22
295,22
296,22
297,22
298,22
299,22
300,23
301,23
302,23
303,23
304,23
305,24
306,24
307,24
308,24
309,24
310,24
311,24
312,24
313,24
314,24
315,24
316,24
317,24
318,25
319,25
320,25
321,25
322,25
323,25
324,25
325,25
326,25
327,25
328,25
329,25
330,25
331,25
332,25
333,25
334,25
335,25
336,25
337,25
338,25
339,25
340,25
341,25
342,25
343,25
344,25
345,25
346,25
347,25
348,25
349,25
350,25
351,25
352,25
353,25
354,25
355,25
356,25
357,25
358,25
359,25
360,25
361,25
362,25
363,25
364,25
365,26
366,26
367,26
368,26
369,26
370,26
371,26
372,26
373,26
374,26
375,26
376,26
377,26
378,26
379,26
380,26
381,26
382,26
383,26
384,27
385,27
386,27
387,27
388,27
389,27
390,27
391,27
392,27
393,27
394,27
395,27
396,27
397,27
398,27
399,28
400,28
401,28
402,28
403,28
404,28
405,28
406,29
407,29
408,29
409,29
410,30
411,30
412,30
413,30
414,30
415,30
416,31
417,31
418,31
419,31
420,31
421,31
422,31
423,31
424,31
425,31
426,31
427,31
428,31
429,31
430,31
431,31
432,31
433,31
434,31
435,31
436,31
437,31
438,32
439,32
440,32
441,32
442,32
443,32
444,32
445,32
446,32
447,33
448,33
449,33
450,34
451,34
452,34
453,34
454,34
455,34
456,34
457,34
458,34
459,34
460,35
461,35
462,35
463,35
464,35
465,36
466,36
467,36
468,36
469,36
470,36
471,36
472,36
473,36
474,36
475,36
476,36
477,36
478,36
479,36
480,36
481,36
482,36
483,36
484,36
485,36
486,36
487,36
488,36
489,36
490,36
491,36
492,36
493,36
494,36
495,36
496,36
497,36
498,36
499,36
500,36
501,36
502,36
503,36
504,36
505,36
506,36
507,36
508,36
509,36
510,36
511,36
512,36
513,36
514,36
515,37
516,37
517,37
518,37
519,37
520,38
521,38
522,38
523,38
524,38
525,38
526,38
527,38
528,38
529,38
530,38
531,38
532,38
533,39
534,39
535,40
536,40
537,40
538,40
539,40
540,40
541,40
542,40
543,40
544,40
545,40
546,40
547,40
548,40
549,40
550,40
551,40
552,40
553,40
554,40
555,40
556,40
557,40
558,40
559,40
560,40
561,40
562,40
563,41
564,41
565,41
566,41
567,41
568,41
569,41
570,41
571,41
572,41
573,41
574,41
575,41
576,41
577,41
578,41
579,41
580,41
581,41
582,41
583,41
584,41
585,41
586,41
587,41
588,41
589,41
590,41
591,41
592,41
593,41
594,41
595,41
596,41
597,41
598,41
599,41
600,41
601,41
602,41
603,41
604,41
605,41
606,42
607,42
608,42
609,42
610,42
611,42
612,42
613,42
614,42
615,42
616,42
617,42
618,42
619,42
620,42
621,42
622,42
623,42
624,42
625,42
626,42
627,42
628,42
629,42
630,42
631,42
632,42
633,42
634,42
635,42
636,42
637,42
638,42
639,42
640,42
641,42
642,43
643,44
644,45
645,45
646,45
647,45
648,45
649,45
650,45
651,45
652,45
653,45
654,45
655,45
656,45
657,45
658,45
659,45
660,45
661,45
662,45
663,45
664,45
665,45
666,45
667,45
668,45
669,46
670,47
671,47
672,47
673,47
674,47
675,47
676,47
677,47
678,47
679,47
680,47
681,48
682,48
683,48
684,48
685,48
686,48
687,48
688,48
689,48
690,48
691,48
692,48
693,48
694,48
695,48
696,48
697,48
698,48
699,48
700,48
701,48
702,48
703,48
704,48
705,48
706,48
707,48
708,48
709,48
710,48
711,48
712,48
713,48
714,48
715,48
716,49
717,50
718,50
719,50
720,50
721,50
722,50
723,50
724,50
725,50
726,50
727,50
728,50
729,50
730,50
731,50
732,50
733,50
734,51
735,51
736,51
737,51
738,51
739,52
740,52
741,52
742,52
743,52
744,52
745,52
746,52
747,52
748,52
749,52
750,52
751,52
752,52
753,52
754,52
755,53
756,53
757,53
758,53
759,54
760,54
761,54
762,54
763,54
764,54
765,54
766,54
767,54
768,54
769,54
770,54
771,54
772,54
773,54
774,55
775,55
776,55
777,56
778,56
779,57
780,57
781,57
782,57
783,57
784,57
785,57
786,57
787,57
788,57
789,58
790,58
791,59
792,59
793,59
794,59
795,59
796,59
797,59
798,59
799,59
800,59
801,59
802,59
803,60
804,60
805,60
806,60
807,61
808,61
809,61
810,61
811,61
812,61
813,61
814,61
815,61
816,61
817,61
818,61
819,61
820,61
821,61
822,61
823,61
824,61
825,61
826,61
827,61
828,61
829,61
830,61
831,61
832,61
833,61
834,62
835,62
836,62
837,62
838,62
839,63
840,63
841,63
842,63
843,63
844,63
845,63
846,63
847,63
848,63
849,63
850,63
851,63
852,64
853,64
854,64
855,64
856,64
857,64
858,64
859,64
860,64
861,64
862,64
863,64
864,64
865,64
866,64
867,64
868,64
869,64
870,64
871,64
872,64
873,64
874,64
875,64
876,64
877,65
878,65
879,65
880,65
881,65
882,65
883,65
884,65
885,65
886,65
887,65
888,65
889,65
890,66
891,66
892,66
893,66
894,66
895,66
896,66
897,66
898,66
899,66
900,66
901,66
902,66
903,66
904,66
905,67
906,67
907,67
908,67
909,67
910,67
911,67
912,67
913,67
914,67
915,67
916,67
917,67
918,67
919,67
920,67
921,67
922,67
923,67
924,67
925,67
926,67
927,67
928,67
929,67
930,67
931,67
932,68
933,68
934,68
935,68
936,68
937,68
938,68
939,68
940,68
941,68
942,68
943,68
944,68
945,68
946,68
947,68
948,68
949,68
950,68
951,68
952,68
953,68
954,68
955,68
956,68
957,68
958,68
959,68
960,68
961,68
962,68
963,68
964,68
965,68
966,70
967,70
968,72
969,72
970,72
971,72
972,72
973,72
974,72
975,72
976,73
977,73
978,73
979,73
980,73
981,73
982,73
983,73
984,73
985,73
986,73
987,73
988,73
989,73
990,73
991,73
992,73
993,73
994,73
995,73
996,73
997,73
998,73
999,73
1000,73
1001,73
1002,74
1003,74
1004,74
1005,74
1006,74
1007,75
1008,75
1009,75
1010,75
1011,75
1012,75
1013,75
1014,75
1015,75
1016,75
1017,75
1018,75
1019,75
1020,75
1021,76
1022,76
1023,76
1024,76
1025,76
1026,76
1027,76
1028,76
1029,76
1030,76
1031,76
1032,76
1033,76
1034,76
1035,76
1036,76
1037,76
1038,76
1039,76
1040,76
1041,77
1042,77
1043,77
1044,77
1045,77
1046,77
1047,77
1048,77
1049,77
1050,77
1051,77
1052,77
1053,77
1054,77
1055,78
1056,78
1057,78
1058,78
1059,78
1060,78
1061,78
1062,78
1063,78
1064,78
1065,78
1066,78
1067,78
1068,78
1069,79
1070,79
1071,79
1072,79
1073,79
1074,79
1075,79
1076,79
1077,79
1078,79
1079,79
1080,79
1081,79
1082,79
1083,79
1084,79
1085,79
1086,79
1087,79
1088,80
1089,80
1090,80
1091,80
1092,80
1093,80
1094,80
1095,80
1096,80
1097,80
1098,80
1099,80
1100,80
1101,81
1102,81
1103,81
1104,81
1105,81
1106,81
1107,81
1108,82
1109,82
1110,82
1111,82
1112,82
1113,82
1114,82
1115,82
1116,82
1117,82
1118,82
1119,82
1120,82
1121,82
1122,82
1123,82
1124,82
1125,82
1126,82
1127,82
1128,82
1129,82
1130,82
1131,82
1132,82
1133,82
1134,82
1135,82
1136,82
1137,82
1138,82
1139,82
1140,82
1141,82
1142,82
1143,82
1144,82
1145,82
1146,82
1147,82
1148,82
1149,82
1150,82
1151,82
1152,82
1153,82
1154,82
1155,83
1156,83
1157,83
1158,83
1159,83
1160,83
1161,83
1162,83
1163,83
1164,83
1165,83
1166,83
1167,83
1168,83
1169,83
1170,83
1171,84
1172,84
1173,84
1174,84
1175,84
1176,84
1177,84
1178,84
1179,84
1180,84
1181,84
1182,84
1183,84
1184,84
1185,84
1186,84
1187,84
1188,84
1189,84
1190,84
1191,84
1192,84
1193,84
1194,84
1195,84
1196,84
1197,84
1198,84
1199,84
1200,84
1201,84
1202,85
1203,85
1204,85
1205,85
1206,85
1207,85
1208,85
1209,85
1210,85
1211,85
1212,85
1213,85
1214,85
1215,85
1216,85
1217,85
1218,85
1219,86
1220,86
1221,86
1222,86
1223,86
1224,86
1225,86
1226,86
1227,86
1228,86
1229,86
1230,86
1231,86
1232,86
1233,86
1234,86
1235,86
1236,86
1237,86
1238,86
1239,86
1240,86
1241,86
1242,86
1243,86
1244,86
1245,86
1246,86
1247,87
1248,87
1249,87
1250,87
1251,87
1252,87
1253,87
1254,87
1255,87
1256,87
1257,87
1258,87
1259,87
1260,87
1261,87
1262,87
1263,87
1264,87
1265,87
1266,87
1267,88
1268,88
1269,88
1270,88
1271,88
1272,88
1273,88
1274,88
1275,88
1276,88
1277,88
1278,88
1279,88
1280,88
1281,88
1282,89
1283,89
1284,89
1285,89
1286,89
1287,89
1288,89
1289,89
1290,89
1291,89
1292,89
1293,89
1294,89
1295,89
1296,89
1297,89
1298,89
1299,89
1300,90
1301,90
1302,90
1303,90
1304,90
1305,91
1306,92
1307,92
1308,92
1309,93
1310,93
1311,93
1312,93
1313,93
1314,93
1315,93
1316,93
1317,93
1318,93
1319,93
1320,93
1321,93
1322,93
1323,93
1324,94
1325,94
1326,94
1327,94
1328,94
1329,94
1330,94
1331,95
1332,95
1333,95
1334,96
1335,96
1336,96
1337,96
1338,96
1339,96
1340,96
1341,96
1342,96
1343,96
1344,96
1345,97
1346,97
1347,97
1348,97
1349,98
1350,98
1351,98
1352,98
1353,98
1354,98
1355,98
1356,98
1357,98
1358,98
1359,98
1360,98
1361,98
1362,98
1363,98
1364,98
1365,99
1366,99
1367,99
1368,99
1369,99
1370,99
1371,99
1372,99
1373,99
1374,99
1375,99
1376,99
1377,99
1378,99
1379,99
1380,99
1381,99
1382,100
1383,100
1384,100
1385,100
1386,100
1387,100
1388,100
1389,100
1390,100
1391,100
1392,100
1393,100
1394,100
1395,100
1396,100
1397,100
1398,100
1399,100
1400,100
1401,100
1402,100
1403,100
1404,100
1405,100
1406,100
1407,100
1408,100
1409,100
1410,100
1411,100
1412,100
1413,100
1414,100
1415,100
1416,100
1417,100
1418,100
1419,100
1420,100
1421,101
1422,101
1423,101
1424,101
1425,101
1426,101
1427,101
1428,101
1429,101
1430,101
1431,101
1432,101
1433,101
1434,101
1435,101
1436,101
1437,101
1438,101
1439,101
1440,101
1441,101
1442,101
1443,101
1444,101
1445,101
1446,101
1447,101
1448,101
1449,101
1450,101
1451,101
1452,101
1453,101
1454,101
1455,101
1456,101
1457,101
1458,101
1459,102
1460,102
1461,102
1462,102
1463,102
1464,102
1465,102
1466,103
1467,103
1468,103
1469,103
1470,103
1471,103
1472,103
1473,103
1474,103
1475,103
1476,103
1477,103
1478,103
1479,103
1480,103
1481,103
1482,103
1483,103
1484,103
1485,103
1486,103
1487,103
1488,103
1489,103
1490,103
1491,103
1492,103
1493,103
1494,103
1495,103
1496,103
1497,103
1498,103
1499,103
1500,103
1501,104
1502,104
1503,105
1504,105
1505,105
1506,105
1507,105
1508,105
1509,105
1510,105
1511,105
1512,105
1513,105
1514,105
1515,105
1516,105
1517,105
1518,105
1519,105
1520,105
1521,105
1522,106
1523,106
1524,106
1525,106
1526,106
1527,106
1528,106
1529,106
1530,106
1531,106
1532,106
1533,106
1534,106
1535,106
1536,106
1537,106
1538,106
1539,106
1540,106
1541,106
1542,106
1543,106
1544,106
1545,106
1546,106
1547,106
1548,106
1549,106
1550,106
1551,106
1552,106
1553,106
1554,106
1555,106
1556,106
1557,106
1558,106
1559,106
1560,106
1561,106
1562,106
1563,106
1564,106
1565,106
1566,106
1567,106
1568,106
1569,106
1570,106
1571,106
1572,106
1573,106
1574,106
1575,106
1576,107
1577,107
1578,107
1579,107
1580,107
1581,107
1582,107
1583,107
1584,107
1585,107
1586,107
1587,107
1588,107
1589,107
1590,107
1591,107
1592,107
1593,107
1594,107
1595,107
1596,107
1597,107
1598,107
1599,107
1600,107
1601,107
1602,107
1603,107
1604,107
1605,107
1606,107
1607,107
1608,107
1609,107
1610,107
1611,107
1612,107
1613,107
1614,107
1615,107
1616,107
1617,107
1618,107
1619,107
1620,107
1621,107
1622,107
1623,107
1624,107
1625,107
1626,107
1627,107
1628,107
1629,107
1630,107
1631,107
1632,107
1633,107
1634,107
1635,108
1636,108
1637,108
1638,108
1639,108
1640,108
1641,108
1642,108
1643,108
1644,108
1645,108
1646,108
1647,108
1648,108
1649,108
1650,108
1651,108
1652,108
1653,109
1654,109
1655,109
1656,109
1657,109
1658,109
1659,109
1660,109
1661,110
1662,110
1663,110
1664,110
1665,110
1666,110
1667,110
1668,110
1669,110
1670,110
1671,110
1672,110
1673,110
1674,110
1675,110
1676,110
1677,110
1678,110
1679,110
1680,110
1681,110
1682,110
1683,110
1684,110
1685,110
1686,110
1687,110
1688,110
1689,110
1690,110
1691,110
1692,110
1693,110
1694,110
1695,110
1696,110
1697,110
1698,111
1699,111
1700,111
1701,111
1702,111
1703,111
1704,112
1705,112
1706,112
1707,112
1708,113
1709,113
1710,113
1711,113
1712,113
1713,113
1714,113
1715,113
1716,114
1717,114
1718,114
1719,114
1720,114
1721,114
1722,114
1723,114
1724,114
1725,114
1726,114
1727,114
1728,114
1729,114
1730,115
1731,115
1732,115
1733,115
1734,115
1735,115
1736,115
1737,115
1738,115
1739,115
1740,115
1741,115
1742,115
1743,115
1744,115
1745,115
1746,115
1747,115
1748,115
1749,115
1750,115
1751,115
1752,115
1753,115
1754,115
1755,115
1756,115
1757,115
1758,115
1759,115
1760,115
1761,115
1762,115
1763,115
1764,116
1765,116
1766,116
1767,116
1768,116
1769,116
1770,116
1771,116
1772,116
1773,116
1774,116
1775,116
1776,116
1777,116
1778,117
1779,117
1780,117
1781,118
1782,118
1783,118
1784,118
1785,118
1786,118
1787,118
1788,118
1789,118
1790,119
1791,119
1792,119
1793,119
1794,119
1795,119
1796,119
1797,119
1798,119
1799,119
1800,119
1801,119
1802,119
1803,119
1804,119
1805,119
1806,119
1807,119
1808,119
1809,119
1810,119
1811,119
1812,119
1813,119
1814,119
1815,119
1816,119
1817,120
1818,120
1819,120
1820,120
1821,120
1822,120
1823,120
1824,120
1825,120
1826,121
1827,121
1828,121
1829,121
1830,121
1831,121
1832,121
1833,121
1834,121
1835,121
1836,121
1837,121
1838,121
1839,121
1840,121
1841,121
1842,121
1843,121
1844,121
1845,121
1846,121
1847,121
1848,121
1849,121
1850,121
1851,121
1852,121
1853,121
1854,121
1855,121
1856,121
1857,121
1858,121
1859,121
1860,121
1861,121
1862,121
1863,121
1864,121
1865,121
1866,121
1867,121
1868,121
1869,121
1870,121
1871,121
1872,121
1873,121
1874,122
1875,122
1876,122
1877,122
1878,122
1879,122
1880,122
1881,122
1882,122
1883,122
1884,122
1885,122
1886,122
1887,122
1888,122
1889,122
1890,122
1891,123
1892,123
1893,124
1894,124
1895,124
1896,124
1897,124
1898,124
1899,125
1900,125
1901,125
1902,125
1903,125
1904,125
1905,125
1906,125
1907,125
1908,125
1909,125
1910,126
1911,126
1912,126
1913,126
1914,126
1915,126
1916,126
1917,126
1918,126
1919,126
1920,126
1921,126
1922,126
1923,126
1924,126
1925,126
1926,126
1927,126
1928,126
1929,126
1930,126
1931,126
1932,127
1933,127
1934,127
1935,127
1936,127
1937,127
1938,127
1939,127
1940,127
1941,127
1942,127
1943,127
1944,127
1945,127
1946,127
1947,127
1948,127
1949,127
1950,127
1951,127
1952,127
1953,127
1954,128
1955,128
1956,128
1957,128
1958,128
1959,128
1960,128
1961,128
1962,128
1963,128
1964,128
1965,128
1966,129
1967,129
1968,129
1969,129
1970,129
1971,129
1972,129
1973,129
1974,129
1975,129
1976,129
1977,129
1978,129
1979,129
1980,129
1981,129
1982,129
1983,129
1984,129
1985,129
1986,129
1987,129
1988,129
1989,129
1990,129
1991,129
1992,129
1993,129
1994,129
1995,129
1996,129
1997,129
1998,129
1999,129
2000,129
