"tick","total"
0,0
1,1
2,1
3,1
4,1
5,1
6,1
7,1
8,1
9,1
10,1
11,1
12,1
13,1
14,1
15,1
16,1
17,1
18,1
19,1
20,1
21,1
22,1
23,1
24,1
25,1
26,1
27,1
28,1
29,1
30,1
31,1
32,1
33,1
34,1
35,1
36,1
37,1
38,1
39,1
40,1
41,1
42,1
43,1
44,1
45,1
46,1
47,1
48,1
49,1
50,1
51,1
52,1
53,1
54,1
55,1
56,1
57,1
58,1
59,1
60,1
61,1
62,1
63,1
64,1
65,1
66,1
67,1
68,1
69,1
70,1
71,1
72,1
73,1
74,1
75,1
76,1
77,1
78,1
79,1
80,1
81,1
82,1
83,1
84,1
85,1
86,1
87,1
88,1
89,1
90,1
91,1
92,1
93,1
94,1
95,1
96,1
97,1
98,1
99,1
100,1
101,1
102,1
103,1
104,1
105,1
106,1
107,1
108,1
109,1
110,1
111,1
112,1
113,1
114,1
115,1
116,1
117,1
118,1
119,1
120,1
121,1
122,1
123,1
124,1
125,1
126,1
127,1
128,1
129,1
130,1
131,1
132,1
133,1
134,1
135,1
136,1
137,1
138,1
139,1
140,1
141,1
142,1
143,1
144,1
145,1
146,1
147,1
148,1
149,1
150,1
151,1
152,1
153,1
154,1
155,1
156,1
157,1
158,1
159,1
160,1
161,1
162,1
163,1
164,1
165,1
166,1
167,1
168,1
169,1
170,1
171,1
172,1
173,1
174,1
175,1
176,1
177,1
178,1
179,1
180,1
181,1
182,1
183,1
184,1
185,1
186,1
187,1
188,1
189,1
190,1
191,1
192,1
193,1
194,1
195,1
196,1
197,1
198,1
199,1
200,1
201,1
202,1
203,1
204,1
205,1
206,1
207,1
208,1
209,1
210,1
211,1
212,1
213,1
214,1
215,1
216,1
217,1
218,1
219,1
220,2
221,2
222,2
223,2
224,2
225,2
226,3
227,3
228,3
229,3
230,3
231,3
232,3
233,3
234,3
235,3
236,3
237,3
238,3
239,3
240,3
241,3
242,3
243,3
244,3
245,3
246,3
247,3
248,3
249,4
250,4
251,4
252,4
253,4
254,5
255,5
256,5
257,6
258,6
259,6
260,7
261,7
262,7
263,7
264,7
265,7
266,7
267,7
268,7
269,7
270,8
271,8
272,8
273,8
274,8
275,8
276,8
277,8
278,8
279,8
280,8
281,8
282,8
283,8
284,8
285,8
286,8
287,8
288,8
289,8
290,8
291,8
292,8
293,8
294,8
295,8
296,8
297,8
298,8
299,8
300,8
301,8
302,8
303,8
304,9
305,9
306,9
307,9
308,9
309,9
310,9
311,9
312,9
313,9
314,9
315,9
316,9
317,9
318,9
319,9
320,9
321,9
322,9
323,9
324,9
325,9
326,9
327,9
328,9
329,10
330,10
331,10
332,10
333,10
334,10
335,10
336,10
337,10
338,10
339,11
340,11
341,11
342,11
343,11
344,11
345,11
346,11
347,11
348,11
349,11
350,11
351,11
352,11
353,11
354,11
355,11
356,11
357,11
358,11
359,11
360,11
361,11
362,11
363,11
364,11
365,11
366,11
367,11
368,12
369,12
370,12
371,12
372,12
373,12
374,12
375,12
376,12
377,12
378,12
379,13
380,13
381,13
382,13
383,13
384,13
385,13
386,13
387,13
388,13
389,13
390,13
391,13
392,13
393,13
394,13
395,13
396,13
397,13
398,13
399,14
400,14
401,14
402,14
403,14
404,14
405,14
406,15
407,15
408,15
409,15
410,15
411,15
412,16
413,16
414,16
415,16
416,16
417,16
418,16
419,16
420,16
421,16
422,16
423,16
424,16
425,16
426,16
427,16
428,16
429,16
430,16
431,16
432,16
433,17
434,17
435,17
436,17
437,17
438,17
439,17
440,17
441,17
442,17
443,17
444,17
445,17
446,17
447,17
448,17
449,17
450,17
451,17
452,17
453,17
454,17
455,17
456,18
457,18
458,18
459,18
460,18
461,18
462,19
463,19
464,19
465,19
466,19
467,19
468,19
469,19
470,19
471,19
472,19
473,19
474,19
475,19
476,19
477,19
478,19
479,19
480,19
481,19
482,19
483,20
484,20
485,20
486,20
487,20
488,21
489,22
490,22
491,23
492,23
493,23
494,23
495,23
496,23
497,23
498,23
499,23
500,23
501,23
502,23
503,23
504,24
505,24
506,24
507,24
508,24
509,24
510,24
511,24
512,24
513,24
514,24
515,24
516,24
517,24
518,24
519,24
520,24
521,25
522,26
523,26
524,27
525,27
526,27
527,27
528,27
529,27
530,27
531,27
532,27
533,27
534,27
535,27
536,27
537,27
538,27
539,28
540,28
541,28
542,28
543,28
544,29
545,29
546,29
547,29
548,29
549,29
550,29
551,30
552,30
553,30
554,30
555,30
556,30
557,30
558,30
559,30
560,30
561,30
562,30
563,30
564,30
565,30
566,30
567,30
568,30
569,30
570,30
571,30
572,30
573,30
574,30
575,30
576,30
577,30
578,30
579,30
580,30
581,30
582,30
583,30
584,30
585,30
586,30
587,30
588,30
589,30
590,30
591,30
592,30
593,30
594,30
595,30
596,30
597,30
598,30
599,30
600,30
601,30
602,30
603,30
604,30
605,30
606,30
607,30
608,30
609,30
610,30
611,30
612,30
613,30
614,30
615,30
616,30
617,30
618,30
619,30
620,30
621,30
622,30
623,30
624,30
625,30
626,30
627,30
628,30
629,30
630,30
631,30
632,30
633,30
634,30
635,30
636,30
637,30
638,30
639,30
640,30
641,30
642,30
643,30
644,30
645,30
646,30
647,30
648,30
649,30
650,30
651,30
652,30
653,30
654,31
655,31
656,31
657,31
658,31
659,31
660,31
661,31
662,31
663,31
664,31
665,31
666,31
667,31
668,31
669,31
670,31
671,31
672,31
673,31
674,31
675,31
676,31
677,31
678,31
679,31
680,31
681,31
682,31
683,31
684,31
685,31
686,31
687,31
688,31
689,31
690,31
691,31
692,31
693,32
694,32
695,33
696,33
697,33
698,33
699,33
700,33
701,33
702,33
703,33
704,33
705,34
706,34
707,34
708,34
709,34
710,34
711,35
712,35
713,35
714,35
715,35
716,35
717,36
718,36
719,36
720,36
721,36
722,36
723,36
724,36
725,36
726,36
727,36
728,36
729,36
730,36
731,36
732,36
733,36
734,36
735,36
736,36
737,36
738,36
739,36
740,36
741,36
742,36
743,36
744,36
745,36
746,36
747,36
748,36
749,36
750,36
751,36
752,36
753,36
754,36
755,37
756,37
757,37
758,37
759,38
760,38
761,38
762,38
763,38
764,38
765,38
766,38
767,38
768,38
769,38
770,38
771,38
772,38
773,38
774,38
775,38
776,38
777,38
778,38
779,38
780,38
781,38
782,38
783,38
784,39
785,39
786,39
787,39
788,39
789,39
790,39
791,39
792,39
793,39
794,39
795,40
796,40
797,40
798,40
799,40
800,40
801,40
802,40
803,40
804,40
805,40
806,40
807,40
808,40
809,40
810,40
811,40
812,40
813,40
814,40
815,40
816,41
817,41
818,41
819,41
820,41
821,41
822,41
823,41
824,41
825,41
826,41
827,41
828,41
829,41
830,41
831,41
832,41
833,41
834,42
835,42
836,42
837,42
838,42
839,42
840,42
841,43
842,43
843,43
844,43
845,43
846,43
847,43
848,44
849,44
850,44
851,45
852,45
853,45
854,45
855,45
856,45
857,45
858,45
859,45
860,45
861,45
862,45
863,45
864,45
865,45
866,45
867,45
868,45
869,45
870,45
871,45
872,45
873,45
874,45
875,45
876,46
877,46
878,46
879,46
880,46
881,46
882,46
883,46
884,46
885,46
886,46
887,46
888,46
889,46
890,46
891,46
892,46
893,46
894,46
895,46
896,46
897,46
898,46
899,46
900,46
901,46
902,46
903,46
904,46
905,46
906,47
907,47
908,47
909,47
910,47
911,47
912,47
913,47
914,47
915,47
916,47
917,47
918,47
919,47
920,47
921,47
922,47
923,47
924,47
925,47
926,47
927,47
928,47
929,47
930,47
931,47
932,47
933,47
934,47
935,47
936,47
937,47
938,47
939,47
940,47
941,47
942,47
943,47
944,47
945,48
946,48
947,48
948,48
949,48
950,48
951,48
952,48
953,48
954,48
955,48
956,48
957,48
958,48
959,48
960,48
961,48
962,48
963,48
964,48
965,48
966,48
967,48
968,48
969,48
970,48
971,48
972,48
973,48
974,48
975,48
976,48
977,49
978,49
979,49
980,49
981,49
982,49
983,49
984,49
985,49
986,49
987,49
988,49
989,49
990,49
991,49
992,49
993,49
994,49
995,49
996,49
997,49
998,49
999,49
1000,49
1001,49
1002,49
1003,49
1004,49
1005,49
1006,49
1007,49
1008,49
1009,49
1010,49
1011,49
1012,49
1013,49
1014,49
1015,49
1016,49
1017,49
1018,49
1019,49
1020,50
1021,50
1022,50
1023,50
1024,50
1025,50
1026,50
1027,50
1028,50
1029,50
1030,50
1031,50
1032,50
1033,50
1034,50
1035,50
1036,50
1037,50
1038,50
1039,50
1040,50
1041,50
1042,50
1043,50
1044,50
1045,50
1046,50
1047,51
1048,51
1049,51
1050,51
1051,51
1052,51
1053,51
1054,51
1055,51
1056,51
1057,51
1058,51
1059,51
1060,51
1061,51
1062,51
1063,51
1064,51
1065,52
1066,52
1067,52
1068,52
1069,52
1070,52
1071,52
1072,52
1073,52
1074,52
1075,52
1076,52
1077,52
1078,52
1079,52
1080,52
1081,52
1082,52
1083,52
1084,52
1085,52
1086,52
1087,52
1088,52
1089,52
1090,52
1091,52
1092,52
1093,52
1094,52
1095,52
1096,52
1097,52
1098,52
1099,52
1100,52
1101,52
1102,52
1103,52
1104,52
1105,52
1106,52
1107,52
1108,52
1109,52
1110,52
1111,52
1112,52
1113,52
1114,52
1115,52
1116,53
1117,53
1118,53
1119,53
1120,53
1121,53
1122,53
1123,53
1124,53
1125,53
1126,53
1127,53
1128,53
1129,53
1130,53
1131,53
1132,53
1133,53
1134,53
1135,53
1136,53
1137,53
1138,53
1139,53
1140,53
1141,53
1142,53
1143,53
1144,53
1145,53
1146,53
1147,53
1148,53
1149,53
1150,53
1151,53
1152,53
1153,53
1154,53
1155,53
1156,53
1157,53
1158,54
1159,54
1160,54
1161,54
1162,54
1163,54
1164,54
1165,54
1166,54
1167,54
1168,54
1169,54
1170,54
1171,54
1172,54
1173,54
1174,54
1175,54
1176,54
1177,54
1178,54
1179,54
1180,54
1181,54
1182,54
1183,54
1184,54
1185,54
1186,54
1187,55
1188,55
1189,55
1190,55
1191,55
1192,55
1193,55
1194,56
1195,56
1196,57
1197,57
1198,57
1199,57
1200,57
1201,57
1202,57
1203,57
1204,57
1205,57
1206,57
1207,57
1208,57
1209,57
1210,57
1211,57
1212,57
1213,57
1214,57
1215,57
1216,57
1217,57
1218,57
1219,57
1220,57
1221,57
1222,57
1223,57
1224,57
1225,57
1226,57
1227,57
1228,57
1229,57
1230,57
1231,57
1232,57
1233,57
1234,57
1235,57
1236,57
1237,57
1238,57
1239,57
1240,57
1241,57
1242,57
1243,57
1244,57
1245,57
1246,57
1247,57
1248,57
1249,57
1250,57
1251,57
1252,57
1253,57
1254,57
1255,57
1256,57
1257,57
1258,57
1259,57
1260,57
1261,57
1262,57
1263,57
1264,57
1265,57
1266,57
1267,57
1268,57
1269,57
1270,57
1271,57
1272,57
1273,57
1274,57
1275,57
1276,57
1277,57
1278,57
1279,57
1280,57
1281,57
1282,57
1283,57
1284,57
1285,57
1286,58
1287,58
1288,58
1289,58
1290,58
1291,58
1292,58
1293,58
1294,58
1295,58
1296,58
1297,58
1298,59
1299,59
1300,59
1301,59
1302,59
1303,59
1304,59
1305,59
1306,59
1307,59
1308,59
1309,59
1310,59
1311,59
1312,59
1313,59
1314,59
1315,59
1316,59
1317,60
1318,60
1319,60
1320,60
1321,60
1322,60
1323,60
1324,60
1325,60
1326,60
1327,60
1328,60
1329,60
1330,60
1331,60
1332,60
1333,60
1334,60
1335,60
1336,60
1337,60
1338,60
1339,60
1340,60
1341,60
1342,60
1343,60
1344,60
1345,60
1346,60
1347,60
1348,60
1349,60
1350,60
1351,60
1352,60
1353,60
1354,60
1355,60
1356,60
1357,60
1358,60
1359,60
1360,60
1361,60
1362,60
1363,61
1364,61
1365,61
1366,61
1367,61
1368,61
1369,61
1370,61
1371,61
1372,61
1373,61
1374,61
1375,61
1376,61
1377,61
1378,61
1379,61
1380,61
1381,61
1382,61
1383,61
1384,61
1385,61
1386,61
1387,61
1388,61
1389,61
1390,61
1391,61
1392,61
1393,61
1394,61
1395,61
1396,61
1397,61
1398,61
1399,61
1400,61
1401,61
1402,61
1403,61
1404,61
1405,61
1406,61
1407,61
1408,61
1409,61
1410,61
1411,61
1412,61
1413,61
1414,61
1415,61
1416,61
1417,61
1418,61
1419,61
1420,61
1421,61
1422,61
1423,61
1424,61
1425,61
1426,61
1427,61
1428,61
1429,61
1430,61
1431,61
1432,61
1433,61
1434,61
1435,61
1436,61
1437,61
1438,61
1439,61
1440,61
1441,61
1442,61
1443,61
1444,61
1445,61
1446,61
1447,61
1448,61
1449,61
1450,61
1451,61
1452,61
1453,61
1454,61
1455,61
1456,62
1457,62
1458,62
1459,62
1460,62
1461,62
1462,62
1463,62
1464,63
1465,63
1466,63
1467,63
1468,63
1469,63
1470,63
1471,63
1472,63
1473,63
1474,64
1475,64
1476,64
1477,64
1478,64
1479,64
1480,64
1481,64
1482,64
1483,64
1484,64
1485,64
1486,64
1487,64
1488,64
1489,64
1490,64
1491,64
1492,64
1493,64
1494,64
1495,65
1496,65
1497,65
1498,65
1499,66
1500,66
1501,66
1502,66
1503,66
1504,66
1505,66
1506,66
1507,66
1508,66
1509,66
1510,66
1511,66
1512,66
1513,66
1514,66
1515,66
1516,66
1517,66
1518,66
1519,66
1520,66
1521,66
1522,66
1523,66
1524,66
1525,66
1526,66
1527,66
1528,66
1529,66
1530,66
1531,66
1532,66
1533,66
1534,66
1535,67
1536,67
1537,67
1538,67
1539,67
1540,67
1541,67
1542,67
1543,67
1544,67
1545,67
1546,67
1547,67
1548,67
1549,67
1550,67
1551,67
1552,67
1553,67
1554,67
1555,67
1556,67
1557,67
1558,67
1559,67
1560,67
1561,67
1562,67
1563,68
1564,68
1565,68
1566,68
1567,68
1568,68
1569,68
1570,69
1571,69
1572,69
1573,69
1574,69
1575,70
1576,70
1577,70
1578,70
1579,70
1580,70
1581,70
1582,70
1583,70
1584,70
1585,70
1586,70
1587,70
1588,70
1589,70
1590,70
1591,70
1592,70
1593,70
1594,70
1595,70
1596,70
1597,70
1598,70
1599,70
1600,70
1601,70
1602,70
1603,70
1604,70
1605,70
1606,70
1607,70
1608,70
1609,70
1610,70
1611,70
1612,70
1613,70
1614,70
1615,70
1616,70
1617,70
1618,70
1619,70
1620,70
1621,70
1622,70
1623,71
1624,71
1625,71
1626,71
1627,71
1628,71
1629,71
1630,71
1631,71
1632,71
1633,71
1634,71
1635,71
1636,71
1637,71
1638,71
1639,71
1640,71
1641,71
1642,71
1643,71
1644,71
1645,71
1646,71
1647,72
1648,72
1649,72
1650,72
1651,72
1652,72
1653,72
1654,72
1655,72
1656,72
1657,72
1658,72
1659,72
1660,72
1661,72
1662,72
1663,72
1664,72
1665,72
1666,72
1667,72
1668,72
1669,72
1670,72
1671,72
1672,72
1673,72
1674,72
1675,72
1676,72
1677,72
1678,72
1679,72
1680,72
1681,72
1682,72
1683,72
1684,72
1685,72
1686,72
1687,72
1688,72
1689,72
1690,72
1691,72
1692,72
1693,72
1694,72
1695,72
1696,72
1697,72
1698,72
1699,72
1700,72
1701,73
1702,73
1703,73
1704,73
1705,73
1706,73
1707,73
1708,73
1709,73
1710,73
1711,73
1712,73
1713,73
1714,73
1715,73
1716,73
1717,73
1718,73
1719,73
1720,73
1721,73
1722,73
1723,73
1724,73
1725,73
1726,73
1727,73
1728,73
1729,73
1730,73
1731,73
1732,73
1733,73
1734,73
1735,73
1736,74
1737,74
1738,74
1739,74
1740,74
1741,74
1742,74
1743,74
1744,74
1745,74
1746,74
1747,74
1748,74
1749,74
1750,74
1751,74
1752,74
1753,74
1754,74
1755,74
1756,74
1757,74
1758,74
1759,74
1760,74
1761,74
1762,74
1763,74
1764,74
1765,74
1766,74
1767,74
1768,74
1769,74
1770,74
1771,75
1772,75
1773,75
1774,75
1775,75
1776,75
1777,75
1778,75
1779,75
1780,75
1781,75
1782,75
1783,75
1784,75
1785,75
1786,76
1787,76
1788,76
1789,76
1790,76
1791,76
1792,76
1793,76
1794,76
1795,76
1796,76
1797,76
1798,76
1799,76
1800,76
1801,76
1802,76
1803,76
1804,76
1805,76
1806,76
1807,76
1808,76
1809,76
1810,76
1811,77
1812,77
1813,77
1814,77
1815,77
1816,77
1817,77
1818,77
1819,77
1820,77
1821,77
1822,77
1823,77
1824,77
1825,77
1826,77
1827,77
1828,77
1829,77
1830,77
1831,78
1832,78
1833,78
1834,78
1835,78
1836,78
1837,78
1838,78
1839,78
1840,78
1841,78
1842,78
1843,78
1844,78
1845,78
1846,78
1847,78
1848,78
1849,78
1850,78
1851,78
1852,78
1853,78
1854,78
1855,78
1856,78
1857,78
1858,78
1859,78
1860,78
1861,78
1862,78
1863,78
1864,78
1865,78
1866,78
1867,78
1868,78
1869,79
1870,79
1871,79
1872,79
1873,79
1874,80
1875,80
1876,80
1877,80
1878,80
1879,80
1880,80
1881,80
1882,80
1883,80
1884,80
1885,80
1886,80
1887,80
1888,80
1889,80
1890,80
1891,80
1892,80
1893,80
1894,80
1895,80
1896,80
1897,80
1898,80
1899,80
1900,80
1901,80
1902,80
1903,80
1904,80
1905,80
1906,80
1907,80
1908,80
1909,80
1910,80
1911,80
1912,80
1913,80
1914,80
1915,80
1916,80
1917,80
1918,80
1919,80
1920,80
1921,80
1922,80
1923,80
1924,80
1925,80
1926,80
1927,80
1928,80
1929,80
1930,80
1931,80
1932,80
1933,80
1934,80
1935,80
1936,80
1937,80
1938,80
1939,80
1940,80
1941,80
1942,80
1943,80
1944,80
1945,80
1946,80
1947,80
1948,80
1949,80
1950,80
1951,80
1952,80
1953,80
1954,80
1955,80
1956,80
1957,80
1958,80
1959,80
1960,80
1961,80
1962,80
1963,80
1964,80
1965,81
1966,81
1967,81
1968,81
1969,81
1970,81
1971,81
1972,81
1973,81
1974,81
1975,81
1976,81
1977,81
1978,81
1979,81
1980,81
1981,81
1982,81
1983,81
1984,81
1985,81
1986,81
1987,81
1988,81
1989,81
1990,81
1991,81
1992,81
1993,81
1994,81
1995,82
1996,82
1997,82
1998,82
1999,82
2000,82
