"tick","total"
0,0
1,0
2,0
3,2
4,2
5,2
6,2
7,2
8,2
9,2
10,2
11,2
12,2
13,2
14,2
15,2
16,2
17,2
18,2
19,2
20,2
21,2
22,2
23,4
24,4
25,4
26,4
27,4
28,4
29,4
30,4
31,4
32,4
33,4
34,4
35,5
36,5
37,5
38,5
39,5
40,5
41,5
42,6
43,6
44,6
45,7
46,7
47,7
48,7
49,7
50,7
51,7
52,7
53,7
54,8
55,8
56,8
57,8
58,8
59,8
60,8
61,8
62,8
63,8
64,9
65,10
66,10
67,12
68,12
69,12
70,12
71,12
72,12
73,12
74,13
75,13
76,13
77,13
78,13
79,13
80,13
81,13
82,13
83,13
84,13
85,13
86,13
87,13
88,13
89,13
90,15
91,15
92,15
93,15
94,15
95,15
96,15
97,15
98,15
99,15
100,16
101,16
102,16
103,16
104,16
105,16
106,16
107,16
108,16
109,16
110,16
111,16
112,16
113,17
114,17
115,17
116,17
117,17
118,17
119,17
120,17
121,17
122,17
123,17
124,17
125,17
126,17
127,17
128,17
129,17
130,17
131,17
132,18
133,19
134,20
135,21
136,23
137,24
138,25
139,26
140,26
141,26
142,26
143,26
144,26
145,26
146,26
147,26
148,27
149,28
150,28
151,28
152,28
153,28
154,28
155,28
156,28
157,28
158,28
159,28
160,28
161,28
162,28
163,28
164,28
165,28
166,28
167,28
168,28
169,28
170,28
171,28
172,28
173,28
174,29
175,29
176,29
177,29
178,29
179,29
180,29
181,29
182,29
183,29
184,29
185,29
186,31
187,31
188,31
189,31
190,31
191,32
192,32
193,32
194,33
195,33
196,33
197,33
198,33
199,33
200,33
201,33
202,33
203,33
204,33
205,33
206,33
207,33
208,33
209,33
210,33
211,33
212,33
213,33
214,34
215,34
216,34
217,34
218,34
219,34
220,34
221,35
222,35
223,35
224,35
225,35
226,35
227,35
228,35
229,35
230,36
231,36
232,36
233,36
234,36
235,36
236,36
237,36
238,36
239,36
240,37
241,37
242,37
243,37
244,37
245,37
246,37
247,37
248,37
249,38
250,39
251,39
252,39
253,39
254,39
255,39
256,39
257,39
258,39
259,39
260,39
261,39
262,40
263,40
264,40
265,40
266,41
267,41
268,41
269,41
270,41
271,42
272,42
273,43
274,43
275,43
276,43
277,43
278,43
279,43
280,44
281,44
282,44
283,44
284,44
285,44
286,44
287,44
288,44
289,45
290,46
291,46
292,46
293,46
294,46
295,46
296,46
297,46
298,46
299,46
300,46
301,46
302,46
303,46
304,46
305,47
306,47
307,47
308,47
309,47
310,47
311,47
312,47
313,47
314,47
315,47
316,47
317,47
318,47
319,47
320,47
321,47
322,47
323,47
324,47
325,47
326,47
327,47
328,47
329,47
330,47
331,47
332,47
333,47
334,47
335,47
336,47
337,47
338,47
339,47
340,47
341,47
342,47
343,47
344,47
345,47
346,47
347,47
348,47
349,47
350,47
351,47
352,47
353,47
354,47
355,47
356,47
357,47
358,47
359,47
360,47
361,47
362,47
363,47
364,47
365,47
366,47
367,47
368,48
369,48
370,48
371,49
372,49
373,49
374,49
375,49
376,49
377,49
378,49
379,49
380,49
381,49
382,50
383,50
384,50
385,50
386,50
387,50
388,50
389,50
390,50
391,50
392,50
393,51
394,51
395,51
396,51
397,51
398,51
399,52
400,52
401,52
402,53
403,53
404,53
405,54
406,54
407,54
408,54
409,54
410,55
411,55
412,55
413,55
414,55
415,55
416,55
417,55
418,55
419,55
420,55
421,56
422,56
423,56
424,57
425,57
426,58
427,58
428,58
429,58
430,58
431,58
432,58
433,58
434,58
435,59
436,59
437,59
438,59
439,59
440,59
441,59
442,59
443,59
444,59
445,59
446,59
447,59
448,59
449,59
450,59
451,59
452,59
453,59
454,59
455,59
456,60
457,60
458,60
459,60
460,60
461,60
462,60
463,60
464,60
465,60
466,60
467,60
468,60
469,60
470,60
471,60
472,60
473,60
474,60
475,60
476,60
477,60
478,60
479,60
480,60
481,60
482,60
483,60
484,60
485,60
486,61
487,61
488,61
489,61
490,61
491,61
492,61
493,62
494,63
495,64
496,64
497,64
498,64
499,64
500,64
501,64
502,64
503,64
504,64
505,64
506,64
507,64
508,64
509,65
510,65
511,65
512,65
513,65
514,65
515,65
516,65
517,65
518,65
519,65
520,65
521,65
522,65
523,65
524,65
525,66
526,66
527,66
528,66
529,66
530,66
531,66
532,66
533,66
534,66
535,67
536,67
537,67
538,67
539,67
540,67
541,67
542,67
543,68
544,68
545,69
546,69
547,69
548,69
549,69
550,69
551,69
552,69
553,69
554,69
555,69
556,69
557,69
558,69
559,69
560,69
561,69
562,69
563,70
564,70
565,70
566,70
567,70
568,70
569,70
570,70
571,70
572,70
573,70
574,70
575,70
576,70
577,70
578,70
579,70
580,70
581,70
582,70
583,70
584,72
585,72
586,72
587,72
588,72
589,72
590,72
591,73
592,73
593,73
594,73
595,73
596,73
597,73
598,73
599,73
600,73
601,73
602,73
603,74
604,74
605,75
606,75
607,76
608,76
609,76
610,76
611,76
612,76
613,76
614,76
615,76
616,76
617,76
618,76
619,76
620,76
621,76
622,76
623,76
624,76
625,76
626,76
627,76
628,76
629,76
630,76
631,76
632,77
633,77
634,77
635,77
636,77
637,77
638,77
639,78
640,78
641,78
642,78
643,78
644,78
645,78
646,78
647,79
648,79
649,79
650,79
651,79
652,80
653,80
654,80
655,80
656,80
657,80
658,80
659,80
660,80
661,80
662,80
663,81
664,81
665,81
666,81
667,81
668,81
669,81
670,81
671,81
672,81
673,81
674,81
675,82
676,82
677,82
678,82
679,82
680,82
681,82
682,82
683,82
684,82
685,82
686,82
687,82
688,82
689,82
690,82
691,82
692,82
693,82
694,82
695,82
696,83
697,83
698,83
699,84
700,84
701,84
702,85
703,85
704,85
705,85
706,85
707,85
708,85
709,85
710,85
711,86
712,86
713,86
714,86
715,86
716,86
717,86
718,86
719,86
720,86
721,86
722,86
723,86
724,86
725,86
726,86
727,86
728,86
729,86
730,86
731,86
732,86
733,86
734,86
735,86
736,86
737,87
738,87
739,87
740,88
741,88
742,88
743,89
744,89
745,89
746,89
747,89
748,89
749,89
750,89
751,90
752,90
753,90
754,90
755,90
756,90
757,90
758,90
759,90
760,91
761,91
762,91
763,91
764,91
765,91
766,91
767,91
768,91
769,91
770,91
771,91
772,91
773,91
774,91
775,91
776,91
777,91
778,91
779,91
780,91
781,91
782,91
783,91
784,92
785,92
786,92
787,92
788,92
789,92
790,92
791,92
792,92
793,92
794,92
795,92
796,92
797,92
798,92
799,92
800,92
801,92
802,92
803,92
804,92
805,92
806,92
807,92
808,92
809,92
810,92
811,92
812,92
813,92
814,92
815,92
816,92
817,92
818,93
819,93
820,93
821,93
822,93
823,93
824,93
825,93
826,93
827,93
828,93
829,93
830,93
831,93
832,93
833,93
834,93
835,93
836,93
837,93
838,93
839,93
840,93
841,93
842,93
843,93
844,93
845,93
846,93
847,93
848,93
849,93
850,93
851,93
852,93
853,93
854,93
855,93
856,93
857,93
858,93
859,93
860,93
861,93
862,93
863,93
864,93
865,93
866,93
867,93
868,93
869,93
870,93
871,93
872,93
873,93
874,93
875,93
876,93
877,93
878,93
879,93
880,93
881,93
882,93
883,94
884,94
885,95
886,95
887,95
888,95
889,95
890,95
891,95
892,95
893,95
894,95
895,96
896,96
897,96
898,96
899,96
900,96
901,96
902,96
903,96
904,96
905,96
906,96
907,96
908,96
909,96
910,96
911,97
912,97
913,97
914,97
915,97
916,97
917,97
918,97
919,97
920,97
921,97
922,97
923,97
924,98
925,98
926,98
927,98
928,98
929,98
930,98
931,98
932,98
933,98
934,98
935,99
936,99
937,99
938,99
939,99
940,99
941,99
942,99
943,100
944,100
945,100
946,100
947,100
948,100
949,100
950,101
951,102
952,103
953,103
954,103
955,103
956,103
957,103
958,103
959,103
960,103
961,103
962,103
963,103
964,103
965,103
966,103
967,103
968,103
969,103
970,103
971,103
972,103
973,103
974,103
975,103
976,103
977,104
978,104
979,104
980,104
981,104
982,104
983,104
984,104
985,104
986,104
987,104
988,104
989,104
990,104
991,104
992,104
993,104
994,104
995,104
996,104
997,104
998,104
999,104
1000,104
1001,104
1002,104
1003,105
1004,105
1005,105
1006,105
1007,105
1008,105
1009,105
1010,105
1011,105
1012,106
1013,106
1014,106
1015,106
1016,106
1017,106
1018,106
1019,107
1020,107
1021,108
1022,108
1023,108
1024,108
1025,108
1026,108
1027,108
1028,108
1029,108
1030,108
1031,108
1032,108
1033,108
1034,108
1035,108
1036,108
1037,109
1038,109
1039,109
1040,109
1041,109
1042,109
1043,109
1044,109
1045,109
1046,109
1047,109
1048,109
1049,109
1050,109
1051,109
1052,109
1053,109
1054,109
1055,109
1056,109
1057,109
1058,109
1059,109
1060,109
1061,109
1062,109
1063,109
1064,109
1065,109
1066,109
1067,109
1068,109
1069,109
1070,109
1071,109
1072,109
1073,109
1074,109
1075,109
1076,109
1077,109
1078,110
1079,110
1080,110
1081,110
1082,110
1083,110
1084,110
1085,110
1086,110
1087,110
1088,110
1089,110
1090,110
1091,110
1092,110
1093,110
1094,110
1095,110
1096,110
1097,110
1098,110
1099,110
1100,110
1101,110
1102,110
1103,110
1104,110
1105,110
1106,110
1107,110
1108,110
1109,110
1110,110
1111,110
1112,110
1113,110
1114,110
1115,110
1116,110
1117,110
1118,110
1119,110
1120,110
1121,110
1122,110
1123,110
1124,110
1125,110
1126,110
1127,110
1128,110
1129,111
1130,111
1131,111
1132,111
1133,111
1134,111
1135,111
1136,111
1137,111
1138,111
1139,111
1140,111
1141,111
1142,111
1143,111
1144,111
1145,111
1146,111
1147,111
1148,111
1149,111
1150,111
1151,111
1152,111
1153,111
1154,111
1155,111
1156,111
1157,111
1158,111
1159,111
1160,111
1161,111
1162,111
1163,111
1164,111
1165,111
1166,111
1167,112
1168,112
1169,112
1170,112
1171,112
1172,112
1173,112
1174,112
1175,112
1176,112
1177,112
1178,112
1179,112
1180,112
1181,112
1182,112
1183,112
1184,112
1185,112
1186,112
1187,112
1188,112
1189,112
1190,112
1191,112
1192,112
1193,113
1194,114
1195,114
1196,114
1197,114
1198,114
1199,114
1200,114
1201,115
1202,115
1203,115
1204,116
1205,116
1206,116
1207,116
1208,116
1209,116
1210,116
1211,116
1212,116
1213,116
1214,116
1215,116
1216,116
1217,116
1218,116
1219,116
1220,116
1221,116
1222,116
1223,116
1224,116
1225,116
1226,116
1227,116
1228,116
1229,117
1230,117
1231,117
1232,117
1233,117
1234,117
1235,117
1236,117
1237,117
1238,117
1239,117
1240,117
1241,117
1242,117
1243,117
1244,117
1245,118
1246,118
1247,118
1248,118
1249,119
1250,119
1251,120
1252,120
1253,120
1254,120
1255,120
1256,120
1257,120
1258,120
1259,120
1260,120
1261,120
1262,120
1263,120
1264,120
1265,120
1266,120
1267,120
1268,120
1269,120
1270,121
1271,122
1272,122
1273,122
1274,122
1275,122
1276,122
1277,122
1278,122
1279,122
1280,122
1281,122
1282,122
1283,122
1284,122
1285,123
1286,123
1287,123
1288,123
1289,123
1290,123
1291,123
1292,123
1293,123
1294,123
1295,123
1296,123
1297,123
1298,123
1299,123
1300,124
1301,125
1302,125
1303,125
1304,125
1305,125
1306,125
1307,125
1308,125
1309,125
1310,125
1311,125
1312,125
1313,125
1314,125
1315,125
1316,125
1317,125
1318,125
1319,125
1320,125
1321,125
1322,125
1323,125
1324,125
1325,125
1326,126
1327,126
1328,126
1329,126
1330,126
1331,126
1332,126
1333,126
1334,126
1335,126
1336,126
1337,126
1338,126
1339,127
1340,127
1341,127
1342,127
1343,127
1344,127
1345,127
1346,127
1347,127
1348,127
1349,127
1350,127
1351,127
1352,127
1353,127
1354,127
1355,127
1356,127
1357,127
1358,127
1359,127
1360,127
1361,127
1362,127
1363,127
1364,127
1365,127
1366,127
1367,127
1368,127
1369,127
1370,127
1371,127
1372,127
1373,127
1374,127
1375,127
1376,128
1377,128
1378,128
1379,128
1380,128
1381,128
1382,128
1383,128
1384,128
1385,129
1386,129
1387,129
1388,129
1389,129
1390,129
1391,129
1392,130
1393,131
1394,131
1395,131
1396,131
1397,131
1398,131
1399,131
1400,131
1401,131
1402,131
1403,131
1404,131
1405,131
1406,131
1407,131
1408,131
1409,131
1410,132
1411,132
1412,132
1413,132
1414,133
1415,133
1416,133
1417,133
1418,133
1419,133
1420,133
1421,133
1422,133
1423,133
1424,133
1425,133
1426,133
1427,133
1428,133
1429,133
1430,133
1431,133
1432,133
1433,133
1434,133
1435,133
1436,133
1437,133
1438,133
1439,133
1440,133
1441,133
1442,133
1443,133
1444,133
1445,133
1446,133
1447,133
1448,133
1449,133
1450,133
1451,133
1452,133
1453,133
1454,133
1455,133
1456,133
1457,133
1458,133
1459,133
1460,133
1461,133
1462,133
1463,133
1464,133
1465,133
1466,133
1467,133
1468,133
1469,133
1470,134
1471,134
1472,134
1473,134
1474,134
1475,134
1476,134
1477,134
1478,134
1479,134
1480,134
1481,134
1482,134
1483,134
1484,134
1485,134
1486,134
1487,134
1488,134
1489,134
1490,134
1491,134
1492,134
1493,134
1494,134
1495,134
1496,134
1497,134
1498,134
1499,134
1500,134
1501,134
1502,134
1503,134
1504,134
1505,134
1506,134
1507,134
1508,134
1509,134
1510,134
1511,135
1512,135
1513,135
1514,135
1515,135
1516,135
1517,135
1518,135
1519,135
1520,135
1521,135
1522,135
1523,135
1524,136
1525,136
1526,136
1527,136
1528,136
1529,136
1530,136
1531,136
1532,136
1533,136
1534,136
1535,136
1536,136
1537,136
1538,136
1539,136
1540,136
1541,136
1542,136
1543,136
1544,136
1545,136
1546,136
1547,136
1548,136
1549,138
1550,138
1551,138
1552,138
1553,138
1554,138
1555,138
1556,138
1557,138
1558,138
1559,138
1560,138
1561,138
1562,138
1563,138
1564,138
1565,138
1566,138
1567,139
1568,139
1569,139
1570,139
1571,139
1572,139
1573,139
1574,139
1575,139
1576,139
1577,139
1578,141
1579,141
1580,141
1581,142
1582,142
1583,142
1584,142
1585,142
1586,142
1587,142
1588,142
1589,142
1590,142
1591,142
1592,142
1593,143
1594,143
1595,143
1596,143
1597,143
1598,143
1599,143
1600,143
1601,143
1602,143
1603,143
1604,143
1605,144
1606,145
1607,145
1608,145
1609,145
1610,145
1611,145
1612,145
1613,145
1614,145
1615,145
1616,145
1617,145
1618,145
1619,145
1620,145
1621,145
1622,145
1623,145
1624,145
1625,145
1626,145
1627,145
1628,145
1629,145
1630,145
1631,145
1632,145
1633,145
1634,145
1635,145
1636,145
1637,146
1638,146
1639,146
1640,146
1641,146
1642,146
1643,146
1644,146
1645,146
1646,146
1647,146
1648,146
1649,146
1650,146
1651,146
1652,146
1653,146
1654,146
1655,146
1656,146
1657,146
1658,146
1659,146
1660,146
1661,146
1662,146
1663,146
1664,146
1665,146
1666,146
1667,146
1668,146
1669,146
1670,146
1671,146
1672,146
1673,146
1674,146
1675,146
1676,146
1677,146
1678,146
1679,146
1680,146
1681,146
1682,146
1683,146
1684,146
1685,146
1686,146
1687,146
1688,146
1689,146
1690,146
1691,146
1692,146
1693,146
1694,147
1695,147
1696,147
1697,147
1698,147
1699,147
1700,147
1701,147
1702,147
1703,147
1704,147
1705,147
1706,147
1707,147
1708,147
1709,148
1710,148
1711,148
1712,148
1713,148
1714,148
1715,149
1716,149
1717,149
1718,149
1719,149
1720,149
1721,149
1722,149
1723,149
1724,149
1725,149
1726,149
1727,149
1728,149
1729,149
1730,149
1731,149
1732,149
1733,149
1734,149
1735,149
1736,149
1737,149
1738,149
1739,149
1740,149
1741,149
1742,149
1743,149
1744,149
1745,150
1746,150
1747,150
1748,150
1749,150
1750,150
1751,150
1752,150
1753,150
1754,150
1755,150
1756,150
1757,150
1758,150
1759,150
1760,150
1761,150
1762,150
1763,150
1764,151
1765,151
1766,151
1767,151
1768,151
1769,151
1770,151
1771,151
1772,151
1773,151
1774,151
1775,151
1776,151
1777,151
1778,151
1779,151
1780,151
1781,151
1782,151
1783,151
1784,151
1785,151
1786,151
1787,151
1788,151
1789,151
1790,151
1791,151
1792,151
1793,151
1794,151
1795,151
1796,151
1797,151
1798,151
1799,151
1800,151
1801,151
1802,151
1803,151
1804,151
1805,151
1806,151
1807,151
1808,151
1809,151
1810,151
1811,151
1812,151
1813,151
1814,151
1815,151
1816,151
1817,151
1818,151
1819,151
1820,151
1821,151
1822,151
1823,151
1824,151
1825,151
1826,151
1827,151
1828,151
1829,151
1830,151
1831,151
1832,151
1833,151
1834,151
1835,151
1836,151
1837,151
1838,151
1839,151
1840,151
1841,151
1842,151
1843,151
1844,151
1845,151
1846,151
1847,151
1848,151
1849,151
1850,151
1851,151
1852,151
1853,151
1854,151
1855,151
1856,151
1857,151
1858,151
1859,151
1860,151
1861,151
1862,151
1863,151
1864,152
1865,152
1866,152
1867,152
1868,152
1869,152
1870,152
1871,152
1872,152
1873,152
1874,152
1875,152
1876,152
1877,152
1878,152
1879,152
1880,152
1881,152
1882,152
1883,152
1884,152
1885,152
1886,152
1887,152
1888,152
1889,152
1890,152
1891,152
1892,152
1893,153
1894,153
1895,153
1896,153
1897,153
1898,153
1899,153
1900,153
1901,153
1902,153
1903,153
1904,153
1905,153
1906,153
1907,153
1908,153
1909,153
1910,153
1911,153
1912,153
1913,153
1914,153
1915,153
1916,153
1917,153
1918,153
1919,153
1920,153
1921,153
1922,153
1923,153
1924,153
1925,153
1926,153
1927,153
1928,154
1929,154
1930,154
1931,154
1932,154
1933,154
1934,154
1935,154
1936,154
1937,154
1938,154
1939,155
1940,156
1941,157
1942,158
1943,159
1944,160
1945,162
1946,163
1947,164
1948,164
1949,164
1950,164
1951,164
1952,164
1953,164
1954,164
1955,164
1956,164
1957,164
1958,164
1959,164
1960,164
1961,164
1962,164
1963,164
1964,164
1965,164
1966,164
1967,164
1968,164
1969,164
1970,164
1971,164
1972,164
1973,164
1974,164
1975,164
1976,164
1977,164
1978,164
1979,164
1980,164
1981,164
1982,164
1983,164
1984,164
1985,164
1986,164
1987,164
1988,164
1989,164
1990,164
1991,165
1992,165
1993,165
1994,165
1995,165
1996,165
1997,165
1998,165
1999,165
2000,165
