"tick","total"
0,0
1,0
2,0
3,0
4,0
5,0
6,0
7,0
8,0
9,0
10,0
11,0
12,0
13,0
14,0
15,0
16,0
17,0
18,0
19,0
20,0
21,0
22,0
23,0
24,0
25,0
26,0
27,0
28,0
29,0
30,0
31,0
32,0
33,0
34,0
35,0
36,0
37,0
38,0
39,0
40,0
41,0
42,0
43,0
44,0
45,0
46,0
47,0
48,0
49,0
50,0
51,0
52,0
53,0
54,0
55,0
56,0
57,0
58,0
59,0
60,0
61,0
62,0
63,0
64,0
65,0
66,0
67,0
68,0
69,0
70,0
71,0
72,0
73,0
74,0
75,0
76,0
77,0
78,0
79,0
80,0
81,0
82,0
83,0
84,0
85,0
86,0
87,0
88,0
89,0
90,0
91,0
92,0
93,0
94,0
95,0
96,0
97,0
98,0
99,0
100,0
101,0
102,0
103,0
104,0
105,0
106,0
107,0
108,0
109,0
110,0
111,0
112,0
113,0
114,0
115,0
116,0
117,0
118,0
119,0
120,0
121,0
122,0
123,0
124,0
125,0
126,0
127,0
128,0
129,0
130,0
131,0
132,0
133,0
134,0
135,0
136,0
137,0
138,0
139,0
140,0
141,0
142,0
143,0
144,0
145,0
146,0
147,0
148,0
149,0
150,0
151,0
152,0
153,0
154,0
155,0
156,0
157,0
158,0
159,0
160,0
161,0
162,0
163,0
164,0
165,0
166,0
167,0
168,0
169,0
170,0
171,0
172,0
173,0
174,0
175,0
176,0
177,0
178,0
179,0
180,0
181,0
182,0
183,0
184,0
185,0
186,0
187,0
188,0
189,1
190,1
191,1
192,1
193,1
194,1
195,1
196,1
197,1
198,1
199,1
200,1
201,1
202,1
203,1
204,1
205,1
206,1
207,1
208,1
209,1
210,1
211,1
212,1
213,1
214,1
215,1
216,1
217,1
218,1
219,1
220,1
221,1
222,1
223,1
224,1
225,1
226,1
227,1
228,1
229,1
230,1
231,1
232,1
233,1
234,1
235,2
236,2
237,2
238,2
239,2
240,2
241,2
242,2
243,2
244,2
245,2
246,2
247,2
248,2
249,2
250,2
251,2
252,2
253,2
254,2
255,2
256,2
257,2
258,3
259,3
260,3
261,3
262,3
263,3
264,3
265,3
266,3
267,3
268,4
269,4
270,4
271,4
272,4
273,4
274,4
275,4
276,4
277,4
278,5
279,5
280,5
281,5
282,5
283,5
284,5
285,5
286,5
287,5
288,5
289,6
290,6
291,6
292,6
293,6
294,6
295,6
296,6
297,6
298,6
299,6
300,6
301,6
302,6
303,6
304,6
305,6
306,6
307,6
308,6
309,6
310,6
311,6
312,6
313,6
314,6
315,6
316,6
317,6
318,8
319,8
320,8
321,8
322,8
323,8
324,8
325,8
326,8
327,8
328,9
329,9
330,9
331,9
332,9
333,9
334,9
335,9
336,9
337,9
338,10
339,10
340,10
341,10
342,10
343,10
344,10
345,10
346,10
347,10
348,10
349,10
350,10
351,10
352,10
353,10
354,10
355,10
356,10
357,10
358,10
359,10
360,10
361,10
362,10
363,10
364,10
365,10
366,10
367,11
368,11
369,11
370,11
371,11
372,11
373,11
374,12
375,12
376,12
377,12
378,12
379,12
380,13
381,13
382,13
383,13
384,14
385,14
386,14
387,14
388,15
389,15
390,16
391,16
392,16
393,16
394,16
395,16
396,16
397,16
398,16
399,16
400,16
401,17
402,17
403,17
404,18
405,18
406,18
407,19
408,19
409,19
410,19
411,20
412,21
413,21
414,22
415,22
416,22
417,22
418,22
419,22
420,22
421,22
422,22
423,22
424,22
425,22
426,22
427,22
428,22
429,22
430,22
431,22
432,22
433,22
434,22
435,22
436,22
437,22
438,23
439,23
440,23
441,23
442,23
443,23
444,24
445,24
446,24
447,24
448,24
449,24
450,24
451,24
452,24
453,24
454,24
455,25
456,25
457,25
458,25
459,25
460,25
461,25
462,25
463,25
464,25
465,25
466,25
467,25
468,25
469,25
470,25
471,25
472,25
473,25
474,25
475,25
476,25
477,25
478,25
479,25
480,25
481,25
482,25
483,25
484,25
485,25
486,25
487,25
488,25
489,25
490,25
491,25
492,25
493,25
494,25
495,25
496,25
497,26
498,26
499,26
500,26
501,26
502,26
503,26
504,26
505,26
506,26
507,26
508,26
509,26
510,26
511,26
512,26
513,26
514,26
515,26
516,26
517,26
518,26
519,26
520,26
521,26
522,26
523,26
524,26
525,26
526,27
527,27
528,27
529,27
530,27
531,27
532,27
533,27
534,27
535,28
536,28
537,28
538,28
539,28
540,28
541,28
542,28
543,28
544,28
545,28
546,28
547,28
548,28
549,28
550,29
551,29
552,29
553,29
554,29
555,29
556,29
557,29
558,29
559,29
560,29
561,30
562,30
563,30
564,30
565,30
566,30
567,30
568,30
569,30
570,30
571,30
572,30
573,30
574,30
575,30
576,30
577,30
578,30
579,30
580,30
581,30
582,30
583,30
584,30
585,30
586,30
587,30
588,30
589,30
590,30
591,30
592,30
593,30
594,30
595,30
596,30
597,30
598,30
599,30
600,30
601,30
602,30
603,30
604,30
605,30
606,30
607,30
608,30
609,30
610,30
611,30
612,30
613,30
614,30
615,30
616,30
617,30
618,30
619,30
620,30
621,30
622,30
623,30
624,30
625,30
626,30
627,30
628,30
629,30
630,30
631,30
632,30
633,30
634,30
635,30
636,30
637,30
638,30
639,30
640,30
641,30
642,30
643,30
644,30
645,30
646,30
647,30
648,30
649,30
650,30
651,30
652,30
653,30
654,30
655,30
656,30
657,30
658,30
659,30
660,30
661,30
662,30
663,30
664,30
665,30
666,30
667,30
668,30
669,31
670,31
671,31
672,31
673,31
674,31
675,31
676,31
677,31
678,31
679,31
680,31
681,31
682,31
683,32
684,32
685,32
686,32
687,32
688,32
689,32
690,32
691,32
692,32
693,32
694,32
695,32
696,32
697,32
698,32
699,32
700,32
701,32
702,32
703,32
704,32
705,32
706,32
707,32
708,32
709,32
710,32
711,32
712,32
713,32
714,32
715,32
716,32
717,32
718,32
719,32
720,32
721,32
722,32
723,32
724,32
725,32
726,32
727,32
728,32
729,32
730,32
731,32
732,32
733,32
734,32
735,32
736,32
737,32
738,32
739,32
740,32
741,32
742,32
743,32
744,32
745,32
746,32
747,32
748,32
749,32
750,32
751,32
752,32
753,32
754,32
755,32
756,32
757,32
758,32
759,32
760,32
761,32
762,32
763,32
764,32
765,32
766,32
767,32
768,32
769,32
770,32
771,32
772,32
773,32
774,32
775,32
776,32
777,32
778,32
779,32
780,32
781,32
782,32
783,32
784,32
785,32
786,32
787,32
788,32
789,32
790,32
791,32
792,32
793,32
794,32
795,32
796,32
797,32
798,32
799,32
800,32
801,32
802,32
803,32
804,32
805,32
806,32
807,32
808,32
809,33
810,33
811,33
812,33
813,33
814,33
815,33
816,33
817,33
818,33
819,33
820,33
821,33
822,33
823,33
824,33
825,33
826,33
827,33
828,33
829,33
830,33
831,33
832,33
833,33
834,33
835,33
836,34
837,34
838,34
839,34
840,34
841,34
842,34
843,34
844,34
845,34
846,34
847,34
848,34
849,34
850,34
851,34
852,34
853,34
854,34
855,34
856,34
857,34
858,34
859,34
860,34
861,34
862,34
863,34
864,34
865,34
866,34
867,34
868,34
869,34
870,34
871,34
872,34
873,34
874,34
875,34
876,34
877,34
878,34
879,34
880,34
881,34
882,34
883,34
884,34
885,34
886,34
887,34
888,34
889,34
890,34
891,34
892,34
893,34
894,34
895,34
896,34
897,34
898,34
899,34
900,34
901,34
902,35
903,35
904,35
905,35
906,35
907,35
908,35
909,35
910,35
911,35
912,35
913,35
914,35
915,35
916,35
917,35
918,35
919,35
920,35
921,35
922,35
923,35
924,35
925,35
926,35
927,35
928,35
929,35
930,35
931,35
932,35
933,35
934,35
935,35
936,35
937,35
938,35
939,35
940,35
941,35
942,35
943,35
944,35
945,35
946,35
947,35
948,35
949,35
950,36
951,36
952,36
953,37
954,37
955,37
956,37
957,37
958,37
959,37
960,37
961,37
962,37
963,37
964,37
965,37
966,37
967,37
968,37
969,37
970,37
971,37
972,37
973,37
974,37
975,37
976,37
977,37
978,37
979,37
980,37
981,37
982,37
983,37
984,37
985,37
986,37
987,37
988,37
989,37
990,37
991,37
992,37
993,37
994,38
995,38
996,38
997,38
998,38
999,38
1000,38
1001,38
1002,38
1003,38
1004,38
1005,38
1006,38
1007,38
1008,38
1009,38
1010,38
1011,39
1012,39
1013,39
1014,39
1015,39
1016,39
1017,39
1018,39
1019,39
1020,39
1021,39
1022,39
1023,39
1024,39
1025,39
1026,39
1027,39
1028,39
1029,39
1030,39
1031,39
1032,39
1033,39
1034,39
1035,39
1036,39
1037,39
1038,39
1039,39
1040,39
1041,39
1042,39
1043,39
1044,39
1045,39
1046,39
1047,39
1048,39
1049,39
1050,39
1051,39
1052,39
1053,39
1054,39
1055,39
1056,39
1057,39
1058,39
1059,39
1060,39
1061,39
1062,39
1063,39
1064,39
1065,39
1066,40
1067,40
1068,40
1069,42
1070,42
1071,42
1072,42
1073,42
1074,42
1075,42
1076,42
1077,42
1078,42
1079,42
1080,42
1081,42
1082,42
1083,42
1084,42
1085,42
1086,42
1087,42
1088,42
1089,42
1090,42
1091,42
1092,42
1093,42
1094,42
1095,43
1096,43
1097,43
1098,43
1099,43
1100,43
1101,43
1102,43
1103,43
1104,44
1105,44
1106,45
1107,45
1108,45
1109,45
1110,45
1111,46
1112,46
1113,46
1114,46
1115,46
1116,46
1117,46
1118,46
1119,46
1120,46
1121,46
1122,46
1123,46
1124,46
1125,46
1126,46
1127,46
1128,46
1129,46
1130,46
1131,46
1132,46
1133,46
1134,46
1135,46
1136,46
1137,46
1138,46
1139,46
1140,46
1141,46
1142,46
1143,46
1144,46
1145,46
1146,47
1147,47
1148,47
1149,48
1150,48
1151,48
1152,48
1153,48
1154,49
1155,49
1156,49
1157,49
1158,49
1159,49
1160,49
1161,49
1162,49
1163,49
1164,49
1165,49
1166,49
1167,49
1168,49
1169,49
1170,49
1171,49
1172,49
1173,49
1174,52
1175,52
1176,52
1177,52
1178,52
1179,52
1180,52
1181,52
1182,52
1183,52
1184,52
1185,52
1186,52
1187,52
1188,52
1189,52
1190,52
1191,52
1192,52
1193,52
1194,52
1195,52
1196,52
1197,52
1198,52
1199,52
1200,52
1201,52
1202,52
1203,52
1204,52
1205,52
1206,52
1207,52
1208,52
1209,52
1210,52
1211,52
1212,52
1213,52
1214,52
1215,52
1216,52
1217,52
1218,52
1219,52
1220,52
1221,52
1222,52
1223,52
1224,52
1225,52
1226,52
1227,52
1228,52
1229,52
1230,52
1231,52
1232,52
1233,52
1234,52
1235,53
1236,53
1237,53
1238,53
1239,53
1240,53
1241,53
1242,53
1243,53
1244,53
1245,53
1246,54
1247,54
1248,54
1249,54
1250,54
1251,54
1252,54
1253,54
1254,54
1255,54
1256,54
1257,54
1258,54
1259,54
1260,54
1261,54
1262,54
1263,54
1264,54
1265,54
1266,54
1267,54
1268,54
1269,54
1270,54
1271,54
1272,54
1273,54
1274,54
1275,54
1276,54
1277,54
1278,54
1279,54
1280,54
1281,54
1282,54
1283,54
1284,55
1285,55
1286,55
1287,58
1288,58
1289,58
1290,58
1291,58
1292,58
1293,58
1294,58
1295,58
1296,58
1297,58
1298,58
1299,58
1300,58
1301,58
1302,58
1303,58
1304,58
1305,58
1306,58
1307,58
1308,58
1309,58
1310,58
1311,58
1312,58
1313,58
1314,58
1315,58
1316,58
1317,58
1318,58
1319,58
1320,58
1321,58
1322,58
1323,58
1324,58
1325,58
1326,58
1327,58
1328,58
1329,58
1330,58
1331,58
1332,59
1333,59
1334,59
1335,59
1336,59
1337,59
1338,59
1339,59
1340,59
1341,59
1342,59
1343,59
1344,59
1345,59
1346,59
1347,59
1348,59
1349,59
1350,59
1351,59
1352,59
1353,59
1354,59
1355,59
1356,59
1357,59
1358,59
1359,59
1360,59
1361,59
1362,59
1363,59
1364,59
1365,59
1366,59
1367,59
1368,59
1369,59
1370,59
1371,59
1372,59
1373,59
1374,59
1375,59
1376,59
1377,59
1378,59
1379,59
1380,59
1381,59
1382,59
1383,59
1384,59
1385,59
1386,59
1387,59
1388,59
1389,59
1390,59
1391,59
1392,60
1393,60
1394,60
1395,60
1396,60
1397,61
1398,61
1399,62
1400,62
1401,62
1402,62
1403,62
1404,62
1405,62
1406,62
1407,63
1408,63
1409,63
1410,63
1411,63
1412,63
1413,63
1414,63
1415,63
1416,63
1417,63
1418,63
1419,64
1420,64
1421,64
1422,64
1423,64
1424,64
1425,64
1426,64
1427,64
1428,64
1429,64
1430,64
1431,64
1432,64
1433,64
1434,64
1435,64
1436,64
1437,64
1438,64
1439,64
1440,64
1441,64
1442,64
1443,64
1444,64
1445,64
1446,64
1447,64
1448,64
1449,64
1450,64
1451,64
1452,65
1453,65
1454,65
1455,65
1456,65
1457,65
1458,65
1459,65
1460,65
1461,65
1462,65
1463,65
1464,65
1465,65
1466,65
1467,65
1468,65
1469,65
1470,65
1471,65
1472,65
1473,65
1474,65
1475,65
1476,65
1477,65
1478,65
1479,65
1480,65
1481,65
1482,65
1483,65
1484,65
1485,65
1486,65
1487,65
1488,65
1489,65
1490,65
1491,65
1492,65
1493,65
1494,65
1495,65
1496,65
1497,65
1498,65
1499,65
1500,65
1501,65
1502,65
1503,65
1504,65
1505,65
1506,65
1507,65
1508,65
1509,65
1510,65
1511,65
1512,65
1513,65
1514,65
1515,65
1516,65
1517,65
1518,65
1519,65
1520,65
1521,65
1522,65
1523,65
1524,65
1525,65
1526,65
1527,65
1528,65
1529,65
1530,65
1531,65
1532,65
1533,65
1534,65
1535,66
1536,66
1537,66
1538,66
1539,66
1540,67
1541,67
1542,67
1543,67
1544,67
1545,67
1546,67
1547,68
1548,68
1549,68
1550,68
1551,68
1552,68
1553,68
1554,68
1555,68
1556,68
1557,68
1558,68
1559,68
1560,68
1561,68
1562,68
1563,68
1564,68
1565,68
1566,68
1567,68
1568,68
1569,68
1570,68
1571,68
1572,68
1573,68
1574,68
1575,68
1576,68
1577,68
1578,68
1579,68
1580,68
1581,68
1582,68
1583,68
1584,68
1585,68
1586,69
1587,69
1588,69
1589,69
1590,69
1591,69
1592,69
1593,69
1594,69
1595,69
1596,69
1597,69
1598,70
1599,70
1600,70
1601,70
1602,71
1603,71
1604,71
1605,71
1606,71
1607,71
1608,71
1609,71
1610,71
1611,71
1612,71
1613,71
1614,71
1615,71
1616,71
1617,71
1618,71
1619,72
1620,72
1621,72
1622,72
1623,73
1624,73
1625,73
1626,73
1627,73
1628,73
1629,73
1630,73
1631,73
1632,73
1633,73
1634,73
1635,73
1636,73
1637,73
1638,73
1639,73
1640,73
1641,73
1642,73
1643,73
1644,73
1645,73
1646,73
1647,73
1648,73
1649,73
1650,73
1651,73
1652,73
1653,74
1654,74
1655,74
1656,74
1657,74
1658,74
1659,74
1660,74
1661,74
1662,74
1663,74
1664,74
1665,74
1666,74
1667,74
1668,74
1669,74
1670,74
1671,74
1672,74
1673,74
1674,74
1675,74
1676,74
1677,74
1678,74
1679,74
1680,74
1681,74
1682,74
1683,74
1684,74
1685,74
1686,74
1687,74
1688,74
1689,74
1690,74
1691,75
1692,76
1693,76
1694,76
1695,76
1696,76
1697,76
1698,76
1699,76
1700,76
1701,77
1702,77
1703,77
1704,77
1705,77
1706,77
1707,77
1708,77
1709,77
1710,77
1711,77
1712,77
1713,77
1714,78
1715,78
1716,78
1717,78
1718,78
1719,78
1720,78
1721,78
1722,78
1723,78
1724,78
1725,78
1726,78
1727,78
1728,78
1729,78
1730,78
1731,78
1732,78
1733,78
1734,78
1735,79
1736,79
1737,79
1738,79
1739,81
1740,81
1741,81
1742,81
1743,81
1744,81
1745,81
1746,81
1747,81
1748,81
1749,81
1750,81
1751,81
1752,81
1753,81
1754,81
1755,81
1756,81
1757,81
1758,81
1759,81
1760,81
1761,81
1762,81
1763,81
1764,81
1765,81
1766,81
1767,81
1768,81
1769,81
1770,81
1771,81
1772,81
1773,81
1774,81
1775,81
1776,81
1777,81
1778,81
1779,82
1780,82
1781,82
1782,82
1783,82
1784,83
1785,83
1786,83
1787,83
1788,83
1789,83
1790,83
1791,83
1792,83
1793,83
1794,83
1795,83
1796,83
1797,83
1798,83
1799,83
1800,83
1801,83
1802,83
1803,83
1804,83
1805,83
1806,83
1807,83
1808,83
1809,84
1810,84
1811,84
1812,84
1813,84
1814,84
1815,84
1816,84
1817,84
1818,84
1819,84
1820,84
1821,84
1822,84
1823,84
1824,84
1825,84
1826,84
1827,84
1828,84
1829,84
1830,84
1831,84
1832,84
1833,84
1834,84
1835,84
1836,84
1837,84
1838,84
1839,84
1840,84
1841,84
1842,84
1843,84
1844,84
1845,84
1846,84
1847,84
1848,84
1849,84
1850,84
1851,84
1852,84
1853,84
1854,84
1855,84
1856,84
1857,84
1858,84
1859,84
1860,84
1861,84
1862,84
1863,84
1864,84
1865,84
1866,84
1867,84
1868,84
1869,84
1870,84
1871,84
1872,84
1873,84
1874,84
1875,84
1876,84
1877,84
1878,84
1879,84
1880,84
1881,84
1882,84
1883,84
1884,84
1885,84
1886,84
1887,84
1888,84
1889,84
1890,84
1891,84
1892,84
1893,84
1894,85
1895,85
1896,85
1897,85
1898,85
1899,85
1900,85
1901,85
1902,85
1903,85
1904,85
1905,85
1906,85
1907,85
1908,85
1909,85
1910,85
1911,85
1912,85
1913,85
1914,85
1915,85
1916,85
1917,85
1918,85
1919,85
1920,85
1921,85
1922,85
1923,85
1924,85
1925,85
1926,85
1927,85
1928,85
1929,85
1930,85
1931,86
1932,86
1933,86
1934,86
1935,86
1936,86
1937,87
1938,87
1939,87
1940,87
1941,87
1942,87
1943,87
1944,87
1945,87
1946,87
1947,87
1948,87
1949,87
1950,88
1951,88
1952,89
1953,89
1954,89
1955,89
1956,89
1957,90
1958,90
1959,90
1960,90
1961,90
1962,90
1963,90
1964,90
1965,90
1966,90
1967,90
1968,90
1969,90
1970,90
1971,90
1972,90
1973,90
1974,90
1975,90
1976,90
1977,90
1978,90
1979,90
1980,90
1981,90
1982,90
1983,90
1984,90
1985,90
1986,90
1987,90
1988,90
1989,90
1990,90
1991,90
1992,90
1993,90
1994,90
1995,90
1996,90
1997,90
1998,90
1999,90
2000,90
