"tick","total"
0,0
1,0
2,0
3,0
4,0
5,0
6,0
7,0
8,0
9,0
10,0
11,0
12,0
13,0
14,0
15,0
16,0
17,0
18,0
19,0
20,0
21,0
22,0
23,0
24,0
25,0
26,0
27,0
28,0
29,0
30,0
31,0
32,0
33,0
34,0
35,0
36,0
37,0
38,0
39,0
40,0
41,0
42,0
43,0
44,0
45,0
46,0
47,0
48,0
49,0
50,0
51,0
52,0
53,0
54,0
55,0
56,0
57,0
58,0
59,0
60,0
61,0
62,0
63,0
64,0
65,0
66,0
67,0
68,0
69,0
70,0
71,0
72,0
73,0
74,0
75,0
76,0
77,0
78,0
79,0
80,0
81,0
82,0
83,0
84,0
85,0
86,0
87,0
88,0
89,0
90,0
91,0
92,0
93,0
94,0
95,0
96,0
97,0
98,0
99,0
100,0
101,0
102,0
103,0
104,0
105,0
106,0
107,0
108,0
109,0
110,0
111,0
112,0
113,0
114,0
115,0
116,0
117,0
118,0
119,0
120,0
121,0
122,0
123,1
124,1
125,1
126,1
127,1
128,1
129,1
130,1
131,1
132,1
133,1
134,1
135,2
136,2
137,2
138,2
139,2
140,2
141,2
142,2
143,2
144,2
145,2
146,2
147,2
148,2
149,2
150,2
151,2
152,3
153,4
154,4
155,4
156,4
157,4
158,4
159,4
160,4
161,4
162,4
163,4
164,4
165,4
166,4
167,4
168,4
169,4
170,4
171,4
172,5
173,5
174,5
175,5
176,5
177,5
178,5
179,5
180,5
181,5
182,5
183,5
184,5
185,5
186,5
187,6
188,6
189,6
190,6
191,6
192,7
193,8
194,8
195,8
196,9
197,9
198,9
199,9
200,9
201,9
202,10
203,10
204,10
205,10
206,10
207,10
208,10
209,10
210,10
211,10
212,10
213,10
214,10
215,10
216,10
217,11
218,11
219,12
220,12
221,12
222,12
223,12
224,13
225,13
226,14
227,14
228,15
229,15
230,16
231,17
232,17
233,17
234,17
235,17
236,17
237,17
238,17
239,17
240,18
241,18
242,18
243,18
244,18
245,18
246,18
247,18
248,18
249,18
250,18
251,18
252,18
253,18
254,18
255,18
256,18
257,18
258,19
259,19
260,20
261,20
262,20
263,20
264,20
265,20
266,20
267,21
268,22
269,22
270,22
271,22
272,22
273,22
274,22
275,22
276,22
277,22
278,22
279,22
280,22
281,22
282,23
283,23
284,23
285,23
286,23
287,23
288,23
289,23
290,23
291,23
292,23
293,23
294,25
295,25
296,25
297,26
298,26
299,26
300,26
301,26
302,26
303,26
304,26
305,26
306,26
307,27
308,27
309,27
310,27
311,27
312,27
313,27
314,28
315,28
316,28
317,28
318,28
319,28
320,28
321,28
322,28
323,28
324,28
325,28
326,28
327,28
328,28
329,28
330,29
331,29
332,29
333,29
334,29
335,29
336,29
337,29
338,29
339,29
340,29
341,29
342,29
343,29
344,29
345,29
346,29
347,30
348,30
349,30
350,30
351,30
352,30
353,30
354,30
355,30
356,30
357,30
358,30
359,30
360,30
361,30
362,30
363,30
364,30
365,30
366,30
367,30
368,30
369,30
370,30
371,30
372,30
373,30
374,30
375,30
376,30
377,30
378,30
379,30
380,30
381,30
382,30
383,30
384,30
385,30
386,30
387,30
388,30
389,30
390,30
391,30
392,30
393,30
394,30
395,30
396,30
397,30
398,30
399,30
400,30
401,30
402,30
403,30
404,30
405,30
406,30
407,30
408,30
409,30
410,30
411,30
412,30
413,30
414,30
415,30
416,30
417,30
418,30
419,30
420,30
421,30
422,30
423,30
424,30
425,30
426,30
427,30
428,30
429,30
430,30
431,30
432,30
433,30
434,30
435,30
436,30
437,30
438,30
439,30
440,30
441,30
442,30
443,30
444,30
445,30
446,30
447,30
448,30
449,30
450,30
451,30
452,30
453,30
454,31
455,31
456,31
457,31
458,31
459,31
460,31
461,31
462,31
463,31
464,31
465,31
466,31
467,31
468,31
469,31
470,31
471,31
472,31
473,31
474,31
475,31
476,32
477,32
478,33
479,33
480,33
481,33
482,33
483,33
484,33
485,33
486,33
487,33
488,33
489,33
490,33
491,33
492,33
493,33
494,33
495,33
496,33
497,34
498,34
499,34
500,34
501,34
502,34
503,34
504,34
505,34
506,34
507,34
508,35
509,35
510,35
511,35
512,35
513,35
514,35
515,35
516,35
517,35
518,35
519,35
520,35
521,35
522,35
523,35
524,35
525,35
526,35
527,35
528,35
529,35
530,35
531,35
532,35
533,35
534,35
535,36
536,36
537,36
538,36
539,36
540,36
541,37
542,37
543,37
544,37
545,37
546,37
547,37
548,37
549,37
550,37
551,37
552,37
553,37
554,38
555,38
556,38
557,38
558,38
559,38
560,39
561,39
562,39
563,39
564,39
565,39
566,39
567,39
568,39
569,39
570,39
571,39
572,39
573,39
574,39
575,39
576,39
577,39
578,39
579,39
580,39
581,39
582,39
583,39
584,39
585,39
586,39
587,39
588,39
589,39
590,39
591,39
592,39
593,39
594,39
595,39
596,39
597,39
598,39
599,39
600,39
601,39
602,39
603,39
604,39
605,39
606,39
607,39
608,39
609,39
610,39
611,39
612,40
613,40
614,40
615,40
616,40
617,40
618,40
619,40
620,40
621,41
622,41
623,41
624,42
625,42
626,42
627,42
628,42
629,43
630,44
631,44
632,44
633,44
634,45
635,45
636,45
637,45
638,45
639,45
640,45
641,45
642,45
643,45
644,45
645,45
646,45
647,45
648,45
649,45
650,45
651,45
652,45
653,45
654,45
655,45
656,45
657,45
658,45
659,45
660,45
661,45
662,45
663,45
664,45
665,45
666,45
667,45
668,45
669,45
670,45
671,45
672,46
673,46
674,46
675,46
676,46
677,46
678,46
679,46
680,46
681,46
682,46
683,46
684,46
685,46
686,46
687,46
688,46
689,46
690,47
691,47
692,47
693,47
694,47
695,47
696,47
697,47
698,47
699,47
700,48
701,48
702,48
703,48
704,48
705,48
706,48
707,48
708,48
709,48
710,48
711,48
712,48
713,48
714,48
715,48
716,48
717,48
718,48
719,48
720,48
721,48
722,49
723,49
724,49
725,50
726,50
727,50
728,50
729,50
730,50
731,50
732,50
733,50
734,50
735,50
736,51
737,51
738,51
739,51
740,52
741,52
742,52
743,53
744,53
745,53
746,53
747,53
748,53
749,53
750,53
751,54
752,54
753,54
754,54
755,54
756,54
757,54
758,54
759,54
760,54
761,54
762,55
763,55
764,56
765,56
766,56
767,56
768,56
769,56
770,56
771,56
772,56
773,56
774,56
775,56
776,56
777,56
778,56
779,56
780,56
781,56
782,56
783,56
784,56
785,56
786,56
787,56
788,56
789,56
790,56
791,56
792,56
793,56
794,56
795,56
796,56
797,56
798,56
799,56
800,56
801,56
802,56
803,56
804,56
805,56
806,56
807,56
808,56
809,56
810,56
811,56
812,56
813,56
814,56
815,56
816,56
817,56
818,56
819,56
820,56
821,56
822,56
823,56
824,56
825,56
826,56
827,56
828,57
829,57
830,57
831,57
832,58
833,58
834,58
835,58
836,58
837,58
838,58
839,58
840,58
841,58
842,58
843,58
844,58
845,58
846,58
847,58
848,58
849,58
850,58
851,58
852,58
853,58
854,58
855,58
856,58
857,58
858,58
859,58
860,58
861,58
862,58
863,58
864,58
865,58
866,58
867,58
868,58
869,58
870,59
871,59
872,59
873,59
874,59
875,59
876,59
877,60
878,60
879,60
880,60
881,60
882,60
883,60
884,60
885,60
886,60
887,60
888,60
889,60
890,60
891,60
892,60
893,60
894,60
895,60
896,60
897,60
898,60
899,60
900,60
901,60
902,60
903,60
904,60
905,60
906,60
907,60
908,60
909,60
910,60
911,60
912,60
913,60
914,60
915,60
916,60
917,60
918,60
919,60
920,60
921,60
922,60
923,61
924,61
925,61
926,61
927,61
928,61
929,61
930,61
931,62
932,63
933,64
934,64
935,64
936,64
937,64
938,64
939,64
940,64
941,64
942,64
943,65
944,65
945,65
946,65
947,65
948,65
949,65
950,65
951,66
952,66
953,66
954,66
955,66
956,66
957,66
958,66
959,67
960,67
961,67
962,67
963,67
964,67
965,67
966,67
967,67
968,67
969,67
970,67
971,67
972,67
973,67
974,67
975,67
976,67
977,67
978,67
979,67
980,67
981,67
982,67
983,67
984,67
985,67
986,67
987,67
988,68
989,68
990,68
991,68
992,68
993,68
994,68
995,68
996,68
997,68
998,68
999,68
1000,68
1001,68
1002,68
1003,68
1004,68
1005,68
1006,68
1007,68
1008,68
1009,68
1010,68
1011,69
1012,70
1013,70
1014,70
1015,70
1016,70
1017,70
1018,70
1019,70
1020,70
1021,70
1022,70
1023,70
1024,70
1025,70
1026,70
1027,70
1028,70
1029,70
1030,70
1031,71
1032,71
1033,71
1034,72
1035,72
1036,72
1037,72
1038,73
1039,73
1040,73
1041,73
1042,73
1043,73
1044,73
1045,73
1046,73
1047,73
1048,73
1049,74
1050,74
1051,74
1052,74
1053,74
1054,74
1055,74
1056,74
1057,74
1058,74
1059,74
1060,74
1061,74
1062,74
1063,74
1064,74
1065,74
1066,75
1067,75
1068,75
1069,75
1070,75
1071,76
1072,76
1073,76
1074,76
1075,76
1076,76
1077,76
1078,76
1079,76
1080,76
1081,76
1082,76
1083,76
1084,76
1085,76
1086,76
1087,76
1088,76
1089,76
1090,76
1091,76
1092,76
1093,76
1094,76
1095,76
1096,76
1097,76
1098,76
1099,76
1100,76
1101,76
1102,76
1103,76
1104,76
1105,76
1106,76
1107,76
1108,76
1109,76
1110,77
1111,77
1112,77
1113,77
1114,77
1115,77
1116,78
1117,78
1118,78
1119,78
1120,78
1121,78
1122,78
1123,78
1124,78
1125,78
1126,78
1127,78
1128,78
1129,78
1130,78
1131,78
1132,78
1133,78
1134,78
1135,78
1136,78
1137,78
1138,78
1139,78
1140,78
1141,78
1142,78
1143,78
1144,78
1145,78
1146,78
1147,78
1148,78
1149,78
1150,79
1151,79
1152,79
1153,79
1154,79
1155,79
1156,79
1157,80
1158,80
1159,81
1160,81
1161,82
1162,82
1163,82
1164,82
1165,82
1166,82
1167,82
1168,82
1169,82
1170,82
1171,82
1172,82
1173,82
1174,82
1175,82
1176,82
1177,82
1178,82
1179,82
1180,82
1181,82
1182,82
1183,82
1184,82
1185,82
1186,82
1187,82
1188,82
1189,82
1190,82
1191,82
1192,82
1193,82
1194,82
1195,82
1196,82
1197,82
1198,82
1199,82
1200,82
1201,82
1202,82
1203,82
1204,82
1205,82
1206,82
1207,82
1208,82
1209,82
1210,82
1211,82
1212,82
1213,82
1214,82
1215,82
1216,82
1217,82
1218,82
1219,82
1220,82
1221,82
1222,82
1223,82
1224,82
1225,82
1226,82
1227,82
1228,82
1229,82
1230,82
1231,82
1232,82
1233,82
1234,82
1235,82
1236,83
1237,83
1238,83
1239,83
1240,83
1241,83
1242,83
1243,83
1244,83
1245,83
1246,83
1247,83
1248,83
1249,83
1250,83
1251,83
1252,83
1253,83
1254,83
1255,83
1256,83
1257,83
1258,83
1259,83
1260,83
1261,83
1262,83
1263,83
1264,83
1265,83
1266,84
1267,84
1268,84
1269,84
1270,84
1271,85
1272,85
1273,85
1274,85
1275,85
1276,85
1277,85
1278,85
1279,85
1280,85
1281,86
1282,86
1283,86
1284,86
1285,86
1286,86
1287,86
1288,86
1289,86
1290,86
1291,86
1292,86
1293,86
1294,86
1295,86
1296,87
1297,87
1298,87
1299,87
1300,87
1301,87
1302,87
1303,87
1304,87
1305,87
1306,87
1307,87
1308,87
1309,87
1310,87
1311,87
1312,87
1313,87
1314,87
1315,87
1316,87
1317,87
1318,87
1319,87
1320,87
1321,88
1322,88
1323,88
1324,88
1325,88
1326,89
1327,89
1328,89
1329,89
1330,89
1331,89
1332,89
1333,89
1334,89
1335,89
1336,89
1337,89
1338,89
1339,89
1340,89
1341,89
1342,90
1343,90
1344,90
1345,90
1346,90
1347,90
1348,90
1349,90
1350,90
1351,90
1352,90
1353,90
1354,90
1355,90
1356,90
1357,90
1358,90
1359,90
1360,90
1361,90
1362,90
1363,90
1364,90
1365,90
1366,92
1367,92
1368,92
1369,92
1370,92
1371,92
1372,92
1373,92
1374,92
1375,92
1376,92
1377,92
1378,92
1379,92
1380,92
1381,92
1382,92
1383,93
1384,93
1385,93
1386,93
1387,93
1388,93
1389,93
1390,93
1391,93
1392,93
1393,93
1394,93
1395,93
1396,93
1397,93
1398,93
1399,93
1400,93
1401,93
1402,93
1403,93
1404,93
1405,93
1406,93
1407,93
1408,93
1409,93
1410,93
1411,93
1412,93
1413,93
1414,94
1415,94
1416,94
1417,94
1418,94
1419,95
1420,95
1421,95
1422,95
1423,95
1424,95
1425,95
1426,95
1427,95
1428,95
1429,95
1430,95
1431,96
1432,96
1433,96
1434,96
1435,96
1436,96
1437,96
1438,96
1439,96
1440,96
1441,96
1442,96
1443,96
1444,96
1445,96
1446,97
1447,97
1448,97
1449,97
1450,97
1451,97
1452,97
1453,97
1454,97
1455,97
1456,97
1457,97
1458,97
1459,98
1460,98
1461,98
1462,98
1463,98
1464,98
1465,98
1466,99
1467,99
1468,99
1469,99
1470,99
1471,99
1472,99
1473,99
1474,99
1475,99
1476,99
1477,99
1478,99
1479,99
1480,99
1481,99
1482,99
1483,99
1484,99
1485,99
1486,99
1487,99
1488,99
1489,99
1490,99
1491,99
1492,99
1493,99
1494,99
1495,99
1496,99
1497,99
1498,99
1499,99
1500,99
1501,99
1502,99
1503,99
1504,99
1505,99
1506,99
1507,99
1508,99
1509,99
1510,99
1511,99
1512,99
1513,99
1514,99
1515,99
1516,99
1517,99
1518,99
1519,99
1520,99
1521,100
1522,100
1523,100
1524,100
1525,100
1526,100
1527,100
1528,100
1529,100
1530,100
1531,100
1532,100
1533,100
1534,100
1535,100
1536,100
1537,100
1538,100
1539,100
1540,101
1541,101
1542,101
1543,101
1544,101
1545,101
1546,101
1547,101
1548,101
1549,101
1550,101
1551,101
1552,101
1553,101
1554,101
1555,101
1556,101
1557,101
1558,101
1559,101
1560,101
1561,102
1562,102
1563,102
1564,102
1565,102
1566,102
1567,102
1568,102
1569,102
1570,102
1571,102
1572,102
1573,102
1574,102
1575,102
1576,102
1577,102
1578,102
1579,102
1580,102
1581,102
1582,102
1583,102
1584,102
1585,102
1586,102
1587,102
1588,102
1589,102
1590,102
1591,102
1592,102
1593,102
1594,102
1595,102
1596,102
1597,102
1598,102
1599,102
1600,102
1601,102
1602,102
1603,102
1604,102
1605,102
1606,102
1607,102
1608,103
1609,103
1610,103
1611,103
1612,103
1613,103
1614,103
1615,103
1616,103
1617,104
1618,104
1619,104
1620,104
1621,104
1622,104
1623,104
1624,104
1625,104
1626,104
1627,104
1628,105
1629,105
1630,105
1631,105
1632,105
1633,105
1634,105
1635,105
1636,105
1637,105
1638,105
1639,105
1640,105
1641,105
1642,105
1643,105
1644,105
1645,105
1646,105
1647,105
1648,105
1649,105
1650,106
1651,106
1652,106
1653,106
1654,106
1655,106
1656,106
1657,106
1658,106
1659,106
1660,106
1661,106
1662,106
1663,106
1664,106
1665,106
1666,106
1667,106
1668,106
1669,106
1670,106
1671,106
1672,107
1673,107
1674,107
1675,107
1676,107
1677,107
1678,107
1679,107
1680,107
1681,107
1682,107
1683,107
1684,107
1685,107
1686,107
1687,107
1688,107
1689,107
1690,107
1691,107
1692,107
1693,107
1694,107
1695,107
1696,108
1697,108
1698,108
1699,108
1700,108
1701,108
1702,108
1703,108
1704,108
1705,108
1706,108
1707,108
1708,108
1709,108
1710,108
1711,109
1712,109
1713,109
1714,109
1715,109
1716,109
1717,109
1718,109
1719,109
1720,110
1721,110
1722,110
1723,110
1724,110
1725,110
1726,110
1727,110
1728,110
1729,110
1730,110
1731,111
1732,111
1733,111
1734,111
1735,111
1736,111
1737,111
1738,111
1739,111
1740,111
1741,111
1742,111
1743,111
1744,111
1745,111
1746,111
1747,111
1748,111
1749,111
1750,111
1751,111
1752,111
1753,111
1754,111
1755,111
1756,111
1757,111
1758,111
1759,111
1760,111
1761,111
1762,111
1763,111
1764,111
1765,111
1766,111
1767,112
1768,112
1769,112
1770,112
1771,113
1772,113
1773,113
1774,113
1775,113
1776,113
1777,114
1778,114
1779,114
1780,114
1781,114
1782,115
1783,115
1784,115
1785,115
1786,115
1787,115
1788,115
1789,115
1790,115
1791,115
1792,115
1793,115
1794,115
1795,115
1796,115
1797,115
1798,115
1799,115
1800,115
1801,115
1802,115
1803,115
1804,116
1805,116
1806,116
1807,116
1808,116
1809,116
1810,116
1811,116
1812,116
1813,116
1814,116
1815,116
1816,116
1817,116
1818,116
1819,116
1820,116
1821,116
1822,116
1823,116
1824,116
1825,116
1826,116
1827,116
1828,116
1829,116
1830,116
1831,116
1832,116
1833,116
1834,116
1835,117
1836,117
1837,117
1838,117
1839,117
1840,117
1841,117
1842,117
1843,117
1844,117
1845,117
1846,117
1847,117
1848,117
1849,117
1850,117
1851,118
1852,118
1853,118
1854,118
1855,118
1856,118
1857,118
1858,118
1859,118
1860,118
1861,118
1862,118
1863,118
1864,118
1865,118
1866,118
1867,118
1868,118
1869,118
1870,118
1871,118
1872,118
1873,118
1874,118
1875,118
1876,118
1877,118
1878,118
1879,118
1880,118
1881,118
1882,119
1883,119
1884,119
1885,119
1886,119
1887,119
1888,119
1889,119
1890,119
1891,119
1892,119
1893,119
1894,119
1895,119
1896,119
1897,119
1898,119
1899,119
1900,119
1901,119
1902,119
1903,119
1904,119
1905,119
1906,119
1907,119
1908,119
1909,119
1910,119
1911,119
1912,119
1913,119
1914,119
1915,119
1916,120
1917,120
1918,120
1919,120
1920,120
1921,120
1922,120
1923,120
1924,120
1925,120
1926,121
1927,121
1928,121
1929,121
1930,122
1931,122
1932,122
1933,122
1934,122
1935,122
1936,122
1937,122
1938,122
1939,122
1940,122
1941,122
1942,122
1943,122
1944,122
1945,122
1946,122
1947,122
1948,122
1949,122
1950,122
1951,122
1952,122
1953,122
1954,122
1955,122
1956,122
1957,122
1958,122
1959,122
1960,122
1961,122
1962,122
1963,122
1964,122
1965,122
1966,122
1967,122
1968,122
1969,122
1970,122
1971,122
1972,122
1973,123
1974,123
1975,123
1976,123
1977,123
1978,123
1979,123
1980,123
1981,123
1982,123
1983,123
1984,123
1985,123
1986,123
1987,123
1988,123
1989,123
1990,124
1991,124
1992,124
1993,124
1994,124
1995,124
1996,124
1997,124
1998,124
1999,124
2000,124
