"tick","total"
0,0
1,0
2,0
3,0
4,0
5,0
6,0
7,0
8,0
9,0
10,0
11,0
12,0
13,0
14,0
15,0
16,0
17,0
18,0
19,0
20,0
21,0
22,0
23,0
24,0
25,0
26,0
27,0
28,0
29,0
30,0
31,0
32,0
33,0
34,0
35,0
36,0
37,0
38,0
39,0
40,0
41,0
42,0
43,0
44,0
45,0
46,0
47,0
48,0
49,0
50,0
51,0
52,0
53,0
54,0
55,0
56,0
57,0
58,0
59,0
60,0
61,0
62,0
63,0
64,0
65,0
66,0
67,0
68,0
69,0
70,0
71,0
72,0
73,0
74,0
75,0
76,0
77,0
78,0
79,0
80,0
81,0
82,0
83,0
84,0
85,0
86,0
87,0
88,0
89,0
90,0
91,0
92,0
93,0
94,0
95,0
96,0
97,0
98,0
99,0
100,0
101,0
102,0
103,0
104,0
105,0
106,0
107,0
108,0
109,0
110,0
111,0
112,0
113,0
114,0
115,0
116,0
117,0
118,0
119,0
120,0
121,0
122,0
123,0
124,0
125,0
126,0
127,0
128,0
129,0
130,0
131,0
132,0
133,0
134,0
135,0
136,0
137,0
138,0
139,0
140,0
141,0
142,0
143,0
144,0
145,0
146,0
147,0
148,0
149,0
150,0
151,0
152,0
153,0
154,0
155,0
156,0
157,0
158,1
159,1
160,1
161,1
162,1
163,1
164,1
165,1
166,1
167,1
168,1
169,1
170,1
171,1
172,1
173,1
174,1
175,1
176,1
177,1
178,1
179,1
180,1
181,1
182,1
183,1
184,1
185,1
186,1
187,1
188,1
189,1
190,1
191,1
192,1
193,1
194,1
195,1
196,1
197,1
198,1
199,1
200,1
201,1
202,1
203,1
204,1
205,1
206,1
207,1
208,1
209,1
210,1
211,1
212,1
213,1
214,1
215,1
216,1
217,1
218,1
219,1
220,1
221,1
222,1
223,2
224,2
225,2
226,2
227,2
228,2
229,2
230,3
231,3
232,3
233,3
234,3
235,3
236,3
237,3
238,3
239,3
240,3
241,3
242,3
243,3
244,3
245,3
246,3
247,3
248,3
249,3
250,3
251,3
252,4
253,4
254,4
255,4
256,4
257,4
258,4
259,4
260,4
261,4
262,4
263,4
264,4
265,5
266,5
267,6
268,6
269,6
270,6
271,6
272,6
273,6
274,6
275,6
276,6
277,6
278,6
279,6
280,6
281,7
282,8
283,8
284,8
285,8
286,8
287,10
288,10
289,10
290,10
291,10
292,11
293,11
294,11
295,11
296,11
297,11
298,11
299,11
300,11
301,11
302,11
303,11
304,11
305,11
306,11
307,11
308,11
309,11
310,11
311,11
312,11
313,11
314,11
315,11
316,12
317,12
318,12
319,12
320,12
321,12
322,12
323,13
324,13
325,14
326,14
327,14
328,14
329,14
330,14
331,14
332,14
333,14
334,14
335,14
336,14
337,14
338,14
339,15
340,15
341,15
342,15
343,15
344,15
345,15
346,15
347,15
348,16
349,18
350,18
351,18
352,18
353,18
354,18
355,18
356,18
357,18
358,18
359,19
360,20
361,20
362,20
363,21
364,22
365,22
366,23
367,23
368,23
369,23
370,23
371,23
372,23
373,23
374,23
375,23
376,23
377,23
378,23
379,23
380,23
381,23
382,23
383,23
384,23
385,23
386,23
387,23
388,23
389,23
390,23
391,23
392,23
393,24
394,24
395,24
396,24
397,24
398,24
399,24
400,24
401,25
402,25
403,25
404,25
405,25
406,25
407,25
408,25
409,25
410,25
411,25
412,25
413,25
414,25
415,25
416,25
417,25
418,25
419,25
420,25
421,25
422,25
423,25
424,25
425,25
426,25
427,25
428,25
429,25
430,25
431,25
432,25
433,25
434,25
435,25
436,25
437,26
438,26
439,26
440,26
441,26
442,26
443,26
444,26
445,26
446,26
447,26
448,26
449,26
450,26
451,26
452,26
453,26
454,26
455,26
456,26
457,26
458,26
459,26
460,26
461,26
462,26
463,26
464,26
465,26
466,26
467,26
468,27
469,27
470,27
471,27
472,27
473,27
474,27
475,27
476,27
477,27
478,27
479,28
480,29
481,29
482,29
483,29
484,29
485,29
486,29
487,29
488,29
489,29
490,29
491,29
492,29
493,29
494,29
495,29
496,29
497,29
498,29
499,29
500,29
501,29
502,29
503,29
504,29
505,29
506,29
507,29
508,29
509,29
510,29
511,29
512,29
513,29
514,29
515,29
516,29
517,29
518,29
519,29
520,29
521,29
522,29
523,29
524,29
525,29
526,29
527,29
528,29
529,29
530,29
531,29
532,29
533,29
534,29
535,29
536,29
537,29
538,29
539,29
540,29
541,29
542,29
543,29
544,29
545,29
546,29
547,29
548,29
549,29
550,29
551,29
552,29
553,29
554,29
555,29
556,29
557,29
558,29
559,29
560,29
561,29
562,29
563,29
564,29
565,29
566,29
567,29
568,29
569,29
570,29
571,29
572,29
573,29
574,29
575,29
576,29
577,29
578,29
579,29
580,29
581,29
582,29
583,29
584,29
585,29
586,29
587,29
588,29
589,29
590,29
591,29
592,29
593,30
594,30
595,30
596,30
597,30
598,30
599,30
600,30
601,30
602,30
603,30
604,30
605,30
606,30
607,30
608,30
609,30
610,30
611,30
612,30
613,30
614,30
615,30
616,30
617,30
618,30
619,30
620,30
621,30
622,30
623,30
624,30
625,30
626,30
627,30
628,30
629,30
630,30
631,30
632,30
633,30
634,30
635,30
636,30
637,30
638,30
639,30
640,30
641,30
642,30
643,30
644,30
645,30
646,30
647,30
648,30
649,31
650,32
651,32
652,32
653,32
654,32
655,32
656,32
657,32
658,32
659,32
660,32
661,32
662,32
663,32
664,32
665,32
666,32
667,32
668,32
669,32
670,32
671,32
672,32
673,32
674,32
675,32
676,32
677,32
678,32
679,32
680,32
681,32
682,32
683,32
684,32
685,32
686,32
687,32
688,32
689,32
690,32
691,32
692,32
693,32
694,32
695,32
696,32
697,32
698,32
699,32
700,32
701,32
702,32
703,32
704,32
705,32
706,32
707,32
708,32
709,32
710,32
711,32
712,32
713,32
714,32
715,32
716,32
717,32
718,32
719,32
720,32
721,32
722,32
723,32
724,32
725,32
726,32
727,32
728,32
729,32
730,32
731,32
732,32
733,32
734,32
735,32
736,32
737,32
738,32
739,32
740,32
741,32
742,32
743,32
744,32
745,32
746,32
747,32
748,32
749,32
750,32
751,32
752,32
753,32
754,32
755,32
756,32
757,32
758,32
759,32
760,32
761,32
762,32
763,32
764,32
765,32
766,32
767,32
768,32
769,32
770,32
771,32
772,32
773,32
774,32
775,32
776,32
777,32
778,32
779,32
780,32
781,32
782,32
783,32
784,32
785,32
786,32
787,32
788,32
789,32
790,32
791,32
792,32
793,32
794,32
795,32
796,32
797,32
798,32
799,32
800,32
801,32
802,32
803,32
804,32
805,32
806,32
807,32
808,32
809,32
810,32
811,32
812,32
813,32
814,32
815,32
816,32
817,32
818,32
819,32
820,32
821,32
822,32
823,32
824,33
825,33
826,33
827,33
828,33
829,33
830,33
831,33
832,33
833,33
834,33
835,33
836,33
837,33
838,33
839,33
840,33
841,33
842,33
843,33
844,33
845,33
846,33
847,33
848,33
849,33
850,33
851,33
852,33
853,33
854,33
855,33
856,33
857,33
858,33
859,33
860,33
861,33
862,33
863,33
864,34
865,34
866,34
867,34
868,34
869,34
870,34
871,34
872,34
873,34
874,34
875,34
876,34
877,34
878,34
879,35
880,35
881,35
882,35
883,35
884,35
885,35
886,35
887,35
888,35
889,35
890,35
891,35
892,35
893,35
894,35
895,35
896,35
897,35
898,35
899,35
900,35
901,35
902,35
903,35
904,35
905,35
906,35
907,35
908,35
909,35
910,35
911,35
912,35
913,35
914,35
915,35
916,35
917,35
918,35
919,35
920,35
921,35
922,35
923,35
924,35
925,35
926,35
927,35
928,35
929,35
930,35
931,35
932,35
933,35
934,35
935,35
936,35
937,35
938,35
939,35
940,35
941,35
942,35
943,35
944,36
945,36
946,36
947,36
948,36
949,36
950,36
951,36
952,36
953,36
954,36
955,36
956,36
957,36
958,36
959,36
960,36
961,36
962,36
963,36
964,36
965,36
966,36
967,36
968,36
969,36
970,36
971,36
972,36
973,36
974,36
975,36
976,36
977,36
978,36
979,36
980,36
981,36
982,36
983,36
984,36
985,36
986,36
987,36
988,36
989,36
990,36
991,36
992,36
993,36
994,36
995,36
996,36
997,36
998,36
999,36
1000,36
1001,36
1002,36
1003,36
1004,36
1005,36
1006,36
1007,36
1008,36
1009,36
1010,36
1011,36
1012,36
1013,36
1014,36
1015,36
1016,36
1017,37
1018,37
1019,37
1020,37
1021,37
1022,37
1023,37
1024,37
1025,37
1026,37
1027,37
1028,37
1029,37
1030,37
1031,37
1032,37
1033,37
1034,37
1035,37
1036,37
1037,37
1038,37
1039,37
1040,37
1041,37
1042,37
1043,37
1044,37
1045,37
1046,37
1047,37
1048,37
1049,37
1050,37
1051,37
1052,37
1053,37
1054,37
1055,37
1056,37
1057,37
1058,38
1059,38
1060,38
1061,38
1062,38
1063,38
1064,38
1065,38
1066,38
1067,38
1068,38
1069,38
1070,38
1071,38
1072,38
1073,38
1074,38
1075,38
1076,38
1077,38
1078,38
1079,38
1080,38
1081,38
1082,38
1083,38
1084,38
1085,38
1086,38
1087,38
1088,38
1089,38
1090,38
1091,38
1092,38
1093,38
1094,38
1095,38
1096,38
1097,38
1098,38
1099,38
1100,39
1101,39
1102,39
1103,39
1104,39
1105,39
1106,39
1107,39
1108,39
1109,39
1110,39
1111,39
1112,39
1113,39
1114,39
1115,40
1116,40
1117,40
1118,40
1119,40
1120,40
1121,40
1122,40
1123,40
1124,40
1125,40
1126,40
1127,40
1128,40
1129,40
1130,40
1131,40
1132,40
1133,40
1134,40
1135,40
1136,40
1137,40
1138,40
1139,40
1140,40
1141,40
1142,40
1143,40
1144,40
1145,40
1146,40
1147,40
1148,40
1149,40
1150,40
1151,40
1152,40
1153,40
1154,40
1155,40
1156,40
1157,40
1158,40
1159,40
1160,40
1161,40
1162,40
1163,40
1164,40
1165,40
1166,40
1167,40
1168,40
1169,40
1170,40
1171,40
1172,40
1173,40
1174,40
1175,40
1176,40
1177,40
1178,40
1179,41
1180,41
1181,41
1182,41
1183,41
1184,41
1185,41
1186,41
1187,41
1188,41
1189,41
1190,41
1191,41
1192,41
1193,41
1194,41
1195,41
1196,41
1197,41
1198,41
1199,41
1200,41
1201,41
1202,41
1203,41
1204,41
1205,41
1206,41
1207,41
1208,41
1209,41
1210,41
1211,41
1212,41
1213,41
1214,41
1215,41
1216,41
1217,41
1218,42
1219,42
1220,42
1221,42
1222,42
1223,42
1224,42
1225,42
1226,42
1227,42
1228,42
1229,42
1230,42
1231,42
1232,42
1233,42
1234,42
1235,42
1236,42
1237,42
1238,42
1239,42
1240,42
1241,43
1242,43
1243,43
1244,43
1245,43
1246,43
1247,43
1248,43
1249,44
1250,44
1251,44
1252,44
1253,44
1254,44
1255,44
1256,44
1257,45
1258,45
1259,45
1260,45
1261,45
1262,45
1263,46
1264,46
1265,46
1266,46
1267,46
1268,46
1269,46
1270,46
1271,46
1272,46
1273,46
1274,46
1275,46
1276,46
1277,47
1278,47
1279,47
1280,47
1281,47
1282,47
1283,47
1284,47
1285,47
1286,47
1287,47
1288,47
1289,47
1290,47
1291,47
1292,47
1293,47
1294,47
1295,47
1296,47
1297,47
1298,47
1299,48
1300,48
1301,48
1302,48
1303,48
1304,48
1305,48
1306,48
1307,48
1308,48
1309,48
1310,48
1311,48
1312,48
1313,48
1314,48
1315,48
1316,48
1317,48
1318,48
1319,48
1320,49
1321,49
1322,49
1323,49
1324,49
1325,49
1326,49
1327,49
1328,50
1329,50
1330,50
1331,50
1332,50
1333,50
1334,50
1335,50
1336,50
1337,50
1338,51
1339,51
1340,51
1341,51
1342,51
1343,51
1344,51
1345,51
1346,51
1347,51
1348,51
1349,51
1350,51
1351,51
1352,51
1353,51
1354,51
1355,51
1356,51
1357,51
1358,51
1359,51
1360,51
1361,51
1362,52
1363,52
1364,52
1365,52
1366,52
1367,52
1368,52
1369,52
1370,52
1371,52
1372,52
1373,52
1374,52
1375,52
1376,52
1377,52
1378,52
1379,52
1380,52
1381,52
1382,52
1383,52
1384,52
1385,52
1386,52
1387,52
1388,52
1389,52
1390,52
1391,52
1392,52
1393,52
1394,52
1395,52
1396,52
1397,52
1398,52
1399,52
1400,52
1401,52
1402,53
1403,53
1404,53
1405,53
1406,53
1407,53
1408,53
1409,53
1410,53
1411,53
1412,54
1413,54
1414,54
1415,54
1416,54
1417,54
1418,54
1419,54
1420,54
1421,54
1422,54
1423,54
1424,54
1425,54
1426,54
1427,54
1428,54
1429,54
1430,54
1431,54
1432,54
1433,54
1434,54
1435,55
1436,55
1437,55
1438,55
1439,55
1440,55
1441,55
1442,55
1443,55
1444,56
1445,56
1446,56
1447,56
1448,56
1449,56
1450,56
1451,56
1452,57
1453,57
1454,57
1455,57
1456,57
1457,58
1458,59
1459,59
1460,59
1461,59
1462,59
1463,59
1464,59
1465,59
1466,59
1467,59
1468,59
1469,59
1470,59
1471,59
1472,59
1473,59
1474,59
1475,59
1476,59
1477,59
1478,59
1479,59
1480,59
1481,59
1482,59
1483,59
1484,59
1485,59
1486,59
1487,59
1488,59
1489,59
1490,59
1491,59
1492,59
1493,59
1494,59
1495,59
1496,59
1497,59
1498,59
1499,59
1500,59
1501,59
1502,59
1503,59
1504,59
1505,59
1506,59
1507,59
1508,59
1509,59
1510,59
1511,59
1512,59
1513,59
1514,59
1515,59
1516,59
1517,59
1518,59
1519,59
1520,59
1521,59
1522,59
1523,59
1524,59
1525,59
1526,59
1527,59
1528,59
1529,59
1530,59
1531,59
1532,59
1533,59
1534,59
1535,59
1536,59
1537,59
1538,59
1539,59
1540,59
1541,59
1542,59
1543,59
1544,59
1545,59
1546,59
1547,59
1548,59
1549,59
1550,59
1551,59
1552,59
1553,60
1554,60
1555,60
1556,60
1557,60
1558,60
1559,60
1560,60
1561,60
1562,60
1563,60
1564,60
1565,60
1566,60
1567,60
1568,60
1569,60
1570,60
1571,60
1572,60
1573,60
1574,60
1575,60
1576,60
1577,60
1578,60
1579,60
1580,60
1581,60
1582,60
1583,60
1584,60
1585,60
1586,60
1587,60
1588,60
1589,60
1590,60
1591,60
1592,60
1593,60
1594,60
1595,60
1596,60
1597,60
1598,60
1599,60
1600,60
1601,60
1602,60
1603,60
1604,60
1605,60
1606,60
1607,60
1608,60
1609,60
1610,60
1611,60
1612,60
1613,60
1614,60
1615,60
1616,60
1617,60
1618,60
1619,60
1620,60
1621,60
1622,60
1623,60
1624,60
1625,60
1626,60
1627,60
1628,60
1629,60
1630,60
1631,60
1632,60
1633,60
1634,60
1635,60
1636,60
1637,60
1638,60
1639,60
1640,60
1641,60
1642,60
1643,60
1644,60
1645,60
1646,60
1647,60
1648,60
1649,60
1650,60
1651,60
1652,60
1653,60
1654,60
1655,60
1656,60
1657,60
1658,60
1659,61
1660,61
1661,61
1662,61
1663,61
1664,61
1665,61
1666,62
1667,62
1668,62
1669,62
1670,62
1671,62
1672,62
1673,62
1674,62
1675,62
1676,62
1677,62
1678,62
1679,62
1680,62
1681,63
1682,64
1683,64
1684,64
1685,64
1686,64
1687,64
1688,64
1689,64
1690,64
1691,64
1692,64
1693,64
1694,64
1695,64
1696,64
1697,64
1698,64
1699,64
1700,64
1701,64
1702,64
1703,64
1704,64
1705,64
1706,64
1707,64
1708,64
1709,64
1710,65
1711,65
1712,65
1713,65
1714,65
1715,65
1716,65
1717,65
1718,65
1719,65
1720,65
1721,65
1722,65
1723,65
1724,65
1725,65
1726,65
1727,65
1728,65
1729,65
1730,65
1731,65
1732,65
1733,65
1734,65
1735,65
1736,65
1737,66
1738,66
1739,66
1740,66
1741,66
1742,66
1743,66
1744,66
1745,66
1746,66
1747,66
1748,66
1749,66
1750,66
1751,66
1752,66
1753,66
1754,66
1755,66
1756,67
1757,67
1758,67
1759,67
1760,67
1761,68
1762,68
1763,68
1764,68
1765,68
1766,68
1767,68
1768,68
1769,68
1770,68
1771,68
1772,68
1773,68
1774,68
1775,68
1776,68
1777,68
1778,68
1779,68
1780,68
1781,68
1782,68
1783,68
1784,68
1785,68
1786,68
1787,68
1788,68
1789,68
1790,68
1791,68
1792,68
1793,68
1794,68
1795,68
1796,68
1797,68
1798,68
1799,69
1800,69
1801,69
1802,69
1803,69
1804,69
1805,69
1806,69
1807,69
1808,69
1809,69
1810,69
1811,69
1812,69
1813,69
1814,69
1815,69
1816,69
1817,69
1818,69
1819,69
1820,69
1821,69
1822,69
1823,69
1824,69
1825,69
1826,69
1827,69
1828,69
1829,69
1830,69
1831,69
1832,69
1833,69
1834,69
1835,69
1836,69
1837,69
1838,69
1839,69
1840,69
1841,70
1842,70
1843,70
1844,70
1845,70
1846,70
1847,70
1848,70
1849,70
1850,70
1851,70
1852,70
1853,70
1854,70
1855,70
1856,70
1857,70
1858,70
1859,70
1860,70
1861,70
1862,70
1863,70
1864,70
1865,70
1866,70
1867,70
1868,70
1869,70
1870,70
1871,70
1872,71
1873,71
1874,71
1875,71
1876,71
1877,71
1878,71
1879,71
1880,71
1881,72
1882,72
1883,72
1884,73
1885,73
1886,73
1887,73
1888,73
1889,73
1890,73
1891,73
1892,73
1893,74
1894,74
1895,74
1896,75
1897,75
1898,75
1899,75
1900,75
1901,75
1902,75
1903,75
1904,75
1905,76
1906,76
1907,76
1908,76
1909,77
1910,77
1911,77
1912,77
1913,77
1914,77
1915,77
1916,77
1917,77
1918,77
1919,77
1920,77
1921,77
1922,77
1923,77
1924,77
1925,77
1926,77
1927,77
1928,77
1929,77
1930,77
1931,77
1932,77
1933,77
1934,77
1935,77
1936,77
1937,77
1938,77
1939,77
1940,77
1941,77
1942,77
1943,77
1944,77
1945,77
1946,77
1947,77
1948,78
1949,78
1950,78
1951,78
1952,78
1953,78
1954,78
1955,78
1956,78
1957,79
1958,79
1959,79
1960,79
1961,79
1962,79
1963,79
1964,79
1965,79
1966,79
1967,79
1968,79
1969,79
1970,79
1971,79
1972,79
1973,79
1974,79
1975,79
1976,79
1977,79
1978,79
1979,79
1980,79
1981,79
1982,79
1983,79
1984,79
1985,79
1986,79
1987,79
1988,79
1989,79
1990,79
1991,79
1992,79
1993,79
1994,79
1995,79
1996,80
1997,80
1998,80
1999,80
2000,80
