"tick","total"
0,0
1,0
2,0
3,0
4,0
5,0
6,0
7,0
8,0
9,0
10,0
11,0
12,0
13,0
14,0
15,0
16,0
17,0
18,0
19,0
20,0
21,0
22,0
23,0
24,0
25,0
26,0
27,0
28,0
29,0
30,0
31,0
32,0
33,0
34,0
35,0
36,0
37,0
38,0
39,0
40,0
41,0
42,0
43,0
44,0
45,0
46,0
47,0
48,0
49,0
50,0
51,0
52,0
53,0
54,0
55,0
56,0
57,0
58,0
59,0
60,0
61,0
62,0
63,0
64,0
65,0
66,0
67,0
68,0
69,0
70,0
71,0
72,0
73,0
74,0
75,0
76,0
77,0
78,0
79,0
80,0
81,0
82,0
83,0
84,0
85,0
86,0
87,0
88,0
89,0
90,0
91,0
92,0
93,0
94,0
95,0
96,0
97,0
98,0
99,0
100,0
101,0
102,0
103,0
104,0
105,0
106,0
107,0
108,0
109,0
110,0
111,0
112,0
113,0
114,0
115,1
116,1
117,1
118,2
119,2
120,2
121,2
122,3
123,3
124,4
125,4
126,4
127,4
128,4
129,4
130,4
131,4
132,4
133,4
134,4
135,4
136,4
137,4
138,4
139,4
140,5
141,5
142,5
143,5
144,5
145,5
146,5
147,5
148,5
149,5
150,5
151,5
152,5
153,5
154,5
155,5
156,5
157,5
158,5
159,5
160,5
161,5
162,5
163,5
164,5
165,5
166,6
167,6
168,6
169,6
170,6
171,6
172,7
173,7
174,7
175,8
176,8
177,9
178,9
179,9
180,10
181,10
182,10
183,10
184,10
185,10
186,10
187,10
188,10
189,10
190,11
191,11
192,11
193,11
194,13
195,13
196,13
197,13
198,13
199,13
200,14
201,14
202,14
203,14
204,14
205,14
206,14
207,15
208,15
209,15
210,15
211,16
212,16
213,16
214,16
215,16
216,16
217,17
218,17
219,17
220,17
221,17
222,17
223,17
224,17
225,17
226,17
227,17
228,17
229,18
230,18
231,18
232,19
233,19
234,19
235,19
236,19
237,19
238,20
239,20
240,20
241,20
242,20
243,20
244,20
245,20
246,21
247,24
248,24
249,24
250,25
251,25
252,25
253,25
254,26
255,26
256,26
257,26
258,26
259,27
260,27
261,27
262,28
263,28
264,28
265,28
266,28
267,28
268,28
269,29
270,29
271,29
272,30
273,30
274,30
275,31
276,31
277,31
278,31
279,31
280,31
281,31
282,31
283,31
284,31
285,31
286,31
287,31
288,31
289,31
290,31
291,31
292,31
293,31
294,31
295,31
296,31
297,31
298,31
299,31
300,31
301,31
302,31
303,31
304,31
305,31
306,31
307,31
308,31
309,31
310,31
311,31
312,31
313,31
314,31
315,31
316,31
317,31
318,31
319,31
320,31
321,31
322,31
323,31
324,31
325,31
326,31
327,31
328,31
329,31
330,31
331,31
332,31
333,31
334,31
335,31
336,31
337,31
338,31
339,31
340,31
341,31
342,31
343,31
344,31
345,31
346,31
347,31
348,31
349,31
350,31
351,31
352,31
353,31
354,31
355,31
356,31
357,31
358,32
359,32
360,32
361,32
362,33
363,33
364,33
365,33
366,33
367,33
368,33
369,33
370,33
371,33
372,33
373,33
374,33
375,34
376,34
377,34
378,34
379,34
380,34
381,34
382,34
383,34
384,34
385,34
386,34
387,34
388,35
389,35
390,35
391,35
392,35
393,35
394,35
395,35
396,35
397,35
398,35
399,36
400,36
401,36
402,36
403,36
404,36
405,37
406,37
407,37
408,37
409,37
410,37
411,37
412,37
413,37
414,37
415,37
416,37
417,37
418,37
419,37
420,37
421,37
422,37
423,37
424,37
425,37
426,37
427,37
428,37
429,37
430,38
431,38
432,38
433,38
434,38
435,38
436,39
437,39
438,40
439,40
440,40
441,40
442,40
443,40
444,40
445,40
446,40
447,40
448,41
449,42
450,42
451,42
452,42
453,42
454,42
455,42
456,42
457,42
458,42
459,42
460,42
461,42
462,42
463,42
464,43
465,43
466,43
467,43
468,43
469,43
470,43
471,43
472,43
473,44
474,44
475,44
476,44
477,44
478,44
479,44
480,44
481,44
482,44
483,44
484,44
485,44
486,44
487,44
488,44
489,44
490,44
491,44
492,44
493,44
494,44
495,44
496,44
497,44
498,44
499,44
500,44
501,44
502,44
503,45
504,45
505,46
506,47
507,48
508,49
509,50
510,51
511,51
512,51
513,51
514,51
515,51
516,52
517,52
518,52
519,52
520,52
521,52
522,52
523,52
524,52
525,52
526,52
527,52
528,52
529,52
530,52
531,52
532,52
533,52
534,52
535,52
536,52
537,52
538,52
539,52
540,52
541,52
542,53
543,53
544,53
545,53
546,53
547,53
548,53
549,53
550,53
551,53
552,53
553,53
554,54
555,55
556,55
557,55
558,55
559,55
560,55
561,55
562,55
563,55
564,55
565,55
566,55
567,55
568,56
569,56
570,56
571,57
572,57
573,57
574,57
575,57
576,57
577,57
578,57
579,57
580,57
581,57
582,57
583,57
584,58
585,58
586,58
587,58
588,58
589,58
590,58
591,58
592,58
593,58
594,58
595,58
596,58
597,58
598,58
599,58
600,58
601,58
602,58
603,58
604,58
605,58
606,58
607,58
608,58
609,58
610,58
611,58
612,58
613,58
614,58
615,58
616,58
617,58
618,58
619,58
620,58
621,58
622,58
623,58
624,58
625,58
626,58
627,58
628,58
629,58
630,58
631,58
632,58
633,58
634,58
635,58
636,58
637,58
638,58
639,58
640,58
641,58
642,58
643,58
644,58
645,58
646,58
647,58
648,58
649,58
650,58
651,58
652,58
653,58
654,58
655,59
656,59
657,59
658,59
659,59
660,59
661,59
662,59
663,59
664,59
665,59
666,59
667,59
668,60
669,60
670,60
671,60
672,60
673,60
674,60
675,60
676,60
677,60
678,60
679,60
680,60
681,60
682,60
683,60
684,60
685,60
686,60
687,60
688,60
689,60
690,60
691,60
692,61
693,62
694,62
695,62
696,62
697,62
698,62
699,62
700,62
701,62
702,62
703,62
704,62
705,62
706,62
707,62
708,62
709,62
710,62
711,63
712,63
713,63
714,64
715,64
716,64
717,64
718,64
719,64
720,64
721,64
722,64
723,64
724,64
725,64
726,64
727,64
728,64
729,64
730,64
731,64
732,64
733,65
734,65
735,65
736,65
737,65
738,67
739,68
740,68
741,69
742,69
743,69
744,69
745,69
746,69
747,70
748,70
749,70
750,70
751,70
752,70
753,70
754,70
755,70
756,70
757,70
758,70
759,70
760,70
761,70
762,70
763,71
764,71
765,71
766,71
767,71
768,71
769,71
770,71
771,71
772,71
773,71
774,72
775,72
776,72
777,72
778,72
779,72
780,72
781,72
782,72
783,72
784,72
785,72
786,72
787,72
788,72
789,72
790,72
791,72
792,72
793,72
794,72
795,72
796,72
797,72
798,72
799,72
800,73
801,73
802,74
803,74
804,74
805,74
806,74
807,74
808,74
809,74
810,74
811,74
812,74
813,74
814,74
815,75
816,75
817,75
818,75
819,75
820,75
821,75
822,75
823,75
824,75
825,75
826,75
827,75
828,76
829,76
830,76
831,77
832,77
833,77
834,77
835,77
836,77
837,77
838,77
839,77
840,77
841,77
842,77
843,77
844,78
845,78
846,78
847,78
848,78
849,78
850,78
851,78
852,78
853,78
854,78
855,78
856,78
857,78
858,78
859,78
860,78
861,78
862,78
863,78
864,78
865,78
866,78
867,78
868,78
869,78
870,78
871,78
872,78
873,78
874,78
875,78
876,78
877,78
878,78
879,78
880,78
881,78
882,78
883,78
884,78
885,78
886,78
887,78
888,78
889,78
890,78
891,79
892,79
893,79
894,79
895,79
896,79
897,79
898,79
899,79
900,79
901,79
902,79
903,79
904,79
905,79
906,79
907,79
908,80
909,80
910,80
911,80
912,80
913,80
914,80
915,80
916,80
917,80
918,80
919,80
920,80
921,80
922,80
923,80
924,80
925,80
926,80
927,80
928,80
929,80
930,80
931,80
932,80
933,80
934,81
935,82
936,83
937,83
938,83
939,83
940,83
941,83
942,83
943,83
944,83
945,83
946,83
947,83
948,83
949,83
950,83
951,83
952,83
953,83
954,83
955,83
956,83
957,83
958,83
959,83
960,83
961,83
962,83
963,83
964,83
965,83
966,83
967,83
968,83
969,83
970,83
971,83
972,83
973,83
974,83
975,83
976,83
977,83
978,83
979,83
980,83
981,83
982,83
983,83
984,83
985,83
986,83
987,83
988,83
989,83
990,83
991,83
992,83
993,83
994,83
995,83
996,83
997,83
998,83
999,83
1000,83
1001,84
1002,84
1003,84
1004,84
1005,84
1006,84
1007,84
1008,84
1009,84
1010,84
1011,84
1012,84
1013,84
1014,84
1015,84
1016,84
1017,84
1018,84
1019,84
1020,84
1021,84
1022,84
1023,84
1024,84
1025,84
1026,84
1027,85
1028,85
1029,85
1030,85
1031,85
1032,85
1033,85
1034,86
1035,87
1036,87
1037,87
1038,87
1039,87
1040,87
1041,87
1042,87
1043,87
1044,87
1045,87
1046,87
1047,87
1048,87
1049,87
1050,87
1051,87
1052,87
1053,87
1054,87
1055,87
1056,87
1057,87
1058,87
1059,87
1060,87
1061,87
1062,87
1063,88
1064,88
1065,88
1066,88
1067,88
1068,88
1069,88
1070,88
1071,88
1072,88
1073,88
1074,88
1075,88
1076,88
1077,88
1078,88
1079,88
1080,88
1081,88
1082,88
1083,88
1084,88
1085,88
1086,89
1087,89
1088,89
1089,89
1090,90
1091,90
1092,90
1093,91
1094,91
1095,91
1096,91
1097,91
1098,91
1099,92
1100,92
1101,92
1102,92
1103,92
1104,92
1105,92
1106,92
1107,92
1108,92
1109,92
1110,92
1111,92
1112,92
1113,92
1114,92
1115,92
1116,92
1117,92
1118,92
1119,92
1120,92
1121,92
1122,92
1123,92
1124,92
1125,92
1126,92
1127,92
1128,92
1129,92
1130,92
1131,92
1132,92
1133,92
1134,92
1135,92
1136,92
1137,92
1138,92
1139,92
1140,92
1141,92
1142,92
1143,92
1144,92
1145,92
1146,92
1147,93
1148,93
1149,93
1150,94
1151,94
1152,94
1153,94
1154,94
1155,94
1156,94
1157,95
1158,95
1159,95
1160,95
1161,95
1162,95
1163,95
1164,95
1165,95
1166,95
1167,95
1168,95
1169,96
1170,96
1171,96
1172,96
1173,96
1174,98
1175,98
1176,98
1177,98
1178,98
1179,98
1180,98
1181,98
1182,98
1183,98
1184,98
1185,98
1186,98
1187,98
1188,98
1189,98
1190,98
1191,98
1192,98
1193,99
1194,99
1195,99
1196,99
1197,99
1198,99
1199,99
1200,99
1201,99
1202,99
1203,99
1204,99
1205,99
1206,99
1207,99
1208,99
1209,99
1210,99
1211,99
1212,99
1213,99
1214,99
1215,99
1216,99
1217,100
1218,100
1219,100
1220,100
1221,100
1222,100
1223,100
1224,101
1225,101
1226,101
1227,101
1228,101
1229,101
1230,102
1231,102
1232,102
1233,102
1234,102
1235,102
1236,102
1237,102
1238,102
1239,102
1240,102
1241,102
1242,102
1243,102
1244,102
1245,103
1246,103
1247,103
1248,103
1249,103
1250,103
1251,103
1252,103
1253,103
1254,103
1255,103
1256,103
1257,103
1258,103
1259,103
1260,103
1261,103
1262,103
1263,103
1264,103
1265,103
1266,103
1267,103
1268,103
1269,103
1270,103
1271,103
1272,103
1273,103
1274,103
1275,103
1276,103
1277,103
1278,103
1279,103
1280,103
1281,103
1282,103
1283,103
1284,103
1285,103
1286,103
1287,103
1288,103
1289,103
1290,103
1291,103
1292,103
1293,103
1294,103
1295,103
1296,103
1297,103
1298,103
1299,103
1300,103
1301,103
1302,103
1303,103
1304,103
1305,103
1306,103
1307,103
1308,103
1309,103
1310,103
1311,103
1312,103
1313,103
1314,103
1315,103
1316,103
1317,103
1318,103
1319,103
1320,103
1321,103
1322,103
1323,103
1324,103
1325,103
1326,103
1327,103
1328,103
1329,103
1330,103
1331,103
1332,103
1333,103
1334,103
1335,103
1336,103
1337,103
1338,103
1339,103
1340,103
1341,103
1342,103
1343,103
1344,103
1345,103
1346,103
1347,103
1348,103
1349,103
1350,103
1351,103
1352,103
1353,103
1354,103
1355,103
1356,103
1357,103
1358,103
1359,103
1360,103
1361,103
1362,103
1363,103
1364,103
1365,103
1366,103
1367,103
1368,103
1369,103
1370,103
1371,103
1372,103
1373,103
1374,103
1375,104
1376,104
1377,104
1378,104
1379,104
1380,104
1381,104
1382,104
1383,105
1384,105
1385,105
1386,105
1387,105
1388,105
1389,105
1390,105
1391,105
1392,105
1393,105
1394,105
1395,105
1396,106
1397,107
1398,107
1399,107
1400,107
1401,107
1402,107
1403,107
1404,107
1405,107
1406,107
1407,108
1408,108
1409,108
1410,108
1411,108
1412,108
1413,108
1414,108
1415,108
1416,108
1417,108
1418,109
1419,109
1420,110
1421,110
1422,110
1423,110
1424,110
1425,110
1426,110
1427,111
1428,111
1429,111
1430,111
1431,111
1432,111
1433,111
1434,111
1435,111
1436,111
1437,111
1438,112
1439,112
1440,113
1441,114
1442,114
1443,114
1444,114
1445,114
1446,114
1447,114
1448,114
1449,114
1450,114
1451,114
1452,114
1453,114
1454,114
1455,114
1456,114
1457,114
1458,115
1459,115
1460,115
1461,115
1462,115
1463,115
1464,115
1465,115
1466,115
1467,115
1468,115
1469,115
1470,115
1471,115
1472,115
1473,115
1474,115
1475,115
1476,115
1477,115
1478,115
1479,115
1480,115
1481,115
1482,115
1483,116
1484,116
1485,116
1486,117
1487,118
1488,118
1489,118
1490,118
1491,119
1492,119
1493,119
1494,119
1495,119
1496,119
1497,119
1498,119
1499,119
1500,119
1501,119
1502,119
1503,119
1504,119
1505,119
1506,119
1507,119
1508,119
1509,119
1510,119
1511,120
1512,120
1513,120
1514,120
1515,120
1516,120
1517,120
1518,120
1519,120
1520,120
1521,120
1522,120
1523,120
1524,122
1525,122
1526,122
1527,122
1528,122
1529,122
1530,122
1531,122
1532,122
1533,122
1534,122
1535,122
1536,122
1537,122
1538,122
1539,122
1540,122
1541,122
1542,122
1543,122
1544,122
1545,122
1546,122
1547,122
1548,123
1549,123
1550,123
1551,123
1552,123
1553,123
1554,123
1555,123
1556,123
1557,123
1558,123
1559,123
1560,123
1561,123
1562,123
1563,123
1564,123
1565,123
1566,123
1567,123
1568,123
1569,123
1570,123
1571,123
1572,123
1573,123
1574,123
1575,123
1576,123
1577,123
1578,123
1579,124
1580,124
1581,124
1582,124
1583,124
1584,124
1585,124
1586,124
1587,125
1588,125
1589,125
1590,125
1591,125
1592,125
1593,125
1594,125
1595,125
1596,125
1597,126
1598,126
1599,126
1600,126
1601,126
1602,126
1603,126
1604,126
1605,126
1606,126
1607,126
1608,126
1609,126
1610,126
1611,126
1612,126
1613,126
1614,126
1615,126
1616,126
1617,126
1618,126
1619,126
1620,127
1621,127
1622,127
1623,127
1624,128
1625,129
1626,129
1627,129
1628,129
1629,129
1630,129
1631,129
1632,129
1633,129
1634,129
1635,130
1636,130
1637,130
1638,130
1639,130
1640,130
1641,130
1642,130
1643,130
1644,130
1645,130
1646,130
1647,130
1648,130
1649,130
1650,130
1651,130
1652,131
1653,131
1654,132
1655,132
1656,132
1657,132
1658,132
1659,132
1660,132
1661,132
1662,133
1663,133
1664,133
1665,133
1666,133
1667,133
1668,133
1669,133
1670,133
1671,133
1672,133
1673,133
1674,133
1675,133
1676,133
1677,133
1678,133
1679,133
1680,133
1681,133
1682,133
1683,133
1684,133
1685,133
1686,133
1687,133
1688,133
1689,133
1690,133
1691,133
1692,133
1693,133
1694,133
1695,133
1696,133
1697,133
1698,133
1699,133
1700,133
1701,133
1702,133
1703,133
1704,133
1705,133
1706,133
1707,133
1708,133
1709,133
1710,133
1711,133
1712,133
1713,133
1714,133
1715,133
1716,133
1717,133
1718,133
1719,133
1720,133
1721,133
1722,133
1723,133
1724,133
1725,134
1726,134
1727,134
1728,135
1729,135
1730,136
1731,136
1732,136
1733,136
1734,136
1735,136
1736,136
1737,136
1738,136
1739,136
1740,136
1741,136
1742,136
1743,136
1744,136
1745,136
1746,136
1747,136
1748,136
1749,136
1750,136
1751,136
1752,136
1753,136
1754,136
1755,137
1756,137
1757,137
1758,137
1759,137
1760,137
1761,137
1762,137
1763,137
1764,137
1765,137
1766,137
1767,138
1768,138
1769,138
1770,138
1771,138
1772,138
1773,138
1774,138
1775,138
1776,138
1777,138
1778,138
1779,138
1780,138
1781,138
1782,138
1783,138
1784,138
1785,138
1786,139
1787,139
1788,139
1789,139
1790,140
1791,140
1792,140
1793,140
1794,140
1795,140
1796,140
1797,140
1798,140
1799,141
1800,141
1801,141
1802,141
1803,141
1804,141
1805,141
1806,141
1807,141
1808,141
1809,141
1810,141
1811,141
1812,141
1813,141
1814,141
1815,141
1816,141
1817,141
1818,141
1819,141
1820,141
1821,141
1822,141
1823,141
1824,141
1825,142
1826,142
1827,142
1828,142
1829,142
1830,142
1831,142
1832,142
1833,144
1834,144
1835,145
1836,145
1837,145
1838,145
1839,145
1840,146
1841,146
1842,146
1843,146
1844,146
1845,146
1846,146
1847,146
1848,146
1849,146
1850,146
1851,146
1852,146
1853,146
1854,146
1855,146
1856,146
1857,146
1858,146
1859,146
1860,146
1861,146
1862,146
1863,146
1864,146
1865,146
1866,146
1867,146
1868,146
1869,146
1870,146
1871,146
1872,146
1873,146
1874,146
1875,146
1876,146
1877,146
1878,146
1879,146
1880,146
1881,146
1882,146
1883,146
1884,146
1885,146
1886,146
1887,146
1888,146
1889,146
1890,146
1891,146
1892,146
1893,146
1894,146
1895,146
1896,146
1897,146
1898,146
1899,146
1900,146
1901,146
1902,146
1903,146
1904,146
1905,146
1906,146
1907,146
1908,146
1909,146
1910,146
1911,146
1912,146
1913,146
1914,147
1915,147
1916,147
1917,147
1918,147
1919,147
1920,147
1921,147
1922,147
1923,147
1924,147
1925,147
1926,147
1927,147
1928,147
1929,147
1930,147
1931,147
1932,147
1933,147
1934,147
1935,147
1936,147
1937,149
1938,149
1939,149
1940,149
1941,150
1942,150
1943,150
1944,150
1945,150
1946,150
1947,150
1948,150
1949,150
1950,150
1951,150
1952,150
1953,150
1954,150
1955,150
1956,150
1957,150
1958,150
1959,150
1960,150
1961,150
1962,150
1963,150
1964,150
1965,150
1966,150
1967,150
1968,150
1969,150
1970,150
1971,150
1972,150
1973,150
1974,150
1975,150
1976,150
1977,151
1978,151
1979,151
1980,151
1981,151
1982,153
1983,153
1984,153
1985,153
1986,153
1987,153
1988,153
1989,153
1990,153
1991,153
1992,153
1993,153
1994,153
1995,153
1996,153
1997,153
1998,153
1999,153
2000,153
