"tick","total"
0,0
1,0
2,0
3,0
4,1
5,1
6,2
7,3
8,3
9,3
10,3
11,3
12,3
13,3
14,3
15,3
16,3
17,3
18,3
19,4
20,4
21,4
22,5
23,5
24,6
25,6
26,6
27,6
28,7
29,7
30,7
31,7
32,7
33,7
34,7
35,7
36,7
37,7
38,8
39,9
40,9
41,9
42,9
43,9
44,10
45,10
46,10
47,10
48,10
49,10
50,10
51,10
52,10
53,10
54,11
55,11
56,11
57,12
58,12
59,12
60,12
61,12
62,12
63,12
64,12
65,12
66,12
67,12
68,12
69,13
70,13
71,13
72,13
73,13
74,13
75,13
76,14
77,14
78,14
79,14
80,14
81,14
82,14
83,14
84,14
85,14
86,14
87,14
88,14
89,14
90,14
91,14
92,14
93,15
94,15
95,16
96,16
97,16
98,16
99,16
100,16
101,16
102,16
103,16
104,16
105,17
106,17
107,17
108,17
109,17
110,17
111,17
112,17
113,17
114,17
115,17
116,17
117,17
118,17
119,17
120,18
121,18
122,18
123,18
124,18
125,18
126,18
127,18
128,18
129,18
130,18
131,18
132,18
133,18
134,18
135,18
136,18
137,18
138,18
139,18
140,18
141,18
142,18
143,19
144,19
145,19
146,19
147,19
148,19
149,19
150,19
151,19
152,19
153,19
154,19
155,19
156,19
157,19
158,19
159,19
160,19
161,19
162,19
163,19
164,19
165,19
166,20
167,20
168,20
169,20
170,21
171,21
172,22
173,22
174,22
175,22
176,22
177,22
178,22
179,22
180,22
181,22
182,22
183,22
184,22
185,22
186,22
187,22
188,22
189,22
190,22
191,22
192,22
193,22
194,22
195,22
196,22
197,22
198,22
199,22
200,22
201,22
202,22
203,22
204,22
205,22
206,22
207,22
208,23
209,23
210,23
211,24
212,24
213,24
214,24
215,24
216,24
217,25
218,25
219,25
220,25
221,25
222,25
223,25
224,26
225,26
226,26
227,26
228,26
229,26
230,26
231,26
232,26
233,26
234,26
235,26
236,26
237,26
238,26
239,26
240,26
241,26
242,26
243,26
244,26
245,26
246,26
247,27
248,28
249,28
250,28
251,28
252,28
253,28
254,28
255,28
256,28
257,28
258,28
259,28
260,28
261,28
262,28
263,28
264,28
265,28
266,28
267,28
268,28
269,28
270,28
271,28
272,28
273,28
274,28
275,28
276,28
277,28
278,28
279,28
280,28
281,28
282,28
283,28
284,28
285,29
286,29
287,29
288,30
289,32
290,33
291,34
292,35
293,36
294,37
295,39
296,40
297,40
298,40
299,41
300,41
301,41
302,41
303,41
304,41
305,41
306,41
307,41
308,41
309,41
310,41
311,41
312,41
313,41
314,41
315,41
316,42
317,42
318,42
319,42
320,42
321,42
322,42
323,43
324,43
325,44
326,44
327,44
328,44
329,44
330,44
331,44
332,44
333,44
334,44
335,45
336,45
337,46
338,46
339,46
340,46
341,46
342,46
343,46
344,46
345,46
346,46
347,46
348,46
349,46
350,46
351,46
352,47
353,47
354,47
355,47
356,47
357,47
358,47
359,47
360,47
361,47
362,49
363,51
364,51
365,52
366,52
367,52
368,52
369,52
370,52
371,52
372,52
373,52
374,53
375,53
376,53
377,53
378,54
379,55
380,55
381,55
382,55
383,55
384,55
385,55
386,56
387,57
388,57
389,57
390,57
391,57
392,57
393,57
394,57
395,57
396,57
397,57
398,57
399,57
400,57
401,58
402,58
403,58
404,59
405,59
406,59
407,59
408,59
409,59
410,59
411,59
412,59
413,59
414,59
415,60
416,60
417,61
418,61
419,61
420,61
421,61
422,61
423,61
424,61
425,61
426,61
427,61
428,61
429,61
430,61
431,61
432,61
433,61
434,61
435,61
436,61
437,61
438,61
439,61
440,61
441,61
442,61
443,61
444,61
445,61
446,61
447,61
448,61
449,61
450,61
451,61
452,61
453,61
454,61
455,61
456,61
457,61
458,61
459,61
460,61
461,61
462,61
463,61
464,61
465,61
466,62
467,62
468,62
469,62
470,62
471,62
472,62
473,62
474,62
475,62
476,62
477,62
478,62
479,62
480,62
481,63
482,63
483,63
484,63
485,63
486,63
487,63
488,63
489,63
490,64
491,64
492,64
493,64
494,64
495,64
496,64
497,64
498,64
499,64
500,64
501,64
502,64
503,65
504,65
505,65
506,65
507,65
508,65
509,67
510,67
511,67
512,68
513,68
514,68
515,68
516,68
517,68
518,68
519,68
520,68
521,68
522,68
523,68
524,68
525,68
526,68
527,68
528,68
529,68
530,68
531,68
532,69
533,69
534,69
535,69
536,69
537,69
538,70
539,70
540,70
541,70
542,70
543,70
544,70
545,70
546,70
547,70
548,70
549,70
550,70
551,70
552,70
553,70
554,71
555,71
556,72
557,74
558,74
559,74
560,74
561,74
562,74
563,74
564,74
565,74
566,74
567,74
568,74
569,74
570,74
571,75
572,76
573,76
574,76
575,76
576,76
577,76
578,76
579,76
580,76
581,76
582,77
583,77
584,77
585,77
586,77
587,77
588,77
589,77
590,78
591,78
592,78
593,78
594,78
595,78
596,78
597,78
598,78
599,79
600,79
601,79
602,79
603,79
604,79
605,79
606,80
607,81
608,81
609,81
610,82
611,82
612,82
613,82
614,82
615,82
616,82
617,82
618,82
619,82
620,82
621,82
622,82
623,82
624,82
625,82
626,82
627,82
628,82
629,82
630,82
631,83
632,83
633,83
634,83
635,83
636,83
637,83
638,83
639,83
640,83
641,83
642,83
643,83
644,83
645,84
646,84
647,84
648,84
649,84
650,84
651,84
652,85
653,85
654,85
655,85
656,85
657,85
658,85
659,85
660,85
661,85
662,85
663,85
664,85
665,85
666,85
667,85
668,85
669,85
670,85
671,85
672,85
673,85
674,85
675,85
676,85
677,85
678,85
679,85
680,85
681,85
682,85
683,85
684,85
685,85
686,85
687,86
688,86
689,86
690,87
691,87
692,87
693,87
694,87
695,87
696,87
697,88
698,88
699,88
700,88
701,88
702,88
703,88
704,88
705,88
706,89
707,89
708,89
709,89
710,89
711,89
712,89
713,90
714,90
715,91
716,91
717,92
718,92
719,92
720,92
721,95
722,95
723,96
724,96
725,96
726,96
727,96
728,96
729,96
730,96
731,96
732,96
733,96
734,96
735,96
736,96
737,96
738,96
739,96
740,98
741,98
742,98
743,98
744,98
745,98
746,98
747,98
748,98
749,98
750,98
751,98
752,98
753,98
754,98
755,98
756,98
757,98
758,98
759,98
760,98
761,98
762,99
763,99
764,99
765,99
766,99
767,99
768,99
769,100
770,100
771,101
772,101
773,101
774,101
775,101
776,101
777,102
778,102
779,102
780,102
781,102
782,102
783,102
784,102
785,102
786,102
787,102
788,102
789,102
790,102
791,102
792,103
793,103
794,104
795,104
796,104
797,105
798,105
799,105
800,105
801,105
802,105
803,105
804,105
805,105
806,105
807,105
808,105
809,105
810,105
811,105
812,105
813,105
814,105
815,105
816,105
817,106
818,107
819,107
820,107
821,107
822,107
823,107
824,107
825,107
826,107
827,107
828,107
829,107
830,107
831,107
832,107
833,107
834,107
835,107
836,107
837,107
838,108
839,108
840,108
841,108
842,108
843,108
844,108
845,108
846,108
847,108
848,108
849,108
850,108
851,108
852,108
853,108
854,108
855,108
856,108
857,108
858,108
859,108
860,108
861,108
862,108
863,108
864,108
865,108
866,108
867,108
868,108
869,108
870,108
871,108
872,108
873,108
874,108
875,109
876,109
877,109
878,109
879,109
880,109
881,109
882,109
883,109
884,109
885,109
886,109
887,109
888,109
889,109
890,109
891,109
892,109
893,109
894,109
895,109
896,109
897,109
898,109
899,109
900,109
901,109
902,109
903,109
904,109
905,109
906,109
907,109
908,109
909,109
910,109
911,109
912,109
913,109
914,110
915,110
916,110
917,110
918,110
919,110
920,110
921,110
922,110
923,110
924,110
925,112
926,112
927,112
928,112
929,113
930,113
931,114
932,114
933,114
934,114
935,114
936,114
937,114
938,114
939,114
940,114
941,114
942,114
943,114
944,114
945,114
946,114
947,114
948,114
949,114
950,115
951,115
952,115
953,115
954,115
955,115
956,115
957,115
958,115
959,115
960,115
961,115
962,115
963,115
964,115
965,116
966,116
967,116
968,116
969,116
970,116
971,116
972,116
973,116
974,116
975,116
976,116
977,116
978,116
979,116
980,116
981,116
982,116
983,116
984,116
985,116
986,116
987,116
988,116
989,116
990,116
991,116
992,116
993,116
994,116
995,116
996,116
997,116
998,116
999,116
1000,116
1001,116
1002,116
1003,116
1004,116
1005,116
1006,116
1007,116
1008,116
1009,116
1010,116
1011,116
1012,116
1013,116
1014,116
1015,116
1016,116
1017,116
1018,116
1019,116
1020,116
1021,116
1022,116
1023,116
1024,116
1025,116
1026,116
1027,116
1028,116
1029,116
1030,116
1031,116
1032,116
1033,116
1034,116
1035,116
1036,116
1037,116
1038,116
1039,116
1040,116
1041,116
1042,116
1043,116
1044,116
1045,116
1046,116
1047,116
1048,116
1049,116
1050,116
1051,116
1052,116
1053,116
1054,116
1055,117
1056,118
1057,118
1058,118
1059,118
1060,118
1061,120
1062,121
1063,121
1064,121
1065,121
1066,121
1067,121
1068,121
1069,121
1070,121
1071,121
1072,122
1073,122
1074,122
1075,122
1076,122
1077,122
1078,122
1079,122
1080,122
1081,122
1082,122
1083,122
1084,122
1085,122
1086,122
1087,122
1088,122
1089,122
1090,122
1091,122
1092,122
1093,122
1094,122
1095,123
1096,123
1097,123
1098,123
1099,123
1100,123
1101,123
1102,123
1103,123
1104,124
1105,124
1106,124
1107,124
1108,124
1109,124
1110,124
1111,124
1112,124
1113,124
1114,124
1115,124
1116,124
1117,125
1118,125
1119,125
1120,125
1121,125
1122,125
1123,125
1124,125
1125,126
1126,126
1127,126
1128,126
1129,126
1130,126
1131,126
1132,126
1133,126
1134,126
1135,126
1136,126
1137,126
1138,126
1139,126
1140,126
1141,127
1142,127
1143,127
1144,127
1145,127
1146,127
1147,127
1148,127
1149,127
1150,127
1151,127
1152,127
1153,127
1154,127
1155,127
1156,127
1157,127
1158,127
1159,127
1160,127
1161,127
1162,128
1163,128
1164,128
1165,128
1166,128
1167,128
1168,128
1169,128
1170,128
1171,128
1172,129
1173,129
1174,129
1175,129
1176,129
1177,129
1178,129
1179,129
1180,129
1181,129
1182,130
1183,130
1184,130
1185,130
1186,130
1187,130
1188,130
1189,130
1190,130
1191,130
1192,130
1193,130
1194,130
1195,130
1196,130
1197,130
1198,130
1199,130
1200,130
1201,130
1202,130
1203,130
1204,130
1205,132
1206,132
1207,132
1208,132
1209,132
1210,132
1211,132
1212,133
1213,133
1214,133
1215,133
1216,133
1217,133
1218,133
1219,134
1220,135
1221,135
1222,136
1223,136
1224,136
1225,136
1226,136
1227,136
1228,136
1229,136
1230,136
1231,136
1232,136
1233,136
1234,136
1235,136
1236,136
1237,136
1238,136
1239,136
1240,136
1241,136
1242,136
1243,136
1244,136
1245,136
1246,136
1247,136
1248,136
1249,136
1250,136
1251,136
1252,136
1253,136
1254,136
1255,136
1256,136
1257,136
1258,136
1259,136
1260,136
1261,136
1262,137
1263,137
1264,137
1265,137
1266,137
1267,137
1268,137
1269,137
1270,137
1271,137
1272,138
1273,138
1274,138
1275,139
1276,139
1277,139
1278,139
1279,139
1280,139
1281,139
1282,139
1283,139
1284,139
1285,139
1286,139
1287,139
1288,139
1289,139
1290,139
1291,139
1292,139
1293,139
1294,139
1295,139
1296,139
1297,139
1298,139
1299,139
1300,139
1301,139
1302,139
1303,139
1304,139
1305,140
1306,140
1307,140
1308,140
1309,140
1310,140
1311,140
1312,140
1313,140
1314,140
1315,140
1316,140
1317,140
1318,140
1319,140
1320,140
1321,140
1322,140
1323,140
1324,140
1325,140
1326,140
1327,140
1328,140
1329,140
1330,140
1331,140
1332,140
1333,140
1334,140
1335,140
1336,140
1337,140
1338,140
1339,140
1340,140
1341,140
1342,140
1343,140
1344,140
1345,140
1346,140
1347,140
1348,140
1349,140
1350,140
1351,140
1352,140
1353,140
1354,140
1355,140
1356,140
1357,140
1358,140
1359,141
1360,141
1361,141
1362,141
1363,141
1364,141
1365,141
1366,141
1367,141
1368,141
1369,141
1370,141
1371,141
1372,142
1373,142
1374,142
1375,142
1376,142
1377,143
1378,143
1379,143
1380,143
1381,143
1382,143
1383,143
1384,143
1385,143
1386,143
1387,143
1388,143
1389,143
1390,143
1391,143
1392,143
1393,143
1394,143
1395,143
1396,143
1397,143
1398,143
1399,143
1400,143
1401,144
1402,144
1403,144
1404,145
1405,145
1406,145
1407,145
1408,145
1409,145
1410,145
1411,145
1412,145
1413,145
1414,145
1415,145
1416,145
1417,145
1418,145
1419,145
1420,145
1421,145
1422,146
1423,146
1424,146
1425,146
1426,146
1427,147
1428,147
1429,147
1430,147
1431,147
1432,147
1433,147
1434,147
1435,147
1436,147
1437,147
1438,147
1439,147
1440,147
1441,147
1442,147
1443,147
1444,147
1445,147
1446,147
1447,147
1448,147
1449,147
1450,147
1451,147
1452,147
1453,147
1454,147
1455,147
1456,147
1457,147
1458,147
1459,147
1460,147
1461,147
1462,147
1463,147
1464,147
1465,147
1466,147
1467,147
1468,147
1469,147
1470,147
1471,147
1472,147
1473,147
1474,147
1475,147
1476,147
1477,147
1478,147
1479,147
1480,147
1481,147
1482,147
1483,148
1484,148
1485,149
1486,149
1487,149
1488,149
1489,149
1490,149
1491,149
1492,149
1493,149
1494,149
1495,149
1496,149
1497,149
1498,149
1499,149
1500,149
1501,149
1502,149
1503,149
1504,149
1505,149
1506,149
1507,149
1508,149
1509,149
1510,149
1511,149
1512,150
1513,150
1514,150
1515,151
1516,151
1517,151
1518,151
1519,152
1520,152
1521,152
1522,152
1523,152
1524,152
1525,153
1526,153
1527,154
1528,154
1529,154
1530,154
1531,154
1532,154
1533,154
1534,154
1535,154
1536,154
1537,154
1538,154
1539,154
1540,154
1541,154
1542,154
1543,155
1544,155
1545,156
1546,156
1547,156
1548,156
1549,156
1550,156
1551,156
1552,156
1553,156
1554,156
1555,156
1556,156
1557,156
1558,156
1559,156
1560,156
1561,156
1562,156
1563,156
1564,156
1565,156
1566,156
1567,156
1568,156
1569,156
1570,156
1571,157
1572,157
1573,157
1574,157
1575,157
1576,157
1577,157
1578,157
1579,157
1580,158
1581,158
1582,158
1583,158
1584,159
1585,159
1586,159
1587,159
1588,159
1589,159
1590,159
1591,159
1592,159
1593,159
1594,159
1595,159
1596,159
1597,160
1598,160
1599,160
1600,160
1601,160
1602,160
1603,160
1604,160
1605,160
1606,160
1607,160
1608,160
1609,160
1610,160
1611,160
1612,160
1613,160
1614,160
1615,160
1616,160
1617,160
1618,160
1619,160
1620,161
1621,161
1622,162
1623,162
1624,163
1625,163
1626,163
1627,163
1628,163
1629,163
1630,163
1631,163
1632,163
1633,163
1634,163
1635,163
1636,163
1637,163
1638,163
1639,163
1640,163
1641,163
1642,163
1643,163
1644,163
1645,163
1646,163
1647,163
1648,163
1649,163
1650,163
1651,163
1652,163
1653,163
1654,163
1655,163
1656,163
1657,163
1658,163
1659,163
1660,163
1661,163
1662,163
1663,163
1664,163
1665,164
1666,164
1667,164
1668,164
1669,164
1670,164
1671,164
1672,164
1673,164
1674,164
1675,164
1676,164
1677,164
1678,164
1679,164
1680,164
1681,164
1682,164
1683,164
1684,164
1685,164
1686,164
1687,164
1688,164
1689,164
1690,164
1691,164
1692,164
1693,164
1694,164
1695,164
1696,164
1697,164
1698,164
1699,164
1700,164
1701,164
1702,164
1703,164
1704,164
1705,164
1706,164
1707,165
1708,165
1709,165
1710,165
1711,166
1712,166
1713,166
1714,166
1715,166
1716,166
1717,166
1718,167
1719,167
1720,167
1721,167
1722,167
1723,167
1724,167
1725,167
1726,167
1727,167
1728,167
1729,167
1730,169
1731,169
1732,169
1733,169
1734,169
1735,169
1736,169
1737,169
1738,169
1739,169
1740,169
1741,169
1742,169
1743,169
1744,169
1745,169
1746,169
1747,169
1748,169
1749,169
1750,169
1751,169
1752,169
1753,169
1754,169
1755,169
1756,169
1757,169
1758,169
1759,169
1760,169
1761,169
1762,169
1763,169
1764,169
1765,169
1766,169
1767,169
1768,169
1769,169
1770,169
1771,169
1772,169
1773,169
1774,169
1775,169
1776,169
1777,169
1778,169
1779,169
1780,169
1781,169
1782,169
1783,169
1784,169
1785,169
1786,169
1787,169
1788,169
1789,169
1790,169
1791,169
1792,169
1793,169
1794,169
1795,169
1796,169
1797,169
1798,169
1799,169
1800,169
1801,169
1802,169
1803,169
1804,169
1805,169
1806,169
1807,169
1808,169
1809,169
1810,169
1811,169
1812,170
1813,170
1814,170
1815,170
1816,170
1817,170
1818,170
1819,170
1820,170
1821,170
1822,170
1823,170
1824,170
1825,171
1826,171
1827,171
1828,171
1829,171
1830,171
1831,171
1832,171
1833,171
1834,171
1835,172
1836,172
1837,172
1838,172
1839,172
1840,172
1841,172
1842,172
1843,172
1844,172
1845,172
1846,172
1847,172
1848,172
1849,172
1850,172
1851,172
1852,172
1853,172
1854,172
1855,172
1856,173
1857,173
1858,173
1859,173
1860,173
1861,173
1862,174
1863,174
1864,174
1865,174
1866,174
1867,174
1868,174
1869,175
1870,175
1871,175
1872,175
1873,175
1874,175
1875,175
1876,175
1877,175
1878,175
1879,175
1880,175
1881,175
1882,175
1883,175
1884,175
1885,175
1886,175
1887,175
1888,175
1889,175
1890,175
1891,175
1892,175
1893,175
1894,175
1895,175
1896,175
1897,175
1898,175
1899,175
1900,175
1901,175
1902,175
1903,175
1904,175
1905,175
1906,175
1907,175
1908,175
1909,176
1910,176
1911,176
1912,176
1913,176
1914,176
1915,176
1916,176
1917,176
1918,176
1919,176
1920,176
1921,176
1922,176
1923,176
1924,176
1925,176
1926,176
1927,176
1928,176
1929,176
1930,176
1931,176
1932,176
1933,176
1934,176
1935,176
1936,176
1937,176
1938,176
1939,176
1940,177
1941,177
1942,177
1943,177
1944,177
1945,177
1946,177
1947,177
1948,177
1949,177
1950,177
1951,177
1952,177
1953,177
1954,177
1955,177
1956,177
1957,177
1958,177
1959,177
1960,177
1961,177
1962,177
1963,177
1964,177
1965,177
1966,178
1967,178
1968,178
1969,178
1970,178
1971,178
1972,178
1973,178
1974,178
1975,178
1976,178
1977,179
1978,179
1979,179
1980,179
1981,179
1982,179
1983,179
1984,179
1985,179
1986,179
1987,179
1988,179
1989,179
1990,179
1991,179
1992,179
1993,179
1994,179
1995,179
1996,179
1997,179
1998,179
1999,179
2000,180
