"tick","susceptible","exposed","infectious","recovered"
0,99,1,0,0
1,99,1,0,0
2,99,1,0,0
3,99,1,0,0
4,99,1,0,0
5,99,1,0,0
6,99,1,0,0
7,99,1,0,0
8,99,1,0,0
9,99,1,0,0
10,99,1,0,0
11,99,1,0,0
12,99,1,0,0
13,99,1,0,0
14,99,1,0,0
15,99,1,0,0
16,99,1,0,0
17,99,1,0,0
18,99,1,0,0
19,99,1,0,0
20,99,1,0,0
21,99,1,0,0
22,99,1,0,0
23,99,1,0,0
24,99,1,0,0
25,99,1,0,0
26,99,1,0,0
27,99,1,0,0
28,99,1,0,0
29,99,1,0,0
30,99,1,0,0
31,99,1,0,0
32,99,1,0,0
33,99,1,0,0
34,99,1,0,0
35,99,1,0,0
36,99,1,0,0
37,99,1,0,0
38,99,1,0,0
39,99,1,0,0
40,99,1,0,0
41,99,1,0,0
42,99,1,0,0
43,99,1,0,0
44,99,1,0,0
45,99,1,0,0
46,99,1,0,0
47,99,1,0,0
48,99,1,0,0
49,99,1,0,0
50,99,1,0,0
51,99,1,0,0
52,99,1,0,0
53,99,1,0,0
54,99,1,0,0
55,99,1,0,0
56,99,1,0,0
57,99,1,0,0
58,99,1,0,0
59,99,1,0,0
60,99,1,0,0
61,99,1,0,0
62,99,1,0,0
63,99,1,0,0
64,99,1,0,0
65,99,1,0,0
66,99,1,0,0
67,99,1,0,0
68,99,1,0,0
69,99,1,0,0
70,99,1,0,0
71,99,1,0,0
72,99,1,0,0
73,99,1,0,0
74,99,1,0,0
75,99,1,0,0
76,99,1,0,0
77,99,1,0,0
78,99,1,0,0
79,99,1,0,0
80,99,1,0,0
81,99,1,0,0
82,99,1,0,0
83,99,1,0,0
84,99,1,0,0
85,99,1,0,0
86,99,1,0,0
87,99,1,0,0
88,99,1,0,0
89,99,1,0,0
90,99,1,0,0
91,99,1,0,0
92,99,1,0,0
93,99,1,0,0
94,99,1,0,0
95,99,1,0,0
96,99,1,0,0
97,99,1,0,0
98,99,1,0,0
99,99,1,0,0
100,99,1,0,0
101,99,1,0,0
102,99,1,0,0
103,99,1,0,0
104,99,1,0,0
105,99,1,0,0
106,99,1,0,0
107,99,1,0,0
108,99,1,0,0
109,99,1,0,0
110,99,1,0,0
111,99,1,0,0
112,99,1,0,0
113,99,1,0,0
114,99,1,0,0
115,99,1,0,0
116,99,1,0,0
117,99,1,0,0
118,99,1,0,0
119,99,1,0,0
120,99,1,0,0
121,99,1,0,0
122,99,1,0,0
123,99,1,0,0
124,99,1,0,0
125,99,1,0,0
126,99,1,0,0
127,99,1,0,0
128,99,1,0,0
129,99,1,0,0
130,99,1,0,0
131,99,1,0,0
132,99,1,0,0
133,99,1,0,0
134,99,1,0,0
135,99,1,0,0
136,99,1,0,0
137,99,1,0,0
138,99,1,0,0
139,99,1,0,0
140,99,1,0,0
141,99,1,0,0
142,99,1,0,0
143,99,1,0,0
144,99,1,0,0
145,99,1,0,0
146,99,1,0,0
147,99,1,0,0
148,99,1,0,0
149,99,1,0,0
150,99,1,0,0
151,99,1,0,0
152,99,1,0,0
153,99,1,0,0
154,99,1,0,0
155,99,1,0,0
156,99,1,0,0
157,99,1,0,0
158,99,1,0,0
159,99,1,0,0
160,99,1,0,0
161,99,1,0,0
162,99,1,0,0
163,99,1,0,0
164,99,1,0,0
165,99,1,0,0
166,99,1,0,0
167,99,1,0,0
168,99,1,0,0
169,99,1,0,0
170,99,1,0,0
171,99,1,0,0
172,99,1,0,0
173,99,1,0,0
174,99,1,0,0
175,99,1,0,0
176,99,1,0,0
177,99,1,0,0
178,99,1,0,0
179,99,1,0,0
180,99,1,0,0
181,99,1,0,0
182,99,1,0,0
183,99,1,0,0
184,99,1,0,0
185,99,1,0,0
186,99,1,0,0
187,99,1,0,0
188,99,1,0,0
189,99,1,0,0
190,99,1,0,0
191,99,1,0,0
192,99,1,0,0
193,99,1,0,0
194,99,1,0,0
195,99,1,0,0
196,99,1,0,0
197,99,1,0,0
198,99,1,0,0
199,99,1,0,0
200,99,1,0,0
201,99,0,1,0
202,99,0,1,0
203,99,0,1,0
204,99,0,1,0
205,99,0,1,0
206,99,0,1,0
207,99,0,1,0
208,99,0,1,0
209,99,0,1,0
210,99,0,1,0
211,99,0,1,0
212,99,0,1,0
213,99,0,1,0
214,99,0,1,0
215,99,0,1,0
216,99,0,1,0
217,99,0,1,0
218,99,0,1,0
219,99,0,1,0
220,99,0,1,0
221,99,0,1,0
222,99,0,1,0
223,99,0,1,0
224,99,0,1,0
225,99,0,1,0
226,99,0,1,0
227,99,0,1,0
228,99,0,1,0
229,99,0,1,0
230,99,0,1,0
231,99,0,1,0
232,99,0,1,0
233,99,0,1,0
234,99,0,1,0
235,99,0,1,0
236,99,0,1,0
237,99,0,1,0
238,99,0,1,0
239,99,0,1,0
240,99,0,1,0
241,99,0,1,0
242,99,0,1,0
243,99,0,1,0
244,99,0,1,0
245,99,0,1,0
246,99,0,1,0
247,99,0,1,0
248,99,0,1,0
249,99,0,1,0
250,99,0,1,0
251,99,0,1,0
252,99,0,1,0
253,99,0,1,0
254,99,0,1,0
255,99,0,1,0
256,99,0,1,0
257,99,0,1,0
258,99,0,1,0
259,99,0,1,0
260,99,0,1,0
261,99,0,1,0
262,99,0,1,0
263,99,0,1,0
264,99,0,1,0
265,99,0,1,0
266,99,0,1,0
267,99,0,1,0
268,99,0,1,0
269,99,0,1,0
270,99,0,1,0
271,99,0,1,0
272,99,0,1,0
273,99,0,1,0
274,99,0,1,0
275,99,0,1,0
276,99,0,1,0
277,99,0,1,0
278,99,0,1,0
279,98,1,1,0
280,98,1,1,0
281,98,1,1,0
282,98,1,1,0
283,98,1,1,0
284,98,1,1,0
285,98,1,1,0
286,98,1,1,0
287,98,1,1,0
288,98,1,1,0
289,98,1,1,0
290,98,1,1,0
291,98,1,1,0
292,98,1,1,0
293,98,1,1,0
294,98,1,1,0
295,98,1,1,0
296,98,1,1,0
297,98,1,1,0
298,98,1,1,0
299,98,1,1,0
300,98,1,1,0
301,98,1,1,0
302,98,1,1,0
303,98,1,1,0
304,98,1,1,0
305,98,1,1,0
306,98,1,1,0
307,98,1,1,0
308,98,1,1,0
309,98,1,1,0
310,98,1,1,0
311,98,1,1,0
312,98,1,1,0
313,98,1,1,0
314,98,1,1,0
315,98,1,1,0
316,98,1,1,0
317,98,1,1,0
318,98,1,1,0
319,98,1,1,0
320,98,1,1,0
321,98,1,1,0
322,98,1,1,0
323,98,1,1,0
324,98,1,1,0
325,98,1,1,0
326,98,1,1,0
327,98,1,1,0
328,98,1,1,0
329,98,1,1,0
330,98,1,1,0
331,98,1,1,0
332,98,1,1,0
333,98,1,1,0
334,98,1,1,0
335,98,1,1,0
336,98,1,1,0
337,98,1,1,0
338,98,1,1,0
339,98,1,1,0
340,98,1,1,0
341,98,1,1,0
342,98,1,1,0
343,98,1,1,0
344,98,1,1,0
345,98,1,1,0
346,98,1,1,0
347,98,1,1,0
348,98,1,1,0
349,98,1,1,0
350,98,1,1,0
351,98,1,1,0
352,98,1,1,0
353,98,1,1,0
354,98,1,1,0
355,98,1,1,0
356,98,1,1,0
357,98,1,1,0
358,98,1,1,0
359,98,1,1,0
360,98,1,1,0
361,98,1,1,0
362,98,1,1,0
363,98,1,1,0
364,98,1,1,0
365,98,1,1,0
366,98,1,1,0
367,98,1,1,0
368,98,1,1,0
369,98,1,1,0
370,98,1,1,0
371,98,1,1,0
372,98,1,1,0
373,98,1,1,0
374,98,1,1,0
375,98,1,1,0
376,98,1,1,0
377,98,1,1,0
378,98,1,1,0
379,98,1,1,0
380,98,1,1,0
381,98,1,1,0
382,98,1,1,0
383,98,1,1,0
384,98,1,1,0
385,98,1,1,0
386,98,1,1,0
387,98,1,1,0
388,98,1,1,0
389,98,1,1,0
390,98,1,1,0
391,98,1,1,0
392,98,1,1,0
393,98,1,1,0
394,98,1,1,0
395,98,1,1,0
396,98,1,1,0
397,98,1,1,0
398,98,1,1,0
399,98,1,1,0
400,98,1,1,0
401,98,1,1,0
402,98,1,0,1
403,98,1,0,1
404,98,1,0,1
405,98,1,0,1
406,98,1,0,1
407,98,1,0,1
408,98,1,0,1
409,98,1,0,1
410,98,1,0,1
411,98,1,0,1
412,98,1,0,1
413,98,1,0,1
414,98,1,0,1
415,98,1,0,1
416,98,1,0,1
417,98,1,0,1
418,98,1,0,1
419,98,1,0,1
420,98,1,0,1
421,98,1,0,1
422,98,1,0,1
423,98,1,0,1
424,98,1,0,1
425,98,1,0,1
426,98,1,0,1
427,98,1,0,1
428,98,1,0,1
429,98,1,0,1
430,98,1,0,1
431,98,1,0,1
432,98,1,0,1
433,98,1,0,1
434,98,1,0,1
435,98,1,0,1
436,98,1,0,1
437,98,1,0,1
438,98,1,0,1
439,98,1,0,1
440,98,1,0,1
441,98,1,0,1
442,98,1,0,1
443,98,1,0,1
444,98,1,0,1
445,98,1,0,1
446,98,1,0,1
447,98,1,0,1
448,98,1,0,1
449,98,1,0,1
450,98,1,0,1
451,98,1,0,1
452,98,1,0,1
453,98,1,0,1
454,98,1,0,1
455,98,1,0,1
456,98,1,0,1
457,98,1,0,1
458,98,1,0,1
459,98,1,0,1
460,98,1,0,1
461,98,1,0,1
462,98,1,0,1
463,98,1,0,1
464,98,1,0,1
465,98,1,0,1
466,98,1,0,1
467,98,1,0,1
468,98,1,0,1
469,98,1,0,1
470,98,1,0,1
471,98,1,0,1
472,98,1,0,1
473,98,1,0,1
474,98,1,0,1
475,98,1,0,1
476,98,1,0,1
477,98,1,0,1
478,98,1,0,1
479,98,1,0,1
480,96,2,1,1
481,96,2,1,1
482,96,2,1,1
483,96,2,1,1
484,96,2,1,1
485,96,2,1,1
486,96,2,1,1
487,95,3,1,1
488,94,4,1,1
489,94,4,1,1
490,93,5,1,1
491,93,5,1,1
492,92,6,1,1
493,92,6,1,1
494,92,6,1,1
495,92,6,1,1
496,92,6,1,1
497,92,6,1,1
498,92,6,1,1
499,91,7,1,1
500,91,7,1,1
501,91,7,1,1
502,91,7,1,1
503,91,7,1,1
504,91,7,1,1
505,91,7,1,1
506,91,7,1,1
507,91,7,1,1
508,91,7,1,1
509,91,7,1,1
510,91,7,1,1
511,91,7,1,1
512,91,7,1,1
513,91,7,1,1
514,91,7,1,1
515,91,7,1,1
516,91,7,1,1
517,91,7,1,1
518,91,7,1,1
519,91,7,1,1
520,91,7,1,1
521,91,7,1,1
522,90,8,1,1
523,90,8,1,1
524,90,8,1,1
525,90,8,1,1
526,90,8,1,1
527,90,8,1,1
528,90,8,1,1
529,90,8,1,1
530,90,8,1,1
531,90,8,1,1
532,90,8,1,1
533,90,8,1,1
534,90,8,1,1
535,90,8,1,1
536,90,8,1,1
537,90,8,1,1
538,90,8,1,1
539,90,8,1,1
540,90,8,1,1
541,90,8,1,1
542,90,8,1,1
543,90,8,1,1
544,90,8,1,1
545,90,8,1,1
546,90,8,1,1
547,90,8,1,1
548,90,8,1,1
549,90,8,1,1
550,90,8,1,1
551,90,8,1,1
552,90,8,1,1
553,90,8,1,1
554,90,8,1,1
555,90,8,1,1
556,90,8,1,1
557,90,8,1,1
558,90,8,1,1
559,90,8,1,1
560,90,8,1,1
561,90,8,1,1
562,90,8,1,1
563,90,8,1,1
564,90,8,1,1
565,90,8,1,1
566,90,8,1,1
567,90,8,1,1
568,90,8,1,1
569,90,8,1,1
570,90,8,1,1
571,90,8,1,1
572,90,8,1,1
573,89,9,1,1
574,89,9,1,1
575,89,9,1,1
576,89,9,1,1
577,89,9,1,1
578,89,9,1,1
579,89,9,1,1
580,89,9,1,1
581,89,9,1,1
582,89,9,1,1
583,89,9,1,1
584,89,9,1,1
585,89,9,1,1
586,89,9,1,1
587,89,9,1,1
588,89,9,1,1
589,89,9,1,1
590,89,9,1,1
591,89,9,1,1
592,89,9,1,1
593,89,9,1,1
594,89,9,1,1
595,89,9,1,1
596,89,9,1,1
597,89,9,1,1
598,89,9,1,1
599,89,9,1,1
600,89,9,1,1
601,89,9,1,1
602,89,9,1,1
603,89,9,1,1
604,89,9,1,1
605,89,9,1,1
606,89,9,1,1
607,89,9,1,1
608,89,9,1,1
609,89,9,1,1
610,89,9,1,1
611,89,9,1,1
612,89,9,1,1
613,89,9,1,1
614,89,9,1,1
615,89,9,1,1
616,89,9,1,1
617,89,9,1,1
618,89,9,1,1
619,89,9,1,1
620,89,9,1,1
621,89,9,1,1
622,89,9,1,1
623,89,9,1,1
624,89,9,1,1
625,89,9,1,1
626,89,9,1,1
627,89,9,1,1
628,89,9,1,1
629,89,9,1,1
630,89,9,1,1
631,89,9,1,1
632,89,9,1,1
633,89,9,1,1
634,89,9,1,1
635,89,9,1,1
636,89,9,1,1
637,89,9,1,1
638,89,9,1,1
639,89,9,1,1
640,89,9,1,1
641,89,9,1,1
642,89,9,1,1
643,89,9,1,1
644,89,9,1,1
645,89,9,1,1
646,89,9,1,1
647,89,9,1,1
648,89,9,1,1
649,89,9,1,1
650,89,9,1,1
651,89,9,1,1
652,89,9,1,1
653,89,9,1,1
654,89,9,1,1
655,89,9,1,1
656,89,9,1,1
657,89,9,1,1
658,89,9,1,1
659,89,9,1,1
660,89,9,1,1
661,89,9,1,1
662,89,9,1,1
663,89,9,1,1
664,89,9,1,1
665,89,9,1,1
666,89,9,1,1
667,89,9,1,1
668,89,9,1,1
669,89,9,1,1
670,89,9,1,1
671,89,9,1,1
672,89,9,1,1
673,89,9,1,1
674,89,9,1,1
675,89,9,1,1
676,89,9,1,1
677,89,9,1,1
678,89,9,1,1
679,89,9,1,1
680,89,9,1,1
681,89,7,2,2
682,89,7,2,2
683,89,7,2,2
684,89,7,2,2
685,89,7,2,2
686,89,7,2,2
687,89,7,2,2
688,89,6,3,2
689,89,5,4,2
690,89,5,4,2
691,88,5,5,2
692,87,6,5,2
693,86,6,6,2
694,85,7,6,2
695,85,7,6,2
696,85,7,6,2
697,85,7,6,2
698,85,7,6,2
699,85,7,6,2
700,84,7,7,2
701,84,7,7,2
702,83,8,7,2
703,83,8,7,2
704,83,8,7,2
705,82,9,7,2
706,82,9,7,2
707,82,9,7,2
708,82,9,7,2
709,82,9,7,2
710,82,9,7,2
711,82,9,7,2
712,82,9,7,2
713,82,9,7,2
714,82,9,7,2
715,81,10,7,2
716,81,10,7,2
717,81,10,7,2
718,81,10,7,2
719,80,11,7,2
720,80,11,7,2
721,80,11,7,2
722,80,11,7,2
723,80,10,8,2
724,80,10,8,2
725,80,10,8,2
726,80,10,8,2
727,80,10,8,2
728,78,12,8,2
729,78,12,8,2
730,78,12,8,2
731,78,12,8,2
732,78,12,8,2
733,78,12,8,2
734,78,12,8,2
735,78,12,8,2
736,78,12,8,2
737,78,12,8,2
738,78,12,8,2
739,77,13,8,2
740,77,13,8,2
741,77,13,8,2
742,77,13,8,2
743,77,13,8,2
744,77,13,8,2
745,77,13,8,2
746,77,13,8,2
747,77,13,8,2
748,77,13,8,2
749,77,13,8,2
750,77,13,8,2
751,77,13,8,2
752,77,13,8,2
753,77,13,8,2
754,77,13,8,2
755,77,13,8,2
756,77,13,8,2
757,77,13,8,2
758,77,13,8,2
759,77,13,8,2
760,77,13,8,2
761,77,13,8,2
762,77,13,8,2
763,77,13,8,2
764,77,13,8,2
765,77,13,8,2
766,77,13,8,2
767,77,13,8,2
768,77,13,8,2
769,77,13,8,2
770,76,14,8,2
771,76,14,8,2
772,76,14,8,2
773,76,14,8,2
774,76,13,9,2
775,76,13,9,2
776,76,13,9,2
777,76,13,9,2
778,76,13,9,2
779,76,13,9,2
780,76,13,9,2
781,76,13,9,2
782,76,13,9,2
783,76,13,9,2
784,76,13,9,2
785,76,13,9,2
786,76,13,9,2
787,76,13,9,2
788,76,13,9,2
789,76,13,9,2
790,76,13,9,2
791,76,13,9,2
792,76,13,9,2
793,76,13,9,2
794,76,13,9,2
795,76,13,9,2
796,76,13,9,2
797,75,14,9,2
798,75,14,9,2
799,75,14,9,2
800,75,14,9,2
801,75,14,9,2
802,75,14,9,2
803,75,14,9,2
804,75,14,9,2
805,75,14,9,2
806,75,14,9,2
807,75,14,9,2
808,75,14,9,2
809,75,14,9,2
810,75,14,9,2
811,75,14,9,2
812,75,14,9,2
813,75,14,9,2
814,75,14,9,2
815,75,14,9,2
816,74,15,9,2
817,74,15,9,2
818,74,15,9,2
819,74,15,9,2
820,74,15,9,2
821,74,15,9,2
822,74,15,9,2
823,74,15,9,2
824,74,15,9,2
825,74,15,9,2
826,74,15,9,2
827,74,15,9,2
828,74,15,9,2
829,74,15,9,2
830,74,15,9,2
831,74,15,9,2
832,74,15,9,2
833,74,15,9,2
834,74,15,9,2
835,74,15,9,2
836,74,15,9,2
837,74,15,9,2
838,74,15,9,2
839,74,15,9,2
840,74,15,9,2
841,74,15,9,2
842,74,15,9,2
843,74,15,9,2
844,74,15,9,2
845,74,15,9,2
846,74,15,9,2
847,74,15,9,2
848,74,15,9,2
849,74,15,9,2
850,74,15,9,2
851,74,15,9,2
852,74,15,9,2
853,74,15,9,2
854,74,15,9,2
855,74,15,9,2
856,74,15,9,2
857,74,15,9,2
858,74,15,9,2
859,74,15,9,2
860,74,15,9,2
861,74,15,9,2
862,74,15,9,2
863,74,15,9,2
864,74,15,9,2
865,74,15,9,2
866,74,15,9,2
867,74,15,9,2
868,74,15,9,2
869,74,15,9,2
870,74,15,9,2
871,74,15,9,2
872,74,15,9,2
873,74,15,9,2
874,74,15,9,2
875,74,15,9,2
876,74,15,9,2
877,74,15,9,2
878,74,15,9,2
879,74,15,9,2
880,74,15,9,2
881,74,15,9,2
882,74,15,7,4
883,74,15,7,4
884,74,15,7,4
885,74,15,7,4
886,74,15,7,4
887,74,15,7,4
888,74,15,7,4
889,74,15,6,5
890,74,15,5,6
891,74,15,5,6
892,74,14,5,7
893,73,14,6,7
894,73,13,6,8
895,73,12,7,8
896,73,12,7,8
897,73,12,7,8
898,72,13,7,8
899,72,13,7,8
900,72,13,7,8
901,71,13,7,9
902,71,13,7,9
903,71,12,8,9
904,71,12,8,9
905,71,12,8,9
906,70,12,9,9
907,70,12,9,9
908,69,13,9,9
909,69,13,9,9
910,68,14,9,9
911,68,14,9,9
912,68,14,9,9
913,68,14,9,9
914,68,14,9,9
915,68,14,9,9
916,68,13,10,9
917,68,13,10,9
918,68,13,10,9
919,68,13,10,9
920,68,12,11,9
921,68,12,11,9
922,68,12,11,9
923,68,12,11,9
924,68,12,10,10
925,68,12,10,10
926,68,12,10,10
927,68,12,10,10
928,68,12,10,10
929,68,10,12,10
930,68,10,12,10
931,68,10,12,10
932,68,10,12,10
933,68,10,12,10
934,68,10,12,10
935,68,10,12,10
936,68,10,12,10
937,68,10,12,10
938,68,10,12,10
939,68,10,12,10
940,67,10,13,10
941,67,10,13,10
942,67,10,13,10
943,66,11,13,10
944,66,11,13,10
945,66,11,13,10
946,66,11,13,10
947,66,11,13,10
948,66,11,13,10
949,66,11,13,10
950,65,12,13,10
951,65,12,13,10
952,65,12,13,10
953,65,12,13,10
954,64,13,13,10
955,64,13,13,10
956,64,13,13,10
957,64,13,13,10
958,64,13,13,10
959,64,13,13,10
960,64,13,13,10
961,63,14,13,10
962,63,14,13,10
963,63,14,13,10
964,62,15,13,10
965,62,15,13,10
966,62,15,13,10
967,62,15,13,10
968,61,16,13,10
969,61,16,13,10
970,61,16,13,10
971,61,15,14,10
972,61,15,14,10
973,61,15,14,10
974,61,15,14,10
975,61,15,13,11
976,61,15,13,11
977,61,15,13,11
978,61,15,13,11
979,61,15,13,11
980,61,15,13,11
981,61,15,13,11
982,61,15,13,11
983,61,15,13,11
984,60,16,13,11
985,60,16,13,11
986,60,16,13,11
987,59,17,13,11
988,59,17,13,11
989,59,17,13,11
990,59,17,13,11
991,59,17,13,11
992,59,17,13,11
993,59,17,13,11
994,58,18,13,11
995,58,18,13,11
996,58,18,13,11
997,58,18,13,11
998,58,17,14,11
999,58,17,14,11
1000,58,17,14,11
1001,58,17,14,11
1002,58,17,14,11
1003,58,17,14,11
1004,58,17,14,11
1005,58,17,14,11
1006,58,17,14,11
1007,58,17,14,11
1008,58,17,14,11
1009,58,17,14,11
1010,58,17,14,11
1011,58,17,14,11
1012,58,17,14,11
1013,58,17,14,11
1014,58,17,14,11
1015,58,17,14,11
1016,58,17,14,11
1017,58,16,15,11
1018,58,16,15,11
1019,58,16,15,11
1020,58,16,15,11
1021,58,16,15,11
1022,58,16,15,11
1023,58,16,15,11
1024,58,16,15,11
1025,58,16,15,11
1026,58,16,15,11
1027,58,16,15,11
1028,58,16,15,11
1029,58,16,15,11
1030,58,16,15,11
1031,57,17,15,11
1032,57,17,15,11
1033,57,17,15,11
1034,57,17,15,11
1035,57,17,15,11
1036,57,17,15,11
1037,57,17,15,11
1038,57,17,15,11
1039,57,17,15,11
1040,57,17,15,11
1041,57,17,15,11
1042,57,17,15,11
1043,57,17,15,11
1044,56,18,15,11
1045,56,18,15,11
1046,56,18,15,11
1047,56,18,15,11
1048,56,18,15,11
1049,56,18,15,11
1050,56,18,15,11
1051,56,18,15,11
1052,56,18,15,11
1053,56,18,15,11
1054,56,18,15,11
1055,56,18,15,11
1056,56,18,15,11
1057,56,18,15,11
1058,56,18,15,11
1059,56,18,15,11
1060,56,18,15,11
1061,56,18,15,11
1062,56,18,15,11
1063,55,19,15,11
1064,55,19,15,11
1065,55,19,15,11
1066,55,19,15,11
1067,55,19,15,11
1068,55,19,15,11
1069,55,19,15,11
1070,55,19,15,11
1071,55,19,15,11
1072,55,19,15,11
1073,54,20,15,11
1074,54,20,15,11
1075,54,20,15,11
1076,54,20,15,11
1077,54,20,15,11
1078,54,20,15,11
1079,54,20,15,11
1080,54,20,15,11
1081,54,20,15,11
1082,54,20,15,11
1083,54,20,15,11
1084,54,20,15,11
1085,54,20,15,11
1086,54,20,15,11
1087,54,20,15,11
1088,54,20,15,11
1089,54,20,15,11
1090,54,20,15,11
1091,54,20,15,11
1092,54,20,15,11
1093,54,20,14,12
1094,54,19,14,13
1095,54,19,13,14
1096,54,19,12,15
1097,54,19,12,15
1098,54,19,12,15
1099,54,18,13,15
1100,54,18,13,15
1101,54,18,13,15
1102,54,17,13,16
1103,54,17,13,16
1104,54,17,12,17
1105,54,17,12,17
1106,54,17,12,17
1107,54,16,12,18
1108,54,16,12,18
1109,54,15,13,18
1110,54,15,13,18
1111,53,15,14,18
1112,53,15,14,18
1113,53,15,14,18
1114,53,15,14,18
1115,53,15,14,18
1116,52,16,14,18
1117,52,16,13,19
1118,52,16,13,19
1119,52,16,13,19
1120,52,16,13,19
1121,52,16,12,20
1122,52,16,12,20
1123,52,16,12,20
1124,52,16,12,20
1125,52,16,12,20
1126,52,16,12,20
1127,52,16,12,20
1128,52,16,12,20
1129,52,16,12,20
1130,52,16,10,22
1131,52,16,10,22
1132,52,16,10,22
1133,52,16,10,22
1134,52,16,10,22
1135,52,16,10,22
1136,52,16,10,22
1137,52,16,10,22
1138,52,16,10,22
1139,52,16,10,22
1140,52,16,10,22
1141,52,15,10,23
1142,52,15,10,23
1143,52,15,10,23
1144,52,14,11,23
1145,51,15,11,23
1146,51,15,11,23
1147,51,15,11,23
1148,51,15,11,23
1149,51,15,11,23
1150,51,15,11,23
1151,51,14,12,23
1152,51,14,12,23
1153,51,14,12,23
1154,51,14,12,23
1155,51,13,13,23
1156,51,13,13,23
1157,51,13,13,23
1158,51,13,13,23
1159,51,13,13,23
1160,51,13,13,23
1161,51,13,13,23
1162,51,12,14,23
1163,50,13,14,23
1164,50,13,14,23
1165,50,12,15,23
1166,50,12,15,23
1167,50,12,15,23
1168,50,12,15,23
1169,50,11,16,23
1170,50,11,16,23
1171,50,11,16,23
1172,49,12,15,24
1173,49,12,15,24
1174,49,12,15,24
1175,49,12,15,24
1176,49,12,15,24
1177,49,12,15,24
1178,49,12,15,24
1179,49,12,15,24
1180,49,12,15,24
1181,49,12,15,24
1182,47,14,15,24
1183,47,14,15,24
1184,47,14,15,24
1185,46,14,16,24
1186,46,14,16,24
1187,46,14,16,24
1188,46,13,17,24
1189,46,13,17,24
1190,45,14,17,24
1191,44,15,17,24
1192,44,15,17,24
1193,44,15,17,24
1194,44,15,17,24
1195,44,14,18,24
1196,44,14,18,24
1197,44,14,18,24
1198,44,14,18,24
1199,44,14,17,25
1200,44,14,17,25
1201,44,14,17,25
1202,44,14,17,25
1203,44,14,17,25
1204,44,14,17,25
1205,44,14,17,25
1206,44,14,17,25
1207,44,14,17,25
1208,44,14,17,25
1209,44,14,17,25
1210,44,14,17,25
1211,44,14,17,25
1212,44,14,17,25
1213,44,14,17,25
1214,44,14,17,25
1215,44,14,17,25
1216,44,14,17,25
1217,44,14,17,25
1218,44,14,16,26
1219,44,14,16,26
1220,44,14,16,26
1221,44,14,16,26
1222,44,14,16,26
1223,43,15,16,26
1224,43,15,16,26
1225,43,15,16,26
1226,43,15,16,26
1227,43,15,16,26
1228,43,15,16,26
1229,42,16,16,26
1230,42,16,16,26
1231,41,17,16,26
1232,41,16,17,26
1233,40,17,17,26
1234,39,18,17,26
1235,39,18,17,26
1236,39,18,17,26
1237,39,18,17,26
1238,39,18,17,26
1239,39,18,17,26
1240,39,18,17,26
1241,39,18,17,26
1242,39,18,17,26
1243,39,18,17,26
1244,39,18,17,26
1245,39,17,18,26
1246,39,17,18,26
1247,39,17,18,26
1248,39,17,18,26
1249,39,17,18,26
1250,39,17,18,26
1251,39,17,18,26
1252,39,17,18,26
1253,39,17,18,26
1254,39,17,18,26
1255,38,18,18,26
1256,38,18,18,26
1257,38,18,18,26
1258,38,18,18,26
1259,38,18,18,26
1260,38,18,18,26
1261,38,18,18,26
1262,38,18,18,26
1263,38,18,18,26
1264,38,17,19,26
1265,38,17,19,26
1266,38,17,19,26
1267,38,17,19,26
1268,38,17,19,26
1269,38,17,19,26
1270,38,17,19,26
1271,38,17,19,26
1272,38,17,19,26
1273,38,17,19,26
1274,38,16,20,26
1275,38,16,20,26
1276,38,16,20,26
1277,37,17,20,26
1278,37,17,20,26
1279,37,17,20,26
1280,37,17,20,26
1281,37,17,20,26
1282,37,17,20,26
1283,37,17,20,26
1284,37,17,20,26
1285,36,18,20,26
1286,36,18,20,26
1287,36,18,20,26
1288,36,18,20,26
1289,36,18,20,26
1290,35,19,20,26
1291,35,19,20,26
1292,35,19,20,26
1293,35,19,20,26
1294,35,19,20,26
1295,35,19,19,27
1296,35,19,19,27
1297,35,19,19,27
1298,35,19,19,27
1299,35,19,19,27
1300,35,19,18,28
1301,35,19,18,28
1302,35,19,18,28
1303,35,19,17,29
1304,35,19,17,29
1305,35,19,17,29
1306,35,19,17,29
1307,35,19,17,29
1308,35,19,16,30
1309,34,20,16,30
1310,34,20,15,31
1311,34,20,15,31
1312,34,19,15,32
1313,34,19,15,32
1314,34,19,15,32
1315,34,19,15,32
1316,34,19,15,32
1317,34,18,16,32
1318,34,18,16,32
1319,34,18,16,32
1320,34,18,16,32
1321,34,18,16,32
1322,34,18,16,32
1323,34,18,16,32
1324,34,18,16,32
1325,34,18,16,32
1326,34,18,16,32
1327,34,18,16,32
1328,34,18,16,32
1329,34,18,16,32
1330,34,18,16,32
1331,34,18,16,32
1332,34,18,16,32
1333,34,18,16,32
1334,34,18,16,32
1335,34,18,16,32
1336,34,18,16,32
1337,34,18,16,32
1338,33,19,16,32
1339,33,19,16,32
1340,33,19,16,32
1341,33,19,16,32
1342,33,19,15,33
1343,33,19,15,33
1344,33,19,15,33
1345,33,19,14,34
1346,33,18,15,34
1347,33,18,15,34
1348,33,18,15,34
1349,33,18,15,34
1350,33,18,15,34
1351,33,18,15,34
1352,33,18,14,35
1353,33,18,14,35
1354,33,18,14,35
1355,33,18,14,35
1356,32,19,13,36
1357,32,19,13,36
1358,31,20,13,36
1359,31,20,13,36
1360,31,20,13,36
1361,31,20,13,36
1362,31,20,13,36
1363,30,21,12,37
1364,30,20,13,37
1365,30,20,13,37
1366,30,20,12,38
1367,30,20,12,38
1368,30,20,12,38
1369,30,20,12,38
1370,30,20,11,39
1371,30,20,11,39
1372,30,20,11,39
1373,30,19,12,39
1374,30,19,12,39
1375,30,19,12,39
1376,30,19,12,39
1377,30,19,12,39
1378,30,19,12,39
1379,30,19,12,39
1380,30,19,12,39
1381,30,19,12,39
1382,30,19,12,39
1383,30,17,14,39
1384,30,17,14,39
1385,30,17,14,39
1386,29,17,14,40
1387,29,17,14,40
1388,29,17,14,40
1389,29,17,13,41
1390,29,17,13,41
1391,29,16,14,41
1392,29,15,15,41
1393,28,16,15,41
1394,28,16,15,41
1395,28,16,15,41
1396,28,16,14,42
1397,28,16,14,42
1398,28,16,14,42
1399,28,16,14,42
1400,28,16,14,42
1401,28,16,14,42
1402,27,17,14,42
1403,27,17,14,42
1404,27,17,14,42
1405,27,17,14,42
1406,27,17,14,42
1407,27,17,14,42
1408,27,17,14,42
1409,27,17,14,42
1410,27,17,14,42
1411,27,17,14,42
1412,27,17,14,42
1413,27,17,14,42
1414,27,17,14,42
1415,27,17,14,42
1416,27,17,14,42
1417,27,17,14,42
1418,27,17,14,42
1419,27,17,14,42
1420,27,17,14,42
1421,27,17,14,42
1422,27,17,14,42
1423,27,17,14,42
1424,27,16,15,42
1425,27,16,15,42
1426,27,16,15,42
1427,27,16,15,42
1428,27,16,15,42
1429,27,16,15,42
1430,27,15,16,42
1431,27,15,16,42
1432,27,14,17,42
1433,27,14,16,43
1434,27,13,17,43
1435,27,12,18,43
1436,27,12,18,43
1437,27,12,18,43
1438,27,12,18,43
1439,27,12,18,43
1440,27,12,18,43
1441,27,12,18,43
1442,27,12,18,43
1443,27,12,18,43
1444,27,12,18,43
1445,27,12,18,43
1446,27,12,17,44
1447,27,12,17,44
1448,27,12,17,44
1449,27,12,17,44
1450,27,12,17,44
1451,27,12,17,44
1452,27,12,17,44
1453,27,12,17,44
1454,27,12,17,44
1455,27,12,17,44
1456,27,11,18,44
1457,27,11,18,44
1458,26,12,18,44
1459,26,12,18,44
1460,26,12,18,44
1461,25,13,18,44
1462,25,13,18,44
1463,25,13,18,44
1464,24,14,18,44
1465,24,14,17,45
1466,24,14,17,45
1467,24,14,17,45
1468,24,14,17,45
1469,24,14,17,45
1470,24,14,17,45
1471,24,14,17,45
1472,24,14,17,45
1473,24,14,17,45
1474,24,14,17,45
1475,24,14,16,46
1476,24,14,16,46
1477,24,14,16,46
1478,24,13,17,46
1479,24,13,17,46
1480,24,13,17,46
1481,24,13,17,46
1482,24,13,17,46
1483,24,13,17,46
1484,24,13,17,46
1485,24,13,17,46
1486,24,12,18,46
1487,24,12,18,46
1488,24,12,18,46
1489,24,12,18,46
1490,24,12,18,46
1491,24,11,19,46
1492,24,11,19,46
1493,24,11,19,46
1494,24,11,19,46
1495,24,11,19,46
1496,24,11,19,46
1497,24,11,19,46
1498,24,11,19,46
1499,23,12,19,46
1500,23,12,19,46
1501,23,12,19,46
1502,23,12,19,46
1503,23,12,19,46
1504,23,12,19,46
1505,23,12,19,46
1506,23,12,19,46
1507,23,12,19,46
1508,23,12,19,46
1509,23,12,19,46
1510,23,11,20,46
1511,22,12,20,46
1512,22,12,20,46
1513,22,12,19,47
1514,22,12,19,47
1515,22,12,19,47
1516,22,12,19,47
1517,22,12,19,47
1518,22,12,18,48
1519,22,12,18,48
1520,22,12,18,48
1521,21,13,18,48
1522,21,13,18,48
1523,21,13,18,48
1524,21,13,18,48
1525,21,13,18,48
1526,21,13,18,48
1527,21,13,18,48
1528,21,13,18,48
1529,21,13,18,48
1530,21,13,18,48
1531,21,13,18,48
1532,21,13,18,48
1533,21,13,18,48
1534,21,13,18,48
1535,21,13,18,48
1536,21,13,18,48
1537,21,13,18,48
1538,20,14,18,48
1539,20,13,19,48
1540,20,13,19,48
1541,20,13,19,48
1542,20,13,19,48
1543,20,13,19,48
1544,20,13,19,48
1545,20,13,19,48
1546,20,13,19,48
1547,20,13,18,49
1548,20,13,18,49
1549,20,13,18,49
1550,20,13,18,49
1551,20,13,18,49
1552,20,13,18,49
1553,20,13,18,49
1554,20,13,18,49
1555,20,13,18,49
1556,20,13,18,49
1557,20,12,19,49
1558,20,12,19,49
1559,20,11,20,49
1560,20,11,20,49
1561,20,11,20,49
1562,20,11,20,49
1563,20,11,20,49
1564,20,10,21,49
1565,20,10,20,50
1566,20,10,20,50
1567,20,10,20,50
1568,20,10,20,50
1569,20,10,20,50
1570,20,10,20,50
1571,20,10,20,50
1572,20,10,20,50
1573,20,10,20,50
1574,20,10,19,51
1575,20,10,19,51
1576,20,10,19,51
1577,20,10,19,51
1578,20,10,19,51
1579,20,10,19,51
1580,19,11,19,51
1581,19,11,19,51
1582,19,11,19,51
1583,19,11,19,51
1584,19,11,17,53
1585,19,11,17,53
1586,19,11,17,53
1587,19,10,17,54
1588,19,10,17,54
1589,19,10,17,54
1590,19,10,17,54
1591,19,10,17,54
1592,19,10,16,55
1593,19,10,15,56
1594,19,9,16,56
1595,19,9,16,56
1596,19,9,16,56
1597,19,9,16,56
1598,19,9,16,56
1599,19,9,16,56
1600,19,9,16,56
1601,19,9,16,56
1602,19,9,16,56
1603,19,8,17,56
1604,19,8,17,56
1605,19,8,17,56
1606,19,8,17,56
1607,19,8,17,56
1608,19,8,17,56
1609,19,8,17,56
1610,19,8,17,56
1611,19,8,17,56
1612,19,8,17,56
1613,19,8,17,56
1614,19,8,17,56
1615,19,8,17,56
1616,19,8,17,56
1617,19,8,17,56
1618,19,8,17,56
1619,19,8,17,56
1620,19,8,17,56
1621,19,8,17,56
1622,19,8,17,56
1623,19,8,17,56
1624,19,8,17,56
1625,19,8,16,57
1626,19,8,16,57
1627,19,8,16,57
1628,19,8,16,57
1629,19,8,16,57
1630,19,8,16,57
1631,19,8,15,58
1632,19,8,15,58
1633,18,9,14,59
1634,18,9,14,59
1635,18,9,13,60
1636,18,9,12,61
1637,18,9,12,61
1638,18,9,12,61
1639,18,9,12,61
1640,18,9,12,61
1641,18,9,12,61
1642,18,9,12,61
1643,18,9,12,61
1644,18,9,12,61
1645,18,9,12,61
1646,18,9,12,61
1647,18,9,12,61
1648,18,9,12,61
1649,18,9,12,61
1650,17,10,12,61
1651,17,10,12,61
1652,17,10,12,61
1653,17,10,12,61
1654,17,10,12,61
1655,17,10,12,61
1656,17,10,12,61
1657,17,10,11,62
1658,17,10,11,62
1659,17,9,12,62
1660,17,9,12,62
1661,17,9,12,62
1662,17,8,13,62
1663,17,8,13,62
1664,17,8,13,62
1665,17,7,14,62
1666,17,7,14,62
1667,17,7,14,62
1668,16,8,14,62
1669,16,8,14,62
1670,16,8,14,62
1671,16,8,14,62
1672,16,8,14,62
1673,16,8,14,62
1674,16,8,14,62
1675,16,8,14,62
1676,16,8,14,62
1677,16,8,14,62
1678,16,8,14,62
1679,15,9,13,63
1680,15,9,13,63
1681,15,9,13,63
1682,15,9,13,63
1683,15,9,13,63
1684,15,9,13,63
1685,15,9,13,63
1686,15,9,13,63
1687,15,9,12,64
1688,15,9,12,64
1689,15,9,12,64
1690,15,9,12,64
1691,15,9,12,64
1692,15,9,11,65
1693,15,9,11,65
1694,15,9,11,65
1695,15,9,11,65
1696,15,9,11,65
1697,15,9,11,65
1698,15,9,11,65
1699,15,9,11,65
1700,15,8,12,65
1701,15,8,12,65
1702,15,8,12,65
1703,15,8,12,65
1704,15,8,12,65
1705,15,8,12,65
1706,15,8,12,65
1707,15,8,12,65
1708,15,8,12,65
1709,15,8,12,65
1710,15,8,12,65
1711,15,8,11,66
1712,15,7,12,66
1713,15,7,12,66
1714,15,7,12,66
1715,15,7,12,66
1716,15,7,12,66
1717,15,7,12,66
1718,15,7,12,66
1719,14,8,12,66
1720,14,8,12,66
1721,14,8,12,66
1722,14,7,13,66
1723,14,7,13,66
1724,14,7,13,66
1725,14,7,13,66
1726,14,7,13,66
1727,14,7,13,66
1728,14,7,13,66
1729,14,7,13,66
1730,14,7,13,66
1731,14,7,13,66
1732,14,7,13,66
1733,14,7,13,66
1734,14,7,13,66
1735,14,7,13,66
1736,14,7,13,66
1737,14,7,13,66
1738,14,7,13,66
1739,14,6,14,66
1740,14,6,13,67
1741,14,6,13,67
1742,14,6,13,67
1743,14,6,13,67
1744,14,6,13,67
1745,14,6,13,67
1746,13,7,13,67
1747,13,7,13,67
1748,13,7,13,67
1749,13,7,13,67
1750,13,7,13,67
1751,13,7,13,67
1752,13,7,13,67
1753,13,7,13,67
1754,13,7,13,67
1755,13,7,13,67
1756,13,7,13,67
1757,13,7,13,67
1758,13,7,12,68
1759,13,7,12,68
1760,13,7,11,69
1761,13,7,11,69
1762,13,7,11,69
1763,13,7,11,69
1764,13,7,11,69
1765,13,7,10,70
1766,13,7,10,70
1767,13,7,10,70
1768,13,7,10,70
1769,13,7,10,70
1770,13,7,10,70
1771,13,7,10,70
1772,13,7,10,70
1773,13,7,10,70
1774,13,7,10,70
1775,13,7,10,70
1776,13,7,10,70
1777,13,7,10,70
1778,13,7,10,70
1779,13,7,10,70
1780,13,7,10,70
1781,13,6,11,70
1782,13,6,11,70
1783,13,6,11,70
1784,13,6,11,70
1785,13,6,11,70
1786,13,6,11,70
1787,13,6,11,70
1788,13,6,10,71
1789,13,6,10,71
1790,13,6,10,71
1791,13,6,10,71
1792,13,6,10,71
1793,13,6,10,71
1794,13,6,10,71
1795,13,6,9,72
1796,13,6,9,72
1797,13,6,9,72
1798,13,6,9,72
1799,13,6,9,72
1800,13,6,9,72
1801,13,6,9,72
1802,13,6,9,72
1803,13,6,9,72
1804,13,6,8,73
1805,13,6,8,73
1806,13,6,8,73
1807,13,6,8,73
1808,13,6,8,73
1809,13,6,8,73
1810,13,6,8,73
1811,13,6,8,73
1812,13,6,8,73
1813,13,6,8,73
1814,13,6,8,73
1815,13,6,8,73
1816,13,6,8,73
1817,13,6,8,73
1818,13,6,8,73
1819,13,6,8,73
1820,13,6,8,73
1821,13,6,8,73
1822,13,6,8,73
1823,13,6,8,73
1824,13,6,8,73
1825,13,6,8,73
1826,13,6,8,73
1827,13,6,8,73
1828,13,6,8,73
1829,13,6,8,73
1830,13,6,8,73
1831,13,6,8,73
1832,13,6,8,73
1833,13,6,8,73
1834,13,5,9,73
1835,13,5,9,73
1836,13,5,9,73
1837,13,5,9,73
1838,13,5,9,73
1839,13,5,9,73
1840,13,5,9,73
1841,13,5,9,73
1842,13,5,9,73
1843,13,5,9,73
1844,13,5,9,73
1845,13,5,9,73
1846,13,5,9,73
1847,13,5,9,73
1848,13,5,9,73
1849,13,5,9,73
1850,13,5,9,73
1851,13,4,10,73
1852,13,4,10,73
1853,13,4,10,73
1854,13,4,10,73
1855,13,4,10,73
1856,13,4,10,73
1857,13,4,10,73
1858,13,4,10,73
1859,13,4,10,73
1860,13,4,9,74
1861,13,4,9,74
1862,13,4,9,74
1863,13,4,8,75
1864,13,4,8,75
1865,13,4,8,75
1866,13,4,7,76
1867,13,4,7,76
1868,13,4,7,76
1869,13,3,8,76
1870,13,3,8,76
1871,13,3,8,76
1872,13,3,8,76
1873,13,3,8,76
1874,13,3,8,76
1875,13,3,8,76
1876,13,3,8,76
1877,13,3,8,76
1878,13,3,8,76
1879,13,3,8,76
1880,13,2,9,76
1881,13,2,9,76
1882,13,2,9,76
1883,13,2,9,76
1884,13,2,9,76
1885,13,2,9,76
1886,13,2,9,76
1887,13,2,9,76
1888,13,2,9,76
1889,13,2,9,76
1890,13,2,9,76
1891,13,2,9,76
1892,13,2,9,76
1893,13,2,9,76
1894,13,2,9,76
1895,13,2,9,76
1896,13,2,9,76
1897,13,2,9,76
1898,13,2,9,76
1899,13,2,9,76
1900,13,2,9,76
1901,13,2,8,77
1902,13,2,8,77
1903,13,2,8,77
1904,13,2,8,77
1905,13,2,8,77
1906,13,2,8,77
1907,13,2,8,77
1908,13,2,8,77
1909,13,2,8,77
1910,13,2,8,77
1911,13,2,8,77
1912,13,2,8,77
1913,13,2,7,78
1914,13,2,7,78
1915,13,2,7,78
1916,13,2,7,78
1917,13,2,7,78
1918,13,2,7,78
1919,13,2,7,78
1920,13,1,8,78
1921,13,1,8,78
1922,13,1,8,78
1923,13,1,7,79
1924,13,1,7,79
1925,13,1,7,79
1926,13,1,7,79
1927,13,1,7,79
1928,13,1,7,79
1929,13,1,7,79
1930,13,1,7,79
1931,13,1,7,79
1932,13,1,7,79
1933,13,1,7,79
1934,13,1,7,79
1935,13,1,7,79
1936,13,1,7,79
1937,13,1,7,79
1938,13,1,7,79
1939,13,1,7,79
1940,13,1,6,80
1941,13,1,6,80
1942,13,1,6,80
1943,13,1,6,80
1944,13,1,6,80
1945,13,1,6,80
1946,13,1,6,80
1947,13,0,7,80
1948,13,0,7,80
1949,13,0,7,80
1950,13,0,7,80
1951,13,0,7,80
1952,13,0,7,80
1953,13,0,7,80
1954,13,0,7,80
1955,13,0,7,80
1956,13,0,7,80
1957,13,0,7,80
1958,13,0,7,80
1959,13,0,7,80
1960,13,0,7,80
1961,13,0,7,80
1962,13,0,7,80
1963,13,0,7,80
1964,13,0,7,80
1965,13,0,7,80
1966,13,0,7,80
1967,13,0,7,80
1968,13,0,7,80
1969,13,0,7,80
1970,13,0,7,80
1971,13,0,7,80
1972,13,0,7,80
1973,13,0,7,80
1974,13,0,7,80
1975,13,0,7,80
1976,13,0,7,80
1977,13,0,7,80
1978,13,0,7,80
1979,13,0,7,80
1980,13,0,7,80
1981,13,0,7,80
1982,13,0,6,81
1983,13,0,6,81
1984,13,0,6,81
1985,13,0,6,81
1986,13,0,6,81
1987,13,0,6,81
1988,13,0,6,81
1989,13,0,6,81
1990,13,0,6,81
1991,13,0,6,81
1992,13,0,6,81
1993,13,0,6,81
1994,13,0,6,81
1995,13,0,6,81
1996,13,0,6,81
1997,13,0,6,81
1998,13,0,6,81
1999,13,0,6,81
2000,13,0,6,81
