"tick","total"
0,0
1,0
2,0
3,0
4,0
5,0
6,0
7,0
8,0
9,0
10,0
11,0
12,0
13,0
14,0
15,0
16,0
17,0
18,0
19,0
20,0
21,0
22,0
23,0
24,0
25,0
26,0
27,0
28,0
29,0
30,0
31,0
32,0
33,0
34,0
35,0
36,0
37,0
38,0
39,0
40,0
41,0
42,0
43,0
44,0
45,0
46,0
47,0
48,0
49,0
50,0
51,0
52,0
53,0
54,0
55,0
56,0
57,0
58,0
59,0
60,0
61,0
62,0
63,0
64,0
65,0
66,0
67,0
68,0
69,0
70,0
71,0
72,0
73,0
74,0
75,0
76,0
77,0
78,0
79,0
80,0
81,0
82,0
83,0
84,0
85,0
86,0
87,0
88,0
89,0
90,0
91,0
92,0
93,0
94,0
95,0
96,0
97,0
98,0
99,0
100,0
101,0
102,0
103,0
104,0
105,0
106,0
107,0
108,0
109,0
110,0
111,0
112,0
113,0
114,0
115,0
116,0
117,0
118,0
119,0
120,0
121,0
122,0
123,0
124,0
125,0
126,0
127,0
128,0
129,0
130,0
131,0
132,0
133,0
134,0
135,0
136,0
137,0
138,0
139,0
140,0
141,0
142,0
143,0
144,0
145,0
146,0
147,0
148,0
149,0
150,0
151,0
152,0
153,0
154,0
155,0
156,0
157,0
158,0
159,0
160,0
161,0
162,0
163,0
164,0
165,0
166,0
167,0
168,0
169,0
170,0
171,0
172,0
173,0
174,0
175,0
176,0
177,0
178,0
179,0
180,0
181,0
182,0
183,0
184,0
185,0
186,0
187,0
188,0
189,0
190,0
191,0
192,0
193,0
194,0
195,0
196,0
197,0
198,0
199,0
200,0
201,0
202,0
203,0
204,0
205,0
206,0
207,0
208,0
209,0
210,0
211,0
212,0
213,0
214,0
215,0
216,0
217,0
218,0
219,0
220,0
221,0
222,1
223,1
224,1
225,1
226,1
227,1
228,1
229,1
230,1
231,1
232,1
233,1
234,1
235,1
236,1
237,1
238,1
239,1
240,1
241,1
242,1
243,1
244,1
245,1
246,1
247,1
248,1
249,1
250,1
251,2
252,2
253,2
254,2
255,4
256,4
257,4
258,4
259,5
260,5
261,5
262,5
263,6
264,6
265,6
266,7
267,7
268,7
269,7
270,8
271,9
272,10
273,10
274,10
275,10
276,10
277,10
278,11
279,11
280,11
281,11
282,11
283,11
284,11
285,11
286,11
287,11
288,12
289,12
290,12
291,12
292,12
293,12
294,12
295,12
296,12
297,12
298,12
299,12
300,12
301,12
302,12
303,12
304,12
305,12
306,12
307,12
308,12
309,14
310,14
311,14
312,14
313,15
314,15
315,15
316,15
317,15
318,15
319,15
320,15
321,15
322,15
323,15
324,16
325,17
326,17
327,17
328,18
329,18
330,18
331,18
332,18
333,18
334,18
335,18
336,18
337,18
338,18
339,18
340,18
341,18
342,18
343,18
344,18
345,18
346,18
347,18
348,18
349,18
350,18
351,18
352,18
353,18
354,18
355,18
356,18
357,18
358,18
359,18
360,18
361,18
362,18
363,18
364,18
365,18
366,18
367,19
368,19
369,19
370,19
371,19
372,19
373,19
374,19
375,19
376,19
377,19
378,20
379,20
380,20
381,20
382,20
383,20
384,20
385,20
386,20
387,20
388,20
389,20
390,20
391,20
392,20
393,20
394,21
395,21
396,21
397,21
398,21
399,21
400,21
401,21
402,21
403,21
404,21
405,22
406,22
407,22
408,22
409,22
410,22
411,22
412,22
413,22
414,22
415,22
416,22
417,23
418,23
419,23
420,23
421,24
422,25
423,26
424,26
425,26
426,27
427,27
428,27
429,27
430,27
431,27
432,27
433,27
434,27
435,27
436,27
437,27
438,27
439,27
440,27
441,27
442,27
443,27
444,27
445,27
446,27
447,27
448,27
449,27
450,27
451,27
452,27
453,27
454,27
455,27
456,27
457,27
458,27
459,27
460,27
461,27
462,27
463,27
464,27
465,27
466,27
467,27
468,27
469,27
470,27
471,28
472,28
473,28
474,28
475,28
476,28
477,28
478,28
479,28
480,28
481,28
482,28
483,28
484,28
485,28
486,28
487,28
488,28
489,28
490,28
491,28
492,28
493,28
494,28
495,28
496,28
497,28
498,28
499,28
500,28
501,28
502,28
503,28
504,28
505,28
506,28
507,28
508,28
509,28
510,28
511,28
512,28
513,28
514,28
515,28
516,28
517,28
518,28
519,28
520,28
521,28
522,28
523,28
524,28
525,28
526,28
527,28
528,28
529,28
530,28
531,28
532,28
533,28
534,28
535,28
536,28
537,28
538,29
539,29
540,29
541,29
542,29
543,29
544,29
545,29
546,29
547,29
548,29
549,29
550,29
551,29
552,29
553,29
554,29
555,29
556,29
557,29
558,29
559,29
560,29
561,29
562,29
563,29
564,29
565,29
566,29
567,29
568,29
569,29
570,29
571,29
572,29
573,29
574,29
575,29
576,29
577,29
578,29
579,29
580,29
581,29
582,29
583,29
584,29
585,29
586,29
587,29
588,29
589,29
590,29
591,29
592,29
593,29
594,29
595,29
596,29
597,29
598,29
599,29
600,29
601,29
602,29
603,29
604,29
605,29
606,30
607,30
608,30
609,30
610,30
611,30
612,30
613,30
614,30
615,30
616,30
617,30
618,30
619,30
620,30
621,30
622,30
623,30
624,30
625,30
626,30
627,30
628,30
629,30
630,30
631,31
632,32
633,32
634,32
635,32
636,32
637,32
638,32
639,32
640,32
641,32
642,32
643,32
644,32
645,32
646,33
647,33
648,33
649,33
650,34
651,34
652,34
653,35
654,36
655,36
656,36
657,36
658,36
659,36
660,36
661,36
662,36
663,36
664,36
665,36
666,37
667,37
668,37
669,38
670,38
671,38
672,39
673,39
674,40
675,40
676,40
677,40
678,40
679,40
680,40
681,40
682,40
683,40
684,40
685,40
686,40
687,40
688,40
689,40
690,40
691,40
692,40
693,40
694,40
695,40
696,40
697,40
698,40
699,40
700,40
701,40
702,40
703,40
704,40
705,40
706,40
707,40
708,40
709,40
710,40
711,40
712,40
713,40
714,40
715,40
716,40
717,40
718,40
719,40
720,40
721,40
722,40
723,40
724,40
725,41
726,41
727,41
728,41
729,42
730,42
731,42
732,42
733,42
734,42
735,42
736,42
737,42
738,42
739,42
740,42
741,42
742,42
743,42
744,42
745,42
746,42
747,42
748,42
749,42
750,42
751,42
752,42
753,42
754,42
755,42
756,42
757,42
758,42
759,42
760,42
761,42
762,42
763,42
764,42
765,42
766,42
767,42
768,42
769,42
770,43
771,43
772,43
773,43
774,43
775,43
776,43
777,43
778,43
779,43
780,43
781,44
782,44
783,44
784,44
785,45
786,45
787,45
788,45
789,46
790,46
791,47
792,47
793,47
794,47
795,47
796,47
797,47
798,47
799,47
800,47
801,47
802,47
803,47
804,47
805,47
806,47
807,47
808,47
809,47
810,47
811,47
812,47
813,47
814,47
815,47
816,47
817,47
818,47
819,47
820,47
821,47
822,47
823,47
824,47
825,47
826,47
827,47
828,47
829,47
830,47
831,47
832,47
833,47
834,47
835,47
836,48
837,48
838,48
839,48
840,48
841,48
842,48
843,48
844,48
845,48
846,48
847,48
848,48
849,48
850,48
851,48
852,48
853,48
854,48
855,48
856,48
857,48
858,48
859,48
860,48
861,48
862,48
863,48
864,48
865,48
866,48
867,48
868,48
869,48
870,48
871,48
872,48
873,48
874,48
875,48
876,48
877,48
878,48
879,48
880,48
881,48
882,49
883,49
884,49
885,49
886,49
887,49
888,50
889,50
890,50
891,50
892,50
893,50
894,50
895,50
896,50
897,50
898,50
899,50
900,50
901,50
902,50
903,50
904,50
905,50
906,50
907,50
908,50
909,50
910,50
911,50
912,50
913,50
914,50
915,50
916,50
917,51
918,51
919,51
920,51
921,51
922,51
923,52
924,52
925,52
926,52
927,52
928,52
929,52
930,52
931,52
932,52
933,52
934,52
935,52
936,52
937,52
938,52
939,52
940,52
941,52
942,52
943,52
944,52
945,52
946,52
947,52
948,52
949,52
950,52
951,52
952,52
953,52
954,52
955,52
956,52
957,52
958,52
959,52
960,52
961,52
962,52
963,52
964,52
965,52
966,52
967,52
968,52
969,52
970,52
971,52
972,52
973,52
974,52
975,52
976,52
977,52
978,52
979,52
980,52
981,52
982,52
983,52
984,52
985,52
986,52
987,52
988,52
989,53
990,53
991,53
992,53
993,53
994,53
995,53
996,53
997,53
998,53
999,53
1000,53
1001,53
1002,53
1003,53
1004,53
1005,53
1006,53
1007,53
1008,53
1009,53
1010,53
1011,53
1012,53
1013,54
1014,54
1015,54
1016,54
1017,54
1018,54
1019,54
1020,54
1021,54
1022,54
1023,54
1024,54
1025,54
1026,54
1027,54
1028,54
1029,54
1030,54
1031,54
1032,54
1033,54
1034,54
1035,54
1036,54
1037,54
1038,54
1039,54
1040,54
1041,54
1042,54
1043,54
1044,54
1045,54
1046,55
1047,55
1048,55
1049,55
1050,55
1051,55
1052,55
1053,55
1054,55
1055,55
1056,55
1057,55
1058,55
1059,55
1060,55
1061,55
1062,55
1063,55
1064,55
1065,55
1066,55
1067,55
1068,55
1069,55
1070,55
1071,55
1072,55
1073,55
1074,55
1075,55
1076,55
1077,56
1078,56
1079,56
1080,56
1081,57
1082,57
1083,57
1084,57
1085,57
1086,57
1087,57
1088,57
1089,57
1090,57
1091,57
1092,57
1093,57
1094,57
1095,57
1096,57
1097,57
1098,57
1099,57
1100,57
1101,57
1102,57
1103,57
1104,57
1105,57
1106,57
1107,57
1108,57
1109,57
1110,57
1111,57
1112,57
1113,57
1114,57
1115,57
1116,57
1117,57
1118,57
1119,57
1120,57
1121,57
1122,57
1123,57
1124,57
1125,57
1126,57
1127,57
1128,57
1129,57
1130,57
1131,57
1132,57
1133,57
1134,57
1135,57
1136,57
1137,57
1138,57
1139,57
1140,57
1141,57
1142,57
1143,57
1144,57
1145,57
1146,57
1147,57
1148,57
1149,57
1150,57
1151,57
1152,57
1153,57
1154,57
1155,57
1156,57
1157,57
1158,57
1159,57
1160,57
1161,57
1162,57
1163,57
1164,57
1165,57
1166,57
1167,57
1168,57
1169,58
1170,58
1171,58
1172,58
1173,58
1174,58
1175,58
1176,58
1177,58
1178,58
1179,58
1180,58
1181,58
1182,58
1183,58
1184,58
1185,58
1186,58
1187,58
1188,58
1189,58
1190,58
1191,58
1192,58
1193,58
1194,58
1195,58
1196,58
1197,58
1198,58
1199,58
1200,58
1201,58
1202,58
1203,58
1204,58
1205,58
1206,58
1207,58
1208,58
1209,58
1210,58
1211,58
1212,58
1213,58
1214,58
1215,58
1216,58
1217,58
1218,58
1219,58
1220,58
1221,58
1222,58
1223,58
1224,58
1225,58
1226,58
1227,58
1228,58
1229,59
1230,59
1231,59
1232,59
1233,59
1234,59
1235,60
1236,60
1237,60
1238,60
1239,61
1240,61
1241,61
1242,61
1243,61
1244,61
1245,61
1246,62
1247,62
1248,62
1249,62
1250,62
1251,62
1252,62
1253,62
1254,62
1255,62
1256,62
1257,62
1258,62
1259,62
1260,62
1261,62
1262,62
1263,62
1264,62
1265,62
1266,62
1267,62
1268,62
1269,62
1270,62
1271,62
1272,62
1273,62
1274,62
1275,62
1276,62
1277,62
1278,62
1279,62
1280,62
1281,62
1282,62
1283,62
1284,62
1285,62
1286,62
1287,62
1288,62
1289,62
1290,62
1291,62
1292,62
1293,62
1294,62
1295,62
1296,62
1297,62
1298,62
1299,62
1300,62
1301,62
1302,62
1303,62
1304,62
1305,62
1306,62
1307,62
1308,62
1309,62
1310,63
1311,63
1312,64
1313,64
1314,64
1315,64
1316,64
1317,64
1318,64
1319,64
1320,64
1321,64
1322,64
1323,64
1324,64
1325,64
1326,64
1327,64
1328,64
1329,64
1330,64
1331,64
1332,64
1333,64
1334,64
1335,64
1336,64
1337,65
1338,65
1339,65
1340,65
1341,65
1342,65
1343,65
1344,65
1345,65
1346,65
1347,65
1348,65
1349,65
1350,65
1351,65
1352,65
1353,65
1354,65
1355,65
1356,65
1357,65
1358,65
1359,65
1360,65
1361,65
1362,65
1363,65
1364,65
1365,65
1366,65
1367,65
1368,65
1369,65
1370,65
1371,65
1372,65
1373,65
1374,65
1375,65
1376,65
1377,65
1378,65
1379,65
1380,65
1381,65
1382,65
1383,65
1384,65
1385,65
1386,65
1387,65
1388,66
1389,67
1390,67
1391,67
1392,67
1393,67
1394,67
1395,67
1396,67
1397,67
1398,67
1399,67
1400,67
1401,67
1402,67
1403,67
1404,67
1405,67
1406,68
1407,68
1408,68
1409,68
1410,68
1411,68
1412,68
1413,68
1414,68
1415,68
1416,68
1417,68
1418,68
1419,69
1420,69
1421,69
1422,69
1423,69
1424,69
1425,69
1426,70
1427,70
1428,70
1429,70
1430,70
1431,70
1432,70
1433,71
1434,71
1435,71
1436,71
1437,72
1438,72
1439,72
1440,72
1441,72
1442,72
1443,72
1444,72
1445,72
1446,72
1447,72
1448,72
1449,72
1450,72
1451,72
1452,72
1453,72
1454,72
1455,73
1456,73
1457,73
1458,73
1459,73
1460,73
1461,73
1462,73
1463,73
1464,73
1465,73
1466,73
1467,73
1468,73
1469,73
1470,73
1471,74
1472,74
1473,74
1474,74
1475,74
1476,74
1477,74
1478,74
1479,74
1480,74
1481,74
1482,74
1483,74
1484,74
1485,75
1486,75
1487,75
1488,76
1489,76
1490,76
1491,76
1492,76
1493,76
1494,76
1495,76
1496,76
1497,76
1498,76
1499,76
1500,76
1501,76
1502,76
1503,76
1504,76
1505,76
1506,76
1507,76
1508,76
1509,77
1510,77
1511,77
1512,77
1513,77
1514,78
1515,78
1516,79
1517,79
1518,79
1519,79
1520,79
1521,79
1522,79
1523,79
1524,80
1525,80
1526,80
1527,80
1528,80
1529,80
1530,80
1531,80
1532,80
1533,80
1534,80
1535,80
1536,80
1537,80
1538,80
1539,80
1540,80
1541,80
1542,80
1543,80
1544,80
1545,80
1546,80
1547,80
1548,80
1549,80
1550,80
1551,80
1552,80
1553,80
1554,80
1555,80
1556,80
1557,80
1558,80
1559,80
1560,80
1561,80
1562,80
1563,80
1564,80
1565,80
1566,80
1567,80
1568,80
1569,80
1570,80
1571,80
1572,80
1573,80
1574,80
1575,80
1576,80
1577,80
1578,80
1579,80
1580,80
1581,80
1582,80
1583,80
1584,80
1585,80
1586,80
1587,80
1588,80
1589,80
1590,80
1591,80
1592,80
1593,80
1594,80
1595,80
1596,80
1597,80
1598,80
1599,80
1600,80
1601,80
1602,80
1603,80
1604,80
1605,80
1606,80
1607,80
1608,80
1609,80
1610,80
1611,80
1612,80
1613,80
1614,80
1615,80
1616,80
1617,80
1618,80
1619,80
1620,80
1621,80
1622,80
1623,80
1624,80
1625,80
1626,80
1627,80
1628,80
1629,80
1630,80
1631,80
1632,80
1633,80
1634,80
1635,80
1636,80
1637,80
1638,80
1639,80
1640,80
1641,80
1642,80
1643,80
1644,80
1645,80
1646,80
1647,80
1648,80
1649,80
1650,80
1651,80
1652,80
1653,80
1654,80
1655,80
1656,80
1657,80
1658,80
1659,80
1660,80
1661,80
1662,80
1663,80
1664,80
1665,80
1666,80
1667,80
1668,80
1669,80
1670,80
1671,80
1672,80
1673,80
1674,80
1675,80
1676,80
1677,80
1678,80
1679,80
1680,80
1681,80
1682,80
1683,80
1684,80
1685,80
1686,80
1687,80
1688,80
1689,80
1690,80
1691,80
1692,80
1693,80
1694,80
1695,80
1696,80
1697,80
1698,80
1699,80
1700,80
1701,80
1702,80
1703,80
1704,80
1705,80
1706,80
1707,80
1708,80
1709,80
1710,80
1711,80
1712,80
1713,80
1714,80
1715,80
1716,80
1717,80
1718,80
1719,80
1720,80
1721,80
1722,80
1723,80
1724,80
1725,80
1726,80
1727,80
1728,80
1729,80
1730,80
1731,80
1732,80
1733,80
1734,80
1735,80
1736,80
1737,80
1738,80
1739,80
1740,80
1741,80
1742,80
1743,80
1744,80
1745,80
1746,80
1747,80
1748,80
1749,80
1750,80
1751,80
1752,80
1753,80
1754,80
1755,80
1756,80
1757,80
1758,80
1759,80
1760,80
1761,80
1762,80
1763,80
1764,80
1765,80
1766,80
1767,80
1768,80
1769,80
1770,80
1771,80
1772,80
1773,80
1774,80
1775,80
1776,80
1777,80
1778,80
1779,80
1780,80
1781,80
1782,80
1783,80
1784,81
1785,81
1786,81
1787,81
1788,81
1789,82
1790,82
1791,82
1792,82
1793,82
1794,82
1795,82
1796,82
1797,82
1798,82
1799,82
1800,82
1801,82
1802,82
1803,82
1804,82
1805,82
1806,82
1807,82
1808,83
1809,84
1810,84
1811,84
1812,84
1813,84
1814,84
1815,84
1816,84
1817,84
1818,84
1819,84
1820,84
1821,84
1822,85
1823,85
1824,85
1825,85
1826,85
1827,85
1828,85
1829,85
1830,85
1831,85
1832,85
1833,85
1834,85
1835,85
1836,85
1837,85
1838,85
1839,85
1840,85
1841,85
1842,86
1843,86
1844,87
1845,87
1846,87
1847,87
1848,87
1849,88
1850,89
1851,89
1852,89
1853,89
1854,89
1855,89
1856,89
1857,89
1858,89
1859,89
1860,89
1861,89
1862,89
1863,89
1864,89
1865,89
1866,89
1867,89
1868,90
1869,90
1870,90
1871,90
1872,90
1873,90
1874,90
1875,90
1876,90
1877,90
1878,90
1879,90
1880,90
1881,90
1882,90
1883,90
1884,90
1885,90
1886,90
1887,91
1888,91
1889,91
1890,91
1891,91
1892,91
1893,91
1894,91
1895,91
1896,91
1897,91
1898,91
1899,91
1900,91
1901,91
1902,91
1903,91
1904,91
1905,91
1906,91
1907,91
1908,91
1909,91
1910,91
1911,91
1912,91
1913,91
1914,91
1915,91
1916,92
1917,92
1918,92
1919,92
1920,92
1921,94
1922,94
1923,94
1924,94
1925,94
1926,94
1927,94
1928,94
1929,94
1930,94
1931,94
1932,94
1933,94
1934,94
1935,94
1936,94
1937,94
1938,94
1939,94
1940,94
1941,94
1942,94
1943,94
1944,94
1945,94
1946,94
1947,94
1948,94
1949,94
1950,94
1951,95
1952,95
1953,95
1954,95
1955,95
1956,95
1957,95
1958,95
1959,95
1960,95
1961,95
1962,95
1963,95
1964,95
1965,95
1966,95
1967,95
1968,95
1969,95
1970,95
1971,95
1972,95
1973,95
1974,95
1975,95
1976,95
1977,96
1978,96
1979,96
1980,96
1981,96
1982,96
1983,96
1984,96
1985,96
1986,97
1987,97
1988,97
1989,97
1990,97
1991,97
1992,97
1993,97
1994,97
1995,97
1996,97
1997,98
1998,98
1999,98
2000,98
