"tick","total"
0,0
1,0
2,0
3,0
4,0
5,0
6,0
7,0
8,0
9,0
10,0
11,0
12,0
13,0
14,0
15,0
16,0
17,0
18,0
19,0
20,0
21,0
22,0
23,0
24,0
25,0
26,0
27,0
28,0
29,0
30,0
31,0
32,0
33,0
34,0
35,0
36,0
37,0
38,0
39,0
40,0
41,0
42,0
43,0
44,0
45,0
46,0
47,0
48,0
49,0
50,0
51,0
52,0
53,0
54,0
55,0
56,0
57,0
58,0
59,0
60,0
61,0
62,0
63,0
64,0
65,0
66,0
67,0
68,0
69,0
70,0
71,0
72,0
73,0
74,0
75,0
76,0
77,0
78,0
79,0
80,0
81,0
82,0
83,0
84,0
85,0
86,0
87,0
88,0
89,0
90,0
91,0
92,0
93,0
94,0
95,0
96,0
97,0
98,0
99,0
100,0
101,0
102,0
103,0
104,0
105,0
106,0
107,0
108,0
109,0
110,0
111,0
112,0
113,0
114,0
115,0
116,0
117,0
118,0
119,0
120,0
121,0
122,0
123,0
124,0
125,0
126,0
127,0
128,0
129,0
130,0
131,0
132,0
133,0
134,0
135,0
136,0
137,0
138,0
139,0
140,0
141,0
142,0
143,0
144,0
145,0
146,0
147,0
148,0
149,0
150,0
151,0
152,0
153,0
154,0
155,0
156,0
157,0
158,0
159,0
160,0
161,0
162,0
163,0
164,0
165,0
166,0
167,0
168,0
169,0
170,0
171,0
172,0
173,0
174,0
175,0
176,0
177,0
178,0
179,0
180,0
181,0
182,0
183,0
184,0
185,0
186,0
187,0
188,0
189,0
190,0
191,0
192,0
193,0
194,0
195,0
196,0
197,0
198,0
199,0
200,0
201,0
202,0
203,0
204,0
205,0
206,0
207,0
208,0
209,0
210,0
211,0
212,0
213,0
214,0
215,0
216,0
217,0
218,0
219,0
220,0
221,0
222,0
223,0
224,0
225,0
226,0
227,0
228,0
229,0
230,0
231,0
232,0
233,0
234,0
235,0
236,0
237,0
238,0
239,0
240,0
241,0
242,0
243,1
244,1
245,1
246,1
247,1
248,2
249,2
250,2
251,2
252,3
253,3
254,3
255,3
256,3
257,3
258,3
259,3
260,3
261,3
262,4
263,4
264,4
265,4
266,4
267,4
268,4
269,4
270,4
271,4
272,4
273,4
274,4
275,4
276,4
277,4
278,4
279,4
280,4
281,4
282,4
283,4
284,4
285,4
286,4
287,4
288,4
289,4
290,4
291,4
292,4
293,4
294,4
295,4
296,4
297,5
298,5
299,5
300,5
301,5
302,5
303,5
304,5
305,5
306,5
307,5
308,5
309,5
310,5
311,5
312,5
313,5
314,5
315,6
316,7
317,7
318,7
319,7
320,7
321,8
322,8
323,8
324,9
325,9
326,9
327,9
328,9
329,9
330,9
331,9
332,9
333,9
334,9
335,9
336,9
337,9
338,9
339,9
340,10
341,10
342,10
343,10
344,11
345,11
346,11
347,11
348,11
349,11
350,11
351,11
352,11
353,11
354,11
355,11
356,11
357,11
358,11
359,11
360,11
361,11
362,11
363,11
364,11
365,12
366,12
367,12
368,12
369,12
370,12
371,12
372,12
373,12
374,12
375,12
376,13
377,13
378,13
379,14
380,14
381,14
382,14
383,14
384,14
385,14
386,14
387,14
388,15
389,15
390,15
391,16
392,16
393,16
394,16
395,16
396,16
397,16
398,16
399,16
400,16
401,16
402,16
403,16
404,16
405,16
406,17
407,17
408,17
409,17
410,17
411,17
412,17
413,17
414,17
415,17
416,17
417,17
418,17
419,17
420,17
421,17
422,17
423,17
424,17
425,17
426,17
427,17
428,17
429,17
430,17
431,17
432,17
433,17
434,17
435,17
436,17
437,17
438,17
439,17
440,17
441,17
442,17
443,17
444,17
445,18
446,18
447,18
448,18
449,18
450,18
451,18
452,18
453,18
454,18
455,18
456,18
457,18
458,18
459,18
460,19
461,19
462,20
463,20
464,20
465,20
466,20
467,20
468,20
469,20
470,20
471,20
472,21
473,21
474,21
475,21
476,22
477,22
478,23
479,23
480,23
481,23
482,23
483,23
484,23
485,23
486,23
487,23
488,23
489,23
490,23
491,23
492,23
493,23
494,23
495,23
496,23
497,23
498,23
499,23
500,23
501,23
502,23
503,23
504,24
505,24
506,24
507,24
508,24
509,24
510,24
511,24
512,24
513,24
514,24
515,24
516,24
517,24
518,24
519,24
520,24
521,24
522,24
523,24
524,24
525,24
526,24
527,24
528,24
529,24
530,24
531,24
532,24
533,24
534,24
535,24
536,24
537,24
538,24
539,24
540,24
541,24
542,24
543,24
544,24
545,24
546,24
547,24
548,24
549,24
550,24
551,24
552,24
553,24
554,24
555,24
556,24
557,24
558,24
559,24
560,24
561,24
562,24
563,24
564,24
565,24
566,24
567,24
568,24
569,24
570,24
571,24
572,24
573,24
574,24
575,24
576,24
577,25
578,25
579,25
580,25
581,25
582,25
583,25
584,25
585,25
586,25
587,25
588,25
589,25
590,25
591,25
592,25
593,25
594,25
595,25
596,25
597,25
598,25
599,25
600,25
601,25
602,25
603,25
604,25
605,25
606,25
607,25
608,25
609,25
610,25
611,25
612,25
613,25
614,25
615,25
616,26
617,26
618,26
619,26
620,26
621,26
622,26
623,26
624,26
625,26
626,26
627,26
628,26
629,26
630,26
631,26
632,26
633,26
634,26
635,26
636,26
637,26
638,26
639,26
640,26
641,26
642,26
643,26
644,26
645,26
646,26
647,26
648,26
649,26
650,26
651,26
652,26
653,26
654,26
655,26
656,27
657,27
658,27
659,27
660,27
661,27
662,27
663,27
664,27
665,27
666,27
667,27
668,27
669,27
670,27
671,27
672,28
673,28
674,28
675,28
676,28
677,28
678,28
679,29
680,29
681,29
682,29
683,29
684,29
685,30
686,30
687,30
688,30
689,30
690,30
691,30
692,30
693,30
694,30
695,30
696,30
697,30
698,30
699,30
700,30
701,30
702,30
703,30
704,30
705,30
706,30
707,30
708,30
709,30
710,30
711,30
712,30
713,30
714,30
715,30
716,30
717,30
718,30
719,30
720,30
721,30
722,30
723,30
724,30
725,30
726,30
727,30
728,30
729,30
730,30
731,30
732,30
733,30
734,30
735,30
736,30
737,30
738,30
739,30
740,30
741,30
742,30
743,30
744,30
745,30
746,30
747,30
748,30
749,30
750,30
751,30
752,30
753,30
754,30
755,30
756,30
757,30
758,30
759,30
760,30
761,30
762,30
763,30
764,30
765,30
766,30
767,30
768,30
769,30
770,30
771,30
772,30
773,30
774,30
775,30
776,30
777,30
778,30
779,30
780,30
781,30
782,30
783,30
784,30
785,30
786,30
787,30
788,30
789,30
790,30
791,30
792,30
793,30
794,30
795,30
796,30
797,30
798,30
799,30
800,30
801,30
802,30
803,30
804,30
805,30
806,30
807,30
808,30
809,30
810,30
811,30
812,30
813,30
814,30
815,30
816,30
817,30
818,30
819,30
820,30
821,30
822,30
823,30
824,30
825,30
826,30
827,30
828,30
829,30
830,30
831,30
832,30
833,30
834,30
835,30
836,30
837,30
838,30
839,30
840,30
841,30
842,31
843,31
844,31
845,31
846,31
847,31
848,31
849,31
850,31
851,31
852,31
853,31
854,31
855,32
856,32
857,32
858,32
859,32
860,32
861,32
862,32
863,32
864,32
865,32
866,32
867,32
868,32
869,32
870,32
871,32
872,32
873,32
874,33
875,33
876,33
877,33
878,33
879,33
880,33
881,33
882,33
883,33
884,33
885,33
886,33
887,33
888,33
889,33
890,33
891,33
892,33
893,33
894,33
895,33
896,33
897,33
898,33
899,33
900,33
901,33
902,33
903,33
904,33
905,33
906,33
907,33
908,33
909,33
910,33
911,34
912,34
913,34
914,34
915,34
916,34
917,34
918,34
919,34
920,34
921,34
922,34
923,34
924,35
925,35
926,35
927,35
928,35
929,35
930,35
931,35
932,35
933,35
934,35
935,35
936,35
937,35
938,35
939,35
940,35
941,35
942,35
943,35
944,35
945,35
946,35
947,36
948,36
949,36
950,36
951,36
952,36
953,36
954,36
955,36
956,36
957,36
958,36
959,36
960,36
961,36
962,36
963,36
964,36
965,36
966,36
967,37
968,37
969,37
970,37
971,37
972,37
973,37
974,37
975,37
976,37
977,37
978,37
979,37
980,37
981,37
982,37
983,37
984,37
985,37
986,37
987,37
988,37
989,37
990,37
991,37
992,37
993,37
994,37
995,37
996,37
997,37
998,37
999,37
1000,37
1001,37
1002,37
1003,37
1004,37
1005,37
1006,37
1007,37
1008,37
1009,37
1010,37
1011,37
1012,37
1013,37
1014,38
1015,38
1016,38
1017,38
1018,38
1019,39
1020,39
1021,39
1022,39
1023,39
1024,39
1025,39
1026,39
1027,39
1028,39
1029,39
1030,39
1031,39
1032,40
1033,40
1034,40
1035,40
1036,40
1037,40
1038,40
1039,40
1040,40
1041,40
1042,40
1043,40
1044,42
1045,42
1046,42
1047,42
1048,42
1049,42
1050,42
1051,42
1052,42
1053,42
1054,42
1055,42
1056,42
1057,42
1058,42
1059,42
1060,42
1061,42
1062,42
1063,42
1064,42
1065,42
1066,42
1067,42
1068,42
1069,42
1070,42
1071,42
1072,43
1073,43
1074,43
1075,43
1076,43
1077,43
1078,43
1079,43
1080,43
1081,43
1082,43
1083,43
1084,43
1085,43
1086,43
1087,43
1088,43
1089,43
1090,43
1091,43
1092,43
1093,43
1094,43
1095,43
1096,43
1097,44
1098,44
1099,44
1100,44
1101,44
1102,44
1103,44
1104,44
1105,44
1106,44
1107,44
1108,44
1109,44
1110,44
1111,44
1112,44
1113,44
1114,44
1115,44
1116,44
1117,44
1118,44
1119,44
1120,44
1121,44
1122,44
1123,44
1124,44
1125,44
1126,45
1127,45
1128,45
1129,45
1130,45
1131,45
1132,45
1133,45
1134,45
1135,45
1136,45
1137,45
1138,45
1139,45
1140,45
1141,45
1142,45
1143,45
1144,45
1145,45
1146,45
1147,45
1148,45
1149,46
1150,46
1151,46
1152,46
1153,46
1154,47
1155,47
1156,47
1157,47
1158,47
1159,47
1160,47
1161,47
1162,47
1163,47
1164,48
1165,48
1166,48
1167,48
1168,49
1169,50
1170,50
1171,50
1172,50
1173,50
1174,50
1175,50
1176,50
1177,50
1178,50
1179,50
1180,50
1181,50
1182,50
1183,50
1184,51
1185,51
1186,52
1187,52
1188,52
1189,52
1190,52
1191,52
1192,52
1193,52
1194,52
1195,52
1196,52
1197,52
1198,53
1199,54
1200,55
1201,55
1202,55
1203,55
1204,55
1205,55
1206,55
1207,55
1208,55
1209,55
1210,55
1211,55
1212,55
1213,55
1214,55
1215,55
1216,55
1217,55
1218,55
1219,55
1220,55
1221,55
1222,55
1223,55
1224,55
1225,56
1226,56
1227,56
1228,56
1229,56
1230,56
1231,56
1232,56
1233,56
1234,56
1235,56
1236,56
1237,56
1238,56
1239,56
1240,56
1241,56
1242,56
1243,56
1244,56
1245,56
1246,56
1247,56
1248,57
1249,57
1250,57
1251,57
1252,58
1253,58
1254,58
1255,58
1256,58
1257,58
1258,58
1259,58
1260,58
1261,58
1262,58
1263,58
1264,58
1265,58
1266,58
1267,58
1268,58
1269,58
1270,58
1271,58
1272,58
1273,58
1274,58
1275,58
1276,58
1277,58
1278,58
1279,58
1280,58
1281,58
1282,58
1283,58
1284,58
1285,58
1286,58
1287,58
1288,58
1289,58
1290,58
1291,58
1292,59
1293,59
1294,59
1295,59
1296,59
1297,59
1298,59
1299,59
1300,59
1301,59
1302,59
1303,59
1304,59
1305,59
1306,59
1307,59
1308,59
1309,59
1310,59
1311,59
1312,59
1313,59
1314,59
1315,59
1316,59
1317,59
1318,59
1319,59
1320,59
1321,59
1322,59
1323,59
1324,59
1325,60
1326,60
1327,60
1328,60
1329,60
1330,60
1331,60
1332,60
1333,60
1334,60
1335,60
1336,60
1337,60
1338,60
1339,60
1340,60
1341,60
1342,60
1343,60
1344,60
1345,60
1346,60
1347,60
1348,60
1349,60
1350,61
1351,61
1352,61
1353,61
1354,61
1355,61
1356,61
1357,61
1358,61
1359,62
1360,62
1361,62
1362,62
1363,62
1364,62
1365,62
1366,62
1367,62
1368,62
1369,62
1370,62
1371,62
1372,63
1373,63
1374,63
1375,63
1376,64
1377,64
1378,64
1379,64
1380,64
1381,64
1382,64
1383,64
1384,64
1385,64
1386,64
1387,64
1388,64
1389,64
1390,64
1391,64
1392,64
1393,64
1394,64
1395,64
1396,64
1397,64
1398,64
1399,64
1400,64
1401,64
1402,64
1403,64
1404,65
1405,65
1406,65
1407,65
1408,65
1409,65
1410,65
1411,65
1412,65
1413,65
1414,65
1415,65
1416,65
1417,66
1418,66
1419,66
1420,66
1421,66
1422,66
1423,66
1424,66
1425,66
1426,66
1427,66
1428,66
1429,66
1430,66
1431,66
1432,66
1433,66
1434,66
1435,66
1436,66
1437,66
1438,66
1439,66
1440,66
1441,66
1442,66
1443,66
1444,66
1445,67
1446,67
1447,68
1448,68
1449,68
1450,68
1451,68
1452,68
1453,68
1454,68
1455,68
1456,68
1457,68
1458,68
1459,68
1460,68
1461,68
1462,68
1463,68
1464,68
1465,68
1466,68
1467,68
1468,68
1469,68
1470,68
1471,68
1472,68
1473,68
1474,68
1475,68
1476,68
1477,68
1478,68
1479,68
1480,68
1481,68
1482,68
1483,68
1484,68
1485,68
1486,68
1487,68
1488,68
1489,68
1490,68
1491,68
1492,68
1493,69
1494,69
1495,69
1496,69
1497,69
1498,69
1499,69
1500,69
1501,69
1502,69
1503,69
1504,69
1505,69
1506,69
1507,69
1508,69
1509,69
1510,69
1511,69
1512,69
1513,69
1514,69
1515,69
1516,69
1517,69
1518,69
1519,69
1520,69
1521,69
1522,69
1523,69
1524,69
1525,69
1526,69
1527,69
1528,69
1529,69
1530,69
1531,69
1532,69
1533,69
1534,69
1535,69
1536,69
1537,69
1538,69
1539,69
1540,69
1541,69
1542,69
1543,69
1544,69
1545,69
1546,69
1547,69
1548,69
1549,69
1550,69
1551,69
1552,69
1553,69
1554,69
1555,69
1556,69
1557,69
1558,70
1559,70
1560,70
1561,70
1562,70
1563,70
1564,70
1565,70
1566,70
1567,70
1568,70
1569,70
1570,70
1571,70
1572,70
1573,70
1574,70
1575,70
1576,70
1577,70
1578,70
1579,70
1580,70
1581,70
1582,70
1583,70
1584,70
1585,70
1586,70
1587,70
1588,70
1589,70
1590,70
1591,70
1592,70
1593,70
1594,70
1595,70
1596,70
1597,70
1598,70
1599,70
1600,70
1601,70
1602,70
1603,70
1604,70
1605,70
1606,70
1607,70
1608,70
1609,70
1610,70
1611,70
1612,70
1613,70
1614,70
1615,70
1616,70
1617,70
1618,70
1619,70
1620,70
1621,70
1622,70
1623,70
1624,70
1625,70
1626,70
1627,70
1628,70
1629,70
1630,70
1631,70
1632,70
1633,70
1634,70
1635,70
1636,70
1637,70
1638,70
1639,70
1640,70
1641,70
1642,70
1643,70
1644,70
1645,70
1646,70
1647,70
1648,70
1649,70
1650,70
1651,70
1652,70
1653,70
1654,70
1655,70
1656,70
1657,70
1658,70
1659,70
1660,70
1661,70
1662,70
1663,70
1664,70
1665,71
1666,71
1667,71
1668,71
1669,71
1670,71
1671,71
1672,71
1673,71
1674,71
1675,71
1676,71
1677,71
1678,71
1679,71
1680,71
1681,71
1682,71
1683,71
1684,71
1685,71
1686,71
1687,72
1688,72
1689,72
1690,72
1691,73
1692,73
1693,73
1694,73
1695,73
1696,73
1697,73
1698,73
1699,73
1700,73
1701,73
1702,73
1703,73
1704,73
1705,75
1706,75
1707,75
1708,75
1709,75
1710,75
1711,75
1712,75
1713,75
1714,75
1715,75
1716,75
1717,75
1718,75
1719,75
1720,75
1721,75
1722,75
1723,75
1724,75
1725,75
1726,75
1727,75
1728,75
1729,75
1730,75
1731,75
1732,75
1733,75
1734,75
1735,75
1736,75
1737,75
1738,75
1739,75
1740,75
1741,75
1742,75
1743,75
1744,75
1745,75
1746,75
1747,75
1748,75
1749,75
1750,75
1751,75
1752,76
1753,76
1754,77
1755,77
1756,77
1757,77
1758,77
1759,77
1760,77
1761,77
1762,77
1763,77
1764,77
1765,77
1766,77
1767,77
1768,77
1769,77
1770,77
1771,78
1772,78
1773,78
1774,78
1775,78
1776,78
1777,78
1778,78
1779,78
1780,78
1781,78
1782,78
1783,78
1784,78
1785,78
1786,78
1787,79
1788,79
1789,79
1790,79
1791,79
1792,79
1793,79
1794,80
1795,80
1796,81
1797,81
1798,81
1799,81
1800,81
1801,81
1802,81
1803,81
1804,81
1805,81
1806,81
1807,81
1808,81
1809,81
1810,81
1811,81
1812,81
1813,81
1814,81
1815,82
1816,82
1817,82
1818,82
1819,82
1820,83
1821,83
1822,84
1823,84
1824,85
1825,85
1826,85
1827,85
1828,86
1829,86
1830,86
1831,86
1832,86
1833,86
1834,86
1835,86
1836,86
1837,86
1838,86
1839,86
1840,86
1841,86
1842,86
1843,86
1844,86
1845,86
1846,86
1847,86
1848,87
1849,87
1850,87
1851,87
1852,87
1853,87
1854,87
1855,87
1856,87
1857,87
1858,87
1859,87
1860,87
1861,87
1862,87
1863,87
1864,87
1865,87
1866,87
1867,87
1868,87
1869,87
1870,87
1871,87
1872,87
1873,87
1874,87
1875,88
1876,88
1877,88
1878,88
1879,88
1880,88
1881,88
1882,88
1883,88
1884,88
1885,88
1886,88
1887,88
1888,88
1889,88
1890,88
1891,88
1892,88
1893,88
1894,88
1895,88
1896,88
1897,89
1898,89
1899,89
1900,89
1901,89
1902,89
1903,89
1904,89
1905,89
1906,89
1907,89
1908,90
1909,90
1910,90
1911,90
1912,90
1913,90
1914,90
1915,90
1916,90
1917,90
1918,90
1919,90
1920,90
1921,90
1922,90
1923,90
1924,90
1925,90
1926,90
1927,90
1928,90
1929,90
1930,90
1931,90
1932,90
1933,90
1934,90
1935,90
1936,90
1937,90
1938,90
1939,90
1940,90
1941,90
1942,90
1943,90
1944,90
1945,90
1946,90
1947,91
1948,91
1949,91
1950,91
1951,91
1952,92
1953,92
1954,92
1955,92
1956,92
1957,93
1958,93
1959,93
1960,93
1961,93
1962,93
1963,94
1964,94
1965,94
1966,94
1967,94
1968,95
1969,95
1970,95
1971,95
1972,95
1973,95
1974,95
1975,95
1976,95
1977,95
1978,96
1979,96
1980,96
1981,96
1982,96
1983,96
1984,96
1985,96
1986,96
1987,96
1988,96
1989,96
1990,96
1991,96
1992,96
1993,96
1994,96
1995,96
1996,96
1997,96
1998,96
1999,96
2000,96
