"tick","total"
0,0
1,0
2,0
3,0
4,0
5,0
6,0
7,0
8,0
9,0
10,0
11,0
12,0
13,0
14,0
15,0
16,0
17,0
18,0
19,0
20,0
21,0
22,0
23,0
24,0
25,0
26,0
27,0
28,0
29,0
30,0
31,0
32,0
33,0
34,0
35,0
36,0
37,0
38,0
39,0
40,0
41,0
42,0
43,0
44,0
45,0
46,0
47,0
48,0
49,0
50,0
51,0
52,0
53,0
54,0
55,0
56,0
57,0
58,0
59,0
60,0
61,0
62,0
63,0
64,0
65,0
66,0
67,0
68,0
69,0
70,0
71,0
72,0
73,0
74,0
75,0
76,0
77,0
78,0
79,0
80,0
81,0
82,0
83,0
84,0
85,0
86,0
87,0
88,0
89,0
90,0
91,0
92,0
93,0
94,0
95,0
96,0
97,0
98,0
99,0
100,0
101,0
102,0
103,0
104,0
105,0
106,0
107,0
108,0
109,0
110,0
111,0
112,0
113,0
114,0
115,0
116,0
117,0
118,0
119,0
120,0
121,0
122,0
123,0
124,0
125,0
126,0
127,0
128,0
129,0
130,0
131,0
132,0
133,0
134,0
135,0
136,0
137,0
138,0
139,0
140,0
141,0
142,0
143,0
144,0
145,0
146,0
147,0
148,0
149,0
150,0
151,0
152,0
153,0
154,0
155,0
156,0
157,0
158,0
159,0
160,0
161,0
162,0
163,0
164,0
165,0
166,0
167,0
168,0
169,0
170,0
171,0
172,0
173,0
174,0
175,0
176,0
177,0
178,0
179,0
180,0
181,0
182,0
183,0
184,0
185,0
186,0
187,0
188,0
189,0
190,0
191,0
192,0
193,0
194,0
195,0
196,0
197,0
198,0
199,0
200,0
201,0
202,0
203,0
204,0
205,0
206,0
207,0
208,0
209,0
210,1
211,1
212,1
213,1
214,1
215,1
216,1
217,1
218,1
219,1
220,1
221,1
222,1
223,1
224,1
225,1
226,2
227,2
228,2
229,2
230,3
231,3
232,3
233,3
234,4
235,4
236,4
237,4
238,4
239,4
240,4
241,5
242,5
243,5
244,5
245,5
246,6
247,6
248,6
249,7
250,7
251,7
252,8
253,8
254,8
255,8
256,8
257,8
258,8
259,9
260,9
261,10
262,10
263,10
264,10
265,10
266,10
267,10
268,11
269,11
270,11
271,11
272,11
273,11
274,11
275,11
276,11
277,13
278,13
279,13
280,13
281,13
282,13
283,13
284,13
285,13
286,13
287,13
288,13
289,13
290,15
291,15
292,15
293,15
294,15
295,15
296,15
297,15
298,15
299,16
300,16
301,16
302,16
303,16
304,16
305,16
306,16
307,16
308,16
309,16
310,16
311,17
312,17
313,17
314,17
315,17
316,18
317,18
318,18
319,18
320,18
321,18
322,18
323,19
324,19
325,19
326,19
327,19
328,19
329,19
330,19
331,19
332,19
333,19
334,19
335,19
336,19
337,20
338,20
339,21
340,21
341,21
342,21
343,21
344,21
345,21
346,21
347,21
348,21
349,21
350,21
351,21
352,21
353,22
354,22
355,22
356,22
357,22
358,22
359,22
360,22
361,22
362,22
363,22
364,22
365,22
366,22
367,22
368,23
369,23
370,23
371,23
372,23
373,23
374,23
375,23
376,23
377,23
378,24
379,24
380,24
381,24
382,24
383,24
384,24
385,24
386,24
387,24
388,24
389,24
390,25
391,25
392,25
393,25
394,25
395,25
396,25
397,25
398,25
399,25
400,25
401,25
402,25
403,25
404,25
405,25
406,25
407,25
408,25
409,25
410,25
411,25
412,25
413,25
414,25
415,25
416,25
417,26
418,26
419,26
420,26
421,26
422,26
423,26
424,26
425,26
426,26
427,26
428,26
429,26
430,26
431,27
432,27
433,28
434,28
435,28
436,28
437,28
438,28
439,28
440,28
441,28
442,28
443,28
444,28
445,28
446,28
447,29
448,29
449,29
450,29
451,29
452,29
453,29
454,29
455,29
456,29
457,29
458,29
459,29
460,29
461,29
462,29
463,29
464,29
465,29
466,29
467,30
468,30
469,30
470,30
471,30
472,31
473,31
474,31
475,31
476,31
477,31
478,31
479,31
480,31
481,31
482,31
483,31
484,31
485,31
486,31
487,31
488,31
489,31
490,31
491,31
492,31
493,31
494,31
495,31
496,31
497,31
498,31
499,31
500,31
501,31
502,31
503,31
504,31
505,31
506,31
507,31
508,31
509,31
510,31
511,31
512,31
513,31
514,31
515,31
516,31
517,31
518,31
519,31
520,31
521,31
522,31
523,31
524,31
525,31
526,31
527,31
528,31
529,31
530,31
531,31
532,31
533,31
534,31
535,31
536,31
537,31
538,31
539,31
540,31
541,31
542,31
543,31
544,31
545,31
546,31
547,31
548,31
549,31
550,32
551,32
552,32
553,32
554,32
555,32
556,32
557,32
558,32
559,32
560,32
561,32
562,32
563,32
564,32
565,32
566,32
567,32
568,32
569,32
570,32
571,32
572,32
573,32
574,32
575,32
576,32
577,32
578,32
579,32
580,32
581,32
582,32
583,32
584,32
585,32
586,32
587,32
588,32
589,32
590,32
591,32
592,32
593,32
594,32
595,32
596,32
597,32
598,32
599,32
600,32
601,32
602,32
603,32
604,32
605,32
606,32
607,32
608,32
609,32
610,32
611,32
612,32
613,32
614,32
615,32
616,32
617,32
618,32
619,32
620,32
621,32
622,32
623,32
624,32
625,32
626,32
627,32
628,32
629,32
630,32
631,32
632,33
633,33
634,33
635,34
636,34
637,34
638,34
639,34
640,34
641,34
642,34
643,34
644,34
645,34
646,34
647,34
648,34
649,34
650,34
651,34
652,34
653,34
654,34
655,34
656,34
657,34
658,34
659,34
660,34
661,34
662,34
663,34
664,34
665,34
666,34
667,34
668,35
669,35
670,37
671,38
672,38
673,38
674,39
675,39
676,39
677,39
678,39
679,39
680,39
681,39
682,40
683,40
684,40
685,40
686,40
687,40
688,40
689,40
690,40
691,40
692,40
693,40
694,40
695,40
696,40
697,40
698,40
699,40
700,40
701,40
702,40
703,40
704,40
705,40
706,40
707,40
708,40
709,40
710,40
711,40
712,40
713,40
714,40
715,40
716,40
717,40
718,40
719,40
720,40
721,40
722,40
723,40
724,41
725,42
726,42
727,42
728,42
729,42
730,42
731,42
732,42
733,43
734,43
735,43
736,43
737,43
738,43
739,43
740,44
741,44
742,44
743,44
744,44
745,44
746,44
747,44
748,44
749,44
750,44
751,44
752,44
753,44
754,44
755,44
756,44
757,44
758,44
759,44
760,44
761,44
762,44
763,44
764,44
765,45
766,45
767,45
768,45
769,45
770,45
771,45
772,45
773,45
774,45
775,45
776,45
777,45
778,45
779,46
780,47
781,47
782,47
783,47
784,47
785,47
786,47
787,47
788,47
789,48
790,48
791,48
792,48
793,48
794,48
795,48
796,48
797,48
798,48
799,48
800,48
801,48
802,48
803,48
804,48
805,48
806,48
807,48
808,48
809,48
810,48
811,48
812,48
813,48
814,48
815,48
816,49
817,49
818,49
819,49
820,49
821,49
822,49
823,49
824,49
825,49
826,49
827,49
828,49
829,49
830,49
831,49
832,49
833,49
834,49
835,49
836,49
837,49
838,49
839,49
840,49
841,49
842,49
843,49
844,49
845,49
846,49
847,49
848,49
849,49
850,49
851,49
852,49
853,49
854,49
855,49
856,49
857,49
858,49
859,49
860,49
861,49
862,49
863,49
864,49
865,49
866,49
867,49
868,49
869,49
870,49
871,49
872,49
873,49
874,49
875,50
876,50
877,50
878,50
879,51
880,51
881,51
882,51
883,51
884,51
885,51
886,51
887,51
888,51
889,51
890,51
891,51
892,51
893,51
894,51
895,51
896,51
897,51
898,51
899,51
900,51
901,52
902,52
903,52
904,52
905,52
906,52
907,52
908,52
909,52
910,52
911,52
912,53
913,53
914,53
915,53
916,53
917,53
918,53
919,53
920,53
921,53
922,53
923,54
924,54
925,54
926,54
927,54
928,54
929,54
930,54
931,54
932,54
933,54
934,54
935,54
936,54
937,54
938,54
939,54
940,54
941,54
942,54
943,54
944,54
945,54
946,54
947,54
948,54
949,54
950,54
951,54
952,54
953,54
954,54
955,54
956,54
957,54
958,54
959,54
960,54
961,54
962,54
963,54
964,54
965,54
966,54
967,54
968,54
969,54
970,54
971,54
972,54
973,54
974,54
975,54
976,54
977,54
978,54
979,54
980,54
981,54
982,54
983,54
984,54
985,55
986,55
987,55
988,55
989,55
990,55
991,55
992,55
993,55
994,55
995,55
996,55
997,55
998,56
999,56
1000,56
1001,56
1002,56
1003,56
1004,56
1005,56
1006,56
1007,57
1008,57
1009,57
1010,57
1011,57
1012,57
1013,57
1014,57
1015,57
1016,57
1017,57
1018,57
1019,57
1020,57
1021,57
1022,57
1023,57
1024,57
1025,57
1026,57
1027,57
1028,57
1029,57
1030,57
1031,57
1032,57
1033,57
1034,57
1035,57
1036,57
1037,57
1038,57
1039,57
1040,57
1041,57
1042,57
1043,57
1044,57
1045,57
1046,57
1047,57
1048,57
1049,57
1050,57
1051,57
1052,57
1053,57
1054,57
1055,57
1056,57
1057,57
1058,57
1059,57
1060,57
1061,57
1062,57
1063,57
1064,57
1065,57
1066,57
1067,57
1068,57
1069,57
1070,57
1071,57
1072,57
1073,57
1074,57
1075,57
1076,57
1077,57
1078,57
1079,57
1080,57
1081,57
1082,57
1083,57
1084,57
1085,57
1086,57
1087,57
1088,57
1089,57
1090,57
1091,57
1092,57
1093,57
1094,57
1095,57
1096,57
1097,57
1098,57
1099,57
1100,57
1101,57
1102,57
1103,57
1104,57
1105,57
1106,57
1107,57
1108,57
1109,57
1110,57
1111,57
1112,57
1113,57
1114,57
1115,57
1116,57
1117,57
1118,57
1119,57
1120,57
1121,57
1122,57
1123,57
1124,57
1125,57
1126,57
1127,57
1128,57
1129,57
1130,57
1131,57
1132,57
1133,57
1134,57
1135,57
1136,57
1137,57
1138,57
1139,57
1140,57
1141,57
1142,57
1143,57
1144,57
1145,57
1146,57
1147,57
1148,57
1149,57
1150,57
1151,57
1152,58
1153,58
1154,58
1155,58
1156,58
1157,58
1158,58
1159,58
1160,58
1161,58
1162,58
1163,58
1164,58
1165,59
1166,59
1167,60
1168,60
1169,60
1170,60
1171,60
1172,60
1173,60
1174,60
1175,60
1176,60
1177,60
1178,60
1179,61
1180,61
1181,61
1182,61
1183,61
1184,61
1185,61
1186,61
1187,62
1188,62
1189,62
1190,62
1191,62
1192,62
1193,62
1194,62
1195,62
1196,62
1197,62
1198,62
1199,62
1200,62
1201,62
1202,62
1203,62
1204,62
1205,62
1206,62
1207,62
1208,62
1209,62
1210,62
1211,62
1212,62
1213,62
1214,62
1215,62
1216,62
1217,62
1218,62
1219,62
1220,62
1221,62
1222,62
1223,62
1224,62
1225,62
1226,62
1227,62
1228,62
1229,62
1230,62
1231,62
1232,62
1233,62
1234,62
1235,62
1236,62
1237,62
1238,62
1239,62
1240,62
1241,62
1242,62
1243,62
1244,62
1245,62
1246,62
1247,62
1248,62
1249,62
1250,62
1251,62
1252,62
1253,62
1254,62
1255,62
1256,62
1257,62
1258,62
1259,62
1260,62
1261,62
1262,62
1263,62
1264,62
1265,62
1266,62
1267,62
1268,62
1269,62
1270,62
1271,62
1272,62
1273,62
1274,62
1275,62
1276,62
1277,62
1278,62
1279,62
1280,62
1281,62
1282,62
1283,63
1284,63
1285,63
1286,63
1287,63
1288,63
1289,63
1290,63
1291,63
1292,63
1293,63
1294,63
1295,63
1296,63
1297,63
1298,63
1299,63
1300,63
1301,63
1302,63
1303,63
1304,63
1305,63
1306,63
1307,63
1308,63
1309,63
1310,63
1311,63
1312,63
1313,63
1314,63
1315,63
1316,63
1317,63
1318,64
1319,64
1320,64
1321,64
1322,64
1323,65
1324,65
1325,65
1326,65
1327,65
1328,65
1329,65
1330,65
1331,65
1332,65
1333,65
1334,65
1335,65
1336,65
1337,65
1338,65
1339,66
1340,67
1341,68
1342,68
1343,68
1344,68
1345,68
1346,68
1347,68
1348,69
1349,69
1350,69
1351,69
1352,69
1353,69
1354,69
1355,69
1356,69
1357,69
1358,69
1359,69
1360,69
1361,69
1362,69
1363,70
1364,71
1365,72
1366,73
1367,74
1368,75
1369,76
1370,76
1371,76
1372,76
1373,76
1374,76
1375,76
1376,76
1377,76
1378,76
1379,76
1380,76
1381,76
1382,76
1383,76
1384,76
1385,76
1386,76
1387,76
1388,76
1389,76
1390,76
1391,76
1392,76
1393,76
1394,76
1395,77
1396,77
1397,77
1398,77
1399,77
1400,77
1401,77
1402,77
1403,77
1404,77
1405,77
1406,77
1407,78
1408,78
1409,78
1410,79
1411,79
1412,79
1413,79
1414,79
1415,79
1416,79
1417,79
1418,79
1419,79
1420,79
1421,79
1422,79
1423,79
1424,79
1425,79
1426,79
1427,79
1428,79
1429,79
1430,79
1431,79
1432,79
1433,79
1434,79
1435,79
1436,79
1437,79
1438,79
1439,79
1440,79
1441,79
1442,79
1443,79
1444,79
1445,79
1446,79
1447,80
1448,80
1449,80
1450,80
1451,80
1452,82
1453,82
1454,82
1455,82
1456,82
1457,82
1458,82
1459,82
1460,82
1461,82
1462,82
1463,82
1464,83
1465,83
1466,83
1467,83
1468,83
1469,83
1470,83
1471,83
1472,83
1473,83
1474,83
1475,83
1476,83
1477,83
1478,83
1479,83
1480,83
1481,83
1482,83
1483,83
1484,83
1485,83
1486,83
1487,83
1488,83
1489,83
1490,83
1491,83
1492,83
1493,83
1494,83
1495,83
1496,83
1497,83
1498,83
1499,83
1500,83
1501,83
1502,83
1503,83
1504,83
1505,83
1506,83
1507,83
1508,83
1509,83
1510,83
1511,83
1512,83
1513,83
1514,83
1515,83
1516,83
1517,83
1518,83
1519,83
1520,83
1521,83
1522,83
1523,83
1524,83
1525,83
1526,83
1527,83
1528,83
1529,83
1530,83
1531,83
1532,83
1533,83
1534,83
1535,84
1536,84
1537,84
1538,84
1539,84
1540,84
1541,84
1542,84
1543,84
1544,84
1545,84
1546,84
1547,84
1548,84
1549,84
1550,84
1551,84
1552,84
1553,84
1554,84
1555,84
1556,84
1557,84
1558,84
1559,85
1560,85
1561,85
1562,85
1563,85
1564,85
1565,85
1566,85
1567,85
1568,86
1569,86
1570,86
1571,86
1572,86
1573,86
1574,86
1575,86
1576,86
1577,86
1578,86
1579,86
1580,86
1581,86
1582,87
1583,87
1584,87
1585,87
1586,87
1587,88
1588,88
1589,88
1590,88
1591,88
1592,88
1593,88
1594,88
1595,88
1596,88
1597,88
1598,88
1599,88
1600,88
1601,88
1602,89
1603,89
1604,89
1605,89
1606,89
1607,89
1608,89
1609,89
1610,89
1611,89
1612,89
1613,89
1614,89
1615,89
1616,89
1617,89
1618,89
1619,89
1620,89
1621,89
1622,89
1623,89
1624,89
1625,89
1626,89
1627,89
1628,89
1629,89
1630,89
1631,89
1632,89
1633,89
1634,89
1635,89
1636,89
1637,89
1638,89
1639,89
1640,89
1641,89
1642,89
1643,89
1644,89
1645,89
1646,89
1647,89
1648,89
1649,89
1650,89
1651,89
1652,89
1653,89
1654,89
1655,89
1656,89
1657,89
1658,89
1659,89
1660,89
1661,89
1662,89
1663,89
1664,89
1665,89
1666,89
1667,89
1668,89
1669,89
1670,89
1671,89
1672,89
1673,89
1674,89
1675,89
1676,90
1677,90
1678,90
1679,91
1680,92
1681,92
1682,92
1683,92
1684,92
1685,92
1686,92
1687,92
1688,92
1689,92
1690,92
1691,92
1692,92
1693,92
1694,92
1695,92
1696,92
1697,92
1698,92
1699,92
1700,92
1701,92
1702,92
1703,92
1704,92
1705,92
1706,92
1707,92
1708,92
1709,92
1710,92
1711,92
1712,92
1713,94
1714,95
1715,95
1716,96
1717,96
1718,96
1719,96
1720,96
1721,96
1722,96
1723,96
1724,96
1725,96
1726,96
1727,96
1728,96
1729,96
1730,96
1731,96
1732,96
1733,96
1734,96
1735,97
1736,97
1737,97
1738,97
1739,97
1740,97
1741,97
1742,97
1743,97
1744,97
1745,97
1746,97
1747,97
1748,97
1749,97
1750,97
1751,97
1752,97
1753,97
1754,97
1755,97
1756,97
1757,97
1758,97
1759,97
1760,98
1761,98
1762,98
1763,98
1764,98
1765,98
1766,98
1767,98
1768,100
1769,100
1770,100
1771,100
1772,100
1773,100
1774,100
1775,100
1776,100
1777,100
1778,100
1779,100
1780,100
1781,100
1782,100
1783,100
1784,100
1785,100
1786,100
1787,100
1788,100
1789,100
1790,100
1791,100
1792,100
1793,100
1794,100
1795,101
1796,101
1797,101
1798,101
1799,101
1800,101
1801,101
1802,101
1803,101
1804,101
1805,101
1806,101
1807,101
1808,101
1809,101
1810,101
1811,101
1812,101
1813,101
1814,101
1815,101
1816,101
1817,101
1818,101
1819,101
1820,101
1821,101
1822,101
1823,101
1824,101
1825,101
1826,101
1827,101
1828,101
1829,101
1830,101
1831,101
1832,102
1833,102
1834,102
1835,102
1836,102
1837,102
1838,102
1839,102
1840,102
1841,102
1842,102
1843,102
1844,102
1845,102
1846,102
1847,102
1848,102
1849,102
1850,102
1851,102
1852,102
1853,102
1854,102
1855,102
1856,102
1857,102
1858,102
1859,103
1860,103
1861,103
1862,103
1863,103
1864,103
1865,103
1866,103
1867,103
1868,103
1869,103
1870,103
1871,103
1872,104
1873,104
1874,104
1875,104
1876,104
1877,104
1878,104
1879,104
1880,104
1881,104
1882,104
1883,104
1884,104
1885,104
1886,105
1887,105
1888,105
1889,106
1890,106
1891,106
1892,106
1893,106
1894,106
1895,106
1896,107
1897,107
1898,107
1899,107
1900,107
1901,107
1902,107
1903,107
1904,107
1905,107
1906,107
1907,107
1908,107
1909,107
1910,108
1911,108
1912,108
1913,108
1914,108
1915,108
1916,108
1917,108
1918,108
1919,108
1920,109
1921,109
1922,109
1923,109
1924,109
1925,109
1926,109
1927,110
1928,110
1929,110
1930,110
1931,110
1932,110
1933,110
1934,110
1935,110
1936,110
1937,110
1938,110
1939,110
1940,110
1941,110
1942,110
1943,110
1944,110
1945,110
1946,110
1947,110
1948,110
1949,110
1950,110
1951,110
1952,110
1953,110
1954,110
1955,110
1956,110
1957,110
1958,110
1959,110
1960,110
1961,110
1962,110
1963,110
1964,110
1965,110
1966,110
1967,110
1968,110
1969,110
1970,110
1971,110
1972,110
1973,110
1974,110
1975,110
1976,110
1977,110
1978,110
1979,110
1980,110
1981,110
1982,110
1983,110
1984,110
1985,110
1986,110
1987,110
1988,110
1989,110
1990,110
1991,110
1992,110
1993,110
1994,110
1995,110
1996,110
1997,110
1998,110
1999,110
2000,110
