"tick","total"
0,0
1,1
2,1
3,1
4,1
5,1
6,1
7,1
8,1
9,1
10,1
11,1
12,1
13,1
14,1
15,1
16,1
17,1
18,1
19,1
20,1
21,1
22,1
23,1
24,1
25,1
26,1
27,1
28,1
29,1
30,1
31,1
32,1
33,1
34,1
35,1
36,1
37,1
38,1
39,1
40,1
41,1
42,1
43,1
44,1
45,1
46,1
47,1
48,1
49,1
50,1
51,1
52,1
53,1
54,1
55,1
56,1
57,1
58,1
59,1
60,1
61,1
62,1
63,1
64,1
65,1
66,1
67,1
68,1
69,1
70,1
71,1
72,1
73,1
74,1
75,1
76,1
77,1
78,1
79,1
80,1
81,1
82,1
83,1
84,1
85,1
86,1
87,1
88,1
89,1
90,1
91,1
92,1
93,1
94,1
95,1
96,1
97,1
98,1
99,1
100,1
101,1
102,1
103,1
104,1
105,1
106,1
107,1
108,1
109,1
110,1
111,1
112,1
113,1
114,1
115,1
116,1
117,1
118,2
119,2
120,2
121,2
122,2
123,2
124,2
125,2
126,2
127,2
128,2
129,2
130,2
131,2
132,2
133,2
134,2
135,2
136,2
137,2
138,2
139,2
140,2
141,2
142,2
143,2
144,2
145,2
146,2
147,2
148,2
149,2
150,2
151,2
152,2
153,2
154,2
155,2
156,2
157,2
158,2
159,2
160,2
161,2
162,2
163,2
164,2
165,3
166,3
167,3
168,3
169,3
170,3
171,3
172,3
173,3
174,5
175,5
176,5
177,6
178,7
179,7
180,7
181,7
182,7
183,7
184,7
185,7
186,7
187,7
188,7
189,7
190,7
191,8
192,8
193,8
194,8
195,8
196,8
197,9
198,10
199,10
200,10
201,10
202,10
203,10
204,10
205,10
206,10
207,10
208,10
209,10
210,11
211,11
212,11
213,11
214,11
215,12
216,12
217,12
218,12
219,12
220,13
221,13
222,13
223,13
224,13
225,13
226,13
227,14
228,14
229,14
230,15
231,15
232,16
233,16
234,16
235,16
236,16
237,16
238,16
239,16
240,16
241,17
242,17
243,18
244,18
245,18
246,18
247,19
248,19
249,19
250,19
251,19
252,19
253,19
254,19
255,19
256,19
257,19
258,19
259,19
260,19
261,20
262,20
263,20
264,20
265,20
266,20
267,20
268,20
269,20
270,20
271,20
272,21
273,21
274,21
275,21
276,21
277,22
278,22
279,22
280,22
281,22
282,22
283,22
284,22
285,22
286,22
287,22
288,22
289,22
290,22
291,22
292,22
293,22
294,22
295,22
296,22
297,22
298,22
299,22
300,22
301,22
302,22
303,22
304,23
305,23
306,23
307,23
308,23
309,23
310,23
311,23
312,23
313,23
314,23
315,23
316,23
317,23
318,23
319,23
320,23
321,23
322,23
323,23
324,24
325,24
326,24
327,24
328,24
329,24
330,24
331,24
332,24
333,24
334,24
335,24
336,24
337,24
338,25
339,25
340,25
341,25
342,25
343,25
344,25
345,25
346,25
347,25
348,25
349,26
350,26
351,26
352,26
353,26
354,26
355,26
356,26
357,26
358,26
359,26
360,26
361,26
362,26
363,26
364,26
365,26
366,26
367,26
368,26
369,27
370,27
371,27
372,27
373,27
374,27
375,27
376,28
377,28
378,28
379,28
380,28
381,28
382,28
383,28
384,28
385,28
386,28
387,28
388,28
389,28
390,28
391,28
392,28
393,28
394,28
395,28
396,28
397,28
398,28
399,28
400,28
401,28
402,28
403,28
404,28
405,28
406,28
407,28
408,28
409,28
410,28
411,28
412,28
413,28
414,28
415,29
416,29
417,29
418,29
419,29
420,29
421,29
422,29
423,29
424,29
425,30
426,30
427,30
428,30
429,30
430,30
431,30
432,30
433,30
434,30
435,30
436,30
437,30
438,30
439,31
440,31
441,31
442,31
443,31
444,31
445,31
446,31
447,31
448,31
449,31
450,31
451,31
452,31
453,31
454,31
455,31
456,31
457,31
458,31
459,31
460,31
461,31
462,31
463,31
464,31
465,31
466,31
467,31
468,31
469,31
470,31
471,31
472,31
473,31
474,31
475,31
476,31
477,31
478,31
479,31
480,31
481,32
482,32
483,32
484,33
485,33
486,33
487,33
488,33
489,33
490,34
491,34
492,34
493,34
494,34
495,34
496,34
497,34
498,34
499,34
500,34
501,34
502,34
503,34
504,34
505,34
506,34
507,34
508,34
509,34
510,34
511,34
512,34
513,34
514,34
515,34
516,34
517,34
518,34
519,35
520,35
521,35
522,36
523,37
524,37
525,37
526,37
527,37
528,37
529,37
530,37
531,37
532,37
533,38
534,38
535,38
536,38
537,38
538,38
539,38
540,38
541,38
542,38
543,39
544,40
545,40
546,40
547,40
548,40
549,40
550,40
551,40
552,40
553,40
554,40
555,40
556,40
557,40
558,40
559,40
560,40
561,40
562,40
563,41
564,41
565,42
566,43
567,43
568,43
569,43
570,43
571,43
572,43
573,43
574,44
575,44
576,44
577,44
578,44
579,44
580,44
581,44
582,44
583,44
584,44
585,44
586,44
587,45
588,45
589,45
590,45
591,45
592,46
593,46
594,46
595,46
596,46
597,46
598,46
599,47
600,47
601,48
602,48
603,48
604,48
605,48
606,48
607,48
608,49
609,49
610,49
611,49
612,49
613,49
614,49
615,49
616,49
617,50
618,50
619,50
620,50
621,50
622,50
623,50
624,50
625,50
626,50
627,50
628,50
629,51
630,51
631,51
632,51
633,51
634,52
635,52
636,52
637,52
638,52
639,52
640,52
641,52
642,53
643,53
644,53
645,53
646,53
647,53
648,53
649,53
650,53
651,53
652,53
653,53
654,53
655,53
656,53
657,53
658,53
659,53
660,53
661,53
662,53
663,53
664,53
665,53
666,53
667,53
668,53
669,53
670,53
671,53
672,53
673,53
674,53
675,54
676,54
677,54
678,55
679,55
680,55
681,55
682,55
683,55
684,55
685,55
686,55
687,55
688,55
689,55
690,55
691,55
692,55
693,55
694,55
695,55
696,55
697,55
698,55
699,55
700,55
701,55
702,55
703,55
704,55
705,55
706,55
707,55
708,55
709,55
710,55
711,55
712,55
713,55
714,55
715,55
716,55
717,55
718,55
719,55
720,55
721,55
722,55
723,55
724,55
725,55
726,55
727,55
728,55
729,55
730,55
731,55
732,55
733,55
734,55
735,55
736,55
737,55
738,55
739,55
740,56
741,56
742,56
743,56
744,56
745,56
746,56
747,56
748,56
749,56
750,56
751,56
752,56
753,56
754,56
755,57
756,57
757,58
758,58
759,58
760,58
761,58
762,58
763,58
764,58
765,58
766,58
767,58
768,58
769,58
770,59
771,59
772,60
773,60
774,60
775,60
776,60
777,60
778,60
779,60
780,60
781,61
782,61
783,61
784,61
785,61
786,61
787,61
788,61
789,61
790,61
791,61
792,61
793,61
794,61
795,61
796,61
797,61
798,61
799,61
800,61
801,61
802,61
803,61
804,61
805,61
806,61
807,61
808,61
809,61
810,61
811,61
812,61
813,61
814,61
815,61
816,61
817,61
818,61
819,61
820,61
821,61
822,61
823,61
824,61
825,61
826,61
827,61
828,62
829,62
830,62
831,62
832,62
833,62
834,62
835,62
836,62
837,62
838,62
839,62
840,62
841,63
842,63
843,63
844,64
845,64
846,64
847,64
848,64
849,65
850,65
851,65
852,65
853,65
854,65
855,65
856,66
857,66
858,66
859,67
860,67
861,67
862,67
863,67
864,67
865,67
866,67
867,67
868,67
869,67
870,67
871,67
872,68
873,68
874,68
875,68
876,68
877,68
878,68
879,68
880,68
881,68
882,68
883,68
884,68
885,68
886,68
887,69
888,69
889,69
890,70
891,70
892,70
893,70
894,70
895,70
896,70
897,70
898,70
899,70
900,70
901,70
902,70
903,70
904,70
905,70
906,70
907,70
908,70
909,70
910,70
911,70
912,70
913,70
914,70
915,70
916,70
917,70
918,70
919,70
920,70
921,70
922,70
923,71
924,71
925,72
926,72
927,72
928,72
929,72
930,72
931,72
932,72
933,72
934,72
935,72
936,72
937,72
938,72
939,72
940,72
941,72
942,72
943,72
944,72
945,72
946,72
947,72
948,72
949,72
950,73
951,73
952,73
953,73
954,73
955,73
956,73
957,74
958,74
959,74
960,74
961,75
962,76
963,76
964,76
965,76
966,77
967,77
968,77
969,77
970,77
971,77
972,77
973,77
974,77
975,77
976,77
977,77
978,77
979,77
980,77
981,77
982,77
983,77
984,77
985,77
986,77
987,77
988,77
989,77
990,77
991,77
992,78
993,78
994,78
995,78
996,78
997,78
998,78
999,78
1000,78
1001,78
1002,78
1003,79
1004,79
1005,79
1006,79
1007,79
1008,79
1009,79
1010,79
1011,79
1012,79
1013,79
1014,79
1015,79
1016,79
1017,79
1018,79
1019,79
1020,79
1021,79
1022,79
1023,79
1024,79
1025,79
1026,79
1027,79
1028,79
1029,79
1030,79
1031,79
1032,79
1033,79
1034,79
1035,79
1036,79
1037,79
1038,79
1039,79
1040,79
1041,80
1042,80
1043,80
1044,80
1045,81
1046,81
1047,81
1048,81
1049,81
1050,81
1051,81
1052,81
1053,81
1054,81
1055,81
1056,81
1057,81
1058,81
1059,81
1060,81
1061,81
1062,81
1063,81
1064,81
1065,81
1066,81
1067,81
1068,81
1069,81
1070,82
1071,82
1072,82
1073,82
1074,83
1075,83
1076,83
1077,83
1078,83
1079,83
1080,83
1081,83
1082,83
1083,83
1084,83
1085,83
1086,83
1087,83
1088,83
1089,83
1090,83
1091,84
1092,84
1093,84
1094,84
1095,84
1096,84
1097,84
1098,84
1099,84
1100,84
1101,84
1102,84
1103,84
1104,84
1105,84
1106,84
1107,84
1108,84
1109,84
1110,84
1111,84
1112,84
1113,84
1114,84
1115,84
1116,84
1117,84
1118,85
1119,85
1120,85
1121,85
1122,85
1123,85
1124,85
1125,85
1126,85
1127,85
1128,85
1129,85
1130,85
1131,85
1132,85
1133,85
1134,85
1135,85
1136,85
1137,85
1138,85
1139,85
1140,85
1141,85
1142,85
1143,85
1144,85
1145,85
1146,85
1147,85
1148,85
1149,85
1150,85
1151,86
1152,86
1153,86
1154,86
1155,87
1156,87
1157,87
1158,87
1159,87
1160,87
1161,87
1162,87
1163,87
1164,87
1165,88
1166,88
1167,88
1168,88
1169,88
1170,88
1171,88
1172,89
1173,89
1174,90
1175,90
1176,90
1177,90
1178,90
1179,90
1180,90
1181,90
1182,90
1183,90
1184,90
1185,90
1186,90
1187,90
1188,90
1189,90
1190,90
1191,90
1192,90
1193,91
1194,91
1195,91
1196,91
1197,91
1198,92
1199,92
1200,93
1201,93
1202,94
1203,94
1204,94
1205,94
1206,94
1207,94
1208,94
1209,94
1210,94
1211,94
1212,94
1213,94
1214,94
1215,94
1216,94
1217,94
1218,94
1219,94
1220,94
1221,94
1222,94
1223,94
1224,94
1225,95
1226,95
1227,95
1228,95
1229,95
1230,95
1231,95
1232,95
1233,95
1234,95
1235,95
1236,96
1237,96
1238,96
1239,96
1240,96
1241,96
1242,97
1243,97
1244,97
1245,99
1246,99
1247,99
1248,99
1249,99
1250,99
1251,99
1252,99
1253,99
1254,99
1255,99
1256,99
1257,99
1258,99
1259,99
1260,99
1261,99
1262,99
1263,99
1264,99
1265,99
1266,99
1267,99
1268,99
1269,99
1270,99
1271,99
1272,99
1273,99
1274,99
1275,99
1276,99
1277,99
1278,99
1279,99
1280,99
1281,99
1282,99
1283,99
1284,99
1285,99
1286,99
1287,99
1288,99
1289,99
1290,99
1291,99
1292,99
1293,99
1294,99
1295,99
1296,99
1297,99
1298,99
1299,99
1300,99
1301,99
1302,100
1303,100
1304,100
1305,100
1306,100
1307,100
1308,100
1309,100
1310,100
1311,100
1312,100
1313,100
1314,100
1315,100
1316,100
1317,100
1318,100
1319,100
1320,100
1321,100
1322,100
1323,100
1324,100
1325,100
1326,100
1327,100
1328,100
1329,100
1330,100
1331,100
1332,100
1333,100
1334,100
1335,100
1336,100
1337,100
1338,100
1339,100
1340,100
1341,100
1342,100
1343,100
1344,100
1345,100
1346,100
1347,100
1348,100
1349,100
1350,100
1351,100
1352,100
1353,100
1354,100
1355,100
1356,100
1357,100
1358,100
1359,100
1360,100
1361,100
1362,100
1363,100
1364,100
1365,100
1366,100
1367,100
1368,100
1369,100
1370,100
1371,100
1372,100
1373,100
1374,100
1375,100
1376,100
1377,100
1378,100
1379,100
1380,100
1381,100
1382,100
1383,100
1384,100
1385,100
1386,100
1387,100
1388,100
1389,100
1390,100
1391,100
1392,101
1393,101
1394,101
1395,101
1396,101
1397,101
1398,101
1399,101
1400,101
1401,101
1402,101
1403,102
1404,102
1405,102
1406,102
1407,104
1408,104
1409,104
1410,104
1411,104
1412,104
1413,104
1414,104
1415,104
1416,104
1417,104
1418,104
1419,104
1420,104
1421,104
1422,104
1423,104
1424,104
1425,104
1426,104
1427,104
1428,104
1429,104
1430,104
1431,104
1432,104
1433,104
1434,104
1435,104
1436,104
1437,104
1438,104
1439,104
1440,104
1441,104
1442,104
1443,104
1444,104
1445,104
1446,104
1447,104
1448,104
1449,104
1450,104
1451,104
1452,104
1453,104
1454,104
1455,104
1456,104
1457,104
1458,104
1459,104
1460,104
1461,104
1462,104
1463,104
1464,104
1465,104
1466,104
1467,104
1468,104
1469,104
1470,105
1471,105
1472,105
1473,105
1474,105
1475,105
1476,105
1477,105
1478,105
1479,105
1480,105
1481,105
1482,105
1483,105
1484,105
1485,105
1486,105
1487,105
1488,106
1489,107
1490,107
1491,107
1492,107
1493,107
1494,107
1495,107
1496,107
1497,107
1498,107
1499,107
1500,107
1501,107
1502,107
1503,107
1504,107
1505,107
1506,107
1507,108
1508,108
1509,108
1510,108
1511,108
1512,108
1513,108
1514,108
1515,108
1516,108
1517,108
1518,108
1519,108
1520,108
1521,108
1522,108
1523,108
1524,108
1525,108
1526,108
1527,108
1528,108
1529,108
1530,108
1531,108
1532,108
1533,108
1534,108
1535,108
1536,108
1537,108
1538,108
1539,108
1540,108
1541,108
1542,108
1543,108
1544,108
1545,108
1546,109
1547,109
1548,109
1549,109
1550,109
1551,109
1552,109
1553,109
1554,110
1555,110
1556,110
1557,110
1558,110
1559,110
1560,110
1561,110
1562,110
1563,110
1564,110
1565,110
1566,110
1567,110
1568,110
1569,110
1570,110
1571,110
1572,110
1573,110
1574,111
1575,112
1576,112
1577,112
1578,112
1579,112
1580,112
1581,112
1582,112
1583,112
1584,112
1585,112
1586,112
1587,113
1588,113
1589,113
1590,113
1591,113
1592,113
1593,113
1594,113
1595,114
1596,114
1597,114
1598,114
1599,114
1600,114
1601,114
1602,114
1603,114
1604,114
1605,114
1606,114
1607,114
1608,115
1609,115
1610,115
1611,115
1612,115
1613,115
1614,115
1615,115
1616,115
1617,116
1618,116
1619,116
1620,116
1621,116
1622,116
1623,116
1624,116
1625,116
1626,116
1627,116
1628,116
1629,116
1630,116
1631,116
1632,116
1633,116
1634,116
1635,116
1636,116
1637,116
1638,116
1639,116
1640,116
1641,116
1642,116
1643,116
1644,116
1645,116
1646,116
1647,116
1648,116
1649,116
1650,117
1651,117
1652,117
1653,117
1654,117
1655,117
1656,117
1657,117
1658,117
1659,117
1660,117
1661,117
1662,117
1663,117
1664,117
1665,118
1666,118
1667,118
1668,118
1669,118
1670,118
1671,118
1672,118
1673,118
1674,118
1675,118
1676,119
1677,119
1678,119
1679,119
1680,119
1681,119
1682,119
1683,119
1684,119
1685,119
1686,119
1687,119
1688,119
1689,119
1690,119
1691,119
1692,119
1693,120
1694,120
1695,120
1696,120
1697,120
1698,120
1699,122
1700,122
1701,122
1702,123
1703,123
1704,123
1705,123
1706,123
1707,123
1708,123
1709,123
1710,123
1711,123
1712,123
1713,123
1714,123
1715,123
1716,123
1717,123
1718,123
1719,123
1720,123
1721,124
1722,124
1723,124
1724,124
1725,124
1726,124
1727,124
1728,124
1729,125
1730,125
1731,125
1732,125
1733,125
1734,125
1735,125
1736,125
1737,125
1738,125
1739,125
1740,125
1741,125
1742,125
1743,125
1744,125
1745,125
1746,125
1747,126
1748,126
1749,126
1750,126
1751,126
1752,126
1753,126
1754,126
1755,126
1756,126
1757,126
1758,126
1759,127
1760,127
1761,127
1762,127
1763,127
1764,127
1765,127
1766,127
1767,127
1768,127
1769,127
1770,127
1771,127
1772,127
1773,127
1774,127
1775,127
1776,127
1777,127
1778,127
1779,127
1780,127
1781,127
1782,127
1783,128
1784,128
1785,128
1786,128
1787,128
1788,128
1789,128
1790,128
1791,128
1792,128
1793,128
1794,128
1795,128
1796,128
1797,128
1798,129
1799,129
1800,129
1801,129
1802,129
1803,129
1804,130
1805,130
1806,130
1807,130
1808,130
1809,130
1810,130
1811,130
1812,130
1813,130
1814,130
1815,130
1816,130
1817,130
1818,130
1819,130
1820,130
1821,130
1822,130
1823,130
1824,130
1825,130
1826,130
1827,130
1828,130
1829,130
1830,130
1831,130
1832,130
1833,130
1834,130
1835,130
1836,130
1837,130
1838,130
1839,130
1840,130
1841,130
1842,130
1843,130
1844,130
1845,130
1846,130
1847,130
1848,130
1849,130
1850,130
1851,130
1852,130
1853,130
1854,130
1855,130
1856,130
1857,130
1858,130
1859,130
1860,130
1861,130
1862,130
1863,130
1864,130
1865,130
1866,130
1867,130
1868,131
1869,132
1870,132
1871,132
1872,132
1873,133
1874,133
1875,133
1876,133
1877,133
1878,133
1879,133
1880,133
1881,133
1882,133
1883,133
1884,133
1885,133
1886,133
1887,133
1888,133
1889,133
1890,133
1891,133
1892,133
1893,133
1894,133
1895,133
1896,133
1897,133
1898,133
1899,133
1900,133
1901,133
1902,133
1903,133
1904,133
1905,133
1906,133
1907,133
1908,133
1909,133
1910,133
1911,133
1912,133
1913,133
1914,133
1915,133
1916,133
1917,133
1918,133
1919,133
1920,133
1921,133
1922,133
1923,133
1924,133
1925,133
1926,133
1927,133
1928,133
1929,133
1930,133
1931,133
1932,133
1933,133
1934,133
1935,133
1936,133
1937,133
1938,133
1939,133
1940,133
1941,133
1942,133
1943,133
1944,134
1945,134
1946,134
1947,135
1948,135
1949,135
1950,135
1951,135
1952,135
1953,135
1954,135
1955,135
1956,135
1957,136
1958,136
1959,136
1960,136
1961,136
1962,136
1963,136
1964,136
1965,136
1966,136
1967,136
1968,136
1969,136
1970,136
1971,136
1972,136
1973,136
1974,136
1975,136
1976,136
1977,136
1978,136
1979,136
1980,136
1981,136
1982,136
1983,136
1984,136
1985,136
1986,136
1987,136
1988,136
1989,136
1990,136
1991,136
1992,136
1993,136
1994,136
1995,136
1996,136
1997,136
1998,136
1999,136
2000,136
