"tick","total"
0,0
1,0
2,0
3,0
4,0
5,0
6,0
7,0
8,0
9,0
10,0
11,0
12,0
13,0
14,0
15,0
16,0
17,0
18,0
19,0
20,0
21,0
22,0
23,0
24,0
25,0
26,0
27,0
28,0
29,0
30,0
31,0
32,0
33,0
34,0
35,0
36,0
37,0
38,0
39,0
40,0
41,0
42,0
43,0
44,0
45,0
46,0
47,0
48,0
49,0
50,0
51,0
52,0
53,0
54,0
55,0
56,0
57,0
58,0
59,0
60,0
61,0
62,0
63,0
64,0
65,0
66,0
67,0
68,0
69,0
70,0
71,0
72,0
73,0
74,0
75,0
76,0
77,0
78,0
79,0
80,0
81,0
82,0
83,0
84,0
85,0
86,0
87,0
88,0
89,0
90,0
91,0
92,0
93,0
94,0
95,0
96,0
97,0
98,0
99,0
100,0
101,0
102,0
103,0
104,1
105,1
106,1
107,1
108,1
109,1
110,1
111,1
112,1
113,1
114,1
115,1
116,1
117,1
118,1
119,1
120,1
121,1
122,1
123,1
124,1
125,1
126,1
127,1
128,1
129,1
130,1
131,1
132,1
133,1
134,1
135,1
136,1
137,1
138,1
139,1
140,1
141,1
142,1
143,1
144,1
145,1
146,1
147,1
148,1
149,1
150,1
151,1
152,1
153,1
154,1
155,1
156,1
157,1
158,1
159,1
160,1
161,1
162,1
163,1
164,1
165,1
166,1
167,1
168,1
169,1
170,1
171,1
172,1
173,1
174,1
175,1
176,1
177,1
178,1
179,1
180,1
181,1
182,1
183,1
184,1
185,1
186,1
187,1
188,1
189,1
190,1
191,1
192,1
193,1
194,1
195,1
196,1
197,1
198,1
199,1
200,1
201,1
202,1
203,1
204,1
205,1
206,1
207,1
208,1
209,1
210,1
211,1
212,1
213,1
214,1
215,1
216,1
217,1
218,1
219,1
220,1
221,1
222,1
223,1
224,1
225,1
226,1
227,1
228,1
229,1
230,1
231,1
232,1
233,1
234,1
235,1
236,1
237,2
238,2
239,2
240,2
241,2
242,2
243,2
244,2
245,2
246,2
247,2
248,2
249,2
250,2
251,2
252,2
253,2
254,3
255,3
256,3
257,4
258,4
259,4
260,4
261,4
262,4
263,4
264,4
265,4
266,4
267,4
268,4
269,4
270,5
271,5
272,5
273,5
274,5
275,5
276,5
277,5
278,5
279,6
280,6
281,6
282,6
283,6
284,6
285,6
286,7
287,7
288,7
289,7
290,8
291,8
292,8
293,9
294,9
295,9
296,9
297,9
298,9
299,9
300,9
301,9
302,9
303,9
304,9
305,10
306,10
307,10
308,10
309,10
310,11
311,11
312,12
313,12
314,12
315,13
316,13
317,13
318,13
319,13
320,14
321,14
322,14
323,14
324,14
325,14
326,14
327,14
328,15
329,15
330,15
331,15
332,15
333,15
334,15
335,15
336,15
337,16
338,16
339,16
340,16
341,16
342,16
343,16
344,16
345,16
346,16
347,17
348,17
349,17
350,17
351,17
352,17
353,17
354,18
355,18
356,18
357,19
358,19
359,20
360,20
361,20
362,20
363,20
364,20
365,20
366,20
367,20
368,20
369,20
370,20
371,20
372,20
373,20
374,20
375,20
376,20
377,20
378,20
379,20
380,21
381,21
382,21
383,21
384,21
385,21
386,21
387,21
388,21
389,21
390,21
391,21
392,21
393,21
394,21
395,21
396,22
397,22
398,22
399,22
400,22
401,22
402,22
403,22
404,22
405,22
406,22
407,23
408,23
409,23
410,23
411,23
412,23
413,23
414,23
415,23
416,23
417,23
418,23
419,23
420,23
421,23
422,23
423,23
424,23
425,23
426,23
427,23
428,23
429,24
430,24
431,24
432,24
433,24
434,24
435,24
436,24
437,24
438,24
439,25
440,25
441,25
442,25
443,25
444,25
445,25
446,25
447,25
448,25
449,25
450,25
451,26
452,26
453,26
454,26
455,26
456,26
457,26
458,26
459,26
460,26
461,26
462,26
463,27
464,27
465,27
466,28
467,28
468,28
469,28
470,28
471,28
472,28
473,28
474,28
475,28
476,28
477,28
478,28
479,28
480,28
481,29
482,29
483,29
484,29
485,29
486,29
487,30
488,30
489,30
490,30
491,30
492,30
493,30
494,30
495,30
496,30
497,30
498,30
499,30
500,30
501,30
502,30
503,30
504,30
505,30
506,30
507,30
508,30
509,30
510,30
511,30
512,30
513,30
514,30
515,30
516,30
517,30
518,30
519,30
520,30
521,30
522,30
523,30
524,30
525,30
526,30
527,31
528,31
529,31
530,31
531,31
532,31
533,31
534,31
535,31
536,31
537,31
538,31
539,31
540,31
541,31
542,31
543,31
544,31
545,31
546,31
547,31
548,31
549,31
550,31
551,31
552,31
553,31
554,31
555,31
556,31
557,31
558,31
559,31
560,31
561,31
562,31
563,31
564,31
565,31
566,31
567,31
568,31
569,31
570,31
571,31
572,31
573,31
574,31
575,31
576,31
577,31
578,31
579,31
580,31
581,31
582,31
583,31
584,31
585,31
586,31
587,31
588,31
589,31
590,31
591,31
592,31
593,31
594,31
595,31
596,31
597,31
598,31
599,31
600,31
601,31
602,31
603,31
604,31
605,31
606,31
607,31
608,31
609,31
610,31
611,31
612,31
613,31
614,31
615,31
616,31
617,32
618,32
619,32
620,32
621,32
622,32
623,32
624,32
625,32
626,32
627,32
628,32
629,32
630,32
631,32
632,32
633,32
634,32
635,32
636,32
637,32
638,32
639,32
640,32
641,32
642,32
643,32
644,32
645,32
646,32
647,33
648,33
649,33
650,33
651,33
652,33
653,33
654,33
655,33
656,33
657,33
658,33
659,33
660,33
661,33
662,33
663,33
664,33
665,33
666,33
667,33
668,33
669,33
670,33
671,33
672,33
673,33
674,33
675,34
676,34
677,34
678,34
679,34
680,34
681,34
682,34
683,34
684,34
685,34
686,34
687,34
688,34
689,34
690,34
691,34
692,34
693,34
694,34
695,34
696,34
697,34
698,34
699,34
700,34
701,34
702,35
703,35
704,35
705,35
706,35
707,35
708,35
709,35
710,35
711,35
712,35
713,35
714,35
715,35
716,35
717,35
718,35
719,35
720,35
721,35
722,35
723,35
724,35
725,35
726,35
727,36
728,36
729,36
730,36
731,37
732,37
733,37
734,37
735,37
736,37
737,37
738,37
739,37
740,37
741,37
742,37
743,37
744,37
745,37
746,37
747,37
748,37
749,37
750,37
751,37
752,37
753,37
754,37
755,37
756,37
757,37
758,37
759,37
760,37
761,37
762,38
763,38
764,38
765,39
766,39
767,39
768,39
769,39
770,39
771,39
772,39
773,39
774,39
775,40
776,40
777,40
778,40
779,40
780,40
781,40
782,40
783,40
784,40
785,40
786,40
787,40
788,40
789,40
790,40
791,40
792,40
793,40
794,40
795,40
796,40
797,40
798,40
799,40
800,40
801,40
802,40
803,40
804,40
805,40
806,40
807,40
808,40
809,40
810,40
811,40
812,40
813,40
814,40
815,40
816,40
817,40
818,40
819,40
820,40
821,40
822,40
823,40
824,40
825,41
826,41
827,41
828,41
829,42
830,42
831,42
832,43
833,43
834,44
835,44
836,45
837,45
838,45
839,45
840,45
841,45
842,45
843,45
844,45
845,45
846,45
847,45
848,45
849,45
850,45
851,45
852,45
853,45
854,45
855,45
856,45
857,45
858,45
859,45
860,45
861,45
862,45
863,46
864,46
865,46
866,46
867,46
868,46
869,46
870,46
871,46
872,46
873,47
874,47
875,47
876,48
877,49
878,49
879,49
880,49
881,50
882,50
883,50
884,50
885,50
886,50
887,50
888,50
889,50
890,50
891,50
892,50
893,50
894,50
895,50
896,50
897,50
898,50
899,50
900,50
901,50
902,50
903,50
904,50
905,50
906,50
907,50
908,50
909,50
910,50
911,50
912,50
913,50
914,50
915,50
916,50
917,50
918,50
919,50
920,50
921,50
922,50
923,50
924,50
925,50
926,50
927,50
928,50
929,50
930,51
931,51
932,51
933,51
934,51
935,51
936,51
937,51
938,51
939,51
940,51
941,51
942,52
943,52
944,52
945,52
946,52
947,52
948,52
949,52
950,52
951,52
952,52
953,52
954,52
955,52
956,52
957,52
958,52
959,52
960,52
961,52
962,52
963,52
964,52
965,52
966,53
967,53
968,53
969,53
970,53
971,53
972,53
973,53
974,53
975,53
976,53
977,53
978,53
979,53
980,53
981,53
982,53
983,53
984,53
985,53
986,53
987,53
988,53
989,54
990,54
991,54
992,54
993,54
994,54
995,54
996,54
997,54
998,54
999,54
1000,54
1001,54
1002,54
1003,54
1004,54
1005,54
1006,54
1007,54
1008,54
1009,54
1010,54
1011,54
1012,54
1013,54
1014,54
1015,54
1016,54
1017,54
1018,54
1019,54
1020,54
1021,54
1022,54
1023,54
1024,54
1025,54
1026,54
1027,54
1028,54
1029,54
1030,54
1031,54
1032,54
1033,54
1034,54
1035,54
1036,54
1037,54
1038,54
1039,54
1040,54
1041,54
1042,54
1043,54
1044,54
1045,55
1046,55
1047,55
1048,55
1049,55
1050,55
1051,55
1052,55
1053,55
1054,55
1055,55
1056,55
1057,55
1058,55
1059,55
1060,55
1061,55
1062,55
1063,55
1064,55
1065,55
1066,56
1067,56
1068,56
1069,56
1070,56
1071,56
1072,56
1073,56
1074,56
1075,56
1076,56
1077,56
1078,56
1079,56
1080,56
1081,56
1082,56
1083,56
1084,56
1085,56
1086,56
1087,56
1088,56
1089,57
1090,57
1091,57
1092,57
1093,57
1094,57
1095,57
1096,57
1097,57
1098,57
1099,57
1100,57
1101,57
1102,57
1103,57
1104,57
1105,57
1106,57
1107,57
1108,57
1109,57
1110,57
1111,57
1112,57
1113,57
1114,57
1115,57
1116,58
1117,58
1118,58
1119,58
1120,58
1121,58
1122,58
1123,58
1124,58
1125,58
1126,58
1127,58
1128,58
1129,58
1130,58
1131,58
1132,58
1133,58
1134,58
1135,58
1136,58
1137,58
1138,58
1139,58
1140,58
1141,58
1142,58
1143,58
1144,58
1145,58
1146,58
1147,58
1148,58
1149,58
1150,58
1151,58
1152,59
1153,59
1154,59
1155,59
1156,59
1157,60
1158,60
1159,61
1160,62
1161,63
1162,64
1163,65
1164,66
1165,67
1166,68
1167,69
1168,70
1169,70
1170,70
1171,70
1172,70
1173,70
1174,70
1175,70
1176,70
1177,70
1178,70
1179,70
1180,70
1181,70
1182,70
1183,70
1184,70
1185,70
1186,70
1187,70
1188,70
1189,70
1190,70
1191,70
1192,70
1193,70
1194,70
1195,70
1196,70
1197,70
1198,70
1199,70
1200,70
1201,70
1202,70
1203,70
1204,70
1205,70
1206,70
1207,70
1208,70
1209,70
1210,70
1211,70
1212,70
1213,70
1214,70
1215,70
1216,70
1217,70
1218,70
1219,70
1220,70
1221,70
1222,70
1223,70
1224,70
1225,70
1226,70
1227,70
1228,70
1229,70
1230,70
1231,70
1232,70
1233,70
1234,70
1235,70
1236,70
1237,70
1238,70
1239,70
1240,70
1241,70
1242,70
1243,70
1244,70
1245,70
1246,71
1247,71
1248,71
1249,71
1250,71
1251,71
1252,71
1253,71
1254,71
1255,71
1256,71
1257,71
1258,71
1259,72
1260,72
1261,72
1262,72
1263,72
1264,72
1265,72
1266,73
1267,73
1268,73
1269,73
1270,73
1271,73
1272,73
1273,73
1274,73
1275,73
1276,73
1277,74
1278,74
1279,74
1280,74
1281,74
1282,74
1283,74
1284,74
1285,74
1286,74
1287,74
1288,74
1289,74
1290,74
1291,74
1292,74
1293,74
1294,74
1295,74
1296,74
1297,74
1298,74
1299,74
1300,74
1301,74
1302,74
1303,74
1304,74
1305,74
1306,74
1307,74
1308,74
1309,74
1310,74
1311,74
1312,74
1313,74
1314,74
1315,74
1316,74
1317,74
1318,74
1319,74
1320,74
1321,74
1322,74
1323,74
1324,74
1325,74
1326,74
1327,74
1328,74
1329,75
1330,75
1331,75
1332,75
1333,75
1334,75
1335,75
1336,75
1337,75
1338,75
1339,75
1340,75
1341,76
1342,76
1343,76
1344,76
1345,76
1346,76
1347,76
1348,76
1349,76
1350,76
1351,77
1352,77
1353,77
1354,77
1355,77
1356,77
1357,77
1358,77
1359,77
1360,77
1361,77
1362,77
1363,77
1364,77
1365,77
1366,77
1367,78
1368,78
1369,78
1370,78
1371,78
1372,78
1373,78
1374,78
1375,78
1376,78
1377,78
1378,78
1379,78
1380,78
1381,79
1382,79
1383,79
1384,79
1385,79
1386,79
1387,79
1388,79
1389,80
1390,80
1391,80
1392,80
1393,80
1394,80
1395,80
1396,81
1397,81
1398,81
1399,81
1400,81
1401,81
1402,82
1403,82
1404,82
1405,82
1406,83
1407,83
1408,83
1409,83
1410,83
1411,83
1412,83
1413,83
1414,83
1415,83
1416,83
1417,83
1418,83
1419,83
1420,83
1421,83
1422,83
1423,83
1424,83
1425,83
1426,83
1427,83
1428,83
1429,83
1430,83
1431,83
1432,83
1433,84
1434,84
1435,84
1436,84
1437,84
1438,84
1439,85
1440,86
1441,86
1442,86
1443,86
1444,86
1445,86
1446,86
1447,86
1448,86
1449,86
1450,86
1451,86
1452,86
1453,86
1454,86
1455,86
1456,86
1457,86
1458,86
1459,86
1460,86
1461,86
1462,86
1463,86
1464,86
1465,86
1466,86
1467,86
1468,86
1469,86
1470,86
1471,86
1472,86
1473,86
1474,86
1475,86
1476,86
1477,86
1478,86
1479,86
1480,86
1481,86
1482,86
1483,86
1484,86
1485,86
1486,86
1487,86
1488,86
1489,86
1490,86
1491,86
1492,86
1493,86
1494,86
1495,86
1496,86
1497,86
1498,86
1499,86
1500,86
1501,86
1502,88
1503,89
1504,90
1505,91
1506,92
1507,93
1508,94
1509,95
1510,96
1511,97
1512,97
1513,97
1514,97
1515,97
1516,97
1517,97
1518,97
1519,97
1520,97
1521,98
1522,98
1523,98
1524,98
1525,99
1526,99
1527,99
1528,99
1529,99
1530,99
1531,99
1532,99
1533,99
1534,99
1535,99
1536,99
1537,99
1538,99
1539,99
1540,99
1541,99
1542,99
1543,99
1544,99
1545,99
1546,99
1547,99
1548,99
1549,99
1550,99
1551,99
1552,99
1553,99
1554,99
1555,99
1556,99
1557,99
1558,99
1559,99
1560,99
1561,99
1562,99
1563,99
1564,99
1565,99
1566,99
1567,99
1568,99
1569,99
1570,100
1571,100
1572,100
1573,100
1574,100
1575,100
1576,100
1577,100
1578,100
1579,100
1580,100
1581,100
1582,100
1583,100
1584,100
1585,100
1586,100
1587,100
1588,100
1589,100
1590,100
1591,100
1592,100
1593,100
1594,100
1595,100
1596,100
1597,100
1598,100
1599,100
1600,100
1601,100
1602,100
1603,100
1604,100
1605,100
1606,100
1607,100
1608,100
1609,100
1610,100
1611,100
1612,100
1613,100
1614,100
1615,100
1616,100
1617,100
1618,100
1619,100
1620,100
1621,100
1622,100
1623,100
1624,100
1625,100
1626,100
1627,100
1628,100
1629,100
1630,100
1631,100
1632,100
1633,100
1634,100
1635,100
1636,100
1637,100
1638,100
1639,100
1640,100
1641,100
1642,100
1643,100
1644,100
1645,100
1646,100
1647,100
1648,100
1649,100
1650,100
1651,100
1652,100
1653,100
1654,100
1655,100
1656,100
1657,100
1658,100
1659,100
1660,100
1661,100
1662,100
1663,100
1664,100
1665,100
1666,100
1667,100
1668,100
1669,100
1670,100
1671,100
1672,100
1673,100
1674,100
1675,100
1676,100
1677,100
1678,100
1679,100
1680,100
1681,101
1682,101
1683,101
1684,101
1685,101
1686,101
1687,101
1688,101
1689,101
1690,101
1691,101
1692,101
1693,101
1694,101
1695,101
1696,101
1697,101
1698,101
1699,101
1700,101
1701,101
1702,101
1703,101
1704,101
1705,101
1706,101
1707,101
1708,101
1709,101
1710,101
1711,101
1712,101
1713,101
1714,101
1715,101
1716,101
1717,101
1718,101
1719,101
1720,101
1721,101
1722,101
1723,101
1724,101
1725,101
1726,101
1727,101
1728,101
1729,101
1730,101
1731,101
1732,101
1733,101
1734,101
1735,101
1736,101
1737,101
1738,101
1739,101
1740,101
1741,101
1742,101
1743,101
1744,101
1745,101
1746,101
1747,102
1748,102
1749,102
1750,102
1751,102
1752,102
1753,102
1754,102
1755,102
1756,102
1757,102
1758,102
1759,102
1760,102
1761,102
1762,102
1763,102
1764,102
1765,102
1766,102
1767,102
1768,102
1769,102
1770,102
1771,102
1772,102
1773,102
1774,102
1775,102
1776,102
1777,102
1778,102
1779,102
1780,102
1781,102
1782,102
1783,102
1784,102
1785,102
1786,102
1787,102
1788,102
1789,102
1790,102
1791,103
1792,103
1793,103
1794,103
1795,103
1796,103
1797,103
1798,103
1799,103
1800,103
1801,103
1802,103
1803,103
1804,103
1805,103
1806,103
1807,103
1808,103
1809,104
1810,105
1811,105
1812,105
1813,105
1814,105
1815,105
1816,105
1817,105
1818,105
1819,105
1820,105
1821,105
1822,105
1823,105
1824,105
1825,105
1826,105
1827,105
1828,105
1829,105
1830,105
1831,105
1832,105
1833,105
1834,105
1835,105
1836,105
1837,105
1838,105
1839,105
1840,105
1841,106
1842,106
1843,106
1844,107
1845,107
1846,107
1847,107
1848,107
1849,107
1850,107
1851,107
1852,107
1853,107
1854,107
1855,108
1856,108
1857,108
1858,108
1859,108
1860,108
1861,108
1862,108
1863,108
1864,108
1865,108
1866,108
1867,108
1868,108
1869,108
1870,108
1871,108
1872,108
1873,108
1874,108
1875,108
1876,108
1877,108
1878,108
1879,108
1880,108
1881,108
1882,108
1883,108
1884,108
1885,108
1886,108
1887,108
1888,108
1889,108
1890,108
1891,108
1892,108
1893,108
1894,108
1895,108
1896,109
1897,109
1898,109
1899,109
1900,109
1901,109
1902,109
1903,109
1904,109
1905,109
1906,109
1907,109
1908,109
1909,109
1910,109
1911,109
1912,109
1913,109
1914,109
1915,109
1916,109
1917,109
1918,109
1919,109
1920,109
1921,110
1922,110
1923,110
1924,110
1925,110
1926,110
1927,110
1928,110
1929,110
1930,110
1931,110
1932,110
1933,110
1934,110
1935,110
1936,110
1937,110
1938,110
1939,110
1940,110
1941,110
1942,110
1943,110
1944,110
1945,110
1946,110
1947,110
1948,110
1949,110
1950,110
1951,110
1952,110
1953,110
1954,110
1955,110
1956,110
1957,110
1958,110
1959,110
1960,110
1961,110
1962,110
1963,110
1964,110
1965,110
1966,110
1967,110
1968,110
1969,110
1970,110
1971,110
1972,110
1973,110
1974,111
1975,112
1976,112
1977,112
1978,112
1979,112
1980,112
1981,112
1982,112
1983,112
1984,113
1985,113
1986,113
1987,113
1988,113
1989,113
1990,113
1991,113
1992,113
1993,113
1994,113
1995,113
1996,113
1997,113
1998,113
1999,113
2000,113
