"tick","total"
0,0
1,0
2,0
3,0
4,0
5,0
6,0
7,0
8,0
9,0
10,0
11,0
12,0
13,0
14,0
15,0
16,0
17,0
18,0
19,0
20,0
21,0
22,0
23,0
24,0
25,0
26,0
27,0
28,0
29,0
30,0
31,0
32,0
33,0
34,0
35,0
36,0
37,0
38,0
39,0
40,0
41,0
42,0
43,0
44,0
45,0
46,0
47,0
48,0
49,0
50,0
51,0
52,0
53,0
54,0
55,0
56,0
57,0
58,0
59,0
60,0
61,0
62,0
63,0
64,0
65,0
66,0
67,0
68,0
69,0
70,0
71,0
72,0
73,0
74,0
75,0
76,0
77,0
78,0
79,0
80,0
81,0
82,0
83,0
84,0
85,0
86,0
87,0
88,0
89,0
90,0
91,0
92,0
93,0
94,0
95,0
96,0
97,0
98,0
99,0
100,0
101,0
102,0
103,0
104,0
105,0
106,0
107,0
108,0
109,0
110,0
111,0
112,0
113,0
114,0
115,0
116,0
117,0
118,0
119,0
120,0
121,0
122,0
123,0
124,0
125,0
126,0
127,0
128,0
129,0
130,0
131,0
132,0
133,0
134,0
135,0
136,0
137,0
138,0
139,0
140,0
141,0
142,0
143,0
144,0
145,0
146,0
147,0
148,0
149,0
150,0
151,0
152,0
153,0
154,0
155,0
156,0
157,0
158,0
159,0
160,0
161,0
162,0
163,0
164,0
165,0
166,0
167,0
168,0
169,0
170,0
171,0
172,0
173,0
174,0
175,0
176,0
177,0
178,0
179,0
180,0
181,0
182,0
183,0
184,0
185,0
186,0
187,0
188,0
189,0
190,0
191,0
192,0
193,0
194,0
195,0
196,0
197,0
198,0
199,0
200,0
201,0
202,0
203,0
204,0
205,0
206,0
207,0
208,0
209,0
210,0
211,0
212,0
213,0
214,0
215,0
216,0
217,0
218,0
219,0
220,0
221,0
222,0
223,0
224,0
225,0
226,0
227,0
228,0
229,0
230,0
231,0
232,0
233,0
234,0
235,0
236,0
237,0
238,0
239,0
240,0
241,0
242,0
243,0
244,0
245,0
246,0
247,1
248,1
249,1
250,1
251,1
252,1
253,1
254,1
255,1
256,1
257,1
258,2
259,2
260,2
261,2
262,2
263,2
264,2
265,2
266,2
267,2
268,2
269,2
270,2
271,2
272,3
273,3
274,3
275,3
276,3
277,3
278,3
279,3
280,3
281,3
282,3
283,4
284,4
285,4
286,4
287,4
288,4
289,4
290,4
291,4
292,4
293,4
294,4
295,4
296,4
297,4
298,4
299,5
300,5
301,6
302,6
303,6
304,7
305,7
306,7
307,7
308,7
309,7
310,7
311,8
312,8
313,8
314,8
315,8
316,8
317,9
318,9
319,10
320,10
321,10
322,10
323,10
324,10
325,10
326,11
327,11
328,11
329,11
330,11
331,11
332,11
333,12
334,12
335,12
336,12
337,12
338,12
339,12
340,12
341,13
342,13
343,13
344,13
345,13
346,13
347,14
348,14
349,14
350,14
351,14
352,14
353,14
354,14
355,14
356,15
357,15
358,15
359,15
360,15
361,15
362,15
363,16
364,16
365,16
366,16
367,16
368,17
369,17
370,18
371,18
372,18
373,18
374,18
375,18
376,18
377,18
378,18
379,18
380,18
381,18
382,18
383,18
384,19
385,19
386,20
387,20
388,20
389,21
390,21
391,22
392,22
393,22
394,22
395,22
396,22
397,22
398,22
399,22
400,22
401,22
402,22
403,22
404,22
405,22
406,22
407,22
408,22
409,22
410,22
411,22
412,22
413,22
414,22
415,22
416,23
417,23
418,24
419,24
420,24
421,24
422,24
423,25
424,26
425,26
426,26
427,26
428,26
429,26
430,27
431,28
432,28
433,28
434,28
435,28
436,28
437,28
438,28
439,28
440,28
441,28
442,28
443,28
444,28
445,28
446,28
447,28
448,28
449,28
450,28
451,28
452,28
453,28
454,28
455,28
456,28
457,28
458,28
459,28
460,28
461,28
462,28
463,28
464,28
465,28
466,28
467,28
468,28
469,28
470,28
471,28
472,28
473,28
474,28
475,28
476,28
477,29
478,30
479,30
480,30
481,30
482,30
483,30
484,30
485,30
486,30
487,30
488,30
489,30
490,30
491,30
492,30
493,30
494,30
495,30
496,30
497,30
498,30
499,30
500,30
501,30
502,30
503,30
504,30
505,30
506,30
507,30
508,30
509,30
510,30
511,30
512,30
513,30
514,30
515,30
516,30
517,30
518,30
519,30
520,30
521,30
522,30
523,30
524,30
525,30
526,30
527,30
528,30
529,30
530,30
531,30
532,30
533,30
534,30
535,30
536,30
537,30
538,30
539,30
540,30
541,30
542,30
543,30
544,30
545,30
546,30
547,30
548,30
549,30
550,30
551,30
552,30
553,30
554,30
555,30
556,30
557,30
558,30
559,30
560,30
561,30
562,30
563,30
564,30
565,30
566,30
567,30
568,30
569,30
570,30
571,30
572,30
573,30
574,30
575,30
576,30
577,30
578,30
579,30
580,30
581,30
582,30
583,30
584,30
585,30
586,30
587,30
588,30
589,30
590,30
591,30
592,30
593,30
594,30
595,30
596,30
597,30
598,30
599,30
600,30
601,30
602,30
603,30
604,30
605,30
606,30
607,30
608,30
609,30
610,30
611,30
612,30
613,30
614,30
615,30
616,30
617,30
618,30
619,30
620,30
621,30
622,30
623,30
624,30
625,30
626,30
627,30
628,31
629,31
630,31
631,31
632,31
633,31
634,31
635,31
636,31
637,31
638,31
639,31
640,31
641,31
642,31
643,31
644,31
645,31
646,31
647,31
648,31
649,31
650,31
651,31
652,31
653,31
654,31
655,31
656,31
657,31
658,31
659,31
660,31
661,31
662,31
663,31
664,32
665,32
666,34
667,34
668,34
669,34
670,34
671,34
672,34
673,34
674,34
675,34
676,34
677,34
678,34
679,34
680,34
681,34
682,34
683,34
684,34
685,34
686,34
687,34
688,34
689,34
690,34
691,34
692,34
693,34
694,34
695,34
696,34
697,34
698,34
699,34
700,34
701,34
702,34
703,34
704,34
705,35
706,35
707,35
708,35
709,35
710,35
711,35
712,35
713,36
714,36
715,36
716,36
717,36
718,36
719,36
720,36
721,36
722,37
723,37
724,37
725,37
726,37
727,37
728,37
729,37
730,37
731,38
732,38
733,38
734,38
735,38
736,38
737,38
738,38
739,39
740,39
741,39
742,39
743,39
744,39
745,39
746,39
747,39
748,39
749,39
750,39
751,39
752,39
753,39
754,39
755,39
756,39
757,39
758,39
759,39
760,39
761,39
762,39
763,39
764,39
765,40
766,40
767,40
768,40
769,40
770,41
771,41
772,41
773,41
774,41
775,41
776,41
777,41
778,42
779,42
780,42
781,42
782,42
783,42
784,42
785,42
786,42
787,42
788,42
789,42
790,42
791,42
792,42
793,42
794,42
795,42
796,42
797,42
798,42
799,42
800,42
801,42
802,42
803,43
804,43
805,43
806,43
807,43
808,43
809,43
810,44
811,44
812,44
813,44
814,44
815,45
816,45
817,45
818,45
819,45
820,45
821,45
822,46
823,46
824,46
825,46
826,46
827,46
828,46
829,46
830,46
831,46
832,46
833,46
834,46
835,46
836,46
837,46
838,46
839,46
840,46
841,46
842,46
843,46
844,46
845,46
846,46
847,46
848,46
849,47
850,47
851,47
852,47
853,47
854,47
855,47
856,47
857,47
858,47
859,47
860,47
861,47
862,47
863,47
864,47
865,47
866,48
867,48
868,48
869,48
870,48
871,48
872,48
873,48
874,48
875,49
876,49
877,49
878,49
879,50
880,50
881,50
882,50
883,50
884,50
885,50
886,50
887,50
888,50
889,50
890,50
891,50
892,50
893,50
894,50
895,50
896,50
897,50
898,51
899,51
900,51
901,51
902,51
903,51
904,51
905,51
906,51
907,51
908,51
909,51
910,51
911,51
912,51
913,51
914,51
915,51
916,51
917,51
918,52
919,52
920,52
921,52
922,52
923,52
924,52
925,52
926,52
927,52
928,52
929,52
930,52
931,52
932,52
933,52
934,52
935,52
936,52
937,52
938,52
939,52
940,52
941,52
942,52
943,52
944,52
945,52
946,52
947,52
948,52
949,52
950,52
951,52
952,52
953,52
954,52
955,52
956,52
957,52
958,52
959,52
960,52
961,52
962,52
963,52
964,52
965,52
966,52
967,52
968,52
969,52
970,52
971,52
972,52
973,52
974,54
975,54
976,54
977,54
978,54
979,54
980,54
981,54
982,54
983,54
984,55
985,55
986,55
987,55
988,55
989,55
990,55
991,55
992,55
993,55
994,55
995,55
996,56
997,56
998,56
999,56
1000,56
1001,56
1002,57
1003,57
1004,57
1005,57
1006,57
1007,57
1008,57
1009,57
1010,57
1011,57
1012,57
1013,57
1014,57
1015,57
1016,57
1017,57
1018,57
1019,57
1020,57
1021,57
1022,57
1023,57
1024,57
1025,57
1026,57
1027,57
1028,57
1029,57
1030,57
1031,57
1032,57
1033,57
1034,57
1035,57
1036,57
1037,57
1038,57
1039,57
1040,57
1041,57
1042,57
1043,57
1044,57
1045,57
1046,57
1047,57
1048,57
1049,57
1050,57
1051,57
1052,57
1053,57
1054,58
1055,58
1056,58
1057,58
1058,58
1059,58
1060,58
1061,58
1062,58
1063,58
1064,58
1065,58
1066,58
1067,58
1068,58
1069,58
1070,58
1071,58
1072,58
1073,59
1074,59
1075,59
1076,59
1077,59
1078,59
1079,59
1080,59
1081,59
1082,59
1083,59
1084,59
1085,59
1086,60
1087,60
1088,60
1089,60
1090,60
1091,60
1092,60
1093,60
1094,60
1095,60
1096,60
1097,60
1098,60
1099,60
1100,60
1101,60
1102,60
1103,60
1104,60
1105,60
1106,60
1107,60
1108,60
1109,60
1110,60
1111,60
1112,60
1113,60
1114,60
1115,60
1116,60
1117,60
1118,60
1119,60
1120,60
1121,60
1122,60
1123,60
1124,60
1125,60
1126,60
1127,60
1128,60
1129,60
1130,60
1131,60
1132,60
1133,60
1134,60
1135,60
1136,60
1137,60
1138,60
1139,60
1140,60
1141,60
1142,60
1143,60
1144,60
1145,60
1146,60
1147,60
1148,60
1149,60
1150,60
1151,60
1152,60
1153,60
1154,60
1155,60
1156,60
1157,60
1158,60
1159,60
1160,60
1161,60
1162,60
1163,60
1164,60
1165,60
1166,60
1167,60
1168,60
1169,60
1170,60
1171,60
1172,60
1173,60
1174,60
1175,60
1176,60
1177,60
1178,60
1179,60
1180,60
1181,60
1182,60
1183,60
1184,60
1185,60
1186,60
1187,60
1188,60
1189,60
1190,61
1191,61
1192,61
1193,61
1194,61
1195,61
1196,61
1197,61
1198,61
1199,62
1200,62
1201,62
1202,62
1203,62
1204,62
1205,62
1206,62
1207,62
1208,62
1209,62
1210,62
1211,62
1212,62
1213,62
1214,62
1215,62
1216,62
1217,62
1218,62
1219,62
1220,62
1221,62
1222,62
1223,62
1224,62
1225,62
1226,62
1227,62
1228,62
1229,62
1230,62
1231,62
1232,62
1233,62
1234,62
1235,62
1236,62
1237,62
1238,62
1239,62
1240,63
1241,63
1242,63
1243,63
1244,64
1245,64
1246,64
1247,64
1248,64
1249,64
1250,64
1251,64
1252,64
1253,64
1254,64
1255,64
1256,64
1257,64
1258,64
1259,64
1260,64
1261,64
1262,64
1263,64
1264,64
1265,64
1266,65
1267,65
1268,65
1269,65
1270,65
1271,65
1272,65
1273,65
1274,65
1275,65
1276,65
1277,65
1278,65
1279,65
1280,65
1281,65
1282,65
1283,65
1284,65
1285,66
1286,66
1287,67
1288,67
1289,67
1290,67
1291,67
1292,67
1293,67
1294,67
1295,67
1296,67
1297,67
1298,67
1299,67
1300,67
1301,67
1302,67
1303,67
1304,67
1305,67
1306,67
1307,67
1308,67
1309,67
1310,67
1311,67
1312,67
1313,67
1314,67
1315,67
1316,67
1317,67
1318,67
1319,67
1320,67
1321,67
1322,67
1323,67
1324,67
1325,67
1326,67
1327,67
1328,67
1329,67
1330,67
1331,67
1332,67
1333,67
1334,67
1335,67
1336,67
1337,67
1338,67
1339,67
1340,67
1341,67
1342,67
1343,67
1344,67
1345,67
1346,67
1347,67
1348,67
1349,67
1350,67
1351,67
1352,67
1353,67
1354,68
1355,68
1356,68
1357,68
1358,68
1359,68
1360,68
1361,68
1362,68
1363,68
1364,68
1365,68
1366,68
1367,69
1368,69
1369,69
1370,69
1371,69
1372,69
1373,69
1374,69
1375,69
1376,69
1377,69
1378,69
1379,69
1380,69
1381,69
1382,69
1383,69
1384,69
1385,69
1386,69
1387,69
1388,69
1389,69
1390,69
1391,69
1392,69
1393,69
1394,69
1395,69
1396,69
1397,70
1398,70
1399,70
1400,70
1401,70
1402,70
1403,70
1404,70
1405,70
1406,70
1407,70
1408,70
1409,70
1410,70
1411,70
1412,70
1413,70
1414,70
1415,70
1416,70
1417,70
1418,70
1419,70
1420,70
1421,70
1422,70
1423,70
1424,70
1425,70
1426,70
1427,70
1428,70
1429,70
1430,70
1431,70
1432,71
1433,71
1434,71
1435,72
1436,72
1437,72
1438,72
1439,72
1440,72
1441,72
1442,72
1443,72
1444,72
1445,73
1446,73
1447,73
1448,74
1449,75
1450,75
1451,75
1452,75
1453,75
1454,75
1455,75
1456,75
1457,75
1458,76
1459,76
1460,76
1461,76
1462,76
1463,76
1464,77
1465,77
1466,77
1467,77
1468,77
1469,77
1470,77
1471,77
1472,77
1473,77
1474,77
1475,77
1476,77
1477,77
1478,77
1479,77
1480,77
1481,77
1482,77
1483,78
1484,78
1485,78
1486,78
1487,78
1488,78
1489,78
1490,78
1491,78
1492,78
1493,78
1494,78
1495,78
1496,78
1497,78
1498,78
1499,78
1500,78
1501,78
1502,78
1503,78
1504,78
1505,78
1506,78
1507,78
1508,78
1509,78
1510,78
1511,78
1512,78
1513,78
1514,78
1515,78
1516,78
1517,78
1518,78
1519,78
1520,78
1521,78
1522,78
1523,78
1524,78
1525,78
1526,78
1527,78
1528,79
1529,79
1530,79
1531,79
1532,79
1533,79
1534,79
1535,79
1536,80
1537,80
1538,80
1539,80
1540,80
1541,80
1542,80
1543,81
1544,81
1545,81
1546,81
1547,81
1548,81
1549,81
1550,81
1551,81
1552,81
1553,81
1554,83
1555,83
1556,83
1557,83
1558,83
1559,83
1560,83
1561,83
1562,83
1563,83
1564,83
1565,83
1566,83
1567,83
1568,83
1569,83
1570,83
1571,83
1572,83
1573,83
1574,83
1575,83
1576,83
1577,83
1578,83
1579,83
1580,83
1581,83
1582,83
1583,83
1584,83
1585,83
1586,83
1587,84
1588,84
1589,84
1590,84
1591,84
1592,84
1593,84
1594,84
1595,84
1596,84
1597,84
1598,84
1599,84
1600,84
1601,84
1602,84
1603,84
1604,84
1605,84
1606,84
1607,84
1608,84
1609,84
1610,84
1611,84
1612,84
1613,84
1614,84
1615,84
1616,84
1617,84
1618,84
1619,84
1620,84
1621,84
1622,84
1623,84
1624,84
1625,84
1626,84
1627,84
1628,84
1629,84
1630,84
1631,84
1632,84
1633,84
1634,84
1635,84
1636,84
1637,84
1638,84
1639,84
1640,84
1641,84
1642,84
1643,84
1644,84
1645,84
1646,84
1647,84
1648,84
1649,84
1650,84
1651,84
1652,84
1653,84
1654,84
1655,84
1656,84
1657,84
1658,84
1659,84
1660,84
1661,84
1662,85
1663,85
1664,85
1665,85
1666,85
1667,85
1668,85
1669,85
1670,85
1671,85
1672,85
1673,85
1674,86
1675,87
1676,87
1677,87
1678,87
1679,88
1680,88
1681,89
1682,89
1683,89
1684,89
1685,89
1686,89
1687,89
1688,89
1689,89
1690,89
1691,89
1692,89
1693,89
1694,89
1695,89
1696,89
1697,89
1698,89
1699,89
1700,89
1701,89
1702,89
1703,89
1704,89
1705,89
1706,89
1707,89
1708,89
1709,89
1710,89
1711,89
1712,89
1713,89
1714,89
1715,89
1716,89
1717,89
1718,89
1719,89
1720,89
1721,89
1722,89
1723,89
1724,89
1725,89
1726,89
1727,89
1728,89
1729,89
1730,89
1731,90
1732,90
1733,91
1734,92
1735,92
1736,92
1737,92
1738,92
1739,92
1740,92
1741,92
1742,92
1743,92
1744,92
1745,92
1746,92
1747,92
1748,92
1749,92
1750,92
1751,92
1752,92
1753,92
1754,93
1755,93
1756,93
1757,93
1758,93
1759,93
1760,93
1761,93
1762,93
1763,93
1764,93
1765,94
1766,94
1767,94
1768,94
1769,94
1770,94
1771,94
1772,94
1773,94
1774,94
1775,94
1776,94
1777,94
1778,94
1779,94
1780,94
1781,94
1782,94
1783,94
1784,94
1785,94
1786,95
1787,95
1788,96
1789,96
1790,96
1791,96
1792,96
1793,96
1794,96
1795,96
1796,96
1797,96
1798,96
1799,96
1800,96
1801,96
1802,96
1803,96
1804,96
1805,96
1806,96
1807,96
1808,96
1809,96
1810,96
1811,97
1812,97
1813,97
1814,97
1815,97
1816,97
1817,97
1818,97
1819,97
1820,97
1821,97
1822,97
1823,97
1824,97
1825,97
1826,97
1827,97
1828,97
1829,97
1830,97
1831,97
1832,97
1833,97
1834,97
1835,97
1836,97
1837,97
1838,97
1839,97
1840,97
1841,97
1842,97
1843,97
1844,97
1845,97
1846,97
1847,97
1848,97
1849,97
1850,97
1851,97
1852,97
1853,97
1854,97
1855,97
1856,97
1857,97
1858,97
1859,97
1860,97
1861,97
1862,97
1863,97
1864,98
1865,98
1866,98
1867,98
1868,98
1869,98
1870,98
1871,98
1872,98
1873,99
1874,99
1875,100
1876,100
1877,100
1878,100
1879,100
1880,100
1881,100
1882,100
1883,100
1884,100
1885,100
1886,100
1887,100
1888,100
1889,100
1890,100
1891,100
1892,100
1893,100
1894,100
1895,100
1896,100
1897,100
1898,100
1899,100
1900,100
1901,100
1902,100
1903,100
1904,100
1905,100
1906,100
1907,100
1908,100
1909,100
1910,100
1911,100
1912,100
1913,100
1914,100
1915,100
1916,100
1917,100
1918,100
1919,100
1920,100
1921,100
1922,100
1923,100
1924,100
1925,100
1926,100
1927,100
1928,100
1929,100
1930,100
1931,100
1932,100
1933,100
1934,100
1935,100
1936,100
1937,100
1938,100
1939,100
1940,100
1941,100
1942,100
1943,100
1944,100
1945,100
1946,100
1947,100
1948,100
1949,100
1950,100
1951,100
1952,100
1953,100
1954,100
1955,100
1956,100
1957,100
1958,100
1959,100
1960,100
1961,100
1962,100
1963,100
1964,100
1965,100
1966,100
1967,100
1968,100
1969,100
1970,100
1971,100
1972,100
1973,100
1974,100
1975,100
1976,100
1977,100
1978,100
1979,100
1980,100
1981,100
1982,100
1983,100
1984,100
1985,100
1986,100
1987,100
1988,101
1989,101
1990,101
1991,101
1992,101
1993,101
1994,101
1995,101
1996,101
1997,101
1998,102
1999,103
2000,103
