"tick","total"
0,0
1,0
2,0
3,0
4,0
5,0
6,0
7,0
8,0
9,0
10,0
11,0
12,0
13,0
14,0
15,0
16,0
17,0
18,0
19,0
20,0
21,0
22,0
23,0
24,0
25,0
26,0
27,0
28,0
29,0
30,0
31,0
32,0
33,0
34,0
35,0
36,0
37,0
38,0
39,0
40,0
41,0
42,0
43,0
44,0
45,0
46,0
47,0
48,0
49,0
50,0
51,0
52,0
53,0
54,0
55,0
56,0
57,0
58,0
59,0
60,0
61,0
62,0
63,0
64,0
65,0
66,0
67,0
68,0
69,0
70,0
71,0
72,0
73,0
74,0
75,0
76,0
77,0
78,0
79,0
80,0
81,0
82,0
83,0
84,0
85,0
86,0
87,0
88,0
89,0
90,0
91,0
92,0
93,0
94,0
95,0
96,0
97,0
98,0
99,0
100,0
101,0
102,0
103,0
104,0
105,0
106,0
107,0
108,0
109,0
110,0
111,0
112,0
113,0
114,0
115,0
116,0
117,0
118,0
119,0
120,0
121,0
122,0
123,1
124,1
125,1
126,1
127,1
128,1
129,1
130,1
131,1
132,1
133,2
134,2
135,2
136,2
137,2
138,3
139,3
140,3
141,3
142,3
143,3
144,3
145,3
146,3
147,3
148,3
149,3
150,4
151,4
152,4
153,4
154,4
155,4
156,4
157,4
158,4
159,4
160,4
161,4
162,4
163,4
164,4
165,4
166,4
167,4
168,4
169,4
170,4
171,4
172,4
173,5
174,5
175,5
176,6
177,7
178,7
179,7
180,7
181,7
182,8
183,9
184,9
185,9
186,9
187,9
188,9
189,9
190,9
191,9
192,9
193,9
194,9
195,9
196,9
197,9
198,9
199,9
200,9
201,9
202,10
203,10
204,10
205,10
206,10
207,10
208,10
209,10
210,10
211,11
212,11
213,11
214,11
215,12
216,12
217,12
218,13
219,13
220,13
221,13
222,13
223,13
224,13
225,13
226,13
227,13
228,13
229,14
230,14
231,14
232,14
233,14
234,14
235,14
236,14
237,14
238,14
239,15
240,16
241,16
242,16
243,16
244,16
245,16
246,16
247,16
248,16
249,17
250,17
251,17
252,17
253,17
254,17
255,17
256,17
257,17
258,17
259,17
260,18
261,18
262,18
263,18
264,18
265,18
266,18
267,18
268,18
269,19
270,19
271,19
272,19
273,19
274,19
275,19
276,19
277,19
278,19
279,19
280,19
281,19
282,19
283,19
284,19
285,19
286,19
287,19
288,19
289,19
290,19
291,19
292,19
293,19
294,20
295,20
296,20
297,20
298,20
299,20
300,20
301,21
302,21
303,21
304,21
305,21
306,21
307,21
308,21
309,21
310,21
311,21
312,21
313,21
314,21
315,21
316,21
317,21
318,21
319,21
320,21
321,21
322,21
323,21
324,21
325,21
326,21
327,21
328,21
329,21
330,21
331,21
332,21
333,22
334,22
335,22
336,22
337,22
338,23
339,23
340,23
341,23
342,23
343,23
344,23
345,23
346,23
347,23
348,23
349,23
350,23
351,23
352,23
353,23
354,23
355,23
356,23
357,23
358,23
359,23
360,23
361,23
362,23
363,23
364,23
365,23
366,23
367,23
368,23
369,23
370,23
371,23
372,24
373,24
374,24
375,24
376,24
377,24
378,24
379,24
380,24
381,24
382,24
383,24
384,24
385,24
386,24
387,24
388,24
389,24
390,24
391,25
392,25
393,25
394,26
395,26
396,26
397,26
398,26
399,26
400,26
401,26
402,26
403,26
404,26
405,26
406,26
407,26
408,26
409,26
410,26
411,26
412,26
413,26
414,26
415,26
416,26
417,26
418,26
419,26
420,26
421,26
422,26
423,26
424,26
425,26
426,26
427,26
428,26
429,26
430,26
431,26
432,26
433,26
434,26
435,26
436,26
437,26
438,26
439,26
440,27
441,28
442,28
443,28
444,28
445,28
446,28
447,28
448,28
449,28
450,28
451,29
452,29
453,29
454,29
455,29
456,29
457,29
458,30
459,30
460,31
461,31
462,31
463,31
464,31
465,31
466,31
467,31
468,32
469,32
470,32
471,34
472,34
473,34
474,35
475,35
476,35
477,35
478,35
479,35
480,36
481,36
482,36
483,36
484,36
485,36
486,36
487,36
488,36
489,36
490,36
491,36
492,36
493,36
494,36
495,36
496,36
497,36
498,36
499,36
500,36
501,36
502,36
503,36
504,36
505,36
506,36
507,36
508,36
509,36
510,36
511,36
512,36
513,37
514,37
515,37
516,37
517,37
518,37
519,37
520,37
521,37
522,37
523,37
524,37
525,38
526,38
527,38
528,38
529,38
530,38
531,38
532,39
533,39
534,39
535,39
536,39
537,39
538,39
539,39
540,39
541,39
542,40
543,40
544,40
545,40
546,40
547,40
548,40
549,40
550,40
551,40
552,40
553,40
554,40
555,40
556,40
557,40
558,40
559,40
560,40
561,40
562,40
563,40
564,40
565,40
566,40
567,40
568,40
569,40
570,40
571,40
572,40
573,40
574,40
575,40
576,40
577,40
578,40
579,40
580,40
581,40
582,40
583,40
584,40
585,40
586,40
587,40
588,40
589,40
590,40
591,40
592,40
593,40
594,40
595,40
596,40
597,40
598,40
599,40
600,40
601,40
602,40
603,40
604,40
605,40
606,40
607,40
608,40
609,40
610,40
611,40
612,40
613,40
614,40
615,40
616,40
617,40
618,40
619,40
620,40
621,40
622,40
623,40
624,40
625,40
626,40
627,40
628,40
629,40
630,40
631,40
632,40
633,40
634,40
635,40
636,40
637,40
638,40
639,40
640,40
641,40
642,40
643,40
644,40
645,40
646,41
647,41
648,41
649,41
650,41
651,41
652,41
653,41
654,41
655,41
656,41
657,41
658,41
659,41
660,41
661,41
662,42
663,42
664,42
665,42
666,42
667,42
668,42
669,42
670,42
671,42
672,42
673,42
674,42
675,42
676,42
677,42
678,43
679,43
680,43
681,43
682,43
683,43
684,43
685,43
686,43
687,43
688,43
689,43
690,43
691,43
692,43
693,43
694,43
695,43
696,43
697,43
698,44
699,44
700,44
701,44
702,45
703,45
704,45
705,45
706,45
707,45
708,46
709,47
710,47
711,47
712,47
713,47
714,47
715,47
716,47
717,48
718,48
719,48
720,48
721,48
722,48
723,48
724,48
725,49
726,49
727,49
728,49
729,49
730,50
731,50
732,50
733,50
734,50
735,50
736,50
737,50
738,50
739,50
740,50
741,50
742,51
743,51
744,51
745,51
746,51
747,52
748,52
749,52
750,52
751,53
752,53
753,53
754,53
755,53
756,53
757,54
758,54
759,54
760,54
761,54
762,54
763,54
764,54
765,54
766,54
767,54
768,54
769,54
770,54
771,54
772,54
773,54
774,54
775,55
776,55
777,55
778,55
779,55
780,55
781,55
782,55
783,55
784,55
785,56
786,56
787,57
788,57
789,57
790,57
791,57
792,57
793,57
794,57
795,57
796,57
797,57
798,57
799,57
800,57
801,57
802,57
803,57
804,57
805,57
806,57
807,57
808,57
809,57
810,57
811,57
812,57
813,57
814,57
815,57
816,57
817,57
818,58
819,59
820,59
821,59
822,59
823,59
824,59
825,59
826,59
827,60
828,60
829,60
830,60
831,61
832,61
833,61
834,61
835,62
836,62
837,62
838,62
839,62
840,63
841,63
842,63
843,63
844,63
845,63
846,63
847,64
848,64
849,65
850,65
851,65
852,65
853,66
854,66
855,66
856,67
857,67
858,67
859,67
860,67
861,68
862,68
863,68
864,68
865,68
866,68
867,68
868,68
869,68
870,68
871,68
872,68
873,68
874,68
875,68
876,68
877,68
878,68
879,68
880,68
881,68
882,68
883,68
884,68
885,68
886,68
887,68
888,68
889,69
890,69
891,69
892,69
893,69
894,69
895,69
896,69
897,69
898,69
899,69
900,69
901,69
902,69
903,69
904,69
905,69
906,69
907,69
908,69
909,69
910,69
911,69
912,69
913,69
914,69
915,69
916,69
917,69
918,69
919,69
920,69
921,69
922,69
923,69
924,69
925,69
926,69
927,69
928,69
929,69
930,69
931,69
932,69
933,69
934,69
935,69
936,69
937,69
938,69
939,69
940,69
941,69
942,69
943,69
944,69
945,69
946,69
947,69
948,69
949,69
950,69
951,69
952,69
953,69
954,69
955,69
956,69
957,69
958,69
959,69
960,69
961,69
962,69
963,69
964,69
965,69
966,69
967,69
968,69
969,69
970,69
971,69
972,69
973,69
974,69
975,69
976,69
977,69
978,69
979,69
980,69
981,69
982,69
983,69
984,69
985,69
986,69
987,70
988,70
989,70
990,70
991,70
992,70
993,70
994,70
995,70
996,70
997,70
998,70
999,70
1000,70
1001,70
1002,70
1003,70
1004,70
1005,70
1006,70
1007,70
1008,70
1009,70
1010,70
1011,70
1012,70
1013,70
1014,70
1015,70
1016,70
1017,70
1018,70
1019,70
1020,70
1021,70
1022,70
1023,70
1024,70
1025,71
1026,71
1027,71
1028,71
1029,71
1030,71
1031,71
1032,71
1033,71
1034,71
1035,71
1036,71
1037,72
1038,72
1039,72
1040,72
1041,72
1042,72
1043,72
1044,72
1045,72
1046,72
1047,72
1048,72
1049,72
1050,72
1051,72
1052,72
1053,72
1054,72
1055,72
1056,72
1057,72
1058,72
1059,72
1060,72
1061,72
1062,72
1063,72
1064,72
1065,72
1066,72
1067,72
1068,72
1069,72
1070,72
1071,72
1072,72
1073,72
1074,72
1075,72
1076,72
1077,72
1078,72
1079,72
1080,72
1081,72
1082,72
1083,72
1084,72
1085,72
1086,72
1087,72
1088,72
1089,72
1090,72
1091,72
1092,72
1093,73
1094,73
1095,73
1096,73
1097,73
1098,73
1099,73
1100,73
1101,73
1102,73
1103,73
1104,73
1105,73
1106,73
1107,73
1108,73
1109,73
1110,73
1111,73
1112,73
1113,73
1114,73
1115,73
1116,73
1117,73
1118,73
1119,73
1120,73
1121,73
1122,73
1123,73
1124,73
1125,73
1126,73
1127,73
1128,73
1129,73
1130,73
1131,73
1132,73
1133,73
1134,73
1135,73
1136,73
1137,73
1138,74
1139,75
1140,75
1141,75
1142,75
1143,75
1144,75
1145,75
1146,75
1147,76
1148,76
1149,76
1150,76
1151,76
1152,76
1153,77
1154,78
1155,78
1156,78
1157,78
1158,78
1159,78
1160,78
1161,78
1162,78
1163,78
1164,78
1165,78
1166,78
1167,78
1168,79
1169,79
1170,80
1171,80
1172,80
1173,80
1174,80
1175,80
1176,80
1177,80
1178,80
1179,80
1180,80
1181,81
1182,81
1183,81
1184,81
1185,82
1186,82
1187,82
1188,82
1189,83
1190,83
1191,83
1192,83
1193,83
1194,83
1195,83
1196,83
1197,83
1198,83
1199,83
1200,83
1201,83
1202,83
1203,83
1204,83
1205,83
1206,83
1207,83
1208,83
1209,83
1210,83
1211,83
1212,83
1213,83
1214,83
1215,83
1216,83
1217,83
1218,83
1219,83
1220,84
1221,84
1222,84
1223,84
1224,84
1225,84
1226,84
1227,84
1228,85
1229,85
1230,86
1231,86
1232,86
1233,86
1234,86
1235,86
1236,86
1237,86
1238,86
1239,86
1240,86
1241,87
1242,87
1243,88
1244,88
1245,88
1246,88
1247,89
1248,89
1249,89
1250,89
1251,89
1252,89
1253,89
1254,89
1255,89
1256,89
1257,89
1258,89
1259,89
1260,89
1261,89
1262,89
1263,89
1264,90
1265,90
1266,90
1267,90
1268,90
1269,90
1270,90
1271,90
1272,90
1273,90
1274,90
1275,90
1276,90
1277,90
1278,90
1279,90
1280,90
1281,90
1282,91
1283,91
1284,92
1285,92
1286,92
1287,92
1288,92
1289,92
1290,92
1291,92
1292,92
1293,92
1294,92
1295,92
1296,92
1297,92
1298,92
1299,93
1300,93
1301,93
1302,93
1303,93
1304,93
1305,93
1306,93
1307,93
1308,93
1309,93
1310,93
1311,93
1312,93
1313,93
1314,93
1315,93
1316,93
1317,93
1318,93
1319,93
1320,93
1321,93
1322,93
1323,93
1324,93
1325,93
1326,93
1327,93
1328,93
1329,93
1330,93
1331,93
1332,93
1333,93
1334,93
1335,93
1336,93
1337,93
1338,93
1339,93
1340,93
1341,93
1342,93
1343,93
1344,93
1345,93
1346,93
1347,93
1348,93
1349,93
1350,93
1351,93
1352,93
1353,93
1354,93
1355,93
1356,93
1357,93
1358,93
1359,93
1360,93
1361,93
1362,93
1363,93
1364,93
1365,94
1366,94
1367,95
1368,95
1369,95
1370,95
1371,95
1372,95
1373,95
1374,95
1375,95
1376,95
1377,96
1378,96
1379,96
1380,96
1381,96
1382,96
1383,96
1384,96
1385,96
1386,96
1387,96
1388,96
1389,97
1390,97
1391,97
1392,97
1393,97
1394,97
1395,97
1396,97
1397,99
1398,99
1399,99
1400,99
1401,99
1402,99
1403,99
1404,99
1405,99
1406,99
1407,99
1408,99
1409,99
1410,99
1411,99
1412,99
1413,99
1414,99
1415,99
1416,99
1417,99
1418,99
1419,99
1420,99
1421,99
1422,99
1423,99
1424,99
1425,99
1426,99
1427,99
1428,99
1429,99
1430,99
1431,99
1432,99
1433,99
1434,99
1435,99
1436,99
1437,99
1438,99
1439,99
1440,99
1441,99
1442,99
1443,99
1444,99
1445,99
1446,99
1447,99
1448,99
1449,99
1450,99
1451,99
1452,99
1453,101
1454,101
1455,101
1456,101
1457,101
1458,101
1459,101
1460,101
1461,101
1462,101
1463,101
1464,101
1465,101
1466,101
1467,101
1468,101
1469,101
1470,101
1471,101
1472,101
1473,101
1474,101
1475,101
1476,101
1477,101
1478,101
1479,101
1480,101
1481,101
1482,101
1483,101
1484,101
1485,101
1486,101
1487,101
1488,101
1489,101
1490,101
1491,101
1492,101
1493,101
1494,101
1495,102
1496,102
1497,102
1498,102
1499,102
1500,102
1501,102
1502,102
1503,102
1504,102
1505,102
1506,102
1507,102
1508,102
1509,102
1510,102
1511,102
1512,102
1513,102
1514,102
1515,102
1516,102
1517,103
1518,103
1519,103
1520,103
1521,103
1522,103
1523,103
1524,104
1525,105
1526,105
1527,105
1528,106
1529,106
1530,106
1531,106
1532,107
1533,107
1534,107
1535,107
1536,107
1537,107
1538,107
1539,107
1540,107
1541,107
1542,107
1543,107
1544,107
1545,107
1546,107
1547,107
1548,107
1549,107
1550,107
1551,107
1552,107
1553,107
1554,107
1555,108
1556,108
1557,108
1558,108
1559,108
1560,108
1561,109
1562,109
1563,109
1564,109
1565,109
1566,109
1567,109
1568,110
1569,110
1570,110
1571,111
1572,111
1573,111
1574,111
1575,111
1576,111
1577,111
1578,112
1579,112
1580,112
1581,112
1582,112
1583,112
1584,112
1585,112
1586,113
1587,113
1588,113
1589,113
1590,113
1591,113
1592,113
1593,113
1594,113
1595,113
1596,113
1597,113
1598,113
1599,113
1600,113
1601,113
1602,113
1603,113
1604,113
1605,113
1606,114
1607,114
1608,114
1609,115
1610,115
1611,115
1612,115
1613,115
1614,115
1615,115
1616,115
1617,115
1618,115
1619,115
1620,115
1621,115
1622,115
1623,115
1624,115
1625,115
1626,115
1627,115
1628,115
1629,115
1630,116
1631,116
1632,116
1633,116
1634,116
1635,116
1636,116
1637,116
1638,116
1639,116
1640,116
1641,116
1642,116
1643,116
1644,116
1645,116
1646,116
1647,116
1648,116
1649,116
1650,116
1651,116
1652,116
1653,116
1654,116
1655,116
1656,116
1657,116
1658,116
1659,116
1660,116
1661,116
1662,116
1663,116
1664,116
1665,116
1666,116
1667,116
1668,116
1669,116
1670,116
1671,116
1672,116
1673,116
1674,116
1675,116
1676,116
1677,116
1678,116
1679,116
1680,116
1681,116
1682,116
1683,116
1684,116
1685,116
1686,117
1687,117
1688,117
1689,117
1690,117
1691,118
1692,118
1693,118
1694,118
1695,118
1696,118
1697,118
1698,118
1699,118
1700,118
1701,118
1702,118
1703,118
1704,119
1705,119
1706,119
1707,119
1708,119
1709,119
1710,119
1711,119
1712,119
1713,119
1714,119
1715,119
1716,119
1717,119
1718,119
1719,119
1720,119
1721,119
1722,119
1723,119
1724,119
1725,119
1726,119
1727,120
1728,120
1729,121
1730,121
1731,121
1732,121
1733,121
1734,121
1735,121
1736,121
1737,121
1738,121
1739,122
1740,122
1741,122
1742,122
1743,122
1744,122
1745,122
1746,122
1747,122
1748,122
1749,122
1750,122
1751,122
1752,122
1753,122
1754,122
1755,122
1756,122
1757,122
1758,122
1759,122
1760,122
1761,122
1762,122
1763,122
1764,122
1765,122
1766,122
1767,123
1768,123
1769,123
1770,123
1771,123
1772,123
1773,123
1774,123
1775,123
1776,123
1777,123
1778,123
1779,123
1780,123
1781,123
1782,123
1783,123
1784,123
1785,123
1786,123
1787,123
1788,123
1789,124
1790,124
1791,125
1792,125
1793,125
1794,125
1795,125
1796,125
1797,125
1798,125
1799,125
1800,125
1801,125
1802,125
1803,125
1804,125
1805,125
1806,125
1807,125
1808,125
1809,125
1810,125
1811,125
1812,125
1813,125
1814,125
1815,125
1816,125
1817,125
1818,125
1819,125
1820,125
1821,125
1822,125
1823,125
1824,125
1825,125
1826,125
1827,125
1828,125
1829,125
1830,125
1831,125
1832,125
1833,125
1834,125
1835,125
1836,125
1837,125
1838,125
1839,125
1840,125
1841,125
1842,125
1843,126
1844,126
1845,126
1846,126
1847,127
1848,127
1849,127
1850,128
1851,128
1852,129
1853,129
1854,129
1855,129
1856,130
1857,130
1858,130
1859,130
1860,130
1861,130
1862,130
1863,130
1864,130
1865,130
1866,130
1867,131
1868,131
1869,131
1870,131
1871,131
1872,131
1873,131
1874,131
1875,131
1876,131
1877,131
1878,131
1879,131
1880,131
1881,131
1882,131
1883,131
1884,131
1885,131
1886,132
1887,132
1888,132
1889,132
1890,132
1891,132
1892,132
1893,132
1894,132
1895,132
1896,132
1897,132
1898,132
1899,132
1900,132
1901,132
1902,132
1903,132
1904,132
1905,132
1906,132
1907,132
1908,132
1909,132
1910,132
1911,132
1912,132
1913,132
1914,133
1915,133
1916,133
1917,133
1918,133
1919,133
1920,133
1921,133
1922,133
1923,133
1924,133
1925,133
1926,133
1927,133
1928,133
1929,133
1930,133
1931,133
1932,133
1933,133
1934,133
1935,133
1936,133
1937,133
1938,133
1939,133
1940,133
1941,133
1942,133
1943,133
1944,134
1945,134
1946,134
1947,134
1948,134
1949,134
1950,134
1951,134
1952,134
1953,134
1954,134
1955,134
1956,134
1957,135
1958,135
1959,135
1960,135
1961,135
1962,135
1963,135
1964,135
1965,135
1966,135
1967,135
1968,135
1969,135
1970,135
1971,135
1972,135
1973,135
1974,135
1975,135
1976,135
1977,135
1978,135
1979,135
1980,135
1981,135
1982,135
1983,135
1984,135
1985,135
1986,135
1987,135
1988,135
1989,135
1990,135
1991,135
1992,135
1993,135
1994,135
1995,135
1996,135
1997,135
1998,135
1999,135
2000,135
