"tick","total"
0,0
1,0
2,0
3,0
4,0
5,0
6,0
7,0
8,0
9,0
10,0
11,0
12,0
13,0
14,0
15,0
16,0
17,0
18,0
19,0
20,0
21,0
22,0
23,0
24,0
25,0
26,0
27,0
28,0
29,0
30,0
31,0
32,0
33,0
34,0
35,0
36,0
37,0
38,0
39,0
40,0
41,0
42,0
43,0
44,0
45,0
46,0
47,0
48,0
49,0
50,0
51,0
52,0
53,0
54,0
55,0
56,0
57,0
58,0
59,0
60,0
61,0
62,0
63,0
64,0
65,0
66,0
67,0
68,0
69,0
70,0
71,0
72,0
73,0
74,0
75,0
76,0
77,0
78,0
79,0
80,0
81,0
82,0
83,0
84,0
85,0
86,0
87,0
88,0
89,0
90,0
91,0
92,0
93,0
94,0
95,0
96,0
97,0
98,0
99,0
100,0
101,0
102,0
103,0
104,0
105,0
106,0
107,0
108,0
109,0
110,0
111,0
112,0
113,0
114,0
115,0
116,0
117,0
118,0
119,0
120,0
121,0
122,0
123,0
124,0
125,0
126,0
127,0
128,0
129,0
130,0
131,0
132,0
133,0
134,0
135,0
136,0
137,0
138,0
139,0
140,0
141,0
142,0
143,0
144,0
145,0
146,0
147,0
148,0
149,0
150,0
151,0
152,0
153,0
154,0
155,0
156,0
157,0
158,0
159,0
160,0
161,0
162,0
163,0
164,0
165,0
166,0
167,0
168,0
169,0
170,0
171,0
172,0
173,0
174,0
175,0
176,0
177,0
178,0
179,0
180,0
181,0
182,0
183,0
184,0
185,0
186,0
187,0
188,0
189,0
190,0
191,0
192,0
193,0
194,0
195,0
196,0
197,0
198,0
199,0
200,0
201,0
202,0
203,0
204,0
205,0
206,0
207,0
208,0
209,0
210,0
211,0
212,0
213,0
214,0
215,0
216,0
217,0
218,0
219,0
220,0
221,0
222,0
223,0
224,0
225,0
226,0
227,0
228,0
229,0
230,1
231,1
232,1
233,1
234,1
235,1
236,2
237,2
238,2
239,2
240,2
241,2
242,2
243,2
244,2
245,2
246,3
247,3
248,3
249,3
250,3
251,3
252,3
253,3
254,3
255,3
256,3
257,3
258,3
259,3
260,3
261,4
262,4
263,4
264,4
265,4
266,4
267,4
268,4
269,4
270,4
271,4
272,4
273,4
274,4
275,4
276,4
277,4
278,4
279,5
280,5
281,5
282,5
283,5
284,5
285,5
286,5
287,5
288,5
289,5
290,5
291,5
292,5
293,6
294,7
295,7
296,7
297,7
298,7
299,7
300,7
301,7
302,8
303,8
304,8
305,8
306,8
307,8
308,8
309,8
310,8
311,8
312,8
313,8
314,8
315,8
316,8
317,8
318,8
319,8
320,9
321,10
322,10
323,10
324,10
325,10
326,10
327,11
328,12
329,12
330,12
331,13
332,13
333,13
334,13
335,13
336,15
337,15
338,15
339,15
340,16
341,16
342,17
343,17
344,17
345,17
346,17
347,17
348,18
349,18
350,18
351,18
352,18
353,18
354,18
355,18
356,18
357,18
358,18
359,18
360,18
361,18
362,18
363,18
364,18
365,18
366,18
367,18
368,18
369,18
370,18
371,18
372,18
373,18
374,18
375,18
376,18
377,18
378,18
379,18
380,18
381,18
382,19
383,19
384,19
385,19
386,19
387,19
388,20
389,20
390,20
391,20
392,20
393,20
394,20
395,20
396,20
397,20
398,20
399,20
400,20
401,20
402,20
403,20
404,20
405,20
406,20
407,20
408,21
409,21
410,21
411,21
412,22
413,22
414,22
415,22
416,22
417,23
418,23
419,23
420,23
421,23
422,23
423,23
424,25
425,25
426,25
427,25
428,25
429,25
430,25
431,25
432,25
433,25
434,25
435,25
436,25
437,25
438,25
439,25
440,25
441,26
442,26
443,26
444,26
445,26
446,26
447,26
448,26
449,26
450,26
451,26
452,26
453,26
454,26
455,26
456,26
457,26
458,26
459,26
460,26
461,26
462,26
463,26
464,26
465,26
466,26
467,26
468,26
469,26
470,26
471,26
472,26
473,26
474,26
475,26
476,26
477,26
478,26
479,26
480,26
481,26
482,26
483,26
484,26
485,26
486,26
487,26
488,26
489,26
490,26
491,26
492,26
493,26
494,26
495,26
496,26
497,26
498,26
499,26
500,26
501,26
502,26
503,26
504,26
505,26
506,26
507,26
508,26
509,26
510,26
511,26
512,26
513,26
514,26
515,26
516,26
517,26
518,26
519,26
520,26
521,26
522,26
523,26
524,26
525,26
526,26
527,26
528,26
529,26
530,26
531,26
532,26
533,26
534,26
535,26
536,26
537,26
538,26
539,26
540,26
541,26
542,26
543,26
544,26
545,26
546,26
547,27
548,27
549,27
550,27
551,27
552,27
553,27
554,27
555,27
556,27
557,27
558,27
559,27
560,27
561,27
562,27
563,27
564,27
565,27
566,27
567,28
568,28
569,28
570,28
571,29
572,29
573,29
574,29
575,29
576,29
577,29
578,29
579,29
580,29
581,29
582,29
583,29
584,29
585,29
586,30
587,31
588,31
589,31
590,31
591,31
592,31
593,31
594,31
595,31
596,31
597,31
598,31
599,31
600,31
601,32
602,32
603,32
604,32
605,32
606,32
607,32
608,33
609,33
610,33
611,33
612,33
613,33
614,33
615,34
616,34
617,35
618,35
619,35
620,35
621,35
622,35
623,35
624,35
625,35
626,36
627,36
628,36
629,36
630,36
631,36
632,36
633,36
634,36
635,36
636,36
637,36
638,36
639,36
640,36
641,37
642,37
643,37
644,37
645,37
646,37
647,38
648,38
649,39
650,39
651,39
652,39
653,39
654,39
655,39
656,39
657,39
658,39
659,39
660,39
661,39
662,39
663,39
664,39
665,39
666,39
667,39
668,39
669,39
670,40
671,40
672,40
673,41
674,41
675,41
676,41
677,41
678,41
679,41
680,41
681,41
682,41
683,41
684,42
685,42
686,42
687,42
688,42
689,42
690,42
691,42
692,42
693,42
694,42
695,42
696,42
697,42
698,42
699,43
700,43
701,43
702,43
703,43
704,43
705,43
706,43
707,43
708,43
709,43
710,43
711,43
712,43
713,43
714,43
715,43
716,43
717,43
718,43
719,43
720,43
721,43
722,43
723,44
724,44
725,44
726,44
727,44
728,44
729,44
730,44
731,44
732,44
733,44
734,44
735,44
736,44
737,44
738,44
739,44
740,44
741,44
742,44
743,44
744,44
745,44
746,44
747,44
748,44
749,44
750,44
751,44
752,45
753,45
754,45
755,45
756,45
757,45
758,45
759,45
760,45
761,45
762,45
763,45
764,45
765,45
766,45
767,45
768,45
769,45
770,45
771,45
772,45
773,45
774,45
775,45
776,45
777,45
778,45
779,45
780,45
781,45
782,45
783,45
784,45
785,45
786,45
787,45
788,45
789,45
790,45
791,45
792,45
793,45
794,45
795,45
796,45
797,45
798,45
799,45
800,45
801,45
802,45
803,45
804,45
805,45
806,45
807,46
808,46
809,46
810,46
811,46
812,46
813,46
814,46
815,46
816,46
817,46
818,46
819,46
820,46
821,46
822,46
823,46
824,46
825,46
826,46
827,46
828,47
829,47
830,47
831,47
832,47
833,47
834,47
835,47
836,47
837,47
838,47
839,47
840,47
841,47
842,47
843,47
844,47
845,47
846,47
847,47
848,47
849,47
850,47
851,47
852,47
853,47
854,47
855,47
856,47
857,47
858,47
859,47
860,47
861,48
862,48
863,48
864,48
865,48
866,48
867,48
868,48
869,48
870,48
871,48
872,48
873,48
874,48
875,48
876,48
877,48
878,48
879,48
880,48
881,48
882,48
883,48
884,48
885,48
886,48
887,48
888,48
889,48
890,48
891,48
892,48
893,48
894,48
895,48
896,48
897,48
898,49
899,49
900,49
901,49
902,49
903,49
904,49
905,49
906,49
907,49
908,49
909,49
910,49
911,49
912,49
913,49
914,49
915,49
916,49
917,49
918,49
919,49
920,49
921,49
922,49
923,49
924,49
925,49
926,49
927,49
928,49
929,49
930,49
931,50
932,51
933,52
934,53
935,54
936,55
937,56
938,57
939,58
940,59
941,59
942,59
943,59
944,59
945,59
946,59
947,59
948,59
949,59
950,59
951,59
952,59
953,59
954,59
955,59
956,59
957,59
958,59
959,59
960,59
961,59
962,59
963,59
964,59
965,59
966,59
967,59
968,59
969,59
970,59
971,59
972,59
973,59
974,59
975,59
976,59
977,59
978,59
979,59
980,59
981,59
982,59
983,59
984,59
985,59
986,59
987,59
988,60
989,60
990,60
991,60
992,60
993,60
994,60
995,60
996,60
997,60
998,60
999,60
1000,60
1001,60
1002,60
1003,60
1004,60
1005,60
1006,60
1007,60
1008,60
1009,60
1010,60
1011,60
1012,60
1013,60
1014,60
1015,60
1016,60
1017,60
1018,60
1019,61
1020,61
1021,61
1022,61
1023,61
1024,61
1025,61
1026,61
1027,61
1028,61
1029,61
1030,61
1031,61
1032,61
1033,61
1034,61
1035,61
1036,61
1037,61
1038,61
1039,62
1040,62
1041,62
1042,62
1043,62
1044,62
1045,62
1046,62
1047,62
1048,62
1049,62
1050,62
1051,62
1052,62
1053,62
1054,62
1055,62
1056,63
1057,63
1058,63
1059,63
1060,63
1061,63
1062,63
1063,63
1064,63
1065,63
1066,63
1067,63
1068,63
1069,63
1070,63
1071,63
1072,63
1073,64
1074,64
1075,64
1076,64
1077,64
1078,64
1079,64
1080,64
1081,64
1082,64
1083,64
1084,64
1085,64
1086,64
1087,64
1088,64
1089,64
1090,64
1091,64
1092,64
1093,64
1094,64
1095,64
1096,64
1097,64
1098,64
1099,64
1100,64
1101,64
1102,64
1103,64
1104,64
1105,64
1106,64
1107,64
1108,64
1109,64
1110,64
1111,65
1112,65
1113,65
1114,65
1115,65
1116,65
1117,65
1118,65
1119,65
1120,65
1121,65
1122,65
1123,65
1124,65
1125,65
1126,65
1127,65
1128,65
1129,65
1130,65
1131,65
1132,65
1133,65
1134,65
1135,65
1136,65
1137,65
1138,65
1139,65
1140,65
1141,65
1142,65
1143,65
1144,65
1145,65
1146,65
1147,65
1148,65
1149,65
1150,65
1151,65
1152,65
1153,65
1154,65
1155,65
1156,65
1157,65
1158,65
1159,65
1160,65
1161,65
1162,65
1163,65
1164,66
1165,66
1166,66
1167,66
1168,67
1169,67
1170,67
1171,67
1172,67
1173,67
1174,67
1175,67
1176,67
1177,67
1178,67
1179,67
1180,67
1181,67
1182,67
1183,67
1184,67
1185,67
1186,67
1187,67
1188,67
1189,67
1190,67
1191,67
1192,67
1193,67
1194,67
1195,67
1196,67
1197,68
1198,69
1199,70
1200,71
1201,72
1202,73
1203,74
1204,75
1205,76
1206,77
1207,77
1208,77
1209,77
1210,77
1211,77
1212,77
1213,77
1214,77
1215,77
1216,77
1217,77
1218,77
1219,77
1220,77
1221,77
1222,77
1223,77
1224,78
1225,78
1226,78
1227,78
1228,78
1229,78
1230,78
1231,78
1232,78
1233,78
1234,78
1235,78
1236,78
1237,78
1238,78
1239,78
1240,78
1241,78
1242,78
1243,78
1244,78
1245,78
1246,78
1247,78
1248,78
1249,79
1250,79
1251,79
1252,79
1253,79
1254,79
1255,79
1256,79
1257,79
1258,79
1259,79
1260,79
1261,79
1262,79
1263,79
1264,79
1265,79
1266,79
1267,79
1268,79
1269,79
1270,79
1271,79
1272,79
1273,79
1274,79
1275,79
1276,79
1277,79
1278,79
1279,79
1280,79
1281,79
1282,79
1283,79
1284,79
1285,79
1286,79
1287,79
1288,79
1289,80
1290,80
1291,80
1292,80
1293,80
1294,80
1295,80
1296,80
1297,80
1298,80
1299,80
1300,80
1301,80
1302,80
1303,80
1304,80
1305,80
1306,80
1307,80
1308,80
1309,80
1310,80
1311,80
1312,80
1313,80
1314,80
1315,80
1316,80
1317,80
1318,80
1319,80
1320,80
1321,80
1322,80
1323,80
1324,80
1325,80
1326,80
1327,80
1328,80
1329,80
1330,80
1331,80
1332,80
1333,80
1334,80
1335,80
1336,80
1337,80
1338,80
1339,80
1340,80
1341,80
1342,80
1343,80
1344,80
1345,80
1346,80
1347,80
1348,80
1349,80
1350,80
1351,80
1352,80
1353,80
1354,80
1355,80
1356,80
1357,80
1358,80
1359,80
1360,80
1361,80
1362,80
1363,80
1364,80
1365,80
1366,81
1367,81
1368,81
1369,81
1370,82
1371,82
1372,82
1373,82
1374,82
1375,82
1376,82
1377,82
1378,82
1379,82
1380,82
1381,82
1382,82
1383,82
1384,82
1385,82
1386,82
1387,82
1388,82
1389,82
1390,82
1391,82
1392,82
1393,82
1394,82
1395,82
1396,82
1397,82
1398,82
1399,82
1400,82
1401,82
1402,82
1403,82
1404,82
1405,82
1406,82
1407,82
1408,82
1409,82
1410,82
1411,82
1412,82
1413,82
1414,82
1415,82
1416,82
1417,82
1418,82
1419,82
1420,82
1421,82
1422,82
1423,82
1424,82
1425,82
1426,82
1427,82
1428,82
1429,82
1430,82
1431,82
1432,82
1433,82
1434,82
1435,82
1436,82
1437,83
1438,83
1439,83
1440,83
1441,83
1442,83
1443,83
1444,83
1445,83
1446,83
1447,83
1448,83
1449,83
1450,83
1451,83
1452,83
1453,83
1454,83
1455,83
1456,83
1457,83
1458,83
1459,83
1460,83
1461,83
1462,83
1463,83
1464,83
1465,83
1466,83
1467,83
1468,83
1469,83
1470,83
1471,83
1472,83
1473,83
1474,83
1475,83
1476,83
1477,83
1478,83
1479,84
1480,84
1481,84
1482,84
1483,84
1484,84
1485,84
1486,85
1487,85
1488,85
1489,85
1490,85
1491,85
1492,85
1493,85
1494,85
1495,85
1496,85
1497,85
1498,85
1499,85
1500,85
1501,85
1502,85
1503,85
1504,85
1505,85
1506,85
1507,85
1508,85
1509,85
1510,85
1511,85
1512,85
1513,85
1514,85
1515,85
1516,85
1517,85
1518,85
1519,85
1520,85
1521,85
1522,85
1523,85
1524,85
1525,85
1526,85
1527,85
1528,85
1529,85
1530,85
1531,85
1532,85
1533,85
1534,85
1535,85
1536,86
1537,86
1538,86
1539,86
1540,86
1541,86
1542,86
1543,86
1544,86
1545,86
1546,86
1547,86
1548,86
1549,86
1550,86
1551,86
1552,86
1553,86
1554,86
1555,86
1556,86
1557,86
1558,87
1559,87
1560,87
1561,87
1562,87
1563,87
1564,87
1565,87
1566,87
1567,87
1568,87
1569,87
1570,87
1571,87
1572,89
1573,89
1574,89
1575,89
1576,89
1577,89
1578,89
1579,89
1580,90
1581,91
1582,91
1583,91
1584,91
1585,91
1586,91
1587,91
1588,91
1589,91
1590,91
1591,91
1592,91
1593,91
1594,91
1595,91
1596,91
1597,91
1598,91
1599,91
1600,91
1601,91
1602,91
1603,91
1604,91
1605,91
1606,91
1607,91
1608,91
1609,91
1610,91
1611,91
1612,91
1613,91
1614,92
1615,92
1616,92
1617,92
1618,92
1619,93
1620,94
1621,94
1622,94
1623,95
1624,95
1625,95
1626,95
1627,95
1628,95
1629,95
1630,95
1631,95
1632,95
1633,95
1634,95
1635,95
1636,95
1637,95
1638,95
1639,95
1640,95
1641,95
1642,95
1643,95
1644,95
1645,95
1646,95
1647,95
1648,95
1649,95
1650,95
1651,95
1652,95
1653,95
1654,95
1655,95
1656,95
1657,95
1658,95
1659,95
1660,95
1661,95
1662,95
1663,95
1664,95
1665,95
1666,95
1667,95
1668,95
1669,95
1670,95
1671,95
1672,95
1673,96
1674,96
1675,96
1676,96
1677,96
1678,96
1679,96
1680,96
1681,96
1682,96
1683,96
1684,96
1685,96
1686,96
1687,96
1688,96
1689,96
1690,96
1691,96
1692,96
1693,96
1694,96
1695,96
1696,96
1697,96
1698,96
1699,96
1700,96
1701,97
1702,97
1703,97
1704,97
1705,97
1706,98
1707,98
1708,98
1709,98
1710,98
1711,98
1712,98
1713,99
1714,99
1715,99
1716,99
1717,99
1718,99
1719,99
1720,99
1721,99
1722,99
1723,99
1724,99
1725,99
1726,99
1727,99
1728,99
1729,99
1730,99
1731,99
1732,99
1733,99
1734,99
1735,99
1736,99
1737,99
1738,99
1739,99
1740,99
1741,99
1742,99
1743,99
1744,99
1745,99
1746,99
1747,99
1748,99
1749,99
1750,99
1751,99
1752,99
1753,99
1754,99
1755,99
1756,99
1757,99
1758,99
1759,99
1760,100
1761,100
1762,100
1763,100
1764,100
1765,100
1766,100
1767,100
1768,100
1769,100
1770,100
1771,100
1772,100
1773,100
1774,100
1775,100
1776,100
1777,100
1778,100
1779,100
1780,100
1781,100
1782,100
1783,100
1784,100
1785,100
1786,100
1787,100
1788,100
1789,100
1790,100
1791,100
1792,100
1793,100
1794,101
1795,101
1796,101
1797,101
1798,101
1799,101
1800,101
1801,101
1802,101
1803,101
1804,101
1805,101
1806,101
1807,101
1808,101
1809,101
1810,101
1811,101
1812,101
1813,101
1814,101
1815,101
1816,101
1817,101
1818,101
1819,101
1820,101
1821,101
1822,101
1823,101
1824,101
1825,101
1826,101
1827,101
1828,101
1829,101
1830,101
1831,101
1832,102
1833,102
1834,102
1835,102
1836,102
1837,102
1838,102
1839,102
1840,102
1841,102
1842,102
1843,102
1844,102
1845,102
1846,102
1847,102
1848,102
1849,102
1850,102
1851,102
1852,102
1853,102
1854,102
1855,102
1856,102
1857,102
1858,102
1859,102
1860,102
1861,102
1862,102
1863,102
1864,102
1865,102
1866,104
1867,104
1868,104
1869,104
1870,104
1871,104
1872,104
1873,104
1874,105
1875,105
1876,105
1877,105
1878,105
1879,105
1880,105
1881,105
1882,105
1883,105
1884,105
1885,105
1886,105
1887,105
1888,105
1889,105
1890,105
1891,105
1892,105
1893,105
1894,105
1895,105
1896,105
1897,106
1898,106
1899,106
1900,106
1901,106
1902,106
1903,106
1904,106
1905,106
1906,106
1907,106
1908,106
1909,106
1910,106
1911,106
1912,106
1913,106
1914,106
1915,106
1916,106
1917,106
1918,106
1919,106
1920,106
1921,106
1922,106
1923,106
1924,106
1925,106
1926,106
1927,106
1928,106
1929,106
1930,106
1931,106
1932,106
1933,106
1934,106
1935,106
1936,106
1937,106
1938,106
1939,106
1940,106
1941,106
1942,106
1943,106
1944,106
1945,106
1946,106
1947,106
1948,106
1949,106
1950,106
1951,106
1952,106
1953,106
1954,106
1955,106
1956,106
1957,106
1958,106
1959,106
1960,106
1961,106
1962,106
1963,106
1964,106
1965,106
1966,106
1967,106
1968,106
1969,106
1970,106
1971,106
1972,106
1973,106
1974,106
1975,106
1976,106
1977,106
1978,106
1979,106
1980,106
1981,106
1982,106
1983,106
1984,106
1985,106
1986,106
1987,106
1988,106
1989,106
1990,106
1991,106
1992,106
1993,106
1994,106
1995,106
1996,106
1997,106
1998,106
1999,106
2000,106
