"tick","total"
0,0
1,0
2,0
3,0
4,0
5,0
6,0
7,0
8,0
9,0
10,0
11,0
12,0
13,0
14,0
15,0
16,0
17,0
18,0
19,0
20,0
21,0
22,0
23,0
24,0
25,0
26,0
27,0
28,0
29,0
30,0
31,0
32,0
33,0
34,0
35,0
36,0
37,0
38,0
39,0
40,0
41,0
42,0
43,0
44,0
45,0
46,0
47,0
48,0
49,0
50,0
51,0
52,0
53,0
54,0
55,0
56,0
57,0
58,0
59,0
60,0
61,0
62,0
63,0
64,0
65,0
66,0
67,0
68,0
69,0
70,0
71,0
72,0
73,0
74,0
75,0
76,0
77,0
78,0
79,0
80,0
81,0
82,0
83,0
84,0
85,0
86,0
87,0
88,0
89,0
90,0
91,0
92,0
93,0
94,0
95,0
96,0
97,0
98,0
99,0
100,0
101,0
102,0
103,0
104,0
105,0
106,0
107,0
108,0
109,0
110,0
111,0
112,0
113,0
114,0
115,0
116,0
117,0
118,0
119,0
120,0
121,0
122,0
123,0
124,0
125,0
126,0
127,0
128,0
129,0
130,0
131,0
132,0
133,0
134,0
135,0
136,0
137,0
138,0
139,0
140,0
141,0
142,0
143,0
144,0
145,0
146,0
147,0
148,0
149,0
150,0
151,0
152,0
153,0
154,0
155,0
156,0
157,0
158,0
159,0
160,0
161,0
162,0
163,0
164,0
165,0
166,0
167,0
168,0
169,0
170,0
171,0
172,0
173,0
174,0
175,0
176,0
177,0
178,0
179,0
180,0
181,0
182,0
183,0
184,0
185,0
186,0
187,0
188,0
189,0
190,0
191,0
192,0
193,0
194,0
195,0
196,0
197,0
198,0
199,0
200,0
201,0
202,0
203,0
204,0
205,0
206,0
207,0
208,0
209,0
210,0
211,0
212,0
213,0
214,0
215,1
216,1
217,1
218,2
219,2
220,2
221,2
222,2
223,2
224,2
225,2
226,2
227,2
228,2
229,2
230,2
231,2
232,2
233,2
234,2
235,2
236,2
237,2
238,2
239,2
240,2
241,2
242,2
243,2
244,2
245,2
246,2
247,3
248,3
249,3
250,3
251,3
252,3
253,3
254,4
255,4
256,4
257,4
258,4
259,4
260,4
261,4
262,4
263,4
264,4
265,4
266,5
267,5
268,5
269,7
270,7
271,7
272,7
273,7
274,7
275,7
276,8
277,9
278,9
279,9
280,9
281,9
282,9
283,10
284,10
285,10
286,10
287,11
288,11
289,12
290,13
291,13
292,14
293,14
294,14
295,14
296,14
297,14
298,14
299,15
300,15
301,15
302,15
303,15
304,15
305,15
306,15
307,15
308,15
309,15
310,15
311,15
312,15
313,15
314,15
315,15
316,15
317,15
318,15
319,15
320,15
321,15
322,15
323,15
324,15
325,15
326,15
327,15
328,15
329,15
330,15
331,15
332,15
333,15
334,15
335,15
336,15
337,15
338,15
339,15
340,15
341,15
342,15
343,15
344,15
345,15
346,15
347,15
348,15
349,15
350,15
351,15
352,15
353,15
354,15
355,15
356,15
357,15
358,15
359,15
360,15
361,15
362,16
363,16
364,16
365,16
366,16
367,16
368,16
369,16
370,16
371,16
372,16
373,16
374,16
375,16
376,16
377,16
378,16
379,16
380,16
381,17
382,17
383,17
384,18
385,18
386,18
387,18
388,19
389,19
390,19
391,19
392,20
393,20
394,20
395,20
396,20
397,21
398,21
399,21
400,21
401,21
402,21
403,21
404,21
405,21
406,21
407,21
408,22
409,22
410,22
411,22
412,22
413,22
414,22
415,22
416,22
417,22
418,22
419,22
420,22
421,22
422,22
423,22
424,22
425,22
426,23
427,23
428,23
429,23
430,23
431,23
432,23
433,23
434,23
435,23
436,23
437,23
438,23
439,23
440,23
441,23
442,23
443,23
444,23
445,23
446,23
447,23
448,23
449,23
450,23
451,23
452,23
453,23
454,23
455,23
456,23
457,23
458,23
459,23
460,23
461,23
462,23
463,23
464,23
465,23
466,23
467,23
468,23
469,23
470,24
471,24
472,24
473,24
474,24
475,24
476,24
477,24
478,24
479,24
480,24
481,24
482,24
483,24
484,24
485,24
486,24
487,24
488,24
489,24
490,24
491,24
492,24
493,24
494,24
495,24
496,24
497,24
498,24
499,24
500,24
501,24
502,24
503,24
504,24
505,24
506,24
507,24
508,24
509,24
510,24
511,24
512,24
513,24
514,24
515,24
516,24
517,24
518,24
519,24
520,24
521,24
522,24
523,24
524,24
525,24
526,24
527,24
528,24
529,24
530,24
531,24
532,24
533,24
534,24
535,24
536,25
537,25
538,25
539,25
540,25
541,25
542,25
543,25
544,25
545,25
546,25
547,25
548,25
549,25
550,25
551,25
552,25
553,25
554,25
555,25
556,25
557,25
558,25
559,25
560,25
561,25
562,25
563,25
564,25
565,25
566,25
567,25
568,25
569,25
570,25
571,25
572,25
573,25
574,25
575,25
576,25
577,25
578,25
579,25
580,25
581,25
582,25
583,25
584,25
585,25
586,25
587,25
588,25
589,25
590,25
591,25
592,25
593,26
594,26
595,26
596,26
597,26
598,27
599,27
600,27
601,27
602,27
603,27
604,27
605,27
606,28
607,28
608,28
609,29
610,29
611,29
612,29
613,29
614,29
615,29
616,29
617,29
618,29
619,29
620,30
621,30
622,30
623,30
624,30
625,30
626,30
627,30
628,30
629,30
630,30
631,30
632,30
633,30
634,30
635,30
636,30
637,30
638,31
639,31
640,31
641,31
642,31
643,31
644,31
645,31
646,32
647,32
648,32
649,32
650,32
651,32
652,32
653,32
654,32
655,32
656,32
657,32
658,32
659,32
660,32
661,32
662,32
663,32
664,32
665,32
666,33
667,33
668,33
669,33
670,33
671,33
672,33
673,33
674,33
675,33
676,33
677,33
678,34
679,34
680,34
681,34
682,34
683,34
684,34
685,34
686,34
687,34
688,34
689,34
690,34
691,34
692,34
693,34
694,35
695,35
696,35
697,35
698,35
699,35
700,35
701,35
702,35
703,35
704,35
705,35
706,35
707,35
708,35
709,35
710,35
711,35
712,35
713,35
714,35
715,35
716,35
717,35
718,35
719,36
720,36
721,36
722,36
723,36
724,36
725,36
726,37
727,37
728,37
729,37
730,37
731,37
732,37
733,37
734,37
735,37
736,37
737,37
738,37
739,37
740,37
741,37
742,37
743,37
744,37
745,37
746,37
747,37
748,37
749,37
750,37
751,37
752,37
753,37
754,37
755,37
756,37
757,38
758,38
759,38
760,38
761,38
762,38
763,38
764,38
765,38
766,39
767,39
768,39
769,39
770,39
771,39
772,39
773,39
774,39
775,39
776,39
777,40
778,40
779,40
780,40
781,40
782,40
783,40
784,40
785,40
786,40
787,40
788,40
789,40
790,40
791,41
792,41
793,41
794,41
795,41
796,41
797,41
798,41
799,41
800,41
801,41
802,41
803,41
804,41
805,41
806,41
807,41
808,41
809,41
810,41
811,41
812,41
813,41
814,41
815,41
816,41
817,41
818,41
819,41
820,41
821,42
822,42
823,42
824,42
825,42
826,42
827,42
828,42
829,42
830,42
831,42
832,42
833,42
834,42
835,42
836,42
837,42
838,42
839,42
840,42
841,42
842,42
843,42
844,42
845,42
846,42
847,42
848,42
849,42
850,42
851,42
852,42
853,42
854,42
855,42
856,42
857,42
858,42
859,42
860,42
861,42
862,42
863,42
864,42
865,42
866,42
867,42
868,42
869,42
870,42
871,42
872,42
873,43
874,43
875,43
876,43
877,43
878,43
879,43
880,43
881,43
882,43
883,43
884,43
885,43
886,43
887,43
888,43
889,43
890,43
891,43
892,43
893,43
894,43
895,43
896,43
897,43
898,43
899,43
900,43
901,44
902,44
903,44
904,44
905,44
906,44
907,44
908,44
909,44
910,44
911,44
912,44
913,44
914,44
915,44
916,44
917,44
918,44
919,44
920,44
921,44
922,44
923,44
924,44
925,44
926,44
927,44
928,44
929,44
930,44
931,44
932,44
933,44
934,44
935,44
936,44
937,44
938,44
939,44
940,44
941,44
942,44
943,44
944,44
945,44
946,44
947,44
948,44
949,44
950,44
951,44
952,44
953,44
954,44
955,44
956,44
957,44
958,44
959,44
960,44
961,45
962,45
963,45
964,45
965,45
966,45
967,45
968,45
969,45
970,45
971,45
972,45
973,45
974,45
975,45
976,45
977,45
978,45
979,45
980,45
981,45
982,45
983,45
984,45
985,45
986,45
987,45
988,45
989,45
990,45
991,45
992,45
993,45
994,45
995,45
996,45
997,45
998,45
999,45
1000,45
1001,45
1002,45
1003,45
1004,45
1005,45
1006,45
1007,45
1008,45
1009,45
1010,45
1011,46
1012,46
1013,46
1014,46
1015,46
1016,46
1017,46
1018,46
1019,46
1020,46
1021,46
1022,46
1023,46
1024,46
1025,46
1026,46
1027,46
1028,46
1029,46
1030,46
1031,46
1032,46
1033,46
1034,46
1035,46
1036,46
1037,46
1038,46
1039,46
1040,46
1041,46
1042,46
1043,46
1044,46
1045,46
1046,46
1047,46
1048,46
1049,46
1050,46
1051,46
1052,46
1053,46
1054,46
1055,46
1056,46
1057,46
1058,46
1059,46
1060,46
1061,46
1062,46
1063,46
1064,46
1065,46
1066,46
1067,46
1068,46
1069,46
1070,46
1071,47
1072,47
1073,47
1074,47
1075,47
1076,47
1077,47
1078,47
1079,47
1080,47
1081,47
1082,47
1083,47
1084,47
1085,47
1086,47
1087,47
1088,47
1089,47
1090,47
1091,47
1092,47
1093,47
1094,47
1095,47
1096,48
1097,48
1098,48
1099,48
1100,48
1101,48
1102,48
1103,48
1104,48
1105,48
1106,48
1107,48
1108,48
1109,48
1110,48
1111,48
1112,48
1113,48
1114,48
1115,48
1116,48
1117,48
1118,48
1119,48
1120,48
1121,48
1122,48
1123,48
1124,48
1125,48
1126,48
1127,48
1128,48
1129,48
1130,48
1131,48
1132,48
1133,48
1134,48
1135,48
1136,48
1137,48
1138,48
1139,48
1140,48
1141,48
1142,48
1143,48
1144,48
1145,48
1146,49
1147,49
1148,49
1149,49
1150,49
1151,49
1152,49
1153,49
1154,49
1155,49
1156,49
1157,49
1158,49
1159,49
1160,49
1161,49
1162,49
1163,49
1164,49
1165,49
1166,49
1167,49
1168,49
1169,50
1170,50
1171,50
1172,50
1173,50
1174,50
1175,50
1176,50
1177,50
1178,50
1179,50
1180,50
1181,50
1182,50
1183,50
1184,51
1185,51
1186,51
1187,51
1188,51
1189,51
1190,51
1191,51
1192,51
1193,52
1194,52
1195,52
1196,52
1197,52
1198,52
1199,52
1200,52
1201,52
1202,52
1203,52
1204,52
1205,52
1206,52
1207,52
1208,52
1209,53
1210,53
1211,53
1212,53
1213,53
1214,53
1215,53
1216,53
1217,53
1218,53
1219,53
1220,53
1221,53
1222,53
1223,53
1224,53
1225,53
1226,53
1227,53
1228,53
1229,53
1230,53
1231,53
1232,53
1233,54
1234,54
1235,54
1236,54
1237,54
1238,54
1239,54
1240,54
1241,54
1242,54
1243,54
1244,55
1245,55
1246,55
1247,55
1248,55
1249,55
1250,55
1251,55
1252,55
1253,55
1254,55
1255,55
1256,55
1257,55
1258,55
1259,55
1260,55
1261,55
1262,55
1263,55
1264,55
1265,56
1266,56
1267,57
1268,57
1269,57
1270,57
1271,57
1272,57
1273,57
1274,58
1275,58
1276,58
1277,58
1278,58
1279,58
1280,58
1281,58
1282,58
1283,58
1284,58
1285,58
1286,58
1287,58
1288,60
1289,60
1290,60
1291,60
1292,60
1293,60
1294,60
1295,60
1296,60
1297,60
1298,60
1299,60
1300,60
1301,60
1302,61
1303,61
1304,61
1305,63
1306,63
1307,63
1308,63
1309,63
1310,63
1311,63
1312,63
1313,63
1314,63
1315,63
1316,63
1317,63
1318,63
1319,63
1320,63
1321,63
1322,63
1323,63
1324,63
1325,63
1326,63
1327,63
1328,63
1329,63
1330,63
1331,63
1332,63
1333,63
1334,63
1335,63
1336,63
1337,63
1338,63
1339,63
1340,63
1341,63
1342,63
1343,64
1344,64
1345,65
1346,65
1347,65
1348,65
1349,65
1350,65
1351,65
1352,65
1353,65
1354,65
1355,65
1356,65
1357,65
1358,65
1359,65
1360,65
1361,65
1362,65
1363,65
1364,65
1365,65
1366,65
1367,65
1368,65
1369,65
1370,65
1371,65
1372,65
1373,65
1374,65
1375,65
1376,65
1377,66
1378,66
1379,66
1380,66
1381,67
1382,67
1383,67
1384,67
1385,67
1386,67
1387,67
1388,67
1389,67
1390,67
1391,67
1392,67
1393,67
1394,67
1395,67
1396,67
1397,67
1398,67
1399,67
1400,67
1401,67
1402,67
1403,67
1404,67
1405,67
1406,67
1407,67
1408,67
1409,67
1410,67
1411,67
1412,67
1413,67
1414,67
1415,67
1416,67
1417,67
1418,67
1419,67
1420,67
1421,67
1422,67
1423,67
1424,67
1425,67
1426,67
1427,67
1428,67
1429,67
1430,67
1431,67
1432,67
1433,67
1434,67
1435,67
1436,67
1437,67
1438,67
1439,68
1440,68
1441,68
1442,68
1443,68
1444,68
1445,68
1446,68
1447,68
1448,68
1449,68
1450,68
1451,68
1452,68
1453,68
1454,68
1455,68
1456,68
1457,68
1458,68
1459,68
1460,68
1461,68
1462,68
1463,68
1464,68
1465,68
1466,68
1467,68
1468,68
1469,68
1470,68
1471,68
1472,68
1473,68
1474,68
1475,68
1476,68
1477,68
1478,69
1479,69
1480,69
1481,69
1482,69
1483,69
1484,69
1485,69
1486,69
1487,69
1488,69
1489,69
1490,70
1491,70
1492,70
1493,70
1494,70
1495,70
1496,70
1497,70
1498,70
1499,70
1500,70
1501,70
1502,70
1503,70
1504,70
1505,70
1506,70
1507,70
1508,70
1509,70
1510,70
1511,70
1512,70
1513,70
1514,70
1515,70
1516,70
1517,70
1518,70
1519,70
1520,70
1521,70
1522,70
1523,70
1524,70
1525,70
1526,70
1527,70
1528,70
1529,70
1530,70
1531,70
1532,70
1533,70
1534,70
1535,70
1536,70
1537,70
1538,70
1539,70
1540,70
1541,70
1542,70
1543,70
1544,70
1545,70
1546,70
1547,70
1548,70
1549,70
1550,70
1551,70
1552,70
1553,70
1554,70
1555,70
1556,70
1557,70
1558,70
1559,70
1560,70
1561,70
1562,70
1563,70
1564,70
1565,70
1566,70
1567,70
1568,70
1569,70
1570,70
1571,70
1572,70
1573,70
1574,70
1575,70
1576,70
1577,70
1578,70
1579,70
1580,70
1581,70
1582,70
1583,70
1584,70
1585,70
1586,70
1587,70
1588,70
1589,70
1590,70
1591,70
1592,70
1593,70
1594,70
1595,70
1596,70
1597,70
1598,70
1599,70
1600,70
1601,70
1602,70
1603,70
1604,70
1605,70
1606,70
1607,70
1608,70
1609,70
1610,70
1611,70
1612,70
1613,70
1614,70
1615,70
1616,70
1617,70
1618,70
1619,70
1620,70
1621,70
1622,70
1623,70
1624,70
1625,70
1626,70
1627,70
1628,70
1629,70
1630,70
1631,70
1632,70
1633,70
1634,70
1635,70
1636,70
1637,70
1638,70
1639,70
1640,70
1641,70
1642,70
1643,70
1644,70
1645,70
1646,70
1647,70
1648,70
1649,70
1650,70
1651,70
1652,70
1653,70
1654,70
1655,70
1656,70
1657,70
1658,70
1659,70
1660,70
1661,70
1662,70
1663,70
1664,70
1665,70
1666,70
1667,70
1668,71
1669,71
1670,71
1671,71
1672,71
1673,71
1674,71
1675,71
1676,71
1677,71
1678,71
1679,72
1680,72
1681,72
1682,72
1683,72
1684,72
1685,72
1686,72
1687,72
1688,72
1689,72
1690,72
1691,72
1692,72
1693,72
1694,72
1695,73
1696,73
1697,73
1698,73
1699,73
1700,74
1701,75
1702,75
1703,75
1704,75
1705,75
1706,75
1707,75
1708,76
1709,76
1710,76
1711,76
1712,76
1713,76
1714,76
1715,76
1716,76
1717,77
1718,77
1719,77
1720,77
1721,77
1722,77
1723,77
1724,77
1725,77
1726,77
1727,77
1728,77
1729,77
1730,77
1731,77
1732,77
1733,79
1734,79
1735,79
1736,79
1737,80
1738,80
1739,81
1740,81
1741,81
1742,81
1743,82
1744,82
1745,82
1746,82
1747,82
1748,82
1749,82
1750,82
1751,82
1752,82
1753,82
1754,82
1755,82
1756,83
1757,83
1758,83
1759,84
1760,84
1761,84
1762,84
1763,84
1764,84
1765,84
1766,84
1767,84
1768,84
1769,84
1770,84
1771,84
1772,84
1773,84
1774,84
1775,84
1776,84
1777,84
1778,84
1779,84
1780,84
1781,85
1782,85
1783,85
1784,85
1785,85
1786,85
1787,85
1788,85
1789,85
1790,85
1791,85
1792,85
1793,85
1794,85
1795,85
1796,85
1797,85
1798,85
1799,85
1800,86
1801,86
1802,86
1803,86
1804,86
1805,86
1806,86
1807,87
1808,87
1809,87
1810,87
1811,87
1812,87
1813,88
1814,88
1815,88
1816,89
1817,89
1818,89
1819,89
1820,89
1821,89
1822,90
1823,91
1824,91
1825,91
1826,91
1827,91
1828,91
1829,91
1830,91
1831,91
1832,91
1833,91
1834,91
1835,91
1836,91
1837,91
1838,91
1839,91
1840,91
1841,91
1842,91
1843,91
1844,91
1845,91
1846,91
1847,91
1848,91
1849,91
1850,91
1851,91
1852,91
1853,91
1854,91
1855,91
1856,91
1857,91
1858,91
1859,91
1860,92
1861,93
1862,93
1863,93
1864,93
1865,93
1866,93
1867,94
1868,94
1869,94
1870,94
1871,94
1872,94
1873,95
1874,95
1875,95
1876,95
1877,95
1878,95
1879,95
1880,95
1881,95
1882,96
1883,96
1884,96
1885,96
1886,96
1887,96
1888,96
1889,96
1890,96
1891,96
1892,96
1893,96
1894,96
1895,96
1896,96
1897,96
1898,96
1899,96
1900,96
1901,96
1902,96
1903,96
1904,96
1905,96
1906,96
1907,96
1908,96
1909,96
1910,96
1911,96
1912,96
1913,96
1914,96
1915,96
1916,96
1917,96
1918,96
1919,96
1920,96
1921,96
1922,96
1923,96
1924,96
1925,96
1926,96
1927,96
1928,96
1929,96
1930,96
1931,96
1932,96
1933,96
1934,96
1935,96
1936,96
1937,96
1938,96
1939,96
1940,96
1941,96
1942,96
1943,96
1944,96
1945,96
1946,96
1947,96
1948,96
1949,96
1950,96
1951,97
1952,97
1953,97
1954,97
1955,97
1956,97
1957,97
1958,97
1959,97
1960,97
1961,97
1962,97
1963,97
1964,97
1965,97
1966,97
1967,97
1968,97
1969,97
1970,97
1971,97
1972,97
1973,97
1974,97
1975,97
1976,97
1977,97
1978,97
1979,97
1980,97
1981,97
1982,97
1983,97
1984,97
1985,97
1986,97
1987,97
1988,97
1989,97
1990,97
1991,97
1992,97
1993,97
1994,97
1995,97
1996,97
1997,97
1998,97
1999,97
2000,97
