"tick","total"
0,0
1,0
2,0
3,0
4,0
5,0
6,0
7,0
8,0
9,0
10,0
11,0
12,0
13,0
14,0
15,0
16,0
17,0
18,0
19,0
20,0
21,0
22,0
23,0
24,0
25,0
26,0
27,0
28,0
29,0
30,0
31,0
32,0
33,0
34,0
35,0
36,0
37,0
38,0
39,0
40,0
41,0
42,0
43,0
44,0
45,0
46,0
47,0
48,0
49,0
50,0
51,0
52,0
53,0
54,0
55,0
56,0
57,0
58,0
59,0
60,0
61,0
62,0
63,0
64,0
65,0
66,0
67,0
68,0
69,0
70,0
71,0
72,0
73,0
74,0
75,0
76,0
77,0
78,0
79,0
80,0
81,0
82,0
83,0
84,0
85,0
86,0
87,0
88,0
89,0
90,0
91,0
92,0
93,0
94,0
95,0
96,0
97,0
98,0
99,0
100,0
101,0
102,0
103,0
104,0
105,0
106,0
107,0
108,0
109,0
110,0
111,0
112,0
113,0
114,0
115,0
116,0
117,0
118,0
119,0
120,0
121,0
122,0
123,0
124,0
125,0
126,0
127,0
128,0
129,0
130,0
131,0
132,0
133,1
134,1
135,1
136,1
137,1
138,1
139,1
140,1
141,1
142,1
143,1
144,1
145,1
146,1
147,1
148,1
149,1
150,1
151,1
152,1
153,1
154,1
155,1
156,1
157,1
158,1
159,1
160,1
161,1
162,1
163,1
164,1
165,1
166,1
167,1
168,1
169,1
170,1
171,1
172,1
173,1
174,1
175,1
176,2
177,2
178,2
179,3
180,3
181,3
182,3
183,3
184,3
185,3
186,3
187,3
188,3
189,3
190,3
191,3
192,3
193,3
194,3
195,3
196,4
197,4
198,4
199,4
200,4
201,4
202,4
203,5
204,5
205,6
206,6
207,6
208,6
209,6
210,6
211,6
212,6
213,6
214,6
215,6
216,6
217,6
218,6
219,6
220,6
221,6
222,6
223,6
224,7
225,7
226,7
227,8
228,8
229,8
230,8
231,8
232,9
233,9
234,9
235,9
236,9
237,9
238,9
239,10
240,10
241,10
242,10
243,11
244,11
245,11
246,12
247,12
248,13
249,13
250,13
251,13
252,13
253,13
254,13
255,13
256,13
257,13
258,13
259,13
260,13
261,14
262,14
263,14
264,14
265,14
266,15
267,15
268,15
269,15
270,15
271,16
272,16
273,16
274,16
275,16
276,16
277,16
278,16
279,16
280,16
281,16
282,16
283,16
284,16
285,16
286,16
287,16
288,16
289,16
290,16
291,16
292,16
293,16
294,17
295,17
296,17
297,17
298,17
299,17
300,17
301,17
302,17
303,17
304,17
305,17
306,17
307,17
308,18
309,19
310,19
311,19
312,20
313,20
314,20
315,20
316,20
317,20
318,20
319,20
320,20
321,20
322,20
323,20
324,20
325,20
326,20
327,20
328,20
329,20
330,20
331,21
332,21
333,21
334,21
335,21
336,22
337,22
338,22
339,23
340,23
341,23
342,23
343,23
344,23
345,23
346,23
347,23
348,24
349,24
350,24
351,24
352,24
353,24
354,24
355,24
356,24
357,25
358,25
359,26
360,26
361,26
362,26
363,26
364,26
365,26
366,27
367,27
368,27
369,27
370,27
371,27
372,27
373,27
374,27
375,28
376,28
377,28
378,28
379,28
380,28
381,28
382,28
383,28
384,28
385,28
386,29
387,29
388,29
389,29
390,29
391,29
392,29
393,29
394,29
395,29
396,29
397,29
398,29
399,29
400,29
401,29
402,29
403,29
404,30
405,30
406,30
407,30
408,30
409,30
410,30
411,30
412,30
413,30
414,30
415,30
416,30
417,30
418,30
419,30
420,30
421,30
422,30
423,30
424,30
425,30
426,30
427,30
428,30
429,30
430,30
431,30
432,30
433,30
434,30
435,30
436,30
437,30
438,30
439,30
440,30
441,30
442,30
443,30
444,30
445,30
446,30
447,30
448,30
449,30
450,30
451,30
452,30
453,30
454,30
455,30
456,30
457,30
458,30
459,30
460,30
461,30
462,30
463,30
464,30
465,30
466,30
467,30
468,30
469,30
470,30
471,30
472,30
473,30
474,30
475,30
476,30
477,30
478,30
479,30
480,31
481,31
482,31
483,32
484,32
485,32
486,32
487,32
488,32
489,32
490,32
491,32
492,32
493,32
494,32
495,32
496,32
497,32
498,32
499,32
500,32
501,32
502,32
503,32
504,32
505,32
506,32
507,32
508,32
509,32
510,32
511,32
512,33
513,33
514,33
515,33
516,33
517,33
518,33
519,33
520,33
521,33
522,33
523,33
524,33
525,33
526,33
527,33
528,33
529,33
530,33
531,33
532,33
533,33
534,33
535,33
536,33
537,33
538,33
539,33
540,33
541,33
542,33
543,33
544,33
545,33
546,33
547,33
548,33
549,33
550,33
551,33
552,33
553,33
554,33
555,33
556,34
557,34
558,34
559,34
560,34
561,34
562,34
563,34
564,34
565,34
566,34
567,34
568,35
569,36
570,36
571,36
572,36
573,36
574,37
575,37
576,37
577,37
578,37
579,37
580,37
581,37
582,37
583,37
584,37
585,37
586,37
587,37
588,37
589,37
590,37
591,38
592,38
593,38
594,38
595,39
596,39
597,39
598,39
599,39
600,39
601,39
602,39
603,39
604,39
605,39
606,39
607,39
608,39
609,39
610,39
611,40
612,40
613,40
614,40
615,40
616,40
617,40
618,40
619,40
620,41
621,41
622,41
623,41
624,41
625,41
626,41
627,41
628,41
629,42
630,42
631,42
632,42
633,42
634,42
635,42
636,42
637,42
638,42
639,42
640,42
641,42
642,42
643,42
644,43
645,43
646,43
647,43
648,43
649,43
650,43
651,43
652,43
653,43
654,43
655,44
656,45
657,45
658,45
659,45
660,45
661,45
662,45
663,45
664,45
665,45
666,45
667,45
668,46
669,46
670,46
671,46
672,46
673,46
674,47
675,47
676,47
677,47
678,47
679,47
680,47
681,47
682,47
683,47
684,47
685,47
686,47
687,48
688,48
689,48
690,49
691,50
692,51
693,51
694,51
695,51
696,51
697,51
698,51
699,51
700,51
701,51
702,51
703,51
704,51
705,51
706,51
707,51
708,51
709,51
710,51
711,51
712,51
713,51
714,51
715,51
716,51
717,51
718,51
719,51
720,51
721,51
722,51
723,51
724,51
725,51
726,51
727,51
728,51
729,51
730,51
731,51
732,51
733,51
734,52
735,52
736,52
737,52
738,52
739,52
740,52
741,52
742,52
743,52
744,52
745,52
746,52
747,52
748,52
749,53
750,53
751,53
752,53
753,53
754,53
755,53
756,53
757,53
758,54
759,55
760,55
761,55
762,55
763,55
764,55
765,55
766,55
767,55
768,55
769,55
770,55
771,55
772,55
773,55
774,55
775,55
776,55
777,55
778,55
779,55
780,56
781,56
782,56
783,56
784,56
785,56
786,56
787,56
788,56
789,56
790,56
791,56
792,56
793,56
794,56
795,56
796,56
797,56
798,56
799,57
800,57
801,57
802,57
803,57
804,57
805,57
806,57
807,57
808,57
809,57
810,57
811,57
812,57
813,57
814,57
815,57
816,57
817,57
818,57
819,57
820,57
821,57
822,57
823,57
824,57
825,57
826,57
827,57
828,57
829,57
830,57
831,57
832,57
833,57
834,57
835,57
836,57
837,57
838,57
839,57
840,57
841,57
842,57
843,57
844,57
845,57
846,57
847,57
848,57
849,57
850,57
851,57
852,58
853,58
854,58
855,58
856,58
857,58
858,58
859,58
860,58
861,58
862,58
863,58
864,58
865,58
866,58
867,58
868,58
869,58
870,58
871,58
872,58
873,58
874,58
875,58
876,58
877,58
878,58
879,58
880,59
881,59
882,59
883,59
884,59
885,59
886,59
887,59
888,59
889,59
890,59
891,59
892,59
893,59
894,59
895,59
896,59
897,59
898,59
899,59
900,59
901,59
902,60
903,60
904,61
905,61
906,62
907,62
908,62
909,62
910,62
911,62
912,62
913,62
914,62
915,62
916,62
917,62
918,62
919,62
920,62
921,62
922,63
923,63
924,63
925,63
926,63
927,63
928,63
929,63
930,63
931,63
932,63
933,63
934,63
935,63
936,63
937,63
938,63
939,63
940,63
941,63
942,63
943,63
944,63
945,63
946,64
947,64
948,65
949,65
950,65
951,65
952,65
953,65
954,65
955,65
956,65
957,65
958,65
959,65
960,65
961,65
962,65
963,65
964,65
965,66
966,66
967,66
968,66
969,66
970,66
971,66
972,66
973,66
974,66
975,66
976,66
977,66
978,66
979,66
980,66
981,66
982,66
983,66
984,66
985,66
986,66
987,66
988,66
989,66
990,66
991,66
992,66
993,66
994,66
995,66
996,66
997,66
998,66
999,66
1000,66
1001,66
1002,66
1003,66
1004,66
1005,66
1006,67
1007,67
1008,67
1009,67
1010,67
1011,67
1012,67
1013,68
1014,68
1015,68
1016,68
1017,68
1018,68
1019,68
1020,68
1021,68
1022,68
1023,68
1024,68
1025,68
1026,68
1027,68
1028,68
1029,69
1030,69
1031,69
1032,69
1033,69
1034,69
1035,69
1036,69
1037,69
1038,69
1039,69
1040,69
1041,70
1042,70
1043,71
1044,71
1045,71
1046,71
1047,71
1048,71
1049,71
1050,71
1051,71
1052,71
1053,71
1054,71
1055,71
1056,71
1057,71
1058,71
1059,71
1060,71
1061,71
1062,71
1063,71
1064,71
1065,71
1066,71
1067,71
1068,71
1069,71
1070,71
1071,71
1072,71
1073,71
1074,71
1075,71
1076,71
1077,71
1078,71
1079,71
1080,71
1081,71
1082,71
1083,71
1084,71
1085,72
1086,72
1087,72
1088,72
1089,72
1090,72
1091,72
1092,72
1093,72
1094,72
1095,72
1096,72
1097,72
1098,72
1099,72
1100,72
1101,72
1102,72
1103,72
1104,72
1105,72
1106,72
1107,72
1108,72
1109,72
1110,72
1111,72
1112,72
1113,72
1114,72
1115,72
1116,72
1117,72
1118,72
1119,72
1120,72
1121,72
1122,72
1123,72
1124,72
1125,72
1126,72
1127,72
1128,73
1129,74
1130,74
1131,74
1132,74
1133,74
1134,74
1135,74
1136,74
1137,74
1138,74
1139,74
1140,74
1141,74
1142,74
1143,74
1144,74
1145,75
1146,75
1147,75
1148,75
1149,75
1150,76
1151,76
1152,76
1153,77
1154,78
1155,78
1156,79
1157,79
1158,79
1159,79
1160,79
1161,79
1162,79
1163,79
1164,79
1165,79
1166,79
1167,79
1168,79
1169,79
1170,79
1171,79
1172,79
1173,79
1174,79
1175,79
1176,79
1177,79
1178,79
1179,79
1180,79
1181,79
1182,79
1183,79
1184,79
1185,79
1186,79
1187,79
1188,79
1189,79
1190,80
1191,81
1192,81
1193,81
1194,82
1195,82
1196,82
1197,82
1198,82
1199,83
1200,83
1201,84
1202,84
1203,84
1204,84
1205,84
1206,84
1207,84
1208,84
1209,84
1210,84
1211,84
1212,84
1213,84
1214,84
1215,84
1216,84
1217,84
1218,84
1219,84
1220,84
1221,84
1222,84
1223,84
1224,84
1225,84
1226,84
1227,84
1228,84
1229,84
1230,84
1231,84
1232,84
1233,84
1234,84
1235,85
1236,85
1237,85
1238,85
1239,85
1240,85
1241,85
1242,85
1243,85
1244,85
1245,85
1246,85
1247,85
1248,85
1249,85
1250,85
1251,85
1252,85
1253,85
1254,85
1255,85
1256,85
1257,85
1258,85
1259,85
1260,86
1261,86
1262,86
1263,86
1264,86
1265,86
1266,86
1267,86
1268,86
1269,86
1270,86
1271,86
1272,86
1273,87
1274,87
1275,87
1276,87
1277,87
1278,88
1279,88
1280,88
1281,88
1282,88
1283,88
1284,88
1285,88
1286,88
1287,88
1288,88
1289,88
1290,88
1291,88
1292,88
1293,88
1294,88
1295,88
1296,88
1297,88
1298,88
1299,88
1300,88
1301,88
1302,88
1303,88
1304,88
1305,89
1306,89
1307,89
1308,90
1309,90
1310,91
1311,91
1312,92
1313,92
1314,92
1315,92
1316,92
1317,93
1318,93
1319,93
1320,93
1321,93
1322,93
1323,93
1324,93
1325,93
1326,93
1327,93
1328,93
1329,93
1330,93
1331,94
1332,94
1333,94
1334,94
1335,94
1336,94
1337,94
1338,94
1339,94
1340,94
1341,94
1342,94
1343,94
1344,94
1345,94
1346,94
1347,94
1348,94
1349,94
1350,94
1351,94
1352,94
1353,94
1354,94
1355,94
1356,94
1357,94
1358,94
1359,94
1360,94
1361,94
1362,94
1363,94
1364,94
1365,94
1366,94
1367,94
1368,94
1369,94
1370,94
1371,95
1372,95
1373,95
1374,95
1375,95
1376,95
1377,95
1378,95
1379,95
1380,95
1381,95
1382,95
1383,95
1384,96
1385,96
1386,96
1387,96
1388,97
1389,98
1390,98
1391,98
1392,98
1393,98
1394,98
1395,98
1396,98
1397,98
1398,98
1399,98
1400,98
1401,98
1402,98
1403,98
1404,98
1405,98
1406,99
1407,99
1408,99
1409,99
1410,99
1411,99
1412,99
1413,99
1414,99
1415,99
1416,99
1417,99
1418,99
1419,99
1420,99
1421,99
1422,99
1423,99
1424,99
1425,99
1426,99
1427,99
1428,99
1429,99
1430,99
1431,99
1432,99
1433,99
1434,100
1435,100
1436,100
1437,100
1438,100
1439,100
1440,100
1441,100
1442,100
1443,100
1444,100
1445,100
1446,100
1447,100
1448,100
1449,100
1450,101
1451,101
1452,101
1453,101
1454,101
1455,101
1456,101
1457,101
1458,101
1459,101
1460,101
1461,101
1462,101
1463,101
1464,101
1465,101
1466,101
1467,101
1468,101
1469,101
1470,101
1471,102
1472,102
1473,102
1474,102
1475,102
1476,102
1477,103
1478,103
1479,103
1480,103
1481,103
1482,103
1483,103
1484,103
1485,103
1486,103
1487,103
1488,103
1489,103
1490,103
1491,103
1492,103
1493,103
1494,103
1495,103
1496,103
1497,103
1498,103
1499,103
1500,103
1501,103
1502,104
1503,104
1504,104
1505,104
1506,104
1507,104
1508,104
1509,104
1510,104
1511,104
1512,104
1513,104
1514,104
1515,104
1516,104
1517,104
1518,104
1519,104
1520,104
1521,104
1522,104
1523,104
1524,104
1525,104
1526,104
1527,104
1528,104
1529,104
1530,104
1531,104
1532,104
1533,104
1534,104
1535,104
1536,104
1537,104
1538,104
1539,104
1540,104
1541,104
1542,104
1543,104
1544,104
1545,104
1546,105
1547,105
1548,105
1549,105
1550,105
1551,105
1552,105
1553,105
1554,105
1555,106
1556,106
1557,106
1558,106
1559,106
1560,106
1561,106
1562,106
1563,106
1564,106
1565,106
1566,106
1567,106
1568,106
1569,107
1570,107
1571,107
1572,107
1573,107
1574,107
1575,107
1576,107
1577,107
1578,107
1579,107
1580,107
1581,108
1582,108
1583,108
1584,108
1585,108
1586,108
1587,108
1588,108
1589,108
1590,108
1591,108
1592,108
1593,108
1594,108
1595,108
1596,108
1597,108
1598,108
1599,108
1600,108
1601,108
1602,108
1603,108
1604,108
1605,108
1606,108
1607,108
1608,108
1609,108
1610,108
1611,108
1612,108
1613,108
1614,108
1615,108
1616,108
1617,108
1618,108
1619,108
1620,108
1621,108
1622,108
1623,108
1624,108
1625,108
1626,109
1627,109
1628,109
1629,110
1630,110
1631,110
1632,110
1633,110
1634,110
1635,110
1636,110
1637,110
1638,110
1639,110
1640,110
1641,110
1642,110
1643,110
1644,110
1645,110
1646,110
1647,110
1648,110
1649,110
1650,110
1651,110
1652,111
1653,111
1654,111
1655,111
1656,111
1657,111
1658,111
1659,111
1660,111
1661,111
1662,111
1663,111
1664,111
1665,111
1666,111
1667,111
1668,111
1669,111
1670,111
1671,111
1672,111
1673,111
1674,111
1675,111
1676,111
1677,112
1678,112
1679,112
1680,112
1681,112
1682,112
1683,112
1684,112
1685,112
1686,112
1687,112
1688,112
1689,112
1690,112
1691,112
1692,112
1693,112
1694,112
1695,112
1696,112
1697,112
1698,112
1699,112
1700,112
1701,112
1702,112
1703,112
1704,112
1705,112
1706,112
1707,112
1708,112
1709,112
1710,112
1711,112
1712,112
1713,112
1714,112
1715,112
1716,112
1717,112
1718,112
1719,112
1720,112
1721,112
1722,112
1723,112
1724,112
1725,112
1726,112
1727,112
1728,112
1729,112
1730,112
1731,112
1732,112
1733,112
1734,112
1735,112
1736,113
1737,113
1738,113
1739,113
1740,113
1741,113
1742,113
1743,113
1744,113
1745,114
1746,114
1747,114
1748,114
1749,114
1750,114
1751,114
1752,114
1753,114
1754,114
1755,114
1756,114
1757,114
1758,114
1759,114
1760,114
1761,114
1762,114
1763,114
1764,114
1765,114
1766,114
1767,114
1768,114
1769,114
1770,114
1771,114
1772,114
1773,114
1774,114
1775,114
1776,114
1777,114
1778,114
1779,114
1780,114
1781,114
1782,114
1783,114
1784,114
1785,114
1786,115
1787,115
1788,115
1789,115
1790,115
1791,115
1792,115
1793,115
1794,115
1795,115
1796,115
1797,115
1798,115
1799,115
1800,115
1801,115
1802,115
1803,115
1804,115
1805,115
1806,115
1807,116
1808,116
1809,116
1810,117
1811,117
1812,117
1813,117
1814,117
1815,117
1816,117
1817,117
1818,117
1819,117
1820,118
1821,118
1822,118
1823,118
1824,118
1825,118
1826,118
1827,118
1828,118
1829,118
1830,118
1831,118
1832,118
1833,118
1834,118
1835,118
1836,118
1837,118
1838,118
1839,119
1840,119
1841,119
1842,119
1843,119
1844,119
1845,119
1846,119
1847,119
1848,119
1849,119
1850,120
1851,120
1852,120
1853,120
1854,120
1855,121
1856,121
1857,121
1858,121
1859,121
1860,121
1861,121
1862,121
1863,121
1864,121
1865,121
1866,121
1867,121
1868,121
1869,121
1870,121
1871,121
1872,121
1873,121
1874,121
1875,121
1876,121
1877,121
1878,122
1879,122
1880,122
1881,122
1882,122
1883,122
1884,122
1885,122
1886,122
1887,122
1888,122
1889,122
1890,122
1891,122
1892,122
1893,122
1894,122
1895,122
1896,122
1897,122
1898,122
1899,122
1900,122
1901,122
1902,122
1903,122
1904,122
1905,122
1906,123
1907,123
1908,123
1909,123
1910,123
1911,123
1912,124
1913,124
1914,124
1915,124
1916,124
1917,124
1918,124
1919,124
1920,124
1921,124
1922,124
1923,124
1924,124
1925,124
1926,124
1927,124
1928,124
1929,124
1930,124
1931,124
1932,124
1933,124
1934,125
1935,125
1936,125
1937,125
1938,125
1939,125
1940,125
1941,125
1942,125
1943,125
1944,125
1945,125
1946,125
1947,125
1948,125
1949,125
1950,125
1951,125
1952,125
1953,125
1954,125
1955,125
1956,126
1957,126
1958,126
1959,126
1960,126
1961,126
1962,126
1963,126
1964,126
1965,126
1966,126
1967,126
1968,126
1969,126
1970,126
1971,126
1972,126
1973,126
1974,126
1975,126
1976,126
1977,126
1978,126
1979,126
1980,126
1981,126
1982,126
1983,126
1984,126
1985,126
1986,126
1987,126
1988,126
1989,126
1990,126
1991,126
1992,126
1993,126
1994,126
1995,126
1996,126
1997,126
1998,126
1999,126
2000,126
