"tick","total"
0,0
1,0
2,0
3,0
4,0
5,0
6,0
7,0
8,0
9,0
10,0
11,0
12,0
13,0
14,0
15,0
16,0
17,0
18,0
19,0
20,0
21,0
22,0
23,0
24,0
25,0
26,0
27,0
28,0
29,0
30,0
31,0
32,0
33,0
34,0
35,0
36,0
37,0
38,0
39,0
40,0
41,0
42,0
43,0
44,0
45,0
46,0
47,0
48,0
49,0
50,0
51,0
52,0
53,0
54,0
55,0
56,0
57,0
58,0
59,0
60,0
61,0
62,0
63,0
64,0
65,0
66,0
67,0
68,0
69,0
70,0
71,0
72,0
73,0
74,0
75,0
76,0
77,0
78,0
79,0
80,0
81,0
82,0
83,0
84,0
85,0
86,0
87,0
88,0
89,0
90,0
91,0
92,0
93,0
94,0
95,0
96,0
97,0
98,0
99,0
100,0
101,0
102,0
103,0
104,0
105,0
106,0
107,0
108,0
109,0
110,0
111,0
112,0
113,0
114,0
115,0
116,0
117,0
118,0
119,0
120,0
121,0
122,0
123,0
124,0
125,0
126,0
127,0
128,0
129,0
130,0
131,0
132,0
133,0
134,0
135,0
136,0
137,0
138,0
139,0
140,0
141,0
142,0
143,0
144,0
145,0
146,0
147,0
148,0
149,0
150,0
151,0
152,0
153,0
154,0
155,0
156,0
157,0
158,0
159,0
160,0
161,0
162,0
163,0
164,0
165,0
166,0
167,0
168,0
169,0
170,0
171,0
172,0
173,0
174,0
175,0
176,0
177,0
178,0
179,0
180,0
181,0
182,0
183,0
184,0
185,0
186,0
187,0
188,0
189,0
190,0
191,0
192,0
193,0
194,0
195,0
196,0
197,0
198,0
199,0
200,0
201,0
202,0
203,0
204,0
205,0
206,0
207,0
208,0
209,0
210,0
211,0
212,1
213,1
214,1
215,1
216,1
217,1
218,1
219,1
220,2
221,2
222,2
223,2
224,2
225,2
226,2
227,2
228,2
229,2
230,2
231,2
232,2
233,2
234,2
235,2
236,2
237,2
238,2
239,2
240,2
241,2
242,2
243,2
244,2
245,2
246,2
247,2
248,3
249,4
250,4
251,4
252,4
253,4
254,4
255,4
256,4
257,4
258,4
259,4
260,4
261,4
262,4
263,4
264,4
265,5
266,5
267,5
268,6
269,7
270,7
271,7
272,8
273,8
274,8
275,8
276,8
277,10
278,10
279,11
280,11
281,11
282,11
283,11
284,11
285,11
286,11
287,12
288,12
289,12
290,12
291,13
292,13
293,13
294,13
295,13
296,13
297,13
298,14
299,15
300,15
301,15
302,16
303,16
304,16
305,16
306,16
307,16
308,16
309,16
310,17
311,17
312,17
313,18
314,18
315,19
316,19
317,19
318,19
319,19
320,19
321,19
322,19
323,19
324,19
325,19
326,20
327,20
328,20
329,20
330,20
331,20
332,20
333,20
334,20
335,20
336,20
337,21
338,21
339,21
340,21
341,21
342,23
343,23
344,23
345,24
346,24
347,24
348,24
349,24
350,24
351,24
352,24
353,24
354,24
355,24
356,24
357,24
358,24
359,24
360,24
361,25
362,25
363,25
364,25
365,25
366,25
367,26
368,26
369,28
370,28
371,28
372,28
373,28
374,28
375,28
376,29
377,29
378,29
379,29
380,29
381,29
382,29
383,29
384,29
385,29
386,29
387,29
388,29
389,29
390,29
391,29
392,29
393,30
394,30
395,30
396,30
397,30
398,30
399,30
400,30
401,30
402,30
403,30
404,30
405,30
406,30
407,30
408,30
409,30
410,30
411,30
412,30
413,30
414,30
415,30
416,30
417,30
418,30
419,30
420,30
421,30
422,30
423,30
424,30
425,30
426,30
427,30
428,30
429,30
430,30
431,30
432,30
433,30
434,30
435,30
436,30
437,30
438,30
439,30
440,30
441,30
442,30
443,30
444,30
445,30
446,30
447,30
448,30
449,30
450,30
451,30
452,30
453,30
454,30
455,30
456,30
457,30
458,30
459,30
460,30
461,30
462,30
463,30
464,30
465,30
466,30
467,30
468,30
469,30
470,30
471,30
472,30
473,30
474,30
475,30
476,30
477,30
478,30
479,30
480,30
481,30
482,30
483,30
484,30
485,30
486,30
487,30
488,30
489,30
490,30
491,30
492,30
493,30
494,30
495,30
496,30
497,30
498,30
499,30
500,31
501,31
502,31
503,31
504,31
505,31
506,31
507,31
508,31
509,31
510,31
511,31
512,31
513,31
514,31
515,31
516,31
517,31
518,31
519,31
520,31
521,32
522,32
523,32
524,32
525,32
526,32
527,32
528,32
529,32
530,32
531,32
532,32
533,32
534,32
535,32
536,32
537,32
538,32
539,32
540,32
541,32
542,32
543,32
544,32
545,32
546,32
547,32
548,32
549,32
550,32
551,32
552,33
553,33
554,33
555,34
556,34
557,34
558,34
559,34
560,34
561,34
562,34
563,34
564,34
565,34
566,34
567,34
568,34
569,35
570,35
571,35
572,35
573,35
574,35
575,35
576,35
577,35
578,35
579,35
580,35
581,35
582,35
583,35
584,35
585,35
586,35
587,35
588,35
589,35
590,35
591,35
592,35
593,35
594,35
595,35
596,35
597,35
598,35
599,35
600,35
601,35
602,35
603,35
604,35
605,35
606,35
607,35
608,35
609,35
610,35
611,35
612,36
613,36
614,36
615,36
616,36
617,36
618,36
619,36
620,36
621,36
622,36
623,36
624,36
625,36
626,36
627,36
628,36
629,36
630,36
631,36
632,36
633,36
634,36
635,36
636,36
637,36
638,36
639,36
640,36
641,36
642,36
643,36
644,36
645,36
646,36
647,36
648,36
649,36
650,36
651,36
652,36
653,36
654,36
655,36
656,36
657,36
658,36
659,36
660,36
661,36
662,36
663,36
664,36
665,36
666,37
667,37
668,37
669,37
670,37
671,37
672,37
673,37
674,37
675,37
676,37
677,37
678,37
679,37
680,37
681,37
682,37
683,37
684,37
685,37
686,37
687,37
688,37
689,37
690,37
691,37
692,37
693,37
694,37
695,37
696,37
697,37
698,37
699,38
700,38
701,38
702,38
703,38
704,38
705,39
706,39
707,39
708,39
709,39
710,39
711,39
712,39
713,39
714,39
715,39
716,39
717,39
718,39
719,39
720,39
721,39
722,39
723,39
724,39
725,39
726,39
727,39
728,39
729,39
730,39
731,39
732,39
733,39
734,39
735,40
736,40
737,40
738,40
739,40
740,40
741,40
742,40
743,40
744,40
745,40
746,40
747,40
748,40
749,40
750,40
751,40
752,40
753,40
754,40
755,40
756,40
757,40
758,40
759,40
760,40
761,40
762,40
763,40
764,40
765,40
766,41
767,41
768,41
769,41
770,41
771,41
772,41
773,41
774,41
775,41
776,41
777,41
778,41
779,41
780,41
781,41
782,41
783,41
784,41
785,41
786,41
787,41
788,41
789,41
790,41
791,42
792,42
793,42
794,42
795,42
796,42
797,42
798,42
799,42
800,42
801,42
802,42
803,42
804,42
805,42
806,42
807,42
808,42
809,42
810,42
811,42
812,42
813,42
814,42
815,42
816,43
817,43
818,43
819,43
820,43
821,43
822,43
823,43
824,43
825,43
826,43
827,43
828,43
829,43
830,43
831,43
832,43
833,43
834,43
835,43
836,43
837,43
838,44
839,45
840,45
841,45
842,45
843,45
844,45
845,45
846,45
847,45
848,45
849,45
850,45
851,45
852,45
853,45
854,45
855,45
856,45
857,45
858,46
859,46
860,46
861,46
862,46
863,46
864,46
865,46
866,46
867,46
868,46
869,46
870,46
871,47
872,47
873,47
874,47
875,47
876,47
877,47
878,47
879,47
880,47
881,47
882,47
883,47
884,47
885,47
886,47
887,47
888,47
889,47
890,47
891,47
892,47
893,47
894,47
895,47
896,47
897,47
898,47
899,47
900,47
901,47
902,47
903,47
904,47
905,47
906,47
907,47
908,47
909,47
910,47
911,47
912,47
913,47
914,47
915,47
916,47
917,47
918,47
919,47
920,47
921,47
922,47
923,47
924,49
925,49
926,49
927,49
928,49
929,49
930,49
931,49
932,49
933,49
934,49
935,49
936,49
937,49
938,49
939,49
940,49
941,49
942,49
943,49
944,49
945,49
946,49
947,49
948,49
949,49
950,49
951,49
952,49
953,49
954,49
955,49
956,49
957,49
958,49
959,49
960,49
961,49
962,49
963,50
964,50
965,50
966,50
967,50
968,50
969,50
970,50
971,50
972,50
973,50
974,50
975,50
976,50
977,50
978,50
979,50
980,50
981,50
982,50
983,50
984,50
985,50
986,50
987,50
988,50
989,50
990,50
991,50
992,50
993,50
994,50
995,50
996,50
997,50
998,50
999,50
1000,50
1001,50
1002,50
1003,50
1004,50
1005,50
1006,50
1007,50
1008,50
1009,50
1010,50
1011,50
1012,50
1013,50
1014,50
1015,50
1016,50
1017,51
1018,51
1019,51
1020,51
1021,51
1022,51
1023,51
1024,51
1025,51
1026,51
1027,51
1028,51
1029,51
1030,51
1031,51
1032,51
1033,51
1034,51
1035,51
1036,51
1037,51
1038,51
1039,51
1040,52
1041,52
1042,52
1043,52
1044,52
1045,52
1046,52
1047,52
1048,52
1049,52
1050,52
1051,52
1052,52
1053,52
1054,52
1055,52
1056,52
1057,52
1058,52
1059,52
1060,52
1061,52
1062,52
1063,52
1064,52
1065,52
1066,53
1067,53
1068,53
1069,53
1070,53
1071,53
1072,53
1073,53
1074,53
1075,53
1076,53
1077,53
1078,53
1079,53
1080,53
1081,53
1082,53
1083,53
1084,53
1085,53
1086,53
1087,53
1088,54
1089,54
1090,54
1091,54
1092,54
1093,54
1094,54
1095,54
1096,54
1097,54
1098,55
1099,55
1100,55
1101,55
1102,55
1103,55
1104,55
1105,55
1106,55
1107,55
1108,55
1109,56
1110,56
1111,56
1112,56
1113,56
1114,56
1115,56
1116,56
1117,56
1118,56
1119,56
1120,56
1121,56
1122,56
1123,56
1124,56
1125,56
1126,56
1127,56
1128,56
1129,56
1130,56
1131,56
1132,56
1133,56
1134,56
1135,56
1136,56
1137,56
1138,56
1139,56
1140,56
1141,56
1142,56
1143,56
1144,56
1145,56
1146,56
1147,56
1148,56
1149,56
1150,56
1151,56
1152,56
1153,57
1154,57
1155,57
1156,57
1157,57
1158,57
1159,57
1160,57
1161,57
1162,57
1163,57
1164,57
1165,57
1166,57
1167,58
1168,58
1169,58
1170,58
1171,58
1172,58
1173,58
1174,58
1175,58
1176,58
1177,58
1178,58
1179,58
1180,58
1181,58
1182,58
1183,58
1184,58
1185,58
1186,58
1187,58
1188,58
1189,58
1190,58
1191,58
1192,58
1193,58
1194,58
1195,58
1196,58
1197,58
1198,58
1199,58
1200,58
1201,58
1202,58
1203,58
1204,59
1205,59
1206,59
1207,59
1208,59
1209,59
1210,59
1211,59
1212,59
1213,59
1214,59
1215,59
1216,59
1217,59
1218,59
1219,59
1220,59
1221,59
1222,59
1223,59
1224,59
1225,59
1226,59
1227,59
1228,59
1229,59
1230,59
1231,59
1232,59
1233,59
1234,59
1235,59
1236,59
1237,59
1238,59
1239,59
1240,59
1241,59
1242,59
1243,59
1244,59
1245,59
1246,59
1247,59
1248,59
1249,59
1250,59
1251,59
1252,59
1253,59
1254,59
1255,59
1256,59
1257,59
1258,59
1259,59
1260,59
1261,59
1262,59
1263,59
1264,60
1265,60
1266,60
1267,60
1268,60
1269,60
1270,60
1271,60
1272,60
1273,60
1274,60
1275,60
1276,60
1277,60
1278,60
1279,60
1280,60
1281,60
1282,60
1283,60
1284,60
1285,60
1286,60
1287,60
1288,60
1289,60
1290,60
1291,60
1292,60
1293,60
1294,60
1295,60
1296,60
1297,60
1298,60
1299,60
1300,60
1301,60
1302,60
1303,60
1304,60
1305,60
1306,60
1307,60
1308,60
1309,60
1310,60
1311,60
1312,60
1313,60
1314,60
1315,60
1316,60
1317,60
1318,60
1319,60
1320,60
1321,60
1322,60
1323,60
1324,60
1325,60
1326,60
1327,60
1328,60
1329,60
1330,60
1331,60
1332,60
1333,60
1334,60
1335,60
1336,60
1337,60
1338,60
1339,60
1340,60
1341,60
1342,60
1343,60
1344,60
1345,60
1346,60
1347,60
1348,60
1349,60
1350,60
1351,60
1352,61
1353,61
1354,61
1355,61
1356,61
1357,61
1358,61
1359,61
1360,61
1361,61
1362,61
1363,61
1364,61
1365,61
1366,61
1367,61
1368,61
1369,61
1370,61
1371,61
1372,61
1373,61
1374,62
1375,62
1376,62
1377,62
1378,62
1379,62
1380,62
1381,62
1382,62
1383,62
1384,62
1385,62
1386,62
1387,62
1388,62
1389,62
1390,62
1391,62
1392,62
1393,62
1394,62
1395,62
1396,62
1397,62
1398,62
1399,62
1400,62
1401,62
1402,62
1403,62
1404,62
1405,62
1406,62
1407,62
1408,62
1409,62
1410,62
1411,62
1412,62
1413,62
1414,62
1415,62
1416,62
1417,63
1418,63
1419,63
1420,63
1421,63
1422,64
1423,64
1424,64
1425,64
1426,64
1427,64
1428,64
1429,64
1430,64
1431,64
1432,64
1433,64
1434,64
1435,64
1436,64
1437,65
1438,65
1439,65
1440,65
1441,65
1442,66
1443,66
1444,66
1445,66
1446,66
1447,66
1448,66
1449,66
1450,66
1451,66
1452,66
1453,66
1454,66
1455,66
1456,66
1457,66
1458,66
1459,66
1460,66
1461,67
1462,67
1463,68
1464,68
1465,68
1466,68
1467,68
1468,68
1469,68
1470,68
1471,68
1472,68
1473,68
1474,68
1475,68
1476,68
1477,68
1478,68
1479,68
1480,68
1481,68
1482,68
1483,68
1484,68
1485,68
1486,68
1487,68
1488,68
1489,68
1490,68
1491,68
1492,70
1493,70
1494,71
1495,71
1496,71
1497,71
1498,71
1499,71
1500,71
1501,72
1502,72
1503,72
1504,72
1505,72
1506,72
1507,72
1508,72
1509,72
1510,72
1511,72
1512,72
1513,72
1514,72
1515,72
1516,72
1517,72
1518,72
1519,72
1520,72
1521,72
1522,72
1523,72
1524,72
1525,72
1526,72
1527,72
1528,72
1529,73
1530,73
1531,73
1532,73
1533,74
1534,74
1535,74
1536,74
1537,74
1538,74
1539,74
1540,74
1541,74
1542,74
1543,74
1544,74
1545,74
1546,74
1547,74
1548,74
1549,74
1550,74
1551,74
1552,74
1553,74
1554,74
1555,74
1556,74
1557,74
1558,74
1559,74
1560,74
1561,74
1562,74
1563,74
1564,74
1565,74
1566,74
1567,74
1568,74
1569,74
1570,74
1571,74
1572,75
1573,75
1574,75
1575,75
1576,75
1577,75
1578,75
1579,75
1580,76
1581,76
1582,76
1583,76
1584,76
1585,76
1586,76
1587,76
1588,76
1589,76
1590,76
1591,76
1592,76
1593,76
1594,76
1595,76
1596,76
1597,76
1598,76
1599,76
1600,76
1601,76
1602,76
1603,76
1604,76
1605,76
1606,76
1607,76
1608,76
1609,76
1610,76
1611,76
1612,76
1613,76
1614,76
1615,76
1616,76
1617,76
1618,76
1619,76
1620,76
1621,76
1622,76
1623,76
1624,76
1625,77
1626,78
1627,78
1628,78
1629,78
1630,78
1631,78
1632,78
1633,78
1634,78
1635,78
1636,78
1637,78
1638,78
1639,78
1640,78
1641,78
1642,78
1643,78
1644,78
1645,78
1646,78
1647,78
1648,78
1649,78
1650,78
1651,78
1652,79
1653,79
1654,79
1655,79
1656,79
1657,79
1658,79
1659,79
1660,79
1661,79
1662,79
1663,79
1664,79
1665,79
1666,79
1667,79
1668,79
1669,79
1670,79
1671,80
1672,80
1673,80
1674,80
1675,80
1676,80
1677,80
1678,80
1679,80
1680,80
1681,80
1682,80
1683,80
1684,80
1685,80
1686,80
1687,80
1688,81
1689,81
1690,81
1691,81
1692,81
1693,81
1694,81
1695,81
1696,81
1697,81
1698,81
1699,81
1700,81
1701,81
1702,81
1703,82
1704,82
1705,82
1706,82
1707,83
1708,83
1709,83
1710,83
1711,84
1712,85
1713,85
1714,85
1715,85
1716,85
1717,85
1718,85
1719,85
1720,85
1721,85
1722,85
1723,85
1724,85
1725,85
1726,85
1727,85
1728,85
1729,85
1730,85
1731,85
1732,85
1733,85
1734,85
1735,85
1736,85
1737,85
1738,85
1739,85
1740,85
1741,85
1742,85
1743,85
1744,85
1745,85
1746,85
1747,85
1748,85
1749,85
1750,85
1751,85
1752,85
1753,85
1754,85
1755,85
1756,85
1757,85
1758,85
1759,85
1760,85
1761,85
1762,86
1763,86
1764,86
1765,86
1766,86
1767,86
1768,86
1769,86
1770,86
1771,86
1772,86
1773,86
1774,86
1775,86
1776,86
1777,86
1778,86
1779,86
1780,86
1781,86
1782,86
1783,86
1784,86
1785,86
1786,86
1787,86
1788,86
1789,86
1790,86
1791,86
1792,86
1793,86
1794,86
1795,86
1796,86
1797,86
1798,86
1799,86
1800,86
1801,86
1802,86
1803,86
1804,86
1805,86
1806,87
1807,87
1808,87
1809,87
1810,87
1811,87
1812,87
1813,87
1814,87
1815,87
1816,87
1817,89
1818,89
1819,89
1820,89
1821,89
1822,89
1823,89
1824,89
1825,89
1826,89
1827,89
1828,89
1829,89
1830,89
1831,89
1832,89
1833,89
1834,89
1835,89
1836,89
1837,89
1838,89
1839,89
1840,89
1841,89
1842,89
1843,89
1844,89
1845,89
1846,89
1847,89
1848,89
1849,89
1850,89
1851,89
1852,90
1853,90
1854,90
1855,90
1856,90
1857,90
1858,90
1859,90
1860,90
1861,90
1862,90
1863,90
1864,90
1865,90
1866,90
1867,90
1868,90
1869,90
1870,90
1871,90
1872,90
1873,90
1874,90
1875,90
1876,90
1877,90
1878,90
1879,90
1880,90
1881,90
1882,90
1883,90
1884,90
1885,90
1886,90
1887,90
1888,90
1889,90
1890,90
1891,90
1892,90
1893,90
1894,90
1895,90
1896,90
1897,90
1898,90
1899,90
1900,90
1901,90
1902,90
1903,90
1904,90
1905,90
1906,90
1907,90
1908,90
1909,90
1910,90
1911,90
1912,90
1913,90
1914,90
1915,90
1916,90
1917,90
1918,90
1919,90
1920,90
1921,90
1922,90
1923,90
1924,90
1925,90
1926,90
1927,90
1928,90
1929,90
1930,90
1931,90
1932,90
1933,90
1934,90
1935,90
1936,90
1937,90
1938,90
1939,90
1940,91
1941,91
1942,91
1943,91
1944,91
1945,91
1946,91
1947,91
1948,91
1949,91
1950,91
1951,91
1952,91
1953,91
1954,91
1955,91
1956,91
1957,91
1958,91
1959,92
1960,92
1961,92
1962,92
1963,92
1964,92
1965,92
1966,92
1967,92
1968,92
1969,92
1970,92
1971,92
1972,92
1973,92
1974,92
1975,92
1976,92
1977,92
1978,92
1979,92
1980,92
1981,92
1982,92
1983,92
1984,92
1985,92
1986,92
1987,92
1988,92
1989,92
1990,92
1991,92
1992,92
1993,92
1994,92
1995,92
1996,92
1997,92
1998,92
1999,92
2000,92
