"tick","susceptible","exposed","infectious","recovered"
0,99,1,0,0
1,99,1,0,0
2,99,1,0,0
3,99,1,0,0
4,99,1,0,0
5,99,1,0,0
6,99,1,0,0
7,99,1,0,0
8,99,1,0,0
9,99,1,0,0
10,99,1,0,0
11,99,1,0,0
12,99,1,0,0
13,99,1,0,0
14,99,1,0,0
15,99,1,0,0
16,99,1,0,0
17,99,1,0,0
18,99,1,0,0
19,99,1,0,0
20,99,1,0,0
21,99,1,0,0
22,99,1,0,0
23,99,1,0,0
24,99,1,0,0
25,99,1,0,0
26,99,1,0,0
27,99,1,0,0
28,99,1,0,0
29,99,1,0,0
30,99,1,0,0
31,99,1,0,0
32,99,1,0,0
33,99,1,0,0
34,99,1,0,0
35,99,1,0,0
36,99,1,0,0
37,99,1,0,0
38,99,1,0,0
39,99,1,0,0
40,99,1,0,0
41,99,1,0,0
42,99,1,0,0
43,99,1,0,0
44,99,1,0,0
45,99,1,0,0
46,99,1,0,0
47,99,1,0,0
48,99,1,0,0
49,99,1,0,0
50,99,1,0,0
51,99,1,0,0
52,99,1,0,0
53,99,1,0,0
54,99,1,0,0
55,99,1,0,0
56,99,1,0,0
57,99,1,0,0
58,99,1,0,0
59,99,1,0,0
60,99,1,0,0
61,99,1,0,0
62,99,1,0,0
63,99,1,0,0
64,99,1,0,0
65,99,1,0,0
66,99,1,0,0
67,99,1,0,0
68,99,1,0,0
69,99,1,0,0
70,99,1,0,0
71,99,1,0,0
72,99,1,0,0
73,99,1,0,0
74,99,1,0,0
75,99,1,0,0
76,99,1,0,0
77,99,1,0,0
78,99,1,0,0
79,99,1,0,0
80,99,1,0,0
81,99,1,0,0
82,99,1,0,0
83,99,1,0,0
84,99,1,0,0
85,99,1,0,0
86,99,1,0,0
87,99,1,0,0
88,99,1,0,0
89,99,1,0,0
90,99,1,0,0
91,99,1,0,0
92,99,1,0,0
93,99,1,0,0
94,99,1,0,0
95,99,1,0,0
96,99,1,0,0
97,99,1,0,0
98,99,1,0,0
99,99,1,0,0
100,99,1,0,0
101,99,1,0,0
102,99,1,0,0
103,99,1,0,0
104,99,1,0,0
105,99,1,0,0
106,99,1,0,0
107,99,1,0,0
108,99,1,0,0
109,99,1,0,0
110,99,1,0,0
111,99,1,0,0
112,99,1,0,0
113,99,1,0,0
114,99,1,0,0
115,99,1,0,0
116,99,1,0,0
117,99,1,0,0
118,99,1,0,0
119,99,1,0,0
120,99,1,0,0
121,99,1,0,0
122,99,1,0,0
123,99,1,0,0
124,99,1,0,0
125,99,1,0,0
126,99,1,0,0
127,99,1,0,0
128,99,1,0,0
129,99,1,0,0
130,99,1,0,0
131,99,1,0,0
132,99,1,0,0
133,99,1,0,0
134,99,1,0,0
135,99,1,0,0
136,99,1,0,0
137,99,1,0,0
138,99,1,0,0
139,99,1,0,0
140,99,1,0,0
141,99,1,0,0
142,99,1,0,0
143,99,1,0,0
144,99,1,0,0
145,99,1,0,0
146,99,1,0,0
147,99,1,0,0
148,99,1,0,0
149,99,1,0,0
150,99,1,0,0
151,99,1,0,0
152,99,1,0,0
153,99,1,0,0
154,99,1,0,0
155,99,1,0,0
156,99,1,0,0
157,99,1,0,0
158,99,1,0,0
159,99,1,0,0
160,99,1,0,0
161,99,1,0,0
162,99,1,0,0
163,99,1,0,0
164,99,1,0,0
165,99,1,0,0
166,99,1,0,0
167,99,1,0,0
168,99,1,0,0
169,99,1,0,0
170,99,1,0,0
171,99,1,0,0
172,99,1,0,0
173,99,1,0,0
174,99,1,0,0
175,99,1,0,0
176,99,1,0,0
177,99,1,0,0
178,99,1,0,0
179,99,1,0,0
180,99,1,0,0
181,99,1,0,0
182,99,1,0,0
183,99,1,0,0
184,99,1,0,0
185,99,1,0,0
186,99,1,0,0
187,99,1,0,0
188,99,1,0,0
189,99,1,0,0
190,99,1,0,0
191,99,1,0,0
192,99,1,0,0
193,99,1,0,0
194,99,1,0,0
195,99,1,0,0
196,99,1,0,0
197,99,1,0,0
198,99,1,0,0
199,99,1,0,0
200,99,1,0,0
201,99,0,1,0
202,99,0,1,0
203,99,0,1,0
204,99,0,1,0
205,99,0,1,0
206,99,0,1,0
207,99,0,1,0
208,99,0,1,0
209,99,0,1,0
210,99,0,1,0
211,99,0,1,0
212,98,1,1,0
213,98,1,1,0
214,98,1,1,0
215,98,1,1,0
216,98,1,1,0
217,98,1,1,0
218,98,1,1,0
219,97,2,1,0
220,97,2,1,0
221,97,2,1,0
222,97,2,1,0
223,97,2,1,0
224,97,2,1,0
225,97,2,1,0
226,97,2,1,0
227,97,2,1,0
228,97,2,1,0
229,97,2,1,0
230,97,2,1,0
231,97,2,1,0
232,97,2,1,0
233,97,2,1,0
234,97,2,1,0
235,97,2,1,0
236,97,2,1,0
237,97,2,1,0
238,97,2,1,0
239,97,2,1,0
240,97,2,1,0
241,97,2,1,0
242,97,2,1,0
243,97,2,1,0
244,97,2,1,0
245,97,2,1,0
246,97,2,1,0
247,97,2,1,0
248,97,2,1,0
249,97,2,1,0
250,97,2,1,0
251,97,2,1,0
252,97,2,1,0
253,97,2,1,0
254,97,2,1,0
255,97,2,1,0
256,97,2,1,0
257,97,2,1,0
258,97,2,1,0
259,97,2,1,0
260,97,2,1,0
261,97,2,1,0
262,97,2,1,0
263,97,2,1,0
264,97,2,1,0
265,97,2,1,0
266,97,2,1,0
267,97,2,1,0
268,97,2,1,0
269,97,2,1,0
270,97,2,1,0
271,97,2,1,0
272,97,2,1,0
273,97,2,1,0
274,97,2,1,0
275,97,2,1,0
276,97,2,1,0
277,97,2,1,0
278,97,2,1,0
279,97,2,1,0
280,97,2,1,0
281,97,2,1,0
282,97,2,1,0
283,97,2,1,0
284,97,2,1,0
285,97,2,1,0
286,97,2,1,0
287,97,2,1,0
288,97,2,1,0
289,97,2,1,0
290,97,2,1,0
291,97,2,1,0
292,97,2,1,0
293,97,2,1,0
294,97,2,1,0
295,97,2,1,0
296,97,2,1,0
297,97,2,1,0
298,97,2,1,0
299,97,2,1,0
300,97,2,1,0
301,97,2,1,0
302,97,2,1,0
303,97,2,1,0
304,97,2,1,0
305,97,2,1,0
306,97,2,1,0
307,97,2,1,0
308,97,2,1,0
309,97,2,1,0
310,97,2,1,0
311,97,2,1,0
312,97,2,1,0
313,97,2,1,0
314,97,2,1,0
315,97,2,1,0
316,97,2,1,0
317,97,2,1,0
318,97,2,1,0
319,97,2,1,0
320,97,2,1,0
321,97,2,1,0
322,97,2,1,0
323,97,2,1,0
324,97,2,1,0
325,97,2,1,0
326,97,2,1,0
327,97,2,1,0
328,97,2,1,0
329,97,2,1,0
330,97,2,1,0
331,97,2,1,0
332,97,2,1,0
333,97,2,1,0
334,97,2,1,0
335,97,2,1,0
336,97,2,1,0
337,97,2,1,0
338,97,2,1,0
339,97,2,1,0
340,97,2,1,0
341,97,2,1,0
342,97,2,1,0
343,97,2,1,0
344,97,2,1,0
345,97,2,1,0
346,97,2,1,0
347,97,2,1,0
348,97,2,1,0
349,97,2,1,0
350,97,2,1,0
351,96,3,1,0
352,96,3,1,0
353,96,3,1,0
354,96,3,1,0
355,96,3,1,0
356,96,3,1,0
357,96,3,1,0
358,96,3,1,0
359,96,3,1,0
360,96,3,1,0
361,96,3,1,0
362,96,3,1,0
363,96,3,1,0
364,96,3,1,0
365,96,3,1,0
366,96,3,1,0
367,96,3,1,0
368,96,3,1,0
369,96,3,1,0
370,96,3,1,0
371,96,3,1,0
372,96,3,1,0
373,96,3,1,0
374,96,3,1,0
375,96,3,1,0
376,96,3,1,0
377,96,3,1,0
378,96,3,1,0
379,96,3,1,0
380,96,3,1,0
381,95,4,1,0
382,95,4,1,0
383,95,4,1,0
384,95,4,1,0
385,95,4,1,0
386,95,4,1,0
387,95,4,1,0
388,95,4,1,0
389,95,4,1,0
390,95,4,1,0
391,95,4,1,0
392,95,4,1,0
393,95,4,1,0
394,95,4,1,0
395,95,4,1,0
396,95,4,1,0
397,95,4,1,0
398,95,4,1,0
399,95,4,1,0
400,95,4,1,0
401,95,4,1,0
402,95,4,0,1
403,95,4,0,1
404,95,4,0,1
405,95,4,0,1
406,95,4,0,1
407,95,4,0,1
408,95,4,0,1
409,95,4,0,1
410,95,4,0,1
411,95,4,0,1
412,95,4,0,1
413,95,3,1,1
414,95,3,1,1
415,95,3,1,1
416,95,3,1,1
417,95,3,1,1
418,95,3,1,1
419,95,3,1,1
420,95,2,2,1
421,95,2,2,1
422,95,2,2,1
423,95,2,2,1
424,95,2,2,1
425,95,2,2,1
426,95,2,2,1
427,95,2,2,1
428,95,2,2,1
429,95,2,2,1
430,95,2,2,1
431,95,2,2,1
432,95,2,2,1
433,95,2,2,1
434,95,2,2,1
435,95,2,2,1
436,95,2,2,1
437,95,2,2,1
438,95,2,2,1
439,95,2,2,1
440,95,2,2,1
441,95,2,2,1
442,95,2,2,1
443,95,2,2,1
444,95,2,2,1
445,95,2,2,1
446,95,2,2,1
447,95,2,2,1
448,95,2,2,1
449,95,2,2,1
450,95,2,2,1
451,95,2,2,1
452,95,2,2,1
453,95,2,2,1
454,95,2,2,1
455,95,2,2,1
456,95,2,2,1
457,95,2,2,1
458,95,2,2,1
459,95,2,2,1
460,95,2,2,1
461,95,2,2,1
462,95,2,2,1
463,95,2,2,1
464,95,2,2,1
465,95,2,2,1
466,95,2,2,1
467,95,2,2,1
468,95,2,2,1
469,95,2,2,1
470,95,2,2,1
471,95,2,2,1
472,95,2,2,1
473,95,2,2,1
474,95,2,2,1
475,94,3,2,1
476,94,3,2,1
477,94,3,2,1
478,94,3,2,1
479,94,3,2,1
480,94,3,2,1
481,94,3,2,1
482,94,3,2,1
483,94,3,2,1
484,94,3,2,1
485,94,3,2,1
486,94,3,2,1
487,94,3,2,1
488,94,3,2,1
489,94,3,2,1
490,94,3,2,1
491,94,3,2,1
492,94,3,2,1
493,94,3,2,1
494,94,3,2,1
495,94,3,2,1
496,94,3,2,1
497,94,3,2,1
498,94,3,2,1
499,94,3,2,1
500,94,3,2,1
501,94,3,2,1
502,94,3,2,1
503,94,3,2,1
504,94,3,2,1
505,94,3,2,1
506,94,3,2,1
507,94,3,2,1
508,94,3,2,1
509,94,3,2,1
510,94,3,2,1
511,94,3,2,1
512,94,3,2,1
513,93,4,2,1
514,93,4,2,1
515,93,4,2,1
516,93,4,2,1
517,93,4,2,1
518,93,4,2,1
519,93,4,2,1
520,93,4,2,1
521,93,4,2,1
522,93,4,2,1
523,93,4,2,1
524,93,4,2,1
525,93,4,2,1
526,93,4,2,1
527,93,4,2,1
528,93,4,2,1
529,93,4,2,1
530,93,4,2,1
531,93,4,2,1
532,93,4,2,1
533,93,4,2,1
534,93,4,2,1
535,93,4,2,1
536,93,4,2,1
537,93,4,2,1
538,93,4,2,1
539,93,4,2,1
540,93,4,2,1
541,93,4,2,1
542,93,4,2,1
543,93,4,2,1
544,93,4,2,1
545,93,4,2,1
546,93,4,2,1
547,93,4,2,1
548,93,4,2,1
549,93,4,2,1
550,93,4,2,1
551,93,4,2,1
552,93,3,3,1
553,93,3,3,1
554,93,3,3,1
555,93,3,3,1
556,93,3,3,1
557,93,3,3,1
558,93,3,3,1
559,93,3,3,1
560,93,3,3,1
561,93,3,3,1
562,93,3,3,1
563,93,3,3,1
564,93,3,3,1
565,93,3,3,1
566,93,3,3,1
567,93,3,3,1
568,92,4,3,1
569,92,4,3,1
570,92,4,3,1
571,92,4,3,1
572,92,4,3,1
573,92,4,3,1
574,92,4,3,1
575,92,4,3,1
576,92,4,3,1
577,92,4,3,1
578,92,4,3,1
579,92,4,3,1
580,92,4,3,1
581,92,4,3,1
582,91,4,4,1
583,91,4,4,1
584,91,4,4,1
585,91,4,4,1
586,91,4,4,1
587,91,4,4,1
588,91,4,4,1
589,91,4,4,1
590,91,4,4,1
591,91,4,4,1
592,91,4,4,1
593,91,4,4,1
594,90,5,4,1
595,90,5,4,1
596,90,5,4,1
597,90,5,4,1
598,90,5,4,1
599,90,5,4,1
600,90,5,4,1
601,90,5,4,1
602,90,5,4,1
603,90,5,4,1
604,90,5,4,1
605,90,5,4,1
606,90,5,4,1
607,90,5,4,1
608,90,5,4,1
609,90,5,4,1
610,90,5,4,1
611,90,5,4,1
612,90,5,4,1
613,90,5,4,1
614,89,6,3,2
615,89,6,3,2
616,89,6,3,2
617,89,6,3,2
618,89,6,3,2
619,89,6,3,2
620,89,6,3,2
621,89,6,2,3
622,89,6,2,3
623,89,6,2,3
624,89,6,2,3
625,89,6,2,3
626,89,6,2,3
627,89,6,2,3
628,89,6,2,3
629,89,6,2,3
630,89,6,2,3
631,89,6,2,3
632,89,6,2,3
633,89,6,2,3
634,89,6,2,3
635,89,6,2,3
636,89,6,2,3
637,89,6,2,3
638,89,6,2,3
639,89,6,2,3
640,89,6,2,3
641,89,6,2,3
642,89,6,2,3
643,89,6,2,3
644,89,6,2,3
645,89,6,2,3
646,89,6,2,3
647,89,6,2,3
648,89,6,2,3
649,89,6,2,3
650,89,6,2,3
651,89,6,2,3
652,89,6,2,3
653,89,6,2,3
654,89,6,2,3
655,89,6,2,3
656,89,6,2,3
657,89,6,2,3
658,89,6,2,3
659,89,6,2,3
660,89,6,2,3
661,89,6,2,3
662,89,6,2,3
663,89,6,2,3
664,89,6,2,3
665,88,7,2,3
666,88,7,2,3
667,88,7,2,3
668,88,7,2,3
669,88,7,2,3
670,88,7,2,3
671,88,7,2,3
672,88,7,2,3
673,88,7,2,3
674,88,7,2,3
675,88,7,2,3
676,88,6,3,3
677,87,7,3,3
678,87,7,3,3
679,87,7,3,3
680,86,8,3,3
681,86,8,3,3
682,86,8,3,3
683,86,8,3,3
684,86,8,3,3
685,86,8,3,3
686,86,8,3,3
687,86,8,3,3
688,85,9,3,3
689,85,9,3,3
690,85,9,3,3
691,85,9,3,3
692,85,9,3,3
693,85,9,3,3
694,85,9,3,3
695,85,9,3,3
696,85,9,3,3
697,85,9,3,3
698,85,9,3,3
699,85,9,3,3
700,85,9,3,3
701,85,9,3,3
702,85,9,3,3
703,84,10,3,3
704,84,10,3,3
705,84,10,3,3
706,83,11,3,3
707,83,11,3,3
708,83,11,3,3
709,83,11,3,3
710,83,11,3,3
711,83,11,3,3
712,83,11,3,3
713,83,11,3,3
714,83,10,4,3
715,83,10,4,3
716,83,10,4,3
717,83,10,4,3
718,83,10,4,3
719,83,10,4,3
720,83,10,4,3
721,83,10,4,3
722,83,10,4,3
723,83,10,4,3
724,83,10,4,3
725,83,10,4,3
726,83,10,4,3
727,83,10,4,3
728,83,10,4,3
729,83,10,4,3
730,83,10,4,3
731,83,10,4,3
732,83,10,4,3
733,83,10,4,3
734,83,10,4,3
735,83,10,4,3
736,83,10,4,3
737,83,10,4,3
738,83,10,4,3
739,83,10,4,3
740,82,11,4,3
741,82,11,4,3
742,82,11,4,3
743,82,11,4,3
744,82,11,4,3
745,82,11,4,3
746,82,11,4,3
747,82,11,4,3
748,82,11,4,3
749,82,11,4,3
750,82,11,4,3
751,82,11,4,3
752,82,11,4,3
753,82,11,3,4
754,82,11,3,4
755,82,11,3,4
756,82,11,3,4
757,82,11,3,4
758,82,11,3,4
759,82,11,3,4
760,82,11,3,4
761,82,11,3,4
762,82,11,3,4
763,82,11,3,4
764,82,11,3,4
765,82,11,3,4
766,82,11,3,4
767,82,11,3,4
768,82,11,3,4
769,82,10,4,4
770,82,10,4,4
771,82,10,4,4
772,82,10,4,4
773,82,10,4,4
774,82,10,4,4
775,82,10,4,4
776,82,10,4,4
777,82,10,4,4
778,82,10,4,4
779,82,10,4,4
780,82,10,4,4
781,82,10,4,4
782,82,10,4,4
783,82,9,4,5
784,82,9,4,5
785,82,9,4,5
786,82,9,4,5
787,82,9,4,5
788,82,9,4,5
789,82,9,4,5
790,82,9,4,5
791,82,9,4,5
792,82,9,4,5
793,82,9,4,5
794,82,9,4,5
795,82,8,5,5
796,82,8,5,5
797,82,8,5,5
798,82,8,5,5
799,82,8,5,5
800,82,8,5,5
801,82,8,5,5
802,82,8,5,5
803,81,9,5,5
804,81,9,5,5
805,81,9,5,5
806,81,9,5,5
807,80,10,5,5
808,80,10,5,5
809,80,10,5,5
810,80,10,5,5
811,80,10,5,5
812,80,10,5,5
813,80,10,5,5
814,80,10,5,5
815,80,9,6,5
816,80,9,6,5
817,80,9,6,5
818,80,9,6,5
819,80,9,6,5
820,80,9,6,5
821,80,9,6,5
822,80,9,6,5
823,80,9,6,5
824,80,9,6,5
825,79,10,6,5
826,79,10,6,5
827,79,10,6,5
828,78,11,6,5
829,77,12,6,5
830,77,12,6,5
831,77,12,6,5
832,76,13,6,5
833,74,15,6,5
834,73,16,6,5
835,73,16,6,5
836,73,16,6,5
837,73,16,6,5
838,73,16,6,5
839,73,16,6,5
840,73,16,6,5
841,72,17,6,5
842,72,17,6,5
843,72,17,6,5
844,71,18,6,5
845,70,19,6,5
846,70,19,6,5
847,70,19,6,5
848,70,19,6,5
849,70,19,6,5
850,70,19,6,5
851,69,20,6,5
852,69,20,6,5
853,69,20,6,5
854,69,20,6,5
855,69,20,6,5
856,69,20,6,5
857,69,20,6,5
858,68,21,6,5
859,68,21,6,5
860,66,23,6,5
861,66,23,6,5
862,65,24,6,5
863,65,24,6,5
864,65,24,6,5
865,65,24,6,5
866,65,23,7,5
867,65,23,7,5
868,65,23,7,5
869,63,25,7,5
870,63,25,7,5
871,63,25,7,5
872,62,26,7,5
873,62,26,7,5
874,62,26,7,5
875,62,26,7,5
876,62,26,7,5
877,62,26,6,6
878,62,25,7,6
879,62,25,7,6
880,61,26,7,6
881,61,25,8,6
882,61,25,8,6
883,61,25,8,6
884,61,25,8,6
885,61,25,8,6
886,61,25,8,6
887,61,25,8,6
888,61,25,8,6
889,61,24,9,6
890,61,24,9,6
891,60,25,9,6
892,60,25,9,6
893,60,25,9,6
894,60,25,9,6
895,60,25,9,6
896,60,25,9,6
897,60,25,9,6
898,60,25,9,6
899,60,25,9,6
900,60,25,9,6
901,60,25,9,6
902,60,25,9,6
903,60,25,9,6
904,60,24,10,6
905,60,24,10,6
906,59,25,10,6
907,59,24,11,6
908,59,24,11,6
909,59,24,11,6
910,59,24,11,6
911,59,24,11,6
912,59,24,11,6
913,59,24,11,6
914,59,24,11,6
915,59,24,10,7
916,58,25,10,7
917,58,25,10,7
918,57,26,10,7
919,57,26,10,7
920,57,26,10,7
921,57,26,10,7
922,57,26,10,7
923,57,26,10,7
924,57,26,10,7
925,57,26,10,7
926,57,26,10,7
927,57,26,10,7
928,57,26,10,7
929,57,26,10,7
930,57,26,10,7
931,57,26,10,7
932,57,26,10,7
933,57,26,10,7
934,57,26,10,7
935,56,27,10,7
936,56,27,10,7
937,55,28,10,7
938,55,28,10,7
939,55,28,10,7
940,55,28,10,7
941,55,27,11,7
942,55,27,11,7
943,55,27,11,7
944,55,27,11,7
945,55,27,11,7
946,55,27,11,7
947,55,27,11,7
948,55,27,11,7
949,55,27,11,7
950,55,27,11,7
951,55,27,11,7
952,53,29,11,7
953,53,29,11,7
954,53,29,11,7
955,53,29,11,7
956,53,29,11,7
957,53,29,11,7
958,53,29,11,7
959,53,29,11,7
960,53,29,11,7
961,53,29,11,7
962,53,29,11,7
963,53,29,11,7
964,53,29,11,7
965,53,29,11,7
966,53,29,11,7
967,53,29,11,7
968,53,29,11,7
969,53,29,11,7
970,53,29,10,8
971,53,29,10,8
972,53,29,10,8
973,53,29,10,8
974,53,29,10,8
975,53,29,10,8
976,53,29,10,8
977,53,29,10,8
978,53,29,10,8
979,53,29,10,8
980,53,29,10,8
981,53,29,10,8
982,53,29,10,8
983,53,29,10,8
984,53,29,9,9
985,53,29,9,9
986,53,29,9,9
987,53,29,9,9
988,53,29,9,9
989,53,29,9,9
990,53,29,9,9
991,53,29,9,9
992,53,29,9,9
993,53,29,9,9
994,53,29,9,9
995,53,29,9,9
996,53,29,8,10
997,53,29,8,10
998,53,29,8,10
999,53,29,8,10
1000,53,29,8,10
1001,53,29,8,10
1002,53,29,8,10
1003,53,29,8,10
1004,53,28,9,10
1005,53,28,9,10
1006,53,28,9,10
1007,53,28,9,10
1008,53,27,10,10
1009,53,27,10,10
1010,53,27,10,10
1011,53,27,10,10
1012,53,27,10,10
1013,53,27,10,10
1014,53,27,10,10
1015,53,27,10,10
1016,53,27,9,11
1017,53,27,9,11
1018,53,27,9,11
1019,53,27,9,11
1020,53,27,9,11
1021,53,27,9,11
1022,53,27,9,11
1023,53,27,9,11
1024,53,27,9,11
1025,53,27,9,11
1026,53,26,10,11
1027,53,26,10,11
1028,52,27,10,11
1029,50,28,11,11
1030,49,28,12,11
1031,48,29,12,11
1032,47,30,12,11
1033,47,29,13,11
1034,46,28,15,11
1035,46,27,16,11
1036,46,27,16,11
1037,46,27,16,11
1038,46,27,16,11
1039,46,27,16,11
1040,46,27,16,11
1041,46,27,16,11
1042,46,26,17,11
1043,45,27,17,11
1044,45,27,17,11
1045,45,26,18,11
1046,45,25,19,11
1047,45,25,19,11
1048,45,25,19,11
1049,44,26,19,11
1050,43,27,19,11
1051,42,28,19,11
1052,42,27,20,11
1053,42,27,20,11
1054,41,28,20,11
1055,41,28,20,11
1056,41,28,20,11
1057,41,28,20,11
1058,41,28,20,11
1059,41,27,21,11
1060,41,27,21,11
1061,40,26,23,11
1062,40,26,23,11
1063,38,27,24,11
1064,37,28,24,11
1065,36,29,24,11
1066,36,29,24,11
1067,36,29,23,12
1068,36,29,23,12
1069,36,29,23,12
1070,36,27,25,12
1071,36,27,25,12
1072,36,27,25,12
1073,36,26,26,12
1074,36,26,26,12
1075,35,27,26,12
1076,35,27,26,12
1077,35,27,26,12
1078,35,27,26,12
1079,35,27,25,13
1080,35,27,25,13
1081,35,26,26,13
1082,35,26,25,14
1083,35,26,25,14
1084,35,26,25,14
1085,35,26,25,14
1086,35,26,25,14
1087,35,26,25,14
1088,35,26,25,14
1089,34,27,25,14
1090,34,27,24,15
1091,34,27,24,15
1092,34,26,25,15
1093,34,26,25,15
1094,34,26,25,15
1095,33,27,25,15
1096,33,27,25,15
1097,33,27,25,15
1098,33,27,25,15
1099,33,27,25,15
1100,33,27,25,15
1101,33,27,25,15
1102,33,27,25,15
1103,33,27,25,15
1104,32,28,25,15
1105,32,28,24,16
1106,32,28,24,16
1107,32,27,25,16
1108,32,27,24,17
1109,32,27,24,17
1110,32,27,24,17
1111,31,28,24,17
1112,30,29,24,17
1113,30,29,24,17
1114,30,29,24,17
1115,30,29,24,17
1116,30,29,24,17
1117,30,28,25,17
1118,30,28,25,17
1119,30,27,26,17
1120,30,27,26,17
1121,30,27,26,17
1122,30,27,26,17
1123,30,27,26,17
1124,30,27,26,17
1125,30,27,26,17
1126,30,27,26,17
1127,30,27,26,17
1128,29,28,26,17
1129,29,28,26,17
1130,29,28,26,17
1131,29,28,26,17
1132,29,28,26,17
1133,29,28,26,17
1134,29,28,26,17
1135,29,28,26,17
1136,29,27,27,17
1137,29,27,27,17
1138,29,26,28,17
1139,29,26,28,17
1140,29,26,28,17
1141,29,26,28,17
1142,29,26,27,18
1143,28,27,27,18
1144,28,27,27,18
1145,28,27,27,18
1146,28,27,27,18
1147,28,27,27,18
1148,28,27,27,18
1149,28,27,27,18
1150,28,27,27,18
1151,28,27,27,18
1152,28,27,27,18
1153,28,25,29,18
1154,28,25,29,18
1155,28,25,29,18
1156,27,26,29,18
1157,27,26,29,18
1158,27,26,29,18
1159,27,26,29,18
1160,27,26,29,18
1161,27,26,29,18
1162,27,26,29,18
1163,27,26,29,18
1164,27,26,29,18
1165,27,26,29,18
1166,27,26,29,18
1167,27,26,29,18
1168,27,26,29,18
1169,27,26,29,18
1170,27,26,29,18
1171,27,26,29,18
1172,27,26,29,18
1173,27,26,29,18
1174,27,26,29,18
1175,27,26,29,18
1176,27,26,29,18
1177,27,26,29,18
1178,26,27,29,18
1179,26,27,29,18
1180,26,27,29,18
1181,25,28,29,18
1182,25,28,29,18
1183,25,28,29,18
1184,25,28,29,18
1185,25,28,29,18
1186,24,29,29,18
1187,24,29,29,18
1188,24,29,29,18
1189,24,29,29,18
1190,24,29,29,18
1191,24,29,29,18
1192,24,29,29,18
1193,23,30,29,18
1194,22,31,29,18
1195,22,31,29,18
1196,22,31,29,18
1197,22,31,29,18
1198,22,31,29,18
1199,22,31,29,18
1200,22,31,29,18
1201,22,31,29,18
1202,22,31,29,18
1203,21,32,29,18
1204,21,32,29,18
1205,21,32,28,19
1206,21,32,28,19
1207,21,32,28,19
1208,21,32,28,19
1209,21,32,27,20
1210,20,33,27,20
1211,20,33,27,20
1212,20,33,27,20
1213,20,33,27,20
1214,20,33,27,20
1215,20,33,27,20
1216,20,33,27,20
1217,20,33,27,20
1218,20,33,27,20
1219,20,33,27,20
1220,20,33,27,20
1221,20,33,27,20
1222,20,33,27,20
1223,20,33,27,20
1224,20,33,27,20
1225,19,34,27,20
1226,19,34,27,20
1227,19,34,26,21
1228,19,34,26,21
1229,19,33,27,21
1230,19,31,28,22
1231,18,31,28,23
1232,18,30,29,23
1233,18,29,30,23
1234,18,29,29,24
1235,18,28,28,26
1236,18,28,27,27
1237,18,28,27,27
1238,18,28,27,27
1239,18,28,27,27
1240,18,28,27,27
1241,18,28,27,27
1242,18,28,27,27
1243,18,28,26,28
1244,18,27,27,28
1245,18,27,27,28
1246,18,27,26,29
1247,18,27,25,30
1248,18,27,25,30
1249,18,27,25,30
1250,18,26,26,30
1251,18,25,27,30
1252,17,25,28,30
1253,17,25,27,31
1254,17,25,27,31
1255,17,24,28,31
1256,17,24,28,31
1257,17,24,28,31
1258,17,24,28,31
1259,17,24,28,31
1260,17,24,27,32
1261,17,24,27,32
1262,17,23,26,34
1263,16,24,26,34
1264,16,22,27,35
1265,16,21,28,35
1266,16,20,29,35
1267,16,20,29,35
1268,16,20,29,35
1269,16,20,29,35
1270,16,20,29,35
1271,16,20,27,37
1272,16,20,27,37
1273,16,20,27,37
1274,16,20,26,38
1275,16,20,26,38
1276,16,19,27,38
1277,16,19,27,38
1278,16,19,27,38
1279,16,19,27,38
1280,16,19,27,38
1281,16,19,27,38
1282,16,19,26,39
1283,16,19,26,39
1284,16,19,26,39
1285,16,19,26,39
1286,16,19,26,39
1287,16,19,26,39
1288,16,19,26,39
1289,16,19,26,39
1290,16,18,27,39
1291,16,18,27,39
1292,16,18,27,39
1293,16,18,26,40
1294,16,18,26,40
1295,16,18,26,40
1296,15,18,27,40
1297,15,18,27,40
1298,14,19,27,40
1299,14,19,27,40
1300,14,19,27,40
1301,14,19,27,40
1302,14,19,27,40
1303,14,19,27,40
1304,14,19,27,40
1305,14,18,28,40
1306,14,18,28,40
1307,14,18,28,40
1308,14,18,27,41
1309,14,18,27,41
1310,14,18,27,41
1311,14,18,27,41
1312,14,17,28,41
1313,14,16,29,41
1314,14,16,29,41
1315,14,16,29,41
1316,14,16,29,41
1317,14,16,29,41
1318,14,16,28,42
1319,14,16,28,42
1320,14,16,27,43
1321,14,16,27,43
1322,14,16,27,43
1323,14,16,27,43
1324,14,16,27,43
1325,14,16,27,43
1326,14,16,27,43
1327,14,16,27,43
1328,14,16,27,43
1329,14,15,28,43
1330,14,15,28,43
1331,14,15,28,43
1332,14,15,28,43
1333,14,15,28,43
1334,14,15,28,43
1335,13,16,28,43
1336,13,16,28,43
1337,13,16,27,44
1338,13,16,27,44
1339,13,16,26,45
1340,13,16,26,45
1341,13,16,26,45
1342,13,16,26,45
1343,13,16,26,45
1344,13,15,27,45
1345,13,15,27,45
1346,13,15,27,45
1347,13,15,27,45
1348,13,15,27,45
1349,13,15,27,45
1350,13,15,27,45
1351,13,15,27,45
1352,13,15,27,45
1353,13,15,27,45
1354,13,15,25,47
1355,13,15,25,47
1356,13,15,25,47
1357,13,14,26,47
1358,13,14,26,47
1359,13,14,26,47
1360,13,14,26,47
1361,13,14,26,47
1362,13,14,26,47
1363,13,14,26,47
1364,13,14,26,47
1365,13,14,26,47
1366,13,14,26,47
1367,13,14,26,47
1368,13,14,26,47
1369,13,14,26,47
1370,13,14,26,47
1371,13,14,26,47
1372,13,14,26,47
1373,12,15,26,47
1374,12,15,26,47
1375,12,15,26,47
1376,12,15,26,47
1377,12,15,26,47
1378,12,15,26,47
1379,11,15,27,47
1380,11,15,27,47
1381,11,15,27,47
1382,11,14,28,47
1383,11,14,28,47
1384,11,14,28,47
1385,11,14,28,47
1386,11,14,28,47
1387,11,13,29,47
1388,11,13,29,47
1389,11,13,29,47
1390,11,13,29,47
1391,11,13,29,47
1392,11,13,29,47
1393,11,13,29,47
1394,11,12,30,47
1395,11,11,31,47
1396,11,11,31,47
1397,11,11,31,47
1398,11,11,31,47
1399,11,11,31,47
1400,11,11,31,47
1401,11,11,31,47
1402,11,11,31,47
1403,11,11,31,47
1404,11,10,32,47
1405,11,10,32,47
1406,11,10,32,47
1407,10,11,32,47
1408,10,11,32,47
1409,10,11,32,47
1410,10,11,32,47
1411,10,10,33,47
1412,10,10,33,47
1413,10,10,33,47
1414,10,10,33,47
1415,10,10,33,47
1416,10,10,33,47
1417,10,10,33,47
1418,10,10,33,47
1419,10,10,33,47
1420,10,10,33,47
1421,10,10,33,47
1422,10,10,33,47
1423,10,10,33,47
1424,10,10,33,47
1425,10,10,33,47
1426,10,9,34,47
1427,10,9,34,47
1428,10,9,34,47
1429,10,9,34,47
1430,10,9,33,48
1431,10,9,31,50
1432,10,8,31,51
1433,10,8,30,52
1434,10,8,29,53
1435,9,9,29,53
1436,9,9,28,54
1437,9,9,28,54
1438,9,9,28,54
1439,9,9,28,54
1440,9,9,28,54
1441,9,9,28,54
1442,9,9,28,54
1443,9,9,28,54
1444,9,9,28,54
1445,9,9,27,55
1446,9,9,27,55
1447,9,9,27,55
1448,9,9,27,55
1449,9,9,27,55
1450,9,9,27,55
1451,9,9,26,56
1452,9,9,25,57
1453,9,8,25,58
1454,9,8,25,58
1455,9,8,25,58
1456,9,8,24,59
1457,9,8,24,59
1458,9,8,24,59
1459,9,8,24,59
1460,9,8,24,59
1461,9,8,24,59
1462,9,8,24,59
1463,9,8,23,60
1464,9,7,24,60
1465,9,7,22,62
1466,9,7,21,63
1467,9,7,20,64
1468,9,7,20,64
1469,9,7,20,64
1470,9,7,20,64
1471,9,7,20,64
1472,9,7,20,64
1473,9,7,20,64
1474,9,7,20,64
1475,9,7,20,64
1476,9,7,20,64
1477,9,7,19,65
1478,9,7,19,65
1479,9,7,19,65
1480,9,7,19,65
1481,9,7,19,65
1482,9,7,19,65
1483,9,7,19,65
1484,9,7,19,65
1485,9,7,19,65
1486,9,7,19,65
1487,9,7,19,65
1488,9,7,19,65
1489,9,7,19,65
1490,9,7,19,65
1491,9,7,18,66
1492,9,7,18,66
1493,9,7,18,66
1494,9,7,18,66
1495,9,7,18,66
1496,9,7,18,66
1497,9,6,18,67
1498,9,6,18,67
1499,9,5,19,67
1500,9,5,19,67
1501,9,5,19,67
1502,9,5,19,67
1503,9,5,19,67
1504,9,5,19,67
1505,9,5,19,67
1506,9,5,18,68
1507,9,5,18,68
1508,9,5,18,68
1509,9,5,18,68
1510,9,5,18,68
1511,9,5,18,68
1512,7,7,18,68
1513,7,7,17,69
1514,7,7,16,70
1515,7,7,16,70
1516,7,7,16,70
1517,7,7,16,70
1518,7,7,16,70
1519,7,7,16,70
1520,7,7,16,70
1521,7,7,16,70
1522,7,7,16,70
1523,7,7,16,70
1524,7,7,16,70
1525,7,7,16,70
1526,7,7,16,70
1527,7,7,16,70
1528,7,7,16,70
1529,7,7,16,70
1530,7,7,15,71
1531,7,7,15,71
1532,7,7,15,71
1533,7,7,15,71
1534,7,7,15,71
1535,7,7,15,71
1536,7,6,16,71
1537,7,6,16,71
1538,7,6,16,71
1539,7,6,16,71
1540,7,6,16,71
1541,7,6,16,71
1542,7,6,16,71
1543,7,6,16,71
1544,7,6,16,71
1545,7,6,15,72
1546,7,6,15,72
1547,7,6,15,72
1548,7,6,15,72
1549,7,6,15,72
1550,7,6,15,72
1551,7,6,15,72
1552,7,6,15,72
1553,7,6,15,72
1554,7,6,15,72
1555,7,6,15,72
1556,7,6,15,72
1557,7,6,15,72
1558,7,6,14,73
1559,7,6,14,73
1560,7,6,14,73
1561,7,6,14,73
1562,7,6,14,73
1563,7,6,14,73
1564,7,6,14,73
1565,7,6,14,73
1566,7,6,14,73
1567,7,6,14,73
1568,7,6,14,73
1569,7,6,14,73
1570,7,6,14,73
1571,7,6,14,73
1572,7,6,14,73
1573,7,6,14,73
1574,7,5,15,73
1575,7,5,15,73
1576,7,5,15,73
1577,7,5,15,73
1578,7,5,15,73
1579,7,5,15,73
1580,7,4,15,74
1581,7,4,15,74
1582,7,4,15,74
1583,7,4,14,75
1584,7,4,14,75
1585,7,4,14,75
1586,7,4,14,75
1587,7,4,14,75
1588,7,4,13,76
1589,7,4,13,76
1590,7,4,13,76
1591,7,4,13,76
1592,7,4,13,76
1593,7,4,13,76
1594,7,4,13,76
1595,7,4,12,77
1596,7,4,11,78
1597,7,4,11,78
1598,7,4,11,78
1599,7,4,11,78
1600,7,4,11,78
1601,7,4,11,78
1602,7,4,11,78
1603,7,4,11,78
1604,7,4,11,78
1605,7,4,10,79
1606,7,4,10,79
1607,7,4,10,79
1608,7,3,11,79
1609,7,3,11,79
1610,6,4,11,79
1611,6,4,11,79
1612,6,4,10,80
1613,6,4,10,80
1614,6,4,10,80
1615,6,4,10,80
1616,6,4,10,80
1617,6,4,10,80
1618,6,4,10,80
1619,6,4,10,80
1620,6,4,10,80
1621,6,4,10,80
1622,6,4,10,80
1623,6,4,10,80
1624,6,4,10,80
1625,6,4,10,80
1626,6,4,10,80
1627,6,4,9,81
1628,6,4,9,81
1629,6,4,9,81
1630,6,4,9,81
1631,6,4,9,81
1632,6,4,9,81
1633,6,4,8,82
1634,6,4,8,82
1635,6,4,8,82
1636,6,3,9,82
1637,6,3,9,82
1638,6,3,9,82
1639,6,3,9,82
1640,6,3,9,82
1641,6,3,9,82
1642,6,3,9,82
1643,6,3,9,82
1644,6,3,9,82
1645,6,3,9,82
1646,6,3,9,82
1647,6,3,9,82
1648,6,3,9,82
1649,6,3,9,82
1650,6,3,9,82
1651,6,3,9,82
1652,6,3,9,82
1653,6,3,9,82
1654,6,3,8,83
1655,6,3,8,83
1656,6,3,8,83
1657,6,3,8,83
1658,6,3,8,83
1659,6,3,8,83
1660,6,3,8,83
1661,6,3,8,83
1662,6,3,8,83
1663,6,3,8,83
1664,6,3,8,83
1665,6,3,7,84
1666,6,3,7,84
1667,6,3,7,84
1668,6,3,7,84
1669,6,3,7,84
1670,6,3,7,84
1671,6,3,7,84
1672,6,3,7,84
1673,6,3,7,84
1674,6,3,7,84
1675,6,3,7,84
1676,6,3,7,84
1677,6,3,7,84
1678,6,3,7,84
1679,6,3,7,84
1680,6,3,7,84
1681,6,3,7,84
1682,6,3,7,84
1683,6,3,7,84
1684,6,3,7,84
1685,6,3,7,84
1686,6,3,7,84
1687,6,3,7,84
1688,6,3,7,84
1689,6,3,7,84
1690,6,3,7,84
1691,6,3,7,84
1692,6,3,7,84
1693,6,3,7,84
1694,6,3,7,84
1695,6,3,7,84
1696,6,3,7,84
1697,6,3,7,84
1698,6,3,6,85
1699,6,3,6,85
1700,6,3,5,86
1701,6,3,5,86
1702,6,3,5,86
1703,6,3,5,86
1704,6,3,5,86
1705,6,3,5,86
1706,6,3,5,86
1707,6,3,5,86
1708,6,3,5,86
1709,6,3,5,86
1710,6,3,5,86
1711,6,3,5,86
1712,6,3,5,86
1713,6,1,7,86
1714,6,1,7,86
1715,6,1,7,86
1716,6,1,7,86
1717,6,1,7,86
1718,6,1,7,86
1719,6,1,7,86
1720,6,1,7,86
1721,6,1,7,86
1722,6,1,7,86
1723,6,1,7,86
1724,6,1,7,86
1725,6,1,7,86
1726,6,1,7,86
1727,6,1,7,86
1728,6,1,7,86
1729,6,1,7,86
1730,6,1,7,86
1731,6,1,7,86
1732,6,1,7,86
1733,6,1,7,86
1734,6,1,7,86
1735,6,1,7,86
1736,6,1,7,86
1737,6,1,6,87
1738,6,1,6,87
1739,6,1,6,87
1740,6,1,6,87
1741,6,1,6,87
1742,6,1,6,87
1743,6,1,6,87
1744,6,1,6,87
1745,6,1,6,87
1746,6,1,6,87
1747,6,1,6,87
1748,6,1,6,87
1749,6,1,6,87
1750,6,1,6,87
1751,6,1,6,87
1752,6,1,6,87
1753,6,1,6,87
1754,6,1,6,87
1755,6,1,6,87
1756,6,1,6,87
1757,6,1,6,87
1758,6,1,6,87
1759,6,1,6,87
1760,6,1,6,87
1761,6,1,6,87
1762,6,1,6,87
1763,6,1,6,87
1764,6,1,6,87
1765,6,1,6,87
1766,6,1,6,87
1767,6,1,6,87
1768,6,1,6,87
1769,6,1,6,87
1770,6,1,6,87
1771,6,1,6,87
1772,6,1,6,87
1773,6,1,6,87
1774,6,1,6,87
1775,6,1,5,88
1776,6,1,5,88
1777,6,1,5,88
1778,6,1,5,88
1779,6,1,5,88
1780,6,1,5,88
1781,6,1,4,89
1782,6,1,4,89
1783,6,1,4,89
1784,6,1,4,89
1785,6,1,4,89
1786,6,1,4,89
1787,6,1,4,89
1788,6,1,4,89
1789,6,1,4,89
1790,6,1,4,89
1791,6,1,4,89
1792,6,1,4,89
1793,6,1,4,89
1794,6,1,4,89
1795,6,1,4,89
1796,6,1,4,89
1797,6,1,4,89
1798,6,1,4,89
1799,6,1,4,89
1800,6,1,4,89
1801,6,1,4,89
1802,6,1,4,89
1803,6,1,4,89
1804,6,1,4,89
1805,6,1,4,89
1806,6,1,4,89
1807,6,1,4,89
1808,6,1,4,89
1809,6,1,3,90
1810,6,1,3,90
1811,6,0,4,90
1812,6,0,4,90
1813,6,0,4,90
1814,6,0,4,90
1815,6,0,4,90
1816,6,0,4,90
1817,6,0,4,90
1818,6,0,4,90
1819,6,0,4,90
1820,6,0,4,90
1821,6,0,4,90
1822,6,0,4,90
1823,6,0,4,90
1824,6,0,4,90
1825,6,0,4,90
1826,6,0,4,90
1827,6,0,4,90
1828,6,0,4,90
1829,6,0,4,90
1830,6,0,4,90
1831,6,0,4,90
1832,6,0,4,90
1833,6,0,4,90
1834,6,0,4,90
1835,6,0,4,90
1836,6,0,4,90
1837,6,0,3,91
1838,6,0,3,91
1839,6,0,3,91
1840,6,0,3,91
1841,6,0,3,91
1842,6,0,3,91
1843,6,0,3,91
1844,6,0,3,91
1845,6,0,3,91
1846,6,0,3,91
1847,6,0,3,91
1848,6,0,3,91
1849,6,0,3,91
1850,6,0,3,91
1851,6,0,3,91
1852,6,0,3,91
1853,6,0,3,91
1854,6,0,3,91
1855,6,0,3,91
1856,6,0,3,91
1857,6,0,3,91
1858,6,0,3,91
1859,6,0,3,91
1860,6,0,3,91
1861,6,0,3,91
1862,6,0,3,91
1863,6,0,3,91
1864,6,0,3,91
1865,6,0,3,91
1866,6,0,3,91
1867,6,0,3,91
1868,6,0,3,91
1869,6,0,3,91
1870,6,0,3,91
1871,6,0,3,91
1872,6,0,3,91
1873,6,0,3,91
1874,6,0,3,91
1875,6,0,3,91
1876,6,0,3,91
1877,6,0,3,91
1878,6,0,3,91
1879,6,0,3,91
1880,6,0,3,91
1881,6,0,3,91
1882,6,0,3,91
1883,6,0,3,91
1884,6,0,3,91
1885,6,0,3,91
1886,6,0,3,91
1887,6,0,3,91
1888,6,0,3,91
1889,6,0,3,91
1890,6,0,3,91
1891,6,0,3,91
1892,6,0,3,91
1893,6,0,3,91
1894,6,0,3,91
1895,6,0,3,91
1896,6,0,3,91
1897,6,0,3,91
1898,6,0,3,91
1899,6,0,3,91
1900,5,1,3,91
1901,5,1,3,91
1902,5,1,3,91
1903,5,1,3,91
1904,5,1,3,91
1905,5,1,3,91
1906,5,1,3,91
1907,5,1,3,91
1908,5,1,3,91
1909,5,1,3,91
1910,5,1,3,91
1911,5,1,3,91
1912,5,1,3,91
1913,5,1,3,91
1914,5,1,1,93
1915,5,1,1,93
1916,5,1,1,93
1917,5,1,1,93
1918,5,1,1,93
1919,5,1,1,93
1920,5,1,1,93
1921,5,1,1,93
1922,5,1,1,93
1923,5,1,1,93
1924,5,1,1,93
1925,5,1,1,93
1926,5,1,1,93
1927,5,1,1,93
1928,5,1,1,93
1929,5,1,1,93
1930,5,1,1,93
1931,5,1,1,93
1932,5,1,1,93
1933,5,1,1,93
1934,5,1,1,93
1935,5,1,1,93
1936,5,1,1,93
1937,5,1,1,93
1938,5,1,1,93
1939,5,1,1,93
1940,5,1,1,93
1941,5,1,1,93
1942,5,1,1,93
1943,5,1,1,93
1944,5,1,1,93
1945,5,1,1,93
1946,5,1,1,93
1947,5,1,1,93
1948,5,1,1,93
1949,5,1,1,93
1950,5,1,1,93
1951,5,1,1,93
1952,5,1,1,93
1953,5,1,1,93
1954,5,1,1,93
1955,5,1,1,93
1956,5,1,1,93
1957,5,1,1,93
1958,5,1,1,93
1959,5,1,1,93
1960,5,1,1,93
1961,5,1,1,93
1962,5,1,1,93
1963,5,1,1,93
1964,5,1,1,93
1965,5,1,1,93
1966,5,1,1,93
1967,5,1,1,93
1968,5,1,1,93
1969,5,1,1,93
1970,5,1,1,93
1971,5,1,1,93
1972,5,1,1,93
1973,5,1,1,93
1974,5,1,1,93
1975,5,1,1,93
1976,5,1,1,93
1977,5,1,1,93
1978,5,1,1,93
1979,5,1,1,93
1980,5,1,1,93
1981,5,1,1,93
1982,5,1,1,93
1983,5,1,1,93
1984,5,1,1,93
1985,5,1,1,93
1986,5,1,1,93
1987,5,1,1,93
1988,5,1,1,93
1989,5,1,1,93
1990,5,1,1,93
1991,5,1,1,93
1992,5,1,1,93
1993,5,1,1,93
1994,5,1,1,93
1995,5,1,1,93
1996,5,1,1,93
1997,5,1,1,93
1998,5,1,1,93
1999,5,1,1,93
2000,5,1,1,93
