"tick","total"
0,0
1,1
2,1
3,1
4,1
5,1
6,1
7,1
8,1
9,1
10,1
11,1
12,1
13,1
14,1
15,1
16,1
17,1
18,1
19,1
20,1
21,1
22,1
23,1
24,1
25,1
26,1
27,1
28,1
29,1
30,1
31,1
32,1
33,1
34,1
35,1
36,1
37,1
38,1
39,1
40,1
41,1
42,1
43,1
44,1
45,1
46,1
47,1
48,1
49,1
50,1
51,1
52,1
53,1
54,1
55,1
56,1
57,1
58,1
59,1
60,1
61,1
62,1
63,1
64,1
65,1
66,1
67,1
68,1
69,1
70,1
71,1
72,1
73,1
74,1
75,1
76,1
77,1
78,1
79,1
80,1
81,1
82,1
83,1
84,1
85,1
86,1
87,1
88,1
89,1
90,1
91,1
92,1
93,1
94,1
95,1
96,1
97,1
98,1
99,1
100,1
101,1
102,1
103,1
104,1
105,1
106,1
107,1
108,1
109,1
110,1
111,1
112,1
113,1
114,1
115,1
116,1
117,1
118,1
119,1
120,1
121,1
122,1
123,1
124,1
125,1
126,1
127,1
128,1
129,1
130,1
131,1
132,1
133,1
134,1
135,1
136,1
137,1
138,1
139,1
140,1
141,1
142,1
143,1
144,1
145,1
146,1
147,1
148,1
149,1
150,1
151,1
152,1
153,1
154,1
155,1
156,1
157,1
158,1
159,1
160,1
161,1
162,1
163,1
164,1
165,1
166,1
167,1
168,1
169,1
170,1
171,1
172,1
173,1
174,1
175,1
176,1
177,1
178,1
179,1
180,1
181,1
182,1
183,1
184,1
185,1
186,1
187,1
188,1
189,1
190,1
191,1
192,1
193,1
194,1
195,1
196,1
197,1
198,1
199,1
200,1
201,1
202,1
203,1
204,1
205,1
206,1
207,1
208,1
209,1
210,2
211,2
212,2
213,2
214,2
215,2
216,2
217,2
218,2
219,2
220,2
221,2
222,2
223,2
224,2
225,2
226,2
227,2
228,2
229,2
230,2
231,2
232,2
233,3
234,3
235,3
236,3
237,3
238,3
239,3
240,3
241,3
242,3
243,3
244,3
245,3
246,3
247,3
248,3
249,3
250,3
251,3
252,4
253,5
254,5
255,5
256,5
257,6
258,6
259,6
260,6
261,6
262,7
263,7
264,7
265,7
266,7
267,7
268,7
269,7
270,8
271,8
272,8
273,8
274,8
275,8
276,8
277,8
278,9
279,9
280,9
281,9
282,9
283,9
284,9
285,9
286,10
287,11
288,11
289,11
290,11
291,11
292,11
293,11
294,11
295,11
296,11
297,11
298,11
299,11
300,11
301,11
302,13
303,13
304,14
305,14
306,14
307,14
308,14
309,14
310,14
311,14
312,14
313,15
314,15
315,15
316,15
317,15
318,16
319,16
320,16
321,16
322,16
323,16
324,16
325,16
326,16
327,17
328,17
329,17
330,17
331,17
332,17
333,18
334,18
335,19
336,19
337,19
338,19
339,19
340,19
341,20
342,20
343,20
344,20
345,20
346,20
347,20
348,20
349,20
350,20
351,20
352,21
353,22
354,22
355,22
356,22
357,22
358,22
359,22
360,23
361,23
362,23
363,23
364,24
365,24
366,24
367,24
368,24
369,24
370,24
371,24
372,24
373,24
374,24
375,24
376,24
377,24
378,25
379,25
380,25
381,25
382,25
383,25
384,25
385,25
386,25
387,25
388,26
389,27
390,27
391,27
392,27
393,27
394,27
395,27
396,27
397,27
398,27
399,27
400,27
401,27
402,27
403,27
404,27
405,27
406,27
407,27
408,27
409,27
410,27
411,27
412,27
413,27
414,27
415,27
416,27
417,27
418,27
419,27
420,27
421,27
422,27
423,27
424,27
425,27
426,27
427,27
428,27
429,27
430,27
431,27
432,27
433,27
434,27
435,27
436,27
437,27
438,27
439,27
440,27
441,27
442,27
443,27
444,27
445,27
446,27
447,27
448,27
449,27
450,28
451,28
452,28
453,28
454,28
455,28
456,28
457,28
458,28
459,28
460,28
461,28
462,28
463,28
464,28
465,28
466,28
467,28
468,28
469,28
470,28
471,28
472,28
473,28
474,28
475,28
476,28
477,29
478,29
479,29
480,29
481,29
482,29
483,29
484,29
485,29
486,29
487,29
488,29
489,29
490,29
491,29
492,29
493,29
494,29
495,29
496,29
497,29
498,29
499,29
500,29
501,29
502,29
503,29
504,29
505,29
506,29
507,29
508,29
509,29
510,29
511,29
512,29
513,29
514,29
515,29
516,29
517,30
518,30
519,30
520,30
521,30
522,30
523,30
524,30
525,30
526,30
527,30
528,30
529,30
530,30
531,30
532,30
533,30
534,30
535,30
536,30
537,30
538,30
539,30
540,30
541,30
542,30
543,30
544,30
545,30
546,31
547,32
548,32
549,32
550,32
551,32
552,32
553,32
554,32
555,32
556,32
557,32
558,32
559,32
560,32
561,32
562,32
563,32
564,32
565,32
566,32
567,32
568,32
569,32
570,32
571,32
572,32
573,32
574,32
575,32
576,32
577,32
578,32
579,32
580,32
581,32
582,32
583,32
584,33
585,33
586,34
587,34
588,34
589,34
590,35
591,36
592,36
593,36
594,36
595,36
596,36
597,36
598,36
599,36
600,36
601,36
602,36
603,36
604,36
605,36
606,36
607,36
608,36
609,36
610,36
611,36
612,36
613,36
614,36
615,36
616,36
617,36
618,36
619,36
620,36
621,36
622,36
623,36
624,36
625,36
626,36
627,36
628,36
629,36
630,36
631,36
632,36
633,36
634,36
635,36
636,36
637,36
638,36
639,36
640,36
641,36
642,36
643,36
644,36
645,36
646,36
647,36
648,36
649,36
650,36
651,36
652,36
653,36
654,36
655,36
656,36
657,36
658,36
659,36
660,36
661,36
662,36
663,36
664,36
665,36
666,36
667,36
668,36
669,36
670,36
671,37
672,37
673,37
674,37
675,37
676,37
677,37
678,37
679,37
680,37
681,37
682,37
683,37
684,37
685,37
686,38
687,38
688,38
689,38
690,38
691,38
692,38
693,39
694,39
695,39
696,39
697,39
698,39
699,39
700,39
701,39
702,39
703,39
704,39
705,39
706,39
707,39
708,39
709,39
710,39
711,39
712,39
713,39
714,39
715,39
716,39
717,39
718,39
719,39
720,39
721,39
722,39
723,40
724,40
725,40
726,40
727,40
728,40
729,40
730,40
731,41
732,41
733,41
734,41
735,41
736,41
737,41
738,41
739,41
740,41
741,41
742,41
743,41
744,41
745,41
746,41
747,41
748,41
749,41
750,42
751,42
752,42
753,42
754,42
755,42
756,42
757,42
758,42
759,42
760,42
761,43
762,43
763,43
764,43
765,43
766,43
767,43
768,43
769,43
770,43
771,43
772,43
773,43
774,43
775,43
776,43
777,43
778,43
779,43
780,43
781,43
782,43
783,43
784,43
785,43
786,43
787,43
788,43
789,43
790,44
791,44
792,44
793,44
794,44
795,44
796,44
797,44
798,44
799,44
800,44
801,45
802,45
803,45
804,45
805,45
806,45
807,45
808,45
809,45
810,45
811,45
812,45
813,45
814,45
815,46
816,46
817,46
818,46
819,46
820,46
821,46
822,46
823,46
824,46
825,46
826,46
827,46
828,46
829,47
830,47
831,47
832,47
833,47
834,47
835,47
836,47
837,47
838,47
839,47
840,47
841,47
842,47
843,48
844,48
845,48
846,48
847,48
848,49
849,49
850,49
851,49
852,49
853,49
854,49
855,49
856,49
857,49
858,49
859,49
860,49
861,49
862,49
863,49
864,49
865,49
866,49
867,49
868,49
869,49
870,50
871,50
872,50
873,50
874,50
875,50
876,50
877,50
878,50
879,50
880,50
881,50
882,50
883,50
884,50
885,50
886,50
887,50
888,50
889,50
890,50
891,50
892,50
893,50
894,50
895,50
896,50
897,50
898,50
899,50
900,50
901,50
902,50
903,50
904,50
905,50
906,50
907,50
908,50
909,50
910,50
911,50
912,50
913,50
914,50
915,50
916,50
917,50
918,50
919,50
920,50
921,50
922,50
923,50
924,50
925,50
926,50
927,50
928,50
929,50
930,50
931,50
932,50
933,50
934,50
935,50
936,50
937,51
938,51
939,51
940,51
941,51
942,51
943,51
944,51
945,51
946,51
947,51
948,51
949,51
950,51
951,51
952,51
953,51
954,51
955,51
956,51
957,51
958,51
959,51
960,51
961,51
962,51
963,51
964,51
965,51
966,51
967,51
968,51
969,51
970,51
971,51
972,51
973,51
974,51
975,51
976,51
977,51
978,51
979,51
980,51
981,51
982,51
983,52
984,52
985,52
986,52
987,52
988,52
989,52
990,52
991,52
992,52
993,52
994,52
995,52
996,52
997,52
998,52
999,52
1000,52
1001,52
1002,52
1003,52
1004,52
1005,52
1006,52
1007,52
1008,52
1009,52
1010,52
1011,52
1012,52
1013,52
1014,53
1015,53
1016,53
1017,53
1018,53
1019,53
1020,53
1021,53
1022,53
1023,53
1024,53
1025,53
1026,53
1027,53
1028,53
1029,53
1030,53
1031,53
1032,53
1033,53
1034,53
1035,53
1036,53
1037,53
1038,53
1039,53
1040,53
1041,53
1042,53
1043,53
1044,53
1045,53
1046,53
1047,53
1048,53
1049,53
1050,54
1051,54
1052,54
1053,54
1054,54
1055,54
1056,54
1057,54
1058,54
1059,54
1060,54
1061,54
1062,54
1063,54
1064,54
1065,54
1066,54
1067,54
1068,54
1069,54
1070,54
1071,54
1072,54
1073,54
1074,54
1075,54
1076,54
1077,54
1078,54
1079,54
1080,54
1081,54
1082,54
1083,54
1084,54
1085,54
1086,54
1087,54
1088,54
1089,54
1090,54
1091,54
1092,54
1093,54
1094,54
1095,54
1096,54
1097,54
1098,54
1099,54
1100,54
1101,54
1102,54
1103,54
1104,54
1105,54
1106,54
1107,54
1108,54
1109,54
1110,54
1111,54
1112,54
1113,54
1114,54
1115,54
1116,54
1117,54
1118,54
1119,54
1120,54
1121,55
1122,55
1123,55
1124,55
1125,55
1126,55
1127,55
1128,55
1129,55
1130,55
1131,55
1132,55
1133,55
1134,55
1135,55
1136,55
1137,55
1138,55
1139,55
1140,55
1141,55
1142,55
1143,55
1144,55
1145,55
1146,55
1147,55
1148,55
1149,55
1150,55
1151,55
1152,55
1153,55
1154,55
1155,55
1156,55
1157,55
1158,55
1159,55
1160,55
1161,55
1162,55
1163,55
1164,55
1165,55
1166,55
1167,55
1168,55
1169,55
1170,55
1171,55
1172,55
1173,55
1174,56
1175,56
1176,56
1177,56
1178,56
1179,56
1180,56
1181,56
1182,56
1183,56
1184,56
1185,56
1186,56
1187,56
1188,56
1189,56
1190,56
1191,56
1192,56
1193,56
1194,56
1195,56
1196,56
1197,56
1198,56
1199,56
1200,56
1201,56
1202,56
1203,56
1204,56
1205,56
1206,56
1207,56
1208,56
1209,56
1210,56
1211,56
1212,56
1213,56
1214,57
1215,57
1216,57
1217,57
1218,57
1219,57
1220,57
1221,57
1222,57
1223,57
1224,57
1225,57
1226,57
1227,57
1228,57
1229,57
1230,57
1231,57
1232,57
1233,57
1234,57
1235,57
1236,58
1237,58
1238,58
1239,58
1240,58
1241,58
1242,58
1243,58
1244,58
1245,58
1246,58
1247,58
1248,58
1249,58
1250,58
1251,58
1252,58
1253,58
1254,58
1255,58
1256,58
1257,58
1258,58
1259,58
1260,58
1261,58
1262,58
1263,58
1264,58
1265,58
1266,58
1267,58
1268,58
1269,58
1270,58
1271,58
1272,58
1273,58
1274,58
1275,58
1276,58
1277,58
1278,58
1279,58
1280,58
1281,58
1282,58
1283,58
1284,58
1285,58
1286,58
1287,58
1288,58
1289,58
1290,58
1291,58
1292,58
1293,58
1294,58
1295,59
1296,59
1297,59
1298,59
1299,60
1300,60
1301,60
1302,60
1303,60
1304,60
1305,61
1306,61
1307,61
1308,61
1309,61
1310,61
1311,62
1312,62
1313,62
1314,62
1315,62
1316,62
1317,62
1318,62
1319,62
1320,62
1321,62
1322,62
1323,62
1324,62
1325,62
1326,62
1327,62
1328,62
1329,62
1330,62
1331,62
1332,62
1333,62
1334,62
1335,62
1336,62
1337,63
1338,63
1339,63
1340,63
1341,63
1342,63
1343,63
1344,63
1345,63
1346,63
1347,63
1348,63
1349,63
1350,63
1351,63
1352,63
1353,63
1354,63
1355,63
1356,63
1357,63
1358,63
1359,63
1360,63
1361,63
1362,63
1363,63
1364,63
1365,63
1366,63
1367,63
1368,63
1369,63
1370,63
1371,63
1372,63
1373,63
1374,63
1375,63
1376,63
1377,63
1378,63
1379,63
1380,63
1381,63
1382,63
1383,63
1384,63
1385,63
1386,63
1387,63
1388,63
1389,63
1390,63
1391,63
1392,63
1393,63
1394,63
1395,63
1396,63
1397,63
1398,63
1399,63
1400,63
1401,63
1402,63
1403,63
1404,63
1405,63
1406,63
1407,63
1408,63
1409,63
1410,63
1411,63
1412,63
1413,63
1414,63
1415,63
1416,63
1417,63
1418,63
1419,63
1420,63
1421,63
1422,63
1423,63
1424,63
1425,63
1426,63
1427,63
1428,63
1429,63
1430,63
1431,63
1432,63
1433,63
1434,63
1435,63
1436,63
1437,63
1438,63
1439,63
1440,63
1441,63
1442,63
1443,63
1444,63
1445,63
1446,63
1447,63
1448,63
1449,63
1450,63
1451,63
1452,63
1453,63
1454,63
1455,63
1456,63
1457,63
1458,64
1459,64
1460,64
1461,64
1462,64
1463,64
1464,64
1465,64
1466,64
1467,64
1468,64
1469,64
1470,64
1471,65
1472,65
1473,65
1474,65
1475,65
1476,65
1477,65
1478,65
1479,65
1480,65
1481,65
1482,65
1483,65
1484,65
1485,65
1486,65
1487,65
1488,65
1489,65
1490,65
1491,65
1492,65
1493,65
1494,65
1495,65
1496,65
1497,65
1498,65
1499,65
1500,65
1501,65
1502,65
1503,65
1504,65
1505,66
1506,66
1507,66
1508,66
1509,66
1510,66
1511,66
1512,66
1513,66
1514,66
1515,66
1516,66
1517,66
1518,66
1519,66
1520,66
1521,66
1522,66
1523,66
1524,67
1525,67
1526,67
1527,67
1528,67
1529,67
1530,68
1531,68
1532,68
1533,68
1534,68
1535,68
1536,68
1537,68
1538,68
1539,69
1540,69
1541,69
1542,69
1543,69
1544,69
1545,69
1546,69
1547,69
1548,69
1549,69
1550,69
1551,69
1552,69
1553,69
1554,69
1555,69
1556,69
1557,69
1558,69
1559,69
1560,69
1561,69
1562,69
1563,69
1564,69
1565,69
1566,69
1567,69
1568,69
1569,69
1570,69
1571,69
1572,69
1573,69
1574,69
1575,69
1576,69
1577,70
1578,70
1579,70
1580,70
1581,70
1582,70
1583,70
1584,70
1585,70
1586,70
1587,70
1588,70
1589,70
1590,70
1591,70
1592,70
1593,70
1594,70
1595,70
1596,70
1597,70
1598,70
1599,70
1600,71
1601,71
1602,71
1603,71
1604,71
1605,71
1606,71
1607,71
1608,71
1609,72
1610,72
1611,72
1612,72
1613,72
1614,72
1615,72
1616,72
1617,72
1618,72
1619,72
1620,72
1621,72
1622,73
1623,73
1624,73
1625,73
1626,73
1627,73
1628,73
1629,73
1630,73
1631,73
1632,73
1633,74
1634,74
1635,75
1636,75
1637,75
1638,75
1639,75
1640,75
1641,75
1642,75
1643,75
1644,75
1645,75
1646,75
1647,75
1648,75
1649,75
1650,75
1651,75
1652,75
1653,75
1654,75
1655,75
1656,75
1657,75
1658,75
1659,75
1660,75
1661,75
1662,75
1663,75
1664,75
1665,75
1666,75
1667,75
1668,75
1669,75
1670,75
1671,75
1672,75
1673,75
1674,75
1675,75
1676,75
1677,75
1678,75
1679,75
1680,75
1681,75
1682,75
1683,75
1684,75
1685,76
1686,76
1687,76
1688,76
1689,76
1690,76
1691,76
1692,76
1693,76
1694,76
1695,76
1696,76
1697,76
1698,76
1699,76
1700,76
1701,76
1702,76
1703,76
1704,77
1705,77
1706,77
1707,77
1708,77
1709,77
1710,77
1711,77
1712,77
1713,77
1714,77
1715,77
1716,77
1717,77
1718,77
1719,77
1720,77
1721,77
1722,77
1723,77
1724,77
1725,77
1726,77
1727,78
1728,78
1729,78
1730,78
1731,78
1732,78
1733,79
1734,79
1735,79
1736,79
1737,79
1738,79
1739,79
1740,79
1741,79
1742,79
1743,79
1744,79
1745,80
1746,80
1747,80
1748,80
1749,80
1750,80
1751,80
1752,80
1753,80
1754,80
1755,80
1756,80
1757,80
1758,80
1759,80
1760,80
1761,80
1762,80
1763,80
1764,80
1765,80
1766,80
1767,80
1768,80
1769,80
1770,80
1771,80
1772,80
1773,80
1774,80
1775,80
1776,80
1777,80
1778,80
1779,80
1780,80
1781,80
1782,80
1783,80
1784,80
1785,80
1786,80
1787,80
1788,80
1789,80
1790,80
1791,80
1792,80
1793,80
1794,80
1795,80
1796,80
1797,80
1798,80
1799,80
1800,80
1801,80
1802,80
1803,80
1804,80
1805,80
1806,80
1807,80
1808,80
1809,80
1810,80
1811,80
1812,80
1813,80
1814,81
1815,81
1816,81
1817,81
1818,81
1819,81
1820,81
1821,81
1822,81
1823,81
1824,81
1825,81
1826,81
1827,81
1828,81
1829,81
1830,81
1831,81
1832,81
1833,81
1834,81
1835,81
1836,81
1837,81
1838,81
1839,81
1840,81
1841,81
1842,81
1843,81
1844,81
1845,82
1846,82
1847,83
1848,83
1849,83
1850,83
1851,83
1852,83
1853,83
1854,83
1855,83
1856,83
1857,83
1858,83
1859,83
1860,83
1861,83
1862,83
1863,83
1864,83
1865,83
1866,83
1867,83
1868,83
1869,83
1870,84
1871,84
1872,84
1873,84
1874,84
1875,84
1876,84
1877,84
1878,84
1879,84
1880,84
1881,85
1882,85
1883,85
1884,85
1885,85
1886,85
1887,85
1888,85
1889,85
1890,85
1891,85
1892,85
1893,85
1894,85
1895,85
1896,85
1897,86
1898,86
1899,86
1900,86
1901,86
1902,86
1903,86
1904,86
1905,86
1906,86
1907,87
1908,87
1909,87
1910,87
1911,87
1912,87
1913,88
1914,88
1915,88
1916,88
1917,88
1918,88
1919,88
1920,88
1921,88
1922,88
1923,88
1924,88
1925,88
1926,88
1927,88
1928,88
1929,88
1930,88
1931,88
1932,88
1933,88
1934,88
1935,88
1936,88
1937,88
1938,88
1939,88
1940,88
1941,88
1942,88
1943,88
1944,88
1945,88
1946,88
1947,88
1948,88
1949,88
1950,88
1951,88
1952,88
1953,88
1954,88
1955,88
1956,88
1957,88
1958,88
1959,88
1960,88
1961,88
1962,88
1963,88
1964,88
1965,88
1966,88
1967,90
1968,90
1969,90
1970,90
1971,90
1972,90
1973,90
1974,90
1975,90
1976,90
1977,90
1978,90
1979,90
1980,90
1981,90
1982,90
1983,90
1984,90
1985,90
1986,90
1987,90
1988,90
1989,90
1990,90
1991,90
1992,90
1993,90
1994,90
1995,90
1996,90
1997,90
1998,90
1999,90
2000,90
