"tick","total"
0,0
1,0
2,0
3,0
4,0
5,0
6,0
7,0
8,0
9,0
10,0
11,0
12,0
13,0
14,0
15,0
16,0
17,0
18,0
19,0
20,0
21,0
22,0
23,0
24,0
25,0
26,0
27,0
28,0
29,0
30,0
31,0
32,0
33,0
34,0
35,0
36,0
37,0
38,0
39,0
40,0
41,0
42,0
43,0
44,0
45,0
46,0
47,0
48,0
49,0
50,0
51,0
52,0
53,0
54,0
55,0
56,0
57,0
58,0
59,0
60,0
61,0
62,0
63,0
64,0
65,0
66,0
67,0
68,0
69,0
70,0
71,0
72,0
73,0
74,0
75,0
76,0
77,0
78,0
79,0
80,0
81,0
82,0
83,0
84,0
85,0
86,0
87,0
88,0
89,0
90,0
91,0
92,0
93,0
94,0
95,0
96,0
97,0
98,0
99,0
100,0
101,0
102,0
103,0
104,0
105,0
106,0
107,0
108,0
109,0
110,0
111,0
112,0
113,0
114,0
115,0
116,0
117,0
118,0
119,0
120,0
121,0
122,0
123,0
124,0
125,0
126,0
127,0
128,0
129,0
130,0
131,0
132,0
133,0
134,0
135,0
136,0
137,0
138,0
139,0
140,0
141,0
142,0
143,0
144,0
145,0
146,0
147,0
148,0
149,0
150,0
151,0
152,0
153,0
154,0
155,0
156,0
157,0
158,0
159,0
160,0
161,0
162,0
163,0
164,0
165,0
166,0
167,0
168,0
169,0
170,0
171,0
172,0
173,0
174,0
175,0
176,0
177,0
178,0
179,0
180,0
181,0
182,0
183,0
184,0
185,0
186,0
187,0
188,0
189,0
190,0
191,0
192,0
193,0
194,0
195,0
196,0
197,0
198,0
199,0
200,0
201,0
202,0
203,0
204,0
205,0
206,0
207,0
208,0
209,0
210,0
211,0
212,0
213,0
214,0
215,0
216,0
217,0
218,0
219,0
220,0
221,0
222,0
223,0
224,0
225,0
226,0
227,0
228,1
229,1
230,1
231,1
232,1
233,1
234,1
235,1
236,1
237,1
238,1
239,1
240,1
241,1
242,1
243,1
244,1
245,1
246,1
247,1
248,1
249,1
250,1
251,1
252,1
253,1
254,1
255,1
256,1
257,1
258,1
259,1
260,1
261,1
262,2
263,2
264,2
265,2
266,2
267,2
268,3
269,3
270,3
271,3
272,3
273,3
274,3
275,3
276,3
277,3
278,3
279,3
280,4
281,5
282,5
283,5
284,5
285,5
286,5
287,5
288,5
289,5
290,5
291,5
292,5
293,5
294,5
295,5
296,5
297,7
298,7
299,7
300,7
301,7
302,7
303,7
304,7
305,8
306,8
307,8
308,8
309,8
310,8
311,8
312,8
313,8
314,8
315,8
316,8
317,8
318,8
319,8
320,8
321,8
322,10
323,11
324,11
325,11
326,11
327,11
328,11
329,11
330,12
331,13
332,13
333,13
334,13
335,13
336,13
337,13
338,13
339,13
340,13
341,14
342,14
343,14
344,15
345,15
346,16
347,17
348,17
349,17
350,17
351,17
352,17
353,18
354,18
355,18
356,18
357,18
358,18
359,18
360,18
361,18
362,18
363,18
364,18
365,18
366,18
367,18
368,18
369,19
370,19
371,19
372,19
373,19
374,19
375,19
376,21
377,21
378,21
379,21
380,21
381,21
382,21
383,21
384,21
385,21
386,21
387,21
388,21
389,21
390,21
391,21
392,23
393,23
394,23
395,23
396,23
397,23
398,24
399,24
400,24
401,24
402,24
403,24
404,24
405,24
406,24
407,24
408,24
409,24
410,24
411,24
412,24
413,24
414,25
415,25
416,25
417,25
418,25
419,26
420,26
421,26
422,26
423,26
424,26
425,26
426,26
427,26
428,27
429,27
430,27
431,27
432,27
433,27
434,27
435,27
436,27
437,27
438,27
439,27
440,27
441,27
442,27
443,27
444,27
445,27
446,27
447,27
448,27
449,27
450,27
451,27
452,27
453,27
454,27
455,27
456,27
457,27
458,28
459,28
460,29
461,29
462,29
463,29
464,29
465,29
466,29
467,29
468,29
469,29
470,29
471,29
472,29
473,30
474,30
475,31
476,31
477,31
478,31
479,31
480,31
481,31
482,31
483,31
484,31
485,31
486,31
487,31
488,31
489,31
490,31
491,31
492,31
493,31
494,31
495,31
496,31
497,31
498,31
499,31
500,31
501,31
502,31
503,31
504,31
505,31
506,31
507,31
508,31
509,31
510,31
511,31
512,31
513,31
514,31
515,31
516,31
517,31
518,31
519,31
520,31
521,31
522,31
523,31
524,31
525,31
526,31
527,31
528,31
529,31
530,31
531,31
532,31
533,31
534,31
535,31
536,31
537,31
538,31
539,32
540,32
541,32
542,32
543,32
544,32
545,32
546,32
547,32
548,32
549,32
550,32
551,32
552,32
553,32
554,32
555,32
556,32
557,32
558,32
559,32
560,32
561,32
562,32
563,32
564,32
565,32
566,32
567,32
568,32
569,32
570,32
571,32
572,32
573,32
574,32
575,32
576,32
577,32
578,33
579,33
580,33
581,33
582,33
583,33
584,33
585,33
586,33
587,33
588,33
589,33
590,33
591,33
592,33
593,33
594,33
595,33
596,33
597,33
598,33
599,33
600,34
601,34
602,34
603,34
604,34
605,34
606,34
607,34
608,34
609,34
610,34
611,34
612,34
613,35
614,36
615,36
616,36
617,36
618,36
619,36
620,36
621,36
622,36
623,36
624,36
625,36
626,36
627,36
628,36
629,36
630,36
631,36
632,36
633,37
634,38
635,38
636,38
637,38
638,39
639,39
640,39
641,39
642,39
643,39
644,39
645,39
646,40
647,40
648,40
649,40
650,40
651,40
652,41
653,41
654,42
655,42
656,42
657,42
658,42
659,42
660,42
661,42
662,42
663,42
664,42
665,42
666,42
667,42
668,42
669,42
670,42
671,42
672,42
673,42
674,42
675,42
676,43
677,43
678,43
679,43
680,43
681,43
682,43
683,44
684,44
685,44
686,44
687,44
688,44
689,45
690,45
691,45
692,45
693,45
694,45
695,45
696,45
697,45
698,45
699,46
700,46
701,46
702,47
703,47
704,47
705,47
706,47
707,47
708,47
709,47
710,47
711,47
712,47
713,47
714,47
715,47
716,47
717,47
718,47
719,47
720,47
721,47
722,47
723,47
724,48
725,48
726,48
727,48
728,48
729,48
730,48
731,48
732,48
733,48
734,48
735,48
736,48
737,48
738,48
739,48
740,48
741,48
742,48
743,48
744,48
745,48
746,48
747,48
748,48
749,48
750,48
751,48
752,48
753,48
754,48
755,48
756,48
757,48
758,48
759,48
760,48
761,48
762,48
763,48
764,48
765,48
766,48
767,48
768,48
769,48
770,48
771,48
772,48
773,48
774,48
775,48
776,48
777,48
778,48
779,48
780,48
781,48
782,48
783,48
784,49
785,49
786,49
787,49
788,49
789,49
790,49
791,49
792,49
793,49
794,49
795,49
796,49
797,49
798,49
799,49
800,49
801,49
802,49
803,50
804,50
805,50
806,50
807,50
808,50
809,50
810,50
811,50
812,50
813,50
814,50
815,50
816,50
817,50
818,50
819,50
820,50
821,50
822,50
823,50
824,50
825,50
826,50
827,50
828,50
829,50
830,50
831,50
832,50
833,50
834,50
835,50
836,50
837,50
838,50
839,50
840,50
841,50
842,50
843,51
844,51
845,51
846,51
847,51
848,51
849,51
850,51
851,51
852,51
853,51
854,51
855,51
856,51
857,51
858,51
859,51
860,51
861,51
862,51
863,51
864,51
865,51
866,51
867,51
868,51
869,51
870,51
871,51
872,51
873,51
874,51
875,51
876,51
877,51
878,51
879,51
880,51
881,51
882,52
883,52
884,53
885,53
886,53
887,53
888,53
889,53
890,53
891,53
892,53
893,53
894,53
895,53
896,53
897,53
898,53
899,53
900,53
901,53
902,53
903,53
904,53
905,53
906,53
907,53
908,53
909,53
910,53
911,53
912,53
913,53
914,54
915,54
916,54
917,54
918,54
919,54
920,54
921,54
922,54
923,54
924,54
925,54
926,54
927,54
928,54
929,54
930,54
931,54
932,54
933,54
934,54
935,54
936,54
937,54
938,54
939,54
940,54
941,54
942,54
943,54
944,54
945,54
946,54
947,54
948,54
949,54
950,54
951,54
952,54
953,54
954,54
955,54
956,54
957,54
958,54
959,54
960,54
961,54
962,54
963,54
964,54
965,54
966,55
967,55
968,55
969,55
970,55
971,55
972,55
973,55
974,55
975,55
976,55
977,55
978,55
979,55
980,55
981,55
982,55
983,55
984,55
985,55
986,55
987,55
988,55
989,55
990,55
991,55
992,56
993,57
994,57
995,57
996,57
997,57
998,57
999,57
1000,57
1001,57
1002,57
1003,57
1004,57
1005,57
1006,57
1007,57
1008,57
1009,57
1010,57
1011,57
1012,57
1013,57
1014,57
1015,57
1016,57
1017,57
1018,57
1019,57
1020,57
1021,57
1022,57
1023,57
1024,57
1025,57
1026,57
1027,57
1028,57
1029,57
1030,57
1031,57
1032,57
1033,57
1034,57
1035,57
1036,57
1037,57
1038,57
1039,57
1040,57
1041,57
1042,57
1043,57
1044,57
1045,57
1046,57
1047,57
1048,57
1049,57
1050,57
1051,57
1052,57
1053,57
1054,57
1055,57
1056,57
1057,57
1058,57
1059,57
1060,57
1061,58
1062,58
1063,58
1064,58
1065,58
1066,58
1067,58
1068,58
1069,58
1070,58
1071,58
1072,58
1073,58
1074,58
1075,58
1076,58
1077,58
1078,58
1079,58
1080,58
1081,58
1082,58
1083,58
1084,58
1085,59
1086,59
1087,59
1088,59
1089,59
1090,59
1091,59
1092,59
1093,59
1094,59
1095,59
1096,59
1097,59
1098,59
1099,59
1100,59
1101,59
1102,59
1103,59
1104,59
1105,60
1106,60
1107,60
1108,60
1109,60
1110,60
1111,60
1112,60
1113,60
1114,60
1115,60
1116,60
1117,60
1118,60
1119,60
1120,60
1121,60
1122,60
1123,60
1124,60
1125,60
1126,60
1127,60
1128,60
1129,60
1130,60
1131,60
1132,60
1133,60
1134,60
1135,60
1136,60
1137,60
1138,60
1139,60
1140,60
1141,60
1142,60
1143,60
1144,60
1145,60
1146,60
1147,60
1148,60
1149,60
1150,60
1151,60
1152,60
1153,60
1154,60
1155,60
1156,60
1157,60
1158,60
1159,60
1160,60
1161,60
1162,60
1163,60
1164,60
1165,60
1166,60
1167,60
1168,60
1169,60
1170,60
1171,60
1172,60
1173,60
1174,60
1175,60
1176,60
1177,61
1178,61
1179,61
1180,61
1181,61
1182,61
1183,61
1184,61
1185,61
1186,61
1187,61
1188,61
1189,61
1190,61
1191,61
1192,61
1193,61
1194,61
1195,61
1196,61
1197,61
1198,61
1199,61
1200,61
1201,61
1202,61
1203,61
1204,61
1205,61
1206,61
1207,61
1208,61
1209,61
1210,61
1211,61
1212,61
1213,61
1214,61
1215,61
1216,61
1217,61
1218,61
1219,61
1220,61
1221,61
1222,61
1223,61
1224,61
1225,61
1226,61
1227,61
1228,61
1229,61
1230,61
1231,61
1232,61
1233,61
1234,61
1235,61
1236,61
1237,61
1238,61
1239,61
1240,61
1241,61
1242,61
1243,61
1244,61
1245,61
1246,61
1247,61
1248,61
1249,61
1250,62
1251,62
1252,62
1253,62
1254,62
1255,62
1256,62
1257,62
1258,62
1259,62
1260,62
1261,62
1262,62
1263,62
1264,62
1265,62
1266,62
1267,62
1268,62
1269,62
1270,62
1271,62
1272,62
1273,62
1274,62
1275,62
1276,62
1277,62
1278,62
1279,62
1280,62
1281,62
1282,62
1283,62
1284,62
1285,62
1286,62
1287,62
1288,62
1289,62
1290,62
1291,62
1292,62
1293,62
1294,62
1295,62
1296,62
1297,62
1298,62
1299,62
1300,62
1301,62
1302,62
1303,62
1304,62
1305,62
1306,63
1307,63
1308,63
1309,63
1310,63
1311,63
1312,64
1313,64
1314,64
1315,64
1316,64
1317,64
1318,64
1319,65
1320,65
1321,65
1322,65
1323,66
1324,66
1325,66
1326,66
1327,66
1328,66
1329,66
1330,66
1331,66
1332,66
1333,66
1334,66
1335,66
1336,66
1337,66
1338,66
1339,66
1340,66
1341,66
1342,66
1343,67
1344,67
1345,67
1346,67
1347,67
1348,67
1349,67
1350,67
1351,67
1352,67
1353,67
1354,67
1355,67
1356,67
1357,67
1358,67
1359,67
1360,67
1361,67
1362,67
1363,67
1364,68
1365,68
1366,68
1367,68
1368,68
1369,68
1370,68
1371,68
1372,68
1373,68
1374,68
1375,68
1376,68
1377,68
1378,68
1379,68
1380,68
1381,68
1382,68
1383,68
1384,68
1385,68
1386,68
1387,68
1388,68
1389,68
1390,68
1391,68
1392,69
1393,69
1394,69
1395,69
1396,69
1397,69
1398,69
1399,69
1400,69
1401,69
1402,69
1403,69
1404,69
1405,69
1406,69
1407,69
1408,69
1409,69
1410,69
1411,69
1412,69
1413,69
1414,70
1415,70
1416,70
1417,70
1418,70
1419,70
1420,70
1421,70
1422,71
1423,71
1424,71
1425,71
1426,71
1427,71
1428,71
1429,71
1430,71
1431,72
1432,72
1433,72
1434,72
1435,72
1436,72
1437,72
1438,72
1439,72
1440,72
1441,72
1442,72
1443,72
1444,72
1445,72
1446,72
1447,72
1448,72
1449,72
1450,72
1451,72
1452,72
1453,72
1454,72
1455,72
1456,72
1457,72
1458,72
1459,72
1460,72
1461,72
1462,72
1463,72
1464,72
1465,72
1466,72
1467,72
1468,72
1469,72
1470,72
1471,72
1472,72
1473,72
1474,72
1475,72
1476,72
1477,72
1478,72
1479,72
1480,73
1481,73
1482,73
1483,73
1484,73
1485,73
1486,73
1487,73
1488,73
1489,73
1490,73
1491,73
1492,73
1493,73
1494,73
1495,73
1496,73
1497,73
1498,73
1499,73
1500,74
1501,74
1502,74
1503,74
1504,74
1505,75
1506,75
1507,75
1508,75
1509,75
1510,75
1511,75
1512,75
1513,75
1514,75
1515,75
1516,75
1517,75
1518,75
1519,75
1520,75
1521,75
1522,75
1523,75
1524,75
1525,75
1526,75
1527,75
1528,75
1529,75
1530,75
1531,75
1532,75
1533,75
1534,75
1535,75
1536,75
1537,75
1538,75
1539,75
1540,75
1541,75
1542,75
1543,75
1544,75
1545,75
1546,76
1547,76
1548,76
1549,76
1550,76
1551,76
1552,76
1553,76
1554,77
1555,77
1556,78
1557,78
1558,78
1559,78
1560,78
1561,78
1562,78
1563,78
1564,78
1565,78
1566,78
1567,78
1568,78
1569,78
1570,78
1571,78
1572,78
1573,78
1574,78
1575,78
1576,78
1577,78
1578,78
1579,78
1580,78
1581,78
1582,78
1583,78
1584,78
1585,78
1586,78
1587,78
1588,78
1589,78
1590,78
1591,78
1592,78
1593,78
1594,78
1595,78
1596,78
1597,79
1598,79
1599,79
1600,79
1601,79
1602,79
1603,79
1604,79
1605,79
1606,79
1607,79
1608,79
1609,79
1610,79
1611,79
1612,79
1613,79
1614,79
1615,79
1616,79
1617,79
1618,80
1619,80
1620,80
1621,80
1622,80
1623,80
1624,80
1625,80
1626,80
1627,80
1628,80
1629,80
1630,80
1631,80
1632,80
1633,80
1634,80
1635,80
1636,80
1637,80
1638,80
1639,80
1640,80
1641,80
1642,80
1643,80
1644,80
1645,80
1646,80
1647,80
1648,80
1649,80
1650,80
1651,81
1652,81
1653,81
1654,82
1655,82
1656,82
1657,82
1658,82
1659,82
1660,82
1661,82
1662,82
1663,82
1664,82
1665,82
1666,82
1667,82
1668,82
1669,82
1670,82
1671,82
1672,82
1673,82
1674,82
1675,82
1676,82
1677,82
1678,82
1679,82
1680,82
1681,82
1682,82
1683,82
1684,82
1685,82
1686,82
1687,82
1688,82
1689,82
1690,82
1691,82
1692,82
1693,82
1694,83
1695,83
1696,83
1697,83
1698,83
1699,83
1700,83
1701,83
1702,83
1703,83
1704,83
1705,83
1706,83
1707,83
1708,83
1709,83
1710,83
1711,83
1712,83
1713,83
1714,83
1715,83
1716,83
1717,83
1718,83
1719,83
1720,83
1721,83
1722,83
1723,83
1724,83
1725,83
1726,83
1727,83
1728,83
1729,83
1730,83
1731,83
1732,83
1733,83
1734,83
1735,83
1736,83
1737,83
1738,83
1739,83
1740,83
1741,83
1742,83
1743,83
1744,83
1745,83
1746,83
1747,83
1748,83
1749,83
1750,83
1751,83
1752,83
1753,83
1754,83
1755,83
1756,83
1757,83
1758,83
1759,83
1760,83
1761,83
1762,83
1763,83
1764,83
1765,83
1766,83
1767,83
1768,83
1769,83
1770,83
1771,83
1772,83
1773,83
1774,83
1775,83
1776,83
1777,83
1778,84
1779,84
1780,84
1781,84
1782,84
1783,84
1784,84
1785,84
1786,84
1787,84
1788,84
1789,84
1790,84
1791,84
1792,84
1793,84
1794,84
1795,84
1796,84
1797,86
1798,86
1799,86
1800,86
1801,86
1802,86
1803,86
1804,86
1805,86
1806,86
1807,86
1808,86
1809,86
1810,86
1811,86
1812,86
1813,86
1814,86
1815,86
1816,86
1817,87
1818,87
1819,87
1820,87
1821,87
1822,87
1823,87
1824,87
1825,87
1826,87
1827,87
1828,87
1829,87
1830,87
1831,87
1832,88
1833,88
1834,88
1835,88
1836,89
1837,89
1838,89
1839,89
1840,89
1841,89
1842,89
1843,89
1844,90
1845,90
1846,90
1847,90
1848,90
1849,90
1850,90
1851,90
1852,90
1853,90
1854,90
1855,90
1856,90
1857,91
1858,91
1859,91
1860,91
1861,91
1862,91
1863,91
1864,91
1865,91
1866,91
1867,91
1868,91
1869,91
1870,91
1871,91
1872,91
1873,91
1874,91
1875,91
1876,91
1877,91
1878,91
1879,91
1880,91
1881,91
1882,91
1883,91
1884,91
1885,91
1886,91
1887,91
1888,91
1889,91
1890,91
1891,91
1892,91
1893,91
1894,91
1895,91
1896,91
1897,91
1898,91
1899,91
1900,91
1901,92
1902,92
1903,92
1904,92
1905,92
1906,92
1907,92
1908,92
1909,92
1910,92
1911,92
1912,92
1913,93
1914,93
1915,93
1916,94
1917,94
1918,94
1919,94
1920,94
1921,94
1922,94
1923,94
1924,94
1925,95
1926,95
1927,95
1928,95
1929,95
1930,95
1931,95
1932,95
1933,95
1934,95
1935,95
1936,95
1937,95
1938,95
1939,95
1940,95
1941,95
1942,95
1943,95
1944,95
1945,95
1946,95
1947,95
1948,95
1949,95
1950,95
1951,95
1952,95
1953,95
1954,95
1955,95
1956,95
1957,96
1958,96
1959,96
1960,97
1961,97
1962,97
1963,97
1964,97
1965,97
1966,97
1967,97
1968,97
1969,97
1970,99
1971,99
1972,99
1973,99
1974,99
1975,99
1976,99
1977,99
1978,99
1979,99
1980,99
1981,99
1982,99
1983,99
1984,99
1985,99
1986,99
1987,99
1988,99
1989,99
1990,99
1991,99
1992,99
1993,99
1994,99
1995,99
1996,99
1997,99
1998,99
1999,99
2000,99
