"tick","total"
0,0
1,0
2,0
3,0
4,0
5,0
6,0
7,0
8,0
9,0
10,0
11,0
12,0
13,0
14,0
15,0
16,0
17,0
18,0
19,0
20,0
21,0
22,0
23,0
24,0
25,0
26,0
27,0
28,0
29,0
30,0
31,0
32,0
33,0
34,0
35,0
36,0
37,0
38,0
39,0
40,0
41,0
42,0
43,0
44,0
45,0
46,0
47,0
48,0
49,0
50,0
51,0
52,0
53,0
54,0
55,0
56,0
57,0
58,0
59,0
60,0
61,0
62,0
63,0
64,0
65,0
66,0
67,0
68,0
69,0
70,0
71,0
72,0
73,0
74,0
75,0
76,0
77,0
78,0
79,0
80,0
81,0
82,0
83,0
84,0
85,0
86,0
87,0
88,0
89,0
90,0
91,0
92,0
93,0
94,0
95,0
96,0
97,0
98,0
99,0
100,0
101,0
102,0
103,0
104,0
105,0
106,0
107,0
108,0
109,0
110,0
111,0
112,0
113,0
114,0
115,0
116,0
117,0
118,0
119,0
120,0
121,0
122,0
123,0
124,0
125,0
126,0
127,0
128,0
129,0
130,0
131,0
132,0
133,0
134,0
135,0
136,0
137,0
138,0
139,0
140,0
141,0
142,0
143,0
144,0
145,0
146,0
147,0
148,0
149,0
150,0
151,0
152,0
153,0
154,0
155,0
156,0
157,0
158,0
159,0
160,0
161,0
162,0
163,0
164,0
165,0
166,0
167,0
168,0
169,0
170,0
171,0
172,0
173,0
174,0
175,0
176,0
177,0
178,0
179,0
180,0
181,0
182,0
183,0
184,0
185,0
186,0
187,0
188,0
189,0
190,0
191,0
192,0
193,0
194,0
195,0
196,0
197,0
198,0
199,0
200,0
201,0
202,0
203,0
204,0
205,0
206,0
207,1
208,1
209,1
210,1
211,1
212,1
213,1
214,1
215,1
216,1
217,1
218,1
219,1
220,2
221,2
222,2
223,2
224,2
225,2
226,2
227,2
228,2
229,2
230,2
231,2
232,2
233,2
234,2
235,2
236,2
237,3
238,3
239,3
240,3
241,4
242,4
243,5
244,5
245,5
246,5
247,5
248,5
249,6
250,6
251,6
252,6
253,6
254,6
255,6
256,7
257,7
258,7
259,7
260,7
261,7
262,7
263,7
264,7
265,8
266,8
267,8
268,8
269,8
270,8
271,8
272,8
273,8
274,8
275,8
276,8
277,8
278,8
279,8
280,9
281,9
282,9
283,9
284,9
285,9
286,9
287,9
288,9
289,9
290,9
291,9
292,9
293,9
294,9
295,9
296,9
297,9
298,9
299,9
300,9
301,9
302,9
303,9
304,9
305,9
306,9
307,9
308,9
309,9
310,9
311,9
312,9
313,10
314,10
315,10
316,10
317,10
318,10
319,10
320,10
321,10
322,10
323,10
324,10
325,10
326,10
327,10
328,10
329,10
330,10
331,10
332,10
333,10
334,10
335,10
336,10
337,10
338,10
339,10
340,10
341,10
342,10
343,10
344,10
345,10
346,10
347,10
348,10
349,10
350,10
351,11
352,11
353,11
354,11
355,11
356,11
357,12
358,12
359,12
360,13
361,13
362,13
363,13
364,13
365,13
366,13
367,13
368,13
369,13
370,13
371,13
372,13
373,13
374,13
375,13
376,13
377,13
378,13
379,13
380,13
381,13
382,14
383,14
384,14
385,14
386,14
387,14
388,14
389,14
390,14
391,14
392,14
393,14
394,14
395,14
396,15
397,15
398,15
399,15
400,15
401,15
402,15
403,15
404,15
405,15
406,15
407,15
408,15
409,16
410,16
411,16
412,16
413,16
414,17
415,17
416,17
417,17
418,17
419,17
420,17
421,17
422,17
423,17
424,18
425,18
426,18
427,18
428,18
429,18
430,18
431,18
432,18
433,18
434,18
435,18
436,18
437,18
438,18
439,18
440,18
441,18
442,18
443,19
444,19
445,19
446,19
447,19
448,19
449,19
450,19
451,20
452,21
453,21
454,21
455,21
456,21
457,21
458,21
459,21
460,21
461,21
462,21
463,22
464,22
465,23
466,23
467,23
468,23
469,23
470,23
471,23
472,23
473,23
474,23
475,23
476,23
477,23
478,23
479,23
480,24
481,24
482,24
483,24
484,24
485,24
486,24
487,24
488,24
489,24
490,24
491,24
492,24
493,25
494,25
495,25
496,25
497,25
498,25
499,25
500,25
501,25
502,25
503,25
504,25
505,25
506,25
507,25
508,25
509,25
510,25
511,25
512,25
513,25
514,25
515,25
516,25
517,25
518,25
519,25
520,25
521,25
522,25
523,26
524,26
525,26
526,26
527,26
528,26
529,26
530,26
531,26
532,26
533,26
534,26
535,26
536,26
537,26
538,26
539,26
540,26
541,26
542,26
543,26
544,26
545,26
546,26
547,26
548,26
549,26
550,26
551,26
552,26
553,26
554,26
555,26
556,26
557,26
558,26
559,26
560,26
561,26
562,26
563,26
564,26
565,27
566,27
567,27
568,27
569,27
570,27
571,27
572,27
573,27
574,27
575,27
576,27
577,27
578,27
579,27
580,27
581,27
582,27
583,27
584,27
585,27
586,27
587,27
588,27
589,27
590,27
591,27
592,27
593,27
594,27
595,27
596,27
597,27
598,27
599,27
600,27
601,27
602,27
603,27
604,27
605,27
606,27
607,27
608,27
609,27
610,27
611,27
612,27
613,27
614,27
615,27
616,27
617,27
618,27
619,27
620,27
621,27
622,27
623,27
624,27
625,27
626,27
627,27
628,27
629,27
630,27
631,27
632,27
633,27
634,27
635,27
636,27
637,27
638,27
639,27
640,27
641,27
642,27
643,27
644,27
645,27
646,27
647,27
648,27
649,27
650,27
651,27
652,27
653,27
654,27
655,27
656,27
657,27
658,27
659,27
660,27
661,27
662,27
663,27
664,27
665,27
666,27
667,27
668,27
669,27
670,27
671,27
672,27
673,27
674,27
675,27
676,27
677,27
678,27
679,27
680,27
681,27
682,27
683,27
684,27
685,27
686,27
687,27
688,27
689,27
690,27
691,27
692,27
693,27
694,27
695,27
696,27
697,27
698,27
699,27
700,27
701,27
702,27
703,27
704,27
705,27
706,27
707,27
708,27
709,27
710,27
711,27
712,27
713,27
714,27
715,27
716,27
717,27
718,27
719,27
720,27
721,27
722,27
723,27
724,27
725,27
726,27
727,28
728,28
729,28
730,28
731,28
732,28
733,28
734,28
735,28
736,28
737,28
738,28
739,28
740,28
741,28
742,28
743,28
744,28
745,28
746,28
747,28
748,28
749,28
750,28
751,28
752,28
753,28
754,28
755,28
756,28
757,28
758,28
759,28
760,28
761,28
762,28
763,28
764,29
765,29
766,29
767,29
768,29
769,29
770,29
771,29
772,29
773,29
774,29
775,29
776,29
777,29
778,29
779,29
780,29
781,29
782,29
783,29
784,29
785,29
786,29
787,29
788,29
789,29
790,29
791,29
792,29
793,29
794,29
795,29
796,29
797,29
798,29
799,29
800,29
801,29
802,29
803,29
804,29
805,29
806,29
807,29
808,29
809,29
810,29
811,29
812,29
813,29
814,29
815,29
816,29
817,29
818,29
819,29
820,29
821,29
822,29
823,29
824,29
825,29
826,29
827,29
828,29
829,29
830,29
831,29
832,29
833,29
834,29
835,29
836,29
837,29
838,29
839,29
840,29
841,29
842,29
843,29
844,29
845,29
846,29
847,29
848,29
849,29
850,29
851,29
852,29
853,29
854,29
855,29
856,29
857,30
858,30
859,30
860,30
861,30
862,30
863,30
864,30
865,30
866,30
867,30
868,30
869,30
870,30
871,30
872,30
873,30
874,30
875,30
876,30
877,30
878,30
879,30
880,30
881,30
882,30
883,30
884,30
885,30
886,30
887,30
888,30
889,30
890,30
891,30
892,30
893,30
894,30
895,30
896,30
897,30
898,30
899,30
900,30
901,30
902,30
903,30
904,30
905,30
906,30
907,30
908,30
909,30
910,30
911,30
912,30
913,30
914,30
915,30
916,30
917,30
918,30
919,30
920,30
921,30
922,30
923,30
924,30
925,30
926,30
927,30
928,30
929,30
930,30
931,30
932,30
933,30
934,30
935,31
936,31
937,31
938,31
939,31
940,31
941,31
942,31
943,31
944,31
945,32
946,32
947,32
948,32
949,32
950,32
951,32
952,32
953,32
954,32
955,33
956,33
957,33
958,33
959,33
960,33
961,33
962,33
963,33
964,33
965,33
966,33
967,33
968,33
969,33
970,33
971,33
972,33
973,33
974,33
975,33
976,33
977,33
978,33
979,33
980,33
981,33
982,33
983,33
984,33
985,33
986,33
987,33
988,33
989,33
990,33
991,33
992,33
993,33
994,33
995,33
996,33
997,33
998,33
999,33
1000,33
1001,33
1002,33
1003,34
1004,34
1005,34
1006,34
1007,34
1008,34
1009,34
1010,34
1011,34
1012,34
1013,34
1014,34
1015,34
1016,34
1017,34
1018,34
1019,34
1020,34
1021,34
1022,34
1023,34
1024,34
1025,34
1026,34
1027,34
1028,34
1029,34
1030,34
1031,34
1032,34
1033,34
1034,34
1035,34
1036,34
1037,34
1038,34
1039,34
1040,35
1041,35
1042,35
1043,35
1044,35
1045,35
1046,35
1047,35
1048,35
1049,35
1050,35
1051,35
1052,35
1053,35
1054,35
1055,35
1056,35
1057,35
1058,35
1059,35
1060,35
1061,35
1062,35
1063,35
1064,35
1065,35
1066,35
1067,35
1068,35
1069,35
1070,35
1071,35
1072,35
1073,35
1074,35
1075,35
1076,35
1077,35
1078,35
1079,35
1080,35
1081,35
1082,35
1083,35
1084,35
1085,35
1086,35
1087,35
1088,35
1089,35
1090,35
1091,35
1092,35
1093,35
1094,35
1095,35
1096,35
1097,35
1098,35
1099,35
1100,35
1101,35
1102,35
1103,35
1104,35
1105,35
1106,35
1107,35
1108,35
1109,36
1110,36
1111,36
1112,36
1113,36
1114,36
1115,36
1116,36
1117,36
1118,36
1119,36
1120,36
1121,36
1122,36
1123,36
1124,36
1125,36
1126,36
1127,36
1128,36
1129,36
1130,37
1131,37
1132,37
1133,37
1134,37
1135,37
1136,37
1137,37
1138,37
1139,37
1140,37
1141,37
1142,37
1143,37
1144,37
1145,37
1146,37
1147,37
1148,37
1149,37
1150,37
1151,37
1152,37
1153,37
1154,37
1155,37
1156,37
1157,37
1158,37
1159,37
1160,37
1161,37
1162,37
1163,37
1164,37
1165,37
1166,37
1167,37
1168,37
1169,37
1170,37
1171,37
1172,37
1173,37
1174,37
1175,37
1176,37
1177,37
1178,37
1179,37
1180,37
1181,37
1182,37
1183,37
1184,37
1185,37
1186,37
1187,37
1188,37
1189,37
1190,37
1191,37
1192,37
1193,37
1194,37
1195,37
1196,37
1197,37
1198,37
1199,37
1200,37
1201,37
1202,37
1203,37
1204,37
1205,37
1206,37
1207,37
1208,37
1209,37
1210,37
1211,37
1212,37
1213,37
1214,37
1215,37
1216,37
1217,37
1218,37
1219,37
1220,37
1221,37
1222,37
1223,37
1224,37
1225,37
1226,37
1227,37
1228,37
1229,37
1230,37
1231,37
1232,38
1233,38
1234,38
1235,39
1236,39
1237,39
1238,39
1239,39
1240,39
1241,39
1242,39
1243,39
1244,39
1245,39
1246,39
1247,39
1248,40
1249,40
1250,40
1251,41
1252,41
1253,41
1254,41
1255,41
1256,41
1257,41
1258,41
1259,41
1260,41
1261,41
1262,41
1263,41
1264,41
1265,41
1266,41
1267,41
1268,41
1269,41
1270,41
1271,41
1272,41
1273,41
1274,41
1275,41
1276,41
1277,41
1278,41
1279,41
1280,41
1281,41
1282,41
1283,41
1284,41
1285,41
1286,41
1287,41
1288,41
1289,41
1290,41
1291,41
1292,41
1293,41
1294,41
1295,41
1296,41
1297,41
1298,41
1299,41
1300,41
1301,41
1302,41
1303,41
1304,41
1305,41
1306,41
1307,42
1308,42
1309,42
1310,42
1311,42
1312,43
1313,43
1314,43
1315,43
1316,43
1317,43
1318,43
1319,43
1320,44
1321,44
1322,44
1323,44
1324,44
1325,44
1326,44
1327,44
1328,45
1329,45
1330,46
1331,46
1332,46
1333,46
1334,46
1335,46
1336,46
1337,46
1338,46
1339,46
1340,46
1341,46
1342,46
1343,46
1344,46
1345,46
1346,46
1347,46
1348,46
1349,46
1350,46
1351,46
1352,46
1353,46
1354,46
1355,46
1356,46
1357,46
1358,47
1359,47
1360,47
1361,47
1362,47
1363,47
1364,47
1365,47
1366,47
1367,47
1368,47
1369,47
1370,47
1371,47
1372,47
1373,47
1374,48
1375,48
1376,48
1377,48
1378,48
1379,50
1380,51
1381,51
1382,51
1383,51
1384,51
1385,52
1386,52
1387,52
1388,52
1389,52
1390,52
1391,52
1392,52
1393,52
1394,52
1395,52
1396,52
1397,52
1398,52
1399,52
1400,53
1401,53
1402,53
1403,53
1404,53
1405,53
1406,53
1407,53
1408,53
1409,53
1410,53
1411,53
1412,53
1413,53
1414,53
1415,53
1416,54
1417,54
1418,54
1419,54
1420,55
1421,55
1422,56
1423,56
1424,56
1425,56
1426,56
1427,56
1428,56
1429,56
1430,56
1431,56
1432,56
1433,56
1434,56
1435,56
1436,56
1437,56
1438,56
1439,56
1440,56
1441,56
1442,56
1443,56
1444,56
1445,56
1446,56
1447,56
1448,56
1449,56
1450,56
1451,56
1452,57
1453,57
1454,57
1455,57
1456,57
1457,57
1458,57
1459,57
1460,57
1461,57
1462,57
1463,57
1464,57
1465,57
1466,57
1467,57
1468,57
1469,57
1470,57
1471,57
1472,57
1473,57
1474,57
1475,57
1476,57
1477,57
1478,57
1479,57
1480,57
1481,57
1482,57
1483,57
1484,57
1485,57
1486,57
1487,57
1488,57
1489,57
1490,57
1491,57
1492,57
1493,57
1494,57
1495,57
1496,57
1497,57
1498,57
1499,57
1500,57
1501,57
1502,57
1503,57
1504,58
1505,58
1506,58
1507,58
1508,59
1509,59
1510,59
1511,59
1512,59
1513,59
1514,59
1515,59
1516,59
1517,59
1518,59
1519,59
1520,59
1521,59
1522,59
1523,59
1524,59
1525,59
1526,59
1527,59
1528,59
1529,59
1530,59
1531,59
1532,59
1533,59
1534,59
1535,59
1536,59
1537,59
1538,59
1539,59
1540,59
1541,59
1542,59
1543,59
1544,59
1545,59
1546,59
1547,59
1548,59
1549,59
1550,59
1551,59
1552,59
1553,59
1554,59
1555,59
1556,59
1557,59
1558,60
1559,60
1560,60
1561,60
1562,61
1563,61
1564,61
1565,61
1566,61
1567,61
1568,61
1569,61
1570,61
1571,61
1572,61
1573,61
1574,61
1575,61
1576,61
1577,61
1578,61
1579,61
1580,61
1581,61
1582,61
1583,61
1584,61
1585,61
1586,61
1587,61
1588,61
1589,61
1590,61
1591,62
1592,63
1593,63
1594,63
1595,63
1596,63
1597,63
1598,64
1599,64
1600,64
1601,64
1602,64
1603,64
1604,64
1605,64
1606,64
1607,64
1608,64
1609,64
1610,64
1611,64
1612,64
1613,64
1614,64
1615,64
1616,64
1617,64
1618,64
1619,64
1620,64
1621,64
1622,64
1623,64
1624,64
1625,64
1626,64
1627,64
1628,64
1629,64
1630,64
1631,64
1632,64
1633,64
1634,65
1635,65
1636,65
1637,65
1638,65
1639,65
1640,65
1641,65
1642,65
1643,65
1644,65
1645,65
1646,65
1647,65
1648,65
1649,65
1650,65
1651,65
1652,65
1653,65
1654,65
1655,65
1656,65
1657,65
1658,65
1659,65
1660,65
1661,65
1662,65
1663,65
1664,65
1665,65
1666,65
1667,65
1668,65
1669,65
1670,65
1671,65
1672,65
1673,65
1674,65
1675,65
1676,65
1677,65
1678,66
1679,66
1680,66
1681,66
1682,66
1683,66
1684,66
1685,66
1686,66
1687,67
1688,67
1689,67
1690,67
1691,67
1692,67
1693,67
1694,67
1695,67
1696,68
1697,68
1698,68
1699,68
1700,68
1701,68
1702,68
1703,68
1704,68
1705,68
1706,68
1707,68
1708,68
1709,68
1710,68
1711,68
1712,68
1713,68
1714,68
1715,68
1716,68
1717,68
1718,68
1719,68
1720,68
1721,68
1722,68
1723,68
1724,68
1725,68
1726,68
1727,68
1728,69
1729,69
1730,69
1731,69
1732,69
1733,69
1734,69
1735,69
1736,69
1737,69
1738,69
1739,69
1740,69
1741,69
1742,69
1743,69
1744,69
1745,70
1746,70
1747,70
1748,70
1749,70
1750,70
1751,70
1752,70
1753,70
1754,70
1755,70
1756,70
1757,71
1758,72
1759,72
1760,72
1761,72
1762,72
1763,72
1764,72
1765,72
1766,72
1767,72
1768,73
1769,73
1770,74
1771,74
1772,74
1773,74
1774,74
1775,74
1776,74
1777,74
1778,74
1779,74
1780,74
1781,74
1782,74
1783,74
1784,74
1785,74
1786,74
1787,74
1788,74
1789,74
1790,74
1791,74
1792,74
1793,74
1794,74
1795,74
1796,74
1797,74
1798,75
1799,75
1800,75
1801,75
1802,75
1803,75
1804,75
1805,75
1806,76
1807,76
1808,77
1809,77
1810,77
1811,77
1812,77
1813,77
1814,77
1815,77
1816,77
1817,77
1818,77
1819,77
1820,77
1821,77
1822,77
1823,77
1824,78
1825,78
1826,78
1827,78
1828,78
1829,78
1830,78
1831,78
1832,78
1833,78
1834,78
1835,78
1836,78
1837,78
1838,78
1839,78
1840,79
1841,79
1842,79
1843,79
1844,79
1845,79
1846,79
1847,79
1848,79
1849,79
1850,80
1851,80
1852,80
1853,80
1854,80
1855,80
1856,80
1857,80
1858,80
1859,80
1860,80
1861,81
1862,81
1863,81
1864,81
1865,81
1866,81
1867,81
1868,82
1869,82
1870,82
1871,82
1872,82
1873,82
1874,82
1875,82
1876,83
1877,83
1878,83
1879,83
1880,83
1881,83
1882,83
1883,83
1884,83
1885,83
1886,83
1887,83
1888,83
1889,83
1890,84
1891,84
1892,84
1893,84
1894,84
1895,84
1896,84
1897,85
1898,85
1899,86
1900,86
1901,86
1902,86
1903,86
1904,86
1905,86
1906,86
1907,86
1908,86
1909,86
1910,86
1911,86
1912,86
1913,86
1914,86
1915,86
1916,86
1917,86
1918,86
1919,86
1920,86
1921,86
1922,86
1923,86
1924,86
1925,86
1926,86
1927,86
1928,86
1929,86
1930,86
1931,86
1932,86
1933,86
1934,86
1935,86
1936,86
1937,86
1938,86
1939,86
1940,86
1941,86
1942,87
1943,87
1944,87
1945,87
1946,87
1947,87
1948,87
1949,87
1950,87
1951,87
1952,87
1953,87
1954,87
1955,87
1956,87
1957,87
1958,87
1959,88
1960,88
1961,88
1962,88
1963,88
1964,88
1965,89
1966,89
1967,89
1968,89
1969,89
1970,89
1971,89
1972,89
1973,90
1974,91
1975,91
1976,91
1977,91
1978,91
1979,91
1980,91
1981,91
1982,91
1983,92
1984,92
1985,92
1986,92
1987,92
1988,92
1989,92
1990,92
1991,92
1992,92
1993,92
1994,92
1995,92
1996,92
1997,92
1998,92
1999,92
2000,92
