"tick","total"
0,0
1,0
2,0
3,0
4,0
5,0
6,0
7,0
8,0
9,0
10,0
11,0
12,0
13,0
14,0
15,0
16,0
17,0
18,0
19,0
20,0
21,0
22,0
23,0
24,0
25,0
26,0
27,0
28,0
29,0
30,0
31,0
32,0
33,0
34,0
35,0
36,0
37,0
38,0
39,0
40,0
41,0
42,0
43,0
44,0
45,0
46,0
47,0
48,0
49,0
50,0
51,0
52,0
53,0
54,0
55,0
56,0
57,0
58,0
59,0
60,0
61,0
62,0
63,0
64,0
65,0
66,0
67,0
68,0
69,0
70,0
71,0
72,0
73,0
74,0
75,0
76,0
77,0
78,0
79,0
80,0
81,0
82,0
83,0
84,0
85,0
86,0
87,0
88,0
89,0
90,0
91,0
92,0
93,0
94,0
95,0
96,0
97,0
98,0
99,0
100,0
101,0
102,0
103,0
104,0
105,0
106,0
107,0
108,0
109,0
110,0
111,0
112,0
113,0
114,0
115,0
116,0
117,0
118,0
119,0
120,0
121,0
122,0
123,0
124,0
125,0
126,0
127,0
128,0
129,0
130,0
131,0
132,0
133,0
134,0
135,0
136,0
137,0
138,0
139,0
140,0
141,0
142,0
143,0
144,0
145,0
146,0
147,0
148,0
149,0
150,0
151,0
152,0
153,0
154,0
155,0
156,0
157,0
158,0
159,0
160,0
161,0
162,0
163,0
164,0
165,0
166,0
167,0
168,0
169,0
170,0
171,0
172,0
173,0
174,0
175,0
176,0
177,0
178,0
179,0
180,0
181,0
182,0
183,0
184,0
185,0
186,0
187,0
188,0
189,0
190,0
191,0
192,0
193,0
194,0
195,0
196,0
197,0
198,0
199,0
200,0
201,0
202,0
203,1
204,1
205,1
206,1
207,1
208,1
209,1
210,1
211,1
212,1
213,1
214,2
215,2
216,2
217,2
218,2
219,2
220,2
221,2
222,2
223,2
224,2
225,2
226,2
227,2
228,2
229,2
230,2
231,3
232,4
233,4
234,4
235,4
236,4
237,4
238,4
239,4
240,4
241,4
242,5
243,5
244,5
245,5
246,5
247,5
248,5
249,5
250,5
251,5
252,5
253,5
254,5
255,5
256,5
257,5
258,5
259,6
260,6
261,6
262,6
263,6
264,6
265,6
266,6
267,6
268,6
269,6
270,6
271,6
272,7
273,7
274,7
275,7
276,7
277,7
278,7
279,7
280,8
281,8
282,8
283,8
284,8
285,8
286,8
287,8
288,8
289,8
290,8
291,8
292,9
293,9
294,9
295,10
296,10
297,10
298,11
299,11
300,11
301,11
302,12
303,13
304,13
305,13
306,13
307,13
308,13
309,13
310,13
311,13
312,13
313,13
314,13
315,13
316,14
317,14
318,14
319,14
320,14
321,14
322,14
323,14
324,14
325,14
326,14
327,14
328,14
329,15
330,15
331,15
332,15
333,15
334,15
335,15
336,15
337,15
338,15
339,15
340,15
341,15
342,16
343,16
344,16
345,16
346,16
347,16
348,16
349,16
350,16
351,16
352,16
353,16
354,16
355,16
356,16
357,17
358,18
359,18
360,18
361,18
362,18
363,18
364,18
365,18
366,18
367,18
368,19
369,19
370,19
371,19
372,19
373,19
374,19
375,19
376,19
377,19
378,19
379,19
380,19
381,19
382,19
383,19
384,19
385,20
386,20
387,20
388,21
389,21
390,21
391,21
392,21
393,21
394,21
395,21
396,22
397,22
398,23
399,23
400,24
401,25
402,25
403,25
404,25
405,25
406,25
407,25
408,25
409,25
410,25
411,25
412,25
413,25
414,25
415,25
416,25
417,25
418,25
419,25
420,25
421,25
422,25
423,26
424,26
425,26
426,26
427,26
428,26
429,26
430,27
431,28
432,28
433,28
434,28
435,28
436,28
437,28
438,28
439,28
440,28
441,28
442,28
443,28
444,28
445,28
446,28
447,28
448,29
449,29
450,29
451,29
452,29
453,29
454,29
455,29
456,29
457,29
458,29
459,29
460,29
461,29
462,29
463,29
464,29
465,29
466,29
467,29
468,29
469,29
470,29
471,29
472,29
473,29
474,29
475,29
476,29
477,30
478,30
479,30
480,30
481,30
482,30
483,30
484,30
485,30
486,30
487,30
488,30
489,30
490,30
491,30
492,30
493,30
494,30
495,30
496,30
497,30
498,30
499,30
500,30
501,30
502,30
503,30
504,30
505,31
506,31
507,31
508,31
509,31
510,31
511,31
512,31
513,31
514,32
515,32
516,32
517,32
518,32
519,32
520,32
521,32
522,32
523,32
524,32
525,32
526,32
527,32
528,32
529,32
530,32
531,32
532,33
533,33
534,33
535,33
536,33
537,33
538,33
539,33
540,33
541,33
542,33
543,33
544,33
545,33
546,33
547,33
548,33
549,33
550,33
551,33
552,33
553,33
554,33
555,33
556,33
557,33
558,33
559,33
560,33
561,33
562,33
563,33
564,33
565,33
566,33
567,33
568,33
569,34
570,34
571,34
572,34
573,34
574,34
575,34
576,34
577,34
578,34
579,35
580,35
581,35
582,35
583,35
584,35
585,35
586,35
587,35
588,35
589,35
590,35
591,35
592,35
593,35
594,35
595,35
596,35
597,35
598,35
599,35
600,35
601,35
602,35
603,35
604,35
605,35
606,35
607,35
608,35
609,36
610,36
611,36
612,36
613,36
614,36
615,36
616,37
617,37
618,37
619,37
620,37
621,37
622,37
623,37
624,37
625,37
626,37
627,37
628,37
629,37
630,37
631,37
632,37
633,37
634,38
635,38
636,38
637,38
638,38
639,38
640,38
641,38
642,38
643,38
644,38
645,38
646,38
647,38
648,38
649,38
650,38
651,38
652,38
653,38
654,38
655,38
656,38
657,38
658,38
659,38
660,39
661,39
662,39
663,39
664,39
665,39
666,39
667,39
668,39
669,39
670,39
671,39
672,39
673,40
674,40
675,40
676,40
677,40
678,40
679,40
680,40
681,40
682,41
683,41
684,41
685,41
686,41
687,41
688,41
689,41
690,41
691,41
692,41
693,41
694,41
695,41
696,41
697,41
698,41
699,41
700,42
701,43
702,43
703,43
704,43
705,44
706,44
707,44
708,44
709,44
710,44
711,44
712,44
713,44
714,44
715,44
716,44
717,44
718,44
719,44
720,44
721,44
722,44
723,44
724,44
725,44
726,44
727,45
728,45
729,45
730,45
731,45
732,45
733,45
734,45
735,46
736,46
737,46
738,46
739,47
740,49
741,49
742,49
743,49
744,49
745,49
746,49
747,49
748,49
749,49
750,49
751,49
752,49
753,49
754,49
755,49
756,49
757,50
758,50
759,50
760,50
761,50
762,50
763,50
764,50
765,50
766,50
767,50
768,50
769,50
770,50
771,50
772,50
773,50
774,50
775,50
776,50
777,50
778,50
779,50
780,50
781,50
782,50
783,50
784,50
785,50
786,50
787,50
788,50
789,50
790,50
791,50
792,51
793,51
794,51
795,51
796,52
797,52
798,52
799,52
800,52
801,52
802,52
803,52
804,53
805,53
806,53
807,53
808,53
809,53
810,53
811,53
812,53
813,53
814,53
815,53
816,53
817,53
818,53
819,53
820,53
821,53
822,53
823,53
824,54
825,54
826,54
827,54
828,54
829,54
830,54
831,54
832,54
833,54
834,54
835,54
836,54
837,54
838,54
839,54
840,54
841,54
842,54
843,54
844,54
845,54
846,54
847,54
848,54
849,54
850,54
851,54
852,54
853,54
854,54
855,54
856,54
857,54
858,54
859,54
860,54
861,54
862,54
863,54
864,54
865,54
866,54
867,54
868,54
869,54
870,55
871,55
872,55
873,55
874,55
875,55
876,55
877,55
878,55
879,55
880,55
881,55
882,55
883,55
884,55
885,55
886,55
887,55
888,55
889,55
890,55
891,55
892,55
893,55
894,55
895,55
896,55
897,56
898,56
899,56
900,56
901,56
902,56
903,56
904,56
905,56
906,56
907,56
908,56
909,56
910,56
911,56
912,56
913,56
914,56
915,56
916,57
917,57
918,57
919,57
920,57
921,57
922,57
923,57
924,57
925,58
926,58
927,58
928,58
929,58
930,58
931,58
932,58
933,58
934,58
935,58
936,58
937,58
938,58
939,58
940,58
941,58
942,58
943,58
944,58
945,58
946,58
947,58
948,58
949,58
950,58
951,58
952,58
953,58
954,58
955,58
956,58
957,58
958,58
959,58
960,58
961,58
962,59
963,59
964,59
965,59
966,59
967,60
968,60
969,60
970,60
971,60
972,60
973,60
974,60
975,60
976,60
977,60
978,60
979,61
980,61
981,61
982,61
983,61
984,61
985,61
986,62
987,62
988,63
989,64
990,65
991,66
992,67
993,68
994,69
995,70
996,71
997,72
998,72
999,72
1000,72
1001,72
1002,72
1003,72
1004,72
1005,72
1006,72
1007,72
1008,72
1009,72
1010,72
1011,72
1012,72
1013,72
1014,72
1015,72
1016,72
1017,72
1018,72
1019,72
1020,73
1021,73
1022,73
1023,73
1024,73
1025,73
1026,73
1027,73
1028,73
1029,73
1030,74
1031,74
1032,74
1033,74
1034,74
1035,74
1036,74
1037,74
1038,74
1039,74
1040,74
1041,74
1042,74
1043,74
1044,74
1045,74
1046,74
1047,75
1048,75
1049,75
1050,75
1051,75
1052,75
1053,75
1054,75
1055,75
1056,75
1057,75
1058,75
1059,75
1060,75
1061,75
1062,75
1063,75
1064,75
1065,75
1066,75
1067,75
1068,75
1069,75
1070,75
1071,75
1072,75
1073,75
1074,75
1075,75
1076,75
1077,75
1078,75
1079,75
1080,75
1081,75
1082,75
1083,75
1084,75
1085,75
1086,75
1087,75
1088,75
1089,75
1090,75
1091,75
1092,75
1093,75
1094,75
1095,75
1096,75
1097,75
1098,75
1099,75
1100,75
1101,75
1102,75
1103,75
1104,76
1105,76
1106,76
1107,76
1108,76
1109,76
1110,76
1111,76
1112,76
1113,76
1114,76
1115,76
1116,76
1117,76
1118,76
1119,76
1120,76
1121,76
1122,76
1123,76
1124,76
1125,76
1126,76
1127,76
1128,76
1129,76
1130,76
1131,76
1132,76
1133,76
1134,76
1135,76
1136,76
1137,76
1138,76
1139,76
1140,76
1141,76
1142,76
1143,76
1144,76
1145,76
1146,76
1147,76
1148,76
1149,76
1150,76
1151,76
1152,76
1153,77
1154,77
1155,77
1156,77
1157,77
1158,77
1159,78
1160,78
1161,78
1162,78
1163,78
1164,78
1165,78
1166,78
1167,78
1168,78
1169,78
1170,78
1171,78
1172,78
1173,78
1174,78
1175,78
1176,78
1177,78
1178,78
1179,78
1180,78
1181,78
1182,78
1183,78
1184,78
1185,78
1186,78
1187,78
1188,78
1189,78
1190,78
1191,78
1192,78
1193,78
1194,78
1195,78
1196,78
1197,78
1198,78
1199,78
1200,78
1201,78
1202,78
1203,78
1204,78
1205,78
1206,78
1207,78
1208,78
1209,78
1210,78
1211,78
1212,78
1213,78
1214,78
1215,78
1216,78
1217,78
1218,78
1219,78
1220,78
1221,78
1222,78
1223,78
1224,78
1225,78
1226,78
1227,78
1228,78
1229,78
1230,78
1231,78
1232,78
1233,78
1234,78
1235,78
1236,78
1237,78
1238,78
1239,78
1240,78
1241,78
1242,78
1243,78
1244,78
1245,78
1246,78
1247,78
1248,78
1249,78
1250,78
1251,78
1252,78
1253,78
1254,79
1255,80
1256,80
1257,80
1258,80
1259,80
1260,80
1261,80
1262,80
1263,80
1264,80
1265,80
1266,80
1267,80
1268,80
1269,80
1270,80
1271,80
1272,80
1273,80
1274,80
1275,80
1276,80
1277,80
1278,80
1279,80
1280,80
1281,80
1282,80
1283,80
1284,80
1285,80
1286,80
1287,80
1288,80
1289,80
1290,80
1291,80
1292,80
1293,80
1294,80
1295,80
1296,80
1297,80
1298,80
1299,81
1300,81
1301,81
1302,81
1303,82
1304,82
1305,82
1306,82
1307,83
1308,83
1309,83
1310,83
1311,83
1312,83
1313,83
1314,83
1315,83
1316,83
1317,83
1318,83
1319,83
1320,83
1321,83
1322,83
1323,83
1324,83
1325,83
1326,83
1327,83
1328,83
1329,83
1330,83
1331,83
1332,83
1333,83
1334,83
1335,83
1336,83
1337,84
1338,85
1339,85
1340,85
1341,85
1342,85
1343,85
1344,85
1345,85
1346,85
1347,85
1348,86
1349,86
1350,86
1351,86
1352,86
1353,86
1354,86
1355,86
1356,86
1357,86
1358,86
1359,86
1360,86
1361,86
1362,86
1363,86
1364,86
1365,86
1366,86
1367,86
1368,86
1369,86
1370,86
1371,86
1372,86
1373,87
1374,87
1375,88
1376,88
1377,88
1378,88
1379,88
1380,88
1381,88
1382,88
1383,88
1384,88
1385,88
1386,88
1387,88
1388,88
1389,88
1390,88
1391,88
1392,88
1393,88
1394,88
1395,88
1396,88
1397,88
1398,88
1399,88
1400,88
1401,89
1402,89
1403,89
1404,89
1405,89
1406,89
1407,89
1408,89
1409,89
1410,89
1411,89
1412,89
1413,89
1414,89
1415,89
1416,89
1417,89
1418,89
1419,89
1420,89
1421,89
1422,89
1423,89
1424,89
1425,89
1426,89
1427,89
1428,89
1429,89
1430,89
1431,89
1432,89
1433,89
1434,89
1435,89
1436,89
1437,89
1438,89
1439,89
1440,90
1441,90
1442,90
1443,90
1444,90
1445,90
1446,90
1447,90
1448,90
1449,90
1450,90
1451,90
1452,90
1453,90
1454,90
1455,90
1456,90
1457,90
1458,90
1459,90
1460,90
1461,90
1462,90
1463,90
1464,90
1465,90
1466,90
1467,90
1468,90
1469,90
1470,90
1471,90
1472,90
1473,90
1474,90
1475,90
1476,90
1477,90
1478,91
1479,91
1480,91
1481,91
1482,91
1483,91
1484,91
1485,91
1486,91
1487,91
1488,91
1489,91
1490,91
1491,91
1492,91
1493,92
1494,93
1495,93
1496,93
1497,93
1498,93
1499,93
1500,93
1501,93
1502,93
1503,93
1504,93
1505,93
1506,93
1507,94
1508,95
1509,95
1510,95
1511,95
1512,95
1513,95
1514,95
1515,95
1516,95
1517,95
1518,95
1519,95
1520,96
1521,96
1522,96
1523,96
1524,96
1525,96
1526,97
1527,97
1528,97
1529,97
1530,97
1531,97
1532,97
1533,97
1534,97
1535,97
1536,97
1537,97
1538,97
1539,97
1540,97
1541,97
1542,97
1543,97
1544,97
1545,97
1546,97
1547,97
1548,97
1549,97
1550,97
1551,97
1552,97
1553,97
1554,97
1555,97
1556,97
1557,97
1558,97
1559,97
1560,98
1561,98
1562,98
1563,98
1564,98
1565,98
1566,98
1567,98
1568,98
1569,98
1570,98
1571,98
1572,98
1573,98
1574,98
1575,99
1576,99
1577,99
1578,99
1579,99
1580,99
1581,99
1582,99
1583,99
1584,99
1585,99
1586,99
1587,99
1588,99
1589,99
1590,99
1591,99
1592,99
1593,99
1594,99
1595,99
1596,100
1597,100
1598,100
1599,100
1600,100
1601,100
1602,100
1603,100
1604,100
1605,101
1606,101
1607,101
1608,101
1609,101
1610,101
1611,101
1612,101
1613,101
1614,101
1615,101
1616,101
1617,101
1618,101
1619,101
1620,101
1621,101
1622,101
1623,101
1624,101
1625,101
1626,101
1627,102
1628,102
1629,102
1630,102
1631,102
1632,102
1633,102
1634,102
1635,102
1636,102
1637,102
1638,102
1639,102
1640,103
1641,103
1642,103
1643,103
1644,103
1645,103
1646,103
1647,103
1648,103
1649,103
1650,103
1651,103
1652,103
1653,103
1654,103
1655,103
1656,103
1657,103
1658,103
1659,104
1660,104
1661,104
1662,104
1663,104
1664,104
1665,104
1666,104
1667,104
1668,104
1669,104
1670,105
1671,105
1672,105
1673,105
1674,105
1675,105
1676,105
1677,105
1678,105
1679,105
1680,105
1681,105
1682,105
1683,105
1684,105
1685,105
1686,105
1687,105
1688,105
1689,105
1690,105
1691,105
1692,105
1693,105
1694,105
1695,105
1696,105
1697,105
1698,105
1699,105
1700,105
1701,105
1702,105
1703,105
1704,105
1705,105
1706,105
1707,105
1708,105
1709,105
1710,105
1711,105
1712,105
1713,105
1714,105
1715,105
1716,105
1717,105
1718,105
1719,105
1720,105
1721,105
1722,105
1723,105
1724,105
1725,105
1726,105
1727,105
1728,105
1729,105
1730,105
1731,105
1732,105
1733,105
1734,105
1735,105
1736,105
1737,105
1738,105
1739,105
1740,105
1741,105
1742,105
1743,105
1744,105
1745,105
1746,105
1747,105
1748,105
1749,105
1750,105
1751,105
1752,105
1753,105
1754,105
1755,105
1756,105
1757,105
1758,105
1759,105
1760,105
1761,105
1762,105
1763,105
1764,105
1765,105
1766,105
1767,105
1768,105
1769,105
1770,105
1771,105
1772,105
1773,105
1774,105
1775,105
1776,105
1777,105
1778,105
1779,105
1780,105
1781,105
1782,105
1783,105
1784,105
1785,105
1786,105
1787,105
1788,105
1789,105
1790,105
1791,105
1792,105
1793,105
1794,105
1795,105
1796,105
1797,105
1798,105
1799,105
1800,105
1801,105
1802,105
1803,105
1804,105
1805,105
1806,105
1807,105
1808,105
1809,105
1810,105
1811,105
1812,105
1813,105
1814,105
1815,105
1816,105
1817,105
1818,105
1819,106
1820,106
1821,106
1822,106
1823,106
1824,106
1825,106
1826,106
1827,106
1828,106
1829,106
1830,106
1831,106
1832,106
1833,106
1834,106
1835,106
1836,106
1837,106
1838,106
1839,106
1840,106
1841,106
1842,106
1843,106
1844,107
1845,107
1846,107
1847,107
1848,107
1849,107
1850,107
1851,107
1852,107
1853,107
1854,107
1855,107
1856,107
1857,107
1858,107
1859,107
1860,107
1861,107
1862,107
1863,107
1864,107
1865,107
1866,107
1867,107
1868,107
1869,107
1870,108
1871,108
1872,108
1873,108
1874,108
1875,108
1876,108
1877,108
1878,108
1879,108
1880,108
1881,108
1882,108
1883,108
1884,108
1885,108
1886,108
1887,108
1888,108
1889,108
1890,108
1891,108
1892,108
1893,108
1894,108
1895,108
1896,109
1897,109
1898,110
1899,111
1900,111
1901,111
1902,111
1903,112
1904,112
1905,112
1906,112
1907,112
1908,112
1909,112
1910,112
1911,112
1912,112
1913,112
1914,112
1915,112
1916,112
1917,112
1918,112
1919,112
1920,112
1921,112
1922,113
1923,113
1924,113
1925,113
1926,113
1927,114
1928,114
1929,114
1930,114
1931,114
1932,114
1933,114
1934,115
1935,115
1936,115
1937,115
1938,115
1939,115
1940,115
1941,115
1942,115
1943,115
1944,115
1945,115
1946,115
1947,115
1948,115
1949,115
1950,115
1951,115
1952,115
1953,116
1954,116
1955,116
1956,116
1957,116
1958,116
1959,116
1960,116
1961,117
1962,117
1963,117
1964,117
1965,117
1966,118
1967,118
1968,118
1969,118
1970,118
1971,118
1972,119
1973,119
1974,119
1975,119
1976,119
1977,119
1978,119
1979,119
1980,119
1981,120
1982,120
1983,120
1984,120
1985,120
1986,120
1987,120
1988,120
1989,120
1990,120
1991,120
1992,121
1993,121
1994,122
1995,122
1996,122
1997,122
1998,122
1999,122
2000,122
