"tick","total"
0,0
1,0
2,0
3,0
4,0
5,0
6,0
7,0
8,0
9,0
10,0
11,0
12,0
13,0
14,0
15,0
16,0
17,0
18,0
19,0
20,0
21,0
22,0
23,0
24,0
25,0
26,0
27,0
28,0
29,0
30,0
31,0
32,0
33,0
34,0
35,0
36,0
37,0
38,0
39,0
40,0
41,0
42,0
43,0
44,0
45,0
46,0
47,0
48,0
49,0
50,0
51,0
52,0
53,0
54,0
55,0
56,0
57,0
58,0
59,0
60,0
61,0
62,0
63,0
64,0
65,0
66,0
67,0
68,0
69,0
70,0
71,0
72,0
73,0
74,0
75,0
76,0
77,0
78,0
79,0
80,0
81,0
82,0
83,0
84,0
85,0
86,0
87,0
88,0
89,0
90,0
91,0
92,0
93,0
94,0
95,0
96,0
97,0
98,0
99,0
100,0
101,0
102,0
103,0
104,0
105,0
106,0
107,0
108,0
109,0
110,0
111,0
112,0
113,0
114,0
115,0
116,0
117,0
118,0
119,0
120,0
121,0
122,0
123,0
124,0
125,0
126,0
127,0
128,0
129,0
130,0
131,0
132,0
133,0
134,0
135,0
136,0
137,0
138,0
139,0
140,0
141,0
142,0
143,0
144,0
145,0
146,0
147,0
148,0
149,0
150,0
151,0
152,0
153,0
154,0
155,0
156,0
157,0
158,0
159,0
160,0
161,0
162,0
163,0
164,0
165,0
166,0
167,0
168,0
169,0
170,0
171,0
172,0
173,0
174,0
175,0
176,0
177,0
178,0
179,0
180,0
181,0
182,0
183,0
184,0
185,0
186,0
187,0
188,0
189,0
190,0
191,0
192,0
193,0
194,0
195,0
196,0
197,0
198,0
199,0
200,0
201,0
202,0
203,0
204,0
205,0
206,0
207,0
208,0
209,0
210,0
211,0
212,0
213,0
214,0
215,0
216,0
217,0
218,0
219,0
220,0
221,0
222,0
223,0
224,0
225,0
226,0
227,0
228,0
229,0
230,0
231,0
232,0
233,0
234,0
235,0
236,0
237,0
238,0
239,0
240,0
241,0
242,0
243,0
244,0
245,0
246,0
247,0
248,0
249,0
250,1
251,1
252,1
253,2
254,2
255,2
256,3
257,3
258,3
259,3
260,3
261,3
262,3
263,3
264,4
265,4
266,5
267,5
268,5
269,5
270,5
271,5
272,5
273,5
274,5
275,5
276,5
277,5
278,6
279,6
280,6
281,6
282,6
283,6
284,6
285,6
286,6
287,6
288,6
289,6
290,6
291,6
292,6
293,6
294,6
295,6
296,7
297,7
298,7
299,7
300,7
301,7
302,7
303,7
304,7
305,7
306,7
307,7
308,7
309,7
310,7
311,7
312,7
313,7
314,7
315,7
316,7
317,7
318,7
319,7
320,7
321,8
322,8
323,8
324,8
325,8
326,8
327,8
328,8
329,10
330,10
331,10
332,10
333,11
334,11
335,11
336,11
337,11
338,12
339,12
340,12
341,12
342,13
343,13
344,13
345,14
346,14
347,14
348,14
349,14
350,14
351,14
352,14
353,14
354,14
355,14
356,14
357,15
358,15
359,15
360,15
361,15
362,15
363,15
364,16
365,16
366,16
367,16
368,16
369,16
370,17
371,17
372,18
373,18
374,18
375,18
376,19
377,19
378,19
379,19
380,19
381,19
382,19
383,19
384,19
385,19
386,19
387,19
388,19
389,19
390,20
391,20
392,21
393,21
394,21
395,22
396,22
397,22
398,22
399,22
400,22
401,22
402,22
403,23
404,23
405,23
406,23
407,23
408,23
409,23
410,23
411,23
412,23
413,23
414,24
415,24
416,24
417,24
418,24
419,24
420,24
421,24
422,24
423,24
424,24
425,24
426,24
427,25
428,25
429,25
430,25
431,25
432,25
433,25
434,25
435,25
436,25
437,25
438,25
439,25
440,25
441,25
442,25
443,25
444,25
445,25
446,25
447,25
448,25
449,25
450,25
451,25
452,25
453,25
454,25
455,25
456,25
457,25
458,25
459,25
460,25
461,25
462,25
463,25
464,25
465,25
466,25
467,25
468,25
469,25
470,25
471,25
472,25
473,25
474,25
475,25
476,25
477,25
478,25
479,25
480,25
481,25
482,25
483,25
484,25
485,25
486,26
487,26
488,26
489,26
490,26
491,26
492,26
493,26
494,26
495,26
496,26
497,26
498,26
499,26
500,26
501,26
502,26
503,26
504,26
505,26
506,26
507,26
508,26
509,26
510,26
511,27
512,27
513,27
514,27
515,27
516,28
517,28
518,29
519,29
520,30
521,30
522,30
523,30
524,30
525,30
526,30
527,30
528,30
529,30
530,30
531,30
532,30
533,30
534,30
535,30
536,30
537,30
538,30
539,30
540,30
541,30
542,30
543,30
544,30
545,30
546,30
547,30
548,30
549,30
550,30
551,30
552,30
553,30
554,30
555,30
556,30
557,30
558,30
559,30
560,30
561,30
562,30
563,30
564,30
565,30
566,30
567,30
568,30
569,30
570,30
571,30
572,30
573,31
574,31
575,31
576,31
577,31
578,31
579,31
580,31
581,32
582,33
583,34
584,35
585,36
586,37
587,38
588,39
589,40
590,41
591,41
592,41
593,41
594,42
595,42
596,42
597,42
598,42
599,42
600,42
601,42
602,42
603,42
604,42
605,42
606,42
607,42
608,42
609,42
610,42
611,42
612,42
613,42
614,42
615,42
616,42
617,42
618,42
619,42
620,42
621,42
622,42
623,42
624,42
625,42
626,42
627,42
628,42
629,42
630,42
631,42
632,42
633,42
634,42
635,42
636,42
637,42
638,42
639,42
640,42
641,42
642,42
643,42
644,42
645,42
646,42
647,42
648,42
649,42
650,42
651,42
652,42
653,42
654,42
655,42
656,42
657,42
658,42
659,42
660,42
661,42
662,42
663,42
664,42
665,42
666,42
667,42
668,42
669,42
670,42
671,42
672,42
673,42
674,42
675,42
676,42
677,42
678,42
679,42
680,42
681,42
682,42
683,42
684,42
685,42
686,42
687,42
688,42
689,42
690,42
691,42
692,42
693,42
694,42
695,42
696,42
697,42
698,42
699,42
700,42
701,42
702,42
703,42
704,42
705,42
706,42
707,42
708,42
709,42
710,42
711,42
712,42
713,42
714,42
715,42
716,42
717,42
718,43
719,43
720,43
721,43
722,43
723,43
724,43
725,43
726,43
727,43
728,43
729,43
730,43
731,43
732,43
733,43
734,43
735,43
736,43
737,43
738,43
739,43
740,43
741,43
742,44
743,44
744,44
745,44
746,44
747,44
748,44
749,44
750,44
751,44
752,44
753,45
754,45
755,45
756,45
757,45
758,45
759,45
760,45
761,45
762,45
763,45
764,46
765,46
766,46
767,46
768,46
769,46
770,46
771,46
772,46
773,46
774,46
775,46
776,46
777,46
778,47
779,47
780,47
781,47
782,47
783,47
784,47
785,47
786,47
787,47
788,47
789,47
790,47
791,47
792,47
793,47
794,47
795,47
796,47
797,47
798,47
799,47
800,47
801,48
802,48
803,48
804,48
805,49
806,49
807,49
808,49
809,49
810,49
811,49
812,49
813,49
814,49
815,49
816,49
817,49
818,49
819,49
820,49
821,49
822,49
823,49
824,49
825,49
826,49
827,49
828,49
829,49
830,49
831,49
832,49
833,49
834,49
835,49
836,49
837,49
838,49
839,49
840,49
841,49
842,49
843,49
844,49
845,49
846,49
847,49
848,49
849,49
850,49
851,49
852,49
853,49
854,49
855,49
856,49
857,49
858,49
859,49
860,49
861,49
862,49
863,49
864,49
865,49
866,49
867,49
868,49
869,49
870,49
871,49
872,49
873,49
874,49
875,49
876,49
877,49
878,49
879,49
880,49
881,49
882,49
883,49
884,49
885,49
886,50
887,50
888,50
889,50
890,50
891,50
892,50
893,50
894,51
895,51
896,51
897,51
898,51
899,51
900,51
901,51
902,51
903,51
904,51
905,51
906,51
907,51
908,51
909,51
910,51
911,51
912,51
913,51
914,51
915,51
916,51
917,51
918,51
919,51
920,51
921,51
922,51
923,51
924,51
925,51
926,51
927,51
928,51
929,51
930,51
931,51
932,51
933,51
934,51
935,51
936,51
937,51
938,51
939,51
940,51
941,51
942,52
943,52
944,52
945,52
946,52
947,52
948,52
949,52
950,52
951,53
952,53
953,53
954,53
955,53
956,53
957,53
958,53
959,53
960,53
961,53
962,53
963,53
964,53
965,53
966,53
967,53
968,53
969,53
970,53
971,53
972,54
973,56
974,56
975,56
976,56
977,56
978,56
979,56
980,56
981,56
982,56
983,56
984,56
985,56
986,56
987,56
988,56
989,56
990,56
991,56
992,56
993,56
994,56
995,56
996,56
997,57
998,57
999,57
1000,57
1001,57
1002,57
1003,58
1004,58
1005,58
1006,58
1007,58
1008,58
1009,58
1010,58
1011,58
1012,59
1013,59
1014,59
1015,59
1016,59
1017,59
1018,59
1019,59
1020,59
1021,59
1022,59
1023,59
1024,59
1025,60
1026,60
1027,60
1028,60
1029,60
1030,60
1031,60
1032,60
1033,60
1034,60
1035,60
1036,61
1037,61
1038,61
1039,61
1040,61
1041,61
1042,61
1043,61
1044,61
1045,61
1046,61
1047,61
1048,61
1049,62
1050,62
1051,62
1052,62
1053,62
1054,62
1055,62
1056,62
1057,62
1058,62
1059,62
1060,62
1061,62
1062,62
1063,63
1064,63
1065,63
1066,63
1067,63
1068,63
1069,63
1070,63
1071,63
1072,64
1073,64
1074,64
1075,64
1076,64
1077,64
1078,65
1079,65
1080,65
1081,65
1082,66
1083,66
1084,66
1085,66
1086,67
1087,67
1088,67
1089,67
1090,67
1091,67
1092,67
1093,67
1094,68
1095,68
1096,68
1097,68
1098,68
1099,68
1100,68
1101,68
1102,69
1103,70
1104,70
1105,70
1106,70
1107,70
1108,70
1109,70
1110,70
1111,70
1112,70
1113,70
1114,70
1115,70
1116,70
1117,70
1118,70
1119,70
1120,70
1121,70
1122,70
1123,70
1124,70
1125,70
1126,70
1127,70
1128,70
1129,70
1130,70
1131,70
1132,70
1133,70
1134,70
1135,70
1136,70
1137,70
1138,70
1139,70
1140,70
1141,70
1142,70
1143,70
1144,70
1145,70
1146,70
1147,70
1148,70
1149,70
1150,70
1151,70
1152,70
1153,70
1154,70
1155,70
1156,70
1157,70
1158,70
1159,70
1160,70
1161,70
1162,70
1163,70
1164,70
1165,70
1166,70
1167,70
1168,70
1169,70
1170,70
1171,70
1172,70
1173,70
1174,70
1175,70
1176,70
1177,70
1178,70
1179,70
1180,70
1181,70
1182,70
1183,70
1184,70
1185,70
1186,70
1187,70
1188,71
1189,71
1190,71
1191,72
1192,73
1193,74
1194,75
1195,76
1196,77
1197,78
1198,79
1199,80
1200,80
1201,80
1202,80
1203,80
1204,80
1205,80
1206,80
1207,80
1208,80
1209,80
1210,80
1211,80
1212,80
1213,80
1214,80
1215,80
1216,80
1217,80
1218,80
1219,80
1220,80
1221,80
1222,80
1223,80
1224,80
1225,80
1226,80
1227,80
1228,80
1229,81
1230,81
1231,81
1232,81
1233,81
1234,81
1235,81
1236,81
1237,81
1238,81
1239,81
1240,81
1241,81
1242,81
1243,81
1244,81
1245,81
1246,81
1247,81
1248,81
1249,81
1250,81
1251,81
1252,81
1253,81
1254,82
1255,82
1256,82
1257,82
1258,82
1259,82
1260,83
1261,83
1262,83
1263,83
1264,83
1265,83
1266,83
1267,83
1268,84
1269,84
1270,84
1271,84
1272,84
1273,84
1274,84
1275,84
1276,84
1277,84
1278,84
1279,84
1280,86
1281,86
1282,86
1283,86
1284,86
1285,86
1286,86
1287,86
1288,86
1289,86
1290,86
1291,86
1292,86
1293,86
1294,86
1295,86
1296,86
1297,86
1298,86
1299,86
1300,86
1301,86
1302,86
1303,86
1304,86
1305,86
1306,86
1307,86
1308,86
1309,86
1310,86
1311,86
1312,86
1313,86
1314,86
1315,86
1316,86
1317,86
1318,86
1319,86
1320,86
1321,86
1322,86
1323,87
1324,87
1325,87
1326,87
1327,87
1328,87
1329,87
1330,87
1331,87
1332,87
1333,87
1334,87
1335,87
1336,87
1337,87
1338,87
1339,87
1340,88
1341,88
1342,88
1343,88
1344,88
1345,88
1346,88
1347,88
1348,88
1349,88
1350,88
1351,88
1352,88
1353,88
1354,89
1355,89
1356,89
1357,89
1358,89
1359,89
1360,89
1361,89
1362,89
1363,89
1364,89
1365,89
1366,89
1367,89
1368,89
1369,89
1370,90
1371,90
1372,90
1373,90
1374,90
1375,90
1376,90
1377,90
1378,90
1379,90
1380,90
1381,90
1382,90
1383,90
1384,90
1385,91
1386,91
1387,91
1388,91
1389,91
1390,91
1391,91
1392,91
1393,91
1394,92
1395,92
1396,92
1397,92
1398,92
1399,93
1400,93
1401,93
1402,93
1403,93
1404,93
1405,93
1406,93
1407,93
1408,93
1409,93
1410,93
1411,93
1412,93
1413,93
1414,93
1415,93
1416,93
1417,93
1418,93
1419,93
1420,93
1421,93
1422,93
1423,93
1424,93
1425,93
1426,93
1427,93
1428,93
1429,93
1430,93
1431,93
1432,93
1433,93
1434,93
1435,93
1436,93
1437,93
1438,93
1439,93
1440,93
1441,94
1442,94
1443,94
1444,94
1445,94
1446,94
1447,94
1448,94
1449,94
1450,94
1451,94
1452,94
1453,94
1454,94
1455,94
1456,94
1457,94
1458,94
1459,94
1460,94
1461,94
1462,95
1463,95
1464,95
1465,95
1466,95
1467,95
1468,95
1469,95
1470,95
1471,95
1472,95
1473,95
1474,95
1475,95
1476,95
1477,95
1478,95
1479,95
1480,95
1481,95
1482,95
1483,95
1484,95
1485,96
1486,96
1487,96
1488,96
1489,96
1490,96
1491,96
1492,96
1493,97
1494,97
1495,97
1496,97
1497,97
1498,97
1499,97
1500,97
1501,97
1502,97
1503,98
1504,98
1505,98
1506,98
1507,98
1508,98
1509,98
1510,98
1511,98
1512,98
1513,98
1514,98
1515,98
1516,98
1517,98
1518,98
1519,98
1520,98
1521,98
1522,98
1523,98
1524,98
1525,98
1526,98
1527,98
1528,98
1529,98
1530,98
1531,98
1532,98
1533,98
1534,98
1535,98
1536,98
1537,98
1538,98
1539,98
1540,98
1541,98
1542,98
1543,98
1544,98
1545,98
1546,98
1547,98
1548,98
1549,98
1550,98
1551,98
1552,98
1553,99
1554,99
1555,99
1556,99
1557,99
1558,99
1559,99
1560,100
1561,100
1562,100
1563,100
1564,100
1565,100
1566,100
1567,101
1568,101
1569,101
1570,101
1571,102
1572,102
1573,102
1574,102
1575,102
1576,102
1577,102
1578,103
1579,103
1580,103
1581,103
1582,103
1583,103
1584,103
1585,103
1586,103
1587,103
1588,103
1589,103
1590,103
1591,103
1592,103
1593,103
1594,103
1595,103
1596,103
1597,103
1598,103
1599,103
1600,103
1601,103
1602,103
1603,103
1604,103
1605,104
1606,104
1607,104
1608,104
1609,104
1610,104
1611,104
1612,104
1613,104
1614,105
1615,106
1616,106
1617,106
1618,107
1619,107
1620,107
1621,107
1622,107
1623,107
1624,107
1625,107
1626,107
1627,107
1628,107
1629,107
1630,107
1631,107
1632,107
1633,107
1634,107
1635,107
1636,108
1637,108
1638,108
1639,108
1640,108
1641,108
1642,108
1643,108
1644,108
1645,108
1646,108
1647,108
1648,108
1649,108
1650,108
1651,108
1652,108
1653,108
1654,108
1655,108
1656,108
1657,108
1658,108
1659,108
1660,108
1661,108
1662,108
1663,108
1664,109
1665,109
1666,109
1667,109
1668,109
1669,109
1670,109
1671,109
1672,109
1673,109
1674,109
1675,109
1676,109
1677,109
1678,109
1679,109
1680,109
1681,109
1682,109
1683,109
1684,109
1685,109
1686,109
1687,109
1688,109
1689,110
1690,110
1691,110
1692,111
1693,111
1694,111
1695,111
1696,111
1697,111
1698,111
1699,111
1700,111
1701,111
1702,111
1703,111
1704,111
1705,111
1706,111
1707,111
1708,111
1709,111
1710,111
1711,111
1712,111
1713,111
1714,111
1715,111
1716,111
1717,111
1718,111
1719,111
1720,111
1721,111
1722,111
1723,111
1724,111
1725,111
1726,111
1727,111
1728,111
1729,111
1730,111
1731,111
1732,111
1733,111
1734,111
1735,111
1736,111
1737,111
1738,111
1739,111
1740,111
1741,111
1742,111
1743,111
1744,111
1745,111
1746,111
1747,111
1748,111
1749,111
1750,111
1751,111
1752,111
1753,111
1754,111
1755,111
1756,111
1757,111
1758,111
1759,111
1760,111
1761,111
1762,111
1763,111
1764,111
1765,111
1766,111
1767,111
1768,111
1769,111
1770,111
1771,111
1772,111
1773,111
1774,111
1775,111
1776,111
1777,111
1778,112
1779,112
1780,112
1781,112
1782,112
1783,112
1784,112
1785,112
1786,112
1787,112
1788,112
1789,112
1790,112
1791,112
1792,112
1793,112
1794,112
1795,112
1796,112
1797,112
1798,112
1799,112
1800,112
1801,112
1802,112
1803,112
1804,112
1805,112
1806,112
1807,112
1808,112
1809,112
1810,112
1811,112
1812,112
1813,112
1814,112
1815,112
1816,113
1817,113
1818,113
1819,113
1820,113
1821,113
1822,113
1823,113
1824,113
1825,113
1826,113
1827,113
1828,113
1829,113
1830,113
1831,114
1832,114
1833,114
1834,114
1835,114
1836,114
1837,114
1838,114
1839,115
1840,115
1841,115
1842,115
1843,115
1844,115
1845,115
1846,115
1847,115
1848,115
1849,115
1850,115
1851,116
1852,117
1853,117
1854,117
1855,117
1856,117
1857,117
1858,117
1859,117
1860,117
1861,117
1862,117
1863,117
1864,117
1865,117
1866,117
1867,117
1868,117
1869,117
1870,117
1871,117
1872,117
1873,117
1874,117
1875,117
1876,117
1877,117
1878,117
1879,117
1880,117
1881,117
1882,117
1883,117
1884,117
1885,117
1886,117
1887,117
1888,117
1889,117
1890,117
1891,117
1892,117
1893,117
1894,118
1895,118
1896,118
1897,119
1898,120
1899,120
1900,121
1901,121
1902,121
1903,121
1904,121
1905,121
1906,121
1907,121
1908,121
1909,121
1910,122
1911,122
1912,122
1913,122
1914,122
1915,122
1916,122
1917,122
1918,122
1919,122
1920,122
1921,122
1922,122
1923,122
1924,122
1925,122
1926,123
1927,123
1928,123
1929,123
1930,123
1931,123
1932,123
1933,123
1934,124
1935,124
1936,124
1937,124
1938,124
1939,125
1940,125
1941,125
1942,125
1943,125
1944,125
1945,125
1946,125
1947,125
1948,125
1949,125
1950,125
1951,125
1952,125
1953,125
1954,125
1955,125
1956,125
1957,125
1958,125
1959,125
1960,125
1961,125
1962,125
1963,125
1964,125
1965,125
1966,125
1967,125
1968,125
1969,126
1970,126
1971,126
1972,127
1973,127
1974,127
1975,127
1976,127
1977,128
1978,128
1979,128
1980,128
1981,128
1982,128
1983,128
1984,128
1985,128
1986,128
1987,128
1988,128
1989,128
1990,128
1991,128
1992,128
1993,128
1994,128
1995,128
1996,128
1997,128
1998,128
1999,128
2000,128
