"tick","total"
0,0
1,0
2,0
3,0
4,0
5,0
6,0
7,0
8,0
9,0
10,0
11,0
12,0
13,0
14,0
15,0
16,0
17,0
18,0
19,0
20,0
21,0
22,0
23,0
24,0
25,0
26,0
27,0
28,0
29,0
30,0
31,0
32,0
33,0
34,0
35,0
36,0
37,0
38,0
39,0
40,0
41,0
42,0
43,0
44,0
45,0
46,0
47,0
48,0
49,0
50,0
51,0
52,0
53,0
54,0
55,0
56,0
57,0
58,0
59,0
60,0
61,0
62,0
63,0
64,0
65,0
66,0
67,0
68,0
69,0
70,0
71,0
72,0
73,0
74,0
75,0
76,0
77,0
78,0
79,0
80,0
81,0
82,0
83,0
84,0
85,0
86,0
87,0
88,0
89,0
90,0
91,0
92,0
93,0
94,0
95,0
96,0
97,0
98,0
99,0
100,0
101,0
102,0
103,0
104,0
105,0
106,0
107,0
108,0
109,0
110,0
111,0
112,0
113,0
114,0
115,0
116,0
117,0
118,0
119,0
120,0
121,0
122,0
123,0
124,0
125,0
126,0
127,0
128,0
129,0
130,0
131,0
132,0
133,0
134,0
135,0
136,0
137,0
138,0
139,0
140,0
141,0
142,0
143,0
144,0
145,0
146,0
147,0
148,0
149,0
150,0
151,0
152,0
153,0
154,0
155,0
156,0
157,0
158,0
159,0
160,0
161,0
162,0
163,0
164,0
165,0
166,0
167,0
168,0
169,0
170,0
171,0
172,0
173,0
174,0
175,0
176,0
177,0
178,0
179,0
180,0
181,0
182,0
183,0
184,0
185,0
186,0
187,0
188,0
189,0
190,0
191,0
192,0
193,0
194,0
195,0
196,0
197,0
198,0
199,0
200,0
201,0
202,0
203,0
204,0
205,0
206,0
207,0
208,0
209,0
210,0
211,0
212,1
213,1
214,1
215,1
216,2
217,3
218,3
219,3
220,3
221,3
222,4
223,4
224,4
225,4
226,4
227,4
228,4
229,4
230,4
231,4
232,4
233,5
234,5
235,5
236,5
237,5
238,5
239,5
240,5
241,5
242,6
243,6
244,6
245,6
246,6
247,6
248,6
249,6
250,6
251,6
252,6
253,6
254,6
255,6
256,6
257,6
258,6
259,6
260,6
261,6
262,6
263,6
264,6
265,7
266,7
267,7
268,7
269,7
270,7
271,8
272,8
273,8
274,8
275,8
276,9
277,9
278,10
279,10
280,10
281,10
282,10
283,10
284,10
285,10
286,10
287,10
288,10
289,10
290,10
291,10
292,10
293,11
294,11
295,11
296,11
297,11
298,11
299,11
300,11
301,12
302,12
303,12
304,13
305,13
306,13
307,14
308,14
309,14
310,14
311,14
312,14
313,14
314,14
315,14
316,14
317,14
318,14
319,14
320,14
321,14
322,15
323,15
324,15
325,15
326,15
327,15
328,15
329,15
330,15
331,15
332,15
333,15
334,15
335,15
336,15
337,15
338,16
339,16
340,16
341,16
342,16
343,16
344,16
345,16
346,16
347,16
348,16
349,16
350,16
351,16
352,16
353,17
354,17
355,17
356,17
357,17
358,17
359,17
360,17
361,17
362,17
363,17
364,17
365,17
366,17
367,17
368,17
369,17
370,17
371,17
372,17
373,17
374,17
375,17
376,17
377,17
378,18
379,18
380,18
381,18
382,18
383,18
384,18
385,18
386,18
387,18
388,18
389,18
390,18
391,18
392,18
393,18
394,18
395,18
396,19
397,19
398,19
399,19
400,19
401,19
402,19
403,19
404,19
405,19
406,19
407,19
408,19
409,19
410,19
411,19
412,19
413,19
414,19
415,19
416,19
417,19
418,19
419,19
420,19
421,19
422,19
423,19
424,19
425,19
426,19
427,19
428,19
429,19
430,19
431,19
432,19
433,20
434,20
435,20
436,20
437,20
438,20
439,20
440,20
441,20
442,20
443,20
444,20
445,20
446,20
447,20
448,20
449,20
450,20
451,20
452,20
453,20
454,20
455,20
456,20
457,20
458,20
459,21
460,21
461,21
462,21
463,21
464,21
465,21
466,21
467,21
468,21
469,21
470,21
471,21
472,21
473,21
474,21
475,21
476,21
477,21
478,21
479,21
480,21
481,21
482,21
483,21
484,21
485,21
486,21
487,21
488,21
489,21
490,21
491,21
492,22
493,22
494,22
495,22
496,22
497,22
498,23
499,23
500,23
501,23
502,24
503,24
504,25
505,25
506,25
507,25
508,25
509,26
510,26
511,26
512,26
513,26
514,26
515,27
516,27
517,27
518,27
519,27
520,27
521,27
522,27
523,27
524,27
525,27
526,27
527,28
528,29
529,29
530,29
531,29
532,29
533,29
534,29
535,30
536,30
537,30
538,30
539,30
540,30
541,30
542,30
543,31
544,31
545,31
546,31
547,31
548,31
549,31
550,31
551,31
552,31
553,31
554,31
555,31
556,31
557,31
558,31
559,31
560,32
561,32
562,32
563,32
564,32
565,32
566,32
567,32
568,32
569,32
570,32
571,32
572,32
573,32
574,32
575,32
576,32
577,32
578,32
579,32
580,32
581,32
582,32
583,32
584,32
585,32
586,32
587,32
588,32
589,32
590,32
591,32
592,32
593,32
594,32
595,32
596,32
597,32
598,32
599,32
600,33
601,33
602,33
603,33
604,33
605,33
606,33
607,33
608,33
609,33
610,33
611,33
612,33
613,34
614,34
615,34
616,34
617,34
618,34
619,34
620,34
621,34
622,34
623,34
624,34
625,34
626,34
627,34
628,34
629,35
630,35
631,35
632,36
633,36
634,36
635,36
636,36
637,36
638,36
639,36
640,36
641,36
642,36
643,36
644,36
645,36
646,36
647,36
648,36
649,36
650,36
651,36
652,36
653,36
654,36
655,36
656,36
657,36
658,36
659,36
660,36
661,36
662,36
663,36
664,36
665,36
666,36
667,36
668,37
669,37
670,37
671,37
672,37
673,37
674,37
675,37
676,37
677,37
678,37
679,37
680,37
681,37
682,37
683,37
684,37
685,37
686,37
687,37
688,37
689,37
690,37
691,37
692,37
693,37
694,37
695,37
696,37
697,37
698,37
699,37
700,37
701,37
702,38
703,38
704,38
705,38
706,38
707,38
708,38
709,38
710,38
711,38
712,38
713,38
714,38
715,38
716,38
717,38
718,38
719,38
720,38
721,38
722,38
723,38
724,38
725,38
726,38
727,38
728,38
729,38
730,38
731,38
732,39
733,39
734,39
735,39
736,39
737,39
738,39
739,39
740,39
741,39
742,39
743,39
744,39
745,39
746,39
747,39
748,39
749,39
750,39
751,39
752,39
753,39
754,39
755,39
756,39
757,39
758,39
759,39
760,39
761,39
762,39
763,39
764,39
765,39
766,39
767,39
768,40
769,41
770,42
771,42
772,42
773,43
774,43
775,43
776,43
777,43
778,43
779,43
780,43
781,43
782,44
783,44
784,44
785,44
786,44
787,44
788,44
789,44
790,44
791,44
792,44
793,44
794,44
795,44
796,44
797,44
798,44
799,44
800,44
801,44
802,45
803,45
804,45
805,45
806,45
807,45
808,45
809,45
810,45
811,45
812,45
813,45
814,45
815,45
816,45
817,45
818,45
819,45
820,45
821,45
822,45
823,45
824,45
825,45
826,45
827,45
828,45
829,45
830,45
831,45
832,45
833,45
834,45
835,45
836,45
837,45
838,45
839,45
840,45
841,45
842,45
843,45
844,45
845,45
846,45
847,45
848,45
849,45
850,46
851,46
852,46
853,46
854,46
855,46
856,46
857,46
858,46
859,46
860,46
861,46
862,46
863,46
864,46
865,46
866,46
867,46
868,46
869,46
870,46
871,46
872,46
873,46
874,46
875,46
876,46
877,46
878,46
879,46
880,46
881,46
882,46
883,46
884,46
885,46
886,46
887,46
888,46
889,46
890,46
891,46
892,46
893,46
894,46
895,46
896,46
897,46
898,46
899,46
900,46
901,46
902,46
903,46
904,46
905,46
906,46
907,46
908,46
909,46
910,46
911,46
912,46
913,46
914,46
915,46
916,46
917,46
918,46
919,46
920,46
921,46
922,46
923,46
924,46
925,46
926,46
927,46
928,46
929,46
930,46
931,46
932,46
933,46
934,46
935,46
936,46
937,46
938,46
939,46
940,46
941,46
942,46
943,46
944,46
945,46
946,46
947,46
948,46
949,46
950,46
951,46
952,46
953,46
954,46
955,46
956,46
957,46
958,47
959,47
960,47
961,47
962,47
963,47
964,47
965,47
966,47
967,47
968,47
969,47
970,47
971,47
972,47
973,47
974,47
975,48
976,48
977,48
978,48
979,48
980,48
981,48
982,48
983,48
984,48
985,48
986,48
987,48
988,48
989,48
990,48
991,48
992,48
993,48
994,48
995,48
996,48
997,48
998,48
999,48
1000,48
1001,48
1002,48
1003,48
1004,48
1005,48
1006,48
1007,48
1008,48
1009,48
1010,49
1011,50
1012,50
1013,50
1014,50
1015,50
1016,50
1017,50
1018,50
1019,50
1020,50
1021,50
1022,50
1023,50
1024,50
1025,50
1026,50
1027,50
1028,50
1029,50
1030,50
1031,50
1032,50
1033,50
1034,50
1035,50
1036,50
1037,50
1038,50
1039,50
1040,50
1041,50
1042,50
1043,50
1044,50
1045,50
1046,50
1047,50
1048,50
1049,50
1050,50
1051,50
1052,50
1053,50
1054,50
1055,50
1056,50
1057,50
1058,50
1059,50
1060,50
1061,51
1062,51
1063,51
1064,51
1065,51
1066,51
1067,51
1068,51
1069,51
1070,51
1071,51
1072,51
1073,51
1074,51
1075,51
1076,51
1077,51
1078,51
1079,51
1080,51
1081,51
1082,51
1083,51
1084,51
1085,51
1086,51
1087,51
1088,51
1089,51
1090,51
1091,51
1092,51
1093,51
1094,51
1095,51
1096,51
1097,51
1098,51
1099,51
1100,51
1101,51
1102,51
1103,51
1104,51
1105,51
1106,51
1107,51
1108,51
1109,51
1110,51
1111,51
1112,51
1113,51
1114,51
1115,51
1116,51
1117,51
1118,51
1119,51
1120,51
1121,51
1122,51
1123,51
1124,51
1125,51
1126,51
1127,52
1128,52
1129,52
1130,53
1131,53
1132,53
1133,53
1134,53
1135,53
1136,53
1137,53
1138,53
1139,53
1140,53
1141,53
1142,53
1143,53
1144,53
1145,53
1146,54
1147,55
1148,56
1149,57
1150,57
1151,57
1152,57
1153,57
1154,57
1155,57
1156,58
1157,58
1158,58
1159,58
1160,58
1161,58
1162,58
1163,58
1164,58
1165,58
1166,58
1167,58
1168,58
1169,58
1170,58
1171,58
1172,58
1173,58
1174,58
1175,58
1176,58
1177,58
1178,58
1179,58
1180,58
1181,58
1182,58
1183,58
1184,58
1185,58
1186,58
1187,58
1188,58
1189,58
1190,58
1191,58
1192,58
1193,58
1194,58
1195,58
1196,58
1197,58
1198,58
1199,58
1200,58
1201,58
1202,58
1203,58
1204,58
1205,58
1206,58
1207,59
1208,59
1209,59
1210,59
1211,59
1212,59
1213,59
1214,59
1215,59
1216,59
1217,59
1218,59
1219,59
1220,59
1221,59
1222,59
1223,59
1224,59
1225,59
1226,59
1227,59
1228,59
1229,59
1230,59
1231,59
1232,59
1233,59
1234,59
1235,59
1236,60
1237,60
1238,60
1239,60
1240,60
1241,60
1242,60
1243,60
1244,61
1245,61
1246,61
1247,61
1248,61
1249,61
1250,61
1251,61
1252,61
1253,61
1254,61
1255,61
1256,61
1257,61
1258,61
1259,61
1260,61
1261,61
1262,62
1263,63
1264,63
1265,63
1266,63
1267,64
1268,64
1269,64
1270,65
1271,65
1272,65
1273,65
1274,65
1275,66
1276,66
1277,66
1278,66
1279,66
1280,66
1281,66
1282,66
1283,66
1284,66
1285,66
1286,67
1287,67
1288,67
1289,67
1290,67
1291,67
1292,67
1293,68
1294,68
1295,68
1296,68
1297,68
1298,68
1299,68
1300,68
1301,68
1302,68
1303,68
1304,68
1305,68
1306,68
1307,68
1308,68
1309,68
1310,68
1311,68
1312,68
1313,68
1314,68
1315,68
1316,68
1317,68
1318,68
1319,68
1320,68
1321,68
1322,68
1323,68
1324,68
1325,69
1326,69
1327,69
1328,69
1329,69
1330,69
1331,69
1332,69
1333,69
1334,69
1335,69
1336,69
1337,69
1338,69
1339,69
1340,69
1341,69
1342,69
1343,69
1344,69
1345,69
1346,69
1347,70
1348,70
1349,70
1350,70
1351,70
1352,70
1353,70
1354,70
1355,70
1356,70
1357,70
1358,70
1359,70
1360,70
1361,70
1362,70
1363,70
1364,70
1365,70
1366,70
1367,70
1368,70
1369,70
1370,70
1371,70
1372,70
1373,70
1374,70
1375,70
1376,70
1377,70
1378,70
1379,70
1380,70
1381,70
1382,70
1383,70
1384,70
1385,70
1386,70
1387,70
1388,70
1389,70
1390,70
1391,70
1392,70
1393,70
1394,70
1395,70
1396,70
1397,70
1398,70
1399,70
1400,70
1401,70
1402,70
1403,70
1404,70
1405,70
1406,70
1407,70
1408,70
1409,70
1410,70
1411,70
1412,70
1413,70
1414,70
1415,70
1416,70
1417,70
1418,70
1419,70
1420,70
1421,70
1422,70
1423,70
1424,70
1425,70
1426,70
1427,70
1428,70
1429,70
1430,70
1431,70
1432,71
1433,71
1434,71
1435,71
1436,71
1437,71
1438,71
1439,71
1440,71
1441,71
1442,71
1443,72
1444,72
1445,72
1446,72
1447,72
1448,72
1449,72
1450,72
1451,72
1452,72
1453,72
1454,72
1455,72
1456,72
1457,72
1458,72
1459,72
1460,72
1461,72
1462,72
1463,72
1464,72
1465,72
1466,72
1467,72
1468,72
1469,72
1470,72
1471,72
1472,72
1473,72
1474,72
1475,72
1476,72
1477,72
1478,72
1479,72
1480,72
1481,72
1482,73
1483,73
1484,73
1485,73
1486,73
1487,73
1488,73
1489,73
1490,73
1491,74
1492,74
1493,75
1494,75
1495,75
1496,75
1497,75
1498,75
1499,75
1500,75
1501,75
1502,75
1503,75
1504,75
1505,75
1506,75
1507,77
1508,77
1509,77
1510,77
1511,77
1512,77
1513,77
1514,77
1515,77
1516,77
1517,77
1518,77
1519,77
1520,77
1521,77
1522,77
1523,77
1524,77
1525,77
1526,77
1527,77
1528,77
1529,77
1530,77
1531,78
1532,78
1533,78
1534,78
1535,78
1536,78
1537,78
1538,78
1539,78
1540,79
1541,79
1542,79
1543,79
1544,79
1545,80
1546,80
1547,80
1548,80
1549,80
1550,80
1551,80
1552,80
1553,80
1554,80
1555,80
1556,80
1557,80
1558,80
1559,80
1560,80
1561,80
1562,80
1563,80
1564,80
1565,80
1566,80
1567,80
1568,80
1569,80
1570,80
1571,80
1572,80
1573,80
1574,80
1575,80
1576,80
1577,80
1578,80
1579,80
1580,80
1581,80
1582,80
1583,80
1584,80
1585,80
1586,80
1587,80
1588,80
1589,80
1590,80
1591,80
1592,80
1593,80
1594,80
1595,80
1596,80
1597,80
1598,80
1599,80
1600,80
1601,80
1602,80
1603,80
1604,80
1605,80
1606,80
1607,80
1608,80
1609,80
1610,80
1611,80
1612,80
1613,80
1614,80
1615,80
1616,80
1617,80
1618,80
1619,80
1620,80
1621,80
1622,80
1623,80
1624,80
1625,80
1626,80
1627,80
1628,80
1629,80
1630,80
1631,80
1632,80
1633,80
1634,80
1635,80
1636,80
1637,80
1638,81
1639,81
1640,81
1641,81
1642,81
1643,81
1644,81
1645,81
1646,81
1647,81
1648,81
1649,81
1650,81
1651,82
1652,83
1653,83
1654,83
1655,83
1656,83
1657,83
1658,83
1659,84
1660,84
1661,84
1662,84
1663,84
1664,85
1665,85
1666,85
1667,85
1668,86
1669,86
1670,86
1671,86
1672,86
1673,86
1674,86
1675,86
1676,86
1677,86
1678,86
1679,86
1680,86
1681,86
1682,86
1683,86
1684,86
1685,86
1686,86
1687,86
1688,86
1689,86
1690,86
1691,86
1692,87
1693,87
1694,87
1695,87
1696,87
1697,87
1698,87
1699,87
1700,87
1701,87
1702,87
1703,87
1704,87
1705,87
1706,87
1707,87
1708,87
1709,87
1710,87
1711,87
1712,87
1713,87
1714,87
1715,88
1716,88
1717,88
1718,88
1719,88
1720,88
1721,88
1722,88
1723,88
1724,88
1725,88
1726,88
1727,88
1728,88
1729,88
1730,88
1731,88
1732,88
1733,88
1734,88
1735,88
1736,88
1737,88
1738,88
1739,88
1740,89
1741,89
1742,89
1743,89
1744,89
1745,89
1746,90
1747,90
1748,90
1749,90
1750,90
1751,90
1752,90
1753,90
1754,90
1755,91
1756,91
1757,91
1758,91
1759,92
1760,92
1761,92
1762,92
1763,92
1764,93
1765,93
1766,93
1767,93
1768,93
1769,94
1770,94
1771,94
1772,94
1773,94
1774,94
1775,94
1776,94
1777,94
1778,94
1779,95
1780,95
1781,95
1782,95
1783,95
1784,95
1785,95
1786,95
1787,95
1788,95
1789,95
1790,95
1791,95
1792,95
1793,95
1794,97
1795,97
1796,97
1797,97
1798,98
1799,98
1800,98
1801,98
1802,98
1803,98
1804,98
1805,99
1806,99
1807,99
1808,99
1809,99
1810,99
1811,100
1812,100
1813,100
1814,100
1815,100
1816,100
1817,100
1818,100
1819,100
1820,100
1821,100
1822,100
1823,100
1824,100
1825,100
1826,100
1827,100
1828,100
1829,100
1830,100
1831,101
1832,101
1833,101
1834,101
1835,101
1836,101
1837,101
1838,101
1839,101
1840,101
1841,101
1842,101
1843,101
1844,101
1845,101
1846,101
1847,101
1848,101
1849,101
1850,101
1851,101
1852,101
1853,101
1854,101
1855,101
1856,101
1857,101
1858,101
1859,103
1860,103
1861,103
1862,103
1863,103
1864,103
1865,103
1866,103
1867,103
1868,103
1869,103
1870,103
1871,103
1872,103
1873,103
1874,103
1875,103
1876,103
1877,103
1878,103
1879,103
1880,103
1881,104
1882,104
1883,104
1884,104
1885,104
1886,104
1887,104
1888,104
1889,104
1890,104
1891,104
1892,104
1893,104
1894,104
1895,105
1896,105
1897,105
1898,105
1899,105
1900,105
1901,105
1902,105
1903,105
1904,105
1905,105
1906,105
1907,105
1908,105
1909,105
1910,105
1911,105
1912,105
1913,105
1914,105
1915,105
1916,105
1917,105
1918,105
1919,105
1920,105
1921,105
1922,105
1923,105
1924,105
1925,105
1926,105
1927,105
1928,105
1929,105
1930,105
1931,105
1932,105
1933,105
1934,105
1935,105
1936,105
1937,106
1938,106
1939,106
1940,106
1941,106
1942,106
1943,106
1944,106
1945,106
1946,106
1947,106
1948,106
1949,106
1950,106
1951,106
1952,106
1953,106
1954,106
1955,106
1956,106
1957,106
1958,106
1959,106
1960,106
1961,106
1962,106
1963,106
1964,106
1965,106
1966,106
1967,106
1968,106
1969,106
1970,106
1971,106
1972,106
1973,106
1974,106
1975,106
1976,106
1977,106
1978,106
1979,106
1980,106
1981,106
1982,106
1983,106
1984,106
1985,106
1986,106
1987,106
1988,106
1989,106
1990,106
1991,106
1992,106
1993,106
1994,106
1995,106
1996,106
1997,106
1998,106
1999,106
2000,106
