"tick","susceptible","exposed","infectious","recovered"
0,99,1,0,0
1,99,1,0,0
2,99,1,0,0
3,99,1,0,0
4,99,1,0,0
5,99,1,0,0
6,99,1,0,0
7,99,1,0,0
8,99,1,0,0
9,99,1,0,0
10,99,1,0,0
11,99,1,0,0
12,99,1,0,0
13,99,1,0,0
14,99,1,0,0
15,99,1,0,0
16,99,1,0,0
17,99,1,0,0
18,99,1,0,0
19,99,1,0,0
20,99,1,0,0
21,99,1,0,0
22,99,1,0,0
23,99,1,0,0
24,99,1,0,0
25,99,1,0,0
26,99,1,0,0
27,99,1,0,0
28,99,1,0,0
29,99,1,0,0
30,99,1,0,0
31,99,1,0,0
32,99,1,0,0
33,99,1,0,0
34,99,1,0,0
35,99,1,0,0
36,99,1,0,0
37,99,1,0,0
38,99,1,0,0
39,99,1,0,0
40,99,1,0,0
41,99,1,0,0
42,99,1,0,0
43,99,1,0,0
44,99,1,0,0
45,99,1,0,0
46,99,1,0,0
47,99,1,0,0
48,99,1,0,0
49,99,1,0,0
50,99,1,0,0
51,99,1,0,0
52,99,1,0,0
53,99,1,0,0
54,99,1,0,0
55,99,1,0,0
56,99,1,0,0
57,99,1,0,0
58,99,1,0,0
59,99,1,0,0
60,99,1,0,0
61,99,1,0,0
62,99,1,0,0
63,99,1,0,0
64,99,1,0,0
65,99,1,0,0
66,99,1,0,0
67,99,1,0,0
68,99,1,0,0
69,99,1,0,0
70,99,1,0,0
71,99,1,0,0
72,99,1,0,0
73,99,1,0,0
74,99,1,0,0
75,99,1,0,0
76,99,1,0,0
77,99,1,0,0
78,99,1,0,0
79,99,1,0,0
80,99,1,0,0
81,99,1,0,0
82,99,1,0,0
83,99,1,0,0
84,99,1,0,0
85,99,1,0,0
86,99,1,0,0
87,99,1,0,0
88,99,1,0,0
89,99,1,0,0
90,99,1,0,0
91,99,1,0,0
92,99,1,0,0
93,99,1,0,0
94,99,1,0,0
95,99,1,0,0
96,99,1,0,0
97,99,1,0,0
98,99,1,0,0
99,99,1,0,0
100,99,1,0,0
101,99,1,0,0
102,99,1,0,0
103,99,1,0,0
104,99,1,0,0
105,99,1,0,0
106,99,1,0,0
107,99,1,0,0
108,99,1,0,0
109,99,1,0,0
110,99,1,0,0
111,99,1,0,0
112,99,1,0,0
113,99,1,0,0
114,99,1,0,0
115,99,1,0,0
116,99,1,0,0
117,99,1,0,0
118,99,1,0,0
119,99,1,0,0
120,99,1,0,0
121,99,1,0,0
122,99,1,0,0
123,99,1,0,0
124,99,1,0,0
125,99,1,0,0
126,99,1,0,0
127,99,1,0,0
128,99,1,0,0
129,99,1,0,0
130,99,1,0,0
131,99,1,0,0
132,99,1,0,0
133,99,1,0,0
134,99,1,0,0
135,99,1,0,0
136,99,1,0,0
137,99,1,0,0
138,99,1,0,0
139,99,1,0,0
140,99,1,0,0
141,99,1,0,0
142,99,1,0,0
143,99,1,0,0
144,99,1,0,0
145,99,1,0,0
146,99,1,0,0
147,99,1,0,0
148,99,1,0,0
149,99,1,0,0
150,99,1,0,0
151,99,1,0,0
152,99,1,0,0
153,99,1,0,0
154,99,1,0,0
155,99,1,0,0
156,99,1,0,0
157,99,1,0,0
158,99,1,0,0
159,99,1,0,0
160,99,1,0,0
161,99,1,0,0
162,99,1,0,0
163,99,1,0,0
164,99,1,0,0
165,99,1,0,0
166,99,1,0,0
167,99,1,0,0
168,99,1,0,0
169,99,1,0,0
170,99,1,0,0
171,99,1,0,0
172,99,1,0,0
173,99,1,0,0
174,99,1,0,0
175,99,1,0,0
176,99,1,0,0
177,99,1,0,0
178,99,1,0,0
179,99,1,0,0
180,99,1,0,0
181,99,1,0,0
182,99,1,0,0
183,99,1,0,0
184,99,1,0,0
185,99,1,0,0
186,99,1,0,0
187,99,1,0,0
188,99,1,0,0
189,99,1,0,0
190,99,1,0,0
191,99,1,0,0
192,99,1,0,0
193,99,1,0,0
194,99,1,0,0
195,99,1,0,0
196,99,1,0,0
197,99,1,0,0
198,99,1,0,0
199,99,1,0,0
200,99,1,0,0
201,99,0,1,0
202,99,0,1,0
203,99,0,1,0
204,99,0,1,0
205,99,0,1,0
206,99,0,1,0
207,99,0,1,0
208,99,0,1,0
209,99,0,1,0
210,99,0,1,0
211,99,0,1,0
212,99,0,1,0
213,99,0,1,0
214,99,0,1,0
215,99,0,1,0
216,99,0,1,0
217,99,0,1,0
218,99,0,1,0
219,99,0,1,0
220,99,0,1,0
221,99,0,1,0
222,99,0,1,0
223,99,0,1,0
224,99,0,1,0
225,99,0,1,0
226,99,0,1,0
227,99,0,1,0
228,99,0,1,0
229,99,0,1,0
230,99,0,1,0
231,99,0,1,0
232,99,0,1,0
233,99,0,1,0
234,99,0,1,0
235,99,0,1,0
236,99,0,1,0
237,99,0,1,0
238,99,0,1,0
239,99,0,1,0
240,99,0,1,0
241,99,0,1,0
242,99,0,1,0
243,99,0,1,0
244,99,0,1,0
245,99,0,1,0
246,99,0,1,0
247,99,0,1,0
248,99,0,1,0
249,99,0,1,0
250,99,0,1,0
251,99,0,1,0
252,99,0,1,0
253,99,0,1,0
254,99,0,1,0
255,99,0,1,0
256,99,0,1,0
257,99,0,1,0
258,99,0,1,0
259,99,0,1,0
260,99,0,1,0
261,99,0,1,0
262,99,0,1,0
263,99,0,1,0
264,99,0,1,0
265,99,0,1,0
266,99,0,1,0
267,99,0,1,0
268,99,0,1,0
269,99,0,1,0
270,99,0,1,0
271,99,0,1,0
272,99,0,1,0
273,99,0,1,0
274,99,0,1,0
275,99,0,1,0
276,99,0,1,0
277,99,0,1,0
278,99,0,1,0
279,99,0,1,0
280,99,0,1,0
281,99,0,1,0
282,99,0,1,0
283,99,0,1,0
284,99,0,1,0
285,99,0,1,0
286,99,0,1,0
287,99,0,1,0
288,99,0,1,0
289,99,0,1,0
290,99,0,1,0
291,99,0,1,0
292,99,0,1,0
293,99,0,1,0
294,99,0,1,0
295,99,0,1,0
296,99,0,1,0
297,99,0,1,0
298,99,0,1,0
299,99,0,1,0
300,99,0,1,0
301,98,1,1,0
302,98,1,1,0
303,98,1,1,0
304,98,1,1,0
305,98,1,1,0
306,98,1,1,0
307,98,1,1,0
308,98,1,1,0
309,98,1,1,0
310,98,1,1,0
311,98,1,1,0
312,98,1,1,0
313,98,1,1,0
314,98,1,1,0
315,98,1,1,0
316,98,1,1,0
317,98,1,1,0
318,98,1,1,0
319,98,1,1,0
320,98,1,1,0
321,98,1,1,0
322,98,1,1,0
323,98,1,1,0
324,98,1,1,0
325,98,1,1,0
326,98,1,1,0
327,98,1,1,0
328,98,1,1,0
329,98,1,1,0
330,98,1,1,0
331,98,1,1,0
332,98,1,1,0
333,98,1,1,0
334,98,1,1,0
335,98,1,1,0
336,98,1,1,0
337,98,1,1,0
338,98,1,1,0
339,98,1,1,0
340,98,1,1,0
341,98,1,1,0
342,98,1,1,0
343,98,1,1,0
344,98,1,1,0
345,98,1,1,0
346,98,1,1,0
347,98,1,1,0
348,98,1,1,0
349,98,1,1,0
350,98,1,1,0
351,98,1,1,0
352,98,1,1,0
353,98,1,1,0
354,98,1,1,0
355,98,1,1,0
356,98,1,1,0
357,98,1,1,0
358,98,1,1,0
359,98,1,1,0
360,98,1,1,0
361,98,1,1,0
362,98,1,1,0
363,98,1,1,0
364,98,1,1,0
365,98,1,1,0
366,98,1,1,0
367,98,1,1,0
368,98,1,1,0
369,98,1,1,0
370,98,1,1,0
371,98,1,1,0
372,98,1,1,0
373,98,1,1,0
374,98,1,1,0
375,98,1,1,0
376,98,1,1,0
377,98,1,1,0
378,98,1,1,0
379,98,1,1,0
380,98,1,1,0
381,98,1,1,0
382,98,1,1,0
383,98,1,1,0
384,98,1,1,0
385,98,1,1,0
386,98,1,1,0
387,98,1,1,0
388,98,1,1,0
389,98,1,1,0
390,98,1,1,0
391,98,1,1,0
392,98,1,1,0
393,98,1,1,0
394,98,1,1,0
395,98,1,1,0
396,98,1,1,0
397,98,1,1,0
398,97,2,1,0
399,97,2,1,0
400,97,2,1,0
401,97,2,1,0
402,97,2,0,1
403,97,2,0,1
404,97,2,0,1
405,97,2,0,1
406,97,2,0,1
407,97,2,0,1
408,97,2,0,1
409,97,2,0,1
410,97,2,0,1
411,97,2,0,1
412,97,2,0,1
413,97,2,0,1
414,97,2,0,1
415,97,2,0,1
416,97,2,0,1
417,97,2,0,1
418,97,2,0,1
419,97,2,0,1
420,97,2,0,1
421,97,2,0,1
422,97,2,0,1
423,97,2,0,1
424,97,2,0,1
425,97,2,0,1
426,97,2,0,1
427,97,2,0,1
428,97,2,0,1
429,97,2,0,1
430,97,2,0,1
431,97,2,0,1
432,97,2,0,1
433,97,2,0,1
434,97,2,0,1
435,97,2,0,1
436,97,2,0,1
437,97,2,0,1
438,97,2,0,1
439,97,2,0,1
440,97,2,0,1
441,97,2,0,1
442,97,2,0,1
443,97,2,0,1
444,97,2,0,1
445,97,2,0,1
446,97,2,0,1
447,97,2,0,1
448,97,2,0,1
449,97,2,0,1
450,97,2,0,1
451,97,2,0,1
452,97,2,0,1
453,97,2,0,1
454,97,2,0,1
455,97,2,0,1
456,97,2,0,1
457,97,2,0,1
458,97,2,0,1
459,97,2,0,1
460,97,2,0,1
461,97,2,0,1
462,97,2,0,1
463,97,2,0,1
464,97,2,0,1
465,97,2,0,1
466,97,2,0,1
467,97,2,0,1
468,97,2,0,1
469,97,2,0,1
470,97,2,0,1
471,97,2,0,1
472,97,2,0,1
473,97,2,0,1
474,97,2,0,1
475,97,2,0,1
476,97,2,0,1
477,97,2,0,1
478,97,2,0,1
479,97,2,0,1
480,97,2,0,1
481,97,2,0,1
482,97,2,0,1
483,97,2,0,1
484,97,2,0,1
485,97,2,0,1
486,97,2,0,1
487,97,2,0,1
488,97,2,0,1
489,97,2,0,1
490,97,2,0,1
491,97,2,0,1
492,97,2,0,1
493,97,2,0,1
494,97,2,0,1
495,97,2,0,1
496,97,2,0,1
497,97,2,0,1
498,97,2,0,1
499,97,2,0,1
500,97,2,0,1
501,97,2,0,1
502,97,1,1,1
503,97,1,1,1
504,97,1,1,1
505,97,1,1,1
506,97,1,1,1
507,97,1,1,1
508,97,1,1,1
509,97,1,1,1
510,97,1,1,1
511,97,1,1,1
512,97,1,1,1
513,97,1,1,1
514,97,1,1,1
515,97,1,1,1
516,97,1,1,1
517,97,1,1,1
518,97,1,1,1
519,97,1,1,1
520,97,1,1,1
521,97,1,1,1
522,97,1,1,1
523,97,1,1,1
524,97,1,1,1
525,97,1,1,1
526,97,1,1,1
527,97,1,1,1
528,97,1,1,1
529,97,1,1,1
530,97,1,1,1
531,97,1,1,1
532,97,1,1,1
533,97,1,1,1
534,97,1,1,1
535,97,1,1,1
536,97,1,1,1
537,97,1,1,1
538,97,1,1,1
539,97,1,1,1
540,97,1,1,1
541,97,1,1,1
542,97,1,1,1
543,97,1,1,1
544,97,1,1,1
545,97,1,1,1
546,97,1,1,1
547,97,1,1,1
548,97,1,1,1
549,97,1,1,1
550,97,1,1,1
551,97,1,1,1
552,97,1,1,1
553,97,1,1,1
554,97,1,1,1
555,97,1,1,1
556,97,1,1,1
557,97,1,1,1
558,97,1,1,1
559,97,1,1,1
560,97,1,1,1
561,97,1,1,1
562,97,1,1,1
563,97,1,1,1
564,97,1,1,1
565,97,1,1,1
566,97,1,1,1
567,97,1,1,1
568,97,1,1,1
569,97,1,1,1
570,97,1,1,1
571,97,1,1,1
572,97,1,1,1
573,97,1,1,1
574,97,1,1,1
575,97,1,1,1
576,97,1,1,1
577,97,1,1,1
578,97,1,1,1
579,97,1,1,1
580,97,1,1,1
581,97,1,1,1
582,97,1,1,1
583,97,1,1,1
584,97,1,1,1
585,97,1,1,1
586,97,1,1,1
587,97,1,1,1
588,97,1,1,1
589,97,1,1,1
590,97,1,1,1
591,97,1,1,1
592,97,1,1,1
593,97,1,1,1
594,97,1,1,1
595,97,1,1,1
596,97,1,1,1
597,97,1,1,1
598,97,1,1,1
599,97,0,2,1
600,97,0,2,1
601,97,0,2,1
602,97,0,2,1
603,97,0,2,1
604,97,0,2,1
605,97,0,2,1
606,97,0,2,1
607,97,0,2,1
608,97,0,2,1
609,97,0,2,1
610,97,0,2,1
611,97,0,2,1
612,97,0,2,1
613,97,0,2,1
614,97,0,2,1
615,97,0,2,1
616,97,0,2,1
617,97,0,2,1
618,97,0,2,1
619,97,0,2,1
620,97,0,2,1
621,97,0,2,1
622,97,0,2,1
623,97,0,2,1
624,97,0,2,1
625,97,0,2,1
626,97,0,2,1
627,97,0,2,1
628,97,0,2,1
629,97,0,2,1
630,97,0,2,1
631,97,0,2,1
632,97,0,2,1
633,97,0,2,1
634,97,0,2,1
635,97,0,2,1
636,97,0,2,1
637,97,0,2,1
638,97,0,2,1
639,97,0,2,1
640,97,0,2,1
641,97,0,2,1
642,97,0,2,1
643,97,0,2,1
644,97,0,2,1
645,97,0,2,1
646,96,1,2,1
647,96,1,2,1
648,96,1,2,1
649,96,1,2,1
650,96,1,2,1
651,96,1,2,1
652,96,1,2,1
653,96,1,2,1
654,96,1,2,1
655,96,1,2,1
656,96,1,2,1
657,96,1,2,1
658,96,1,2,1
659,96,1,2,1
660,96,1,2,1
661,96,1,2,1
662,96,1,2,1
663,96,1,2,1
664,96,1,2,1
665,96,1,2,1
666,96,1,2,1
667,96,1,2,1
668,96,1,2,1
669,96,1,2,1
670,96,1,2,1
671,96,1,2,1
672,96,1,2,1
673,96,1,2,1
674,96,1,2,1
675,96,1,2,1
676,96,1,2,1
677,96,1,2,1
678,96,1,2,1
679,96,1,2,1
680,96,1,2,1
681,96,1,2,1
682,96,1,2,1
683,96,1,2,1
684,96,1,2,1
685,96,1,2,1
686,96,1,2,1
687,96,1,2,1
688,96,1,2,1
689,96,1,2,1
690,96,1,2,1
691,96,1,2,1
692,96,1,2,1
693,96,1,2,1
694,96,1,2,1
695,96,1,2,1
696,96,1,2,1
697,96,1,2,1
698,96,1,2,1
699,96,1,2,1
700,96,1,2,1
701,96,1,2,1
702,96,1,2,1
703,96,1,1,2
704,96,1,1,2
705,96,1,1,2
706,96,1,1,2
707,96,1,1,2
708,96,1,1,2
709,96,1,1,2
710,96,1,1,2
711,96,1,1,2
712,96,1,1,2
713,96,1,1,2
714,96,1,1,2
715,96,1,1,2
716,96,1,1,2
717,96,1,1,2
718,96,1,1,2
719,96,1,1,2
720,96,1,1,2
721,96,1,1,2
722,96,1,1,2
723,96,1,1,2
724,96,1,1,2
725,96,1,1,2
726,96,1,1,2
727,96,1,1,2
728,96,1,1,2
729,96,1,1,2
730,96,1,1,2
731,96,1,1,2
732,96,1,1,2
733,96,1,1,2
734,96,1,1,2
735,96,1,1,2
736,96,1,1,2
737,96,1,1,2
738,96,1,1,2
739,96,1,1,2
740,96,1,1,2
741,96,1,1,2
742,96,1,1,2
743,96,1,1,2
744,96,1,1,2
745,96,1,1,2
746,96,1,1,2
747,96,1,1,2
748,96,1,1,2
749,96,1,1,2
750,96,1,1,2
751,96,1,1,2
752,96,1,1,2
753,96,1,1,2
754,96,1,1,2
755,96,1,1,2
756,96,1,1,2
757,96,1,1,2
758,96,1,1,2
759,96,1,1,2
760,96,1,1,2
761,96,1,1,2
762,96,1,1,2
763,96,1,1,2
764,96,1,1,2
765,96,1,1,2
766,96,1,1,2
767,96,1,1,2
768,96,1,1,2
769,96,1,1,2
770,96,1,1,2
771,96,1,1,2
772,96,1,1,2
773,95,2,1,2
774,95,2,1,2
775,95,2,1,2
776,95,2,1,2
777,95,2,1,2
778,95,2,1,2
779,95,2,1,2
780,95,2,1,2
781,95,2,1,2
782,95,2,1,2
783,95,2,1,2
784,95,2,1,2
785,95,2,1,2
786,95,2,1,2
787,95,2,1,2
788,95,2,1,2
789,95,2,1,2
790,95,2,1,2
791,95,2,1,2
792,95,2,1,2
793,95,2,1,2
794,95,2,1,2
795,95,2,1,2
796,95,2,1,2
797,95,2,1,2
798,95,2,1,2
799,95,2,1,2
800,95,2,0,3
801,95,2,0,3
802,95,2,0,3
803,95,2,0,3
804,95,2,0,3
805,95,2,0,3
806,95,2,0,3
807,95,2,0,3
808,95,2,0,3
809,95,2,0,3
810,95,2,0,3
811,95,2,0,3
812,95,2,0,3
813,95,2,0,3
814,95,2,0,3
815,95,2,0,3
816,95,2,0,3
817,95,2,0,3
818,95,2,0,3
819,95,2,0,3
820,95,2,0,3
821,95,2,0,3
822,95,2,0,3
823,95,2,0,3
824,95,2,0,3
825,95,2,0,3
826,95,2,0,3
827,95,2,0,3
828,95,2,0,3
829,95,2,0,3
830,95,2,0,3
831,95,2,0,3
832,95,2,0,3
833,95,2,0,3
834,95,2,0,3
835,95,2,0,3
836,95,2,0,3
837,95,2,0,3
838,95,2,0,3
839,95,2,0,3
840,95,2,0,3
841,95,2,0,3
842,95,2,0,3
843,95,2,0,3
844,95,2,0,3
845,95,2,0,3
846,95,2,0,3
847,95,1,1,3
848,95,1,1,3
849,95,1,1,3
850,95,1,1,3
851,95,1,1,3
852,95,1,1,3
853,95,1,1,3
854,95,1,1,3
855,95,1,1,3
856,95,1,1,3
857,95,1,1,3
858,95,1,1,3
859,95,1,1,3
860,95,1,1,3
861,95,1,1,3
862,95,1,1,3
863,95,1,1,3
864,95,1,1,3
865,95,1,1,3
866,94,2,1,3
867,94,2,1,3
868,94,2,1,3
869,94,2,1,3
870,94,2,1,3
871,94,2,1,3
872,94,2,1,3
873,94,2,1,3
874,94,2,1,3
875,94,2,1,3
876,94,2,1,3
877,94,2,1,3
878,94,2,1,3
879,94,2,1,3
880,94,2,1,3
881,94,2,1,3
882,94,2,1,3
883,94,2,1,3
884,94,2,1,3
885,94,2,1,3
886,94,2,1,3
887,94,2,1,3
888,94,2,1,3
889,94,2,1,3
890,94,2,1,3
891,94,2,1,3
892,94,2,1,3
893,94,2,1,3
894,94,2,1,3
895,94,2,1,3
896,94,2,1,3
897,94,2,1,3
898,94,2,1,3
899,94,2,1,3
900,94,2,1,3
901,94,2,1,3
902,94,2,1,3
903,94,2,1,3
904,94,2,1,3
905,94,2,1,3
906,94,2,1,3
907,94,2,1,3
908,94,2,1,3
909,94,2,1,3
910,94,2,1,3
911,94,2,1,3
912,94,2,1,3
913,94,2,1,3
914,94,2,1,3
915,94,2,1,3
916,94,2,1,3
917,93,3,1,3
918,93,3,1,3
919,93,3,1,3
920,93,3,1,3
921,93,3,1,3
922,93,3,1,3
923,93,3,1,3
924,93,3,1,3
925,93,3,1,3
926,93,3,1,3
927,93,3,1,3
928,93,3,1,3
929,93,3,1,3
930,93,3,1,3
931,93,3,1,3
932,93,3,1,3
933,93,3,1,3
934,93,3,1,3
935,93,3,1,3
936,93,3,1,3
937,93,3,1,3
938,93,3,1,3
939,93,3,1,3
940,93,3,1,3
941,93,3,1,3
942,93,3,1,3
943,93,3,1,3
944,93,3,1,3
945,93,3,1,3
946,93,3,1,3
947,93,3,1,3
948,93,3,1,3
949,93,3,1,3
950,93,3,1,3
951,93,3,1,3
952,93,3,1,3
953,93,3,1,3
954,93,3,1,3
955,93,3,1,3
956,93,3,1,3
957,93,3,1,3
958,93,3,1,3
959,92,4,1,3
960,92,4,1,3
961,92,4,1,3
962,92,4,1,3
963,92,4,1,3
964,92,4,1,3
965,92,4,1,3
966,92,4,1,3
967,92,4,1,3
968,92,4,1,3
969,92,4,1,3
970,92,4,1,3
971,92,4,1,3
972,92,4,1,3
973,92,4,1,3
974,92,3,2,3
975,91,4,2,3
976,91,4,2,3
977,91,4,2,3
978,91,4,2,3
979,91,4,2,3
980,91,4,2,3
981,91,4,2,3
982,91,4,2,3
983,91,4,2,3
984,91,4,2,3
985,91,4,2,3
986,91,4,2,3
987,91,4,2,3
988,91,4,2,3
989,91,4,2,3
990,91,4,2,3
991,91,4,2,3
992,90,5,2,3
993,90,5,2,3
994,90,5,2,3
995,90,5,2,3
996,90,5,2,3
997,89,6,2,3
998,89,6,2,3
999,89,6,2,3
1000,89,6,2,3
1001,89,6,2,3
1002,89,6,2,3
1003,89,6,2,3
1004,89,6,2,3
1005,89,6,2,3
1006,89,6,2,3
1007,89,6,2,3
1008,89,6,2,3
1009,89,6,2,3
1010,88,7,2,3
1011,88,7,2,3
1012,87,8,2,3
1013,87,8,2,3
1014,87,8,2,3
1015,87,8,2,3
1016,87,8,2,3
1017,87,8,2,3
1018,87,8,2,3
1019,87,8,2,3
1020,87,8,2,3
1021,87,8,2,3
1022,87,8,2,3
1023,87,8,2,3
1024,87,8,2,3
1025,87,8,2,3
1026,87,8,2,3
1027,87,8,2,3
1028,87,8,2,3
1029,87,8,2,3
1030,87,8,2,3
1031,87,8,2,3
1032,87,8,2,3
1033,87,8,2,3
1034,87,8,2,3
1035,87,8,2,3
1036,87,8,2,3
1037,87,8,2,3
1038,87,8,2,3
1039,87,8,2,3
1040,87,8,2,3
1041,87,8,2,3
1042,87,8,2,3
1043,87,8,2,3
1044,87,8,2,3
1045,87,8,2,3
1046,87,8,2,3
1047,87,8,2,3
1048,87,8,1,4
1049,87,8,1,4
1050,87,8,1,4
1051,87,8,1,4
1052,87,8,1,4
1053,87,8,1,4
1054,87,8,1,4
1055,87,8,1,4
1056,87,8,1,4
1057,87,8,1,4
1058,87,8,1,4
1059,87,8,1,4
1060,87,8,1,4
1061,87,8,1,4
1062,87,8,1,4
1063,87,8,1,4
1064,87,8,1,4
1065,87,8,1,4
1066,87,8,1,4
1067,87,7,2,4
1068,87,7,2,4
1069,87,7,2,4
1070,87,7,2,4
1071,87,7,2,4
1072,87,7,2,4
1073,87,7,2,4
1074,87,7,2,4
1075,87,7,2,4
1076,87,7,2,4
1077,87,7,2,4
1078,87,7,2,4
1079,87,7,2,4
1080,87,7,2,4
1081,87,7,2,4
1082,87,7,2,4
1083,87,7,2,4
1084,87,7,2,4
1085,87,7,2,4
1086,87,7,2,4
1087,87,7,2,4
1088,87,7,2,4
1089,87,7,2,4
1090,87,7,2,4
1091,86,8,2,4
1092,86,8,2,4
1093,86,8,2,4
1094,86,8,2,4
1095,86,8,2,4
1096,86,8,2,4
1097,86,8,2,4
1098,86,8,2,4
1099,86,8,2,4
1100,84,10,2,4
1101,84,10,2,4
1102,84,10,2,4
1103,84,10,2,4
1104,84,10,2,4
1105,84,10,2,4
1106,84,10,2,4
1107,84,10,2,4
1108,84,10,2,4
1109,84,10,2,4
1110,84,10,2,4
1111,84,10,2,4
1112,84,10,2,4
1113,84,10,2,4
1114,84,10,2,4
1115,84,10,2,4
1116,84,10,2,4
1117,83,11,2,4
1118,83,10,3,4
1119,83,10,3,4
1120,83,10,3,4
1121,83,10,3,4
1122,83,10,3,4
1123,83,10,3,4
1124,83,10,3,4
1125,83,10,3,4
1126,83,10,3,4
1127,83,10,3,4
1128,83,10,3,4
1129,83,10,3,4
1130,83,10,3,4
1131,83,10,3,4
1132,83,10,3,4
1133,83,10,3,4
1134,83,10,3,4
1135,83,10,3,4
1136,83,10,3,4
1137,83,10,3,4
1138,83,10,3,4
1139,83,10,3,4
1140,83,10,3,4
1141,83,10,3,4
1142,83,10,3,4
1143,83,10,3,4
1144,83,10,3,4
1145,83,10,3,4
1146,83,10,3,4
1147,83,10,3,4
1148,83,10,3,4
1149,83,10,3,4
1150,83,10,3,4
1151,83,10,3,4
1152,83,10,3,4
1153,83,10,3,4
1154,83,10,3,4
1155,83,10,3,4
1156,83,10,3,4
1157,83,10,3,4
1158,83,10,3,4
1159,83,10,3,4
1160,83,9,4,4
1161,83,9,4,4
1162,83,9,4,4
1163,83,9,4,4
1164,83,9,4,4
1165,83,9,4,4
1166,83,9,4,4
1167,83,9,4,4
1168,83,9,4,4
1169,83,9,4,4
1170,83,9,4,4
1171,83,9,4,4
1172,83,9,4,4
1173,83,9,4,4
1174,83,9,4,4
1175,83,9,3,5
1176,83,8,4,5
1177,82,9,4,5
1178,82,9,4,5
1179,82,9,4,5
1180,82,9,4,5
1181,82,9,4,5
1182,82,9,4,5
1183,82,9,4,5
1184,82,9,4,5
1185,82,9,4,5
1186,82,9,4,5
1187,82,9,4,5
1188,82,9,4,5
1189,82,9,4,5
1190,82,9,4,5
1191,81,10,4,5
1192,81,10,4,5
1193,80,10,5,5
1194,76,14,5,5
1195,76,14,5,5
1196,75,15,5,5
1197,75,15,5,5
1198,74,15,6,5
1199,74,15,6,5
1200,74,15,6,5
1201,73,16,6,5
1202,73,16,6,5
1203,72,17,6,5
1204,72,17,6,5
1205,72,17,6,5
1206,72,17,6,5
1207,72,17,6,5
1208,72,17,6,5
1209,72,17,6,5
1210,72,17,6,5
1211,72,16,7,5
1212,72,16,7,5
1213,71,16,8,5
1214,71,16,8,5
1215,71,16,8,5
1216,71,16,8,5
1217,71,16,8,5
1218,71,16,8,5
1219,71,16,8,5
1220,71,16,8,5
1221,71,16,8,5
1222,71,16,8,5
1223,71,16,8,5
1224,71,16,8,5
1225,71,16,8,5
1226,71,16,8,5
1227,71,16,8,5
1228,71,16,8,5
1229,70,17,8,5
1230,70,17,8,5
1231,70,17,8,5
1232,70,17,8,5
1233,69,18,8,5
1234,69,18,8,5
1235,69,18,8,5
1236,69,18,8,5
1237,69,18,8,5
1238,69,18,8,5
1239,69,18,8,5
1240,69,18,8,5
1241,69,18,8,5
1242,69,18,8,5
1243,69,18,8,5
1244,69,18,8,5
1245,69,18,8,5
1246,69,18,8,5
1247,69,18,8,5
1248,69,18,8,5
1249,69,18,8,5
1250,69,18,8,5
1251,69,18,8,5
1252,69,18,8,5
1253,69,18,8,5
1254,69,18,8,5
1255,69,18,8,5
1256,69,18,8,5
1257,69,18,8,5
1258,69,18,8,5
1259,69,18,8,5
1260,69,18,8,5
1261,69,18,8,5
1262,69,18,8,5
1263,69,18,8,5
1264,68,19,8,5
1265,68,19,8,5
1266,67,20,8,5
1267,67,20,8,5
1268,67,20,7,6
1269,67,20,7,6
1270,67,20,7,6
1271,67,20,7,6
1272,67,20,7,6
1273,67,20,7,6
1274,66,21,7,6
1275,66,21,7,6
1276,66,21,7,6
1277,66,21,7,6
1278,66,21,7,6
1279,66,21,7,6
1280,66,21,7,6
1281,66,21,7,6
1282,66,21,7,6
1283,66,21,7,6
1284,66,21,7,6
1285,66,21,7,6
1286,66,21,7,6
1287,66,21,7,6
1288,66,21,7,6
1289,66,21,7,6
1290,66,21,7,6
1291,66,21,7,6
1292,66,20,8,6
1293,66,20,8,6
1294,66,20,8,6
1295,66,20,8,6
1296,66,20,8,6
1297,66,20,8,6
1298,66,20,8,6
1299,66,20,8,6
1300,66,20,8,6
1301,66,18,10,6
1302,66,18,10,6
1303,66,18,10,6
1304,66,18,10,6
1305,65,19,10,6
1306,65,19,10,6
1307,65,19,10,6
1308,65,19,10,6
1309,65,19,10,6
1310,65,19,10,6
1311,65,19,10,6
1312,65,19,10,6
1313,65,19,10,6
1314,65,19,10,6
1315,65,19,10,6
1316,65,19,10,6
1317,65,19,10,6
1318,65,18,11,6
1319,65,18,10,7
1320,65,18,10,7
1321,65,18,10,7
1322,65,18,10,7
1323,65,18,10,7
1324,65,18,10,7
1325,65,18,10,7
1326,65,18,10,7
1327,65,18,10,7
1328,65,18,10,7
1329,63,20,10,7
1330,62,21,10,7
1331,62,21,10,7
1332,62,21,10,7
1333,62,21,10,7
1334,62,21,10,7
1335,61,22,10,7
1336,61,22,10,7
1337,61,22,10,7
1338,61,22,10,7
1339,61,22,10,7
1340,61,22,10,7
1341,61,22,10,7
1342,61,22,10,7
1343,61,22,10,7
1344,61,22,10,7
1345,61,22,10,7
1346,61,22,10,7
1347,61,22,10,7
1348,61,22,10,7
1349,61,22,10,7
1350,61,22,10,7
1351,61,22,10,7
1352,61,22,10,7
1353,61,22,10,7
1354,61,22,10,7
1355,61,22,10,7
1356,61,22,10,7
1357,61,22,10,7
1358,61,22,10,7
1359,61,22,10,7
1360,61,22,10,7
1361,61,22,9,8
1362,61,22,9,8
1363,61,22,9,8
1364,61,22,9,8
1365,61,22,9,8
1366,61,22,9,8
1367,61,22,9,8
1368,61,22,9,8
1369,61,22,9,8
1370,61,22,9,8
1371,60,23,9,8
1372,60,23,9,8
1373,60,23,9,8
1374,60,23,9,8
1375,60,23,9,8
1376,60,23,9,8
1377,60,23,8,9
1378,60,22,9,9
1379,60,22,9,9
1380,60,22,9,9
1381,60,22,9,9
1382,60,22,9,9
1383,60,22,9,9
1384,60,22,9,9
1385,60,22,9,9
1386,60,22,9,9
1387,60,22,9,9
1388,60,22,9,9
1389,60,22,9,9
1390,60,22,9,9
1391,60,22,9,9
1392,60,21,10,9
1393,60,21,10,9
1394,60,20,10,10
1395,60,16,14,10
1396,60,16,14,10
1397,60,15,15,10
1398,60,15,15,10
1399,60,14,15,11
1400,60,14,15,11
1401,60,14,15,11
1402,60,13,16,11
1403,57,16,16,11
1404,57,15,17,11
1405,57,15,17,11
1406,57,15,17,11
1407,57,15,17,11
1408,57,15,17,11
1409,57,15,17,11
1410,57,15,17,11
1411,57,15,17,11
1412,57,15,16,12
1413,57,15,16,12
1414,57,14,16,13
1415,57,14,16,13
1416,57,14,16,13
1417,57,14,16,13
1418,57,14,16,13
1419,57,14,16,13
1420,57,14,16,13
1421,57,14,16,13
1422,57,14,16,13
1423,57,14,16,13
1424,57,14,16,13
1425,57,14,16,13
1426,57,14,16,13
1427,57,14,16,13
1428,57,14,16,13
1429,55,16,16,13
1430,55,15,17,13
1431,55,15,17,13
1432,55,15,17,13
1433,55,15,17,13
1434,54,15,18,13
1435,54,15,18,13
1436,54,15,18,13
1437,54,15,18,13
1438,54,15,18,13
1439,54,15,18,13
1440,54,15,18,13
1441,54,15,18,13
1442,54,15,18,13
1443,54,15,18,13
1444,54,15,18,13
1445,54,15,18,13
1446,54,15,18,13
1447,53,16,18,13
1448,53,16,18,13
1449,53,16,18,13
1450,53,16,18,13
1451,53,16,18,13
1452,53,16,18,13
1453,53,16,18,13
1454,52,17,18,13
1455,52,17,18,13
1456,51,18,18,13
1457,51,18,18,13
1458,51,18,18,13
1459,51,18,18,13
1460,51,18,18,13
1461,51,18,18,13
1462,51,18,18,13
1463,51,18,18,13
1464,51,18,18,13
1465,51,17,19,13
1466,51,17,19,13
1467,50,17,20,13
1468,50,17,20,13
1469,49,18,20,13
1470,49,18,20,13
1471,49,18,20,13
1472,48,19,20,13
1473,48,19,20,13
1474,48,19,20,13
1475,48,18,21,13
1476,46,20,21,13
1477,45,21,21,13
1478,45,21,21,13
1479,45,21,21,13
1480,45,21,21,13
1481,44,22,21,13
1482,44,22,21,13
1483,44,22,21,13
1484,43,23,21,13
1485,43,23,21,13
1486,42,24,21,13
1487,42,24,21,13
1488,42,24,21,13
1489,42,24,21,13
1490,42,24,21,13
1491,42,24,21,13
1492,42,24,21,13
1493,42,24,20,14
1494,42,24,20,14
1495,42,24,20,14
1496,42,24,20,14
1497,42,24,20,14
1498,42,24,20,14
1499,42,24,20,14
1500,42,24,20,14
1501,42,24,20,14
1502,42,24,18,16
1503,42,24,18,16
1504,42,24,18,16
1505,42,24,18,16
1506,42,23,19,16
1507,42,23,19,16
1508,42,23,19,16
1509,42,23,19,16
1510,42,23,19,16
1511,41,24,19,16
1512,41,24,19,16
1513,40,25,19,16
1514,40,25,19,16
1515,40,25,19,16
1516,40,25,19,16
1517,40,25,19,16
1518,40,25,19,16
1519,40,25,18,17
1520,39,26,18,17
1521,39,26,18,17
1522,39,26,18,17
1523,39,26,18,17
1524,39,26,18,17
1525,39,26,18,17
1526,39,26,18,17
1527,39,26,18,17
1528,39,26,18,17
1529,38,27,18,17
1530,38,25,20,17
1531,38,24,21,17
1532,38,24,21,17
1533,38,24,21,17
1534,38,24,21,17
1535,38,24,21,17
1536,38,23,22,17
1537,38,23,22,17
1538,38,23,22,17
1539,38,23,22,17
1540,38,23,22,17
1541,38,23,22,17
1542,38,23,22,17
1543,38,23,22,17
1544,38,23,22,17
1545,38,23,22,17
1546,37,24,22,17
1547,37,24,22,17
1548,36,25,22,17
1549,36,25,22,17
1550,36,25,22,17
1551,36,25,22,17
1552,36,25,22,17
1553,36,25,22,17
1554,36,25,22,17
1555,36,25,22,17
1556,36,25,22,17
1557,36,25,22,17
1558,36,25,22,17
1559,36,25,22,17
1560,36,25,22,17
1561,36,25,22,17
1562,36,25,22,17
1563,36,25,22,17
1564,36,25,22,17
1565,36,25,22,17
1566,36,25,22,17
1567,36,25,22,17
1568,36,25,22,17
1569,36,25,22,17
1570,36,25,22,17
1571,36,25,22,17
1572,36,24,23,17
1573,36,24,23,17
1574,36,24,23,17
1575,35,25,23,17
1576,34,26,23,17
1577,34,26,23,17
1578,34,26,23,17
1579,34,26,22,18
1580,34,26,22,18
1581,34,26,22,18
1582,34,26,22,18
1583,34,26,22,18
1584,34,26,22,18
1585,33,27,22,18
1586,33,27,22,18
1587,32,28,22,18
1588,32,28,22,18
1589,32,28,22,18
1590,32,28,22,18
1591,32,28,22,18
1592,32,28,22,18
1593,32,28,21,19
1594,32,28,21,19
1595,31,29,20,20
1596,31,29,16,24
1597,31,29,16,24
1598,31,29,15,25
1599,30,30,15,25
1600,30,30,14,26
1601,30,30,14,26
1602,30,30,14,26
1603,30,30,13,27
1604,30,27,16,27
1605,30,27,15,28
1606,30,27,15,28
1607,30,27,15,28
1608,29,28,15,28
1609,29,28,15,28
1610,29,28,15,28
1611,29,28,15,28
1612,29,28,15,28
1613,29,28,15,28
1614,29,28,15,28
1615,29,28,14,29
1616,29,28,14,29
1617,29,28,14,29
1618,29,28,14,29
1619,29,28,14,29
1620,29,28,14,29
1621,29,28,14,29
1622,29,28,14,29
1623,29,28,14,29
1624,29,28,14,29
1625,29,28,14,29
1626,29,28,14,29
1627,29,28,14,29
1628,29,28,14,29
1629,29,28,14,29
1630,29,26,16,29
1631,28,27,15,30
1632,28,27,15,30
1633,28,27,15,30
1634,28,27,15,30
1635,28,26,15,31
1636,28,26,15,31
1637,28,26,15,31
1638,28,26,15,31
1639,28,26,15,31
1640,28,26,15,31
1641,28,26,15,31
1642,28,26,15,31
1643,28,26,15,31
1644,28,26,15,31
1645,28,26,15,31
1646,28,26,15,31
1647,28,26,15,31
1648,28,25,16,31
1649,28,25,16,31
1650,28,25,16,31
1651,27,26,16,31
1652,27,26,16,31
1653,27,26,16,31
1654,27,26,16,31
1655,27,25,17,31
1656,27,25,17,31
1657,26,25,18,31
1658,26,25,18,31
1659,26,25,18,31
1660,26,25,18,31
1661,25,26,18,31
1662,25,26,18,31
1663,24,27,18,31
1664,24,27,18,31
1665,24,27,18,31
1666,24,27,17,32
1667,24,27,17,32
1668,24,26,17,33
1669,24,26,17,33
1670,24,25,18,33
1671,24,25,18,33
1672,24,25,18,33
1673,24,24,19,33
1674,24,24,19,33
1675,24,24,19,33
1676,24,24,18,34
1677,24,22,20,34
1678,24,21,21,34
1679,23,22,21,34
1680,23,22,21,34
1681,23,22,21,34
1682,23,21,22,34
1683,23,21,22,34
1684,23,21,22,34
1685,23,20,23,34
1686,23,20,23,34
1687,23,19,24,34
1688,23,19,24,34
1689,23,19,24,34
1690,23,19,24,34
1691,23,19,24,34
1692,23,19,24,34
1693,23,19,24,34
1694,23,19,24,34
1695,22,20,24,34
1696,22,20,24,34
1697,21,21,24,34
1698,21,21,24,34
1699,21,21,24,34
1700,21,21,24,34
1701,21,21,24,34
1702,21,21,24,34
1703,21,21,24,34
1704,21,21,24,34
1705,21,21,24,34
1706,21,21,24,34
1707,21,21,23,35
1708,21,21,23,35
1709,21,21,23,35
1710,21,21,23,35
1711,21,21,23,35
1712,21,20,24,35
1713,21,20,24,35
1714,21,19,25,35
1715,21,19,25,35
1716,20,20,25,35
1717,20,20,25,35
1718,20,20,25,35
1719,20,20,25,35
1720,20,20,25,35
1721,20,19,26,35
1722,20,19,26,35
1723,20,19,26,35
1724,20,19,26,35
1725,20,19,26,35
1726,20,19,26,35
1727,20,19,26,35
1728,20,19,26,35
1729,20,19,26,35
1730,20,18,27,35
1731,19,19,25,37
1732,19,19,24,38
1733,19,19,24,38
1734,19,19,24,38
1735,19,19,24,38
1736,19,19,24,38
1737,19,19,23,39
1738,19,19,23,39
1739,19,19,23,39
1740,19,19,23,39
1741,19,19,23,39
1742,19,19,23,39
1743,19,19,23,39
1744,19,19,23,39
1745,19,19,23,39
1746,19,19,23,39
1747,19,18,24,39
1748,19,18,24,39
1749,19,17,25,39
1750,19,17,25,39
1751,19,17,25,39
1752,19,17,25,39
1753,19,17,25,39
1754,19,17,25,39
1755,19,17,25,39
1756,19,17,25,39
1757,19,17,25,39
1758,19,17,25,39
1759,19,17,25,39
1760,19,17,25,39
1761,19,17,25,39
1762,19,17,25,39
1763,19,17,25,39
1764,19,17,25,39
1765,19,17,25,39
1766,19,17,25,39
1767,19,17,25,39
1768,19,17,25,39
1769,18,18,25,39
1770,18,18,25,39
1771,18,18,25,39
1772,18,18,25,39
1773,18,18,24,40
1774,18,18,24,40
1775,18,18,24,40
1776,18,17,25,40
1777,18,16,26,40
1778,17,17,26,40
1779,17,17,26,40
1780,17,17,26,40
1781,17,17,26,40
1782,17,17,26,40
1783,17,17,26,40
1784,17,17,26,40
1785,17,17,26,40
1786,17,16,27,40
1787,17,16,27,40
1788,17,15,28,40
1789,17,15,28,40
1790,17,15,28,40
1791,17,15,28,40
1792,17,15,28,40
1793,17,15,28,40
1794,17,15,28,40
1795,17,15,28,40
1796,17,14,29,40
1797,17,14,29,40
1798,17,14,29,40
1799,17,14,29,40
1800,17,13,30,40
1801,17,13,30,40
1802,17,13,30,40
1803,17,13,30,40
1804,17,13,30,40
1805,17,13,27,43
1806,17,13,27,43
1807,17,13,27,43
1808,17,13,27,43
1809,17,12,28,43
1810,17,12,28,43
1811,17,12,28,43
1812,17,12,28,43
1813,17,12,28,43
1814,17,12,28,43
1815,17,12,28,43
1816,17,12,28,43
1817,17,12,28,43
1818,17,12,28,43
1819,17,12,28,43
1820,17,12,28,43
1821,17,12,28,43
1822,17,12,28,43
1823,17,12,28,43
1824,17,12,28,43
1825,17,12,28,43
1826,17,12,28,43
1827,17,12,28,43
1828,17,12,28,43
1829,17,12,28,43
1830,17,12,28,43
1831,17,12,26,45
1832,17,11,27,45
1833,17,11,27,45
1834,17,11,27,45
1835,17,11,27,45
1836,17,11,26,46
1837,17,11,26,46
1838,17,11,26,46
1839,17,11,26,46
1840,17,11,26,46
1841,17,11,26,46
1842,17,11,26,46
1843,15,13,26,46
1844,15,13,26,46
1845,15,13,26,46
1846,15,13,26,46
1847,15,13,26,46
1848,15,13,26,46
1849,15,13,25,47
1850,15,13,25,47
1851,15,13,25,47
1852,15,12,26,47
1853,15,12,26,47
1854,15,12,26,47
1855,15,12,26,47
1856,15,12,25,48
1857,15,12,25,48
1858,15,11,25,49
1859,15,11,25,49
1860,15,11,25,49
1861,15,11,25,49
1862,15,10,26,49
1863,15,10,26,49
1864,14,10,27,49
1865,14,10,27,49
1866,14,10,27,49
1867,14,10,27,49
1868,14,10,27,49
1869,14,10,26,50
1870,14,10,26,50
1871,13,11,25,51
1872,12,12,25,51
1873,12,12,25,51
1874,12,12,24,52
1875,12,12,24,52
1876,12,12,24,52
1877,12,12,24,52
1878,11,13,22,54
1879,11,13,21,55
1880,11,12,22,55
1881,11,12,22,55
1882,11,12,22,55
1883,11,12,21,56
1884,10,13,21,56
1885,10,13,21,56
1886,10,13,20,57
1887,10,13,20,57
1888,10,13,19,58
1889,10,13,19,58
1890,10,13,19,58
1891,10,13,19,58
1892,10,13,19,58
1893,10,13,19,58
1894,10,13,19,58
1895,10,13,19,58
1896,10,12,20,58
1897,10,12,20,58
1898,10,11,21,58
1899,10,11,21,58
1900,10,11,21,58
1901,10,11,21,58
1902,10,11,21,58
1903,10,11,21,58
1904,10,11,21,58
1905,10,11,21,58
1906,10,11,21,58
1907,10,11,21,58
1908,10,11,21,58
1909,10,11,21,58
1910,10,11,21,58
1911,10,11,21,58
1912,10,11,21,58
1913,10,11,20,59
1914,10,11,20,59
1915,10,11,19,60
1916,10,11,19,60
1917,10,10,20,60
1918,10,10,20,60
1919,10,10,20,60
1920,10,10,20,60
1921,10,10,20,60
1922,10,10,19,61
1923,10,10,19,61
1924,10,10,19,61
1925,10,10,19,61
1926,10,10,19,61
1927,10,10,19,61
1928,10,10,19,61
1929,10,10,19,61
1930,10,10,19,61
1931,10,10,18,62
1932,10,9,19,62
1933,10,9,19,62
1934,10,9,19,62
1935,10,9,19,62
1936,10,9,19,62
1937,10,9,19,62
1938,10,9,19,62
1939,10,9,19,62
1940,10,9,19,62
1941,10,9,19,62
1942,10,9,19,62
1943,10,9,19,62
1944,10,9,19,62
1945,10,9,19,62
1946,10,9,19,62
1947,10,9,19,62
1948,10,9,18,63
1949,10,9,18,63
1950,10,9,17,64
1951,10,9,17,64
1952,10,9,17,64
1953,10,9,17,64
1954,10,9,17,64
1955,10,9,17,64
1956,10,9,17,64
1957,10,9,17,64
1958,10,9,17,64
1959,10,9,17,64
1960,10,9,17,64
1961,10,9,17,64
1962,10,9,17,64
1963,10,9,17,64
1964,10,9,17,64
1965,10,9,17,64
1966,10,9,17,64
1967,10,9,17,64
1968,10,9,17,64
1969,10,9,17,64
1970,10,8,18,64
1971,10,8,18,64
1972,10,8,18,64
1973,10,8,18,64
1974,10,8,18,64
1975,10,8,18,64
1976,10,8,18,64
1977,10,8,17,65
1978,10,8,16,66
1979,10,7,17,66
1980,10,7,17,66
1981,10,7,17,66
1982,10,7,17,66
1983,10,7,17,66
1984,10,7,17,66
1985,10,7,17,66
1986,10,7,17,66
1987,10,7,16,67
1988,10,7,16,67
1989,10,7,15,68
1990,10,7,15,68
1991,10,7,15,68
1992,10,7,15,68
1993,10,7,15,68
1994,10,7,15,68
1995,10,7,15,68
1996,10,7,15,68
1997,10,7,14,69
1998,10,7,14,69
1999,10,7,14,69
2000,10,7,14,69
