"tick","total"
0,0
1,0
2,0
3,0
4,0
5,0
6,0
7,0
8,0
9,0
10,0
11,0
12,0
13,0
14,0
15,0
16,0
17,0
18,0
19,0
20,0
21,0
22,0
23,0
24,0
25,0
26,0
27,0
28,0
29,0
30,0
31,0
32,0
33,0
34,0
35,0
36,0
37,0
38,0
39,0
40,0
41,0
42,0
43,0
44,0
45,0
46,0
47,0
48,0
49,0
50,0
51,0
52,0
53,0
54,0
55,0
56,0
57,0
58,0
59,0
60,0
61,0
62,0
63,0
64,0
65,0
66,0
67,0
68,0
69,0
70,0
71,0
72,0
73,0
74,0
75,0
76,0
77,0
78,0
79,0
80,0
81,0
82,0
83,0
84,0
85,0
86,0
87,0
88,0
89,0
90,0
91,0
92,0
93,0
94,0
95,0
96,0
97,0
98,0
99,0
100,0
101,0
102,0
103,0
104,0
105,0
106,0
107,0
108,0
109,0
110,0
111,0
112,0
113,0
114,0
115,0
116,0
117,0
118,0
119,0
120,0
121,0
122,0
123,0
124,0
125,0
126,0
127,0
128,0
129,0
130,0
131,0
132,0
133,0
134,0
135,0
136,0
137,0
138,0
139,0
140,0
141,0
142,0
143,0
144,0
145,0
146,0
147,0
148,0
149,0
150,0
151,0
152,0
153,0
154,0
155,0
156,0
157,0
158,0
159,0
160,0
161,0
162,0
163,0
164,0
165,0
166,0
167,0
168,0
169,0
170,0
171,0
172,0
173,0
174,0
175,0
176,0
177,0
178,0
179,0
180,0
181,0
182,0
183,0
184,0
185,0
186,0
187,0
188,0
189,0
190,0
191,0
192,0
193,0
194,0
195,0
196,0
197,0
198,0
199,0
200,0
201,0
202,0
203,0
204,0
205,0
206,0
207,0
208,0
209,0
210,0
211,0
212,0
213,0
214,0
215,0
216,0
217,0
218,0
219,0
220,0
221,0
222,0
223,0
224,0
225,0
226,0
227,0
228,0
229,0
230,1
231,1
232,1
233,1
234,1
235,1
236,1
237,1
238,1
239,1
240,1
241,2
242,2
243,2
244,2
245,2
246,2
247,2
248,2
249,2
250,2
251,2
252,2
253,2
254,2
255,2
256,2
257,2
258,2
259,2
260,2
261,3
262,3
263,3
264,3
265,3
266,3
267,3
268,3
269,3
270,4
271,4
272,5
273,5
274,5
275,5
276,6
277,6
278,6
279,6
280,7
281,7
282,7
283,7
284,7
285,7
286,7
287,7
288,7
289,7
290,7
291,7
292,7
293,7
294,7
295,7
296,8
297,8
298,8
299,8
300,8
301,8
302,8
303,8
304,8
305,9
306,9
307,9
308,9
309,9
310,9
311,9
312,9
313,10
314,10
315,11
316,11
317,13
318,13
319,13
320,14
321,15
322,15
323,16
324,16
325,16
326,16
327,16
328,16
329,16
330,16
331,16
332,17
333,17
334,17
335,17
336,17
337,17
338,17
339,17
340,17
341,17
342,17
343,17
344,18
345,19
346,20
347,20
348,20
349,20
350,20
351,20
352,20
353,20
354,20
355,20
356,21
357,21
358,21
359,21
360,21
361,21
362,21
363,21
364,21
365,21
366,21
367,22
368,22
369,22
370,22
371,22
372,22
373,22
374,22
375,22
376,23
377,23
378,23
379,23
380,23
381,23
382,24
383,25
384,25
385,25
386,25
387,25
388,25
389,25
390,25
391,25
392,25
393,25
394,25
395,25
396,25
397,25
398,25
399,25
400,25
401,25
402,25
403,25
404,25
405,25
406,25
407,25
408,25
409,25
410,25
411,25
412,26
413,26
414,26
415,26
416,26
417,26
418,26
419,26
420,26
421,26
422,26
423,26
424,27
425,27
426,27
427,27
428,27
429,27
430,27
431,27
432,27
433,27
434,27
435,27
436,27
437,27
438,27
439,27
440,27
441,27
442,27
443,27
444,28
445,28
446,28
447,28
448,28
449,29
450,29
451,29
452,29
453,29
454,29
455,29
456,29
457,29
458,29
459,29
460,29
461,30
462,30
463,30
464,30
465,30
466,30
467,30
468,30
469,30
470,30
471,30
472,30
473,30
474,30
475,30
476,30
477,30
478,30
479,30
480,30
481,30
482,30
483,30
484,30
485,30
486,30
487,30
488,30
489,30
490,30
491,30
492,30
493,30
494,30
495,30
496,30
497,30
498,30
499,30
500,30
501,30
502,30
503,30
504,30
505,30
506,30
507,30
508,30
509,30
510,30
511,30
512,30
513,30
514,30
515,30
516,30
517,30
518,30
519,30
520,30
521,30
522,30
523,30
524,30
525,30
526,30
527,30
528,30
529,30
530,30
531,30
532,30
533,30
534,30
535,30
536,30
537,30
538,30
539,30
540,30
541,30
542,30
543,30
544,30
545,30
546,30
547,30
548,30
549,30
550,30
551,30
552,31
553,31
554,31
555,31
556,31
557,31
558,31
559,31
560,31
561,31
562,31
563,31
564,31
565,31
566,31
567,31
568,31
569,31
570,31
571,31
572,31
573,31
574,31
575,31
576,32
577,32
578,32
579,32
580,32
581,32
582,32
583,32
584,32
585,32
586,32
587,32
588,32
589,32
590,32
591,32
592,32
593,32
594,32
595,32
596,32
597,32
598,32
599,32
600,32
601,32
602,32
603,32
604,32
605,32
606,32
607,32
608,32
609,32
610,32
611,32
612,32
613,32
614,32
615,32
616,32
617,33
618,33
619,33
620,33
621,33
622,33
623,33
624,33
625,33
626,33
627,33
628,33
629,33
630,33
631,34
632,34
633,34
634,34
635,35
636,35
637,35
638,35
639,35
640,35
641,35
642,36
643,36
644,36
645,36
646,36
647,36
648,36
649,36
650,36
651,36
652,36
653,36
654,36
655,36
656,36
657,36
658,36
659,36
660,36
661,36
662,36
663,36
664,36
665,36
666,36
667,36
668,36
669,36
670,36
671,36
672,36
673,36
674,36
675,36
676,36
677,36
678,36
679,36
680,37
681,37
682,38
683,38
684,38
685,38
686,38
687,38
688,38
689,38
690,38
691,38
692,38
693,38
694,38
695,38
696,38
697,39
698,39
699,39
700,39
701,39
702,39
703,39
704,39
705,39
706,39
707,39
708,39
709,39
710,39
711,40
712,41
713,41
714,41
715,41
716,42
717,42
718,42
719,42
720,42
721,42
722,42
723,42
724,42
725,42
726,42
727,42
728,42
729,42
730,42
731,42
732,42
733,42
734,42
735,42
736,42
737,42
738,42
739,42
740,42
741,42
742,42
743,42
744,43
745,43
746,43
747,43
748,43
749,43
750,44
751,44
752,44
753,44
754,44
755,45
756,45
757,45
758,45
759,45
760,45
761,46
762,46
763,46
764,46
765,46
766,46
767,47
768,47
769,47
770,47
771,47
772,47
773,47
774,47
775,47
776,47
777,47
778,47
779,47
780,47
781,47
782,47
783,47
784,47
785,47
786,47
787,47
788,47
789,47
790,47
791,47
792,47
793,47
794,47
795,47
796,47
797,47
798,47
799,47
800,47
801,47
802,47
803,47
804,47
805,47
806,47
807,47
808,47
809,47
810,47
811,47
812,47
813,47
814,47
815,47
816,47
817,47
818,47
819,47
820,47
821,47
822,47
823,47
824,47
825,47
826,47
827,47
828,47
829,47
830,47
831,47
832,47
833,47
834,47
835,47
836,47
837,47
838,47
839,47
840,47
841,47
842,47
843,47
844,47
845,47
846,47
847,47
848,47
849,47
850,47
851,47
852,47
853,47
854,47
855,47
856,47
857,47
858,47
859,47
860,47
861,47
862,47
863,47
864,47
865,47
866,47
867,47
868,47
869,47
870,47
871,47
872,47
873,47
874,47
875,47
876,47
877,47
878,47
879,47
880,47
881,47
882,47
883,47
884,47
885,47
886,47
887,47
888,47
889,47
890,47
891,47
892,47
893,47
894,47
895,47
896,47
897,47
898,47
899,47
900,47
901,47
902,47
903,47
904,47
905,47
906,47
907,48
908,48
909,48
910,48
911,48
912,48
913,48
914,48
915,48
916,48
917,48
918,48
919,48
920,48
921,48
922,48
923,48
924,48
925,48
926,48
927,48
928,48
929,48
930,48
931,48
932,48
933,48
934,48
935,48
936,48
937,48
938,48
939,48
940,48
941,48
942,48
943,48
944,48
945,49
946,49
947,49
948,49
949,49
950,49
951,49
952,49
953,49
954,50
955,50
956,50
957,50
958,50
959,50
960,50
961,50
962,50
963,50
964,50
965,50
966,50
967,50
968,50
969,50
970,50
971,50
972,50
973,50
974,50
975,50
976,50
977,50
978,50
979,50
980,50
981,50
982,50
983,50
984,50
985,50
986,50
987,50
988,50
989,50
990,50
991,50
992,50
993,50
994,50
995,50
996,50
997,50
998,50
999,50
1000,51
1001,51
1002,51
1003,51
1004,51
1005,51
1006,51
1007,51
1008,51
1009,51
1010,51
1011,51
1012,51
1013,51
1014,51
1015,51
1016,51
1017,51
1018,51
1019,51
1020,52
1021,52
1022,52
1023,52
1024,52
1025,52
1026,52
1027,52
1028,52
1029,52
1030,52
1031,52
1032,52
1033,52
1034,52
1035,52
1036,52
1037,52
1038,53
1039,54
1040,54
1041,54
1042,54
1043,54
1044,54
1045,54
1046,54
1047,54
1048,54
1049,54
1050,54
1051,54
1052,54
1053,54
1054,54
1055,54
1056,54
1057,54
1058,54
1059,54
1060,54
1061,54
1062,54
1063,54
1064,54
1065,54
1066,54
1067,54
1068,54
1069,54
1070,54
1071,54
1072,54
1073,54
1074,55
1075,55
1076,55
1077,55
1078,55
1079,55
1080,55
1081,55
1082,55
1083,55
1084,55
1085,55
1086,55
1087,55
1088,55
1089,55
1090,55
1091,55
1092,55
1093,55
1094,55
1095,55
1096,55
1097,55
1098,55
1099,55
1100,55
1101,55
1102,55
1103,55
1104,55
1105,55
1106,55
1107,55
1108,55
1109,55
1110,55
1111,55
1112,55
1113,55
1114,55
1115,55
1116,55
1117,55
1118,55
1119,55
1120,55
1121,55
1122,55
1123,55
1124,55
1125,55
1126,55
1127,55
1128,55
1129,55
1130,55
1131,56
1132,56
1133,56
1134,56
1135,56
1136,56
1137,56
1138,56
1139,56
1140,56
1141,56
1142,56
1143,56
1144,56
1145,56
1146,56
1147,56
1148,56
1149,56
1150,56
1151,56
1152,56
1153,56
1154,56
1155,56
1156,56
1157,56
1158,56
1159,56
1160,56
1161,56
1162,56
1163,56
1164,56
1165,56
1166,56
1167,56
1168,56
1169,56
1170,56
1171,56
1172,56
1173,56
1174,56
1175,56
1176,56
1177,56
1178,56
1179,56
1180,56
1181,56
1182,56
1183,56
1184,56
1185,56
1186,56
1187,56
1188,56
1189,56
1190,56
1191,56
1192,56
1193,56
1194,56
1195,56
1196,56
1197,56
1198,56
1199,56
1200,56
1201,56
1202,56
1203,56
1204,56
1205,56
1206,56
1207,56
1208,56
1209,56
1210,56
1211,56
1212,56
1213,56
1214,56
1215,56
1216,56
1217,56
1218,57
1219,57
1220,57
1221,57
1222,57
1223,57
1224,57
1225,57
1226,57
1227,57
1228,57
1229,57
1230,57
1231,57
1232,57
1233,57
1234,57
1235,57
1236,57
1237,57
1238,57
1239,57
1240,57
1241,57
1242,57
1243,57
1244,57
1245,57
1246,57
1247,57
1248,57
1249,57
1250,57
1251,57
1252,57
1253,57
1254,57
1255,57
1256,57
1257,57
1258,57
1259,57
1260,58
1261,58
1262,58
1263,58
1264,58
1265,58
1266,58
1267,58
1268,58
1269,58
1270,58
1271,58
1272,58
1273,58
1274,58
1275,58
1276,58
1277,58
1278,58
1279,58
1280,58
1281,58
1282,58
1283,58
1284,58
1285,58
1286,58
1287,58
1288,58
1289,58
1290,58
1291,58
1292,58
1293,58
1294,58
1295,58
1296,58
1297,58
1298,58
1299,58
1300,58
1301,58
1302,58
1303,58
1304,58
1305,58
1306,58
1307,58
1308,59
1309,59
1310,59
1311,59
1312,59
1313,59
1314,59
1315,59
1316,60
1317,60
1318,60
1319,60
1320,60
1321,60
1322,60
1323,60
1324,60
1325,60
1326,60
1327,60
1328,60
1329,60
1330,60
1331,60
1332,60
1333,60
1334,60
1335,60
1336,60
1337,60
1338,60
1339,60
1340,60
1341,60
1342,60
1343,60
1344,60
1345,60
1346,60
1347,60
1348,60
1349,60
1350,60
1351,60
1352,60
1353,60
1354,60
1355,60
1356,60
1357,60
1358,61
1359,61
1360,61
1361,61
1362,61
1363,61
1364,61
1365,61
1366,61
1367,61
1368,61
1369,61
1370,61
1371,61
1372,61
1373,61
1374,61
1375,61
1376,61
1377,61
1378,61
1379,61
1380,61
1381,61
1382,61
1383,61
1384,61
1385,61
1386,61
1387,61
1388,61
1389,61
1390,61
1391,61
1392,61
1393,61
1394,61
1395,61
1396,61
1397,61
1398,61
1399,61
1400,61
1401,61
1402,61
1403,61
1404,61
1405,61
1406,61
1407,62
1408,62
1409,62
1410,62
1411,62
1412,62
1413,62
1414,62
1415,62
1416,62
1417,62
1418,62
1419,62
1420,62
1421,62
1422,63
1423,63
1424,63
1425,63
1426,63
1427,63
1428,64
1429,64
1430,64
1431,64
1432,64
1433,64
1434,64
1435,64
1436,64
1437,64
1438,64
1439,64
1440,64
1441,64
1442,64
1443,64
1444,64
1445,64
1446,64
1447,64
1448,64
1449,64
1450,64
1451,65
1452,65
1453,65
1454,65
1455,65
1456,65
1457,65
1458,65
1459,65
1460,66
1461,66
1462,66
1463,66
1464,66
1465,66
1466,66
1467,66
1468,66
1469,66
1470,66
1471,66
1472,66
1473,66
1474,66
1475,66
1476,66
1477,66
1478,66
1479,66
1480,66
1481,66
1482,66
1483,66
1484,66
1485,66
1486,66
1487,66
1488,66
1489,66
1490,66
1491,66
1492,66
1493,66
1494,66
1495,66
1496,66
1497,66
1498,66
1499,66
1500,66
1501,66
1502,66
1503,66
1504,66
1505,66
1506,66
1507,66
1508,66
1509,66
1510,66
1511,66
1512,66
1513,66
1514,66
1515,66
1516,66
1517,66
1518,66
1519,66
1520,67
1521,67
1522,67
1523,68
1524,68
1525,68
1526,68
1527,68
1528,68
1529,68
1530,68
1531,68
1532,68
1533,68
1534,68
1535,68
1536,68
1537,68
1538,68
1539,68
1540,69
1541,69
1542,69
1543,69
1544,69
1545,69
1546,69
1547,69
1548,70
1549,70
1550,70
1551,70
1552,70
1553,70
1554,70
1555,70
1556,70
1557,70
1558,71
1559,72
1560,72
1561,72
1562,72
1563,73
1564,73
1565,73
1566,73
1567,73
1568,73
1569,73
1570,73
1571,73
1572,73
1573,73
1574,73
1575,73
1576,73
1577,73
1578,73
1579,73
1580,73
1581,73
1582,73
1583,74
1584,74
1585,74
1586,75
1587,75
1588,75
1589,75
1590,75
1591,75
1592,75
1593,75
1594,75
1595,75
1596,75
1597,75
1598,75
1599,75
1600,75
1601,75
1602,75
1603,75
1604,75
1605,75
1606,75
1607,76
1608,76
1609,76
1610,76
1611,76
1612,76
1613,76
1614,76
1615,76
1616,76
1617,76
1618,76
1619,76
1620,76
1621,76
1622,76
1623,76
1624,76
1625,76
1626,76
1627,76
1628,76
1629,76
1630,76
1631,76
1632,77
1633,77
1634,77
1635,77
1636,77
1637,77
1638,77
1639,77
1640,77
1641,77
1642,77
1643,77
1644,77
1645,77
1646,77
1647,77
1648,77
1649,77
1650,77
1651,77
1652,77
1653,77
1654,77
1655,77
1656,78
1657,78
1658,78
1659,78
1660,78
1661,78
1662,79
1663,79
1664,79
1665,79
1666,79
1667,79
1668,79
1669,79
1670,79
1671,79
1672,79
1673,79
1674,79
1675,79
1676,79
1677,79
1678,79
1679,79
1680,79
1681,79
1682,79
1683,79
1684,80
1685,80
1686,80
1687,80
1688,80
1689,80
1690,80
1691,80
1692,80
1693,80
1694,80
1695,80
1696,80
1697,80
1698,80
1699,80
1700,80
1701,80
1702,80
1703,80
1704,80
1705,81
1706,81
1707,81
1708,81
1709,81
1710,81
1711,81
1712,81
1713,82
1714,82
1715,82
1716,82
1717,82
1718,82
1719,82
1720,82
1721,82
1722,82
1723,82
1724,82
1725,82
1726,82
1727,82
1728,82
1729,82
1730,82
1731,82
1732,82
1733,82
1734,82
1735,84
1736,84
1737,84
1738,84
1739,85
1740,85
1741,85
1742,85
1743,85
1744,85
1745,85
1746,85
1747,85
1748,85
1749,85
1750,85
1751,85
1752,85
1753,85
1754,85
1755,85
1756,85
1757,85
1758,85
1759,85
1760,85
1761,85
1762,85
1763,85
1764,85
1765,86
1766,86
1767,86
1768,86
1769,86
1770,86
1771,86
1772,86
1773,86
1774,86
1775,86
1776,86
1777,86
1778,86
1779,86
1780,86
1781,86
1782,86
1783,86
1784,86
1785,86
1786,86
1787,88
1788,88
1789,88
1790,88
1791,88
1792,88
1793,88
1794,88
1795,88
1796,88
1797,88
1798,88
1799,89
1800,89
1801,89
1802,89
1803,89
1804,89
1805,89
1806,89
1807,89
1808,89
1809,89
1810,89
1811,89
1812,89
1813,89
1814,89
1815,89
1816,89
1817,89
1818,89
1819,89
1820,89
1821,89
1822,89
1823,89
1824,89
1825,89
1826,89
1827,89
1828,89
1829,89
1830,89
1831,89
1832,89
1833,89
1834,89
1835,89
1836,89
1837,89
1838,89
1839,89
1840,89
1841,89
1842,89
1843,89
1844,90
1845,90
1846,90
1847,91
1848,91
1849,91
1850,91
1851,91
1852,91
1853,91
1854,91
1855,91
1856,91
1857,91
1858,91
1859,91
1860,91
1861,91
1862,91
1863,91
1864,91
1865,91
1866,91
1867,91
1868,91
1869,91
1870,91
1871,91
1872,91
1873,91
1874,91
1875,91
1876,91
1877,91
1878,91
1879,91
1880,91
1881,91
1882,91
1883,91
1884,91
1885,91
1886,91
1887,91
1888,91
1889,91
1890,91
1891,91
1892,91
1893,91
1894,91
1895,91
1896,91
1897,91
1898,91
1899,92
1900,92
1901,92
1902,92
1903,92
1904,92
1905,92
1906,92
1907,92
1908,92
1909,92
1910,92
1911,92
1912,92
1913,92
1914,92
1915,92
1916,92
1917,92
1918,92
1919,92
1920,92
1921,92
1922,92
1923,92
1924,92
1925,92
1926,92
1927,93
1928,93
1929,93
1930,93
1931,93
1932,93
1933,93
1934,93
1935,93
1936,94
1937,94
1938,94
1939,94
1940,94
1941,94
1942,94
1943,94
1944,94
1945,94
1946,94
1947,94
1948,94
1949,94
1950,94
1951,94
1952,94
1953,94
1954,94
1955,94
1956,94
1957,94
1958,94
1959,94
1960,95
1961,95
1962,95
1963,96
1964,97
1965,97
1966,97
1967,97
1968,97
1969,97
1970,97
1971,97
1972,97
1973,97
1974,97
1975,97
1976,97
1977,97
1978,97
1979,97
1980,97
1981,97
1982,97
1983,97
1984,97
1985,97
1986,97
1987,97
1988,97
1989,97
1990,97
1991,97
1992,97
1993,97
1994,97
1995,97
1996,97
1997,97
1998,97
1999,98
2000,98
