"tick","total"
0,0
1,0
2,0
3,0
4,0
5,0
6,0
7,0
8,0
9,0
10,0
11,0
12,0
13,0
14,0
15,0
16,0
17,0
18,0
19,0
20,0
21,0
22,0
23,0
24,0
25,0
26,0
27,0
28,0
29,0
30,0
31,0
32,0
33,0
34,0
35,0
36,0
37,0
38,0
39,0
40,0
41,0
42,0
43,0
44,0
45,0
46,0
47,0
48,0
49,0
50,0
51,0
52,0
53,0
54,0
55,0
56,0
57,0
58,0
59,0
60,0
61,0
62,0
63,0
64,0
65,0
66,0
67,0
68,0
69,0
70,0
71,0
72,0
73,0
74,0
75,0
76,0
77,0
78,0
79,0
80,0
81,0
82,0
83,0
84,0
85,0
86,0
87,0
88,0
89,0
90,0
91,0
92,0
93,0
94,0
95,0
96,0
97,0
98,0
99,0
100,0
101,0
102,0
103,0
104,0
105,0
106,0
107,0
108,0
109,0
110,0
111,0
112,0
113,0
114,0
115,0
116,0
117,0
118,0
119,0
120,0
121,0
122,0
123,0
124,0
125,0
126,0
127,0
128,0
129,0
130,0
131,0
132,0
133,0
134,0
135,0
136,0
137,0
138,0
139,0
140,0
141,0
142,0
143,0
144,0
145,0
146,0
147,0
148,1
149,1
150,1
151,1
152,1
153,1
154,1
155,1
156,1
157,1
158,1
159,1
160,1
161,1
162,1
163,1
164,1
165,1
166,1
167,1
168,1
169,1
170,1
171,1
172,1
173,1
174,1
175,1
176,1
177,1
178,1
179,1
180,1
181,1
182,1
183,1
184,1
185,1
186,1
187,1
188,1
189,1
190,1
191,1
192,1
193,1
194,1
195,1
196,1
197,1
198,1
199,1
200,1
201,1
202,1
203,1
204,1
205,1
206,1
207,1
208,1
209,1
210,1
211,1
212,1
213,1
214,1
215,1
216,1
217,1
218,1
219,1
220,1
221,1
222,1
223,1
224,1
225,1
226,1
227,1
228,1
229,1
230,1
231,1
232,1
233,1
234,1
235,1
236,1
237,1
238,1
239,1
240,1
241,1
242,1
243,1
244,1
245,1
246,1
247,1
248,1
249,1
250,2
251,2
252,2
253,2
254,2
255,2
256,2
257,2
258,2
259,2
260,2
261,2
262,2
263,2
264,2
265,2
266,2
267,2
268,2
269,2
270,2
271,2
272,3
273,3
274,3
275,3
276,3
277,3
278,4
279,4
280,4
281,4
282,4
283,4
284,4
285,4
286,4
287,4
288,4
289,4
290,5
291,5
292,5
293,5
294,5
295,5
296,5
297,5
298,5
299,5
300,5
301,5
302,5
303,5
304,5
305,5
306,5
307,5
308,5
309,5
310,5
311,5
312,5
313,5
314,5
315,5
316,6
317,6
318,6
319,6
320,6
321,6
322,6
323,6
324,6
325,6
326,6
327,6
328,6
329,6
330,6
331,6
332,7
333,7
334,7
335,7
336,8
337,8
338,8
339,8
340,8
341,9
342,9
343,10
344,10
345,10
346,10
347,11
348,11
349,12
350,12
351,12
352,12
353,12
354,12
355,12
356,12
357,12
358,12
359,12
360,12
361,12
362,12
363,13
364,14
365,14
366,14
367,14
368,14
369,14
370,14
371,14
372,14
373,15
374,15
375,15
376,15
377,15
378,15
379,15
380,15
381,16
382,16
383,16
384,17
385,17
386,17
387,17
388,18
389,18
390,18
391,18
392,18
393,18
394,18
395,18
396,18
397,18
398,19
399,19
400,19
401,19
402,20
403,20
404,20
405,20
406,20
407,21
408,21
409,21
410,21
411,21
412,22
413,22
414,22
415,22
416,22
417,22
418,22
419,22
420,23
421,24
422,24
423,24
424,24
425,24
426,24
427,25
428,25
429,25
430,25
431,25
432,26
433,26
434,26
435,26
436,26
437,26
438,26
439,26
440,26
441,26
442,26
443,26
444,26
445,26
446,26
447,26
448,26
449,26
450,26
451,26
452,26
453,26
454,26
455,26
456,26
457,26
458,26
459,26
460,26
461,26
462,26
463,26
464,26
465,26
466,26
467,26
468,26
469,26
470,26
471,26
472,26
473,26
474,26
475,26
476,26
477,26
478,26
479,26
480,26
481,26
482,26
483,26
484,27
485,27
486,27
487,27
488,27
489,27
490,27
491,27
492,27
493,27
494,27
495,27
496,27
497,27
498,27
499,27
500,27
501,27
502,27
503,27
504,27
505,27
506,27
507,27
508,27
509,27
510,27
511,27
512,27
513,27
514,28
515,28
516,28
517,28
518,28
519,28
520,28
521,28
522,28
523,28
524,28
525,28
526,28
527,28
528,28
529,28
530,28
531,28
532,28
533,28
534,29
535,29
536,29
537,29
538,29
539,29
540,29
541,29
542,29
543,29
544,29
545,29
546,29
547,29
548,29
549,29
550,29
551,29
552,30
553,30
554,30
555,30
556,30
557,30
558,30
559,30
560,30
561,30
562,30
563,31
564,31
565,31
566,31
567,31
568,31
569,31
570,31
571,31
572,31
573,31
574,31
575,31
576,31
577,31
578,31
579,32
580,32
581,32
582,32
583,32
584,32
585,33
586,33
587,33
588,33
589,33
590,33
591,33
592,33
593,33
594,33
595,33
596,33
597,33
598,33
599,33
600,33
601,33
602,33
603,33
604,33
605,33
606,33
607,33
608,33
609,33
610,33
611,33
612,33
613,34
614,34
615,34
616,34
617,34
618,34
619,34
620,34
621,34
622,34
623,35
624,35
625,35
626,35
627,35
628,35
629,35
630,35
631,35
632,35
633,35
634,35
635,35
636,35
637,35
638,35
639,35
640,35
641,35
642,35
643,35
644,35
645,35
646,35
647,35
648,35
649,35
650,35
651,35
652,35
653,35
654,35
655,35
656,35
657,35
658,35
659,35
660,35
661,35
662,35
663,36
664,36
665,36
666,36
667,36
668,36
669,36
670,36
671,36
672,36
673,36
674,36
675,36
676,36
677,36
678,36
679,36
680,36
681,36
682,36
683,36
684,36
685,36
686,36
687,36
688,36
689,36
690,36
691,36
692,36
693,36
694,36
695,36
696,36
697,36
698,36
699,36
700,36
701,36
702,36
703,36
704,36
705,36
706,37
707,37
708,37
709,37
710,37
711,37
712,37
713,37
714,37
715,37
716,37
717,37
718,37
719,37
720,37
721,37
722,37
723,37
724,37
725,37
726,37
727,38
728,38
729,38
730,38
731,38
732,38
733,38
734,38
735,39
736,39
737,39
738,39
739,39
740,39
741,39
742,39
743,39
744,39
745,39
746,39
747,39
748,39
749,39
750,39
751,39
752,39
753,39
754,39
755,39
756,39
757,39
758,39
759,39
760,39
761,39
762,39
763,39
764,39
765,39
766,39
767,39
768,39
769,39
770,39
771,39
772,39
773,39
774,39
775,39
776,39
777,39
778,39
779,39
780,39
781,39
782,39
783,39
784,39
785,39
786,39
787,39
788,39
789,40
790,40
791,40
792,40
793,40
794,40
795,40
796,40
797,40
798,40
799,40
800,40
801,40
802,40
803,40
804,40
805,40
806,40
807,40
808,40
809,40
810,40
811,40
812,40
813,40
814,40
815,40
816,40
817,40
818,40
819,40
820,40
821,40
822,40
823,40
824,40
825,40
826,40
827,40
828,40
829,40
830,40
831,40
832,40
833,40
834,40
835,40
836,40
837,40
838,40
839,40
840,40
841,40
842,40
843,40
844,40
845,40
846,40
847,40
848,40
849,40
850,40
851,40
852,40
853,40
854,40
855,40
856,40
857,40
858,40
859,40
860,40
861,40
862,40
863,40
864,40
865,40
866,40
867,40
868,40
869,40
870,40
871,40
872,40
873,41
874,41
875,41
876,41
877,41
878,41
879,41
880,41
881,42
882,42
883,43
884,43
885,43
886,43
887,43
888,43
889,43
890,43
891,43
892,43
893,43
894,43
895,43
896,43
897,43
898,43
899,43
900,44
901,44
902,44
903,44
904,44
905,44
906,44
907,44
908,44
909,44
910,44
911,44
912,44
913,44
914,44
915,44
916,45
917,45
918,45
919,45
920,45
921,45
922,45
923,45
924,45
925,45
926,45
927,45
928,45
929,45
930,45
931,45
932,45
933,45
934,45
935,45
936,45
937,45
938,45
939,45
940,46
941,46
942,46
943,46
944,46
945,47
946,47
947,47
948,47
949,47
950,48
951,48
952,48
953,48
954,48
955,49
956,49
957,49
958,49
959,49
960,49
961,49
962,49
963,49
964,49
965,49
966,49
967,49
968,49
969,49
970,49
971,49
972,49
973,49
974,49
975,49
976,49
977,49
978,49
979,49
980,49
981,49
982,49
983,49
984,49
985,49
986,49
987,49
988,49
989,49
990,49
991,49
992,49
993,49
994,49
995,49
996,49
997,49
998,49
999,49
1000,49
1001,49
1002,49
1003,49
1004,49
1005,49
1006,49
1007,49
1008,49
1009,49
1010,49
1011,49
1012,49
1013,49
1014,49
1015,49
1016,49
1017,49
1018,49
1019,49
1020,49
1021,49
1022,49
1023,49
1024,49
1025,49
1026,49
1027,49
1028,49
1029,49
1030,49
1031,49
1032,49
1033,49
1034,49
1035,49
1036,49
1037,49
1038,49
1039,49
1040,49
1041,49
1042,49
1043,49
1044,49
1045,49
1046,49
1047,49
1048,49
1049,49
1050,50
1051,50
1052,50
1053,50
1054,50
1055,50
1056,50
1057,50
1058,50
1059,50
1060,50
1061,50
1062,50
1063,50
1064,51
1065,52
1066,52
1067,52
1068,52
1069,52
1070,52
1071,52
1072,52
1073,52
1074,52
1075,52
1076,52
1077,52
1078,52
1079,52
1080,52
1081,52
1082,52
1083,52
1084,52
1085,52
1086,52
1087,52
1088,52
1089,52
1090,52
1091,53
1092,53
1093,53
1094,53
1095,53
1096,54
1097,54
1098,54
1099,54
1100,54
1101,54
1102,54
1103,54
1104,54
1105,54
1106,54
1107,55
1108,55
1109,55
1110,55
1111,56
1112,56
1113,56
1114,56
1115,56
1116,56
1117,56
1118,56
1119,56
1120,57
1121,57
1122,57
1123,57
1124,57
1125,57
1126,57
1127,57
1128,57
1129,57
1130,57
1131,57
1132,57
1133,57
1134,57
1135,57
1136,57
1137,57
1138,57
1139,57
1140,57
1141,57
1142,57
1143,57
1144,57
1145,57
1146,57
1147,57
1148,57
1149,57
1150,57
1151,57
1152,57
1153,57
1154,58
1155,58
1156,58
1157,58
1158,58
1159,58
1160,58
1161,58
1162,58
1163,58
1164,59
1165,59
1166,59
1167,59
1168,59
1169,59
1170,59
1171,59
1172,59
1173,59
1174,59
1175,59
1176,59
1177,59
1178,59
1179,59
1180,59
1181,59
1182,59
1183,59
1184,59
1185,59
1186,59
1187,59
1188,59
1189,59
1190,59
1191,59
1192,60
1193,60
1194,60
1195,60
1196,60
1197,60
1198,60
1199,60
1200,60
1201,60
1202,60
1203,60
1204,60
1205,60
1206,60
1207,60
1208,60
1209,60
1210,60
1211,60
1212,60
1213,60
1214,60
1215,60
1216,60
1217,60
1218,60
1219,60
1220,60
1221,61
1222,61
1223,61
1224,61
1225,61
1226,61
1227,61
1228,61
1229,61
1230,62
1231,62
1232,62
1233,62
1234,62
1235,62
1236,62
1237,62
1238,62
1239,62
1240,62
1241,63
1242,63
1243,63
1244,63
1245,63
1246,63
1247,63
1248,63
1249,63
1250,63
1251,63
1252,63
1253,63
1254,63
1255,63
1256,63
1257,63
1258,63
1259,63
1260,63
1261,63
1262,63
1263,63
1264,63
1265,63
1266,63
1267,63
1268,63
1269,63
1270,63
1271,63
1272,63
1273,63
1274,63
1275,63
1276,63
1277,63
1278,63
1279,63
1280,63
1281,63
1282,63
1283,64
1284,64
1285,64
1286,64
1287,64
1288,64
1289,64
1290,64
1291,64
1292,64
1293,64
1294,64
1295,64
1296,64
1297,64
1298,64
1299,64
1300,64
1301,64
1302,64
1303,64
1304,64
1305,64
1306,64
1307,64
1308,64
1309,64
1310,64
1311,64
1312,64
1313,64
1314,64
1315,64
1316,64
1317,64
1318,64
1319,64
1320,64
1321,64
1322,64
1323,64
1324,64
1325,64
1326,64
1327,64
1328,64
1329,64
1330,64
1331,64
1332,64
1333,64
1334,64
1335,64
1336,64
1337,64
1338,64
1339,64
1340,64
1341,64
1342,64
1343,64
1344,64
1345,64
1346,64
1347,64
1348,64
1349,64
1350,64
1351,64
1352,64
1353,64
1354,64
1355,64
1356,64
1357,64
1358,64
1359,64
1360,64
1361,64
1362,64
1363,64
1364,64
1365,64
1366,64
1367,64
1368,64
1369,64
1370,64
1371,64
1372,64
1373,64
1374,64
1375,64
1376,64
1377,64
1378,64
1379,64
1380,64
1381,64
1382,64
1383,64
1384,64
1385,64
1386,64
1387,64
1388,64
1389,64
1390,64
1391,64
1392,64
1393,64
1394,64
1395,64
1396,64
1397,64
1398,64
1399,64
1400,64
1401,64
1402,64
1403,64
1404,64
1405,64
1406,64
1407,64
1408,64
1409,64
1410,64
1411,64
1412,64
1413,64
1414,64
1415,64
1416,64
1417,64
1418,64
1419,64
1420,64
1421,64
1422,64
1423,64
1424,64
1425,64
1426,64
1427,64
1428,64
1429,65
1430,65
1431,65
1432,65
1433,65
1434,65
1435,65
1436,65
1437,65
1438,65
1439,66
1440,66
1441,66
1442,66
1443,66
1444,66
1445,66
1446,66
1447,66
1448,66
1449,66
1450,66
1451,66
1452,66
1453,66
1454,66
1455,66
1456,66
1457,66
1458,66
1459,66
1460,66
1461,66
1462,66
1463,66
1464,66
1465,66
1466,66
1467,66
1468,66
1469,66
1470,66
1471,66
1472,66
1473,66
1474,66
1475,66
1476,67
1477,67
1478,67
1479,67
1480,67
1481,67
1482,67
1483,67
1484,67
1485,67
1486,67
1487,67
1488,67
1489,67
1490,67
1491,67
1492,67
1493,67
1494,67
1495,67
1496,68
1497,68
1498,69
1499,69
1500,69
1501,69
1502,69
1503,69
1504,69
1505,69
1506,69
1507,69
1508,69
1509,69
1510,69
1511,69
1512,69
1513,69
1514,69
1515,70
1516,71
1517,71
1518,71
1519,72
1520,72
1521,72
1522,72
1523,72
1524,73
1525,73
1526,73
1527,73
1528,73
1529,74
1530,74
1531,74
1532,74
1533,74
1534,74
1535,74
1536,74
1537,75
1538,75
1539,75
1540,75
1541,75
1542,75
1543,75
1544,75
1545,75
1546,75
1547,75
1548,75
1549,75
1550,75
1551,75
1552,75
1553,75
1554,75
1555,75
1556,75
1557,75
1558,75
1559,75
1560,75
1561,75
1562,75
1563,75
1564,75
1565,75
1566,75
1567,75
1568,75
1569,75
1570,75
1571,75
1572,75
1573,75
1574,75
1575,75
1576,75
1577,75
1578,75
1579,75
1580,75
1581,75
1582,76
1583,76
1584,76
1585,76
1586,76
1587,76
1588,76
1589,76
1590,76
1591,76
1592,76
1593,76
1594,76
1595,78
1596,79
1597,79
1598,79
1599,79
1600,79
1601,80
1602,80
1603,80
1604,80
1605,80
1606,80
1607,80
1608,81
1609,81
1610,81
1611,81
1612,81
1613,81
1614,81
1615,81
1616,81
1617,81
1618,83
1619,83
1620,83
1621,83
1622,83
1623,84
1624,84
1625,84
1626,84
1627,84
1628,84
1629,84
1630,84
1631,84
1632,84
1633,84
1634,84
1635,84
1636,84
1637,84
1638,84
1639,84
1640,84
1641,84
1642,84
1643,84
1644,84
1645,84
1646,84
1647,84
1648,84
1649,84
1650,84
1651,84
1652,84
1653,84
1654,84
1655,84
1656,84
1657,84
1658,84
1659,84
1660,84
1661,84
1662,84
1663,84
1664,84
1665,84
1666,84
1667,84
1668,84
1669,84
1670,84
1671,84
1672,84
1673,84
1674,84
1675,84
1676,84
1677,84
1678,84
1679,84
1680,84
1681,85
1682,85
1683,85
1684,85
1685,85
1686,85
1687,85
1688,85
1689,85
1690,85
1691,85
1692,85
1693,85
1694,85
1695,85
1696,85
1697,85
1698,85
1699,85
1700,85
1701,85
1702,85
1703,85
1704,85
1705,85
1706,85
1707,85
1708,85
1709,85
1710,85
1711,85
1712,85
1713,85
1714,85
1715,85
1716,85
1717,85
1718,85
1719,85
1720,85
1721,86
1722,86
1723,86
1724,86
1725,86
1726,86
1727,86
1728,86
1729,86
1730,86
1731,86
1732,86
1733,86
1734,86
1735,86
1736,87
1737,87
1738,87
1739,87
1740,87
1741,87
1742,87
1743,87
1744,87
1745,87
1746,87
1747,87
1748,87
1749,87
1750,87
1751,87
1752,87
1753,87
1754,87
1755,87
1756,87
1757,87
1758,87
1759,87
1760,87
1761,87
1762,87
1763,87
1764,87
1765,87
1766,87
1767,87
1768,87
1769,87
1770,87
1771,87
1772,87
1773,87
1774,87
1775,88
1776,88
1777,88
1778,88
1779,88
1780,89
1781,89
1782,89
1783,89
1784,89
1785,89
1786,89
1787,89
1788,89
1789,89
1790,89
1791,89
1792,89
1793,89
1794,89
1795,89
1796,89
1797,89
1798,89
1799,89
1800,89
1801,89
1802,89
1803,89
1804,89
1805,89
1806,89
1807,89
1808,89
1809,89
1810,90
1811,90
1812,90
1813,90
1814,90
1815,90
1816,90
1817,90
1818,90
1819,90
1820,90
1821,90
1822,90
1823,90
1824,90
1825,90
1826,90
1827,90
1828,90
1829,90
1830,90
1831,90
1832,90
1833,90
1834,90
1835,90
1836,90
1837,90
1838,90
1839,90
1840,90
1841,90
1842,90
1843,90
1844,90
1845,90
1846,90
1847,90
1848,90
1849,90
1850,90
1851,90
1852,90
1853,90
1854,90
1855,90
1856,90
1857,90
1858,90
1859,90
1860,90
1861,90
1862,90
1863,90
1864,90
1865,90
1866,90
1867,90
1868,90
1869,90
1870,90
1871,91
1872,91
1873,91
1874,91
1875,91
1876,91
1877,91
1878,91
1879,91
1880,91
1881,91
1882,91
1883,91
1884,92
1885,92
1886,92
1887,92
1888,93
1889,93
1890,93
1891,93
1892,93
1893,93
1894,93
1895,93
1896,93
1897,93
1898,93
1899,93
1900,93
1901,93
1902,93
1903,93
1904,93
1905,93
1906,93
1907,93
1908,93
1909,93
1910,93
1911,93
1912,94
1913,94
1914,94
1915,94
1916,94
1917,94
1918,94
1919,94
1920,94
1921,94
1922,94
1923,95
1924,95
1925,95
1926,95
1927,95
1928,95
1929,95
1930,95
1931,95
1932,95
1933,95
1934,95
1935,95
1936,96
1937,96
1938,97
1939,97
1940,97
1941,97
1942,97
1943,97
1944,97
1945,97
1946,98
1947,98
1948,100
1949,100
1950,100
1951,100
1952,100
1953,100
1954,100
1955,100
1956,100
1957,100
1958,100
1959,100
1960,101
1961,101
1962,101
1963,101
1964,101
1965,101
1966,101
1967,101
1968,101
1969,102
1970,103
1971,103
1972,103
1973,104
1974,104
1975,104
1976,104
1977,104
1978,104
1979,104
1980,105
1981,105
1982,105
1983,105
1984,105
1985,105
1986,105
1987,105
1988,105
1989,105
1990,105
1991,105
1992,105
1993,105
1994,105
1995,105
1996,105
1997,105
1998,105
1999,105
2000,105
