"tick","total"
0,0
1,0
2,0
3,0
4,0
5,0
6,0
7,0
8,0
9,0
10,0
11,0
12,0
13,0
14,0
15,0
16,0
17,0
18,0
19,0
20,0
21,0
22,0
23,0
24,0
25,0
26,0
27,0
28,0
29,0
30,0
31,0
32,0
33,0
34,0
35,0
36,0
37,0
38,0
39,0
40,0
41,0
42,0
43,0
44,0
45,0
46,0
47,0
48,0
49,0
50,0
51,0
52,0
53,0
54,0
55,0
56,0
57,0
58,0
59,0
60,0
61,0
62,0
63,0
64,0
65,0
66,0
67,0
68,0
69,0
70,0
71,0
72,0
73,0
74,0
75,0
76,0
77,0
78,0
79,0
80,0
81,0
82,0
83,0
84,0
85,0
86,0
87,0
88,0
89,0
90,0
91,0
92,0
93,0
94,0
95,0
96,0
97,0
98,0
99,0
100,0
101,0
102,0
103,0
104,0
105,0
106,0
107,0
108,0
109,0
110,0
111,0
112,0
113,0
114,0
115,0
116,0
117,0
118,0
119,0
120,0
121,0
122,0
123,0
124,0
125,0
126,0
127,0
128,0
129,0
130,0
131,0
132,0
133,0
134,0
135,0
136,0
137,0
138,0
139,0
140,0
141,0
142,0
143,0
144,0
145,0
146,0
147,0
148,0
149,0
150,0
151,0
152,0
153,0
154,0
155,0
156,0
157,0
158,0
159,0
160,0
161,0
162,0
163,0
164,0
165,0
166,0
167,0
168,0
169,0
170,0
171,0
172,0
173,0
174,0
175,0
176,0
177,0
178,0
179,0
180,0
181,0
182,0
183,0
184,0
185,0
186,0
187,0
188,0
189,0
190,0
191,0
192,0
193,0
194,0
195,0
196,0
197,0
198,0
199,0
200,0
201,0
202,0
203,0
204,0
205,0
206,0
207,0
208,0
209,0
210,0
211,0
212,1
213,1
214,1
215,1
216,1
217,2
218,2
219,2
220,2
221,2
222,2
223,2
224,2
225,2
226,2
227,2
228,2
229,2
230,2
231,2
232,2
233,2
234,2
235,2
236,2
237,3
238,3
239,4
240,4
241,4
242,5
243,5
244,5
245,5
246,5
247,5
248,5
249,5
250,6
251,6
252,6
253,6
254,6
255,6
256,6
257,6
258,6
259,6
260,6
261,6
262,6
263,6
264,7
265,7
266,7
267,7
268,7
269,8
270,8
271,8
272,8
273,8
274,9
275,9
276,10
277,11
278,11
279,11
280,11
281,11
282,11
283,13
284,13
285,14
286,14
287,14
288,15
289,15
290,15
291,15
292,15
293,15
294,15
295,16
296,16
297,16
298,17
299,17
300,17
301,17
302,17
303,18
304,18
305,18
306,18
307,18
308,18
309,18
310,19
311,19
312,19
313,19
314,19
315,19
316,19
317,19
318,19
319,20
320,21
321,21
322,21
323,21
324,21
325,21
326,21
327,21
328,21
329,21
330,21
331,21
332,21
333,21
334,21
335,21
336,21
337,21
338,21
339,21
340,21
341,21
342,22
343,22
344,22
345,22
346,22
347,22
348,22
349,22
350,23
351,23
352,23
353,24
354,25
355,25
356,25
357,26
358,26
359,26
360,26
361,26
362,26
363,26
364,26
365,26
366,26
367,26
368,27
369,27
370,27
371,27
372,27
373,27
374,27
375,27
376,27
377,27
378,27
379,27
380,27
381,27
382,27
383,27
384,27
385,27
386,27
387,27
388,27
389,27
390,27
391,27
392,27
393,27
394,27
395,27
396,27
397,27
398,27
399,27
400,27
401,27
402,27
403,27
404,27
405,27
406,27
407,27
408,27
409,27
410,27
411,27
412,27
413,27
414,27
415,27
416,27
417,27
418,28
419,28
420,29
421,29
422,29
423,29
424,29
425,29
426,29
427,29
428,30
429,30
430,30
431,30
432,30
433,30
434,30
435,30
436,30
437,30
438,30
439,30
440,30
441,30
442,30
443,30
444,30
445,30
446,30
447,30
448,30
449,30
450,30
451,30
452,30
453,30
454,30
455,30
456,30
457,30
458,30
459,30
460,30
461,30
462,30
463,30
464,30
465,30
466,30
467,30
468,30
469,30
470,30
471,30
472,30
473,30
474,30
475,30
476,30
477,30
478,30
479,30
480,30
481,30
482,30
483,30
484,30
485,30
486,30
487,30
488,30
489,30
490,30
491,30
492,30
493,30
494,30
495,30
496,30
497,30
498,30
499,30
500,30
501,30
502,30
503,30
504,30
505,30
506,30
507,30
508,30
509,30
510,30
511,30
512,30
513,30
514,30
515,30
516,30
517,30
518,30
519,30
520,30
521,30
522,30
523,30
524,30
525,30
526,30
527,30
528,30
529,30
530,30
531,30
532,31
533,31
534,32
535,32
536,32
537,32
538,32
539,32
540,32
541,32
542,32
543,32
544,32
545,32
546,32
547,32
548,32
549,32
550,32
551,32
552,32
553,32
554,32
555,32
556,32
557,32
558,32
559,32
560,32
561,32
562,32
563,32
564,33
565,33
566,33
567,33
568,33
569,33
570,33
571,33
572,33
573,33
574,33
575,33
576,33
577,33
578,33
579,33
580,33
581,33
582,33
583,33
584,33
585,33
586,33
587,33
588,33
589,33
590,33
591,33
592,33
593,33
594,34
595,34
596,34
597,34
598,34
599,34
600,34
601,34
602,34
603,34
604,34
605,34
606,34
607,34
608,34
609,34
610,34
611,34
612,34
613,34
614,34
615,34
616,34
617,34
618,34
619,34
620,34
621,34
622,34
623,34
624,34
625,34
626,34
627,34
628,34
629,34
630,34
631,34
632,34
633,34
634,34
635,34
636,34
637,34
638,34
639,34
640,34
641,35
642,35
643,35
644,35
645,35
646,35
647,35
648,35
649,35
650,35
651,35
652,35
653,35
654,35
655,35
656,35
657,35
658,35
659,35
660,35
661,35
662,35
663,35
664,36
665,36
666,36
667,36
668,36
669,36
670,36
671,36
672,36
673,36
674,36
675,36
676,36
677,36
678,37
679,37
680,38
681,38
682,38
683,39
684,39
685,39
686,39
687,39
688,39
689,39
690,39
691,39
692,39
693,39
694,39
695,39
696,39
697,39
698,39
699,39
700,39
701,39
702,39
703,39
704,39
705,39
706,39
707,39
708,39
709,39
710,39
711,39
712,39
713,39
714,39
715,39
716,39
717,39
718,39
719,39
720,39
721,39
722,39
723,40
724,40
725,40
726,40
727,40
728,40
729,40
730,40
731,40
732,40
733,40
734,40
735,40
736,40
737,40
738,40
739,40
740,40
741,40
742,40
743,40
744,40
745,40
746,40
747,41
748,41
749,41
750,41
751,41
752,41
753,41
754,41
755,41
756,41
757,41
758,41
759,41
760,41
761,41
762,41
763,41
764,41
765,41
766,41
767,41
768,41
769,41
770,41
771,41
772,41
773,41
774,41
775,41
776,41
777,41
778,41
779,41
780,42
781,42
782,42
783,42
784,42
785,42
786,42
787,42
788,42
789,42
790,42
791,42
792,42
793,42
794,42
795,42
796,42
797,42
798,42
799,42
800,42
801,43
802,43
803,43
804,43
805,43
806,43
807,43
808,43
809,43
810,44
811,44
812,44
813,45
814,45
815,45
816,45
817,45
818,45
819,45
820,45
821,45
822,45
823,45
824,45
825,45
826,45
827,45
828,45
829,45
830,45
831,45
832,45
833,45
834,45
835,45
836,45
837,45
838,45
839,45
840,45
841,45
842,45
843,45
844,45
845,45
846,45
847,45
848,45
849,45
850,45
851,45
852,45
853,45
854,46
855,46
856,46
857,46
858,46
859,46
860,46
861,46
862,46
863,46
864,46
865,46
866,46
867,46
868,46
869,46
870,46
871,46
872,47
873,47
874,47
875,47
876,47
877,47
878,47
879,47
880,47
881,47
882,47
883,47
884,47
885,47
886,47
887,47
888,47
889,47
890,47
891,47
892,47
893,47
894,47
895,47
896,47
897,47
898,47
899,47
900,47
901,47
902,47
903,47
904,47
905,47
906,47
907,47
908,47
909,47
910,47
911,47
912,47
913,47
914,47
915,47
916,47
917,47
918,47
919,47
920,47
921,47
922,47
923,47
924,47
925,47
926,47
927,47
928,47
929,47
930,47
931,47
932,47
933,47
934,47
935,47
936,47
937,47
938,47
939,47
940,47
941,47
942,47
943,47
944,47
945,47
946,47
947,47
948,47
949,47
950,47
951,47
952,47
953,47
954,47
955,47
956,47
957,47
958,47
959,47
960,47
961,47
962,47
963,47
964,47
965,47
966,47
967,47
968,47
969,47
970,47
971,47
972,47
973,47
974,47
975,47
976,47
977,47
978,47
979,47
980,47
981,47
982,47
983,47
984,47
985,47
986,47
987,47
988,47
989,47
990,47
991,47
992,47
993,47
994,47
995,47
996,47
997,47
998,47
999,47
1000,47
1001,47
1002,47
1003,47
1004,47
1005,47
1006,47
1007,47
1008,47
1009,48
1010,48
1011,48
1012,48
1013,48
1014,48
1015,48
1016,48
1017,48
1018,48
1019,48
1020,48
1021,48
1022,48
1023,48
1024,48
1025,48
1026,48
1027,48
1028,48
1029,48
1030,48
1031,48
1032,48
1033,48
1034,48
1035,48
1036,48
1037,48
1038,48
1039,48
1040,48
1041,48
1042,48
1043,48
1044,48
1045,48
1046,48
1047,48
1048,48
1049,48
1050,49
1051,49
1052,49
1053,49
1054,49
1055,49
1056,49
1057,49
1058,49
1059,49
1060,49
1061,49
1062,49
1063,49
1064,49
1065,49
1066,49
1067,49
1068,49
1069,49
1070,49
1071,49
1072,49
1073,49
1074,49
1075,49
1076,49
1077,49
1078,49
1079,49
1080,49
1081,49
1082,50
1083,50
1084,50
1085,50
1086,50
1087,50
1088,50
1089,50
1090,50
1091,50
1092,50
1093,50
1094,50
1095,50
1096,50
1097,50
1098,50
1099,50
1100,51
1101,51
1102,51
1103,51
1104,51
1105,51
1106,51
1107,51
1108,51
1109,51
1110,51
1111,51
1112,51
1113,51
1114,52
1115,52
1116,52
1117,52
1118,52
1119,52
1120,52
1121,52
1122,52
1123,52
1124,52
1125,52
1126,52
1127,52
1128,52
1129,52
1130,52
1131,52
1132,52
1133,52
1134,52
1135,52
1136,52
1137,52
1138,52
1139,52
1140,52
1141,52
1142,52
1143,52
1144,52
1145,52
1146,52
1147,52
1148,52
1149,52
1150,52
1151,52
1152,52
1153,52
1154,52
1155,53
1156,53
1157,53
1158,53
1159,53
1160,53
1161,53
1162,53
1163,53
1164,53
1165,53
1166,53
1167,53
1168,53
1169,53
1170,53
1171,53
1172,53
1173,53
1174,53
1175,54
1176,54
1177,54
1178,54
1179,54
1180,54
1181,54
1182,55
1183,55
1184,55
1185,55
1186,56
1187,56
1188,56
1189,56
1190,56
1191,56
1192,56
1193,56
1194,56
1195,56
1196,56
1197,56
1198,57
1199,57
1200,57
1201,57
1202,57
1203,57
1204,57
1205,57
1206,57
1207,57
1208,57
1209,57
1210,57
1211,57
1212,57
1213,57
1214,57
1215,57
1216,57
1217,57
1218,57
1219,57
1220,57
1221,57
1222,58
1223,58
1224,58
1225,58
1226,58
1227,58
1228,58
1229,58
1230,58
1231,58
1232,59
1233,59
1234,59
1235,60
1236,60
1237,60
1238,60
1239,60
1240,60
1241,60
1242,60
1243,60
1244,60
1245,60
1246,60
1247,60
1248,60
1249,60
1250,60
1251,60
1252,60
1253,61
1254,61
1255,61
1256,61
1257,61
1258,61
1259,61
1260,61
1261,61
1262,61
1263,61
1264,61
1265,61
1266,61
1267,61
1268,61
1269,61
1270,61
1271,61
1272,61
1273,61
1274,61
1275,61
1276,61
1277,61
1278,61
1279,61
1280,63
1281,63
1282,63
1283,63
1284,63
1285,63
1286,63
1287,63
1288,64
1289,64
1290,64
1291,64
1292,64
1293,64
1294,64
1295,64
1296,64
1297,64
1298,64
1299,64
1300,64
1301,64
1302,64
1303,64
1304,64
1305,64
1306,64
1307,64
1308,64
1309,64
1310,64
1311,64
1312,64
1313,64
1314,64
1315,64
1316,64
1317,64
1318,64
1319,64
1320,64
1321,64
1322,64
1323,64
1324,64
1325,64
1326,64
1327,64
1328,64
1329,64
1330,64
1331,64
1332,64
1333,64
1334,64
1335,64
1336,64
1337,64
1338,64
1339,64
1340,64
1341,64
1342,64
1343,64
1344,64
1345,65
1346,65
1347,65
1348,65
1349,65
1350,65
1351,65
1352,66
1353,66
1354,67
1355,67
1356,67
1357,67
1358,67
1359,67
1360,67
1361,67
1362,67
1363,67
1364,67
1365,67
1366,67
1367,67
1368,67
1369,67
1370,67
1371,67
1372,67
1373,67
1374,67
1375,67
1376,67
1377,67
1378,67
1379,67
1380,67
1381,67
1382,67
1383,68
1384,68
1385,68
1386,68
1387,68
1388,68
1389,68
1390,68
1391,68
1392,68
1393,68
1394,68
1395,68
1396,68
1397,68
1398,68
1399,68
1400,68
1401,68
1402,69
1403,69
1404,69
1405,69
1406,69
1407,69
1408,69
1409,69
1410,69
1411,69
1412,69
1413,69
1414,69
1415,69
1416,69
1417,69
1418,69
1419,69
1420,69
1421,69
1422,69
1423,69
1424,69
1425,69
1426,69
1427,69
1428,69
1429,69
1430,69
1431,69
1432,69
1433,70
1434,70
1435,71
1436,72
1437,72
1438,72
1439,72
1440,72
1441,72
1442,72
1443,73
1444,73
1445,73
1446,73
1447,73
1448,73
1449,73
1450,73
1451,73
1452,73
1453,73
1454,73
1455,73
1456,73
1457,73
1458,73
1459,73
1460,73
1461,73
1462,73
1463,73
1464,73
1465,73
1466,73
1467,73
1468,73
1469,73
1470,73
1471,73
1472,73
1473,73
1474,73
1475,73
1476,73
1477,73
1478,73
1479,73
1480,73
1481,73
1482,73
1483,73
1484,73
1485,73
1486,73
1487,73
1488,73
1489,73
1490,73
1491,73
1492,73
1493,73
1494,73
1495,73
1496,73
1497,73
1498,73
1499,73
1500,73
1501,73
1502,73
1503,73
1504,73
1505,73
1506,73
1507,73
1508,73
1509,73
1510,73
1511,73
1512,73
1513,73
1514,73
1515,73
1516,73
1517,73
1518,73
1519,73
1520,73
1521,73
1522,73
1523,73
1524,73
1525,73
1526,73
1527,73
1528,73
1529,73
1530,73
1531,73
1532,73
1533,73
1534,73
1535,73
1536,73
1537,73
1538,73
1539,73
1540,73
1541,73
1542,73
1543,73
1544,73
1545,73
1546,73
1547,73
1548,73
1549,73
1550,74
1551,74
1552,74
1553,74
1554,74
1555,74
1556,74
1557,74
1558,74
1559,74
1560,74
1561,74
1562,74
1563,74
1564,74
1565,74
1566,74
1567,74
1568,74
1569,74
1570,74
1571,74
1572,74
1573,74
1574,74
1575,74
1576,74
1577,74
1578,75
1579,75
1580,75
1581,75
1582,75
1583,75
1584,75
1585,75
1586,75
1587,75
1588,75
1589,75
1590,75
1591,75
1592,75
1593,75
1594,75
1595,75
1596,75
1597,75
1598,75
1599,75
1600,75
1601,75
1602,75
1603,75
1604,75
1605,75
1606,75
1607,75
1608,75
1609,75
1610,75
1611,75
1612,75
1613,75
1614,75
1615,75
1616,75
1617,75
1618,75
1619,75
1620,75
1621,75
1622,75
1623,75
1624,75
1625,75
1626,75
1627,75
1628,75
1629,75
1630,75
1631,75
1632,75
1633,75
1634,75
1635,75
1636,75
1637,75
1638,75
1639,75
1640,75
1641,75
1642,75
1643,75
1644,75
1645,75
1646,75
1647,75
1648,75
1649,75
1650,75
1651,75
1652,75
1653,75
1654,75
1655,76
1656,76
1657,76
1658,76
1659,76
1660,76
1661,76
1662,76
1663,76
1664,77
1665,77
1666,77
1667,77
1668,77
1669,77
1670,77
1671,78
1672,78
1673,79
1674,79
1675,79
1676,79
1677,79
1678,79
1679,79
1680,79
1681,79
1682,79
1683,79
1684,79
1685,79
1686,79
1687,79
1688,81
1689,81
1690,81
1691,81
1692,81
1693,81
1694,81
1695,81
1696,81
1697,81
1698,81
1699,81
1700,81
1701,81
1702,81
1703,81
1704,81
1705,81
1706,81
1707,81
1708,81
1709,81
1710,81
1711,81
1712,81
1713,81
1714,81
1715,81
1716,81
1717,81
1718,82
1719,82
1720,82
1721,82
1722,82
1723,82
1724,82
1725,82
1726,82
1727,82
1728,82
1729,82
1730,82
1731,82
1732,82
1733,82
1734,82
1735,82
1736,82
1737,82
1738,82
1739,82
1740,82
1741,82
1742,82
1743,82
1744,83
1745,83
1746,83
1747,83
1748,83
1749,83
1750,83
1751,83
1752,83
1753,83
1754,83
1755,83
1756,84
1757,84
1758,84
1759,84
1760,84
1761,84
1762,84
1763,84
1764,84
1765,84
1766,84
1767,85
1768,85
1769,85
1770,85
1771,85
1772,85
1773,85
1774,85
1775,85
1776,85
1777,85
1778,85
1779,85
1780,85
1781,85
1782,85
1783,85
1784,85
1785,85
1786,85
1787,85
1788,85
1789,85
1790,85
1791,85
1792,85
1793,85
1794,85
1795,86
1796,86
1797,86
1798,86
1799,86
1800,86
1801,86
1802,86
1803,86
1804,86
1805,86
1806,86
1807,86
1808,86
1809,86
1810,86
1811,86
1812,86
1813,88
1814,88
1815,88
1816,88
1817,88
1818,88
1819,89
1820,89
1821,89
1822,89
1823,89
1824,89
1825,89
1826,89
1827,89
1828,89
1829,89
1830,89
1831,89
1832,89
1833,89
1834,89
1835,89
1836,89
1837,89
1838,89
1839,89
1840,89
1841,89
1842,89
1843,89
1844,89
1845,89
1846,89
1847,89
1848,89
1849,89
1850,89
1851,89
1852,89
1853,89
1854,89
1855,89
1856,89
1857,89
1858,89
1859,89
1860,89
1861,89
1862,89
1863,89
1864,89
1865,89
1866,89
1867,89
1868,89
1869,89
1870,89
1871,89
1872,89
1873,89
1874,89
1875,89
1876,89
1877,89
1878,89
1879,89
1880,89
1881,89
1882,89
1883,89
1884,89
1885,89
1886,89
1887,89
1888,89
1889,89
1890,90
1891,90
1892,90
1893,90
1894,90
1895,90
1896,90
1897,90
1898,90
1899,90
1900,90
1901,90
1902,90
1903,90
1904,90
1905,90
1906,90
1907,90
1908,90
1909,90
1910,90
1911,90
1912,90
1913,90
1914,90
1915,90
1916,90
1917,90
1918,90
1919,90
1920,90
1921,90
1922,90
1923,90
1924,90
1925,90
1926,90
1927,90
1928,90
1929,90
1930,90
1931,90
1932,90
1933,90
1934,90
1935,90
1936,90
1937,90
1938,90
1939,90
1940,90
1941,90
1942,90
1943,90
1944,90
1945,90
1946,90
1947,90
1948,90
1949,90
1950,90
1951,90
1952,90
1953,90
1954,90
1955,90
1956,90
1957,90
1958,90
1959,91
1960,91
1961,91
1962,91
1963,91
1964,91
1965,91
1966,91
1967,91
1968,91
1969,91
1970,91
1971,91
1972,91
1973,91
1974,91
1975,91
1976,91
1977,91
1978,91
1979,91
1980,91
1981,91
1982,92
1983,92
1984,92
1985,92
1986,92
1987,92
1988,92
1989,92
1990,92
1991,92
1992,92
1993,92
1994,92
1995,92
1996,92
1997,93
1998,93
1999,93
2000,93
