"tick","total"
0,0
1,0
2,0
3,0
4,0
5,0
6,0
7,0
8,0
9,0
10,0
11,0
12,0
13,0
14,0
15,0
16,0
17,0
18,0
19,0
20,0
21,0
22,0
23,0
24,0
25,0
26,0
27,0
28,0
29,0
30,0
31,0
32,0
33,0
34,0
35,0
36,0
37,0
38,0
39,0
40,0
41,0
42,0
43,0
44,0
45,0
46,0
47,0
48,0
49,0
50,0
51,0
52,0
53,0
54,0
55,0
56,0
57,0
58,0
59,0
60,0
61,0
62,0
63,0
64,0
65,0
66,0
67,0
68,0
69,0
70,0
71,0
72,0
73,0
74,0
75,0
76,0
77,0
78,0
79,0
80,0
81,0
82,0
83,0
84,0
85,0
86,0
87,0
88,0
89,0
90,0
91,0
92,0
93,0
94,0
95,0
96,0
97,0
98,0
99,0
100,0
101,0
102,0
103,0
104,0
105,0
106,0
107,0
108,0
109,0
110,0
111,0
112,0
113,0
114,0
115,0
116,0
117,0
118,0
119,0
120,0
121,0
122,0
123,0
124,0
125,0
126,0
127,0
128,0
129,0
130,0
131,0
132,0
133,0
134,0
135,0
136,0
137,0
138,0
139,0
140,0
141,0
142,0
143,0
144,0
145,0
146,0
147,0
148,0
149,0
150,0
151,0
152,0
153,0
154,0
155,0
156,0
157,0
158,0
159,0
160,0
161,0
162,0
163,0
164,0
165,0
166,0
167,0
168,0
169,0
170,0
171,0
172,0
173,0
174,0
175,0
176,0
177,0
178,0
179,0
180,0
181,0
182,0
183,0
184,1
185,1
186,1
187,1
188,1
189,1
190,1
191,1
192,1
193,1
194,1
195,1
196,1
197,1
198,1
199,1
200,1
201,1
202,1
203,1
204,1
205,1
206,1
207,1
208,1
209,1
210,1
211,1
212,1
213,1
214,1
215,1
216,1
217,1
218,1
219,1
220,1
221,1
222,1
223,1
224,1
225,1
226,1
227,1
228,1
229,1
230,1
231,1
232,1
233,1
234,1
235,1
236,1
237,1
238,1
239,1
240,1
241,1
242,1
243,1
244,1
245,1
246,1
247,1
248,1
249,1
250,2
251,2
252,2
253,2
254,2
255,2
256,2
257,2
258,2
259,2
260,3
261,3
262,3
263,3
264,3
265,3
266,3
267,3
268,3
269,3
270,3
271,3
272,3
273,3
274,3
275,3
276,3
277,3
278,3
279,3
280,3
281,3
282,3
283,3
284,3
285,3
286,3
287,3
288,3
289,3
290,4
291,4
292,5
293,5
294,5
295,5
296,5
297,5
298,5
299,5
300,5
301,5
302,5
303,7
304,8
305,8
306,8
307,8
308,8
309,8
310,8
311,8
312,8
313,8
314,8
315,8
316,8
317,8
318,8
319,8
320,8
321,8
322,9
323,9
324,9
325,9
326,9
327,9
328,9
329,9
330,9
331,10
332,10
333,10
334,10
335,10
336,10
337,11
338,11
339,11
340,11
341,11
342,11
343,11
344,11
345,11
346,12
347,12
348,13
349,13
350,13
351,14
352,14
353,14
354,14
355,14
356,14
357,14
358,15
359,15
360,15
361,15
362,15
363,15
364,15
365,15
366,15
367,15
368,15
369,15
370,15
371,15
372,15
373,15
374,15
375,15
376,15
377,15
378,15
379,15
380,15
381,15
382,15
383,15
384,15
385,15
386,15
387,15
388,15
389,15
390,15
391,15
392,15
393,15
394,15
395,15
396,15
397,15
398,15
399,15
400,15
401,15
402,15
403,15
404,15
405,15
406,15
407,15
408,15
409,15
410,15
411,15
412,15
413,15
414,15
415,15
416,15
417,15
418,15
419,15
420,15
421,15
422,15
423,15
424,15
425,15
426,15
427,15
428,15
429,16
430,16
431,16
432,16
433,16
434,17
435,17
436,17
437,17
438,17
439,17
440,17
441,17
442,17
443,17
444,17
445,17
446,17
447,17
448,17
449,17
450,17
451,17
452,17
453,17
454,17
455,17
456,18
457,18
458,18
459,18
460,18
461,18
462,18
463,18
464,18
465,18
466,18
467,18
468,18
469,18
470,18
471,18
472,18
473,18
474,18
475,18
476,18
477,18
478,18
479,18
480,18
481,18
482,18
483,18
484,18
485,18
486,18
487,18
488,18
489,19
490,19
491,19
492,19
493,19
494,19
495,19
496,19
497,19
498,19
499,19
500,19
501,19
502,19
503,19
504,19
505,19
506,19
507,20
508,20
509,20
510,20
511,20
512,20
513,20
514,20
515,20
516,20
517,20
518,20
519,21
520,21
521,21
522,21
523,22
524,22
525,22
526,22
527,22
528,22
529,22
530,22
531,22
532,22
533,22
534,22
535,22
536,22
537,22
538,22
539,23
540,24
541,24
542,24
543,24
544,24
545,24
546,24
547,24
548,24
549,24
550,25
551,25
552,25
553,25
554,25
555,25
556,25
557,25
558,25
559,25
560,25
561,25
562,25
563,25
564,25
565,25
566,25
567,25
568,25
569,25
570,25
571,25
572,25
573,25
574,25
575,25
576,25
577,25
578,25
579,26
580,26
581,27
582,27
583,27
584,27
585,27
586,27
587,27
588,27
589,27
590,27
591,27
592,27
593,27
594,27
595,27
596,28
597,28
598,28
599,28
600,29
601,29
602,29
603,29
604,29
605,29
606,29
607,29
608,30
609,30
610,30
611,30
612,30
613,30
614,30
615,30
616,30
617,30
618,30
619,30
620,31
621,31
622,31
623,31
624,31
625,31
626,31
627,31
628,31
629,31
630,32
631,32
632,32
633,32
634,32
635,32
636,32
637,32
638,32
639,32
640,32
641,32
642,32
643,32
644,32
645,32
646,32
647,32
648,32
649,32
650,32
651,32
652,32
653,32
654,32
655,32
656,32
657,32
658,32
659,32
660,32
661,32
662,32
663,32
664,32
665,32
666,32
667,32
668,32
669,32
670,32
671,32
672,33
673,33
674,33
675,33
676,33
677,33
678,33
679,33
680,33
681,33
682,33
683,34
684,34
685,34
686,34
687,34
688,35
689,35
690,35
691,35
692,35
693,35
694,35
695,35
696,35
697,35
698,36
699,37
700,37
701,37
702,37
703,37
704,37
705,37
706,37
707,37
708,37
709,37
710,37
711,37
712,38
713,38
714,38
715,38
716,38
717,38
718,38
719,38
720,38
721,38
722,38
723,38
724,38
725,38
726,38
727,38
728,39
729,39
730,40
731,40
732,40
733,40
734,40
735,40
736,40
737,40
738,40
739,40
740,40
741,40
742,40
743,40
744,40
745,40
746,40
747,40
748,40
749,40
750,40
751,40
752,40
753,40
754,40
755,40
756,40
757,40
758,40
759,40
760,40
761,40
762,40
763,40
764,40
765,40
766,40
767,40
768,40
769,41
770,41
771,41
772,41
773,41
774,41
775,42
776,42
777,42
778,42
779,42
780,42
781,42
782,42
783,42
784,42
785,42
786,42
787,42
788,42
789,42
790,42
791,42
792,43
793,43
794,43
795,43
796,43
797,43
798,43
799,43
800,43
801,43
802,43
803,43
804,43
805,43
806,43
807,43
808,43
809,43
810,43
811,43
812,43
813,43
814,43
815,43
816,43
817,43
818,43
819,43
820,43
821,43
822,44
823,44
824,44
825,44
826,44
827,44
828,44
829,44
830,44
831,44
832,44
833,44
834,44
835,44
836,44
837,44
838,44
839,44
840,44
841,44
842,44
843,44
844,44
845,44
846,44
847,44
848,44
849,44
850,44
851,44
852,44
853,44
854,44
855,44
856,44
857,44
858,44
859,44
860,44
861,44
862,44
863,44
864,44
865,44
866,44
867,44
868,44
869,44
870,44
871,44
872,44
873,44
874,44
875,44
876,44
877,44
878,44
879,44
880,44
881,44
882,44
883,44
884,44
885,44
886,44
887,44
888,44
889,44
890,44
891,44
892,44
893,44
894,44
895,44
896,44
897,44
898,44
899,44
900,44
901,44
902,44
903,44
904,44
905,44
906,44
907,44
908,44
909,44
910,44
911,44
912,44
913,44
914,44
915,44
916,44
917,44
918,44
919,44
920,44
921,44
922,44
923,44
924,44
925,44
926,44
927,44
928,44
929,44
930,44
931,44
932,44
933,44
934,44
935,44
936,44
937,44
938,44
939,44
940,44
941,44
942,44
943,44
944,44
945,44
946,44
947,44
948,44
949,44
950,44
951,44
952,44
953,44
954,44
955,44
956,44
957,44
958,44
959,44
960,44
961,44
962,44
963,44
964,44
965,44
966,44
967,44
968,44
969,44
970,44
971,44
972,44
973,44
974,44
975,44
976,44
977,44
978,44
979,44
980,44
981,44
982,44
983,44
984,44
985,44
986,44
987,44
988,44
989,44
990,44
991,44
992,44
993,44
994,45
995,45
996,45
997,45
998,45
999,45
1000,45
1001,45
1002,45
1003,46
1004,46
1005,46
1006,46
1007,46
1008,46
1009,46
1010,46
1011,46
1012,46
1013,46
1014,47
1015,47
1016,47
1017,47
1018,47
1019,47
1020,47
1021,47
1022,47
1023,47
1024,47
1025,47
1026,47
1027,47
1028,47
1029,47
1030,47
1031,47
1032,47
1033,47
1034,47
1035,47
1036,47
1037,47
1038,47
1039,47
1040,47
1041,47
1042,47
1043,47
1044,47
1045,47
1046,47
1047,47
1048,47
1049,47
1050,47
1051,47
1052,47
1053,47
1054,47
1055,47
1056,47
1057,47
1058,47
1059,48
1060,48
1061,48
1062,49
1063,49
1064,49
1065,49
1066,49
1067,49
1068,50
1069,50
1070,50
1071,50
1072,50
1073,50
1074,50
1075,50
1076,50
1077,50
1078,50
1079,50
1080,50
1081,50
1082,50
1083,50
1084,50
1085,51
1086,51
1087,51
1088,51
1089,52
1090,52
1091,52
1092,52
1093,52
1094,52
1095,52
1096,52
1097,52
1098,52
1099,52
1100,52
1101,52
1102,52
1103,52
1104,52
1105,52
1106,52
1107,52
1108,52
1109,52
1110,52
1111,52
1112,52
1113,52
1114,52
1115,52
1116,52
1117,52
1118,52
1119,52
1120,52
1121,52
1122,52
1123,52
1124,52
1125,52
1126,52
1127,52
1128,52
1129,52
1130,52
1131,52
1132,52
1133,52
1134,52
1135,52
1136,52
1137,52
1138,52
1139,52
1140,52
1141,52
1142,52
1143,52
1144,52
1145,53
1146,53
1147,53
1148,53
1149,53
1150,53
1151,53
1152,53
1153,53
1154,53
1155,54
1156,54
1157,54
1158,54
1159,54
1160,54
1161,54
1162,55
1163,55
1164,55
1165,55
1166,55
1167,55
1168,55
1169,55
1170,55
1171,56
1172,56
1173,56
1174,56
1175,56
1176,56
1177,56
1178,56
1179,56
1180,56
1181,56
1182,56
1183,57
1184,57
1185,57
1186,57
1187,57
1188,57
1189,57
1190,57
1191,57
1192,57
1193,57
1194,57
1195,57
1196,57
1197,57
1198,57
1199,57
1200,57
1201,57
1202,57
1203,57
1204,57
1205,57
1206,57
1207,57
1208,57
1209,57
1210,57
1211,57
1212,57
1213,57
1214,57
1215,57
1216,57
1217,57
1218,57
1219,57
1220,57
1221,57
1222,57
1223,57
1224,57
1225,57
1226,57
1227,57
1228,57
1229,57
1230,57
1231,57
1232,57
1233,57
1234,57
1235,57
1236,57
1237,57
1238,57
1239,57
1240,57
1241,57
1242,58
1243,58
1244,58
1245,58
1246,58
1247,58
1248,58
1249,58
1250,58
1251,58
1252,58
1253,58
1254,58
1255,58
1256,59
1257,59
1258,59
1259,59
1260,59
1261,59
1262,59
1263,59
1264,59
1265,59
1266,59
1267,59
1268,59
1269,59
1270,59
1271,59
1272,60
1273,60
1274,60
1275,60
1276,60
1277,60
1278,60
1279,60
1280,60
1281,60
1282,60
1283,60
1284,60
1285,60
1286,60
1287,60
1288,60
1289,60
1290,60
1291,60
1292,60
1293,60
1294,60
1295,60
1296,60
1297,60
1298,61
1299,61
1300,61
1301,61
1302,62
1303,62
1304,62
1305,62
1306,62
1307,62
1308,63
1309,64
1310,64
1311,64
1312,64
1313,65
1314,65
1315,65
1316,65
1317,65
1318,65
1319,66
1320,66
1321,66
1322,66
1323,66
1324,66
1325,66
1326,66
1327,66
1328,66
1329,66
1330,66
1331,66
1332,66
1333,66
1334,66
1335,66
1336,66
1337,66
1338,66
1339,66
1340,67
1341,67
1342,67
1343,67
1344,67
1345,67
1346,67
1347,67
1348,67
1349,68
1350,68
1351,68
1352,68
1353,68
1354,68
1355,68
1356,68
1357,68
1358,68
1359,68
1360,68
1361,68
1362,68
1363,68
1364,69
1365,70
1366,70
1367,70
1368,70
1369,70
1370,70
1371,70
1372,70
1373,70
1374,71
1375,71
1376,71
1377,71
1378,71
1379,71
1380,71
1381,71
1382,71
1383,71
1384,71
1385,71
1386,71
1387,71
1388,72
1389,72
1390,72
1391,72
1392,72
1393,72
1394,72
1395,72
1396,72
1397,72
1398,72
1399,72
1400,72
1401,72
1402,72
1403,72
1404,72
1405,72
1406,72
1407,72
1408,72
1409,72
1410,72
1411,72
1412,72
1413,72
1414,72
1415,72
1416,72
1417,72
1418,72
1419,72
1420,72
1421,72
1422,72
1423,72
1424,72
1425,72
1426,72
1427,72
1428,72
1429,72
1430,72
1431,72
1432,72
1433,72
1434,72
1435,72
1436,72
1437,72
1438,72
1439,73
1440,73
1441,73
1442,73
1443,73
1444,73
1445,73
1446,73
1447,73
1448,73
1449,73
1450,73
1451,73
1452,73
1453,73
1454,73
1455,73
1456,73
1457,73
1458,73
1459,73
1460,73
1461,73
1462,73
1463,73
1464,73
1465,73
1466,73
1467,73
1468,73
1469,73
1470,73
1471,73
1472,73
1473,73
1474,73
1475,73
1476,73
1477,73
1478,73
1479,73
1480,73
1481,73
1482,73
1483,73
1484,73
1485,73
1486,73
1487,73
1488,73
1489,73
1490,73
1491,73
1492,73
1493,73
1494,73
1495,73
1496,73
1497,73
1498,73
1499,73
1500,73
1501,73
1502,73
1503,73
1504,73
1505,73
1506,73
1507,73
1508,74
1509,74
1510,74
1511,74
1512,74
1513,74
1514,74
1515,74
1516,74
1517,75
1518,75
1519,75
1520,75
1521,75
1522,75
1523,75
1524,75
1525,75
1526,75
1527,75
1528,75
1529,75
1530,75
1531,75
1532,75
1533,75
1534,75
1535,75
1536,75
1537,75
1538,75
1539,75
1540,75
1541,75
1542,75
1543,75
1544,75
1545,75
1546,75
1547,75
1548,75
1549,75
1550,75
1551,75
1552,75
1553,75
1554,75
1555,75
1556,75
1557,75
1558,76
1559,76
1560,76
1561,76
1562,76
1563,76
1564,76
1565,76
1566,76
1567,76
1568,76
1569,76
1570,76
1571,76
1572,78
1573,78
1574,78
1575,78
1576,78
1577,78
1578,78
1579,79
1580,79
1581,79
1582,79
1583,79
1584,79
1585,79
1586,79
1587,79
1588,79
1589,79
1590,79
1591,79
1592,79
1593,79
1594,79
1595,79
1596,79
1597,79
1598,79
1599,79
1600,79
1601,79
1602,79
1603,79
1604,79
1605,79
1606,79
1607,79
1608,79
1609,80
1610,80
1611,80
1612,80
1613,80
1614,80
1615,80
1616,80
1617,80
1618,80
1619,81
1620,81
1621,81
1622,81
1623,81
1624,81
1625,81
1626,81
1627,81
1628,81
1629,81
1630,81
1631,81
1632,81
1633,81
1634,81
1635,81
1636,81
1637,81
1638,81
1639,81
1640,82
1641,82
1642,82
1643,82
1644,82
1645,82
1646,82
1647,82
1648,82
1649,82
1650,82
1651,82
1652,82
1653,82
1654,82
1655,82
1656,82
1657,82
1658,82
1659,82
1660,82
1661,82
1662,82
1663,82
1664,82
1665,82
1666,82
1667,82
1668,82
1669,82
1670,82
1671,82
1672,82
1673,82
1674,82
1675,82
1676,82
1677,82
1678,82
1679,82
1680,82
1681,82
1682,82
1683,83
1684,85
1685,85
1686,85
1687,85
1688,85
1689,85
1690,85
1691,85
1692,85
1693,85
1694,85
1695,85
1696,85
1697,85
1698,85
1699,85
1700,85
1701,85
1702,85
1703,85
1704,85
1705,85
1706,85
1707,85
1708,85
1709,85
1710,85
1711,85
1712,85
1713,85
1714,85
1715,85
1716,85
1717,85
1718,85
1719,85
1720,85
1721,85
1722,85
1723,85
1724,85
1725,85
1726,85
1727,85
1728,85
1729,85
1730,85
1731,85
1732,85
1733,85
1734,85
1735,85
1736,85
1737,85
1738,85
1739,86
1740,88
1741,88
1742,88
1743,88
1744,89
1745,89
1746,89
1747,89
1748,89
1749,89
1750,89
1751,89
1752,89
1753,89
1754,89
1755,89
1756,89
1757,89
1758,89
1759,89
1760,89
1761,89
1762,89
1763,89
1764,89
1765,90
1766,90
1767,90
1768,90
1769,90
1770,90
1771,90
1772,90
1773,90
1774,90
1775,90
1776,90
1777,90
1778,90
1779,90
1780,90
1781,90
1782,90
1783,90
1784,90
1785,90
1786,91
1787,91
1788,91
1789,91
1790,91
1791,91
1792,91
1793,91
1794,91
1795,91
1796,91
1797,91
1798,91
1799,91
1800,91
1801,92
1802,92
1803,92
1804,92
1805,92
1806,92
1807,92
1808,92
1809,92
1810,92
1811,92
1812,92
1813,92
1814,93
1815,93
1816,93
1817,93
1818,93
1819,93
1820,93
1821,93
1822,93
1823,93
1824,93
1825,93
1826,93
1827,93
1828,93
1829,94
1830,94
1831,94
1832,94
1833,94
1834,94
1835,94
1836,94
1837,94
1838,94
1839,94
1840,94
1841,94
1842,94
1843,94
1844,94
1845,94
1846,94
1847,94
1848,94
1849,94
1850,94
1851,94
1852,94
1853,94
1854,94
1855,95
1856,95
1857,95
1858,95
1859,95
1860,95
1861,95
1862,95
1863,95
1864,95
1865,95
1866,95
1867,95
1868,95
1869,95
1870,95
1871,95
1872,95
1873,95
1874,95
1875,95
1876,95
1877,95
1878,95
1879,95
1880,95
1881,95
1882,95
1883,95
1884,95
1885,95
1886,95
1887,95
1888,95
1889,95
1890,95
1891,95
1892,95
1893,95
1894,95
1895,95
1896,95
1897,95
1898,95
1899,95
1900,95
1901,95
1902,95
1903,95
1904,95
1905,95
1906,95
1907,95
1908,95
1909,95
1910,95
1911,95
1912,96
1913,96
1914,97
1915,97
1916,97
1917,98
1918,98
1919,98
1920,98
1921,98
1922,98
1923,98
1924,98
1925,98
1926,98
1927,98
1928,98
1929,98
1930,98
1931,98
1932,98
1933,98
1934,98
1935,98
1936,98
1937,98
1938,98
1939,98
1940,98
1941,98
1942,98
1943,98
1944,98
1945,98
1946,98
1947,98
1948,98
1949,98
1950,98
1951,98
1952,98
1953,98
1954,98
1955,98
1956,98
1957,98
1958,99
1959,99
1960,99
1961,99
1962,99
1963,99
1964,99
1965,99
1966,99
1967,99
1968,99
1969,99
1970,99
1971,99
1972,99
1973,99
1974,99
1975,99
1976,99
1977,99
1978,99
1979,99
1980,99
1981,99
1982,100
1983,100
1984,100
1985,100
1986,100
1987,101
1988,102
1989,102
1990,103
1991,104
1992,104
1993,104
1994,104
1995,104
1996,104
1997,105
1998,105
1999,105
2000,105
