"tick","total"
0,0
1,0
2,0
3,0
4,0
5,0
6,0
7,0
8,0
9,0
10,0
11,0
12,0
13,0
14,0
15,0
16,0
17,0
18,0
19,0
20,0
21,0
22,0
23,0
24,0
25,0
26,0
27,0
28,0
29,0
30,0
31,0
32,0
33,0
34,0
35,0
36,0
37,0
38,0
39,0
40,0
41,0
42,0
43,0
44,0
45,0
46,0
47,0
48,0
49,0
50,0
51,0
52,0
53,0
54,0
55,0
56,0
57,0
58,0
59,0
60,0
61,0
62,0
63,0
64,0
65,0
66,0
67,0
68,0
69,0
70,0
71,0
72,0
73,0
74,0
75,0
76,0
77,0
78,0
79,0
80,0
81,0
82,0
83,0
84,0
85,0
86,0
87,0
88,0
89,0
90,0
91,0
92,0
93,0
94,0
95,0
96,0
97,0
98,0
99,0
100,0
101,0
102,0
103,0
104,0
105,0
106,0
107,0
108,0
109,0
110,0
111,0
112,0
113,0
114,0
115,0
116,0
117,0
118,0
119,0
120,0
121,0
122,0
123,0
124,0
125,0
126,0
127,0
128,0
129,0
130,0
131,0
132,0
133,0
134,0
135,0
136,0
137,0
138,0
139,0
140,0
141,0
142,0
143,0
144,0
145,0
146,0
147,0
148,0
149,0
150,0
151,0
152,0
153,0
154,0
155,0
156,0
157,0
158,0
159,0
160,0
161,0
162,0
163,0
164,0
165,0
166,0
167,0
168,0
169,0
170,0
171,0
172,0
173,0
174,0
175,0
176,0
177,0
178,0
179,0
180,0
181,0
182,0
183,0
184,0
185,0
186,0
187,0
188,0
189,0
190,0
191,0
192,0
193,0
194,0
195,0
196,0
197,0
198,0
199,0
200,0
201,0
202,0
203,0
204,0
205,0
206,0
207,0
208,0
209,0
210,0
211,0
212,0
213,0
214,0
215,0
216,0
217,0
218,0
219,0
220,0
221,0
222,0
223,0
224,0
225,0
226,0
227,0
228,0
229,0
230,0
231,0
232,0
233,0
234,0
235,0
236,1
237,1
238,1
239,1
240,1
241,1
242,1
243,1
244,1
245,1
246,2
247,2
248,2
249,2
250,2
251,2
252,2
253,2
254,2
255,2
256,2
257,2
258,2
259,2
260,2
261,2
262,2
263,2
264,2
265,2
266,2
267,2
268,2
269,2
270,2
271,2
272,2
273,2
274,2
275,3
276,3
277,4
278,4
279,4
280,4
281,4
282,4
283,5
284,5
285,5
286,5
287,5
288,5
289,5
290,5
291,5
292,5
293,5
294,5
295,5
296,5
297,5
298,5
299,5
300,5
301,5
302,5
303,5
304,6
305,6
306,6
307,6
308,6
309,6
310,7
311,7
312,7
313,7
314,7
315,7
316,7
317,7
318,8
319,8
320,8
321,8
322,8
323,8
324,8
325,8
326,8
327,9
328,9
329,9
330,9
331,9
332,9
333,9
334,9
335,9
336,9
337,10
338,10
339,10
340,11
341,11
342,11
343,11
344,11
345,11
346,11
347,11
348,12
349,12
350,12
351,12
352,12
353,12
354,13
355,13
356,13
357,13
358,13
359,13
360,13
361,13
362,13
363,13
364,13
365,13
366,13
367,13
368,13
369,13
370,13
371,13
372,14
373,14
374,14
375,14
376,15
377,15
378,16
379,16
380,16
381,16
382,16
383,18
384,18
385,19
386,19
387,20
388,20
389,20
390,20
391,20
392,20
393,20
394,20
395,20
396,20
397,20
398,20
399,20
400,20
401,20
402,20
403,20
404,20
405,20
406,20
407,20
408,20
409,20
410,20
411,20
412,20
413,20
414,20
415,20
416,20
417,20
418,20
419,20
420,20
421,20
422,20
423,20
424,20
425,20
426,20
427,20
428,20
429,20
430,20
431,20
432,20
433,20
434,20
435,20
436,20
437,20
438,20
439,20
440,20
441,20
442,20
443,20
444,20
445,20
446,20
447,20
448,20
449,20
450,20
451,20
452,20
453,20
454,20
455,20
456,20
457,20
458,21
459,22
460,22
461,22
462,22
463,22
464,22
465,22
466,22
467,22
468,22
469,22
470,22
471,22
472,22
473,22
474,22
475,22
476,23
477,23
478,23
479,23
480,23
481,23
482,23
483,23
484,23
485,24
486,25
487,25
488,25
489,25
490,25
491,25
492,25
493,25
494,25
495,25
496,25
497,25
498,25
499,25
500,25
501,26
502,26
503,26
504,26
505,26
506,26
507,26
508,26
509,27
510,27
511,27
512,27
513,27
514,27
515,27
516,27
517,27
518,27
519,27
520,27
521,27
522,27
523,27
524,27
525,27
526,27
527,27
528,27
529,27
530,27
531,27
532,27
533,28
534,28
535,28
536,28
537,28
538,28
539,28
540,28
541,28
542,28
543,29
544,29
545,29
546,29
547,29
548,29
549,29
550,29
551,29
552,29
553,29
554,29
555,29
556,29
557,29
558,29
559,29
560,29
561,29
562,29
563,29
564,29
565,29
566,29
567,29
568,29
569,29
570,29
571,29
572,29
573,29
574,29
575,29
576,29
577,29
578,29
579,29
580,29
581,29
582,29
583,29
584,29
585,29
586,29
587,30
588,30
589,30
590,30
591,30
592,30
593,30
594,30
595,30
596,30
597,30
598,30
599,30
600,30
601,30
602,30
603,30
604,30
605,30
606,30
607,30
608,30
609,30
610,30
611,30
612,30
613,30
614,30
615,30
616,30
617,30
618,30
619,30
620,30
621,30
622,31
623,31
624,31
625,31
626,31
627,31
628,32
629,32
630,32
631,32
632,32
633,32
634,32
635,32
636,32
637,32
638,32
639,32
640,32
641,32
642,32
643,32
644,32
645,32
646,32
647,32
648,32
649,32
650,32
651,32
652,32
653,32
654,32
655,32
656,32
657,32
658,32
659,32
660,32
661,32
662,32
663,32
664,32
665,32
666,32
667,32
668,32
669,32
670,32
671,32
672,32
673,32
674,32
675,32
676,32
677,32
678,32
679,32
680,32
681,32
682,32
683,32
684,32
685,32
686,32
687,32
688,32
689,32
690,32
691,32
692,32
693,32
694,32
695,32
696,32
697,32
698,32
699,32
700,32
701,32
702,32
703,32
704,32
705,32
706,32
707,33
708,33
709,33
710,33
711,33
712,33
713,33
714,33
715,33
716,33
717,33
718,33
719,33
720,33
721,33
722,34
723,34
724,34
725,34
726,34
727,34
728,34
729,34
730,34
731,34
732,34
733,34
734,34
735,34
736,34
737,34
738,34
739,35
740,35
741,35
742,35
743,35
744,35
745,35
746,35
747,35
748,36
749,36
750,36
751,36
752,36
753,36
754,36
755,36
756,36
757,36
758,36
759,36
760,36
761,36
762,36
763,36
764,36
765,36
766,36
767,36
768,36
769,36
770,36
771,36
772,36
773,36
774,36
775,37
776,37
777,37
778,37
779,37
780,37
781,37
782,37
783,37
784,37
785,38
786,38
787,38
788,38
789,39
790,39
791,39
792,39
793,39
794,39
795,39
796,39
797,39
798,39
799,39
800,39
801,39
802,39
803,39
804,39
805,40
806,40
807,40
808,40
809,40
810,40
811,40
812,40
813,40
814,40
815,40
816,40
817,40
818,40
819,40
820,40
821,40
822,40
823,40
824,40
825,41
826,41
827,41
828,41
829,41
830,41
831,41
832,41
833,41
834,42
835,42
836,43
837,43
838,43
839,43
840,43
841,43
842,43
843,44
844,44
845,44
846,44
847,44
848,44
849,44
850,44
851,44
852,44
853,44
854,44
855,44
856,44
857,44
858,44
859,44
860,44
861,44
862,44
863,44
864,44
865,44
866,44
867,44
868,44
869,44
870,44
871,44
872,44
873,44
874,44
875,44
876,44
877,44
878,44
879,44
880,44
881,44
882,44
883,44
884,44
885,44
886,44
887,44
888,44
889,44
890,44
891,44
892,44
893,44
894,45
895,45
896,45
897,45
898,45
899,45
900,45
901,45
902,45
903,45
904,45
905,45
906,45
907,45
908,45
909,45
910,45
911,45
912,45
913,45
914,45
915,45
916,45
917,45
918,45
919,45
920,45
921,45
922,45
923,45
924,45
925,45
926,45
927,45
928,45
929,45
930,45
931,45
932,45
933,45
934,45
935,45
936,45
937,45
938,45
939,46
940,46
941,46
942,46
943,46
944,46
945,46
946,46
947,46
948,46
949,46
950,46
951,46
952,46
953,46
954,46
955,46
956,46
957,46
958,48
959,48
960,48
961,48
962,48
963,48
964,48
965,48
966,48
967,48
968,48
969,48
970,48
971,48
972,48
973,48
974,48
975,48
976,48
977,48
978,48
979,48
980,48
981,48
982,48
983,48
984,48
985,48
986,48
987,48
988,48
989,48
990,49
991,49
992,49
993,49
994,49
995,50
996,50
997,50
998,50
999,50
1000,52
1001,52
1002,52
1003,53
1004,53
1005,53
1006,53
1007,53
1008,53
1009,53
1010,53
1011,53
1012,53
1013,54
1014,54
1015,54
1016,54
1017,54
1018,54
1019,54
1020,54
1021,54
1022,54
1023,54
1024,54
1025,54
1026,54
1027,54
1028,55
1029,55
1030,55
1031,55
1032,55
1033,55
1034,55
1035,55
1036,55
1037,55
1038,55
1039,55
1040,55
1041,55
1042,55
1043,55
1044,55
1045,55
1046,55
1047,55
1048,55
1049,55
1050,55
1051,55
1052,55
1053,55
1054,55
1055,55
1056,55
1057,55
1058,55
1059,55
1060,55
1061,55
1062,55
1063,55
1064,55
1065,55
1066,55
1067,55
1068,55
1069,55
1070,55
1071,55
1072,55
1073,55
1074,55
1075,55
1076,55
1077,55
1078,55
1079,55
1080,56
1081,56
1082,56
1083,56
1084,56
1085,56
1086,56
1087,56
1088,56
1089,56
1090,56
1091,56
1092,56
1093,56
1094,56
1095,56
1096,56
1097,58
1098,58
1099,58
1100,58
1101,58
1102,58
1103,58
1104,58
1105,60
1106,60
1107,60
1108,60
1109,60
1110,60
1111,60
1112,61
1113,61
1114,61
1115,61
1116,61
1117,61
1118,61
1119,61
1120,61
1121,61
1122,61
1123,61
1124,61
1125,62
1126,62
1127,62
1128,62
1129,62
1130,62
1131,62
1132,62
1133,62
1134,62
1135,62
1136,62
1137,62
1138,62
1139,62
1140,62
1141,62
1142,62
1143,62
1144,62
1145,62
1146,62
1147,63
1148,63
1149,63
1150,63
1151,63
1152,63
1153,63
1154,63
1155,63
1156,63
1157,63
1158,63
1159,63
1160,63
1161,63
1162,63
1163,63
1164,63
1165,63
1166,63
1167,63
1168,63
1169,63
1170,63
1171,63
1172,63
1173,63
1174,63
1175,63
1176,63
1177,63
1178,63
1179,63
1180,63
1181,63
1182,63
1183,63
1184,63
1185,63
1186,63
1187,63
1188,63
1189,63
1190,63
1191,63
1192,63
1193,63
1194,63
1195,63
1196,63
1197,63
1198,63
1199,63
1200,63
1201,63
1202,63
1203,63
1204,63
1205,64
1206,64
1207,64
1208,64
1209,64
1210,64
1211,64
1212,64
1213,64
1214,64
1215,64
1216,64
1217,64
1218,64
1219,65
1220,65
1221,65
1222,65
1223,65
1224,65
1225,65
1226,65
1227,65
1228,65
1229,65
1230,65
1231,65
1232,65
1233,65
1234,65
1235,65
1236,65
1237,65
1238,65
1239,67
1240,67
1241,67
1242,67
1243,67
1244,67
1245,67
1246,67
1247,67
1248,67
1249,67
1250,67
1251,67
1252,67
1253,67
1254,67
1255,67
1256,67
1257,67
1258,67
1259,67
1260,67
1261,67
1262,67
1263,67
1264,67
1265,67
1266,67
1267,67
1268,67
1269,67
1270,67
1271,67
1272,67
1273,67
1274,67
1275,67
1276,67
1277,67
1278,67
1279,67
1280,67
1281,67
1282,67
1283,67
1284,67
1285,67
1286,67
1287,67
1288,67
1289,67
1290,67
1291,67
1292,67
1293,67
1294,67
1295,67
1296,67
1297,67
1298,67
1299,67
1300,67
1301,67
1302,67
1303,68
1304,68
1305,68
1306,68
1307,68
1308,68
1309,68
1310,68
1311,68
1312,68
1313,68
1314,68
1315,68
1316,68
1317,68
1318,69
1319,69
1320,69
1321,69
1322,69
1323,69
1324,69
1325,69
1326,69
1327,69
1328,69
1329,69
1330,69
1331,69
1332,69
1333,69
1334,69
1335,69
1336,69
1337,69
1338,69
1339,69
1340,69
1341,69
1342,69
1343,69
1344,71
1345,71
1346,71
1347,71
1348,71
1349,71
1350,71
1351,71
1352,72
1353,73
1354,73
1355,73
1356,73
1357,73
1358,73
1359,73
1360,73
1361,73
1362,73
1363,73
1364,73
1365,73
1366,73
1367,73
1368,73
1369,73
1370,73
1371,73
1372,73
1373,73
1374,73
1375,73
1376,73
1377,73
1378,73
1379,73
1380,73
1381,73
1382,73
1383,73
1384,73
1385,73
1386,73
1387,73
1388,73
1389,73
1390,73
1391,73
1392,73
1393,73
1394,73
1395,73
1396,73
1397,73
1398,73
1399,73
1400,73
1401,73
1402,73
1403,73
1404,73
1405,73
1406,73
1407,73
1408,73
1409,73
1410,73
1411,74
1412,74
1413,74
1414,75
1415,75
1416,75
1417,75
1418,75
1419,75
1420,75
1421,75
1422,75
1423,75
1424,75
1425,75
1426,75
1427,75
1428,75
1429,75
1430,75
1431,75
1432,75
1433,75
1434,75
1435,76
1436,77
1437,77
1438,77
1439,77
1440,77
1441,78
1442,78
1443,78
1444,78
1445,78
1446,78
1447,78
1448,78
1449,78
1450,78
1451,78
1452,78
1453,78
1454,78
1455,78
1456,78
1457,78
1458,78
1459,78
1460,78
1461,78
1462,78
1463,79
1464,79
1465,79
1466,79
1467,79
1468,79
1469,79
1470,79
1471,79
1472,79
1473,79
1474,79
1475,79
1476,79
1477,79
1478,79
1479,79
1480,79
1481,79
1482,79
1483,79
1484,79
1485,79
1486,79
1487,79
1488,79
1489,79
1490,79
1491,79
1492,79
1493,79
1494,79
1495,79
1496,79
1497,79
1498,79
1499,79
1500,79
1501,79
1502,79
1503,79
1504,79
1505,79
1506,79
1507,79
1508,79
1509,79
1510,79
1511,79
1512,79
1513,80
1514,80
1515,80
1516,80
1517,80
1518,80
1519,80
1520,80
1521,80
1522,80
1523,80
1524,80
1525,81
1526,81
1527,81
1528,81
1529,81
1530,81
1531,81
1532,81
1533,81
1534,81
1535,81
1536,81
1537,81
1538,81
1539,81
1540,81
1541,81
1542,81
1543,81
1544,81
1545,81
1546,81
1547,81
1548,81
1549,81
1550,81
1551,81
1552,81
1553,81
1554,81
1555,81
1556,81
1557,81
1558,81
1559,81
1560,81
1561,82
1562,82
1563,82
1564,82
1565,82
1566,82
1567,82
1568,82
1569,82
1570,82
1571,82
1572,82
1573,82
1574,82
1575,82
1576,82
1577,82
1578,82
1579,82
1580,82
1581,82
1582,82
1583,82
1584,82
1585,82
1586,82
1587,82
1588,82
1589,82
1590,82
1591,82
1592,82
1593,84
1594,84
1595,84
1596,85
1597,85
1598,85
1599,85
1600,85
1601,85
1602,85
1603,86
1604,86
1605,86
1606,86
1607,86
1608,86
1609,86
1610,86
1611,86
1612,86
1613,86
1614,86
1615,86
1616,86
1617,86
1618,86
1619,86
1620,86
1621,86
1622,86
1623,86
1624,86
1625,86
1626,86
1627,86
1628,86
1629,86
1630,86
1631,86
1632,86
1633,86
1634,86
1635,86
1636,86
1637,86
1638,86
1639,86
1640,86
1641,86
1642,86
1643,86
1644,86
1645,86
1646,86
1647,86
1648,86
1649,86
1650,86
1651,86
1652,86
1653,86
1654,86
1655,86
1656,86
1657,86
1658,86
1659,86
1660,86
1661,86
1662,86
1663,86
1664,86
1665,86
1666,86
1667,86
1668,86
1669,86
1670,86
1671,86
1672,86
1673,86
1674,86
1675,87
1676,87
1677,87
1678,87
1679,87
1680,87
1681,87
1682,87
1683,87
1684,87
1685,87
1686,87
1687,87
1688,87
1689,87
1690,87
1691,87
1692,87
1693,87
1694,87
1695,87
1696,87
1697,87
1698,87
1699,87
1700,87
1701,87
1702,87
1703,87
1704,87
1705,87
1706,87
1707,87
1708,87
1709,87
1710,87
1711,87
1712,87
1713,87
1714,87
1715,87
1716,87
1717,87
1718,87
1719,87
1720,87
1721,87
1722,87
1723,87
1724,87
1725,87
1726,88
1727,88
1728,88
1729,88
1730,88
1731,88
1732,88
1733,88
1734,88
1735,88
1736,88
1737,88
1738,88
1739,89
1740,89
1741,89
1742,89
1743,89
1744,89
1745,90
1746,90
1747,90
1748,90
1749,91
1750,91
1751,91
1752,91
1753,91
1754,91
1755,91
1756,91
1757,91
1758,91
1759,91
1760,91
1761,91
1762,91
1763,91
1764,91
1765,91
1766,91
1767,91
1768,91
1769,91
1770,91
1771,91
1772,91
1773,91
1774,91
1775,91
1776,91
1777,91
1778,91
1779,91
1780,91
1781,91
1782,91
1783,91
1784,91
1785,92
1786,92
1787,92
1788,92
1789,92
1790,93
1791,93
1792,93
1793,93
1794,93
1795,93
1796,94
1797,94
1798,94
1799,94
1800,94
1801,94
1802,94
1803,94
1804,94
1805,94
1806,94
1807,94
1808,94
1809,94
1810,94
1811,94
1812,94
1813,94
1814,94
1815,94
1816,94
1817,94
1818,94
1819,94
1820,94
1821,94
1822,94
1823,94
1824,94
1825,94
1826,94
1827,94
1828,94
1829,94
1830,94
1831,94
1832,94
1833,94
1834,94
1835,94
1836,94
1837,94
1838,94
1839,94
1840,94
1841,94
1842,94
1843,94
1844,94
1845,95
1846,95
1847,95
1848,95
1849,95
1850,95
1851,95
1852,95
1853,95
1854,96
1855,96
1856,96
1857,96
1858,96
1859,96
1860,96
1861,96
1862,96
1863,96
1864,96
1865,96
1866,96
1867,96
1868,96
1869,96
1870,98
1871,98
1872,98
1873,98
1874,98
1875,98
1876,98
1877,98
1878,99
1879,99
1880,99
1881,99
1882,99
1883,99
1884,100
1885,100
1886,100
1887,100
1888,100
1889,100
1890,100
1891,100
1892,100
1893,100
1894,100
1895,100
1896,100
1897,100
1898,100
1899,100
1900,100
1901,100
1902,100
1903,100
1904,100
1905,100
1906,100
1907,100
1908,100
1909,100
1910,100
1911,100
1912,100
1913,100
1914,100
1915,100
1916,100
1917,100
1918,100
1919,100
1920,100
1921,100
1922,100
1923,100
1924,100
1925,100
1926,100
1927,100
1928,101
1929,102
1930,102
1931,102
1932,102
1933,102
1934,102
1935,102
1936,102
1937,102
1938,102
1939,102
1940,102
1941,102
1942,102
1943,103
1944,103
1945,103
1946,103
1947,103
1948,103
1949,103
1950,103
1951,103
1952,103
1953,103
1954,103
1955,103
1956,103
1957,103
1958,103
1959,103
1960,103
1961,103
1962,103
1963,103
1964,103
1965,103
1966,103
1967,104
1968,104
1969,104
1970,104
1971,104
1972,104
1973,104
1974,104
1975,104
1976,104
1977,104
1978,104
1979,104
1980,104
1981,104
1982,104
1983,104
1984,104
1985,104
1986,104
1987,104
1988,105
1989,105
1990,105
1991,105
1992,105
1993,105
1994,105
1995,105
1996,105
1997,105
1998,106
1999,106
2000,106
