"tick","total"
0,0
1,0
2,0
3,0
4,0
5,0
6,0
7,0
8,0
9,0
10,0
11,0
12,0
13,0
14,0
15,0
16,0
17,0
18,0
19,0
20,0
21,0
22,0
23,0
24,0
25,0
26,0
27,0
28,0
29,0
30,0
31,0
32,0
33,0
34,0
35,0
36,0
37,0
38,0
39,0
40,0
41,0
42,0
43,0
44,0
45,0
46,0
47,0
48,0
49,0
50,0
51,0
52,0
53,0
54,0
55,0
56,0
57,0
58,0
59,0
60,0
61,0
62,0
63,0
64,0
65,0
66,0
67,0
68,0
69,0
70,0
71,0
72,0
73,0
74,0
75,0
76,0
77,0
78,0
79,0
80,0
81,0
82,0
83,0
84,0
85,0
86,0
87,0
88,0
89,0
90,0
91,0
92,0
93,0
94,0
95,0
96,0
97,0
98,0
99,0
100,0
101,0
102,0
103,0
104,0
105,0
106,0
107,0
108,0
109,0
110,0
111,0
112,0
113,0
114,0
115,0
116,0
117,0
118,0
119,0
120,0
121,0
122,0
123,0
124,0
125,0
126,0
127,0
128,0
129,0
130,0
131,0
132,0
133,0
134,0
135,0
136,0
137,0
138,0
139,0
140,0
141,0
142,0
143,0
144,0
145,0
146,0
147,0
148,0
149,0
150,0
151,0
152,0
153,0
154,0
155,0
156,0
157,0
158,0
159,0
160,0
161,0
162,0
163,0
164,0
165,0
166,0
167,0
168,0
169,0
170,0
171,0
172,0
173,0
174,0
175,0
176,0
177,0
178,0
179,0
180,0
181,0
182,0
183,0
184,0
185,0
186,0
187,0
188,0
189,0
190,0
191,0
192,0
193,0
194,0
195,0
196,0
197,0
198,0
199,0
200,0
201,0
202,0
203,0
204,0
205,0
206,0
207,0
208,0
209,0
210,0
211,0
212,1
213,1
214,1
215,1
216,1
217,1
218,1
219,1
220,1
221,1
222,1
223,1
224,1
225,1
226,1
227,1
228,1
229,1
230,1
231,1
232,1
233,1
234,1
235,1
236,1
237,1
238,1
239,2
240,2
241,2
242,2
243,2
244,2
245,2
246,3
247,3
248,3
249,3
250,3
251,3
252,3
253,3
254,3
255,3
256,3
257,3
258,3
259,4
260,4
261,4
262,4
263,4
264,4
265,4
266,4
267,4
268,4
269,4
270,4
271,4
272,4
273,4
274,4
275,4
276,4
277,4
278,4
279,4
280,4
281,4
282,4
283,4
284,4
285,4
286,4
287,4
288,4
289,4
290,4
291,4
292,4
293,4
294,4
295,4
296,4
297,4
298,4
299,4
300,4
301,4
302,4
303,4
304,4
305,4
306,4
307,4
308,4
309,4
310,4
311,4
312,4
313,4
314,4
315,5
316,5
317,5
318,5
319,5
320,5
321,5
322,5
323,5
324,5
325,5
326,5
327,6
328,6
329,6
330,6
331,6
332,6
333,8
334,8
335,8
336,8
337,8
338,8
339,8
340,8
341,8
342,9
343,9
344,9
345,9
346,10
347,10
348,10
349,10
350,10
351,10
352,10
353,10
354,10
355,10
356,10
357,10
358,10
359,10
360,10
361,10
362,10
363,10
364,10
365,10
366,10
367,10
368,10
369,10
370,10
371,10
372,10
373,10
374,10
375,10
376,10
377,10
378,11
379,11
380,11
381,11
382,11
383,11
384,11
385,11
386,11
387,11
388,11
389,11
390,11
391,11
392,11
393,11
394,11
395,11
396,11
397,11
398,11
399,11
400,11
401,11
402,12
403,12
404,12
405,12
406,12
407,13
408,13
409,13
410,13
411,13
412,13
413,13
414,13
415,13
416,13
417,13
418,13
419,13
420,13
421,13
422,13
423,13
424,13
425,13
426,13
427,13
428,13
429,13
430,13
431,14
432,14
433,14
434,14
435,16
436,16
437,16
438,16
439,16
440,16
441,16
442,16
443,16
444,16
445,16
446,17
447,17
448,17
449,17
450,17
451,17
452,17
453,18
454,18
455,18
456,18
457,18
458,18
459,18
460,18
461,18
462,18
463,18
464,18
465,18
466,18
467,18
468,18
469,18
470,18
471,18
472,18
473,18
474,18
475,18
476,18
477,18
478,18
479,18
480,18
481,18
482,18
483,18
484,18
485,18
486,18
487,18
488,18
489,18
490,18
491,18
492,18
493,18
494,18
495,18
496,18
497,18
498,18
499,18
500,18
501,18
502,18
503,18
504,18
505,18
506,18
507,18
508,18
509,18
510,18
511,18
512,18
513,18
514,18
515,18
516,18
517,18
518,18
519,18
520,18
521,18
522,18
523,18
524,18
525,18
526,18
527,19
528,19
529,19
530,19
531,19
532,20
533,21
534,21
535,22
536,22
537,22
538,22
539,22
540,22
541,22
542,22
543,22
544,22
545,22
546,22
547,22
548,22
549,22
550,23
551,23
552,23
553,23
554,23
555,23
556,23
557,23
558,23
559,23
560,23
561,24
562,24
563,24
564,24
565,24
566,24
567,24
568,24
569,24
570,24
571,24
572,24
573,24
574,24
575,24
576,24
577,24
578,24
579,24
580,24
581,24
582,24
583,24
584,24
585,24
586,24
587,24
588,24
589,24
590,24
591,24
592,24
593,24
594,24
595,24
596,24
597,24
598,24
599,24
600,24
601,25
602,25
603,25
604,25
605,25
606,25
607,25
608,25
609,25
610,25
611,25
612,25
613,25
614,25
615,25
616,25
617,25
618,25
619,25
620,25
621,26
622,26
623,26
624,26
625,26
626,26
627,26
628,26
629,26
630,26
631,26
632,26
633,26
634,26
635,26
636,26
637,26
638,26
639,26
640,27
641,27
642,27
643,27
644,27
645,27
646,27
647,27
648,27
649,27
650,27
651,27
652,27
653,27
654,28
655,28
656,28
657,28
658,28
659,29
660,29
661,29
662,29
663,29
664,29
665,30
666,31
667,32
668,32
669,33
670,33
671,33
672,33
673,33
674,33
675,33
676,33
677,33
678,33
679,33
680,34
681,34
682,34
683,34
684,34
685,34
686,34
687,34
688,34
689,34
690,34
691,34
692,34
693,34
694,34
695,34
696,35
697,35
698,35
699,35
700,35
701,35
702,35
703,35
704,35
705,35
706,35
707,35
708,35
709,35
710,35
711,35
712,35
713,35
714,35
715,35
716,35
717,35
718,35
719,35
720,35
721,36
722,36
723,36
724,36
725,36
726,36
727,36
728,36
729,36
730,36
731,36
732,36
733,36
734,36
735,36
736,36
737,36
738,36
739,36
740,36
741,36
742,36
743,36
744,36
745,36
746,36
747,36
748,36
749,36
750,36
751,36
752,36
753,36
754,36
755,36
756,36
757,36
758,36
759,36
760,36
761,36
762,36
763,36
764,36
765,36
766,36
767,37
768,37
769,37
770,37
771,37
772,38
773,38
774,38
775,38
776,38
777,38
778,38
779,38
780,38
781,38
782,38
783,38
784,38
785,38
786,38
787,38
788,38
789,38
790,38
791,38
792,38
793,38
794,38
795,38
796,38
797,38
798,38
799,38
800,38
801,38
802,38
803,38
804,38
805,38
806,38
807,38
808,38
809,38
810,38
811,38
812,38
813,38
814,38
815,38
816,38
817,38
818,38
819,38
820,38
821,38
822,38
823,38
824,38
825,38
826,38
827,38
828,38
829,38
830,38
831,38
832,38
833,38
834,38
835,38
836,39
837,39
838,39
839,39
840,39
841,39
842,39
843,39
844,39
845,39
846,39
847,39
848,39
849,39
850,39
851,39
852,39
853,39
854,39
855,39
856,39
857,39
858,39
859,39
860,39
861,39
862,39
863,40
864,40
865,40
866,40
867,40
868,40
869,40
870,40
871,40
872,40
873,40
874,40
875,40
876,40
877,40
878,40
879,40
880,40
881,40
882,40
883,40
884,41
885,41
886,41
887,41
888,41
889,41
890,41
891,41
892,41
893,41
894,41
895,41
896,41
897,41
898,41
899,41
900,41
901,41
902,41
903,41
904,41
905,41
906,41
907,41
908,41
909,41
910,41
911,41
912,41
913,41
914,41
915,41
916,41
917,41
918,41
919,41
920,41
921,41
922,41
923,41
924,41
925,41
926,41
927,42
928,42
929,42
930,42
931,42
932,42
933,42
934,42
935,42
936,42
937,42
938,42
939,42
940,42
941,43
942,43
943,43
944,43
945,43
946,43
947,43
948,43
949,43
950,43
951,43
952,43
953,43
954,43
955,43
956,43
957,43
958,43
959,43
960,43
961,43
962,43
963,43
964,43
965,43
966,43
967,43
968,43
969,43
970,43
971,43
972,43
973,43
974,43
975,43
976,44
977,44
978,44
979,44
980,44
981,44
982,44
983,44
984,44
985,44
986,44
987,44
988,44
989,44
990,44
991,44
992,44
993,44
994,44
995,44
996,44
997,44
998,44
999,44
1000,44
1001,44
1002,44
1003,44
1004,44
1005,44
1006,44
1007,44
1008,44
1009,44
1010,44
1011,44
1012,44
1013,44
1014,45
1015,45
1016,45
1017,45
1018,45
1019,45
1020,45
1021,45
1022,45
1023,45
1024,45
1025,45
1026,45
1027,45
1028,45
1029,45
1030,45
1031,45
1032,45
1033,45
1034,45
1035,45
1036,45
1037,46
1038,46
1039,47
1040,47
1041,47
1042,47
1043,47
1044,47
1045,47
1046,47
1047,47
1048,47
1049,47
1050,47
1051,47
1052,47
1053,47
1054,47
1055,47
1056,47
1057,47
1058,47
1059,47
1060,47
1061,47
1062,47
1063,47
1064,47
1065,47
1066,47
1067,47
1068,47
1069,47
1070,47
1071,47
1072,47
1073,47
1074,47
1075,47
1076,47
1077,47
1078,47
1079,47
1080,47
1081,47
1082,47
1083,47
1084,47
1085,47
1086,47
1087,47
1088,47
1089,47
1090,47
1091,47
1092,47
1093,47
1094,47
1095,47
1096,47
1097,47
1098,47
1099,47
1100,47
1101,47
1102,47
1103,47
1104,47
1105,47
1106,47
1107,47
1108,47
1109,47
1110,47
1111,47
1112,47
1113,47
1114,47
1115,47
1116,47
1117,47
1118,47
1119,47
1120,47
1121,47
1122,47
1123,47
1124,47
1125,47
1126,47
1127,47
1128,47
1129,47
1130,47
1131,47
1132,47
1133,47
1134,47
1135,47
1136,47
1137,47
1138,47
1139,47
1140,47
1141,47
1142,47
1143,47
1144,47
1145,47
1146,47
1147,47
1148,47
1149,47
1150,47
1151,47
1152,47
1153,47
1154,47
1155,47
1156,47
1157,47
1158,47
1159,47
1160,47
1161,47
1162,47
1163,47
1164,47
1165,47
1166,47
1167,47
1168,47
1169,47
1170,47
1171,47
1172,47
1173,47
1174,47
1175,47
1176,47
1177,47
1178,47
1179,47
1180,47
1181,47
1182,47
1183,48
1184,48
1185,48
1186,48
1187,48
1188,48
1189,48
1190,48
1191,48
1192,48
1193,48
1194,48
1195,48
1196,48
1197,48
1198,48
1199,48
1200,48
1201,48
1202,48
1203,48
1204,48
1205,48
1206,48
1207,48
1208,48
1209,48
1210,48
1211,48
1212,49
1213,49
1214,49
1215,49
1216,49
1217,49
1218,49
1219,49
1220,49
1221,49
1222,49
1223,49
1224,49
1225,49
1226,49
1227,49
1228,49
1229,49
1230,49
1231,49
1232,49
1233,49
1234,49
1235,49
1236,50
1237,50
1238,50
1239,51
1240,51
1241,51
1242,51
1243,51
1244,51
1245,51
1246,52
1247,53
1248,53
1249,53
1250,53
1251,53
1252,53
1253,53
1254,53
1255,53
1256,53
1257,53
1258,53
1259,53
1260,53
1261,53
1262,53
1263,53
1264,53
1265,53
1266,53
1267,54
1268,54
1269,54
1270,54
1271,54
1272,54
1273,54
1274,54
1275,54
1276,54
1277,54
1278,54
1279,54
1280,54
1281,54
1282,54
1283,54
1284,54
1285,54
1286,54
1287,54
1288,54
1289,54
1290,54
1291,54
1292,54
1293,54
1294,54
1295,54
1296,54
1297,54
1298,54
1299,54
1300,54
1301,54
1302,54
1303,54
1304,54
1305,54
1306,54
1307,54
1308,54
1309,54
1310,54
1311,54
1312,54
1313,54
1314,54
1315,54
1316,54
1317,54
1318,54
1319,54
1320,54
1321,54
1322,54
1323,54
1324,54
1325,54
1326,54
1327,54
1328,54
1329,54
1330,54
1331,54
1332,54
1333,54
1334,54
1335,54
1336,54
1337,54
1338,54
1339,54
1340,54
1341,54
1342,54
1343,54
1344,54
1345,55
1346,55
1347,55
1348,55
1349,55
1350,55
1351,55
1352,55
1353,55
1354,55
1355,55
1356,55
1357,55
1358,55
1359,55
1360,55
1361,55
1362,55
1363,55
1364,55
1365,55
1366,55
1367,55
1368,55
1369,55
1370,55
1371,55
1372,55
1373,55
1374,55
1375,55
1376,55
1377,55
1378,55
1379,55
1380,55
1381,55
1382,55
1383,55
1384,55
1385,55
1386,55
1387,55
1388,55
1389,55
1390,55
1391,55
1392,55
1393,55
1394,55
1395,55
1396,55
1397,56
1398,56
1399,56
1400,56
1401,56
1402,56
1403,56
1404,56
1405,56
1406,56
1407,56
1408,56
1409,56
1410,56
1411,57
1412,57
1413,57
1414,57
1415,57
1416,57
1417,57
1418,57
1419,57
1420,58
1421,58
1422,58
1423,58
1424,58
1425,58
1426,58
1427,58
1428,58
1429,58
1430,58
1431,58
1432,58
1433,58
1434,58
1435,58
1436,58
1437,58
1438,58
1439,58
1440,58
1441,58
1442,59
1443,59
1444,59
1445,59
1446,59
1447,59
1448,59
1449,59
1450,59
1451,59
1452,59
1453,59
1454,59
1455,59
1456,59
1457,59
1458,59
1459,59
1460,59
1461,59
1462,60
1463,60
1464,60
1465,60
1466,60
1467,60
1468,60
1469,60
1470,60
1471,60
1472,60
1473,60
1474,60
1475,60
1476,60
1477,60
1478,60
1479,60
1480,60
1481,60
1482,60
1483,60
1484,61
1485,61
1486,61
1487,61
1488,61
1489,61
1490,61
1491,61
1492,61
1493,61
1494,61
1495,61
1496,61
1497,61
1498,61
1499,61
1500,62
1501,62
1502,62
1503,62
1504,62
1505,62
1506,62
1507,62
1508,62
1509,62
1510,62
1511,62
1512,62
1513,62
1514,62
1515,62
1516,62
1517,62
1518,62
1519,62
1520,62
1521,62
1522,62
1523,62
1524,62
1525,62
1526,62
1527,62
1528,62
1529,62
1530,62
1531,62
1532,62
1533,62
1534,62
1535,62
1536,62
1537,62
1538,62
1539,62
1540,62
1541,62
1542,62
1543,62
1544,62
1545,62
1546,62
1547,62
1548,62
1549,62
1550,62
1551,62
1552,62
1553,62
1554,62
1555,62
1556,62
1557,62
1558,62
1559,62
1560,62
1561,62
1562,62
1563,62
1564,62
1565,62
1566,62
1567,62
1568,62
1569,62
1570,62
1571,62
1572,62
1573,62
1574,62
1575,62
1576,62
1577,62
1578,62
1579,62
1580,63
1581,63
1582,64
1583,64
1584,64
1585,65
1586,66
1587,66
1588,66
1589,66
1590,66
1591,66
1592,66
1593,66
1594,66
1595,66
1596,66
1597,66
1598,66
1599,67
1600,67
1601,67
1602,67
1603,68
1604,68
1605,68
1606,68
1607,68
1608,68
1609,68
1610,68
1611,68
1612,68
1613,68
1614,68
1615,68
1616,68
1617,68
1618,68
1619,68
1620,68
1621,68
1622,68
1623,68
1624,68
1625,68
1626,68
1627,69
1628,69
1629,70
1630,70
1631,70
1632,70
1633,70
1634,70
1635,70
1636,70
1637,70
1638,70
1639,70
1640,70
1641,71
1642,71
1643,71
1644,71
1645,71
1646,71
1647,71
1648,71
1649,71
1650,71
1651,71
1652,71
1653,71
1654,71
1655,71
1656,71
1657,71
1658,71
1659,71
1660,71
1661,71
1662,71
1663,71
1664,71
1665,71
1666,71
1667,71
1668,71
1669,71
1670,71
1671,71
1672,71
1673,71
1674,71
1675,71
1676,71
1677,72
1678,72
1679,72
1680,72
1681,72
1682,73
1683,73
1684,73
1685,73
1686,73
1687,73
1688,73
1689,73
1690,73
1691,73
1692,73
1693,73
1694,73
1695,74
1696,74
1697,74
1698,74
1699,74
1700,75
1701,75
1702,75
1703,75
1704,75
1705,75
1706,75
1707,75
1708,75
1709,75
1710,75
1711,75
1712,75
1713,75
1714,75
1715,75
1716,75
1717,75
1718,75
1719,75
1720,75
1721,75
1722,75
1723,75
1724,75
1725,75
1726,75
1727,75
1728,75
1729,75
1730,75
1731,75
1732,75
1733,75
1734,75
1735,75
1736,75
1737,75
1738,75
1739,75
1740,75
1741,75
1742,76
1743,76
1744,76
1745,76
1746,76
1747,76
1748,76
1749,76
1750,76
1751,76
1752,76
1753,76
1754,76
1755,76
1756,77
1757,77
1758,77
1759,77
1760,77
1761,77
1762,77
1763,77
1764,77
1765,77
1766,77
1767,77
1768,77
1769,77
1770,77
1771,77
1772,77
1773,78
1774,78
1775,78
1776,78
1777,78
1778,78
1779,78
1780,78
1781,78
1782,78
1783,78
1784,78
1785,78
1786,78
1787,78
1788,78
1789,78
1790,78
1791,78
1792,78
1793,78
1794,78
1795,78
1796,78
1797,78
1798,78
1799,78
1800,78
1801,78
1802,78
1803,78
1804,78
1805,78
1806,78
1807,78
1808,78
1809,78
1810,78
1811,78
1812,78
1813,78
1814,78
1815,78
1816,78
1817,78
1818,78
1819,78
1820,78
1821,78
1822,78
1823,78
1824,78
1825,78
1826,78
1827,78
1828,78
1829,78
1830,78
1831,78
1832,78
1833,78
1834,78
1835,78
1836,78
1837,78
1838,78
1839,78
1840,78
1841,78
1842,78
1843,78
1844,78
1845,78
1846,78
1847,78
1848,78
1849,78
1850,78
1851,78
1852,78
1853,78
1854,78
1855,78
1856,78
1857,78
1858,78
1859,78
1860,78
1861,78
1862,78
1863,78
1864,78
1865,78
1866,78
1867,78
1868,79
1869,80
1870,80
1871,80
1872,80
1873,80
1874,80
1875,80
1876,80
1877,80
1878,80
1879,80
1880,80
1881,80
1882,80
1883,80
1884,80
1885,80
1886,80
1887,80
1888,80
1889,80
1890,80
1891,80
1892,80
1893,80
1894,80
1895,80
1896,80
1897,80
1898,80
1899,80
1900,80
1901,80
1902,80
1903,80
1904,80
1905,80
1906,80
1907,80
1908,80
1909,80
1910,80
1911,80
1912,81
1913,81
1914,81
1915,81
1916,81
1917,81
1918,81
1919,81
1920,81
1921,81
1922,81
1923,81
1924,81
1925,81
1926,81
1927,81
1928,81
1929,81
1930,81
1931,81
1932,81
1933,81
1934,81
1935,81
1936,81
1937,81
1938,81
1939,81
1940,81
1941,81
1942,81
1943,81
1944,81
1945,81
1946,81
1947,81
1948,81
1949,81
1950,82
1951,82
1952,82
1953,82
1954,82
1955,82
1956,82
1957,82
1958,82
1959,82
1960,82
1961,82
1962,82
1963,82
1964,82
1965,82
1966,82
1967,82
1968,82
1969,82
1970,82
1971,82
1972,82
1973,82
1974,82
1975,83
1976,83
1977,83
1978,83
1979,83
1980,83
1981,83
1982,83
1983,83
1984,83
1985,83
1986,83
1987,83
1988,83
1989,83
1990,83
1991,83
1992,83
1993,83
1994,83
1995,83
1996,83
1997,83
1998,83
1999,83
2000,83
