"tick","total"
0,0
1,0
2,0
3,0
4,0
5,0
6,0
7,0
8,0
9,0
10,0
11,0
12,0
13,0
14,0
15,0
16,0
17,0
18,0
19,0
20,0
21,0
22,0
23,0
24,0
25,0
26,0
27,0
28,0
29,0
30,0
31,0
32,0
33,0
34,0
35,0
36,0
37,0
38,0
39,0
40,0
41,0
42,0
43,0
44,0
45,0
46,0
47,0
48,0
49,0
50,0
51,0
52,0
53,0
54,0
55,0
56,0
57,0
58,0
59,0
60,0
61,0
62,0
63,0
64,0
65,0
66,0
67,0
68,0
69,0
70,0
71,0
72,0
73,0
74,0
75,0
76,0
77,0
78,0
79,0
80,0
81,0
82,0
83,0
84,0
85,0
86,0
87,0
88,0
89,0
90,0
91,0
92,0
93,0
94,0
95,0
96,0
97,0
98,0
99,0
100,0
101,0
102,0
103,0
104,0
105,0
106,0
107,0
108,0
109,0
110,0
111,0
112,0
113,0
114,0
115,0
116,0
117,0
118,0
119,0
120,0
121,0
122,0
123,0
124,0
125,0
126,0
127,0
128,0
129,0
130,0
131,0
132,0
133,0
134,0
135,0
136,0
137,0
138,0
139,0
140,0
141,0
142,0
143,0
144,0
145,0
146,0
147,0
148,0
149,0
150,0
151,0
152,0
153,0
154,0
155,0
156,0
157,0
158,0
159,0
160,0
161,0
162,0
163,0
164,0
165,0
166,0
167,0
168,0
169,0
170,0
171,0
172,0
173,0
174,0
175,0
176,0
177,0
178,0
179,0
180,0
181,0
182,0
183,0
184,0
185,0
186,0
187,0
188,0
189,0
190,0
191,0
192,1
193,1
194,1
195,1
196,1
197,1
198,1
199,1
200,1
201,1
202,1
203,1
204,1
205,1
206,1
207,1
208,1
209,1
210,1
211,1
212,1
213,1
214,1
215,1
216,1
217,1
218,1
219,1
220,1
221,1
222,1
223,1
224,1
225,1
226,1
227,1
228,1
229,1
230,1
231,1
232,1
233,1
234,1
235,1
236,1
237,1
238,1
239,1
240,1
241,1
242,1
243,1
244,1
245,1
246,1
247,1
248,1
249,1
250,1
251,1
252,1
253,1
254,1
255,1
256,1
257,1
258,1
259,1
260,1
261,1
262,1
263,1
264,1
265,2
266,2
267,2
268,2
269,2
270,2
271,3
272,3
273,3
274,3
275,3
276,3
277,3
278,3
279,3
280,3
281,3
282,3
283,3
284,3
285,3
286,3
287,3
288,3
289,3
290,4
291,4
292,4
293,4
294,4
295,4
296,4
297,6
298,6
299,6
300,6
301,6
302,6
303,6
304,6
305,6
306,6
307,6
308,6
309,6
310,6
311,7
312,7
313,7
314,7
315,8
316,8
317,8
318,8
319,8
320,8
321,9
322,9
323,9
324,9
325,10
326,10
327,10
328,10
329,10
330,10
331,10
332,10
333,10
334,10
335,10
336,10
337,10
338,10
339,10
340,10
341,10
342,10
343,10
344,10
345,10
346,10
347,11
348,11
349,11
350,11
351,11
352,11
353,11
354,11
355,12
356,12
357,12
358,12
359,12
360,12
361,12
362,12
363,12
364,12
365,12
366,12
367,12
368,12
369,12
370,12
371,12
372,12
373,12
374,12
375,12
376,12
377,12
378,12
379,12
380,12
381,12
382,13
383,13
384,13
385,13
386,13
387,13
388,13
389,13
390,13
391,13
392,13
393,13
394,13
395,13
396,14
397,14
398,14
399,14
400,14
401,14
402,14
403,14
404,14
405,14
406,14
407,14
408,15
409,15
410,15
411,15
412,15
413,15
414,15
415,15
416,15
417,15
418,15
419,15
420,15
421,16
422,16
423,16
424,16
425,16
426,16
427,16
428,16
429,16
430,16
431,17
432,17
433,17
434,18
435,18
436,18
437,18
438,18
439,18
440,18
441,19
442,20
443,20
444,21
445,21
446,21
447,21
448,21
449,21
450,22
451,22
452,22
453,22
454,22
455,22
456,22
457,22
458,23
459,23
460,23
461,23
462,24
463,24
464,24
465,24
466,24
467,24
468,24
469,24
470,24
471,24
472,24
473,24
474,24
475,24
476,24
477,25
478,25
479,25
480,25
481,25
482,25
483,25
484,25
485,25
486,26
487,26
488,26
489,26
490,26
491,26
492,26
493,26
494,26
495,26
496,26
497,26
498,26
499,26
500,26
501,26
502,26
503,26
504,26
505,26
506,26
507,26
508,26
509,26
510,26
511,26
512,26
513,26
514,27
515,27
516,27
517,27
518,27
519,27
520,27
521,27
522,27
523,27
524,27
525,27
526,27
527,27
528,27
529,27
530,27
531,27
532,27
533,27
534,27
535,27
536,27
537,27
538,27
539,27
540,27
541,27
542,27
543,28
544,28
545,28
546,28
547,28
548,28
549,28
550,28
551,28
552,28
553,28
554,28
555,28
556,28
557,28
558,28
559,28
560,28
561,28
562,28
563,29
564,29
565,29
566,29
567,29
568,29
569,29
570,29
571,29
572,29
573,29
574,29
575,29
576,30
577,30
578,30
579,30
580,30
581,30
582,30
583,30
584,30
585,30
586,30
587,30
588,30
589,30
590,30
591,30
592,30
593,30
594,30
595,30
596,30
597,30
598,30
599,30
600,30
601,30
602,30
603,30
604,30
605,30
606,30
607,30
608,30
609,30
610,30
611,30
612,30
613,30
614,30
615,30
616,30
617,30
618,30
619,30
620,30
621,30
622,30
623,30
624,30
625,30
626,30
627,30
628,30
629,30
630,30
631,30
632,30
633,30
634,30
635,30
636,30
637,30
638,30
639,30
640,30
641,30
642,30
643,30
644,30
645,30
646,30
647,30
648,30
649,30
650,30
651,30
652,30
653,30
654,30
655,30
656,30
657,30
658,30
659,30
660,30
661,30
662,30
663,30
664,30
665,30
666,30
667,30
668,30
669,30
670,30
671,30
672,30
673,30
674,30
675,30
676,30
677,30
678,30
679,30
680,30
681,30
682,30
683,30
684,30
685,30
686,30
687,30
688,30
689,30
690,30
691,30
692,30
693,30
694,30
695,30
696,30
697,30
698,30
699,30
700,30
701,30
702,30
703,30
704,30
705,30
706,30
707,30
708,30
709,30
710,30
711,30
712,30
713,30
714,30
715,30
716,30
717,31
718,31
719,31
720,32
721,32
722,32
723,33
724,33
725,33
726,33
727,33
728,33
729,33
730,33
731,33
732,33
733,33
734,33
735,33
736,33
737,33
738,33
739,33
740,33
741,33
742,33
743,33
744,33
745,33
746,33
747,33
748,33
749,33
750,33
751,33
752,33
753,33
754,33
755,33
756,33
757,33
758,33
759,33
760,33
761,33
762,33
763,33
764,33
765,33
766,33
767,33
768,33
769,33
770,33
771,33
772,33
773,33
774,33
775,34
776,34
777,34
778,34
779,34
780,34
781,34
782,34
783,34
784,34
785,34
786,34
787,34
788,34
789,35
790,35
791,35
792,35
793,35
794,35
795,35
796,35
797,35
798,35
799,35
800,35
801,35
802,35
803,35
804,35
805,35
806,35
807,35
808,35
809,35
810,35
811,35
812,35
813,35
814,35
815,35
816,35
817,35
818,35
819,35
820,36
821,36
822,36
823,36
824,36
825,36
826,36
827,36
828,36
829,36
830,36
831,36
832,36
833,36
834,36
835,36
836,36
837,36
838,36
839,36
840,36
841,36
842,36
843,36
844,36
845,36
846,36
847,37
848,37
849,37
850,37
851,37
852,37
853,37
854,37
855,37
856,37
857,37
858,38
859,38
860,38
861,38
862,38
863,38
864,38
865,38
866,38
867,38
868,38
869,38
870,38
871,38
872,38
873,38
874,38
875,38
876,38
877,38
878,39
879,39
880,39
881,39
882,39
883,39
884,39
885,39
886,39
887,39
888,40
889,40
890,40
891,40
892,40
893,40
894,40
895,40
896,40
897,40
898,40
899,40
900,40
901,40
902,40
903,40
904,40
905,40
906,40
907,40
908,40
909,40
910,40
911,40
912,40
913,40
914,40
915,40
916,40
917,40
918,40
919,40
920,40
921,40
922,40
923,40
924,40
925,40
926,40
927,40
928,40
929,41
930,41
931,41
932,41
933,41
934,41
935,41
936,41
937,41
938,41
939,41
940,41
941,41
942,41
943,41
944,41
945,41
946,41
947,41
948,41
949,41
950,41
951,41
952,41
953,41
954,41
955,41
956,41
957,41
958,41
959,41
960,41
961,41
962,41
963,41
964,41
965,41
966,41
967,41
968,41
969,41
970,41
971,41
972,41
973,41
974,41
975,41
976,41
977,41
978,41
979,41
980,41
981,41
982,41
983,41
984,41
985,41
986,41
987,41
988,41
989,41
990,41
991,41
992,41
993,41
994,41
995,41
996,41
997,41
998,42
999,42
1000,42
1001,42
1002,42
1003,42
1004,42
1005,42
1006,42
1007,42
1008,42
1009,42
1010,42
1011,42
1012,42
1013,42
1014,42
1015,42
1016,42
1017,42
1018,42
1019,42
1020,42
1021,42
1022,43
1023,43
1024,43
1025,43
1026,43
1027,43
1028,43
1029,43
1030,43
1031,43
1032,43
1033,43
1034,43
1035,43
1036,43
1037,43
1038,43
1039,43
1040,43
1041,44
1042,44
1043,44
1044,44
1045,44
1046,44
1047,44
1048,45
1049,45
1050,45
1051,45
1052,45
1053,45
1054,45
1055,45
1056,45
1057,45
1058,45
1059,45
1060,45
1061,46
1062,46
1063,46
1064,46
1065,46
1066,46
1067,46
1068,46
1069,46
1070,46
1071,46
1072,46
1073,46
1074,46
1075,46
1076,46
1077,46
1078,46
1079,46
1080,46
1081,46
1082,46
1083,46
1084,46
1085,46
1086,46
1087,46
1088,46
1089,46
1090,46
1091,46
1092,46
1093,46
1094,46
1095,46
1096,46
1097,46
1098,46
1099,46
1100,46
1101,46
1102,46
1103,46
1104,46
1105,46
1106,46
1107,47
1108,47
1109,47
1110,47
1111,47
1112,47
1113,47
1114,47
1115,47
1116,47
1117,47
1118,47
1119,47
1120,47
1121,47
1122,48
1123,48
1124,48
1125,48
1126,48
1127,48
1128,48
1129,48
1130,48
1131,48
1132,48
1133,48
1134,48
1135,48
1136,48
1137,48
1138,48
1139,48
1140,48
1141,48
1142,48
1143,48
1144,49
1145,50
1146,50
1147,50
1148,50
1149,50
1150,50
1151,50
1152,50
1153,50
1154,50
1155,50
1156,50
1157,50
1158,50
1159,50
1160,50
1161,50
1162,50
1163,50
1164,50
1165,50
1166,51
1167,51
1168,51
1169,51
1170,51
1171,51
1172,51
1173,51
1174,51
1175,51
1176,51
1177,51
1178,51
1179,51
1180,51
1181,51
1182,51
1183,52
1184,52
1185,52
1186,52
1187,52
1188,52
1189,52
1190,52
1191,53
1192,53
1193,53
1194,53
1195,54
1196,54
1197,54
1198,55
1199,55
1200,55
1201,55
1202,55
1203,55
1204,56
1205,57
1206,57
1207,57
1208,57
1209,57
1210,57
1211,57
1212,57
1213,57
1214,57
1215,57
1216,57
1217,57
1218,57
1219,57
1220,57
1221,57
1222,57
1223,57
1224,57
1225,57
1226,57
1227,57
1228,57
1229,57
1230,57
1231,57
1232,57
1233,57
1234,57
1235,57
1236,57
1237,57
1238,57
1239,57
1240,57
1241,57
1242,57
1243,57
1244,57
1245,57
1246,57
1247,57
1248,58
1249,58
1250,58
1251,58
1252,58
1253,58
1254,58
1255,58
1256,59
1257,59
1258,59
1259,59
1260,59
1261,59
1262,59
1263,59
1264,59
1265,59
1266,59
1267,59
1268,59
1269,59
1270,60
1271,60
1272,60
1273,60
1274,60
1275,60
1276,60
1277,60
1278,60
1279,60
1280,60
1281,60
1282,60
1283,60
1284,60
1285,60
1286,60
1287,60
1288,60
1289,60
1290,60
1291,60
1292,60
1293,60
1294,60
1295,60
1296,60
1297,60
1298,60
1299,60
1300,60
1301,60
1302,60
1303,60
1304,60
1305,60
1306,60
1307,60
1308,60
1309,60
1310,60
1311,60
1312,60
1313,60
1314,60
1315,60
1316,60
1317,60
1318,60
1319,60
1320,60
1321,60
1322,60
1323,60
1324,60
1325,60
1326,60
1327,60
1328,60
1329,60
1330,60
1331,60
1332,60
1333,60
1334,60
1335,60
1336,60
1337,60
1338,60
1339,60
1340,60
1341,60
1342,60
1343,60
1344,60
1345,60
1346,60
1347,60
1348,60
1349,60
1350,60
1351,60
1352,60
1353,60
1354,60
1355,60
1356,60
1357,60
1358,60
1359,60
1360,60
1361,60
1362,60
1363,60
1364,60
1365,60
1366,60
1367,60
1368,60
1369,60
1370,60
1371,60
1372,60
1373,60
1374,60
1375,60
1376,60
1377,60
1378,60
1379,60
1380,60
1381,60
1382,60
1383,60
1384,60
1385,60
1386,60
1387,60
1388,60
1389,60
1390,60
1391,60
1392,60
1393,60
1394,60
1395,60
1396,60
1397,60
1398,60
1399,60
1400,60
1401,60
1402,60
1403,60
1404,60
1405,60
1406,60
1407,60
1408,60
1409,60
1410,60
1411,60
1412,60
1413,60
1414,60
1415,60
1416,60
1417,60
1418,60
1419,60
1420,60
1421,60
1422,60
1423,61
1424,61
1425,61
1426,61
1427,61
1428,61
1429,61
1430,61
1431,61
1432,61
1433,61
1434,61
1435,61
1436,61
1437,61
1438,61
1439,61
1440,61
1441,61
1442,61
1443,61
1444,61
1445,61
1446,61
1447,61
1448,61
1449,61
1450,61
1451,61
1452,61
1453,61
1454,61
1455,61
1456,61
1457,61
1458,61
1459,61
1460,61
1461,61
1462,61
1463,61
1464,61
1465,61
1466,61
1467,61
1468,61
1469,61
1470,61
1471,61
1472,61
1473,61
1474,61
1475,61
1476,61
1477,61
1478,61
1479,61
1480,61
1481,61
1482,61
1483,61
1484,61
1485,61
1486,61
1487,61
1488,61
1489,61
1490,61
1491,61
1492,61
1493,61
1494,61
1495,61
1496,61
1497,61
1498,62
1499,62
1500,62
1501,62
1502,63
1503,63
1504,63
1505,63
1506,63
1507,63
1508,63
1509,63
1510,63
1511,63
1512,63
1513,63
1514,63
1515,63
1516,63
1517,63
1518,63
1519,63
1520,63
1521,63
1522,64
1523,64
1524,64
1525,64
1526,64
1527,64
1528,64
1529,64
1530,64
1531,64
1532,64
1533,64
1534,64
1535,64
1536,64
1537,64
1538,64
1539,64
1540,64
1541,64
1542,64
1543,64
1544,64
1545,64
1546,64
1547,64
1548,64
1549,64
1550,64
1551,64
1552,64
1553,64
1554,64
1555,64
1556,64
1557,64
1558,64
1559,65
1560,65
1561,65
1562,65
1563,65
1564,65
1565,65
1566,65
1567,65
1568,65
1569,65
1570,65
1571,65
1572,65
1573,65
1574,65
1575,65
1576,65
1577,65
1578,65
1579,65
1580,65
1581,65
1582,65
1583,65
1584,65
1585,65
1586,65
1587,65
1588,65
1589,65
1590,65
1591,65
1592,65
1593,65
1594,65
1595,65
1596,65
1597,65
1598,65
1599,65
1600,65
1601,65
1602,66
1603,66
1604,66
1605,66
1606,66
1607,66
1608,66
1609,66
1610,66
1611,66
1612,66
1613,66
1614,67
1615,67
1616,67
1617,67
1618,68
1619,69
1620,69
1621,70
1622,70
1623,70
1624,70
1625,70
1626,70
1627,71
1628,71
1629,71
1630,71
1631,71
1632,71
1633,71
1634,72
1635,72
1636,73
1637,73
1638,73
1639,73
1640,73
1641,73
1642,73
1643,73
1644,73
1645,73
1646,73
1647,73
1648,73
1649,73
1650,73
1651,73
1652,73
1653,73
1654,73
1655,73
1656,73
1657,74
1658,74
1659,74
1660,74
1661,74
1662,74
1663,74
1664,74
1665,74
1666,74
1667,74
1668,75
1669,75
1670,75
1671,75
1672,75
1673,75
1674,75
1675,75
1676,75
1677,76
1678,77
1679,77
1680,77
1681,77
1682,77
1683,77
1684,77
1685,77
1686,77
1687,77
1688,77
1689,77
1690,77
1691,77
1692,77
1693,77
1694,77
1695,77
1696,77
1697,77
1698,77
1699,77
1700,77
1701,77
1702,77
1703,78
1704,78
1705,79
1706,79
1707,79
1708,79
1709,79
1710,79
1711,79
1712,80
1713,80
1714,80
1715,80
1716,80
1717,80
1718,80
1719,80
1720,80
1721,81
1722,81
1723,81
1724,81
1725,81
1726,81
1727,82
1728,82
1729,82
1730,82
1731,82
1732,82
1733,82
1734,82
1735,82
1736,82
1737,82
1738,82
1739,82
1740,82
1741,82
1742,82
1743,82
1744,82
1745,82
1746,82
1747,82
1748,82
1749,82
1750,82
1751,82
1752,82
1753,82
1754,82
1755,82
1756,82
1757,83
1758,83
1759,83
1760,83
1761,83
1762,83
1763,83
1764,84
1765,84
1766,84
1767,84
1768,84
1769,84
1770,84
1771,84
1772,84
1773,84
1774,84
1775,85
1776,85
1777,85
1778,85
1779,85
1780,85
1781,85
1782,85
1783,85
1784,85
1785,85
1786,85
1787,85
1788,85
1789,85
1790,85
1791,85
1792,85
1793,85
1794,85
1795,85
1796,85
1797,85
1798,85
1799,85
1800,85
1801,85
1802,85
1803,86
1804,86
1805,86
1806,86
1807,86
1808,86
1809,86
1810,86
1811,86
1812,86
1813,86
1814,86
1815,86
1816,87
1817,87
1818,87
1819,87
1820,87
1821,87
1822,87
1823,87
1824,87
1825,87
1826,87
1827,87
1828,87
1829,87
1830,87
1831,87
1832,87
1833,87
1834,87
1835,87
1836,87
1837,87
1838,87
1839,87
1840,87
1841,87
1842,87
1843,87
1844,87
1845,87
1846,87
1847,87
1848,87
1849,87
1850,87
1851,88
1852,88
1853,88
1854,88
1855,88
1856,88
1857,88
1858,88
1859,88
1860,88
1861,88
1862,88
1863,88
1864,88
1865,88
1866,88
1867,88
1868,88
1869,88
1870,88
1871,88
1872,88
1873,88
1874,88
1875,88
1876,88
1877,88
1878,88
1879,88
1880,88
1881,88
1882,88
1883,88
1884,89
1885,89
1886,89
1887,89
1888,89
1889,89
1890,89
1891,89
1892,89
1893,89
1894,89
1895,89
1896,89
1897,89
1898,89
1899,89
1900,89
1901,89
1902,89
1903,89
1904,89
1905,89
1906,89
1907,89
1908,89
1909,89
1910,89
1911,89
1912,89
1913,90
1914,90
1915,90
1916,90
1917,90
1918,90
1919,90
1920,90
1921,90
1922,91
1923,91
1924,91
1925,91
1926,91
1927,91
1928,91
1929,91
1930,91
1931,91
1932,91
1933,91
1934,91
1935,91
1936,91
1937,91
1938,91
1939,91
1940,91
1941,91
1942,91
1943,91
1944,91
1945,91
1946,91
1947,91
1948,91
1949,91
1950,91
1951,91
1952,91
1953,91
1954,91
1955,91
1956,91
1957,91
1958,91
1959,91
1960,91
1961,91
1962,91
1963,91
1964,91
1965,91
1966,91
1967,91
1968,91
1969,92
1970,92
1971,92
1972,92
1973,92
1974,92
1975,92
1976,92
1977,92
1978,92
1979,92
1980,92
1981,92
1982,92
1983,92
1984,92
1985,92
1986,92
1987,92
1988,93
1989,93
1990,93
1991,93
1992,93
1993,93
1994,93
1995,93
1996,93
1997,93
1998,93
1999,93
2000,93
