"tick","total"
0,0
1,0
2,0
3,0
4,0
5,0
6,0
7,0
8,0
9,0
10,0
11,0
12,0
13,0
14,0
15,0
16,0
17,0
18,0
19,0
20,0
21,0
22,0
23,0
24,0
25,0
26,0
27,0
28,0
29,0
30,0
31,0
32,0
33,0
34,0
35,0
36,0
37,0
38,0
39,0
40,0
41,0
42,0
43,0
44,0
45,0
46,0
47,0
48,0
49,0
50,0
51,0
52,0
53,0
54,0
55,0
56,0
57,0
58,0
59,0
60,0
61,0
62,0
63,0
64,0
65,0
66,0
67,0
68,0
69,0
70,0
71,0
72,0
73,0
74,0
75,0
76,0
77,0
78,0
79,0
80,0
81,0
82,0
83,0
84,0
85,0
86,0
87,0
88,0
89,0
90,0
91,0
92,0
93,0
94,0
95,0
96,0
97,0
98,0
99,0
100,0
101,0
102,0
103,0
104,0
105,0
106,0
107,0
108,0
109,0
110,0
111,0
112,0
113,0
114,0
115,0
116,0
117,0
118,0
119,0
120,0
121,0
122,0
123,0
124,0
125,0
126,0
127,0
128,0
129,0
130,0
131,0
132,0
133,0
134,0
135,0
136,0
137,0
138,0
139,0
140,0
141,0
142,0
143,0
144,0
145,0
146,0
147,0
148,0
149,0
150,0
151,0
152,0
153,0
154,0
155,0
156,0
157,0
158,0
159,0
160,0
161,0
162,0
163,0
164,0
165,0
166,0
167,0
168,0
169,0
170,0
171,0
172,0
173,0
174,0
175,0
176,0
177,0
178,0
179,0
180,0
181,0
182,0
183,0
184,0
185,0
186,0
187,0
188,0
189,0
190,0
191,0
192,0
193,0
194,0
195,0
196,0
197,0
198,0
199,0
200,0
201,0
202,0
203,0
204,0
205,0
206,0
207,0
208,0
209,0
210,0
211,0
212,0
213,0
214,0
215,0
216,0
217,0
218,0
219,0
220,0
221,0
222,0
223,0
224,0
225,0
226,0
227,0
228,0
229,0
230,0
231,0
232,0
233,0
234,0
235,0
236,0
237,1
238,1
239,1
240,1
241,1
242,1
243,1
244,1
245,1
246,1
247,1
248,1
249,2
250,2
251,3
252,3
253,3
254,3
255,3
256,3
257,4
258,4
259,4
260,4
261,4
262,4
263,4
264,5
265,5
266,5
267,5
268,5
269,5
270,5
271,5
272,6
273,6
274,6
275,6
276,7
277,7
278,7
279,7
280,7
281,7
282,7
283,7
284,7
285,7
286,7
287,7
288,7
289,7
290,8
291,8
292,8
293,8
294,8
295,9
296,9
297,10
298,10
299,11
300,11
301,11
302,11
303,11
304,11
305,11
306,11
307,11
308,11
309,11
310,11
311,11
312,11
313,11
314,12
315,12
316,12
317,13
318,13
319,13
320,13
321,13
322,13
323,13
324,13
325,13
326,13
327,13
328,13
329,13
330,13
331,13
332,13
333,13
334,13
335,13
336,14
337,14
338,14
339,15
340,16
341,16
342,16
343,16
344,16
345,16
346,16
347,16
348,16
349,16
350,16
351,16
352,16
353,16
354,16
355,16
356,16
357,16
358,16
359,16
360,16
361,16
362,16
363,16
364,17
365,17
366,17
367,18
368,18
369,18
370,18
371,19
372,19
373,19
374,19
375,19
376,19
377,19
378,19
379,22
380,22
381,22
382,22
383,22
384,22
385,23
386,23
387,24
388,24
389,24
390,24
391,24
392,24
393,25
394,25
395,25
396,25
397,25
398,25
399,25
400,25
401,25
402,25
403,25
404,25
405,25
406,26
407,26
408,26
409,26
410,26
411,26
412,26
413,26
414,26
415,26
416,26
417,26
418,26
419,26
420,27
421,27
422,27
423,27
424,27
425,27
426,27
427,27
428,27
429,27
430,27
431,27
432,27
433,27
434,27
435,27
436,27
437,27
438,27
439,27
440,27
441,27
442,27
443,27
444,27
445,27
446,27
447,27
448,27
449,27
450,27
451,27
452,27
453,27
454,27
455,27
456,27
457,27
458,27
459,27
460,27
461,27
462,27
463,27
464,27
465,27
466,28
467,28
468,28
469,28
470,28
471,28
472,28
473,28
474,28
475,28
476,28
477,28
478,28
479,28
480,28
481,28
482,28
483,28
484,28
485,28
486,28
487,28
488,28
489,28
490,28
491,29
492,29
493,29
494,29
495,29
496,29
497,29
498,30
499,30
500,30
501,30
502,30
503,30
504,30
505,30
506,30
507,30
508,30
509,30
510,30
511,30
512,31
513,31
514,32
515,32
516,32
517,33
518,33
519,33
520,33
521,33
522,33
523,33
524,33
525,33
526,33
527,33
528,33
529,33
530,33
531,33
532,34
533,34
534,35
535,35
536,35
537,35
538,35
539,35
540,35
541,35
542,35
543,35
544,35
545,35
546,35
547,36
548,36
549,36
550,36
551,36
552,36
553,36
554,36
555,36
556,36
557,36
558,36
559,36
560,36
561,36
562,36
563,36
564,36
565,36
566,36
567,36
568,36
569,36
570,36
571,36
572,36
573,37
574,37
575,37
576,37
577,37
578,37
579,37
580,37
581,37
582,37
583,37
584,37
585,37
586,37
587,37
588,37
589,37
590,37
591,38
592,38
593,39
594,39
595,39
596,39
597,39
598,39
599,39
600,39
601,39
602,39
603,39
604,39
605,39
606,39
607,39
608,39
609,39
610,39
611,39
612,39
613,39
614,39
615,39
616,39
617,39
618,39
619,39
620,39
621,39
622,39
623,39
624,39
625,39
626,39
627,39
628,39
629,39
630,39
631,39
632,39
633,39
634,39
635,39
636,39
637,39
638,39
639,39
640,39
641,39
642,39
643,39
644,39
645,39
646,39
647,40
648,40
649,40
650,40
651,40
652,40
653,40
654,40
655,40
656,40
657,40
658,40
659,40
660,40
661,40
662,40
663,40
664,40
665,40
666,40
667,40
668,40
669,40
670,40
671,40
672,40
673,40
674,40
675,40
676,41
677,41
678,41
679,41
680,41
681,41
682,41
683,41
684,41
685,41
686,41
687,41
688,41
689,41
690,41
691,41
692,41
693,41
694,41
695,41
696,41
697,41
698,41
699,41
700,41
701,41
702,41
703,41
704,41
705,41
706,41
707,41
708,41
709,41
710,41
711,41
712,41
713,41
714,41
715,41
716,41
717,41
718,41
719,41
720,42
721,42
722,42
723,42
724,42
725,42
726,42
727,42
728,42
729,42
730,42
731,42
732,42
733,42
734,42
735,42
736,42
737,42
738,42
739,42
740,42
741,42
742,43
743,43
744,43
745,43
746,43
747,43
748,43
749,43
750,43
751,43
752,43
753,43
754,43
755,43
756,43
757,43
758,43
759,43
760,43
761,43
762,43
763,43
764,43
765,43
766,43
767,43
768,43
769,43
770,43
771,43
772,43
773,43
774,44
775,44
776,44
777,44
778,44
779,44
780,44
781,44
782,44
783,44
784,44
785,44
786,44
787,44
788,44
789,44
790,44
791,44
792,44
793,44
794,44
795,44
796,44
797,44
798,44
799,44
800,44
801,44
802,44
803,44
804,44
805,44
806,44
807,44
808,44
809,44
810,44
811,44
812,44
813,44
814,44
815,44
816,44
817,44
818,44
819,44
820,44
821,44
822,44
823,44
824,44
825,44
826,44
827,44
828,44
829,44
830,44
831,44
832,44
833,44
834,44
835,44
836,44
837,44
838,44
839,44
840,44
841,45
842,45
843,45
844,45
845,45
846,45
847,45
848,45
849,45
850,45
851,45
852,45
853,45
854,45
855,45
856,45
857,45
858,45
859,45
860,45
861,45
862,45
863,45
864,45
865,45
866,45
867,45
868,45
869,45
870,45
871,45
872,45
873,45
874,45
875,45
876,45
877,45
878,45
879,45
880,45
881,45
882,45
883,45
884,45
885,45
886,45
887,45
888,45
889,45
890,45
891,45
892,45
893,45
894,45
895,45
896,45
897,45
898,45
899,45
900,45
901,45
902,45
903,45
904,46
905,46
906,46
907,46
908,46
909,47
910,47
911,47
912,47
913,48
914,48
915,48
916,48
917,48
918,48
919,48
920,48
921,48
922,48
923,48
924,48
925,48
926,48
927,48
928,48
929,48
930,48
931,48
932,48
933,48
934,48
935,48
936,48
937,48
938,48
939,49
940,49
941,49
942,49
943,49
944,49
945,49
946,49
947,49
948,51
949,51
950,51
951,51
952,51
953,51
954,51
955,51
956,51
957,51
958,51
959,51
960,51
961,51
962,51
963,51
964,51
965,51
966,51
967,51
968,51
969,51
970,51
971,51
972,51
973,51
974,51
975,52
976,52
977,52
978,52
979,52
980,52
981,52
982,52
983,52
984,53
985,53
986,53
987,53
988,53
989,53
990,53
991,53
992,53
993,53
994,53
995,54
996,55
997,55
998,55
999,55
1000,55
1001,56
1002,56
1003,56
1004,56
1005,56
1006,56
1007,56
1008,56
1009,56
1010,56
1011,56
1012,56
1013,56
1014,56
1015,56
1016,56
1017,56
1018,57
1019,57
1020,57
1021,57
1022,57
1023,57
1024,57
1025,57
1026,57
1027,57
1028,57
1029,57
1030,57
1031,57
1032,57
1033,57
1034,57
1035,58
1036,58
1037,58
1038,58
1039,58
1040,58
1041,58
1042,58
1043,58
1044,58
1045,58
1046,58
1047,58
1048,58
1049,58
1050,58
1051,58
1052,58
1053,58
1054,58
1055,58
1056,58
1057,58
1058,58
1059,58
1060,58
1061,58
1062,58
1063,58
1064,58
1065,58
1066,58
1067,58
1068,58
1069,58
1070,59
1071,59
1072,59
1073,59
1074,59
1075,60
1076,60
1077,60
1078,60
1079,60
1080,60
1081,60
1082,60
1083,60
1084,60
1085,60
1086,60
1087,60
1088,60
1089,60
1090,60
1091,60
1092,60
1093,60
1094,60
1095,60
1096,60
1097,60
1098,60
1099,60
1100,60
1101,61
1102,61
1103,61
1104,61
1105,61
1106,61
1107,61
1108,61
1109,61
1110,61
1111,61
1112,61
1113,61
1114,61
1115,61
1116,61
1117,61
1118,61
1119,61
1120,61
1121,61
1122,61
1123,61
1124,61
1125,61
1126,61
1127,61
1128,61
1129,61
1130,61
1131,61
1132,61
1133,61
1134,61
1135,61
1136,62
1137,62
1138,62
1139,62
1140,62
1141,62
1142,62
1143,62
1144,62
1145,62
1146,62
1147,62
1148,62
1149,62
1150,63
1151,63
1152,63
1153,63
1154,63
1155,63
1156,63
1157,63
1158,63
1159,63
1160,63
1161,63
1162,63
1163,63
1164,63
1165,63
1166,63
1167,63
1168,63
1169,63
1170,63
1171,63
1172,63
1173,63
1174,63
1175,63
1176,63
1177,63
1178,63
1179,63
1180,63
1181,63
1182,64
1183,64
1184,64
1185,64
1186,64
1187,64
1188,64
1189,64
1190,64
1191,64
1192,64
1193,64
1194,64
1195,65
1196,65
1197,65
1198,65
1199,65
1200,65
1201,65
1202,65
1203,65
1204,65
1205,65
1206,65
1207,65
1208,65
1209,65
1210,65
1211,65
1212,65
1213,65
1214,65
1215,65
1216,65
1217,65
1218,65
1219,65
1220,65
1221,65
1222,65
1223,65
1224,65
1225,65
1226,65
1227,65
1228,65
1229,65
1230,65
1231,65
1232,65
1233,65
1234,65
1235,65
1236,65
1237,65
1238,65
1239,65
1240,65
1241,65
1242,65
1243,65
1244,65
1245,65
1246,66
1247,66
1248,66
1249,66
1250,66
1251,66
1252,66
1253,66
1254,66
1255,66
1256,66
1257,66
1258,66
1259,66
1260,66
1261,66
1262,66
1263,66
1264,66
1265,66
1266,66
1267,66
1268,66
1269,66
1270,66
1271,66
1272,66
1273,66
1274,66
1275,66
1276,66
1277,66
1278,66
1279,66
1280,66
1281,66
1282,66
1283,66
1284,66
1285,67
1286,67
1287,67
1288,67
1289,67
1290,67
1291,67
1292,67
1293,67
1294,68
1295,69
1296,69
1297,69
1298,69
1299,69
1300,69
1301,69
1302,69
1303,69
1304,69
1305,69
1306,69
1307,69
1308,69
1309,69
1310,69
1311,69
1312,69
1313,69
1314,69
1315,69
1316,69
1317,69
1318,69
1319,69
1320,69
1321,69
1322,69
1323,69
1324,69
1325,69
1326,70
1327,70
1328,70
1329,70
1330,70
1331,70
1332,70
1333,70
1334,70
1335,70
1336,70
1337,70
1338,70
1339,70
1340,70
1341,70
1342,70
1343,70
1344,70
1345,70
1346,70
1347,70
1348,70
1349,70
1350,70
1351,70
1352,70
1353,70
1354,70
1355,70
1356,70
1357,70
1358,70
1359,70
1360,70
1361,70
1362,70
1363,70
1364,70
1365,70
1366,70
1367,70
1368,70
1369,70
1370,70
1371,70
1372,70
1373,70
1374,70
1375,70
1376,70
1377,70
1378,70
1379,70
1380,70
1381,70
1382,70
1383,70
1384,70
1385,70
1386,70
1387,70
1388,70
1389,70
1390,70
1391,70
1392,70
1393,70
1394,70
1395,70
1396,70
1397,70
1398,70
1399,70
1400,70
1401,70
1402,70
1403,70
1404,70
1405,70
1406,70
1407,70
1408,70
1409,70
1410,70
1411,70
1412,70
1413,70
1414,70
1415,70
1416,70
1417,70
1418,70
1419,70
1420,70
1421,70
1422,70
1423,70
1424,70
1425,70
1426,70
1427,70
1428,70
1429,70
1430,70
1431,70
1432,70
1433,70
1434,70
1435,70
1436,70
1437,70
1438,70
1439,70
1440,70
1441,70
1442,70
1443,70
1444,70
1445,70
1446,70
1447,70
1448,70
1449,70
1450,70
1451,70
1452,70
1453,70
1454,70
1455,70
1456,70
1457,70
1458,70
1459,70
1460,70
1461,70
1462,70
1463,70
1464,70
1465,70
1466,70
1467,70
1468,70
1469,70
1470,70
1471,70
1472,70
1473,70
1474,70
1475,70
1476,70
1477,70
1478,70
1479,70
1480,70
1481,70
1482,70
1483,70
1484,70
1485,70
1486,70
1487,70
1488,70
1489,70
1490,70
1491,70
1492,70
1493,70
1494,70
1495,70
1496,70
1497,70
1498,70
1499,70
1500,70
1501,70
1502,70
1503,70
1504,70
1505,71
1506,71
1507,71
1508,71
1509,71
1510,71
1511,71
1512,71
1513,71
1514,71
1515,71
1516,71
1517,71
1518,71
1519,71
1520,71
1521,71
1522,71
1523,71
1524,71
1525,71
1526,71
1527,71
1528,71
1529,71
1530,71
1531,71
1532,71
1533,71
1534,71
1535,71
1536,71
1537,71
1538,71
1539,71
1540,71
1541,71
1542,71
1543,71
1544,71
1545,71
1546,71
1547,71
1548,71
1549,71
1550,71
1551,71
1552,71
1553,71
1554,71
1555,71
1556,71
1557,71
1558,71
1559,71
1560,71
1561,71
1562,71
1563,71
1564,71
1565,71
1566,71
1567,71
1568,71
1569,71
1570,71
1571,71
1572,71
1573,71
1574,72
1575,72
1576,72
1577,72
1578,72
1579,72
1580,73
1581,73
1582,73
1583,73
1584,73
1585,73
1586,73
1587,73
1588,73
1589,73
1590,73
1591,73
1592,74
1593,74
1594,74
1595,74
1596,74
1597,74
1598,75
1599,75
1600,75
1601,75
1602,75
1603,76
1604,76
1605,77
1606,77
1607,77
1608,77
1609,77
1610,78
1611,78
1612,78
1613,78
1614,78
1615,78
1616,79
1617,79
1618,79
1619,79
1620,79
1621,79
1622,79
1623,79
1624,79
1625,79
1626,79
1627,79
1628,79
1629,79
1630,80
1631,80
1632,80
1633,80
1634,80
1635,80
1636,81
1637,81
1638,81
1639,81
1640,81
1641,81
1642,82
1643,82
1644,82
1645,82
1646,82
1647,82
1648,82
1649,82
1650,82
1651,82
1652,82
1653,82
1654,82
1655,82
1656,83
1657,83
1658,83
1659,83
1660,83
1661,83
1662,83
1663,83
1664,83
1665,83
1666,83
1667,83
1668,83
1669,83
1670,83
1671,83
1672,83
1673,84
1674,84
1675,84
1676,84
1677,84
1678,84
1679,84
1680,84
1681,84
1682,84
1683,84
1684,84
1685,84
1686,84
1687,84
1688,84
1689,84
1690,84
1691,84
1692,84
1693,84
1694,84
1695,84
1696,84
1697,84
1698,84
1699,84
1700,84
1701,84
1702,84
1703,84
1704,84
1705,84
1706,84
1707,84
1708,84
1709,85
1710,85
1711,86
1712,86
1713,86
1714,87
1715,87
1716,87
1717,88
1718,88
1719,88
1720,88
1721,88
1722,88
1723,88
1724,89
1725,89
1726,89
1727,89
1728,89
1729,89
1730,89
1731,89
1732,89
1733,89
1734,89
1735,89
1736,89
1737,89
1738,89
1739,89
1740,89
1741,89
1742,89
1743,89
1744,89
1745,89
1746,90
1747,90
1748,90
1749,90
1750,90
1751,90
1752,90
1753,90
1754,90
1755,90
1756,90
1757,90
1758,90
1759,90
1760,90
1761,90
1762,90
1763,90
1764,90
1765,90
1766,90
1767,90
1768,90
1769,91
1770,91
1771,91
1772,91
1773,91
1774,91
1775,91
1776,91
1777,91
1778,91
1779,91
1780,91
1781,91
1782,91
1783,91
1784,91
1785,91
1786,91
1787,91
1788,91
1789,91
1790,91
1791,91
1792,91
1793,91
1794,91
1795,91
1796,91
1797,91
1798,91
1799,91
1800,91
1801,91
1802,91
1803,91
1804,91
1805,91
1806,91
1807,92
1808,92
1809,93
1810,93
1811,93
1812,93
1813,93
1814,93
1815,93
1816,93
1817,93
1818,93
1819,93
1820,93
1821,94
1822,94
1823,94
1824,94
1825,94
1826,94
1827,94
1828,94
1829,94
1830,94
1831,94
1832,94
1833,94
1834,94
1835,94
1836,94
1837,94
1838,94
1839,94
1840,94
1841,94
1842,94
1843,94
1844,94
1845,94
1846,94
1847,95
1848,95
1849,95
1850,95
1851,95
1852,95
1853,95
1854,95
1855,95
1856,95
1857,95
1858,95
1859,95
1860,95
1861,95
1862,95
1863,95
1864,95
1865,95
1866,95
1867,96
1868,96
1869,96
1870,96
1871,96
1872,96
1873,96
1874,96
1875,96
1876,96
1877,96
1878,96
1879,96
1880,96
1881,96
1882,96
1883,96
1884,96
1885,96
1886,96
1887,96
1888,96
1889,96
1890,96
1891,96
1892,96
1893,96
1894,96
1895,96
1896,96
1897,96
1898,96
1899,96
1900,96
1901,96
1902,96
1903,97
1904,97
1905,97
1906,98
1907,98
1908,98
1909,98
1910,98
1911,98
1912,98
1913,98
1914,98
1915,98
1916,98
1917,98
1918,98
1919,98
1920,98
1921,98
1922,98
1923,98
1924,98
1925,98
1926,98
1927,98
1928,99
1929,99
1930,99
1931,99
1932,99
1933,99
1934,99
1935,99
1936,99
1937,99
1938,99
1939,99
1940,99
1941,99
1942,99
1943,99
1944,99
1945,99
1946,99
1947,99
1948,100
1949,100
1950,100
1951,100
1952,100
1953,100
1954,100
1955,100
1956,100
1957,100
1958,100
1959,100
1960,100
1961,100
1962,100
1963,100
1964,100
1965,100
1966,100
1967,100
1968,100
1969,100
1970,100
1971,100
1972,100
1973,100
1974,100
1975,100
1976,100
1977,100
1978,100
1979,100
1980,100
1981,100
1982,100
1983,100
1984,100
1985,100
1986,100
1987,100
1988,100
1989,100
1990,100
1991,100
1992,100
1993,100
1994,100
1995,100
1996,100
1997,100
1998,100
1999,100
2000,100
