"tick","total"
0,0
1,0
2,0
3,0
4,0
5,0
6,0
7,0
8,0
9,0
10,0
11,0
12,0
13,0
14,0
15,0
16,0
17,0
18,0
19,0
20,0
21,0
22,0
23,0
24,0
25,0
26,0
27,0
28,0
29,0
30,0
31,0
32,0
33,0
34,0
35,0
36,0
37,0
38,0
39,0
40,0
41,0
42,0
43,0
44,0
45,0
46,0
47,0
48,0
49,0
50,0
51,0
52,0
53,0
54,0
55,0
56,0
57,0
58,0
59,0
60,0
61,0
62,0
63,0
64,0
65,0
66,0
67,0
68,0
69,0
70,0
71,0
72,0
73,0
74,0
75,0
76,0
77,0
78,0
79,0
80,0
81,0
82,0
83,0
84,0
85,0
86,0
87,0
88,0
89,0
90,0
91,0
92,0
93,0
94,0
95,0
96,0
97,0
98,0
99,0
100,0
101,0
102,0
103,0
104,0
105,0
106,0
107,0
108,0
109,0
110,0
111,0
112,0
113,0
114,0
115,0
116,0
117,0
118,0
119,0
120,0
121,0
122,0
123,0
124,0
125,0
126,0
127,0
128,0
129,0
130,0
131,0
132,0
133,0
134,0
135,0
136,0
137,0
138,0
139,0
140,0
141,0
142,0
143,0
144,0
145,0
146,0
147,0
148,0
149,0
150,0
151,0
152,0
153,0
154,0
155,0
156,0
157,0
158,0
159,0
160,0
161,0
162,0
163,0
164,0
165,0
166,0
167,0
168,0
169,0
170,0
171,0
172,0
173,0
174,0
175,0
176,0
177,0
178,0
179,0
180,0
181,0
182,0
183,0
184,0
185,0
186,0
187,0
188,0
189,0
190,0
191,0
192,0
193,0
194,0
195,0
196,0
197,0
198,0
199,0
200,0
201,0
202,0
203,0
204,0
205,0
206,0
207,0
208,0
209,0
210,0
211,0
212,0
213,0
214,0
215,0
216,0
217,0
218,0
219,0
220,0
221,1
222,1
223,1
224,1
225,1
226,1
227,1
228,1
229,1
230,2
231,2
232,2
233,2
234,2
235,2
236,2
237,3
238,3
239,3
240,4
241,4
242,4
243,4
244,4
245,4
246,4
247,4
248,4
249,4
250,4
251,4
252,4
253,4
254,4
255,4
256,4
257,4
258,5
259,6
260,7
261,7
262,7
263,8
264,8
265,8
266,8
267,8
268,8
269,8
270,8
271,8
272,8
273,9
274,9
275,9
276,9
277,9
278,9
279,9
280,10
281,10
282,11
283,11
284,11
285,11
286,11
287,11
288,12
289,12
290,12
291,12
292,12
293,12
294,12
295,12
296,12
297,12
298,12
299,12
300,12
301,12
302,12
303,12
304,12
305,13
306,13
307,13
308,13
309,15
310,15
311,15
312,15
313,15
314,15
315,15
316,15
317,15
318,15
319,15
320,15
321,15
322,15
323,15
324,15
325,15
326,15
327,15
328,15
329,16
330,17
331,17
332,17
333,17
334,17
335,17
336,17
337,17
338,17
339,17
340,17
341,17
342,17
343,17
344,17
345,17
346,17
347,17
348,17
349,17
350,17
351,17
352,17
353,17
354,17
355,17
356,18
357,18
358,18
359,18
360,18
361,18
362,19
363,19
364,19
365,20
366,20
367,20
368,20
369,20
370,20
371,20
372,20
373,20
374,20
375,20
376,20
377,20
378,20
379,20
380,20
381,20
382,20
383,20
384,20
385,20
386,21
387,21
388,21
389,21
390,21
391,23
392,23
393,23
394,24
395,24
396,24
397,24
398,24
399,24
400,24
401,24
402,24
403,24
404,24
405,24
406,24
407,24
408,24
409,24
410,24
411,24
412,24
413,24
414,24
415,24
416,24
417,24
418,24
419,24
420,24
421,24
422,24
423,24
424,24
425,24
426,24
427,24
428,24
429,24
430,24
431,24
432,25
433,25
434,25
435,25
436,25
437,25
438,25
439,25
440,25
441,25
442,25
443,25
444,25
445,25
446,25
447,25
448,26
449,26
450,26
451,26
452,26
453,26
454,26
455,26
456,26
457,26
458,26
459,26
460,26
461,26
462,26
463,26
464,27
465,27
466,27
467,27
468,27
469,27
470,27
471,27
472,27
473,27
474,27
475,27
476,27
477,27
478,27
479,27
480,27
481,27
482,28
483,28
484,28
485,28
486,28
487,28
488,28
489,28
490,28
491,28
492,28
493,28
494,28
495,28
496,29
497,29
498,29
499,29
500,29
501,29
502,29
503,29
504,29
505,29
506,29
507,29
508,29
509,29
510,29
511,29
512,29
513,29
514,30
515,30
516,30
517,30
518,30
519,31
520,31
521,31
522,31
523,31
524,31
525,31
526,31
527,31
528,31
529,31
530,31
531,31
532,31
533,31
534,31
535,31
536,31
537,31
538,31
539,31
540,31
541,31
542,31
543,31
544,31
545,31
546,31
547,31
548,31
549,31
550,31
551,31
552,31
553,31
554,31
555,31
556,31
557,32
558,32
559,32
560,32
561,32
562,32
563,32
564,32
565,32
566,32
567,32
568,32
569,32
570,32
571,32
572,32
573,32
574,32
575,32
576,32
577,32
578,32
579,32
580,32
581,32
582,32
583,32
584,32
585,32
586,32
587,32
588,32
589,32
590,33
591,33
592,33
593,33
594,33
595,33
596,33
597,33
598,33
599,33
600,34
601,34
602,34
603,34
604,34
605,35
606,35
607,35
608,35
609,35
610,35
611,36
612,36
613,36
614,36
615,36
616,36
617,36
618,36
619,36
620,36
621,36
622,36
623,36
624,36
625,37
626,37
627,37
628,37
629,37
630,37
631,37
632,38
633,38
634,38
635,38
636,38
637,38
638,38
639,38
640,38
641,39
642,39
643,39
644,39
645,39
646,39
647,39
648,39
649,39
650,39
651,39
652,39
653,39
654,40
655,40
656,40
657,40
658,40
659,40
660,40
661,40
662,40
663,40
664,40
665,40
666,40
667,40
668,40
669,40
670,40
671,40
672,40
673,40
674,40
675,40
676,40
677,40
678,40
679,40
680,40
681,40
682,40
683,40
684,40
685,40
686,40
687,40
688,40
689,40
690,40
691,40
692,40
693,40
694,40
695,40
696,40
697,40
698,40
699,40
700,40
701,40
702,40
703,40
704,40
705,40
706,40
707,40
708,40
709,40
710,40
711,40
712,40
713,40
714,40
715,40
716,40
717,40
718,40
719,40
720,40
721,40
722,40
723,40
724,40
725,40
726,40
727,40
728,40
729,40
730,40
731,40
732,40
733,40
734,40
735,40
736,40
737,40
738,40
739,40
740,40
741,40
742,40
743,40
744,40
745,40
746,40
747,40
748,40
749,40
750,40
751,40
752,40
753,40
754,40
755,40
756,40
757,40
758,40
759,40
760,40
761,40
762,40
763,40
764,40
765,40
766,40
767,40
768,40
769,40
770,40
771,40
772,40
773,40
774,40
775,40
776,40
777,40
778,40
779,40
780,40
781,40
782,40
783,40
784,40
785,40
786,40
787,40
788,40
789,40
790,40
791,40
792,40
793,40
794,40
795,40
796,40
797,40
798,40
799,40
800,40
801,40
802,40
803,40
804,40
805,40
806,40
807,40
808,40
809,40
810,40
811,40
812,40
813,40
814,40
815,40
816,40
817,40
818,40
819,40
820,40
821,40
822,41
823,41
824,41
825,41
826,41
827,41
828,41
829,41
830,41
831,41
832,41
833,41
834,41
835,41
836,41
837,41
838,41
839,41
840,41
841,41
842,41
843,41
844,41
845,41
846,41
847,41
848,41
849,41
850,41
851,41
852,41
853,41
854,41
855,41
856,41
857,41
858,41
859,41
860,41
861,41
862,41
863,41
864,41
865,41
866,41
867,41
868,41
869,41
870,41
871,41
872,41
873,41
874,41
875,41
876,41
877,41
878,41
879,41
880,41
881,41
882,42
883,42
884,42
885,42
886,42
887,42
888,42
889,42
890,42
891,42
892,42
893,43
894,43
895,43
896,43
897,43
898,43
899,43
900,43
901,43
902,43
903,43
904,43
905,43
906,43
907,43
908,43
909,43
910,43
911,43
912,43
913,43
914,43
915,43
916,43
917,43
918,43
919,43
920,43
921,43
922,43
923,43
924,43
925,43
926,43
927,43
928,43
929,43
930,43
931,43
932,43
933,43
934,43
935,43
936,43
937,43
938,43
939,43
940,43
941,43
942,43
943,43
944,43
945,43
946,43
947,43
948,43
949,43
950,43
951,43
952,43
953,43
954,43
955,44
956,44
957,44
958,44
959,44
960,44
961,44
962,44
963,44
964,44
965,44
966,44
967,44
968,44
969,44
970,44
971,44
972,44
973,45
974,45
975,45
976,45
977,45
978,45
979,45
980,46
981,46
982,46
983,46
984,46
985,47
986,47
987,47
988,47
989,47
990,47
991,47
992,47
993,47
994,47
995,47
996,47
997,47
998,47
999,47
1000,47
1001,47
1002,47
1003,47
1004,47
1005,47
1006,47
1007,47
1008,47
1009,47
1010,47
1011,48
1012,48
1013,48
1014,48
1015,48
1016,48
1017,48
1018,48
1019,48
1020,48
1021,48
1022,49
1023,49
1024,50
1025,50
1026,50
1027,50
1028,50
1029,51
1030,51
1031,51
1032,51
1033,51
1034,51
1035,51
1036,51
1037,51
1038,51
1039,51
1040,51
1041,51
1042,51
1043,51
1044,51
1045,51
1046,51
1047,51
1048,51
1049,51
1050,51
1051,51
1052,51
1053,51
1054,51
1055,51
1056,51
1057,51
1058,51
1059,51
1060,52
1061,52
1062,52
1063,52
1064,52
1065,53
1066,53
1067,53
1068,53
1069,53
1070,53
1071,53
1072,53
1073,53
1074,53
1075,53
1076,53
1077,53
1078,53
1079,53
1080,53
1081,53
1082,53
1083,53
1084,53
1085,53
1086,53
1087,53
1088,53
1089,53
1090,53
1091,53
1092,53
1093,53
1094,53
1095,53
1096,53
1097,53
1098,53
1099,53
1100,53
1101,53
1102,53
1103,53
1104,53
1105,53
1106,53
1107,53
1108,53
1109,53
1110,53
1111,53
1112,53
1113,53
1114,53
1115,53
1116,53
1117,53
1118,53
1119,53
1120,53
1121,53
1122,53
1123,53
1124,53
1125,53
1126,53
1127,53
1128,53
1129,53
1130,53
1131,53
1132,53
1133,53
1134,53
1135,53
1136,53
1137,53
1138,53
1139,53
1140,53
1141,53
1142,53
1143,53
1144,53
1145,53
1146,53
1147,53
1148,53
1149,53
1150,53
1151,53
1152,53
1153,53
1154,53
1155,53
1156,53
1157,53
1158,53
1159,53
1160,53
1161,54
1162,54
1163,54
1164,54
1165,54
1166,54
1167,54
1168,54
1169,54
1170,54
1171,54
1172,54
1173,54
1174,54
1175,54
1176,54
1177,54
1178,54
1179,54
1180,54
1181,54
1182,54
1183,54
1184,54
1185,54
1186,54
1187,54
1188,54
1189,54
1190,54
1191,54
1192,54
1193,54
1194,54
1195,54
1196,54
1197,54
1198,54
1199,54
1200,54
1201,54
1202,54
1203,54
1204,54
1205,55
1206,55
1207,55
1208,55
1209,55
1210,55
1211,55
1212,55
1213,55
1214,55
1215,55
1216,55
1217,56
1218,56
1219,56
1220,56
1221,56
1222,56
1223,56
1224,56
1225,56
1226,56
1227,56
1228,56
1229,56
1230,56
1231,56
1232,56
1233,56
1234,56
1235,56
1236,56
1237,56
1238,56
1239,56
1240,57
1241,57
1242,57
1243,57
1244,57
1245,57
1246,57
1247,57
1248,57
1249,58
1250,58
1251,58
1252,58
1253,58
1254,58
1255,58
1256,58
1257,58
1258,59
1259,59
1260,59
1261,59
1262,59
1263,59
1264,59
1265,59
1266,59
1267,59
1268,59
1269,59
1270,59
1271,59
1272,59
1273,59
1274,59
1275,59
1276,59
1277,59
1278,59
1279,59
1280,59
1281,59
1282,59
1283,59
1284,59
1285,59
1286,59
1287,59
1288,59
1289,59
1290,59
1291,59
1292,59
1293,59
1294,59
1295,59
1296,59
1297,59
1298,59
1299,59
1300,59
1301,59
1302,59
1303,59
1304,60
1305,60
1306,60
1307,60
1308,60
1309,60
1310,60
1311,60
1312,60
1313,60
1314,60
1315,60
1316,60
1317,61
1318,61
1319,61
1320,61
1321,61
1322,61
1323,62
1324,62
1325,62
1326,62
1327,62
1328,62
1329,62
1330,62
1331,62
1332,62
1333,62
1334,62
1335,62
1336,62
1337,62
1338,62
1339,62
1340,62
1341,62
1342,62
1343,62
1344,62
1345,62
1346,62
1347,62
1348,62
1349,62
1350,62
1351,62
1352,62
1353,62
1354,62
1355,62
1356,62
1357,62
1358,62
1359,62
1360,62
1361,62
1362,62
1363,62
1364,62
1365,63
1366,63
1367,63
1368,63
1369,63
1370,63
1371,63
1372,63
1373,63
1374,63
1375,63
1376,63
1377,63
1378,63
1379,63
1380,63
1381,63
1382,63
1383,63
1384,63
1385,63
1386,63
1387,63
1388,63
1389,63
1390,63
1391,63
1392,63
1393,63
1394,63
1395,63
1396,63
1397,63
1398,63
1399,63
1400,63
1401,63
1402,63
1403,63
1404,63
1405,63
1406,63
1407,63
1408,63
1409,63
1410,63
1411,63
1412,64
1413,64
1414,64
1415,64
1416,64
1417,64
1418,64
1419,64
1420,64
1421,64
1422,64
1423,65
1424,65
1425,65
1426,65
1427,65
1428,65
1429,65
1430,65
1431,65
1432,65
1433,65
1434,65
1435,65
1436,65
1437,65
1438,65
1439,65
1440,65
1441,65
1442,65
1443,65
1444,65
1445,65
1446,65
1447,65
1448,65
1449,65
1450,65
1451,66
1452,66
1453,66
1454,66
1455,66
1456,67
1457,67
1458,67
1459,67
1460,67
1461,67
1462,67
1463,67
1464,67
1465,67
1466,68
1467,68
1468,68
1469,68
1470,68
1471,68
1472,68
1473,68
1474,68
1475,68
1476,68
1477,68
1478,68
1479,68
1480,68
1481,68
1482,68
1483,68
1484,68
1485,68
1486,68
1487,68
1488,68
1489,68
1490,68
1491,68
1492,68
1493,68
1494,68
1495,68
1496,68
1497,68
1498,68
1499,68
1500,68
1501,68
1502,68
1503,68
1504,68
1505,68
1506,68
1507,68
1508,68
1509,68
1510,68
1511,68
1512,68
1513,68
1514,69
1515,70
1516,71
1517,72
1518,73
1519,74
1520,75
1521,76
1522,76
1523,76
1524,77
1525,77
1526,77
1527,77
1528,77
1529,77
1530,77
1531,77
1532,77
1533,77
1534,78
1535,78
1536,78
1537,78
1538,78
1539,78
1540,78
1541,78
1542,78
1543,78
1544,78
1545,78
1546,78
1547,78
1548,78
1549,78
1550,78
1551,78
1552,78
1553,78
1554,78
1555,78
1556,78
1557,79
1558,79
1559,79
1560,79
1561,79
1562,79
1563,79
1564,79
1565,79
1566,79
1567,79
1568,79
1569,79
1570,79
1571,79
1572,79
1573,79
1574,79
1575,79
1576,79
1577,79
1578,80
1579,80
1580,80
1581,80
1582,80
1583,80
1584,80
1585,80
1586,80
1587,80
1588,80
1589,80
1590,80
1591,80
1592,80
1593,80
1594,80
1595,80
1596,80
1597,80
1598,80
1599,80
1600,80
1601,80
1602,80
1603,80
1604,80
1605,80
1606,80
1607,80
1608,81
1609,81
1610,81
1611,81
1612,81
1613,81
1614,81
1615,81
1616,81
1617,81
1618,81
1619,81
1620,82
1621,82
1622,82
1623,82
1624,82
1625,82
1626,82
1627,82
1628,82
1629,82
1630,82
1631,82
1632,82
1633,82
1634,82
1635,82
1636,82
1637,82
1638,82
1639,82
1640,82
1641,82
1642,82
1643,82
1644,82
1645,82
1646,82
1647,82
1648,82
1649,82
1650,82
1651,82
1652,82
1653,82
1654,82
1655,82
1656,83
1657,83
1658,83
1659,83
1660,83
1661,83
1662,83
1663,83
1664,83
1665,83
1666,83
1667,83
1668,83
1669,83
1670,83
1671,83
1672,83
1673,84
1674,84
1675,84
1676,85
1677,85
1678,85
1679,85
1680,85
1681,85
1682,85
1683,85
1684,85
1685,85
1686,85
1687,85
1688,85
1689,85
1690,85
1691,85
1692,85
1693,86
1694,86
1695,86
1696,86
1697,87
1698,87
1699,87
1700,87
1701,87
1702,87
1703,87
1704,87
1705,87
1706,87
1707,87
1708,87
1709,87
1710,87
1711,87
1712,88
1713,88
1714,88
1715,88
1716,89
1717,89
1718,89
1719,89
1720,89
1721,89
1722,89
1723,89
1724,90
1725,90
1726,90
1727,90
1728,90
1729,91
1730,92
1731,92
1732,92
1733,92
1734,92
1735,92
1736,92
1737,92
1738,92
1739,92
1740,92
1741,92
1742,92
1743,92
1744,92
1745,92
1746,92
1747,92
1748,92
1749,92
1750,92
1751,93
1752,93
1753,93
1754,93
1755,93
1756,93
1757,93
1758,94
1759,94
1760,94
1761,94
1762,94
1763,94
1764,94
1765,94
1766,94
1767,94
1768,94
1769,94
1770,94
1771,94
1772,94
1773,94
1774,94
1775,94
1776,94
1777,94
1778,94
1779,94
1780,94
1781,94
1782,94
1783,94
1784,94
1785,94
1786,94
1787,95
1788,95
1789,95
1790,95
1791,95
1792,96
1793,97
1794,97
1795,97
1796,97
1797,97
1798,97
1799,97
1800,97
1801,97
1802,97
1803,97
1804,97
1805,97
1806,97
1807,97
1808,97
1809,97
1810,97
1811,97
1812,97
1813,97
1814,97
1815,97
1816,97
1817,97
1818,97
1819,97
1820,97
1821,97
1822,97
1823,97
1824,97
1825,97
1826,97
1827,97
1828,97
1829,97
1830,97
1831,97
1832,97
1833,97
1834,97
1835,97
1836,97
1837,97
1838,97
1839,97
1840,97
1841,97
1842,97
1843,97
1844,97
1845,97
1846,97
1847,97
1848,97
1849,97
1850,97
1851,97
1852,98
1853,98
1854,98
1855,98
1856,98
1857,98
1858,98
1859,98
1860,98
1861,98
1862,98
1863,98
1864,98
1865,98
1866,98
1867,98
1868,98
1869,98
1870,98
1871,98
1872,98
1873,98
1874,98
1875,99
1876,99
1877,99
1878,99
1879,99
1880,99
1881,99
1882,99
1883,99
1884,99
1885,99
1886,99
1887,99
1888,99
1889,99
1890,99
1891,99
1892,99
1893,99
1894,99
1895,99
1896,99
1897,99
1898,99
1899,99
1900,99
1901,99
1902,99
1903,99
1904,99
1905,99
1906,99
1907,99
1908,99
1909,99
1910,99
1911,99
1912,99
1913,99
1914,100
1915,100
1916,100
1917,101
1918,101
1919,101
1920,101
1921,101
1922,101
1923,101
1924,101
1925,102
1926,102
1927,102
1928,102
1929,102
1930,102
1931,102
1932,102
1933,102
1934,103
1935,103
1936,103
1937,104
1938,104
1939,104
1940,104
1941,104
1942,104
1943,104
1944,104
1945,104
1946,104
1947,104
1948,104
1949,104
1950,105
1951,105
1952,106
1953,106
1954,106
1955,106
1956,106
1957,106
1958,106
1959,106
1960,106
1961,106
1962,106
1963,106
1964,106
1965,106
1966,106
1967,106
1968,106
1969,106
1970,106
1971,106
1972,107
1973,107
1974,107
1975,107
1976,107
1977,108
1978,108
1979,108
1980,108
1981,108
1982,108
1983,108
1984,108
1985,108
1986,108
1987,108
1988,108
1989,108
1990,108
1991,108
1992,108
1993,108
1994,108
1995,108
1996,108
1997,108
1998,108
1999,108
2000,108
