"tick","total"
0,0
1,0
2,0
3,0
4,0
5,0
6,0
7,0
8,0
9,0
10,0
11,0
12,0
13,0
14,0
15,0
16,0
17,0
18,0
19,0
20,0
21,0
22,0
23,0
24,0
25,0
26,0
27,0
28,0
29,0
30,0
31,0
32,0
33,0
34,0
35,0
36,0
37,0
38,0
39,0
40,0
41,0
42,0
43,0
44,0
45,0
46,0
47,0
48,0
49,0
50,0
51,0
52,0
53,0
54,0
55,0
56,0
57,0
58,0
59,0
60,0
61,0
62,0
63,0
64,0
65,0
66,0
67,0
68,0
69,0
70,0
71,0
72,0
73,0
74,0
75,0
76,0
77,0
78,0
79,0
80,0
81,0
82,0
83,0
84,0
85,0
86,0
87,0
88,0
89,0
90,0
91,0
92,0
93,0
94,0
95,0
96,0
97,0
98,0
99,0
100,0
101,0
102,0
103,0
104,0
105,0
106,0
107,0
108,0
109,0
110,0
111,0
112,0
113,0
114,0
115,0
116,0
117,0
118,0
119,0
120,0
121,0
122,0
123,0
124,0
125,0
126,0
127,0
128,0
129,0
130,0
131,0
132,0
133,0
134,0
135,0
136,0
137,0
138,0
139,0
140,0
141,0
142,0
143,0
144,0
145,0
146,0
147,0
148,0
149,0
150,0
151,0
152,0
153,0
154,0
155,0
156,0
157,0
158,0
159,0
160,0
161,0
162,0
163,0
164,0
165,0
166,0
167,0
168,0
169,0
170,0
171,0
172,0
173,0
174,0
175,0
176,0
177,0
178,0
179,0
180,0
181,0
182,0
183,0
184,0
185,0
186,0
187,0
188,0
189,0
190,0
191,0
192,0
193,0
194,0
195,0
196,0
197,0
198,0
199,0
200,0
201,0
202,0
203,0
204,0
205,0
206,0
207,0
208,0
209,0
210,0
211,0
212,0
213,0
214,0
215,0
216,0
217,0
218,0
219,0
220,0
221,1
222,2
223,2
224,2
225,2
226,2
227,2
228,2
229,2
230,2
231,2
232,2
233,2
234,2
235,3
236,3
237,3
238,3
239,3
240,3
241,3
242,4
243,4
244,4
245,4
246,4
247,4
248,4
249,4
250,4
251,4
252,4
253,4
254,4
255,4
256,4
257,5
258,5
259,5
260,5
261,5
262,5
263,6
264,6
265,7
266,7
267,7
268,7
269,7
270,7
271,8
272,8
273,8
274,9
275,9
276,10
277,11
278,11
279,11
280,11
281,11
282,11
283,11
284,11
285,11
286,12
287,12
288,12
289,12
290,12
291,12
292,12
293,12
294,12
295,12
296,12
297,12
298,12
299,12
300,12
301,12
302,13
303,13
304,13
305,13
306,13
307,13
308,15
309,15
310,15
311,15
312,15
313,15
314,15
315,15
316,15
317,15
318,15
319,15
320,15
321,15
322,15
323,15
324,15
325,16
326,17
327,17
328,17
329,17
330,17
331,17
332,17
333,17
334,17
335,17
336,17
337,17
338,17
339,17
340,17
341,17
342,17
343,17
344,17
345,17
346,17
347,17
348,17
349,17
350,17
351,17
352,17
353,17
354,17
355,17
356,17
357,18
358,18
359,18
360,19
361,19
362,19
363,19
364,19
365,19
366,20
367,20
368,20
369,20
370,20
371,20
372,21
373,21
374,21
375,21
376,21
377,21
378,21
379,21
380,21
381,21
382,21
383,21
384,21
385,21
386,21
387,22
388,22
389,22
390,22
391,22
392,22
393,22
394,22
395,22
396,22
397,22
398,22
399,22
400,22
401,22
402,22
403,22
404,23
405,23
406,23
407,23
408,23
409,23
410,23
411,23
412,23
413,23
414,23
415,23
416,23
417,23
418,23
419,23
420,23
421,23
422,23
423,23
424,23
425,23
426,23
427,23
428,23
429,24
430,24
431,24
432,24
433,25
434,25
435,25
436,25
437,25
438,25
439,25
440,25
441,25
442,25
443,25
444,25
445,25
446,25
447,25
448,25
449,25
450,25
451,25
452,25
453,26
454,26
455,26
456,26
457,26
458,26
459,26
460,26
461,26
462,26
463,26
464,26
465,26
466,26
467,26
468,26
469,26
470,26
471,26
472,26
473,26
474,26
475,26
476,26
477,26
478,26
479,26
480,26
481,26
482,26
483,26
484,26
485,26
486,26
487,26
488,26
489,26
490,26
491,26
492,26
493,26
494,26
495,26
496,26
497,26
498,26
499,26
500,26
501,26
502,26
503,26
504,26
505,26
506,26
507,26
508,26
509,26
510,27
511,27
512,28
513,28
514,28
515,28
516,28
517,28
518,30
519,30
520,30
521,30
522,30
523,30
524,30
525,30
526,30
527,30
528,30
529,30
530,30
531,30
532,30
533,30
534,30
535,30
536,30
537,30
538,30
539,30
540,31
541,31
542,31
543,31
544,31
545,31
546,31
547,31
548,31
549,31
550,31
551,31
552,31
553,31
554,31
555,31
556,31
557,31
558,31
559,31
560,31
561,31
562,31
563,31
564,31
565,31
566,31
567,31
568,31
569,31
570,31
571,31
572,31
573,31
574,31
575,31
576,31
577,31
578,31
579,31
580,31
581,31
582,31
583,31
584,31
585,31
586,31
587,31
588,31
589,31
590,31
591,31
592,31
593,31
594,32
595,32
596,32
597,32
598,32
599,32
600,32
601,32
602,32
603,32
604,32
605,32
606,32
607,32
608,32
609,32
610,32
611,32
612,32
613,32
614,32
615,32
616,32
617,33
618,33
619,33
620,33
621,33
622,33
623,33
624,33
625,33
626,33
627,33
628,33
629,33
630,33
631,33
632,33
633,33
634,33
635,33
636,33
637,33
638,33
639,33
640,33
641,33
642,33
643,33
644,33
645,33
646,33
647,33
648,33
649,33
650,33
651,33
652,33
653,33
654,33
655,33
656,33
657,33
658,33
659,33
660,33
661,33
662,33
663,35
664,35
665,36
666,36
667,36
668,36
669,36
670,36
671,36
672,36
673,36
674,36
675,36
676,36
677,37
678,38
679,38
680,38
681,38
682,38
683,38
684,38
685,38
686,38
687,38
688,38
689,38
690,38
691,38
692,38
693,39
694,39
695,39
696,39
697,39
698,39
699,39
700,39
701,39
702,39
703,39
704,39
705,39
706,39
707,39
708,39
709,39
710,39
711,39
712,39
713,39
714,39
715,39
716,39
717,39
718,39
719,39
720,39
721,39
722,39
723,39
724,39
725,39
726,39
727,39
728,39
729,39
730,39
731,39
732,39
733,39
734,39
735,39
736,39
737,39
738,39
739,39
740,39
741,39
742,39
743,39
744,39
745,39
746,39
747,39
748,39
749,39
750,39
751,39
752,39
753,39
754,39
755,39
756,39
757,39
758,40
759,40
760,40
761,40
762,40
763,40
764,41
765,41
766,41
767,41
768,42
769,42
770,42
771,42
772,42
773,42
774,42
775,42
776,42
777,42
778,42
779,42
780,42
781,42
782,42
783,42
784,42
785,42
786,42
787,43
788,43
789,43
790,44
791,44
792,44
793,44
794,44
795,44
796,44
797,44
798,44
799,44
800,44
801,44
802,44
803,44
804,44
805,45
806,45
807,46
808,46
809,46
810,46
811,46
812,47
813,47
814,47
815,47
816,47
817,47
818,47
819,47
820,47
821,47
822,47
823,47
824,47
825,47
826,48
827,48
828,48
829,48
830,48
831,48
832,48
833,49
834,49
835,49
836,49
837,49
838,49
839,49
840,49
841,49
842,49
843,49
844,49
845,49
846,49
847,49
848,49
849,49
850,49
851,49
852,49
853,49
854,49
855,49
856,49
857,49
858,49
859,49
860,49
861,49
862,49
863,49
864,50
865,50
866,50
867,50
868,50
869,50
870,50
871,50
872,50
873,50
874,50
875,50
876,50
877,50
878,50
879,50
880,50
881,50
882,50
883,50
884,50
885,50
886,50
887,50
888,50
889,50
890,50
891,50
892,50
893,50
894,50
895,50
896,50
897,50
898,50
899,50
900,50
901,50
902,50
903,50
904,50
905,50
906,50
907,50
908,50
909,50
910,50
911,50
912,50
913,50
914,50
915,51
916,51
917,51
918,51
919,51
920,51
921,51
922,51
923,51
924,51
925,51
926,51
927,51
928,51
929,51
930,51
931,51
932,51
933,51
934,51
935,51
936,51
937,51
938,51
939,51
940,51
941,51
942,51
943,51
944,51
945,51
946,51
947,51
948,51
949,51
950,51
951,51
952,52
953,52
954,52
955,52
956,52
957,52
958,52
959,52
960,52
961,52
962,52
963,52
964,52
965,52
966,52
967,52
968,52
969,52
970,52
971,52
972,52
973,52
974,52
975,52
976,52
977,52
978,52
979,52
980,52
981,52
982,52
983,52
984,52
985,52
986,52
987,52
988,52
989,52
990,52
991,52
992,52
993,52
994,52
995,52
996,52
997,52
998,52
999,52
1000,52
1001,52
1002,52
1003,52
1004,52
1005,52
1006,52
1007,52
1008,52
1009,52
1010,52
1011,52
1012,52
1013,52
1014,52
1015,52
1016,52
1017,52
1018,52
1019,52
1020,52
1021,52
1022,52
1023,52
1024,52
1025,52
1026,52
1027,52
1028,52
1029,52
1030,52
1031,52
1032,52
1033,52
1034,52
1035,52
1036,52
1037,52
1038,52
1039,52
1040,52
1041,52
1042,52
1043,52
1044,52
1045,52
1046,52
1047,52
1048,52
1049,52
1050,52
1051,52
1052,52
1053,52
1054,52
1055,52
1056,52
1057,52
1058,52
1059,52
1060,52
1061,52
1062,52
1063,52
1064,52
1065,52
1066,52
1067,52
1068,52
1069,52
1070,52
1071,52
1072,52
1073,52
1074,52
1075,52
1076,52
1077,52
1078,52
1079,52
1080,52
1081,52
1082,52
1083,52
1084,52
1085,52
1086,52
1087,52
1088,52
1089,52
1090,53
1091,53
1092,53
1093,54
1094,54
1095,54
1096,54
1097,54
1098,54
1099,54
1100,54
1101,54
1102,54
1103,54
1104,54
1105,55
1106,55
1107,55
1108,55
1109,55
1110,55
1111,55
1112,55
1113,55
1114,55
1115,55
1116,56
1117,56
1118,56
1119,56
1120,56
1121,56
1122,56
1123,56
1124,56
1125,56
1126,56
1127,56
1128,56
1129,56
1130,56
1131,56
1132,56
1133,56
1134,56
1135,56
1136,56
1137,56
1138,56
1139,56
1140,56
1141,56
1142,56
1143,56
1144,56
1145,56
1146,56
1147,56
1148,56
1149,56
1150,56
1151,56
1152,56
1153,56
1154,56
1155,56
1156,56
1157,56
1158,56
1159,56
1160,56
1161,56
1162,56
1163,56
1164,56
1165,56
1166,56
1167,56
1168,56
1169,56
1170,56
1171,56
1172,56
1173,56
1174,56
1175,56
1176,56
1177,56
1178,56
1179,56
1180,56
1181,56
1182,56
1183,56
1184,56
1185,56
1186,56
1187,56
1188,56
1189,57
1190,57
1191,57
1192,57
1193,57
1194,57
1195,57
1196,57
1197,57
1198,57
1199,57
1200,57
1201,57
1202,57
1203,57
1204,57
1205,57
1206,57
1207,57
1208,57
1209,57
1210,57
1211,57
1212,57
1213,57
1214,57
1215,57
1216,57
1217,57
1218,58
1219,58
1220,58
1221,58
1222,58
1223,58
1224,58
1225,58
1226,58
1227,58
1228,58
1229,58
1230,58
1231,58
1232,58
1233,58
1234,58
1235,58
1236,58
1237,58
1238,58
1239,58
1240,58
1241,58
1242,58
1243,58
1244,58
1245,58
1246,58
1247,58
1248,58
1249,58
1250,58
1251,58
1252,58
1253,58
1254,59
1255,60
1256,60
1257,60
1258,60
1259,60
1260,60
1261,60
1262,60
1263,60
1264,60
1265,60
1266,60
1267,60
1268,60
1269,60
1270,60
1271,60
1272,60
1273,60
1274,60
1275,60
1276,60
1277,60
1278,60
1279,60
1280,60
1281,60
1282,60
1283,60
1284,60
1285,60
1286,60
1287,60
1288,60
1289,60
1290,60
1291,60
1292,60
1293,60
1294,60
1295,60
1296,60
1297,60
1298,60
1299,60
1300,60
1301,60
1302,60
1303,60
1304,60
1305,60
1306,60
1307,60
1308,60
1309,60
1310,60
1311,60
1312,60
1313,60
1314,60
1315,60
1316,60
1317,60
1318,60
1319,60
1320,60
1321,60
1322,60
1323,60
1324,60
1325,60
1326,60
1327,60
1328,60
1329,60
1330,60
1331,60
1332,60
1333,60
1334,60
1335,60
1336,60
1337,60
1338,60
1339,60
1340,60
1341,60
1342,60
1343,60
1344,60
1345,60
1346,60
1347,60
1348,60
1349,60
1350,60
1351,60
1352,60
1353,60
1354,60
1355,60
1356,60
1357,60
1358,60
1359,60
1360,60
1361,60
1362,60
1363,60
1364,60
1365,60
1366,60
1367,60
1368,60
1369,60
1370,60
1371,60
1372,60
1373,60
1374,60
1375,60
1376,60
1377,61
1378,61
1379,61
1380,61
1381,61
1382,62
1383,62
1384,62
1385,62
1386,62
1387,62
1388,62
1389,62
1390,62
1391,62
1392,62
1393,62
1394,63
1395,63
1396,63
1397,63
1398,63
1399,63
1400,63
1401,63
1402,63
1403,63
1404,63
1405,63
1406,63
1407,63
1408,63
1409,63
1410,63
1411,63
1412,63
1413,63
1414,63
1415,63
1416,63
1417,63
1418,63
1419,63
1420,63
1421,63
1422,63
1423,63
1424,63
1425,63
1426,63
1427,63
1428,63
1429,63
1430,63
1431,63
1432,63
1433,63
1434,63
1435,63
1436,64
1437,64
1438,64
1439,64
1440,64
1441,64
1442,64
1443,64
1444,64
1445,64
1446,64
1447,64
1448,64
1449,64
1450,64
1451,64
1452,64
1453,64
1454,64
1455,64
1456,64
1457,64
1458,64
1459,64
1460,65
1461,65
1462,65
1463,65
1464,65
1465,66
1466,66
1467,66
1468,66
1469,66
1470,66
1471,66
1472,66
1473,66
1474,66
1475,66
1476,66
1477,66
1478,66
1479,66
1480,66
1481,67
1482,67
1483,67
1484,67
1485,67
1486,67
1487,67
1488,67
1489,67
1490,67
1491,67
1492,67
1493,67
1494,67
1495,67
1496,67
1497,67
1498,67
1499,67
1500,67
1501,67
1502,68
1503,68
1504,68
1505,68
1506,69
1507,69
1508,69
1509,69
1510,69
1511,69
1512,69
1513,69
1514,69
1515,69
1516,69
1517,69
1518,69
1519,69
1520,69
1521,69
1522,69
1523,69
1524,69
1525,69
1526,69
1527,69
1528,69
1529,69
1530,69
1531,69
1532,69
1533,69
1534,69
1535,69
1536,69
1537,69
1538,69
1539,69
1540,69
1541,69
1542,69
1543,69
1544,69
1545,69
1546,69
1547,69
1548,69
1549,69
1550,69
1551,69
1552,69
1553,69
1554,69
1555,69
1556,69
1557,69
1558,69
1559,69
1560,69
1561,69
1562,69
1563,69
1564,69
1565,69
1566,69
1567,69
1568,69
1569,69
1570,69
1571,69
1572,69
1573,69
1574,69
1575,69
1576,69
1577,70
1578,70
1579,70
1580,70
1581,71
1582,72
1583,72
1584,73
1585,73
1586,73
1587,73
1588,73
1589,73
1590,73
1591,73
1592,73
1593,73
1594,73
1595,73
1596,74
1597,74
1598,74
1599,74
1600,74
1601,74
1602,74
1603,75
1604,75
1605,75
1606,75
1607,75
1608,75
1609,75
1610,75
1611,75
1612,75
1613,75
1614,75
1615,76
1616,77
1617,77
1618,77
1619,77
1620,77
1621,77
1622,77
1623,78
1624,78
1625,78
1626,80
1627,80
1628,80
1629,80
1630,80
1631,80
1632,80
1633,80
1634,80
1635,80
1636,80
1637,80
1638,80
1639,80
1640,80
1641,80
1642,80
1643,80
1644,80
1645,80
1646,80
1647,80
1648,80
1649,81
1650,81
1651,81
1652,81
1653,81
1654,81
1655,81
1656,81
1657,81
1658,81
1659,81
1660,81
1661,81
1662,81
1663,81
1664,81
1665,81
1666,81
1667,81
1668,81
1669,81
1670,81
1671,81
1672,81
1673,81
1674,81
1675,81
1676,81
1677,81
1678,81
1679,81
1680,82
1681,82
1682,82
1683,82
1684,83
1685,83
1686,83
1687,83
1688,84
1689,84
1690,84
1691,84
1692,84
1693,84
1694,84
1695,84
1696,84
1697,84
1698,84
1699,84
1700,84
1701,84
1702,84
1703,84
1704,84
1705,84
1706,84
1707,84
1708,84
1709,85
1710,86
1711,86
1712,86
1713,86
1714,86
1715,86
1716,86
1717,86
1718,87
1719,87
1720,87
1721,87
1722,87
1723,87
1724,87
1725,87
1726,87
1727,87
1728,87
1729,87
1730,87
1731,87
1732,87
1733,87
1734,87
1735,87
1736,87
1737,87
1738,87
1739,88
1740,88
1741,88
1742,88
1743,88
1744,88
1745,88
1746,88
1747,88
1748,88
1749,88
1750,88
1751,88
1752,88
1753,88
1754,89
1755,89
1756,89
1757,89
1758,89
1759,89
1760,89
1761,89
1762,89
1763,89
1764,89
1765,89
1766,89
1767,89
1768,89
1769,89
1770,89
1771,89
1772,89
1773,89
1774,89
1775,89
1776,89
1777,89
1778,89
1779,89
1780,89
1781,89
1782,89
1783,89
1784,89
1785,89
1786,89
1787,89
1788,89
1789,89
1790,89
1791,89
1792,89
1793,89
1794,89
1795,90
1796,91
1797,91
1798,91
1799,91
1800,91
1801,91
1802,91
1803,91
1804,91
1805,91
1806,91
1807,91
1808,91
1809,91
1810,91
1811,91
1812,91
1813,91
1814,91
1815,91
1816,91
1817,91
1818,91
1819,91
1820,91
1821,91
1822,91
1823,91
1824,91
1825,91
1826,91
1827,91
1828,91
1829,91
1830,91
1831,91
1832,91
1833,91
1834,91
1835,91
1836,91
1837,91
1838,91
1839,92
1840,92
1841,93
1842,93
1843,93
1844,93
1845,93
1846,93
1847,94
1848,94
1849,94
1850,94
1851,94
1852,94
1853,94
1854,94
1855,94
1856,94
1857,94
1858,94
1859,94
1860,94
1861,94
1862,94
1863,94
1864,94
1865,94
1866,94
1867,94
1868,95
1869,95
1870,95
1871,96
1872,96
1873,96
1874,96
1875,96
1876,96
1877,96
1878,96
1879,96
1880,96
1881,96
1882,97
1883,97
1884,97
1885,97
1886,97
1887,97
1888,97
1889,97
1890,97
1891,98
1892,98
1893,98
1894,98
1895,98
1896,98
1897,98
1898,98
1899,98
1900,98
1901,98
1902,98
1903,98
1904,98
1905,98
1906,98
1907,100
1908,100
1909,100
1910,100
1911,100
1912,100
1913,100
1914,101
1915,101
1916,101
1917,101
1918,101
1919,101
1920,101
1921,102
1922,102
1923,102
1924,102
1925,102
1926,102
1927,102
1928,102
1929,102
1930,102
1931,102
1932,102
1933,102
1934,102
1935,102
1936,102
1937,102
1938,102
1939,102
1940,102
1941,102
1942,102
1943,102
1944,102
1945,102
1946,102
1947,102
1948,102
1949,102
1950,102
1951,102
1952,102
1953,102
1954,102
1955,102
1956,102
1957,102
1958,102
1959,103
1960,103
1961,103
1962,103
1963,103
1964,103
1965,103
1966,103
1967,103
1968,103
1969,103
1970,103
1971,104
1972,104
1973,104
1974,104
1975,104
1976,104
1977,104
1978,105
1979,105
1980,105
1981,105
1982,105
1983,105
1984,106
1985,106
1986,106
1987,106
1988,106
1989,106
1990,106
1991,106
1992,106
1993,106
1994,106
1995,106
1996,107
1997,107
1998,107
1999,107
2000,107
