"tick","susceptible","exposed","infectious","recovered"
0,99,1,0,0
1,99,1,0,0
2,99,1,0,0
3,99,1,0,0
4,99,1,0,0
5,99,1,0,0
6,99,1,0,0
7,99,1,0,0
8,99,1,0,0
9,99,1,0,0
10,99,1,0,0
11,99,1,0,0
12,99,1,0,0
13,99,1,0,0
14,99,1,0,0
15,99,1,0,0
16,99,1,0,0
17,99,1,0,0
18,99,1,0,0
19,99,1,0,0
20,99,1,0,0
21,99,1,0,0
22,99,1,0,0
23,99,1,0,0
24,99,1,0,0
25,99,1,0,0
26,99,1,0,0
27,99,1,0,0
28,99,1,0,0
29,99,1,0,0
30,99,1,0,0
31,99,1,0,0
32,99,1,0,0
33,99,1,0,0
34,99,1,0,0
35,99,1,0,0
36,99,1,0,0
37,99,1,0,0
38,99,1,0,0
39,99,1,0,0
40,99,1,0,0
41,99,1,0,0
42,99,1,0,0
43,99,1,0,0
44,99,1,0,0
45,99,1,0,0
46,99,1,0,0
47,99,1,0,0
48,99,1,0,0
49,99,1,0,0
50,99,1,0,0
51,99,1,0,0
52,99,1,0,0
53,99,1,0,0
54,99,1,0,0
55,99,1,0,0
56,99,1,0,0
57,99,1,0,0
58,99,1,0,0
59,99,1,0,0
60,99,1,0,0
61,99,1,0,0
62,99,1,0,0
63,99,1,0,0
64,99,1,0,0
65,99,1,0,0
66,99,1,0,0
67,99,1,0,0
68,99,1,0,0
69,99,1,0,0
70,99,1,0,0
71,99,1,0,0
72,99,1,0,0
73,99,1,0,0
74,99,1,0,0
75,99,1,0,0
76,99,1,0,0
77,99,1,0,0
78,99,1,0,0
79,99,1,0,0
80,99,1,0,0
81,99,1,0,0
82,99,1,0,0
83,99,1,0,0
84,99,1,0,0
85,99,1,0,0
86,99,1,0,0
87,99,1,0,0
88,99,1,0,0
89,99,1,0,0
90,99,1,0,0
91,99,1,0,0
92,99,1,0,0
93,99,1,0,0
94,99,1,0,0
95,99,1,0,0
96,99,1,0,0
97,99,1,0,0
98,99,1,0,0
99,99,1,0,0
100,99,1,0,0
101,99,1,0,0
102,99,1,0,0
103,99,1,0,0
104,99,1,0,0
105,99,1,0,0
106,99,1,0,0
107,99,1,0,0
108,99,1,0,0
109,99,1,0,0
110,99,1,0,0
111,99,1,0,0
112,99,1,0,0
113,99,1,0,0
114,99,1,0,0
115,99,1,0,0
116,99,1,0,0
117,99,1,0,0
118,99,1,0,0
119,99,1,0,0
120,99,1,0,0
121,99,1,0,0
122,99,1,0,0
123,99,1,0,0
124,99,1,0,0
125,99,1,0,0
126,99,1,0,0
127,99,1,0,0
128,99,1,0,0
129,99,1,0,0
130,99,1,0,0
131,99,1,0,0
132,99,1,0,0
133,99,1,0,0
134,99,1,0,0
135,99,1,0,0
136,99,1,0,0
137,99,1,0,0
138,99,1,0,0
139,99,1,0,0
140,99,1,0,0
141,99,1,0,0
142,99,1,0,0
143,99,1,0,0
144,99,1,0,0
145,99,1,0,0
146,99,1,0,0
147,99,1,0,0
148,99,1,0,0
149,99,1,0,0
150,99,1,0,0
151,99,1,0,0
152,99,1,0,0
153,99,1,0,0
154,99,1,0,0
155,99,1,0,0
156,99,1,0,0
157,99,1,0,0
158,99,1,0,0
159,99,1,0,0
160,99,1,0,0
161,99,1,0,0
162,99,1,0,0
163,99,1,0,0
164,99,1,0,0
165,99,1,0,0
166,99,1,0,0
167,99,1,0,0
168,99,1,0,0
169,99,1,0,0
170,99,1,0,0
171,99,1,0,0
172,99,1,0,0
173,99,1,0,0
174,99,1,0,0
175,99,1,0,0
176,99,1,0,0
177,99,1,0,0
178,99,1,0,0
179,99,1,0,0
180,99,1,0,0
181,99,1,0,0
182,99,1,0,0
183,99,1,0,0
184,99,1,0,0
185,99,1,0,0
186,99,1,0,0
187,99,1,0,0
188,99,1,0,0
189,99,1,0,0
190,99,1,0,0
191,99,1,0,0
192,99,1,0,0
193,99,1,0,0
194,99,1,0,0
195,99,1,0,0
196,99,1,0,0
197,99,1,0,0
198,99,1,0,0
199,99,1,0,0
200,99,1,0,0
201,99,0,1,0
202,99,0,1,0
203,99,0,1,0
204,98,1,1,0
205,98,1,1,0
206,98,1,1,0
207,98,1,1,0
208,98,1,1,0
209,97,2,1,0
210,97,2,1,0
211,97,2,1,0
212,97,2,1,0
213,97,2,1,0
214,97,2,1,0
215,97,2,1,0
216,97,2,1,0
217,97,2,1,0
218,97,2,1,0
219,97,2,1,0
220,97,2,1,0
221,97,2,1,0
222,97,2,1,0
223,97,2,1,0
224,97,2,1,0
225,97,2,1,0
226,97,2,1,0
227,97,2,1,0
228,97,2,1,0
229,97,2,1,0
230,97,2,1,0
231,97,2,1,0
232,97,2,1,0
233,97,2,1,0
234,97,2,1,0
235,97,2,1,0
236,97,2,1,0
237,97,2,1,0
238,97,2,1,0
239,97,2,1,0
240,97,2,1,0
241,97,2,1,0
242,97,2,1,0
243,97,2,1,0
244,97,2,1,0
245,97,2,1,0
246,97,2,1,0
247,97,2,1,0
248,97,2,1,0
249,97,2,1,0
250,97,2,1,0
251,97,2,1,0
252,97,2,1,0
253,97,2,1,0
254,97,2,1,0
255,97,2,1,0
256,97,2,1,0
257,97,2,1,0
258,97,2,1,0
259,97,2,1,0
260,97,2,1,0
261,97,2,1,0
262,97,2,1,0
263,97,2,1,0
264,97,2,1,0
265,97,2,1,0
266,97,2,1,0
267,97,2,1,0
268,97,2,1,0
269,97,2,1,0
270,97,2,1,0
271,97,2,1,0
272,97,2,1,0
273,97,2,1,0
274,97,2,1,0
275,97,2,1,0
276,97,2,1,0
277,97,2,1,0
278,97,2,1,0
279,97,2,1,0
280,97,2,1,0
281,97,2,1,0
282,97,2,1,0
283,97,2,1,0
284,97,2,1,0
285,97,2,1,0
286,97,2,1,0
287,97,2,1,0
288,97,2,1,0
289,97,2,1,0
290,97,2,1,0
291,97,2,1,0
292,97,2,1,0
293,97,2,1,0
294,97,2,1,0
295,97,2,1,0
296,97,2,1,0
297,97,2,1,0
298,97,2,1,0
299,97,2,1,0
300,97,2,1,0
301,97,2,1,0
302,97,2,1,0
303,97,2,1,0
304,97,2,1,0
305,97,2,1,0
306,97,2,1,0
307,97,2,1,0
308,97,2,1,0
309,97,2,1,0
310,97,2,1,0
311,97,2,1,0
312,97,2,1,0
313,97,2,1,0
314,97,2,1,0
315,97,2,1,0
316,97,2,1,0
317,97,2,1,0
318,97,2,1,0
319,97,2,1,0
320,97,2,1,0
321,97,2,1,0
322,97,2,1,0
323,97,2,1,0
324,97,2,1,0
325,97,2,1,0
326,97,2,1,0
327,97,2,1,0
328,97,2,1,0
329,97,2,1,0
330,97,2,1,0
331,97,2,1,0
332,97,2,1,0
333,97,2,1,0
334,97,2,1,0
335,97,2,1,0
336,97,2,1,0
337,97,2,1,0
338,97,2,1,0
339,97,2,1,0
340,97,2,1,0
341,97,2,1,0
342,97,2,1,0
343,97,2,1,0
344,97,2,1,0
345,97,2,1,0
346,97,2,1,0
347,97,2,1,0
348,97,2,1,0
349,97,2,1,0
350,97,2,1,0
351,97,2,1,0
352,97,2,1,0
353,96,3,1,0
354,96,3,1,0
355,96,3,1,0
356,96,3,1,0
357,96,3,1,0
358,96,3,1,0
359,96,3,1,0
360,96,3,1,0
361,96,3,1,0
362,96,3,1,0
363,96,3,1,0
364,96,3,1,0
365,96,3,1,0
366,96,3,1,0
367,96,3,1,0
368,96,3,1,0
369,96,3,1,0
370,96,3,1,0
371,96,3,1,0
372,96,3,1,0
373,96,3,1,0
374,96,3,1,0
375,96,3,1,0
376,96,3,1,0
377,96,3,1,0
378,96,3,1,0
379,96,3,1,0
380,96,3,1,0
381,96,3,1,0
382,96,3,1,0
383,96,3,1,0
384,96,3,1,0
385,96,3,1,0
386,96,3,1,0
387,96,3,1,0
388,96,3,1,0
389,96,3,1,0
390,96,3,1,0
391,96,3,1,0
392,96,3,1,0
393,96,3,1,0
394,96,3,1,0
395,96,3,1,0
396,96,3,1,0
397,96,3,1,0
398,96,3,1,0
399,96,3,1,0
400,96,3,1,0
401,96,3,1,0
402,96,3,0,1
403,96,3,0,1
404,96,3,0,1
405,96,2,1,1
406,96,2,1,1
407,96,2,1,1
408,96,2,1,1
409,96,2,1,1
410,96,1,2,1
411,94,3,2,1
412,92,5,2,1
413,90,7,2,1
414,90,7,2,1
415,89,8,2,1
416,88,9,2,1
417,87,10,2,1
418,87,10,2,1
419,87,10,2,1
420,87,10,2,1
421,87,10,2,1
422,87,10,2,1
423,87,10,2,1
424,87,10,2,1
425,87,10,2,1
426,87,10,2,1
427,87,10,2,1
428,87,10,2,1
429,87,10,2,1
430,87,10,2,1
431,87,10,2,1
432,86,11,2,1
433,86,11,2,1
434,85,12,2,1
435,85,12,2,1
436,85,12,2,1
437,85,12,2,1
438,85,12,2,1
439,85,12,2,1
440,85,12,2,1
441,85,12,2,1
442,84,13,2,1
443,84,13,2,1
444,84,13,2,1
445,84,13,2,1
446,84,13,2,1
447,84,13,2,1
448,84,13,2,1
449,84,13,2,1
450,84,13,2,1
451,84,13,2,1
452,84,13,2,1
453,84,13,2,1
454,84,13,2,1
455,84,13,2,1
456,84,13,2,1
457,84,13,2,1
458,84,13,2,1
459,84,13,2,1
460,84,13,2,1
461,83,14,2,1
462,83,14,2,1
463,83,14,2,1
464,83,14,2,1
465,83,14,2,1
466,83,14,2,1
467,83,14,2,1
468,83,14,2,1
469,83,14,2,1
470,83,14,2,1
471,83,14,2,1
472,83,14,2,1
473,83,14,2,1
474,83,14,2,1
475,83,14,2,1
476,83,14,2,1
477,83,14,2,1
478,83,14,2,1
479,83,14,2,1
480,83,14,2,1
481,83,14,2,1
482,82,15,2,1
483,82,15,2,1
484,82,15,2,1
485,82,15,2,1
486,82,15,2,1
487,82,15,2,1
488,82,15,2,1
489,82,15,2,1
490,82,15,2,1
491,82,15,2,1
492,82,15,2,1
493,82,15,2,1
494,82,15,2,1
495,82,15,2,1
496,82,15,2,1
497,82,15,2,1
498,82,15,2,1
499,82,15,2,1
500,82,15,2,1
501,82,15,2,1
502,82,15,2,1
503,82,15,2,1
504,82,15,2,1
505,82,15,2,1
506,82,15,2,1
507,82,15,2,1
508,82,15,2,1
509,82,15,2,1
510,82,15,2,1
511,82,15,2,1
512,82,15,2,1
513,82,15,2,1
514,82,15,2,1
515,82,15,2,1
516,82,15,2,1
517,82,15,2,1
518,82,15,2,1
519,82,15,2,1
520,82,15,2,1
521,81,16,2,1
522,81,16,2,1
523,81,16,2,1
524,81,16,2,1
525,81,16,2,1
526,81,16,2,1
527,80,17,2,1
528,80,17,2,1
529,80,17,2,1
530,80,17,2,1
531,80,17,2,1
532,80,17,2,1
533,80,17,2,1
534,80,17,2,1
535,80,17,2,1
536,80,17,2,1
537,80,17,2,1
538,80,17,2,1
539,80,17,2,1
540,80,17,2,1
541,80,17,2,1
542,80,17,2,1
543,80,17,2,1
544,80,17,2,1
545,80,17,2,1
546,80,17,2,1
547,80,17,2,1
548,80,17,2,1
549,80,17,2,1
550,80,17,2,1
551,80,17,2,1
552,80,17,2,1
553,80,17,2,1
554,80,16,3,1
555,80,16,3,1
556,80,16,3,1
557,80,16,3,1
558,80,16,3,1
559,80,16,3,1
560,79,17,3,1
561,79,17,3,1
562,78,18,3,1
563,78,18,3,1
564,78,18,3,1
565,78,18,3,1
566,78,18,3,1
567,78,18,3,1
568,78,18,3,1
569,78,18,3,1
570,78,18,3,1
571,78,18,3,1
572,78,18,3,1
573,78,18,3,1
574,78,18,3,1
575,78,18,3,1
576,78,18,3,1
577,78,18,3,1
578,78,18,3,1
579,77,19,3,1
580,77,19,3,1
581,77,19,3,1
582,77,19,3,1
583,77,19,3,1
584,77,19,3,1
585,77,19,3,1
586,77,19,3,1
587,77,19,3,1
588,77,19,3,1
589,77,19,3,1
590,77,19,3,1
591,77,19,3,1
592,77,19,3,1
593,77,19,3,1
594,77,19,3,1
595,77,19,3,1
596,77,19,3,1
597,77,19,3,1
598,77,19,3,1
599,77,19,3,1
600,77,19,3,1
601,77,19,3,1
602,77,19,3,1
603,77,19,3,1
604,77,19,3,1
605,77,19,3,1
606,77,19,2,2
607,77,19,2,2
608,77,19,2,2
609,77,19,2,2
610,77,19,2,2
611,77,19,1,3
612,77,17,3,3
613,77,15,5,3
614,77,13,7,3
615,77,13,7,3
616,77,12,8,3
617,77,11,9,3
618,77,10,10,3
619,77,10,10,3
620,77,10,10,3
621,77,10,10,3
622,76,11,10,3
623,76,11,10,3
624,76,11,10,3
625,76,11,10,3
626,76,11,10,3
627,76,11,10,3
628,76,11,10,3
629,76,11,10,3
630,76,11,10,3
631,76,11,10,3
632,76,11,10,3
633,75,11,11,3
634,75,11,11,3
635,75,10,12,3
636,75,10,12,3
637,73,12,12,3
638,73,12,12,3
639,73,12,12,3
640,73,12,12,3
641,73,12,12,3
642,73,12,12,3
643,73,11,13,3
644,73,11,13,3
645,72,12,13,3
646,72,12,13,3
647,72,12,13,3
648,72,12,13,3
649,72,12,13,3
650,72,12,13,3
651,72,12,13,3
652,72,12,13,3
653,72,12,13,3
654,72,12,13,3
655,72,12,13,3
656,71,13,13,3
657,71,13,13,3
658,71,13,13,3
659,71,13,13,3
660,71,13,13,3
661,70,14,13,3
662,70,13,14,3
663,70,13,14,3
664,70,13,14,3
665,69,14,14,3
666,69,14,14,3
667,69,14,14,3
668,69,14,14,3
669,69,14,14,3
670,69,14,14,3
671,69,14,14,3
672,69,14,14,3
673,69,14,14,3
674,69,14,14,3
675,68,15,14,3
676,68,15,14,3
677,68,15,14,3
678,68,15,14,3
679,68,15,14,3
680,68,15,14,3
681,68,15,14,3
682,68,15,14,3
683,68,14,15,3
684,68,14,15,3
685,68,14,15,3
686,68,14,15,3
687,68,14,15,3
688,68,14,15,3
689,68,14,15,3
690,68,14,15,3
691,68,14,15,3
692,68,14,15,3
693,68,14,15,3
694,68,14,15,3
695,68,14,15,3
696,68,14,15,3
697,68,14,15,3
698,68,14,15,3
699,68,14,15,3
700,68,14,15,3
701,68,14,15,3
702,68,14,15,3
703,68,14,15,3
704,68,14,15,3
705,68,14,15,3
706,68,14,15,3
707,68,14,15,3
708,68,14,15,3
709,68,14,15,3
710,68,14,15,3
711,68,14,15,3
712,68,14,15,3
713,68,14,15,3
714,68,14,15,3
715,68,14,15,3
716,68,14,15,3
717,68,14,15,3
718,68,14,15,3
719,68,14,15,3
720,68,14,15,3
721,67,15,15,3
722,67,14,16,3
723,67,14,16,3
724,67,14,16,3
725,67,14,16,3
726,67,14,16,3
727,67,14,16,3
728,67,13,17,3
729,67,13,17,3
730,67,13,17,3
731,67,13,17,3
732,67,13,17,3
733,67,13,17,3
734,67,13,17,3
735,67,13,17,3
736,67,13,17,3
737,67,13,17,3
738,66,14,17,3
739,66,14,17,3
740,66,14,17,3
741,66,14,17,3
742,66,14,17,3
743,66,14,17,3
744,66,14,17,3
745,66,14,17,3
746,66,14,17,3
747,66,14,17,3
748,66,14,17,3
749,66,14,17,3
750,66,14,17,3
751,66,14,17,3
752,66,14,17,3
753,66,14,17,3
754,66,14,17,3
755,66,14,16,4
756,66,14,16,4
757,66,14,16,4
758,66,14,16,4
759,66,14,16,4
760,65,15,16,4
761,65,14,17,4
762,65,14,17,4
763,64,14,18,4
764,63,15,18,4
765,63,15,18,4
766,61,17,18,4
767,61,17,18,4
768,60,18,18,4
769,60,18,18,4
770,59,19,18,4
771,58,20,18,4
772,58,20,18,4
773,58,20,18,4
774,58,20,18,4
775,57,21,18,4
776,56,22,18,4
777,56,22,18,4
778,56,22,18,4
779,56,22,18,4
780,56,21,19,4
781,56,21,19,4
782,56,21,19,4
783,56,21,19,4
784,56,21,19,4
785,56,21,19,4
786,56,21,19,4
787,56,21,19,4
788,56,21,19,4
789,56,21,19,4
790,56,21,19,4
791,56,21,19,4
792,56,21,19,4
793,56,21,19,4
794,56,21,19,4
795,56,21,19,4
796,56,21,19,4
797,56,21,19,4
798,56,21,19,4
799,55,22,19,4
800,55,22,19,4
801,55,22,19,4
802,55,22,19,4
803,55,22,19,4
804,54,23,19,4
805,54,23,19,4
806,53,24,19,4
807,53,24,19,4
808,53,24,19,4
809,53,24,19,4
810,53,24,19,4
811,53,24,19,4
812,53,24,19,4
813,53,24,17,6
814,53,24,15,8
815,53,24,13,10
816,53,24,13,10
817,53,24,12,11
818,53,24,11,12
819,53,24,10,13
820,53,24,10,13
821,53,24,10,13
822,53,24,10,13
823,53,23,11,13
824,53,23,11,13
825,53,23,11,13
826,53,23,11,13
827,53,23,11,13
828,53,23,11,13
829,53,23,11,13
830,53,23,11,13
831,53,23,11,13
832,53,23,11,13
833,53,23,11,13
834,53,22,11,14
835,53,22,11,14
836,53,22,10,15
837,53,22,10,15
838,52,21,12,15
839,52,21,12,15
840,52,21,12,15
841,52,21,12,15
842,52,21,12,15
843,52,21,12,15
844,52,21,11,16
845,52,21,11,16
846,52,20,12,16
847,52,20,12,16
848,52,20,12,16
849,52,20,12,16
850,51,21,12,16
851,51,21,12,16
852,51,21,12,16
853,51,21,12,16
854,51,21,12,16
855,51,21,12,16
856,51,21,12,16
857,50,21,13,16
858,50,21,13,16
859,50,21,13,16
860,50,21,13,16
861,50,21,13,16
862,50,20,14,16
863,50,20,13,17
864,50,20,13,17
865,48,22,13,17
866,48,21,14,17
867,47,22,14,17
868,44,25,14,17
869,44,25,14,17
870,43,26,14,17
871,43,26,14,17
872,43,26,14,17
873,41,28,14,17
874,40,29,14,17
875,40,29,14,17
876,40,28,15,17
877,40,28,15,17
878,40,28,15,17
879,40,28,15,17
880,40,28,15,17
881,40,28,15,17
882,39,29,15,17
883,39,29,15,17
884,39,29,14,18
885,39,29,14,18
886,39,29,14,18
887,39,29,14,18
888,39,29,14,18
889,39,29,14,18
890,39,29,14,18
891,39,29,14,18
892,39,29,14,18
893,39,29,14,18
894,39,29,14,18
895,39,29,14,18
896,39,29,14,18
897,39,29,14,18
898,38,30,14,18
899,38,30,14,18
900,38,30,14,18
901,38,30,14,18
902,38,30,14,18
903,38,30,14,18
904,38,30,14,18
905,38,30,14,18
906,38,30,14,18
907,38,30,14,18
908,38,30,14,18
909,38,30,14,18
910,38,30,14,18
911,38,30,14,18
912,38,30,14,18
913,38,30,14,18
914,38,30,14,18
915,38,30,14,18
916,38,30,14,18
917,38,30,14,18
918,38,30,14,18
919,38,30,14,18
920,38,30,14,18
921,38,30,14,18
922,38,29,15,18
923,38,29,14,19
924,38,29,14,19
925,38,29,14,19
926,38,29,14,19
927,38,29,14,19
928,38,29,14,19
929,38,29,13,20
930,38,29,13,20
931,38,29,13,20
932,38,29,13,20
933,38,29,13,20
934,38,29,13,20
935,38,29,13,20
936,38,29,13,20
937,38,29,13,20
938,38,29,13,20
939,38,28,14,20
940,37,29,14,20
941,37,29,14,20
942,37,29,14,20
943,37,29,14,20
944,37,29,14,20
945,37,29,14,20
946,37,29,14,20
947,37,29,14,20
948,37,29,14,20
949,37,29,14,20
950,37,29,14,20
951,37,29,14,20
952,36,30,14,20
953,36,30,14,20
954,36,30,14,20
955,36,30,14,20
956,36,30,14,20
957,36,30,14,20
958,36,30,14,20
959,36,30,14,20
960,36,30,14,20
961,36,29,15,20
962,36,29,14,21
963,36,29,14,21
964,36,28,14,22
965,35,28,15,22
966,34,29,15,22
967,33,28,17,22
968,33,28,17,22
969,32,28,18,22
970,32,28,18,22
971,30,29,19,22
972,30,28,20,22
973,30,28,20,22
974,30,28,20,22
975,30,28,20,22
976,30,27,21,22
977,30,26,22,22
978,30,26,22,22
979,30,26,22,22
980,30,26,22,22
981,30,26,21,23
982,30,26,21,23
983,30,26,21,23
984,30,26,21,23
985,29,27,21,23
986,29,27,21,23
987,29,27,21,23
988,29,27,21,23
989,29,27,21,23
990,27,29,21,23
991,27,29,21,23
992,27,29,21,23
993,27,29,21,23
994,27,29,21,23
995,27,29,21,23
996,27,29,21,23
997,27,29,21,23
998,27,29,21,23
999,27,29,21,23
1000,27,28,22,23
1001,27,28,22,23
1002,27,28,22,23
1003,27,28,22,23
1004,27,28,22,23
1005,26,28,23,23
1006,26,28,23,23
1007,26,27,24,23
1008,26,27,24,23
1009,26,27,24,23
1010,26,27,24,23
1011,26,27,24,23
1012,26,27,24,23
1013,26,27,24,23
1014,26,27,24,23
1015,26,27,24,23
1016,26,27,24,23
1017,26,27,24,23
1018,26,27,24,23
1019,25,28,24,23
1020,25,28,24,23
1021,25,28,24,23
1022,24,29,24,23
1023,24,29,24,23
1024,24,29,23,24
1025,24,29,23,24
1026,24,29,23,24
1027,24,29,23,24
1028,24,29,23,24
1029,24,29,23,24
1030,24,29,23,24
1031,24,29,23,24
1032,24,29,23,24
1033,24,29,23,24
1034,24,29,23,24
1035,24,29,22,25
1036,24,29,22,25
1037,24,29,22,25
1038,24,29,22,25
1039,24,28,21,27
1040,24,28,21,27
1041,24,28,21,27
1042,24,28,21,27
1043,24,28,21,27
1044,24,28,21,27
1045,23,29,21,27
1046,23,29,21,27
1047,23,29,20,28
1048,23,29,20,28
1049,23,29,20,28
1050,23,29,20,28
1051,23,28,21,28
1052,23,28,21,28
1053,23,28,21,28
1054,23,28,21,28
1055,23,28,21,28
1056,23,28,21,28
1057,23,28,21,28
1058,23,27,21,29
1059,23,27,21,29
1060,23,27,21,29
1061,23,27,21,29
1062,23,27,21,29
1063,23,27,20,30
1064,23,27,20,30
1065,23,27,20,30
1066,22,26,22,30
1067,22,26,21,31
1068,22,25,22,31
1069,22,22,25,31
1070,22,22,25,31
1071,22,21,26,31
1072,21,22,26,31
1073,21,22,26,31
1074,21,20,28,31
1075,21,19,29,31
1076,21,19,29,31
1077,21,19,28,32
1078,21,19,28,32
1079,21,19,28,32
1080,21,19,28,32
1081,21,19,28,32
1082,21,19,28,32
1083,21,18,29,32
1084,21,18,29,32
1085,21,18,29,32
1086,21,18,29,32
1087,21,18,29,32
1088,21,18,29,32
1089,21,18,29,32
1090,21,18,29,32
1091,21,18,29,32
1092,21,18,29,32
1093,21,18,29,32
1094,21,18,29,32
1095,21,18,29,32
1096,21,18,29,32
1097,21,18,29,32
1098,21,18,29,32
1099,21,17,30,32
1100,21,17,30,32
1101,21,17,30,32
1102,20,18,30,32
1103,20,18,30,32
1104,20,18,30,32
1105,19,19,30,32
1106,19,19,30,32
1107,19,19,30,32
1108,19,19,30,32
1109,19,19,30,32
1110,19,19,30,32
1111,19,19,30,32
1112,19,19,30,32
1113,19,19,30,32
1114,19,19,30,32
1115,19,19,30,32
1116,19,19,30,32
1117,19,19,30,32
1118,19,19,30,32
1119,19,19,30,32
1120,19,19,30,32
1121,19,19,30,32
1122,19,19,30,32
1123,19,19,29,33
1124,18,20,29,33
1125,18,20,29,33
1126,18,20,29,33
1127,17,21,29,33
1128,17,21,29,33
1129,17,21,29,33
1130,17,21,29,33
1131,17,21,29,33
1132,17,21,29,33
1133,17,21,29,33
1134,17,21,29,33
1135,17,21,29,33
1136,17,21,29,33
1137,17,21,29,33
1138,17,21,29,33
1139,17,21,29,33
1140,16,22,28,34
1141,16,21,29,34
1142,16,21,29,34
1143,16,21,29,34
1144,16,21,29,34
1145,16,21,29,34
1146,16,21,29,34
1147,16,21,29,34
1148,16,21,29,34
1149,16,21,29,34
1150,16,21,29,34
1151,16,21,29,34
1152,16,21,29,34
1153,16,20,30,34
1154,16,20,30,34
1155,16,20,30,34
1156,16,20,30,34
1157,15,21,30,34
1158,15,21,30,34
1159,15,21,30,34
1160,15,21,30,34
1161,15,21,30,34
1162,15,21,29,35
1163,15,21,29,35
1164,15,21,29,35
1165,15,21,28,36
1166,15,20,28,37
1167,15,19,29,37
1168,15,18,28,39
1169,15,18,28,39
1170,15,17,28,40
1171,15,17,28,40
1172,15,15,29,41
1173,15,15,28,42
1174,15,15,28,42
1175,15,15,28,42
1176,15,15,28,42
1177,15,15,27,43
1178,15,15,26,44
1179,15,15,26,44
1180,15,15,26,44
1181,15,15,26,44
1182,15,15,26,44
1183,15,15,26,44
1184,15,15,26,44
1185,15,15,26,44
1186,15,14,27,44
1187,15,14,27,44
1188,15,14,27,44
1189,15,14,27,44
1190,15,14,27,44
1191,15,12,29,44
1192,15,12,29,44
1193,15,12,29,44
1194,15,12,29,44
1195,15,12,29,44
1196,15,12,29,44
1197,15,12,29,44
1198,15,12,29,44
1199,15,12,29,44
1200,15,12,29,44
1201,15,12,28,45
1202,15,12,28,45
1203,15,12,28,45
1204,15,12,28,45
1205,15,12,28,45
1206,15,11,28,46
1207,15,11,28,46
1208,15,11,27,47
1209,15,11,27,47
1210,15,11,27,47
1211,15,11,27,47
1212,15,11,27,47
1213,15,11,27,47
1214,15,11,27,47
1215,15,11,27,47
1216,14,12,27,47
1217,14,12,27,47
1218,14,12,27,47
1219,14,12,27,47
1220,14,11,28,47
1221,14,11,28,47
1222,14,11,28,47
1223,14,10,29,47
1224,14,10,29,47
1225,14,10,29,47
1226,13,11,29,47
1227,13,11,29,47
1228,13,11,29,47
1229,13,11,29,47
1230,13,11,29,47
1231,13,11,29,47
1232,13,11,29,47
1233,13,11,29,47
1234,13,11,29,47
1235,13,11,29,47
1236,13,11,29,47
1237,13,11,29,47
1238,13,11,29,47
1239,13,11,29,47
1240,13,11,28,48
1241,13,11,28,48
1242,13,11,28,48
1243,13,11,28,48
1244,13,11,28,48
1245,13,11,28,48
1246,13,10,29,48
1247,13,10,29,48
1248,13,10,29,48
1249,13,10,29,48
1250,13,10,29,48
1251,13,10,29,48
1252,13,10,28,49
1253,13,10,28,49
1254,13,10,28,49
1255,13,10,28,49
1256,13,10,28,49
1257,13,10,28,49
1258,13,10,28,49
1259,13,10,27,50
1260,13,10,27,50
1261,12,11,27,50
1262,12,11,27,50
1263,12,11,27,50
1264,12,11,27,50
1265,12,11,27,50
1266,12,11,27,50
1267,12,10,26,52
1268,12,10,26,52
1269,11,11,25,53
1270,11,11,22,56
1271,11,11,22,56
1272,11,11,21,57
1273,11,10,22,57
1274,11,10,22,57
1275,11,10,20,59
1276,11,10,19,60
1277,11,10,19,60
1278,11,10,19,60
1279,11,10,19,60
1280,11,10,19,60
1281,11,10,19,60
1282,11,10,19,60
1283,11,10,19,60
1284,11,10,18,61
1285,11,10,18,61
1286,11,10,18,61
1287,11,10,18,61
1288,11,10,18,61
1289,11,10,18,61
1290,11,10,18,61
1291,11,10,18,61
1292,11,10,18,61
1293,11,10,18,61
1294,11,10,18,61
1295,11,10,18,61
1296,11,10,18,61
1297,11,10,18,61
1298,11,10,18,61
1299,11,10,18,61
1300,11,10,17,62
1301,11,10,17,62
1302,11,10,17,62
1303,11,9,18,62
1304,11,9,18,62
1305,11,9,18,62
1306,11,8,19,62
1307,10,9,19,62
1308,10,9,19,62
1309,10,9,19,62
1310,10,9,19,62
1311,10,9,19,62
1312,10,9,19,62
1313,10,9,19,62
1314,10,9,19,62
1315,10,9,19,62
1316,10,9,19,62
1317,10,9,19,62
1318,10,9,19,62
1319,10,9,19,62
1320,10,9,19,62
1321,10,9,19,62
1322,10,9,19,62
1323,10,9,19,62
1324,10,9,19,62
1325,10,8,20,62
1326,10,8,20,62
1327,10,8,20,62
1328,9,8,21,62
1329,9,8,21,62
1330,9,8,21,62
1331,9,8,21,62
1332,9,8,21,62
1333,9,8,21,62
1334,9,8,21,62
1335,9,8,21,62
1336,9,8,21,62
1337,9,8,21,62
1338,9,8,21,62
1339,9,8,21,62
1340,9,8,21,62
1341,9,7,22,62
1342,9,7,21,63
1343,9,7,21,63
1344,9,7,21,63
1345,9,7,21,63
1346,9,7,21,63
1347,9,7,21,63
1348,9,7,21,63
1349,9,7,21,63
1350,9,7,21,63
1351,9,7,21,63
1352,9,7,21,63
1353,9,7,21,63
1354,9,7,20,64
1355,9,7,20,64
1356,9,7,20,64
1357,9,7,20,64
1358,9,6,21,64
1359,9,6,21,64
1360,9,6,21,64
1361,9,6,21,64
1362,9,6,21,64
1363,9,6,21,64
1364,9,6,21,64
1365,9,6,21,64
1366,9,6,21,64
1367,9,6,20,65
1368,9,6,19,66
1369,9,6,18,67
1370,9,6,18,67
1371,9,6,17,68
1372,8,7,17,68
1373,7,8,15,70
1374,7,8,15,70
1375,7,8,15,70
1376,7,8,15,70
1377,7,8,15,70
1378,7,8,15,70
1379,7,8,15,70
1380,7,8,15,70
1381,7,8,15,70
1382,7,8,15,70
1383,7,8,15,70
1384,7,8,15,70
1385,7,8,15,70
1386,7,8,15,70
1387,7,8,14,71
1388,7,8,14,71
1389,7,8,14,71
1390,7,8,14,71
1391,7,8,14,71
1392,7,8,12,73
1393,7,8,12,73
1394,7,8,12,73
1395,7,8,12,73
1396,7,8,12,73
1397,7,8,12,73
1398,7,8,12,73
1399,7,8,12,73
1400,7,8,12,73
1401,7,8,12,73
1402,7,8,12,73
1403,7,8,12,73
1404,7,8,12,73
1405,7,8,12,73
1406,7,8,12,73
1407,7,8,11,74
1408,7,8,11,74
1409,7,8,11,74
1410,7,8,11,74
1411,7,8,11,74
1412,7,8,11,74
1413,7,8,11,74
1414,7,8,11,74
1415,7,8,11,74
1416,7,8,11,74
1417,7,7,12,74
1418,7,7,12,74
1419,7,7,12,74
1420,7,7,12,74
1421,7,7,11,75
1422,7,7,11,75
1423,7,7,11,75
1424,7,7,10,76
1425,7,7,10,76
1426,7,7,10,76
1427,7,6,11,76
1428,7,6,11,76
1429,7,6,11,76
1430,7,6,11,76
1431,7,6,11,76
1432,6,7,11,76
1433,6,7,11,76
1434,6,7,11,76
1435,6,7,11,76
1436,6,7,11,76
1437,6,7,11,76
1438,6,7,11,76
1439,6,7,11,76
1440,6,7,11,76
1441,6,7,11,76
1442,6,7,11,76
1443,6,7,11,76
1444,6,7,11,76
1445,6,7,11,76
1446,6,7,11,76
1447,6,7,10,77
1448,6,7,10,77
1449,6,7,10,77
1450,6,7,10,77
1451,6,7,10,77
1452,6,7,10,77
1453,6,7,10,77
1454,6,7,10,77
1455,5,8,10,77
1456,5,8,10,77
1457,5,8,10,77
1458,5,8,10,77
1459,5,8,10,77
1460,5,8,10,77
1461,5,8,10,77
1462,5,7,11,77
1463,5,7,11,77
1464,5,7,11,77
1465,5,7,11,77
1466,5,7,11,77
1467,5,7,11,77
1468,5,7,10,78
1469,5,7,10,78
1470,5,6,11,78
1471,5,6,11,78
1472,5,6,11,78
1473,5,6,11,78
1474,5,6,10,79
1475,5,6,10,79
1476,5,6,10,79
1477,5,6,10,79
1478,5,6,10,79
1479,5,6,10,79
1480,5,6,10,79
1481,5,6,10,79
1482,5,6,10,79
1483,5,6,10,79
1484,5,6,10,79
1485,5,6,10,79
1486,5,6,10,79
1487,5,6,10,79
1488,5,6,10,79
1489,5,6,10,79
1490,5,6,10,79
1491,5,6,10,79
1492,5,6,10,79
1493,5,6,10,79
1494,5,6,10,79
1495,5,6,10,79
1496,5,6,10,79
1497,5,6,10,79
1498,5,6,10,79
1499,5,6,10,79
1500,5,6,10,79
1501,5,6,10,79
1502,5,6,10,79
1503,5,6,10,79
1504,5,6,9,80
1505,5,6,9,80
1506,5,6,9,80
1507,5,6,8,81
1508,5,5,9,81
1509,5,5,9,81
1510,5,5,9,81
1511,5,5,9,81
1512,5,5,9,81
1513,5,5,9,81
1514,5,5,9,81
1515,5,5,9,81
1516,5,5,9,81
1517,5,5,9,81
1518,5,5,9,81
1519,5,5,9,81
1520,5,5,9,81
1521,5,5,9,81
1522,5,5,9,81
1523,5,5,9,81
1524,5,5,9,81
1525,5,5,9,81
1526,5,5,8,82
1527,5,5,8,82
1528,5,5,8,82
1529,5,4,8,83
1530,5,4,8,83
1531,5,4,8,83
1532,5,4,8,83
1533,5,4,8,83
1534,5,4,8,83
1535,5,4,8,83
1536,5,4,8,83
1537,5,4,8,83
1538,5,4,8,83
1539,5,4,8,83
1540,5,4,8,83
1541,5,4,8,83
1542,5,4,7,84
1543,5,4,7,84
1544,5,4,7,84
1545,5,4,7,84
1546,5,4,7,84
1547,5,4,7,84
1548,5,4,7,84
1549,5,4,7,84
1550,5,4,7,84
1551,5,4,7,84
1552,5,4,7,84
1553,5,4,7,84
1554,5,4,7,84
1555,5,4,7,84
1556,5,4,7,84
1557,5,4,7,84
1558,5,4,7,84
1559,5,4,6,85
1560,5,4,6,85
1561,5,4,6,85
1562,5,4,6,85
1563,5,4,6,85
1564,5,4,6,85
1565,5,4,6,85
1566,5,4,6,85
1567,5,4,6,85
1568,5,4,6,85
1569,5,4,6,85
1570,5,4,6,85
1571,5,4,6,85
1572,5,4,6,85
1573,5,3,7,85
1574,5,2,8,85
1575,5,2,8,85
1576,5,2,8,85
1577,5,2,8,85
1578,5,2,8,85
1579,5,2,8,85
1580,5,2,8,85
1581,5,2,8,85
1582,5,2,8,85
1583,5,2,8,85
1584,5,2,8,85
1585,5,2,8,85
1586,5,2,8,85
1587,5,2,8,85
1588,5,2,8,85
1589,5,2,8,85
1590,5,2,8,85
1591,5,2,8,85
1592,5,2,8,85
1593,5,2,8,85
1594,5,2,8,85
1595,5,2,8,85
1596,5,2,8,85
1597,5,2,8,85
1598,5,2,8,85
1599,5,2,8,85
1600,5,2,8,85
1601,5,2,8,85
1602,5,2,8,85
1603,5,2,8,85
1604,5,2,8,85
1605,5,2,8,85
1606,5,2,8,85
1607,5,2,8,85
1608,5,2,8,85
1609,5,2,8,85
1610,5,2,8,85
1611,5,2,8,85
1612,5,2,8,85
1613,5,2,8,85
1614,5,2,8,85
1615,5,2,8,85
1616,5,2,8,85
1617,4,3,8,85
1618,4,3,7,86
1619,4,3,7,86
1620,4,3,7,86
1621,4,3,7,86
1622,4,3,7,86
1623,4,3,7,86
1624,4,3,7,86
1625,4,3,7,86
1626,4,3,7,86
1627,4,3,7,86
1628,4,3,6,87
1629,4,3,6,87
1630,4,3,6,87
1631,4,3,6,87
1632,4,3,6,87
1633,4,2,7,87
1634,4,2,7,87
1635,4,2,7,87
1636,4,2,7,87
1637,4,2,7,87
1638,4,2,7,87
1639,4,2,7,87
1640,4,2,7,87
1641,4,2,7,87
1642,4,2,7,87
1643,4,2,7,87
1644,4,2,7,87
1645,4,2,7,87
1646,4,2,7,87
1647,4,2,7,87
1648,4,2,7,87
1649,4,2,7,87
1650,4,2,7,87
1651,4,2,7,87
1652,4,2,7,87
1653,4,2,7,87
1654,4,2,7,87
1655,4,2,7,87
1656,4,1,8,87
1657,4,1,8,87
1658,4,1,8,87
1659,4,1,8,87
1660,4,1,8,87
1661,4,1,8,87
1662,4,1,8,87
1663,4,1,7,88
1664,4,1,7,88
1665,4,1,7,88
1666,4,1,7,88
1667,4,1,7,88
1668,4,1,7,88
1669,4,1,7,88
1670,4,1,7,88
1671,4,1,6,89
1672,4,1,6,89
1673,4,1,6,89
1674,4,1,6,89
1675,4,1,6,89
1676,4,1,6,89
1677,4,1,6,89
1678,4,1,6,89
1679,4,1,6,89
1680,4,1,6,89
1681,4,1,6,89
1682,4,1,6,89
1683,4,1,6,89
1684,4,1,6,89
1685,4,1,6,89
1686,4,1,6,89
1687,4,1,6,89
1688,4,1,6,89
1689,4,1,6,89
1690,4,1,6,89
1691,4,1,6,89
1692,4,1,6,89
1693,4,1,6,89
1694,4,1,6,89
1695,4,1,6,89
1696,4,1,6,89
1697,4,1,6,89
1698,4,1,6,89
1699,4,1,6,89
1700,4,1,6,89
1701,4,1,6,89
1702,4,1,6,89
1703,4,1,6,89
1704,4,1,6,89
1705,4,1,6,89
1706,4,1,6,89
1707,4,1,6,89
1708,4,1,6,89
1709,4,1,5,90
1710,4,1,5,90
1711,4,1,5,90
1712,4,1,5,90
1713,4,1,5,90
1714,4,1,5,90
1715,4,1,5,90
1716,4,1,5,90
1717,4,1,5,90
1718,4,1,5,90
1719,4,1,5,90
1720,4,1,5,90
1721,4,1,5,90
1722,4,1,5,90
1723,4,1,5,90
1724,4,1,5,90
1725,4,1,5,90
1726,4,1,5,90
1727,4,1,5,90
1728,4,1,5,90
1729,4,1,5,90
1730,4,1,4,91
1731,4,1,4,91
1732,4,1,4,91
1733,4,1,4,91
1734,4,1,4,91
1735,4,1,4,91
1736,4,1,4,91
1737,4,1,4,91
1738,4,1,4,91
1739,4,1,4,91
1740,4,1,4,91
1741,4,1,4,91
1742,4,1,4,91
1743,4,1,4,91
1744,4,1,4,91
1745,4,1,4,91
1746,4,1,4,91
1747,4,1,4,91
1748,4,1,4,91
1749,4,1,4,91
1750,4,1,4,91
1751,4,1,4,91
1752,4,1,4,91
1753,4,1,4,91
1754,4,1,4,91
1755,4,1,4,91
1756,4,1,4,91
1757,4,1,4,91
1758,4,1,4,91
1759,4,1,4,91
1760,4,1,4,91
1761,4,1,4,91
1762,4,1,4,91
1763,4,1,4,91
1764,4,1,4,91
1765,4,1,4,91
1766,4,1,4,91
1767,4,1,4,91
1768,4,1,4,91
1769,4,1,4,91
1770,4,1,4,91
1771,4,1,4,91
1772,4,1,4,91
1773,4,1,4,91
1774,4,1,3,92
1775,4,1,2,93
1776,4,1,2,93
1777,4,1,2,93
1778,4,1,2,93
1779,4,1,2,93
1780,4,1,2,93
1781,4,1,2,93
1782,4,1,2,93
1783,4,1,2,93
1784,4,1,2,93
1785,4,1,2,93
1786,4,1,2,93
1787,4,1,2,93
1788,4,1,2,93
1789,4,1,2,93
1790,4,1,2,93
1791,4,1,2,93
1792,4,1,2,93
1793,4,1,2,93
1794,4,1,2,93
1795,4,1,2,93
1796,4,1,2,93
1797,4,1,2,93
1798,4,1,2,93
1799,4,1,2,93
1800,4,1,2,93
1801,4,1,2,93
1802,4,1,2,93
1803,4,1,2,93
1804,4,1,2,93
1805,4,1,2,93
1806,4,1,2,93
1807,4,1,2,93
1808,4,1,2,93
1809,4,1,2,93
1810,4,1,2,93
1811,4,1,2,93
1812,4,1,2,93
1813,4,1,2,93
1814,4,1,2,93
1815,4,1,2,93
1816,4,1,2,93
1817,4,1,2,93
1818,4,0,3,93
1819,4,0,3,93
1820,4,0,3,93
1821,4,0,3,93
1822,4,0,3,93
1823,4,0,3,93
1824,4,0,3,93
1825,4,0,3,93
1826,4,0,3,93
1827,4,0,3,93
1828,4,0,3,93
1829,4,0,3,93
1830,4,0,3,93
1831,4,0,3,93
1832,4,0,3,93
1833,4,0,3,93
1834,4,0,2,94
1835,4,0,2,94
1836,4,0,2,94
1837,4,0,2,94
1838,4,0,2,94
1839,4,0,2,94
1840,4,0,2,94
1841,4,0,2,94
1842,4,0,2,94
1843,4,0,2,94
1844,4,0,2,94
1845,4,0,2,94
1846,4,0,2,94
1847,4,0,2,94
1848,4,0,2,94
1849,4,0,2,94
1850,4,0,2,94
1851,4,0,2,94
1852,4,0,2,94
1853,4,0,2,94
1854,4,0,2,94
1855,4,0,2,94
1856,4,0,2,94
1857,4,0,1,95
1858,4,0,1,95
1859,4,0,1,95
1860,4,0,1,95
1861,4,0,1,95
1862,4,0,1,95
1863,4,0,1,95
1864,4,0,1,95
1865,4,0,1,95
1866,4,0,1,95
1867,4,0,1,95
1868,4,0,1,95
1869,4,0,1,95
1870,4,0,1,95
1871,4,0,1,95
1872,4,0,1,95
1873,4,0,1,95
1874,4,0,1,95
1875,4,0,1,95
1876,4,0,1,95
1877,4,0,1,95
1878,4,0,1,95
1879,4,0,1,95
1880,4,0,1,95
1881,4,0,1,95
1882,4,0,1,95
1883,4,0,1,95
1884,4,0,1,95
1885,4,0,1,95
1886,4,0,1,95
1887,4,0,1,95
1888,4,0,1,95
1889,4,0,1,95
1890,4,0,1,95
1891,4,0,1,95
1892,4,0,1,95
1893,4,0,1,95
1894,4,0,1,95
1895,4,0,1,95
1896,4,0,1,95
1897,4,0,1,95
1898,4,0,1,95
1899,4,0,1,95
1900,4,0,1,95
1901,4,0,1,95
1902,4,0,1,95
1903,4,0,1,95
1904,4,0,1,95
1905,4,0,1,95
1906,4,0,1,95
1907,4,0,1,95
1908,4,0,1,95
1909,4,0,1,95
1910,4,0,1,95
1911,4,0,1,95
1912,4,0,1,95
1913,4,0,1,95
1914,4,0,1,95
1915,4,0,1,95
1916,4,0,1,95
1917,4,0,1,95
1918,4,0,1,95
1919,4,0,1,95
1920,4,0,1,95
1921,4,0,1,95
1922,4,0,1,95
1923,4,0,1,95
1924,4,0,1,95
1925,4,0,1,95
1926,4,0,1,95
1927,4,0,1,95
1928,4,0,1,95
1929,4,0,1,95
1930,4,0,1,95
1931,4,0,1,95
1932,4,0,1,95
1933,4,0,1,95
1934,4,0,1,95
1935,4,0,1,95
1936,4,0,1,95
1937,4,0,1,95
1938,4,0,1,95
1939,4,0,1,95
1940,4,0,1,95
1941,4,0,1,95
1942,4,0,1,95
1943,4,0,1,95
1944,4,0,1,95
1945,4,0,1,95
1946,4,0,1,95
1947,4,0,1,95
1948,4,0,1,95
1949,4,0,1,95
1950,4,0,1,95
1951,4,0,1,95
1952,4,0,1,95
1953,4,0,1,95
1954,4,0,1,95
1955,4,0,1,95
1956,4,0,1,95
1957,4,0,1,95
1958,4,0,1,95
1959,4,0,1,95
1960,4,0,1,95
1961,4,0,1,95
1962,4,0,1,95
1963,4,0,1,95
1964,4,0,1,95
1965,4,0,1,95
1966,4,0,1,95
1967,4,0,1,95
1968,4,0,1,95
1969,4,0,1,95
1970,4,0,1,95
1971,4,0,1,95
1972,4,0,1,95
1973,4,0,1,95
1974,4,0,1,95
1975,4,0,1,95
1976,4,0,1,95
1977,4,0,1,95
1978,4,0,1,95
1979,4,0,1,95
1980,4,0,1,95
1981,4,0,1,95
1982,4,0,1,95
1983,4,0,1,95
1984,4,0,1,95
1985,4,0,1,95
1986,4,0,1,95
1987,4,0,1,95
1988,4,0,1,95
1989,4,0,1,95
1990,4,0,1,95
1991,4,0,1,95
1992,4,0,1,95
1993,4,0,1,95
1994,4,0,1,95
1995,4,0,1,95
1996,4,0,1,95
1997,4,0,1,95
1998,4,0,1,95
1999,4,0,1,95
2000,4,0,1,95
