"tick","total"
0,0
1,0
2,0
3,0
4,0
5,0
6,0
7,0
8,0
9,0
10,0
11,0
12,0
13,0
14,0
15,0
16,0
17,0
18,0
19,0
20,0
21,0
22,0
23,0
24,0
25,0
26,0
27,0
28,0
29,0
30,0
31,0
32,0
33,0
34,0
35,0
36,0
37,0
38,0
39,0
40,0
41,0
42,0
43,0
44,0
45,0
46,0
47,0
48,0
49,0
50,0
51,0
52,0
53,0
54,0
55,0
56,0
57,0
58,0
59,0
60,0
61,0
62,0
63,0
64,0
65,0
66,0
67,0
68,0
69,0
70,0
71,0
72,0
73,0
74,0
75,0
76,0
77,0
78,0
79,0
80,0
81,0
82,0
83,0
84,0
85,0
86,0
87,0
88,0
89,0
90,0
91,0
92,0
93,0
94,0
95,0
96,0
97,0
98,0
99,0
100,0
101,0
102,0
103,0
104,0
105,0
106,0
107,0
108,0
109,0
110,0
111,0
112,0
113,0
114,0
115,0
116,0
117,0
118,0
119,0
120,0
121,0
122,0
123,0
124,0
125,0
126,0
127,0
128,0
129,0
130,0
131,0
132,0
133,0
134,0
135,0
136,0
137,0
138,0
139,0
140,0
141,0
142,0
143,0
144,0
145,0
146,0
147,0
148,0
149,0
150,0
151,0
152,0
153,0
154,0
155,0
156,0
157,0
158,0
159,0
160,0
161,0
162,0
163,0
164,0
165,0
166,0
167,0
168,0
169,0
170,0
171,0
172,0
173,0
174,0
175,0
176,0
177,0
178,0
179,0
180,0
181,0
182,0
183,0
184,0
185,0
186,0
187,0
188,0
189,0
190,0
191,0
192,0
193,0
194,0
195,0
196,0
197,0
198,0
199,0
200,0
201,0
202,0
203,0
204,0
205,0
206,0
207,0
208,0
209,0
210,0
211,0
212,2
213,2
214,2
215,2
216,2
217,3
218,3
219,3
220,3
221,3
222,3
223,3
224,3
225,4
226,5
227,6
228,7
229,8
230,9
231,10
232,11
233,12
234,12
235,12
236,12
237,12
238,12
239,12
240,12
241,12
242,12
243,12
244,12
245,12
246,12
247,12
248,12
249,12
250,12
251,12
252,12
253,12
254,12
255,12
256,12
257,12
258,12
259,13
260,13
261,13
262,13
263,13
264,13
265,13
266,13
267,13
268,13
269,13
270,13
271,13
272,13
273,13
274,13
275,13
276,13
277,13
278,13
279,13
280,13
281,13
282,13
283,14
284,14
285,14
286,14
287,14
288,14
289,14
290,14
291,14
292,14
293,14
294,14
295,14
296,14
297,14
298,14
299,15
300,15
301,15
302,15
303,15
304,15
305,15
306,15
307,15
308,15
309,15
310,15
311,16
312,16
313,16
314,17
315,17
316,18
317,18
318,18
319,18
320,18
321,18
322,18
323,18
324,18
325,18
326,18
327,18
328,18
329,18
330,18
331,18
332,18
333,18
334,18
335,18
336,18
337,18
338,18
339,18
340,18
341,18
342,18
343,18
344,18
345,19
346,20
347,20
348,20
349,21
350,21
351,21
352,21
353,22
354,22
355,22
356,22
357,22
358,22
359,22
360,22
361,22
362,22
363,22
364,22
365,22
366,22
367,22
368,22
369,22
370,22
371,22
372,22
373,22
374,22
375,22
376,22
377,22
378,22
379,22
380,22
381,22
382,22
383,22
384,22
385,22
386,22
387,23
388,23
389,23
390,23
391,23
392,23
393,23
394,23
395,24
396,24
397,24
398,24
399,24
400,24
401,24
402,24
403,24
404,24
405,24
406,24
407,24
408,24
409,24
410,24
411,24
412,24
413,24
414,24
415,24
416,24
417,24
418,24
419,24
420,24
421,24
422,24
423,24
424,24
425,25
426,25
427,25
428,25
429,25
430,26
431,26
432,26
433,26
434,26
435,26
436,26
437,26
438,26
439,26
440,26
441,26
442,26
443,26
444,27
445,27
446,27
447,27
448,28
449,28
450,28
451,28
452,28
453,28
454,28
455,28
456,28
457,28
458,28
459,28
460,28
461,29
462,29
463,29
464,29
465,29
466,29
467,29
468,29
469,29
470,29
471,29
472,29
473,29
474,29
475,29
476,29
477,29
478,29
479,29
480,29
481,29
482,29
483,29
484,29
485,29
486,29
487,30
488,30
489,31
490,31
491,31
492,31
493,31
494,31
495,31
496,31
497,31
498,31
499,31
500,31
501,32
502,32
503,32
504,32
505,32
506,32
507,32
508,32
509,32
510,32
511,33
512,33
513,33
514,33
515,33
516,33
517,33
518,33
519,33
520,33
521,33
522,33
523,33
524,33
525,33
526,34
527,34
528,34
529,34
530,34
531,34
532,34
533,34
534,34
535,34
536,34
537,34
538,34
539,34
540,34
541,34
542,34
543,34
544,34
545,34
546,34
547,34
548,34
549,34
550,34
551,34
552,34
553,34
554,35
555,35
556,35
557,35
558,35
559,35
560,36
561,36
562,36
563,36
564,36
565,36
566,36
567,36
568,36
569,36
570,36
571,36
572,36
573,36
574,37
575,37
576,37
577,37
578,37
579,37
580,37
581,37
582,37
583,37
584,37
585,37
586,37
587,37
588,37
589,37
590,37
591,37
592,37
593,37
594,37
595,37
596,37
597,37
598,37
599,37
600,37
601,37
602,37
603,37
604,37
605,37
606,37
607,37
608,37
609,38
610,38
611,38
612,38
613,38
614,38
615,39
616,39
617,39
618,40
619,40
620,40
621,40
622,40
623,40
624,40
625,40
626,40
627,40
628,40
629,40
630,40
631,40
632,40
633,40
634,40
635,40
636,40
637,40
638,40
639,40
640,40
641,40
642,40
643,41
644,41
645,41
646,41
647,41
648,41
649,41
650,41
651,41
652,41
653,41
654,41
655,41
656,41
657,41
658,41
659,41
660,41
661,41
662,41
663,41
664,41
665,41
666,41
667,42
668,43
669,43
670,43
671,43
672,43
673,43
674,43
675,43
676,43
677,43
678,43
679,43
680,43
681,43
682,43
683,43
684,43
685,43
686,43
687,43
688,43
689,43
690,43
691,43
692,43
693,43
694,43
695,43
696,43
697,43
698,43
699,43
700,43
701,43
702,43
703,43
704,43
705,43
706,43
707,43
708,43
709,43
710,43
711,43
712,43
713,43
714,43
715,43
716,43
717,43
718,43
719,43
720,43
721,43
722,43
723,43
724,43
725,43
726,43
727,43
728,43
729,44
730,44
731,44
732,44
733,44
734,44
735,44
736,44
737,44
738,44
739,44
740,44
741,44
742,44
743,44
744,44
745,44
746,44
747,44
748,44
749,44
750,44
751,44
752,44
753,44
754,44
755,44
756,45
757,45
758,45
759,45
760,45
761,45
762,45
763,45
764,45
765,45
766,45
767,45
768,45
769,45
770,45
771,45
772,45
773,45
774,45
775,45
776,45
777,45
778,45
779,45
780,46
781,46
782,46
783,46
784,46
785,46
786,46
787,46
788,46
789,46
790,46
791,46
792,46
793,46
794,46
795,46
796,46
797,46
798,46
799,46
800,46
801,46
802,46
803,46
804,46
805,46
806,46
807,46
808,46
809,46
810,46
811,47
812,47
813,48
814,48
815,48
816,48
817,48
818,48
819,48
820,48
821,48
822,48
823,48
824,48
825,48
826,48
827,48
828,48
829,49
830,49
831,49
832,49
833,49
834,49
835,49
836,49
837,49
838,49
839,49
840,49
841,49
842,49
843,49
844,49
845,49
846,49
847,49
848,49
849,49
850,49
851,50
852,50
853,50
854,50
855,50
856,51
857,51
858,51
859,51
860,51
861,51
862,51
863,51
864,51
865,51
866,51
867,51
868,51
869,51
870,51
871,51
872,51
873,51
874,51
875,52
876,52
877,52
878,52
879,52
880,52
881,52
882,53
883,53
884,53
885,53
886,53
887,53
888,53
889,53
890,53
891,53
892,53
893,53
894,53
895,53
896,53
897,53
898,53
899,53
900,53
901,53
902,53
903,53
904,53
905,53
906,53
907,53
908,54
909,54
910,54
911,54
912,54
913,54
914,54
915,54
916,54
917,54
918,54
919,54
920,54
921,54
922,54
923,54
924,54
925,54
926,54
927,54
928,54
929,54
930,54
931,54
932,54
933,54
934,54
935,54
936,54
937,54
938,54
939,54
940,54
941,54
942,55
943,55
944,55
945,56
946,56
947,56
948,56
949,56
950,56
951,56
952,56
953,56
954,56
955,56
956,56
957,56
958,56
959,56
960,56
961,56
962,56
963,56
964,56
965,56
966,56
967,56
968,56
969,56
970,56
971,56
972,56
973,56
974,56
975,56
976,56
977,56
978,56
979,56
980,56
981,56
982,56
983,56
984,56
985,56
986,56
987,56
988,56
989,57
990,57
991,57
992,57
993,57
994,57
995,57
996,57
997,57
998,57
999,57
1000,57
1001,58
1002,58
1003,58
1004,58
1005,58
1006,58
1007,58
1008,58
1009,58
1010,58
1011,58
1012,58
1013,58
1014,58
1015,58
1016,58
1017,58
1018,58
1019,58
1020,58
1021,58
1022,58
1023,58
1024,58
1025,58
1026,58
1027,58
1028,58
1029,58
1030,58
1031,58
1032,58
1033,58
1034,58
1035,58
1036,58
1037,58
1038,58
1039,58
1040,58
1041,58
1042,58
1043,58
1044,58
1045,58
1046,58
1047,58
1048,58
1049,58
1050,58
1051,58
1052,58
1053,58
1054,58
1055,58
1056,58
1057,58
1058,58
1059,58
1060,58
1061,58
1062,58
1063,58
1064,58
1065,58
1066,58
1067,58
1068,58
1069,58
1070,58
1071,58
1072,58
1073,58
1074,58
1075,58
1076,58
1077,58
1078,58
1079,58
1080,58
1081,58
1082,59
1083,59
1084,59
1085,59
1086,59
1087,59
1088,59
1089,59
1090,59
1091,59
1092,59
1093,59
1094,59
1095,59
1096,59
1097,59
1098,59
1099,59
1100,59
1101,59
1102,59
1103,59
1104,59
1105,59
1106,59
1107,59
1108,59
1109,59
1110,59
1111,59
1112,59
1113,59
1114,59
1115,59
1116,59
1117,59
1118,59
1119,59
1120,59
1121,59
1122,59
1123,59
1124,59
1125,59
1126,59
1127,59
1128,59
1129,59
1130,59
1131,59
1132,59
1133,59
1134,59
1135,59
1136,59
1137,59
1138,60
1139,60
1140,60
1141,60
1142,60
1143,60
1144,60
1145,60
1146,60
1147,60
1148,60
1149,60
1150,60
1151,60
1152,60
1153,60
1154,60
1155,60
1156,60
1157,60
1158,60
1159,60
1160,60
1161,60
1162,60
1163,60
1164,60
1165,60
1166,60
1167,60
1168,60
1169,60
1170,60
1171,60
1172,60
1173,60
1174,60
1175,60
1176,60
1177,60
1178,60
1179,60
1180,60
1181,60
1182,61
1183,61
1184,61
1185,62
1186,62
1187,62
1188,62
1189,62
1190,62
1191,62
1192,62
1193,62
1194,62
1195,62
1196,62
1197,63
1198,63
1199,63
1200,63
1201,63
1202,63
1203,63
1204,63
1205,63
1206,63
1207,63
1208,63
1209,63
1210,63
1211,63
1212,63
1213,63
1214,63
1215,63
1216,63
1217,63
1218,64
1219,64
1220,64
1221,64
1222,64
1223,65
1224,65
1225,65
1226,65
1227,65
1228,65
1229,65
1230,65
1231,65
1232,65
1233,65
1234,65
1235,65
1236,65
1237,65
1238,65
1239,65
1240,65
1241,65
1242,65
1243,65
1244,65
1245,65
1246,65
1247,65
1248,65
1249,65
1250,65
1251,65
1252,65
1253,65
1254,65
1255,65
1256,65
1257,66
1258,66
1259,66
1260,66
1261,66
1262,66
1263,66
1264,66
1265,66
1266,66
1267,66
1268,66
1269,66
1270,66
1271,66
1272,66
1273,66
1274,66
1275,66
1276,66
1277,66
1278,66
1279,66
1280,66
1281,66
1282,68
1283,68
1284,68
1285,68
1286,68
1287,68
1288,68
1289,68
1290,68
1291,68
1292,68
1293,68
1294,68
1295,68
1296,68
1297,68
1298,68
1299,68
1300,68
1301,68
1302,68
1303,68
1304,68
1305,68
1306,68
1307,68
1308,68
1309,68
1310,68
1311,68
1312,68
1313,68
1314,68
1315,68
1316,68
1317,68
1318,68
1319,68
1320,68
1321,68
1322,68
1323,68
1324,68
1325,68
1326,68
1327,68
1328,68
1329,68
1330,68
1331,68
1332,68
1333,68
1334,68
1335,68
1336,68
1337,68
1338,68
1339,68
1340,68
1341,68
1342,68
1343,68
1344,68
1345,68
1346,68
1347,68
1348,68
1349,68
1350,68
1351,68
1352,68
1353,68
1354,68
1355,68
1356,68
1357,69
1358,69
1359,69
1360,69
1361,69
1362,69
1363,69
1364,69
1365,69
1366,69
1367,69
1368,69
1369,69
1370,69
1371,69
1372,69
1373,69
1374,69
1375,69
1376,69
1377,69
1378,69
1379,69
1380,69
1381,69
1382,69
1383,69
1384,69
1385,69
1386,69
1387,69
1388,69
1389,69
1390,69
1391,69
1392,69
1393,69
1394,69
1395,69
1396,69
1397,69
1398,69
1399,69
1400,69
1401,69
1402,69
1403,69
1404,69
1405,69
1406,69
1407,70
1408,70
1409,70
1410,70
1411,70
1412,70
1413,70
1414,70
1415,70
1416,70
1417,70
1418,70
1419,70
1420,70
1421,70
1422,70
1423,70
1424,70
1425,70
1426,70
1427,70
1428,70
1429,70
1430,70
1431,70
1432,70
1433,70
1434,70
1435,70
1436,70
1437,70
1438,70
1439,70
1440,70
1441,70
1442,70
1443,70
1444,70
1445,70
1446,70
1447,70
1448,70
1449,70
1450,70
1451,70
1452,70
1453,70
1454,70
1455,70
1456,70
1457,70
1458,70
1459,70
1460,70
1461,70
1462,70
1463,70
1464,70
1465,70
1466,70
1467,70
1468,70
1469,70
1470,70
1471,70
1472,70
1473,70
1474,70
1475,70
1476,70
1477,70
1478,70
1479,70
1480,70
1481,70
1482,70
1483,70
1484,70
1485,70
1486,70
1487,70
1488,70
1489,70
1490,70
1491,70
1492,70
1493,70
1494,70
1495,70
1496,70
1497,70
1498,70
1499,70
1500,70
1501,70
1502,70
1503,70
1504,70
1505,70
1506,70
1507,70
1508,70
1509,70
1510,70
1511,70
1512,70
1513,70
1514,70
1515,70
1516,70
1517,70
1518,70
1519,70
1520,70
1521,70
1522,70
1523,71
1524,72
1525,73
1526,74
1527,76
1528,77
1529,78
1530,79
1531,80
1532,81
1533,81
1534,81
1535,81
1536,81
1537,81
1538,81
1539,82
1540,82
1541,82
1542,82
1543,82
1544,82
1545,82
1546,82
1547,82
1548,82
1549,82
1550,82
1551,82
1552,82
1553,83
1554,83
1555,83
1556,83
1557,83
1558,83
1559,83
1560,83
1561,83
1562,83
1563,83
1564,83
1565,83
1566,84
1567,84
1568,84
1569,84
1570,84
1571,84
1572,84
1573,84
1574,84
1575,84
1576,84
1577,85
1578,85
1579,85
1580,85
1581,85
1582,85
1583,85
1584,85
1585,85
1586,85
1587,85
1588,85
1589,86
1590,86
1591,86
1592,86
1593,86
1594,86
1595,86
1596,86
1597,86
1598,86
1599,86
1600,86
1601,86
1602,86
1603,87
1604,87
1605,87
1606,87
1607,87
1608,87
1609,87
1610,87
1611,87
1612,87
1613,87
1614,87
1615,87
1616,87
1617,87
1618,87
1619,87
1620,87
1621,87
1622,87
1623,87
1624,87
1625,87
1626,87
1627,87
1628,88
1629,88
1630,88
1631,88
1632,88
1633,88
1634,88
1635,88
1636,88
1637,88
1638,88
1639,88
1640,88
1641,88
1642,88
1643,88
1644,88
1645,88
1646,88
1647,88
1648,88
1649,88
1650,88
1651,88
1652,89
1653,89
1654,89
1655,89
1656,89
1657,89
1658,89
1659,89
1660,89
1661,89
1662,89
1663,89
1664,89
1665,89
1666,89
1667,89
1668,90
1669,90
1670,91
1671,91
1672,91
1673,91
1674,91
1675,91
1676,91
1677,91
1678,92
1679,92
1680,92
1681,92
1682,92
1683,92
1684,92
1685,92
1686,92
1687,92
1688,92
1689,92
1690,92
1691,92
1692,92
1693,93
1694,93
1695,93
1696,94
1697,94
1698,94
1699,94
1700,94
1701,94
1702,94
1703,94
1704,94
1705,94
1706,94
1707,94
1708,94
1709,94
1710,94
1711,94
1712,94
1713,94
1714,94
1715,94
1716,94
1717,94
1718,94
1719,94
1720,94
1721,94
1722,94
1723,94
1724,94
1725,94
1726,94
1727,94
1728,94
1729,94
1730,94
1731,94
1732,94
1733,94
1734,94
1735,94
1736,94
1737,94
1738,94
1739,95
1740,95
1741,95
1742,95
1743,95
1744,95
1745,95
1746,95
1747,95
1748,95
1749,95
1750,95
1751,95
1752,95
1753,95
1754,95
1755,95
1756,95
1757,95
1758,95
1759,95
1760,95
1761,95
1762,95
1763,95
1764,95
1765,95
1766,95
1767,95
1768,95
1769,96
1770,96
1771,96
1772,96
1773,96
1774,96
1775,96
1776,96
1777,96
1778,96
1779,96
1780,96
1781,96
1782,96
1783,96
1784,96
1785,96
1786,96
1787,96
1788,96
1789,96
1790,97
1791,97
1792,97
1793,97
1794,97
1795,97
1796,97
1797,97
1798,97
1799,97
1800,97
1801,97
1802,97
1803,97
1804,97
1805,97
1806,97
1807,98
1808,98
1809,98
1810,98
1811,98
1812,98
1813,98
1814,98
1815,98
1816,98
1817,98
1818,98
1819,98
1820,98
1821,98
1822,98
1823,98
1824,98
1825,98
1826,98
1827,98
1828,98
1829,99
1830,99
1831,99
1832,100
1833,100
1834,100
1835,100
1836,100
1837,100
1838,100
1839,100
1840,100
1841,100
1842,100
1843,100
1844,100
1845,100
1846,100
1847,100
1848,100
1849,101
1850,101
1851,101
1852,101
1853,101
1854,101
1855,101
1856,101
1857,101
1858,101
1859,102
1860,102
1861,102
1862,102
1863,102
1864,102
1865,102
1866,103
1867,103
1868,103
1869,103
1870,103
1871,103
1872,103
1873,103
1874,103
1875,103
1876,103
1877,103
1878,103
1879,103
1880,103
1881,103
1882,103
1883,103
1884,103
1885,103
1886,103
1887,103
1888,103
1889,103
1890,103
1891,103
1892,103
1893,103
1894,103
1895,103
1896,103
1897,103
1898,103
1899,103
1900,104
1901,104
1902,104
1903,104
1904,104
1905,104
1906,104
1907,104
1908,104
1909,105
1910,105
1911,105
1912,105
1913,105
1914,105
1915,105
1916,106
1917,106
1918,106
1919,106
1920,106
1921,106
1922,106
1923,106
1924,106
1925,106
1926,106
1927,106
1928,106
1929,106
1930,106
1931,106
1932,106
1933,106
1934,106
1935,106
1936,106
1937,106
1938,106
1939,106
1940,106
1941,106
1942,106
1943,106
1944,106
1945,106
1946,106
1947,106
1948,106
1949,106
1950,106
1951,106
1952,106
1953,106
1954,106
1955,106
1956,106
1957,106
1958,106
1959,106
1960,106
1961,106
1962,106
1963,106
1964,106
1965,106
1966,106
1967,106
1968,106
1969,106
1970,106
1971,107
1972,107
1973,107
1974,107
1975,107
1976,107
1977,107
1978,107
1979,107
1980,107
1981,107
1982,107
1983,107
1984,107
1985,107
1986,107
1987,107
1988,107
1989,107
1990,107
1991,107
1992,107
1993,107
1994,107
1995,107
1996,107
1997,107
1998,107
1999,107
2000,107
