"tick","total"
0,0
1,0
2,0
3,0
4,0
5,0
6,0
7,0
8,0
9,0
10,0
11,0
12,0
13,0
14,0
15,0
16,0
17,0
18,0
19,0
20,0
21,0
22,0
23,0
24,0
25,0
26,0
27,0
28,0
29,0
30,0
31,0
32,0
33,0
34,0
35,0
36,0
37,0
38,0
39,0
40,0
41,0
42,0
43,0
44,0
45,0
46,0
47,0
48,0
49,0
50,0
51,0
52,0
53,0
54,0
55,0
56,0
57,0
58,0
59,0
60,0
61,0
62,0
63,0
64,0
65,0
66,0
67,0
68,0
69,0
70,0
71,0
72,0
73,0
74,0
75,0
76,0
77,0
78,0
79,0
80,0
81,0
82,0
83,0
84,0
85,0
86,0
87,0
88,0
89,0
90,0
91,0
92,0
93,0
94,0
95,0
96,0
97,0
98,0
99,0
100,0
101,0
102,0
103,0
104,0
105,0
106,0
107,0
108,0
109,0
110,0
111,0
112,0
113,0
114,0
115,0
116,0
117,0
118,0
119,0
120,0
121,0
122,0
123,0
124,0
125,0
126,0
127,0
128,0
129,0
130,0
131,0
132,0
133,0
134,0
135,0
136,0
137,0
138,0
139,0
140,0
141,0
142,0
143,0
144,0
145,0
146,0
147,0
148,0
149,0
150,0
151,0
152,0
153,0
154,0
155,0
156,0
157,0
158,0
159,0
160,0
161,0
162,0
163,0
164,0
165,0
166,0
167,0
168,0
169,0
170,0
171,0
172,0
173,0
174,0
175,0
176,0
177,0
178,0
179,0
180,0
181,0
182,0
183,0
184,0
185,0
186,0
187,0
188,0
189,0
190,0
191,0
192,0
193,0
194,0
195,0
196,0
197,0
198,0
199,0
200,0
201,0
202,0
203,0
204,0
205,0
206,0
207,0
208,0
209,0
210,0
211,0
212,0
213,0
214,0
215,0
216,0
217,0
218,0
219,0
220,0
221,0
222,0
223,0
224,0
225,0
226,0
227,0
228,0
229,0
230,0
231,0
232,0
233,0
234,0
235,0
236,0
237,0
238,0
239,0
240,0
241,0
242,0
243,0
244,0
245,0
246,0
247,0
248,0
249,0
250,0
251,0
252,0
253,0
254,0
255,0
256,0
257,0
258,0
259,0
260,0
261,0
262,1
263,1
264,1
265,1
266,2
267,2
268,2
269,2
270,2
271,3
272,3
273,3
274,3
275,4
276,4
277,4
278,4
279,4
280,4
281,6
282,7
283,7
284,7
285,7
286,7
287,7
288,7
289,8
290,8
291,8
292,8
293,8
294,8
295,8
296,8
297,8
298,8
299,10
300,10
301,10
302,10
303,10
304,10
305,12
306,12
307,13
308,13
309,13
310,13
311,13
312,13
313,13
314,13
315,13
316,13
317,13
318,13
319,13
320,13
321,13
322,13
323,13
324,13
325,13
326,13
327,13
328,13
329,14
330,15
331,15
332,15
333,15
334,16
335,16
336,16
337,16
338,16
339,17
340,18
341,18
342,19
343,19
344,19
345,19
346,19
347,19
348,19
349,19
350,19
351,19
352,19
353,20
354,20
355,20
356,20
357,20
358,20
359,21
360,21
361,21
362,21
363,21
364,21
365,21
366,21
367,21
368,21
369,21
370,21
371,21
372,21
373,21
374,22
375,23
376,23
377,23
378,23
379,23
380,23
381,23
382,23
383,24
384,25
385,25
386,25
387,26
388,26
389,26
390,26
391,26
392,26
393,26
394,26
395,26
396,26
397,26
398,26
399,26
400,27
401,27
402,27
403,27
404,27
405,27
406,27
407,28
408,28
409,28
410,28
411,28
412,28
413,28
414,28
415,28
416,28
417,29
418,29
419,29
420,29
421,29
422,30
423,30
424,30
425,30
426,30
427,31
428,31
429,31
430,31
431,31
432,31
433,31
434,31
435,31
436,31
437,31
438,31
439,31
440,31
441,31
442,31
443,31
444,31
445,31
446,31
447,31
448,31
449,31
450,31
451,31
452,31
453,31
454,31
455,31
456,31
457,31
458,31
459,31
460,31
461,31
462,31
463,31
464,31
465,31
466,31
467,31
468,31
469,31
470,31
471,31
472,31
473,31
474,31
475,31
476,31
477,31
478,31
479,31
480,31
481,31
482,31
483,31
484,31
485,31
486,31
487,31
488,31
489,31
490,31
491,31
492,31
493,31
494,31
495,31
496,31
497,31
498,31
499,31
500,31
501,31
502,31
503,31
504,31
505,31
506,31
507,31
508,31
509,31
510,31
511,31
512,31
513,31
514,31
515,31
516,31
517,31
518,31
519,31
520,31
521,31
522,31
523,31
524,31
525,31
526,31
527,31
528,31
529,31
530,31
531,31
532,31
533,31
534,32
535,32
536,32
537,32
538,32
539,32
540,32
541,32
542,32
543,32
544,32
545,32
546,32
547,32
548,32
549,32
550,32
551,32
552,32
553,32
554,32
555,32
556,32
557,32
558,32
559,32
560,33
561,33
562,33
563,33
564,34
565,34
566,34
567,34
568,35
569,35
570,35
571,35
572,35
573,36
574,36
575,36
576,36
577,37
578,38
579,38
580,38
581,38
582,38
583,38
584,38
585,38
586,38
587,38
588,38
589,38
590,38
591,38
592,38
593,38
594,38
595,39
596,39
597,39
598,39
599,39
600,39
601,41
602,41
603,41
604,41
605,41
606,41
607,41
608,41
609,41
610,41
611,41
612,41
613,41
614,41
615,41
616,41
617,41
618,42
619,42
620,42
621,42
622,42
623,42
624,42
625,42
626,42
627,42
628,42
629,42
630,42
631,42
632,42
633,42
634,42
635,42
636,42
637,42
638,42
639,42
640,42
641,42
642,42
643,42
644,42
645,42
646,42
647,42
648,42
649,42
650,42
651,43
652,43
653,43
654,43
655,43
656,43
657,43
658,43
659,43
660,43
661,43
662,43
663,43
664,43
665,43
666,43
667,44
668,44
669,44
670,45
671,45
672,45
673,45
674,45
675,45
676,45
677,45
678,45
679,45
680,45
681,45
682,45
683,46
684,46
685,46
686,46
687,46
688,46
689,46
690,46
691,46
692,46
693,46
694,46
695,46
696,46
697,46
698,46
699,46
700,47
701,47
702,47
703,47
704,47
705,47
706,48
707,49
708,49
709,49
710,49
711,49
712,49
713,49
714,49
715,49
716,49
717,49
718,49
719,49
720,49
721,49
722,50
723,50
724,50
725,50
726,50
727,50
728,50
729,50
730,50
731,50
732,50
733,50
734,50
735,50
736,50
737,50
738,50
739,50
740,51
741,51
742,51
743,51
744,51
745,51
746,51
747,51
748,51
749,51
750,51
751,51
752,51
753,51
754,51
755,51
756,51
757,51
758,51
759,51
760,51
761,51
762,51
763,51
764,53
765,53
766,53
767,53
768,53
769,53
770,53
771,53
772,53
773,53
774,53
775,53
776,53
777,53
778,53
779,53
780,53
781,53
782,53
783,54
784,54
785,54
786,54
787,54
788,54
789,54
790,54
791,54
792,54
793,54
794,54
795,54
796,54
797,54
798,54
799,54
800,54
801,54
802,54
803,54
804,54
805,54
806,54
807,54
808,54
809,54
810,54
811,54
812,54
813,54
814,54
815,54
816,54
817,54
818,54
819,54
820,54
821,54
822,54
823,54
824,54
825,54
826,54
827,54
828,54
829,54
830,54
831,54
832,54
833,54
834,54
835,54
836,54
837,54
838,54
839,54
840,54
841,54
842,54
843,54
844,54
845,54
846,54
847,54
848,54
849,54
850,54
851,54
852,54
853,54
854,54
855,54
856,54
857,54
858,54
859,54
860,55
861,55
862,55
863,55
864,55
865,55
866,55
867,55
868,55
869,55
870,55
871,55
872,55
873,55
874,55
875,55
876,55
877,55
878,55
879,55
880,55
881,55
882,55
883,55
884,55
885,55
886,55
887,55
888,55
889,55
890,55
891,55
892,55
893,55
894,55
895,55
896,55
897,55
898,55
899,55
900,55
901,55
902,55
903,56
904,56
905,56
906,56
907,56
908,56
909,56
910,56
911,56
912,56
913,56
914,56
915,56
916,56
917,56
918,56
919,56
920,57
921,57
922,57
923,57
924,57
925,57
926,57
927,57
928,57
929,57
930,57
931,57
932,57
933,57
934,57
935,57
936,57
937,57
938,57
939,57
940,57
941,57
942,57
943,57
944,57
945,57
946,57
947,57
948,57
949,57
950,59
951,59
952,59
953,59
954,59
955,59
956,59
957,59
958,59
959,59
960,59
961,59
962,59
963,59
964,59
965,59
966,59
967,59
968,59
969,59
970,59
971,59
972,59
973,59
974,59
975,59
976,59
977,59
978,59
979,59
980,59
981,59
982,59
983,59
984,59
985,59
986,59
987,59
988,59
989,59
990,59
991,59
992,59
993,59
994,59
995,59
996,59
997,59
998,60
999,60
1000,61
1001,61
1002,61
1003,61
1004,61
1005,61
1006,61
1007,61
1008,61
1009,61
1010,61
1011,61
1012,61
1013,61
1014,61
1015,61
1016,61
1017,61
1018,61
1019,61
1020,61
1021,61
1022,61
1023,61
1024,61
1025,61
1026,61
1027,61
1028,61
1029,61
1030,61
1031,61
1032,61
1033,61
1034,61
1035,61
1036,61
1037,61
1038,61
1039,61
1040,61
1041,61
1042,61
1043,61
1044,61
1045,61
1046,61
1047,61
1048,61
1049,61
1050,61
1051,61
1052,61
1053,61
1054,61
1055,61
1056,61
1057,61
1058,61
1059,61
1060,61
1061,61
1062,61
1063,61
1064,61
1065,61
1066,61
1067,61
1068,61
1069,61
1070,61
1071,61
1072,61
1073,61
1074,61
1075,61
1076,61
1077,61
1078,61
1079,61
1080,61
1081,61
1082,61
1083,61
1084,61
1085,61
1086,61
1087,61
1088,61
1089,61
1090,61
1091,61
1092,61
1093,61
1094,61
1095,61
1096,61
1097,61
1098,61
1099,61
1100,61
1101,61
1102,61
1103,61
1104,61
1105,61
1106,61
1107,61
1108,61
1109,61
1110,61
1111,61
1112,61
1113,61
1114,61
1115,61
1116,61
1117,61
1118,61
1119,61
1120,61
1121,61
1122,61
1123,61
1124,61
1125,61
1126,61
1127,61
1128,61
1129,61
1130,61
1131,61
1132,61
1133,61
1134,61
1135,61
1136,61
1137,61
1138,61
1139,61
1140,61
1141,61
1142,61
1143,61
1144,61
1145,61
1146,61
1147,61
1148,61
1149,61
1150,61
1151,62
1152,62
1153,62
1154,62
1155,62
1156,62
1157,62
1158,62
1159,62
1160,62
1161,62
1162,62
1163,62
1164,62
1165,62
1166,62
1167,62
1168,62
1169,63
1170,63
1171,63
1172,63
1173,63
1174,63
1175,63
1176,63
1177,63
1178,63
1179,63
1180,63
1181,63
1182,63
1183,63
1184,63
1185,63
1186,63
1187,63
1188,63
1189,63
1190,63
1191,63
1192,63
1193,63
1194,63
1195,63
1196,63
1197,63
1198,63
1199,63
1200,63
1201,63
1202,63
1203,63
1204,63
1205,63
1206,63
1207,63
1208,63
1209,63
1210,63
1211,63
1212,63
1213,63
1214,63
1215,63
1216,63
1217,63
1218,63
1219,63
1220,63
1221,63
1222,63
1223,63
1224,63
1225,63
1226,63
1227,63
1228,63
1229,63
1230,63
1231,63
1232,63
1233,63
1234,63
1235,63
1236,63
1237,63
1238,63
1239,63
1240,63
1241,63
1242,63
1243,63
1244,63
1245,63
1246,63
1247,63
1248,63
1249,63
1250,64
1251,64
1252,64
1253,64
1254,64
1255,64
1256,64
1257,64
1258,64
1259,64
1260,64
1261,64
1262,64
1263,64
1264,64
1265,64
1266,64
1267,64
1268,64
1269,64
1270,64
1271,64
1272,65
1273,65
1274,65
1275,65
1276,65
1277,65
1278,65
1279,65
1280,65
1281,65
1282,65
1283,65
1284,65
1285,65
1286,65
1287,65
1288,65
1289,65
1290,65
1291,66
1292,66
1293,66
1294,66
1295,66
1296,66
1297,66
1298,67
1299,67
1300,67
1301,67
1302,67
1303,67
1304,67
1305,67
1306,67
1307,68
1308,68
1309,68
1310,68
1311,68
1312,68
1313,68
1314,68
1315,69
1316,69
1317,69
1318,69
1319,69
1320,69
1321,69
1322,69
1323,69
1324,70
1325,70
1326,71
1327,71
1328,71
1329,71
1330,71
1331,71
1332,71
1333,71
1334,71
1335,71
1336,71
1337,71
1338,71
1339,71
1340,72
1341,72
1342,72
1343,72
1344,72
1345,72
1346,72
1347,72
1348,72
1349,72
1350,72
1351,72
1352,72
1353,72
1354,72
1355,72
1356,72
1357,72
1358,72
1359,72
1360,72
1361,72
1362,72
1363,72
1364,72
1365,72
1366,72
1367,72
1368,72
1369,73
1370,73
1371,73
1372,73
1373,73
1374,73
1375,73
1376,73
1377,73
1378,73
1379,73
1380,73
1381,73
1382,73
1383,73
1384,73
1385,73
1386,73
1387,73
1388,73
1389,73
1390,73
1391,73
1392,73
1393,73
1394,73
1395,73
1396,74
1397,75
1398,75
1399,75
1400,75
1401,75
1402,75
1403,75
1404,75
1405,76
1406,76
1407,76
1408,77
1409,77
1410,77
1411,77
1412,77
1413,77
1414,78
1415,78
1416,78
1417,79
1418,79
1419,80
1420,80
1421,80
1422,80
1423,80
1424,80
1425,80
1426,81
1427,81
1428,81
1429,81
1430,81
1431,81
1432,81
1433,82
1434,83
1435,83
1436,83
1437,83
1438,83
1439,83
1440,83
1441,83
1442,83
1443,83
1444,83
1445,83
1446,83
1447,83
1448,83
1449,83
1450,83
1451,84
1452,84
1453,84
1454,84
1455,84
1456,84
1457,84
1458,84
1459,84
1460,84
1461,84
1462,84
1463,84
1464,84
1465,84
1466,84
1467,84
1468,84
1469,84
1470,84
1471,84
1472,84
1473,84
1474,84
1475,84
1476,84
1477,84
1478,84
1479,84
1480,84
1481,84
1482,84
1483,84
1484,84
1485,84
1486,84
1487,84
1488,84
1489,84
1490,84
1491,84
1492,84
1493,85
1494,86
1495,86
1496,86
1497,86
1498,86
1499,86
1500,86
1501,86
1502,86
1503,86
1504,86
1505,86
1506,86
1507,86
1508,87
1509,87
1510,87
1511,87
1512,87
1513,87
1514,87
1515,87
1516,87
1517,87
1518,87
1519,87
1520,87
1521,87
1522,87
1523,87
1524,87
1525,87
1526,87
1527,87
1528,87
1529,87
1530,87
1531,87
1532,87
1533,87
1534,87
1535,87
1536,87
1537,87
1538,87
1539,87
1540,87
1541,87
1542,88
1543,88
1544,88
1545,88
1546,88
1547,88
1548,88
1549,88
1550,88
1551,88
1552,88
1553,88
1554,88
1555,88
1556,88
1557,88
1558,88
1559,88
1560,88
1561,88
1562,88
1563,88
1564,88
1565,88
1566,88
1567,88
1568,88
1569,88
1570,88
1571,88
1572,88
1573,88
1574,88
1575,88
1576,88
1577,88
1578,88
1579,88
1580,88
1581,88
1582,88
1583,88
1584,88
1585,88
1586,88
1587,88
1588,88
1589,88
1590,88
1591,88
1592,88
1593,88
1594,88
1595,88
1596,88
1597,88
1598,88
1599,88
1600,88
1601,88
1602,88
1603,88
1604,88
1605,88
1606,88
1607,88
1608,88
1609,88
1610,88
1611,88
1612,88
1613,88
1614,88
1615,88
1616,88
1617,88
1618,88
1619,88
1620,88
1621,88
1622,88
1623,88
1624,88
1625,88
1626,88
1627,88
1628,88
1629,88
1630,88
1631,88
1632,88
1633,88
1634,88
1635,88
1636,88
1637,88
1638,88
1639,88
1640,88
1641,88
1642,88
1643,88
1644,88
1645,88
1646,88
1647,88
1648,88
1649,88
1650,88
1651,88
1652,88
1653,88
1654,88
1655,88
1656,88
1657,88
1658,88
1659,88
1660,88
1661,88
1662,88
1663,88
1664,88
1665,88
1666,88
1667,89
1668,89
1669,89
1670,89
1671,89
1672,89
1673,90
1674,91
1675,91
1676,91
1677,91
1678,91
1679,91
1680,91
1681,91
1682,91
1683,91
1684,91
1685,92
1686,92
1687,92
1688,92
1689,92
1690,92
1691,92
1692,92
1693,92
1694,92
1695,92
1696,92
1697,92
1698,92
1699,92
1700,92
1701,92
1702,92
1703,92
1704,92
1705,92
1706,92
1707,92
1708,92
1709,92
1710,92
1711,92
1712,92
1713,92
1714,92
1715,92
1716,92
1717,92
1718,92
1719,92
1720,92
1721,92
1722,92
1723,92
1724,92
1725,93
1726,93
1727,93
1728,93
1729,93
1730,93
1731,93
1732,93
1733,93
1734,93
1735,93
1736,93
1737,93
1738,93
1739,93
1740,93
1741,93
1742,93
1743,93
1744,93
1745,93
1746,93
1747,93
1748,93
1749,93
1750,93
1751,93
1752,93
1753,93
1754,94
1755,94
1756,94
1757,95
1758,95
1759,95
1760,95
1761,96
1762,96
1763,96
1764,96
1765,96
1766,96
1767,96
1768,96
1769,97
1770,97
1771,97
1772,97
1773,97
1774,97
1775,97
1776,97
1777,97
1778,97
1779,97
1780,97
1781,97
1782,98
1783,98
1784,98
1785,99
1786,99
1787,99
1788,99
1789,99
1790,99
1791,99
1792,99
1793,99
1794,99
1795,99
1796,99
1797,99
1798,99
1799,99
1800,99
1801,99
1802,99
1803,99
1804,99
1805,99
1806,99
1807,99
1808,99
1809,99
1810,99
1811,99
1812,99
1813,99
1814,99
1815,99
1816,99
1817,99
1818,99
1819,99
1820,99
1821,99
1822,99
1823,99
1824,99
1825,99
1826,99
1827,99
1828,99
1829,99
1830,99
1831,99
1832,99
1833,99
1834,99
1835,99
1836,99
1837,99
1838,99
1839,100
1840,100
1841,100
1842,100
1843,100
1844,100
1845,100
1846,100
1847,100
1848,100
1849,100
1850,100
1851,100
1852,100
1853,100
1854,100
1855,100
1856,100
1857,100
1858,100
1859,100
1860,100
1861,100
1862,100
1863,100
1864,100
1865,100
1866,100
1867,101
1868,101
1869,101
1870,101
1871,101
1872,101
1873,101
1874,101
1875,101
1876,101
1877,101
1878,101
1879,101
1880,101
1881,101
1882,101
1883,101
1884,101
1885,101
1886,101
1887,101
1888,101
1889,101
1890,101
1891,101
1892,101
1893,101
1894,101
1895,101
1896,102
1897,102
1898,102
1899,104
1900,104
1901,104
1902,104
1903,104
1904,104
1905,104
1906,104
1907,104
1908,104
1909,104
1910,104
1911,104
1912,104
1913,104
1914,104
1915,104
1916,105
1917,105
1918,105
1919,105
1920,105
1921,106
1922,106
1923,106
1924,106
1925,106
1926,106
1927,106
1928,106
1929,106
1930,106
1931,106
1932,106
1933,106
1934,106
1935,106
1936,106
1937,106
1938,106
1939,106
1940,106
1941,106
1942,106
1943,106
1944,106
1945,106
1946,106
1947,107
1948,107
1949,108
1950,108
1951,108
1952,108
1953,108
1954,108
1955,108
1956,108
1957,108
1958,108
1959,108
1960,108
1961,108
1962,108
1963,108
1964,108
1965,108
1966,108
1967,108
1968,108
1969,108
1970,108
1971,108
1972,108
1973,108
1974,108
1975,108
1976,108
1977,108
1978,108
1979,108
1980,108
1981,109
1982,109
1983,110
1984,110
1985,110
1986,110
1987,110
1988,110
1989,110
1990,110
1991,110
1992,110
1993,110
1994,110
1995,110
1996,110
1997,110
1998,110
1999,110
2000,110
