"tick","total"
0,0
1,0
2,0
3,0
4,0
5,0
6,0
7,0
8,0
9,0
10,0
11,0
12,0
13,0
14,0
15,0
16,0
17,0
18,0
19,0
20,0
21,0
22,0
23,0
24,0
25,0
26,0
27,0
28,0
29,0
30,0
31,0
32,0
33,0
34,0
35,0
36,0
37,0
38,0
39,0
40,0
41,0
42,0
43,0
44,0
45,0
46,0
47,0
48,0
49,0
50,0
51,0
52,0
53,0
54,0
55,0
56,0
57,0
58,0
59,0
60,0
61,0
62,0
63,0
64,0
65,0
66,0
67,0
68,0
69,0
70,0
71,0
72,0
73,0
74,0
75,0
76,0
77,0
78,0
79,0
80,0
81,0
82,0
83,0
84,0
85,0
86,0
87,0
88,0
89,0
90,0
91,0
92,0
93,0
94,0
95,0
96,0
97,0
98,0
99,0
100,0
101,0
102,0
103,0
104,0
105,0
106,0
107,0
108,0
109,0
110,0
111,0
112,0
113,0
114,0
115,0
116,0
117,0
118,0
119,0
120,0
121,0
122,0
123,0
124,0
125,0
126,0
127,0
128,0
129,0
130,0
131,0
132,0
133,0
134,0
135,0
136,0
137,0
138,0
139,0
140,0
141,0
142,0
143,0
144,0
145,0
146,0
147,0
148,0
149,0
150,0
151,0
152,0
153,0
154,0
155,0
156,0
157,0
158,0
159,0
160,0
161,0
162,0
163,0
164,0
165,0
166,0
167,0
168,0
169,0
170,0
171,0
172,0
173,0
174,0
175,0
176,0
177,0
178,0
179,0
180,0
181,0
182,0
183,0
184,0
185,0
186,0
187,0
188,0
189,0
190,0
191,0
192,0
193,0
194,0
195,0
196,0
197,0
198,0
199,0
200,0
201,0
202,0
203,0
204,0
205,0
206,0
207,0
208,0
209,0
210,0
211,0
212,0
213,0
214,0
215,0
216,0
217,0
218,0
219,0
220,0
221,0
222,0
223,0
224,0
225,0
226,0
227,0
228,0
229,0
230,1
231,1
232,1
233,1
234,1
235,2
236,2
237,2
238,2
239,2
240,2
241,2
242,2
243,2
244,2
245,2
246,2
247,2
248,2
249,2
250,2
251,2
252,2
253,2
254,2
255,2
256,2
257,2
258,2
259,2
260,2
261,2
262,2
263,2
264,2
265,2
266,2
267,2
268,2
269,2
270,3
271,3
272,3
273,3
274,3
275,3
276,3
277,3
278,3
279,3
280,3
281,3
282,5
283,5
284,6
285,6
286,6
287,6
288,6
289,6
290,6
291,6
292,6
293,6
294,6
295,6
296,6
297,7
298,7
299,7
300,7
301,8
302,8
303,8
304,8
305,8
306,8
307,9
308,9
309,9
310,9
311,9
312,9
313,9
314,9
315,9
316,9
317,9
318,9
319,9
320,10
321,11
322,11
323,11
324,11
325,11
326,11
327,11
328,11
329,11
330,11
331,11
332,11
333,11
334,11
335,11
336,11
337,12
338,12
339,13
340,14
341,15
342,15
343,15
344,15
345,17
346,17
347,17
348,17
349,18
350,18
351,18
352,19
353,19
354,19
355,19
356,20
357,20
358,20
359,20
360,21
361,21
362,21
363,21
364,21
365,21
366,21
367,22
368,22
369,22
370,23
371,24
372,24
373,25
374,25
375,25
376,25
377,25
378,25
379,25
380,25
381,25
382,25
383,25
384,25
385,25
386,25
387,25
388,25
389,25
390,25
391,25
392,25
393,25
394,25
395,25
396,25
397,25
398,25
399,25
400,25
401,25
402,25
403,25
404,25
405,25
406,26
407,26
408,26
409,26
410,26
411,26
412,26
413,26
414,26
415,26
416,26
417,27
418,27
419,27
420,27
421,27
422,27
423,27
424,27
425,27
426,27
427,27
428,27
429,27
430,27
431,27
432,27
433,27
434,27
435,27
436,27
437,27
438,27
439,27
440,27
441,27
442,28
443,28
444,28
445,28
446,29
447,29
448,29
449,29
450,30
451,30
452,30
453,30
454,30
455,30
456,30
457,30
458,30
459,30
460,30
461,30
462,30
463,30
464,30
465,30
466,30
467,30
468,30
469,30
470,30
471,30
472,30
473,30
474,30
475,30
476,30
477,30
478,30
479,30
480,30
481,30
482,30
483,30
484,30
485,30
486,30
487,30
488,30
489,30
490,30
491,30
492,30
493,30
494,30
495,30
496,30
497,30
498,30
499,30
500,30
501,30
502,30
503,30
504,30
505,30
506,30
507,30
508,30
509,30
510,30
511,30
512,30
513,30
514,30
515,30
516,30
517,30
518,30
519,30
520,30
521,30
522,30
523,30
524,30
525,30
526,30
527,30
528,30
529,30
530,30
531,30
532,30
533,30
534,30
535,30
536,30
537,30
538,30
539,30
540,30
541,30
542,30
543,30
544,30
545,30
546,30
547,30
548,30
549,30
550,30
551,30
552,30
553,30
554,30
555,30
556,30
557,30
558,30
559,30
560,30
561,30
562,30
563,30
564,30
565,30
566,30
567,30
568,30
569,30
570,30
571,30
572,30
573,30
574,30
575,30
576,30
577,30
578,30
579,30
580,30
581,30
582,30
583,30
584,30
585,30
586,30
587,30
588,30
589,30
590,30
591,30
592,30
593,30
594,30
595,30
596,30
597,30
598,30
599,30
600,30
601,30
602,30
603,30
604,30
605,30
606,30
607,30
608,30
609,30
610,31
611,32
612,33
613,34
614,35
615,36
616,37
617,38
618,39
619,40
620,40
621,40
622,40
623,40
624,40
625,40
626,40
627,40
628,40
629,40
630,40
631,40
632,40
633,40
634,40
635,40
636,40
637,40
638,40
639,40
640,40
641,40
642,40
643,40
644,41
645,42
646,43
647,44
648,45
649,46
650,48
651,49
652,50
653,50
654,50
655,50
656,50
657,50
658,50
659,50
660,50
661,50
662,50
663,50
664,50
665,50
666,50
667,50
668,50
669,50
670,50
671,50
672,50
673,50
674,50
675,50
676,50
677,50
678,50
679,50
680,51
681,51
682,51
683,51
684,51
685,51
686,51
687,51
688,51
689,51
690,51
691,51
692,51
693,51
694,51
695,51
696,51
697,51
698,51
699,51
700,51
701,51
702,51
703,51
704,51
705,51
706,51
707,51
708,51
709,51
710,51
711,51
712,51
713,51
714,51
715,51
716,51
717,51
718,51
719,51
720,52
721,52
722,52
723,52
724,52
725,52
726,52
727,52
728,52
729,52
730,52
731,52
732,52
733,52
734,52
735,52
736,52
737,52
738,52
739,52
740,52
741,52
742,52
743,52
744,52
745,52
746,52
747,52
748,52
749,52
750,52
751,52
752,52
753,52
754,52
755,52
756,52
757,52
758,52
759,52
760,52
761,52
762,52
763,52
764,52
765,52
766,52
767,53
768,53
769,53
770,53
771,53
772,53
773,53
774,53
775,53
776,53
777,53
778,53
779,54
780,54
781,54
782,54
783,54
784,54
785,54
786,54
787,54
788,54
789,54
790,54
791,54
792,54
793,54
794,54
795,54
796,54
797,54
798,54
799,54
800,54
801,54
802,54
803,54
804,54
805,54
806,54
807,54
808,54
809,54
810,54
811,54
812,54
813,54
814,54
815,54
816,54
817,54
818,54
819,54
820,54
821,54
822,54
823,54
824,54
825,54
826,54
827,54
828,54
829,54
830,54
831,54
832,54
833,54
834,54
835,54
836,54
837,54
838,54
839,54
840,54
841,54
842,54
843,54
844,54
845,54
846,54
847,54
848,54
849,54
850,54
851,54
852,54
853,54
854,54
855,54
856,54
857,54
858,54
859,54
860,54
861,54
862,54
863,54
864,54
865,54
866,54
867,54
868,54
869,54
870,54
871,54
872,54
873,54
874,54
875,54
876,54
877,54
878,54
879,54
880,54
881,54
882,54
883,54
884,54
885,54
886,54
887,54
888,54
889,54
890,54
891,54
892,54
893,54
894,54
895,54
896,54
897,54
898,54
899,54
900,54
901,54
902,54
903,54
904,54
905,54
906,54
907,54
908,54
909,54
910,54
911,54
912,54
913,54
914,54
915,54
916,54
917,54
918,55
919,55
920,55
921,55
922,55
923,55
924,55
925,55
926,55
927,55
928,55
929,55
930,55
931,55
932,55
933,55
934,55
935,55
936,55
937,55
938,55
939,55
940,55
941,55
942,55
943,55
944,55
945,55
946,55
947,55
948,55
949,55
950,56
951,56
952,56
953,56
954,56
955,56
956,56
957,56
958,56
959,56
960,56
961,56
962,56
963,56
964,56
965,56
966,56
967,56
968,56
969,56
970,56
971,56
972,56
973,56
974,56
975,56
976,56
977,56
978,56
979,56
980,56
981,56
982,56
983,56
984,56
985,56
986,56
987,56
988,56
989,56
990,56
991,56
992,56
993,56
994,56
995,56
996,56
997,56
998,56
999,56
1000,56
1001,56
1002,56
1003,56
1004,56
1005,56
1006,56
1007,56
1008,57
1009,57
1010,57
1011,57
1012,57
1013,57
1014,57
1015,57
1016,57
1017,57
1018,57
1019,57
1020,57
1021,57
1022,57
1023,57
1024,57
1025,57
1026,57
1027,57
1028,57
1029,57
1030,57
1031,57
1032,57
1033,57
1034,57
1035,57
1036,57
1037,57
1038,57
1039,57
1040,57
1041,57
1042,57
1043,57
1044,57
1045,57
1046,57
1047,57
1048,57
1049,57
1050,57
1051,57
1052,58
1053,58
1054,58
1055,58
1056,58
1057,58
1058,58
1059,58
1060,58
1061,59
1062,59
1063,59
1064,59
1065,59
1066,59
1067,59
1068,59
1069,59
1070,60
1071,60
1072,60
1073,60
1074,60
1075,60
1076,61
1077,61
1078,62
1079,62
1080,62
1081,63
1082,63
1083,63
1084,63
1085,63
1086,63
1087,63
1088,64
1089,64
1090,64
1091,64
1092,64
1093,65
1094,65
1095,65
1096,65
1097,65
1098,65
1099,65
1100,65
1101,65
1102,65
1103,65
1104,65
1105,66
1106,66
1107,66
1108,66
1109,66
1110,66
1111,66
1112,66
1113,66
1114,66
1115,66
1116,66
1117,66
1118,66
1119,66
1120,67
1121,67
1122,67
1123,67
1124,67
1125,67
1126,67
1127,67
1128,67
1129,67
1130,67
1131,67
1132,67
1133,68
1134,68
1135,68
1136,68
1137,68
1138,68
1139,68
1140,68
1141,68
1142,68
1143,68
1144,68
1145,68
1146,68
1147,69
1148,69
1149,69
1150,69
1151,69
1152,69
1153,69
1154,69
1155,69
1156,69
1157,69
1158,69
1159,69
1160,69
1161,69
1162,69
1163,69
1164,69
1165,69
1166,69
1167,69
1168,69
1169,69
1170,69
1171,69
1172,69
1173,69
1174,69
1175,69
1176,69
1177,69
1178,69
1179,69
1180,69
1181,69
1182,69
1183,69
1184,69
1185,69
1186,69
1187,69
1188,69
1189,69
1190,69
1191,69
1192,69
1193,70
1194,70
1195,70
1196,70
1197,70
1198,70
1199,70
1200,70
1201,70
1202,70
1203,70
1204,70
1205,70
1206,70
1207,70
1208,70
1209,70
1210,70
1211,70
1212,70
1213,70
1214,70
1215,70
1216,70
1217,70
1218,70
1219,71
1220,71
1221,71
1222,71
1223,71
1224,71
1225,71
1226,72
1227,72
1228,72
1229,73
1230,73
1231,73
1232,73
1233,73
1234,73
1235,73
1236,73
1237,73
1238,73
1239,73
1240,73
1241,73
1242,73
1243,73
1244,73
1245,73
1246,73
1247,73
1248,73
1249,73
1250,73
1251,73
1252,73
1253,73
1254,73
1255,73
1256,73
1257,73
1258,73
1259,73
1260,73
1261,73
1262,73
1263,73
1264,73
1265,73
1266,73
1267,73
1268,73
1269,73
1270,73
1271,73
1272,73
1273,73
1274,73
1275,73
1276,73
1277,74
1278,74
1279,74
1280,74
1281,74
1282,74
1283,74
1284,74
1285,74
1286,74
1287,74
1288,75
1289,75
1290,75
1291,75
1292,75
1293,75
1294,76
1295,77
1296,77
1297,77
1298,77
1299,77
1300,77
1301,77
1302,77
1303,77
1304,77
1305,77
1306,78
1307,78
1308,78
1309,78
1310,78
1311,78
1312,78
1313,78
1314,78
1315,78
1316,78
1317,78
1318,78
1319,78
1320,78
1321,79
1322,79
1323,79
1324,79
1325,79
1326,79
1327,79
1328,79
1329,79
1330,79
1331,80
1332,80
1333,80
1334,80
1335,80
1336,80
1337,80
1338,80
1339,80
1340,80
1341,80
1342,80
1343,80
1344,80
1345,80
1346,80
1347,80
1348,80
1349,80
1350,80
1351,80
1352,80
1353,80
1354,80
1355,80
1356,80
1357,80
1358,80
1359,80
1360,80
1361,80
1362,80
1363,80
1364,80
1365,80
1366,80
1367,80
1368,80
1369,80
1370,80
1371,80
1372,80
1373,80
1374,80
1375,81
1376,81
1377,81
1378,81
1379,81
1380,81
1381,81
1382,81
1383,81
1384,81
1385,81
1386,81
1387,81
1388,81
1389,81
1390,81
1391,81
1392,81
1393,81
1394,81
1395,81
1396,81
1397,81
1398,81
1399,81
1400,81
1401,81
1402,81
1403,81
1404,81
1405,81
1406,81
1407,81
1408,81
1409,81
1410,81
1411,81
1412,81
1413,81
1414,81
1415,81
1416,81
1417,81
1418,81
1419,81
1420,81
1421,81
1422,81
1423,81
1424,81
1425,81
1426,81
1427,81
1428,81
1429,81
1430,81
1431,81
1432,81
1433,81
1434,81
1435,81
1436,81
1437,81
1438,81
1439,81
1440,81
1441,81
1442,81
1443,81
1444,81
1445,81
1446,81
1447,81
1448,81
1449,81
1450,81
1451,81
1452,81
1453,81
1454,81
1455,81
1456,81
1457,81
1458,81
1459,81
1460,81
1461,81
1462,81
1463,81
1464,81
1465,81
1466,81
1467,81
1468,81
1469,81
1470,81
1471,81
1472,81
1473,81
1474,81
1475,81
1476,81
1477,81
1478,81
1479,81
1480,81
1481,81
1482,81
1483,81
1484,81
1485,81
1486,81
1487,81
1488,81
1489,81
1490,81
1491,81
1492,81
1493,81
1494,81
1495,81
1496,81
1497,81
1498,81
1499,81
1500,81
1501,81
1502,81
1503,81
1504,81
1505,81
1506,81
1507,81
1508,81
1509,81
1510,81
1511,81
1512,81
1513,81
1514,81
1515,81
1516,81
1517,82
1518,82
1519,82
1520,82
1521,82
1522,82
1523,82
1524,82
1525,82
1526,82
1527,82
1528,82
1529,82
1530,82
1531,82
1532,82
1533,82
1534,82
1535,82
1536,83
1537,83
1538,83
1539,83
1540,83
1541,83
1542,83
1543,83
1544,83
1545,83
1546,83
1547,83
1548,83
1549,83
1550,83
1551,83
1552,83
1553,83
1554,83
1555,83
1556,83
1557,83
1558,83
1559,84
1560,84
1561,85
1562,85
1563,85
1564,85
1565,85
1566,85
1567,85
1568,85
1569,85
1570,85
1571,85
1572,85
1573,85
1574,85
1575,85
1576,85
1577,85
1578,85
1579,85
1580,85
1581,85
1582,85
1583,85
1584,85
1585,85
1586,85
1587,85
1588,85
1589,85
1590,85
1591,85
1592,85
1593,85
1594,85
1595,85
1596,85
1597,85
1598,85
1599,85
1600,85
1601,85
1602,85
1603,85
1604,85
1605,85
1606,85
1607,85
1608,85
1609,85
1610,85
1611,85
1612,85
1613,85
1614,85
1615,85
1616,85
1617,85
1618,85
1619,85
1620,86
1621,86
1622,86
1623,86
1624,86
1625,86
1626,86
1627,86
1628,86
1629,86
1630,86
1631,86
1632,86
1633,86
1634,86
1635,86
1636,86
1637,86
1638,86
1639,86
1640,86
1641,86
1642,86
1643,86
1644,86
1645,86
1646,86
1647,86
1648,86
1649,86
1650,86
1651,86
1652,86
1653,86
1654,86
1655,86
1656,86
1657,86
1658,86
1659,86
1660,86
1661,86
1662,86
1663,86
1664,86
1665,86
1666,86
1667,86
1668,86
1669,86
1670,86
1671,86
1672,86
1673,87
1674,87
1675,87
1676,87
1677,87
1678,87
1679,87
1680,87
1681,87
1682,88
1683,88
1684,88
1685,88
1686,88
1687,88
1688,88
1689,88
1690,88
1691,88
1692,88
1693,88
1694,88
1695,88
1696,88
1697,88
1698,88
1699,88
1700,88
1701,88
1702,88
1703,89
1704,89
1705,89
1706,89
1707,89
1708,89
1709,89
1710,89
1711,89
1712,89
1713,89
1714,89
1715,89
1716,90
1717,90
1718,90
1719,90
1720,91
1721,91
1722,91
1723,91
1724,91
1725,91
1726,91
1727,91
1728,91
1729,91
1730,91
1731,91
1732,91
1733,92
1734,92
1735,92
1736,93
1737,93
1738,93
1739,93
1740,93
1741,93
1742,93
1743,93
1744,94
1745,94
1746,94
1747,94
1748,94
1749,94
1750,94
1751,94
1752,94
1753,94
1754,94
1755,94
1756,94
1757,95
1758,95
1759,95
1760,95
1761,95
1762,95
1763,95
1764,95
1765,95
1766,95
1767,95
1768,95
1769,95
1770,95
1771,95
1772,95
1773,96
1774,96
1775,96
1776,96
1777,96
1778,96
1779,96
1780,97
1781,97
1782,97
1783,97
1784,97
1785,97
1786,97
1787,98
1788,98
1789,98
1790,98
1791,100
1792,100
1793,100
1794,100
1795,100
1796,100
1797,100
1798,100
1799,100
1800,100
1801,100
1802,100
1803,100
1804,100
1805,100
1806,100
1807,100
1808,100
1809,100
1810,100
1811,100
1812,100
1813,100
1814,100
1815,100
1816,100
1817,100
1818,100
1819,100
1820,100
1821,100
1822,100
1823,101
1824,101
1825,101
1826,101
1827,101
1828,101
1829,102
1830,102
1831,102
1832,104
1833,104
1834,104
1835,104
1836,104
1837,104
1838,104
1839,104
1840,104
1841,105
1842,105
1843,105
1844,105
1845,105
1846,105
1847,105
1848,105
1849,105
1850,105
1851,105
1852,105
1853,105
1854,105
1855,105
1856,105
1857,105
1858,106
1859,106
1860,106
1861,106
1862,106
1863,106
1864,106
1865,106
1866,106
1867,106
1868,106
1869,106
1870,107
1871,107
1872,107
1873,107
1874,107
1875,107
1876,107
1877,107
1878,107
1879,107
1880,107
1881,107
1882,107
1883,107
1884,107
1885,107
1886,107
1887,107
1888,107
1889,108
1890,108
1891,108
1892,108
1893,108
1894,108
1895,108
1896,108
1897,108
1898,108
1899,108
1900,108
1901,109
1902,109
1903,109
1904,109
1905,110
1906,110
1907,110
1908,110
1909,110
1910,110
1911,110
1912,110
1913,110
1914,110
1915,110
1916,110
1917,110
1918,110
1919,110
1920,110
1921,110
1922,110
1923,110
1924,110
1925,110
1926,110
1927,110
1928,110
1929,110
1930,110
1931,110
1932,110
1933,110
1934,110
1935,110
1936,110
1937,110
1938,110
1939,110
1940,110
1941,110
1942,110
1943,110
1944,110
1945,110
1946,110
1947,110
1948,110
1949,110
1950,110
1951,110
1952,110
1953,110
1954,110
1955,110
1956,110
1957,110
1958,110
1959,110
1960,110
1961,110
1962,110
1963,110
1964,110
1965,110
1966,110
1967,110
1968,110
1969,110
1970,110
1971,110
1972,110
1973,110
1974,110
1975,110
1976,110
1977,110
1978,110
1979,110
1980,110
1981,110
1982,110
1983,110
1984,110
1985,110
1986,110
1987,110
1988,110
1989,110
1990,110
1991,110
1992,110
1993,110
1994,110
1995,110
1996,110
1997,110
1998,110
1999,110
2000,110
