"tick","total"
0,0
1,0
2,0
3,0
4,0
5,0
6,0
7,0
8,0
9,0
10,0
11,0
12,0
13,0
14,0
15,0
16,0
17,0
18,0
19,0
20,0
21,0
22,0
23,0
24,0
25,0
26,0
27,0
28,0
29,0
30,0
31,0
32,0
33,0
34,0
35,0
36,0
37,0
38,0
39,0
40,0
41,0
42,0
43,0
44,0
45,0
46,0
47,0
48,0
49,0
50,0
51,0
52,0
53,0
54,0
55,0
56,0
57,0
58,0
59,0
60,0
61,0
62,0
63,0
64,0
65,0
66,0
67,0
68,0
69,0
70,0
71,0
72,0
73,0
74,0
75,0
76,0
77,0
78,0
79,0
80,0
81,0
82,0
83,0
84,0
85,0
86,0
87,0
88,0
89,0
90,0
91,0
92,0
93,0
94,0
95,0
96,0
97,0
98,0
99,0
100,0
101,0
102,0
103,0
104,0
105,0
106,0
107,0
108,0
109,0
110,0
111,0
112,0
113,0
114,0
115,0
116,0
117,0
118,0
119,0
120,0
121,0
122,0
123,0
124,0
125,0
126,0
127,0
128,0
129,0
130,0
131,0
132,0
133,0
134,0
135,0
136,0
137,0
138,0
139,0
140,0
141,0
142,0
143,0
144,0
145,0
146,0
147,0
148,0
149,0
150,0
151,0
152,0
153,0
154,0
155,0
156,0
157,0
158,0
159,0
160,0
161,0
162,0
163,0
164,0
165,0
166,0
167,0
168,0
169,0
170,0
171,0
172,0
173,0
174,0
175,0
176,0
177,0
178,0
179,0
180,0
181,0
182,0
183,0
184,0
185,0
186,0
187,0
188,0
189,0
190,0
191,0
192,0
193,0
194,0
195,0
196,0
197,0
198,0
199,0
200,0
201,0
202,0
203,0
204,0
205,0
206,0
207,0
208,0
209,0
210,0
211,0
212,0
213,0
214,0
215,0
216,0
217,0
218,0
219,0
220,0
221,0
222,1
223,2
224,2
225,2
226,3
227,3
228,3
229,3
230,3
231,3
232,3
233,3
234,3
235,3
236,3
237,3
238,3
239,3
240,4
241,4
242,5
243,5
244,5
245,5
246,6
247,6
248,7
249,7
250,7
251,7
252,7
253,7
254,7
255,7
256,7
257,7
258,7
259,7
260,7
261,7
262,8
263,8
264,8
265,8
266,8
267,8
268,8
269,8
270,8
271,8
272,8
273,9
274,9
275,9
276,9
277,10
278,10
279,10
280,10
281,10
282,11
283,11
284,11
285,11
286,12
287,12
288,12
289,12
290,12
291,13
292,13
293,13
294,13
295,13
296,13
297,13
298,13
299,13
300,13
301,13
302,13
303,14
304,15
305,15
306,15
307,15
308,15
309,15
310,16
311,16
312,16
313,16
314,16
315,16
316,17
317,17
318,18
319,18
320,18
321,18
322,18
323,18
324,20
325,20
326,20
327,22
328,22
329,22
330,22
331,22
332,22
333,22
334,22
335,22
336,22
337,23
338,23
339,23
340,23
341,23
342,23
343,23
344,23
345,23
346,24
347,24
348,24
349,25
350,26
351,26
352,26
353,26
354,26
355,27
356,27
357,27
358,27
359,27
360,27
361,27
362,27
363,27
364,27
365,27
366,27
367,27
368,27
369,28
370,28
371,28
372,28
373,28
374,28
375,28
376,28
377,28
378,28
379,28
380,28
381,28
382,28
383,29
384,29
385,29
386,29
387,29
388,29
389,29
390,29
391,29
392,29
393,29
394,29
395,29
396,29
397,29
398,29
399,29
400,29
401,29
402,29
403,29
404,29
405,29
406,29
407,29
408,29
409,29
410,29
411,29
412,29
413,29
414,29
415,29
416,29
417,29
418,29
419,29
420,29
421,29
422,29
423,29
424,29
425,29
426,29
427,30
428,30
429,30
430,30
431,30
432,30
433,30
434,30
435,30
436,30
437,30
438,30
439,30
440,30
441,30
442,30
443,30
444,30
445,30
446,30
447,30
448,30
449,30
450,30
451,30
452,30
453,30
454,30
455,30
456,30
457,30
458,30
459,30
460,30
461,30
462,30
463,30
464,30
465,30
466,30
467,30
468,31
469,31
470,31
471,31
472,31
473,31
474,31
475,31
476,31
477,31
478,31
479,31
480,31
481,31
482,32
483,32
484,32
485,32
486,32
487,32
488,32
489,32
490,32
491,32
492,32
493,32
494,32
495,32
496,32
497,32
498,32
499,32
500,32
501,32
502,32
503,32
504,32
505,32
506,32
507,32
508,32
509,32
510,32
511,32
512,32
513,32
514,32
515,32
516,32
517,32
518,32
519,32
520,32
521,32
522,32
523,32
524,32
525,33
526,33
527,33
528,33
529,33
530,33
531,33
532,33
533,33
534,33
535,33
536,33
537,33
538,33
539,33
540,33
541,33
542,33
543,33
544,33
545,33
546,33
547,33
548,33
549,33
550,33
551,33
552,33
553,33
554,33
555,34
556,34
557,34
558,34
559,34
560,34
561,34
562,34
563,34
564,34
565,34
566,34
567,34
568,34
569,34
570,34
571,34
572,34
573,34
574,34
575,34
576,34
577,34
578,34
579,34
580,34
581,34
582,34
583,34
584,34
585,34
586,34
587,34
588,34
589,34
590,34
591,34
592,34
593,34
594,34
595,34
596,34
597,34
598,35
599,35
600,35
601,35
602,35
603,35
604,35
605,35
606,35
607,35
608,35
609,35
610,35
611,36
612,36
613,36
614,36
615,36
616,36
617,36
618,37
619,37
620,37
621,37
622,37
623,37
624,37
625,37
626,37
627,37
628,37
629,37
630,37
631,37
632,37
633,37
634,37
635,39
636,39
637,39
638,39
639,39
640,39
641,39
642,39
643,39
644,39
645,39
646,39
647,39
648,39
649,39
650,39
651,39
652,40
653,40
654,40
655,40
656,40
657,40
658,40
659,40
660,40
661,40
662,40
663,41
664,41
665,41
666,43
667,43
668,43
669,43
670,43
671,43
672,43
673,43
674,43
675,43
676,43
677,43
678,43
679,43
680,43
681,43
682,43
683,43
684,43
685,43
686,43
687,43
688,43
689,43
690,43
691,43
692,43
693,43
694,43
695,43
696,43
697,43
698,44
699,44
700,44
701,44
702,44
703,44
704,46
705,46
706,46
707,46
708,46
709,46
710,46
711,46
712,46
713,46
714,47
715,47
716,47
717,47
718,47
719,47
720,47
721,47
722,48
723,48
724,48
725,48
726,48
727,48
728,48
729,48
730,48
731,48
732,49
733,49
734,49
735,49
736,49
737,49
738,49
739,49
740,49
741,49
742,49
743,49
744,49
745,49
746,49
747,49
748,49
749,49
750,49
751,49
752,49
753,49
754,49
755,49
756,49
757,49
758,49
759,49
760,49
761,49
762,49
763,49
764,49
765,49
766,49
767,49
768,49
769,49
770,49
771,49
772,49
773,49
774,49
775,49
776,49
777,49
778,49
779,49
780,49
781,49
782,49
783,50
784,50
785,50
786,50
787,50
788,50
789,50
790,50
791,50
792,50
793,50
794,50
795,50
796,50
797,50
798,50
799,50
800,50
801,50
802,50
803,50
804,50
805,50
806,50
807,50
808,50
809,50
810,50
811,50
812,50
813,50
814,50
815,50
816,50
817,50
818,50
819,50
820,50
821,50
822,50
823,50
824,50
825,50
826,50
827,50
828,50
829,50
830,50
831,50
832,50
833,50
834,50
835,50
836,50
837,50
838,50
839,50
840,50
841,50
842,50
843,50
844,50
845,50
846,50
847,50
848,50
849,50
850,50
851,50
852,50
853,50
854,50
855,50
856,50
857,50
858,50
859,50
860,50
861,50
862,50
863,50
864,50
865,50
866,50
867,51
868,51
869,51
870,51
871,51
872,51
873,51
874,51
875,51
876,51
877,51
878,51
879,51
880,51
881,51
882,51
883,51
884,51
885,51
886,51
887,51
888,51
889,51
890,51
891,51
892,51
893,51
894,51
895,51
896,51
897,51
898,51
899,51
900,51
901,51
902,51
903,51
904,51
905,51
906,51
907,51
908,51
909,51
910,51
911,51
912,51
913,51
914,51
915,51
916,51
917,51
918,51
919,52
920,52
921,52
922,52
923,52
924,52
925,52
926,52
927,52
928,52
929,52
930,52
931,52
932,52
933,52
934,52
935,52
936,52
937,52
938,52
939,52
940,52
941,52
942,52
943,52
944,53
945,53
946,53
947,53
948,53
949,53
950,53
951,53
952,53
953,53
954,53
955,53
956,53
957,54
958,54
959,54
960,54
961,54
962,54
963,54
964,54
965,54
966,54
967,54
968,54
969,54
970,54
971,54
972,54
973,54
974,54
975,54
976,54
977,54
978,54
979,55
980,55
981,55
982,55
983,55
984,55
985,55
986,55
987,55
988,55
989,55
990,55
991,55
992,55
993,55
994,55
995,55
996,55
997,55
998,56
999,56
1000,57
1001,57
1002,57
1003,57
1004,57
1005,57
1006,57
1007,57
1008,57
1009,57
1010,57
1011,57
1012,57
1013,57
1014,57
1015,57
1016,57
1017,57
1018,57
1019,57
1020,57
1021,57
1022,57
1023,57
1024,57
1025,57
1026,57
1027,57
1028,57
1029,57
1030,57
1031,57
1032,57
1033,57
1034,57
1035,57
1036,58
1037,58
1038,58
1039,58
1040,58
1041,58
1042,58
1043,58
1044,58
1045,59
1046,59
1047,59
1048,59
1049,59
1050,59
1051,59
1052,59
1053,60
1054,60
1055,60
1056,60
1057,60
1058,60
1059,61
1060,61
1061,61
1062,62
1063,63
1064,63
1065,63
1066,63
1067,63
1068,64
1069,64
1070,64
1071,64
1072,64
1073,64
1074,64
1075,64
1076,64
1077,64
1078,64
1079,65
1080,65
1081,65
1082,65
1083,65
1084,65
1085,65
1086,65
1087,65
1088,65
1089,65
1090,65
1091,65
1092,65
1093,65
1094,65
1095,65
1096,65
1097,65
1098,65
1099,65
1100,65
1101,65
1102,65
1103,66
1104,67
1105,67
1106,67
1107,67
1108,67
1109,67
1110,67
1111,67
1112,67
1113,68
1114,68
1115,68
1116,68
1117,68
1118,68
1119,68
1120,69
1121,70
1122,70
1123,70
1124,70
1125,70
1126,70
1127,70
1128,70
1129,70
1130,70
1131,70
1132,70
1133,70
1134,70
1135,70
1136,70
1137,70
1138,70
1139,70
1140,70
1141,70
1142,70
1143,70
1144,70
1145,70
1146,70
1147,70
1148,70
1149,70
1150,71
1151,71
1152,71
1153,71
1154,71
1155,71
1156,71
1157,71
1158,71
1159,71
1160,71
1161,71
1162,71
1163,71
1164,71
1165,71
1166,71
1167,71
1168,71
1169,71
1170,71
1171,71
1172,71
1173,72
1174,72
1175,72
1176,72
1177,72
1178,72
1179,72
1180,72
1181,72
1182,72
1183,72
1184,73
1185,73
1186,73
1187,73
1188,73
1189,73
1190,73
1191,73
1192,73
1193,74
1194,74
1195,74
1196,74
1197,74
1198,74
1199,75
1200,75
1201,75
1202,75
1203,75
1204,75
1205,75
1206,75
1207,75
1208,75
1209,75
1210,75
1211,75
1212,75
1213,75
1214,75
1215,75
1216,75
1217,75
1218,75
1219,75
1220,75
1221,75
1222,75
1223,75
1224,75
1225,75
1226,75
1227,75
1228,75
1229,75
1230,75
1231,75
1232,75
1233,75
1234,75
1235,75
1236,75
1237,75
1238,75
1239,75
1240,75
1241,75
1242,75
1243,75
1244,75
1245,75
1246,75
1247,75
1248,75
1249,75
1250,75
1251,75
1252,75
1253,75
1254,75
1255,75
1256,75
1257,75
1258,75
1259,75
1260,75
1261,75
1262,75
1263,75
1264,75
1265,75
1266,75
1267,75
1268,75
1269,75
1270,75
1271,75
1272,75
1273,75
1274,75
1275,75
1276,75
1277,75
1278,75
1279,75
1280,75
1281,75
1282,75
1283,75
1284,75
1285,75
1286,75
1287,76
1288,76
1289,76
1290,76
1291,76
1292,76
1293,76
1294,76
1295,76
1296,77
1297,77
1298,77
1299,77
1300,77
1301,77
1302,77
1303,77
1304,77
1305,77
1306,77
1307,77
1308,77
1309,77
1310,77
1311,77
1312,77
1313,77
1314,77
1315,77
1316,77
1317,77
1318,77
1319,77
1320,78
1321,79
1322,80
1323,80
1324,80
1325,80
1326,80
1327,80
1328,80
1329,80
1330,80
1331,80
1332,80
1333,80
1334,80
1335,80
1336,80
1337,80
1338,80
1339,80
1340,80
1341,80
1342,80
1343,80
1344,80
1345,80
1346,80
1347,80
1348,80
1349,80
1350,80
1351,80
1352,80
1353,80
1354,80
1355,80
1356,80
1357,80
1358,80
1359,80
1360,80
1361,80
1362,80
1363,80
1364,80
1365,80
1366,80
1367,80
1368,80
1369,80
1370,80
1371,80
1372,80
1373,80
1374,80
1375,80
1376,80
1377,80
1378,80
1379,80
1380,80
1381,80
1382,80
1383,80
1384,80
1385,80
1386,80
1387,80
1388,80
1389,80
1390,80
1391,80
1392,80
1393,80
1394,80
1395,80
1396,80
1397,80
1398,80
1399,80
1400,80
1401,80
1402,80
1403,80
1404,80
1405,80
1406,80
1407,80
1408,80
1409,80
1410,80
1411,80
1412,80
1413,80
1414,80
1415,80
1416,80
1417,80
1418,80
1419,80
1420,80
1421,80
1422,80
1423,80
1424,80
1425,80
1426,80
1427,80
1428,80
1429,80
1430,80
1431,80
1432,80
1433,80
1434,80
1435,80
1436,80
1437,80
1438,80
1439,80
1440,80
1441,80
1442,80
1443,80
1444,80
1445,80
1446,80
1447,80
1448,80
1449,80
1450,80
1451,80
1452,80
1453,80
1454,80
1455,80
1456,80
1457,80
1458,80
1459,80
1460,80
1461,80
1462,81
1463,81
1464,81
1465,81
1466,81
1467,81
1468,81
1469,81
1470,81
1471,81
1472,81
1473,81
1474,81
1475,81
1476,81
1477,81
1478,81
1479,81
1480,81
1481,81
1482,81
1483,81
1484,81
1485,81
1486,82
1487,82
1488,82
1489,82
1490,82
1491,82
1492,82
1493,82
1494,82
1495,84
1496,84
1497,84
1498,84
1499,84
1500,84
1501,84
1502,84
1503,84
1504,84
1505,84
1506,84
1507,85
1508,85
1509,86
1510,86
1511,87
1512,87
1513,88
1514,88
1515,88
1516,89
1517,89
1518,89
1519,89
1520,89
1521,89
1522,89
1523,89
1524,89
1525,89
1526,89
1527,89
1528,89
1529,89
1530,89
1531,89
1532,89
1533,89
1534,89
1535,89
1536,89
1537,89
1538,89
1539,89
1540,89
1541,89
1542,89
1543,89
1544,89
1545,89
1546,89
1547,89
1548,89
1549,89
1550,89
1551,90
1552,90
1553,90
1554,90
1555,90
1556,90
1557,90
1558,91
1559,91
1560,91
1561,91
1562,91
1563,91
1564,91
1565,91
1566,91
1567,92
1568,92
1569,92
1570,92
1571,92
1572,92
1573,92
1574,92
1575,92
1576,92
1577,93
1578,93
1579,93
1580,93
1581,93
1582,93
1583,93
1584,93
1585,93
1586,93
1587,93
1588,93
1589,93
1590,93
1591,93
1592,93
1593,93
1594,93
1595,93
1596,93
1597,93
1598,93
1599,93
1600,93
1601,93
1602,93
1603,93
1604,93
1605,93
1606,93
1607,94
1608,94
1609,94
1610,95
1611,95
1612,96
1613,96
1614,96
1615,96
1616,96
1617,97
1618,97
1619,97
1620,97
1621,97
1622,97
1623,97
1624,97
1625,97
1626,97
1627,97
1628,97
1629,97
1630,97
1631,97
1632,97
1633,97
1634,97
1635,97
1636,97
1637,97
1638,97
1639,97
1640,97
1641,97
1642,97
1643,98
1644,98
1645,98
1646,98
1647,98
1648,98
1649,98
1650,98
1651,98
1652,98
1653,98
1654,98
1655,98
1656,99
1657,99
1658,99
1659,99
1660,99
1661,99
1662,99
1663,99
1664,100
1665,100
1666,100
1667,100
1668,100
1669,100
1670,100
1671,100
1672,100
1673,100
1674,100
1675,100
1676,100
1677,100
1678,100
1679,100
1680,101
1681,101
1682,101
1683,101
1684,101
1685,101
1686,101
1687,101
1688,101
1689,101
1690,101
1691,101
1692,101
1693,101
1694,101
1695,101
1696,101
1697,101
1698,101
1699,101
1700,101
1701,101
1702,101
1703,101
1704,101
1705,101
1706,101
1707,101
1708,101
1709,101
1710,101
1711,101
1712,101
1713,101
1714,101
1715,101
1716,101
1717,101
1718,101
1719,101
1720,101
1721,101
1722,101
1723,101
1724,101
1725,101
1726,101
1727,101
1728,101
1729,101
1730,101
1731,101
1732,101
1733,101
1734,102
1735,102
1736,102
1737,102
1738,102
1739,102
1740,102
1741,102
1742,102
1743,102
1744,102
1745,102
1746,102
1747,102
1748,102
1749,102
1750,102
1751,103
1752,103
1753,103
1754,103
1755,103
1756,103
1757,103
1758,103
1759,103
1760,103
1761,103
1762,103
1763,104
1764,104
1765,104
1766,104
1767,104
1768,104
1769,104
1770,104
1771,104
1772,104
1773,104
1774,104
1775,104
1776,104
1777,104
1778,104
1779,104
1780,105
1781,105
1782,105
1783,105
1784,105
1785,105
1786,105
1787,105
1788,105
1789,105
1790,105
1791,105
1792,105
1793,105
1794,106
1795,106
1796,106
1797,106
1798,106
1799,106
1800,106
1801,106
1802,106
1803,106
1804,106
1805,106
1806,106
1807,106
1808,106
1809,106
1810,106
1811,106
1812,106
1813,106
1814,106
1815,106
1816,106
1817,106
1818,106
1819,106
1820,106
1821,106
1822,106
1823,106
1824,106
1825,106
1826,106
1827,106
1828,106
1829,106
1830,106
1831,106
1832,106
1833,106
1834,106
1835,106
1836,107
1837,107
1838,107
1839,107
1840,107
1841,107
1842,107
1843,107
1844,107
1845,108
1846,108
1847,108
1848,108
1849,108
1850,108
1851,108
1852,108
1853,108
1854,108
1855,108
1856,108
1857,108
1858,108
1859,108
1860,108
1861,108
1862,109
1863,109
1864,109
1865,109
1866,109
1867,109
1868,109
1869,109
1870,109
1871,109
1872,109
1873,109
1874,109
1875,109
1876,109
1877,109
1878,109
1879,109
1880,109
1881,109
1882,109
1883,109
1884,109
1885,109
1886,109
1887,109
1888,109
1889,109
1890,109
1891,109
1892,109
1893,109
1894,109
1895,109
1896,109
1897,109
1898,109
1899,109
1900,109
1901,109
1902,109
1903,109
1904,109
1905,109
1906,109
1907,109
1908,109
1909,110
1910,110
1911,110
1912,110
1913,110
1914,110
1915,110
1916,110
1917,110
1918,110
1919,110
1920,110
1921,110
1922,111
1923,111
1924,111
1925,111
1926,111
1927,111
1928,112
1929,112
1930,112
1931,112
1932,112
1933,112
1934,112
1935,112
1936,112
1937,112
1938,112
1939,112
1940,112
1941,112
1942,112
1943,112
1944,112
1945,112
1946,112
1947,112
1948,112
1949,112
1950,112
1951,112
1952,113
1953,113
1954,113
1955,113
1956,113
1957,113
1958,113
1959,113
1960,113
1961,113
1962,113
1963,113
1964,113
1965,113
1966,113
1967,113
1968,113
1969,113
1970,113
1971,113
1972,113
1973,113
1974,113
1975,113
1976,113
1977,113
1978,113
1979,113
1980,113
1981,113
1982,113
1983,113
1984,113
1985,113
1986,113
1987,113
1988,113
1989,113
1990,113
1991,113
1992,113
1993,113
1994,113
1995,113
1996,113
1997,113
1998,113
1999,113
2000,113
