"tick","total"
0,0
1,0
2,0
3,0
4,0
5,0
6,0
7,0
8,0
9,0
10,0
11,0
12,0
13,0
14,0
15,0
16,0
17,0
18,1
19,1
20,1
21,1
22,1
23,1
24,1
25,1
26,1
27,1
28,1
29,1
30,3
31,3
32,3
33,3
34,3
35,3
36,3
37,3
38,4
39,4
40,4
41,4
42,4
43,4
44,4
45,4
46,4
47,4
48,4
49,5
50,5
51,5
52,6
53,6
54,6
55,6
56,6
57,6
58,6
59,7
60,7
61,7
62,7
63,7
64,7
65,7
66,7
67,7
68,7
69,7
70,7
71,8
72,8
73,8
74,8
75,8
76,8
77,8
78,8
79,8
80,8
81,8
82,8
83,8
84,8
85,8
86,8
87,9
88,9
89,9
90,9
91,11
92,11
93,11
94,11
95,11
96,11
97,11
98,11
99,11
100,11
101,11
102,11
103,11
104,11
105,11
106,11
107,11
108,11
109,11
110,11
111,11
112,11
113,11
114,11
115,12
116,12
117,12
118,12
119,13
120,13
121,13
122,13
123,13
124,14
125,14
126,14
127,14
128,14
129,14
130,14
131,14
132,14
133,14
134,15
135,15
136,15
137,15
138,16
139,16
140,16
141,17
142,17
143,17
144,19
145,19
146,19
147,19
148,19
149,19
150,19
151,19
152,19
153,19
154,19
155,19
156,19
157,19
158,19
159,19
160,19
161,19
162,19
163,19
164,19
165,19
166,19
167,19
168,19
169,19
170,19
171,19
172,19
173,19
174,20
175,20
176,21
177,21
178,21
179,21
180,21
181,22
182,22
183,22
184,22
185,22
186,22
187,22
188,22
189,22
190,23
191,23
192,23
193,23
194,23
195,23
196,23
197,23
198,23
199,24
200,24
201,24
202,24
203,24
204,24
205,24
206,25
207,25
208,25
209,25
210,25
211,25
212,25
213,25
214,25
215,25
216,25
217,25
218,25
219,25
220,25
221,25
222,25
223,25
224,25
225,25
226,25
227,25
228,25
229,25
230,26
231,26
232,26
233,26
234,26
235,26
236,26
237,26
238,26
239,26
240,26
241,26
242,26
243,26
244,26
245,26
246,26
247,27
248,27
249,28
250,28
251,28
252,28
253,28
254,28
255,28
256,28
257,28
258,28
259,28
260,28
261,28
262,28
263,28
264,28
265,28
266,28
267,28
268,28
269,28
270,28
271,28
272,28
273,28
274,28
275,28
276,28
277,28
278,28
279,28
280,28
281,29
282,29
283,29
284,29
285,29
286,29
287,29
288,29
289,29
290,30
291,30
292,30
293,30
294,30
295,30
296,30
297,30
298,30
299,30
300,30
301,30
302,31
303,31
304,31
305,31
306,31
307,31
308,31
309,31
310,31
311,31
312,31
313,31
314,31
315,31
316,31
317,31
318,31
319,32
320,32
321,32
322,32
323,32
324,32
325,32
326,32
327,32
328,32
329,32
330,32
331,32
332,32
333,32
334,32
335,32
336,32
337,32
338,32
339,32
340,32
341,32
342,32
343,32
344,32
345,32
346,32
347,32
348,32
349,32
350,32
351,32
352,32
353,33
354,33
355,33
356,34
357,34
358,34
359,34
360,34
361,35
362,36
363,37
364,37
365,37
366,37
367,37
368,37
369,37
370,37
371,37
372,37
373,37
374,37
375,37
376,37
377,38
378,38
379,38
380,38
381,38
382,38
383,38
384,38
385,38
386,38
387,38
388,38
389,38
390,38
391,38
392,38
393,38
394,38
395,38
396,38
397,38
398,38
399,38
400,38
401,38
402,38
403,38
404,38
405,38
406,38
407,38
408,38
409,38
410,38
411,38
412,39
413,39
414,39
415,39
416,39
417,39
418,39
419,39
420,40
421,40
422,40
423,40
424,40
425,40
426,40
427,41
428,41
429,41
430,41
431,41
432,41
433,41
434,41
435,42
436,42
437,42
438,42
439,42
440,42
441,42
442,42
443,42
444,42
445,42
446,43
447,43
448,43
449,43
450,43
451,43
452,43
453,43
454,43
455,43
456,43
457,43
458,43
459,43
460,43
461,43
462,43
463,43
464,43
465,43
466,43
467,43
468,43
469,43
470,43
471,43
472,43
473,44
474,44
475,44
476,44
477,44
478,44
479,44
480,44
481,44
482,44
483,44
484,44
485,44
486,45
487,45
488,46
489,46
490,46
491,46
492,46
493,46
494,46
495,46
496,46
497,47
498,48
499,48
500,48
501,49
502,49
503,49
504,49
505,49
506,49
507,49
508,49
509,49
510,49
511,49
512,49
513,49
514,49
515,49
516,49
517,49
518,49
519,49
520,49
521,49
522,49
523,49
524,49
525,49
526,49
527,49
528,49
529,49
530,49
531,49
532,49
533,49
534,49
535,49
536,49
537,49
538,49
539,49
540,49
541,49
542,49
543,49
544,49
545,49
546,49
547,49
548,49
549,49
550,49
551,49
552,49
553,49
554,49
555,50
556,50
557,50
558,50
559,50
560,50
561,50
562,50
563,50
564,50
565,50
566,50
567,50
568,50
569,50
570,50
571,51
572,51
573,51
574,51
575,52
576,52
577,52
578,52
579,52
580,52
581,52
582,52
583,52
584,52
585,52
586,52
587,52
588,52
589,52
590,52
591,52
592,53
593,53
594,53
595,53
596,54
597,54
598,54
599,54
600,54
601,54
602,55
603,55
604,55
605,55
606,55
607,55
608,55
609,55
610,55
611,55
612,55
613,55
614,55
615,55
616,55
617,56
618,56
619,56
620,56
621,56
622,56
623,56
624,56
625,56
626,56
627,56
628,56
629,56
630,56
631,56
632,56
633,56
634,56
635,57
636,58
637,59
638,60
639,61
640,62
641,63
642,64
643,65
644,65
645,65
646,65
647,65
648,65
649,66
650,66
651,66
652,66
653,66
654,67
655,67
656,67
657,67
658,67
659,68
660,68
661,68
662,68
663,69
664,70
665,71
666,71
667,71
668,72
669,73
670,74
671,74
672,74
673,74
674,74
675,74
676,74
677,74
678,74
679,74
680,74
681,74
682,74
683,74
684,74
685,74
686,74
687,74
688,74
689,74
690,74
691,74
692,74
693,74
694,74
695,74
696,74
697,74
698,74
699,75
700,75
701,75
702,75
703,76
704,76
705,76
706,77
707,77
708,77
709,77
710,77
711,77
712,77
713,77
714,77
715,77
716,77
717,77
718,77
719,77
720,77
721,77
722,77
723,77
724,77
725,77
726,77
727,77
728,77
729,78
730,78
731,78
732,78
733,78
734,78
735,78
736,78
737,78
738,78
739,78
740,79
741,79
742,79
743,79
744,79
745,79
746,79
747,80
748,80
749,80
750,80
751,80
752,80
753,80
754,80
755,81
756,81
757,81
758,81
759,81
760,81
761,81
762,81
763,81
764,81
765,81
766,81
767,81
768,81
769,81
770,81
771,81
772,81
773,82
774,82
775,82
776,82
777,82
778,82
779,82
780,82
781,82
782,82
783,83
784,83
785,83
786,83
787,83
788,83
789,83
790,83
791,83
792,83
793,83
794,83
795,83
796,83
797,83
798,83
799,84
800,84
801,84
802,84
803,84
804,85
805,86
806,86
807,86
808,86
809,86
810,86
811,86
812,86
813,86
814,86
815,86
816,86
817,86
818,86
819,87
820,87
821,87
822,87
823,87
824,88
825,88
826,88
827,88
828,88
829,88
830,88
831,88
832,89
833,89
834,89
835,89
836,89
837,89
838,89
839,89
840,90
841,90
842,90
843,91
844,91
845,91
846,91
847,91
848,91
849,91
850,91
851,91
852,91
853,91
854,91
855,91
856,92
857,92
858,92
859,92
860,92
861,93
862,93
863,93
864,93
865,93
866,93
867,93
868,93
869,93
870,93
871,93
872,93
873,93
874,93
875,93
876,93
877,93
878,93
879,93
880,93
881,93
882,94
883,94
884,94
885,94
886,94
887,94
888,94
889,94
890,94
891,94
892,94
893,94
894,94
895,94
896,94
897,94
898,94
899,94
900,94
901,94
902,94
903,94
904,94
905,94
906,94
907,94
908,94
909,94
910,94
911,94
912,95
913,95
914,95
915,95
916,95
917,95
918,95
919,95
920,95
921,95
922,95
923,95
924,95
925,95
926,95
927,95
928,95
929,95
930,95
931,95
932,95
933,95
934,95
935,95
936,95
937,95
938,95
939,95
940,95
941,95
942,95
943,95
944,95
945,95
946,95
947,95
948,95
949,95
950,96
951,96
952,96
953,96
954,96
955,96
956,96
957,96
958,97
959,97
960,97
961,98
962,99
963,99
964,99
965,99
966,99
967,99
968,99
969,99
970,99
971,99
972,99
973,99
974,99
975,99
976,99
977,99
978,99
979,99
980,99
981,99
982,99
983,100
984,100
985,100
986,100
987,100
988,100
989,100
990,100
991,100
992,100
993,100
994,100
995,100
996,100
997,100
998,101
999,101
1000,101
1001,101
1002,101
1003,101
1004,101
1005,101
1006,101
1007,101
1008,101
1009,101
1010,101
1011,102
1012,102
1013,102
1014,102
1015,102
1016,103
1017,103
1018,103
1019,103
1020,103
1021,103
1022,103
1023,103
1024,103
1025,104
1026,104
1027,104
1028,107
1029,107
1030,107
1031,107
1032,107
1033,107
1034,107
1035,107
1036,107
1037,107
1038,107
1039,107
1040,107
1041,107
1042,107
1043,108
1044,108
1045,108
1046,108
1047,108
1048,108
1049,108
1050,108
1051,108
1052,108
1053,108
1054,108
1055,108
1056,108
1057,108
1058,108
1059,108
1060,108
1061,108
1062,108
1063,108
1064,108
1065,108
1066,108
1067,108
1068,108
1069,108
1070,108
1071,108
1072,108
1073,108
1074,108
1075,108
1076,109
1077,109
1078,109
1079,109
1080,109
1081,109
1082,109
1083,109
1084,109
1085,109
1086,109
1087,109
1088,109
1089,109
1090,109
1091,109
1092,109
1093,109
1094,109
1095,109
1096,109
1097,109
1098,109
1099,109
1100,109
1101,109
1102,109
1103,109
1104,109
1105,110
1106,110
1107,110
1108,110
1109,110
1110,110
1111,110
1112,110
1113,110
1114,110
1115,110
1116,110
1117,110
1118,110
1119,110
1120,110
1121,110
1122,110
1123,110
1124,110
1125,110
1126,110
1127,110
1128,110
1129,110
1130,110
1131,110
1132,110
1133,110
1134,110
1135,110
1136,110
1137,110
1138,110
1139,110
1140,110
1141,110
1142,110
1143,110
1144,111
1145,111
1146,111
1147,112
1148,112
1149,112
1150,112
1151,113
1152,113
1153,114
1154,114
1155,114
1156,114
1157,114
1158,114
1159,114
1160,114
1161,114
1162,114
1163,114
1164,114
1165,114
1166,114
1167,114
1168,114
1169,114
1170,114
1171,114
1172,114
1173,114
1174,114
1175,114
1176,114
1177,115
1178,115
1179,115
1180,115
1181,115
1182,115
1183,115
1184,115
1185,115
1186,115
1187,115
1188,115
1189,115
1190,115
1191,115
1192,115
1193,115
1194,115
1195,115
1196,115
1197,115
1198,115
1199,115
1200,115
1201,115
1202,115
1203,115
1204,115
1205,115
1206,115
1207,115
1208,115
1209,115
1210,115
1211,115
1212,115
1213,115
1214,115
1215,115
1216,115
1217,115
1218,115
1219,115
1220,115
1221,115
1222,115
1223,115
1224,115
1225,115
1226,115
1227,115
1228,115
1229,115
1230,115
1231,116
1232,116
1233,116
1234,116
1235,116
1236,116
1237,116
1238,116
1239,116
1240,116
1241,116
1242,116
1243,116
1244,116
1245,116
1246,116
1247,116
1248,116
1249,116
1250,116
1251,116
1252,116
1253,116
1254,116
1255,116
1256,116
1257,116
1258,117
1259,117
1260,117
1261,117
1262,117
1263,117
1264,117
1265,117
1266,117
1267,117
1268,117
1269,117
1270,117
1271,117
1272,117
1273,117
1274,117
1275,117
1276,117
1277,117
1278,117
1279,117
1280,117
1281,117
1282,117
1283,117
1284,119
1285,119
1286,119
1287,119
1288,119
1289,119
1290,120
1291,120
1292,120
1293,120
1294,120
1295,120
1296,120
1297,120
1298,120
1299,121
1300,121
1301,121
1302,121
1303,121
1304,121
1305,121
1306,121
1307,121
1308,121
1309,121
1310,121
1311,121
1312,121
1313,121
1314,121
1315,121
1316,121
1317,121
1318,121
1319,121
1320,121
1321,121
1322,121
1323,121
1324,121
1325,121
1326,121
1327,121
1328,122
1329,122
1330,123
1331,123
1332,123
1333,123
1334,123
1335,123
1336,123
1337,123
1338,123
1339,123
1340,123
1341,123
1342,123
1343,123
1344,123
1345,123
1346,123
1347,123
1348,123
1349,123
1350,123
1351,123
1352,123
1353,123
1354,123
1355,123
1356,123
1357,123
1358,123
1359,123
1360,123
1361,123
1362,123
1363,124
1364,124
1365,124
1366,124
1367,124
1368,124
1369,124
1370,125
1371,125
1372,125
1373,126
1374,126
1375,127
1376,127
1377,127
1378,127
1379,128
1380,128
1381,128
1382,129
1383,129
1384,129
1385,129
1386,129
1387,129
1388,129
1389,129
1390,129
1391,129
1392,129
1393,129
1394,129
1395,129
1396,129
1397,129
1398,129
1399,129
1400,129
1401,129
1402,129
1403,129
1404,129
1405,129
1406,129
1407,130
1408,130
1409,130
1410,131
1411,131
1412,131
1413,131
1414,131
1415,131
1416,131
1417,131
1418,131
1419,131
1420,131
1421,131
1422,131
1423,131
1424,131
1425,131
1426,131
1427,131
1428,131
1429,131
1430,131
1431,131
1432,131
1433,131
1434,131
1435,131
1436,131
1437,131
1438,131
1439,131
1440,131
1441,131
1442,131
1443,131
1444,131
1445,131
1446,131
1447,131
1448,131
1449,131
1450,131
1451,131
1452,131
1453,131
1454,131
1455,131
1456,131
1457,131
1458,131
1459,131
1460,131
1461,131
1462,131
1463,132
1464,132
1465,132
1466,132
1467,132
1468,132
1469,132
1470,132
1471,132
1472,132
1473,132
1474,132
1475,132
1476,132
1477,132
1478,133
1479,133
1480,133
1481,133
1482,133
1483,133
1484,133
1485,133
1486,133
1487,133
1488,133
1489,133
1490,133
1491,134
1492,134
1493,134
1494,134
1495,134
1496,134
1497,134
1498,134
1499,134
1500,134
1501,134
1502,134
1503,134
1504,134
1505,134
1506,134
1507,134
1508,135
1509,135
1510,135
1511,135
1512,135
1513,136
1514,136
1515,136
1516,136
1517,136
1518,136
1519,136
1520,136
1521,137
1522,137
1523,137
1524,137
1525,137
1526,137
1527,137
1528,138
1529,138
1530,138
1531,138
1532,138
1533,138
1534,138
1535,138
1536,138
1537,138
1538,138
1539,138
1540,138
1541,138
1542,139
1543,139
1544,139
1545,139
1546,139
1547,139
1548,139
1549,139
1550,140
1551,140
1552,140
1553,140
1554,140
1555,140
1556,140
1557,140
1558,140
1559,140
1560,140
1561,140
1562,140
1563,140
1564,140
1565,140
1566,140
1567,140
1568,140
1569,140
1570,140
1571,140
1572,140
1573,140
1574,140
1575,140
1576,140
1577,140
1578,140
1579,140
1580,140
1581,140
1582,140
1583,140
1584,140
1585,140
1586,140
1587,140
1588,141
1589,141
1590,141
1591,141
1592,141
1593,141
1594,141
1595,141
1596,141
1597,141
1598,141
1599,141
1600,141
1601,141
1602,141
1603,142
1604,143
1605,143
1606,143
1607,143
1608,143
1609,143
1610,143
1611,143
1612,143
1613,143
1614,143
1615,143
1616,143
1617,143
1618,144
1619,144
1620,144
1621,144
1622,144
1623,144
1624,144
1625,144
1626,144
1627,144
1628,144
1629,144
1630,144
1631,144
1632,144
1633,144
1634,144
1635,145
1636,145
1637,146
1638,146
1639,146
1640,146
1641,146
1642,146
1643,146
1644,146
1645,146
1646,146
1647,146
1648,146
1649,146
1650,146
1651,146
1652,146
1653,146
1654,146
1655,147
1656,147
1657,147
1658,147
1659,147
1660,147
1661,147
1662,147
1663,147
1664,147
1665,147
1666,147
1667,147
1668,147
1669,147
1670,147
1671,147
1672,147
1673,147
1674,148
1675,148
1676,148
1677,148
1678,148
1679,148
1680,148
1681,148
1682,148
1683,148
1684,148
1685,148
1686,148
1687,148
1688,148
1689,148
1690,148
1691,148
1692,148
1693,148
1694,148
1695,148
1696,148
1697,148
1698,148
1699,148
1700,148
1701,148
1702,148
1703,148
1704,148
1705,148
1706,148
1707,148
1708,148
1709,148
1710,148
1711,148
1712,148
1713,148
1714,148
1715,148
1716,148
1717,148
1718,148
1719,148
1720,148
1721,149
1722,149
1723,150
1724,150
1725,151
1726,151
1727,151
1728,151
1729,151
1730,151
1731,151
1732,151
1733,151
1734,151
1735,151
1736,152
1737,152
1738,152
1739,152
1740,152
1741,152
1742,152
1743,152
1744,152
1745,152
1746,152
1747,152
1748,152
1749,152
1750,152
1751,152
1752,152
1753,152
1754,152
1755,152
1756,152
1757,152
1758,152
1759,152
1760,152
1761,152
1762,152
1763,153
1764,153
1765,153
1766,153
1767,153
1768,153
1769,153
1770,153
1771,153
1772,153
1773,153
1774,153
1775,153
1776,153
1777,153
1778,153
1779,153
1780,153
1781,153
1782,153
1783,154
1784,154
1785,154
1786,154
1787,154
1788,154
1789,154
1790,154
1791,154
1792,154
1793,154
1794,155
1795,155
1796,155
1797,155
1798,155
1799,155
1800,155
1801,155
1802,155
1803,155
1804,155
1805,155
1806,155
1807,155
1808,155
1809,155
1810,155
1811,156
1812,156
1813,156
1814,156
1815,156
1816,156
1817,156
1818,156
1819,156
1820,156
1821,156
1822,156
1823,156
1824,156
1825,156
1826,157
1827,157
1828,157
1829,157
1830,157
1831,157
1832,157
1833,157
1834,158
1835,158
1836,158
1837,158
1838,158
1839,158
1840,158
1841,158
1842,158
1843,158
1844,158
1845,158
1846,158
1847,158
1848,158
1849,158
1850,158
1851,158
1852,158
1853,158
1854,158
1855,158
1856,158
1857,158
1858,158
1859,158
1860,158
1861,158
1862,159
1863,159
1864,160
1865,160
1866,160
1867,160
1868,160
1869,160
1870,160
1871,160
1872,160
1873,160
1874,160
1875,160
1876,160
1877,160
1878,160
1879,160
1880,160
1881,160
1882,160
1883,160
1884,160
1885,160
1886,160
1887,160
1888,160
1889,160
1890,160
1891,160
1892,160
1893,160
1894,160
1895,160
1896,160
1897,160
1898,160
1899,160
1900,160
1901,160
1902,160
1903,160
1904,160
1905,160
1906,160
1907,160
1908,160
1909,160
1910,160
1911,160
1912,160
1913,160
1914,160
1915,160
1916,160
1917,160
1918,160
1919,160
1920,160
1921,161
1922,161
1923,161
1924,161
1925,161
1926,161
1927,161
1928,161
1929,161
1930,161
1931,161
1932,162
1933,162
1934,162
1935,162
1936,162
1937,162
1938,162
1939,162
1940,162
1941,162
1942,162
1943,162
1944,162
1945,164
1946,164
1947,164
1948,165
1949,165
1950,165
1951,165
1952,165
1953,165
1954,165
1955,165
1956,165
1957,165
1958,165
1959,165
1960,165
1961,165
1962,166
1963,167
1964,167
1965,167
1966,167
1967,167
1968,167
1969,167
1970,167
1971,167
1972,167
1973,167
1974,167
1975,167
1976,167
1977,167
1978,168
1979,168
1980,168
1981,168
1982,168
1983,168
1984,168
1985,168
1986,168
1987,169
1988,169
1989,169
1990,169
1991,169
1992,169
1993,169
1994,169
1995,169
1996,169
1997,169
1998,169
1999,170
2000,170
