"tick","total"
0,0
1,0
2,0
3,0
4,0
5,0
6,0
7,0
8,0
9,0
10,0
11,0
12,0
13,0
14,0
15,0
16,0
17,0
18,0
19,0
20,0
21,0
22,0
23,0
24,0
25,0
26,0
27,0
28,0
29,0
30,0
31,0
32,0
33,0
34,0
35,0
36,0
37,0
38,0
39,0
40,0
41,0
42,0
43,0
44,0
45,0
46,0
47,0
48,0
49,0
50,0
51,0
52,0
53,0
54,0
55,0
56,0
57,0
58,0
59,0
60,0
61,0
62,0
63,0
64,0
65,0
66,0
67,0
68,0
69,0
70,0
71,0
72,0
73,0
74,0
75,0
76,0
77,0
78,0
79,0
80,0
81,0
82,0
83,0
84,0
85,0
86,0
87,0
88,0
89,0
90,0
91,0
92,0
93,0
94,0
95,0
96,0
97,0
98,0
99,0
100,0
101,0
102,0
103,0
104,0
105,0
106,0
107,0
108,0
109,0
110,0
111,0
112,0
113,0
114,0
115,1
116,1
117,1
118,1
119,1
120,1
121,1
122,1
123,1
124,1
125,1
126,1
127,1
128,1
129,1
130,1
131,1
132,1
133,1
134,1
135,1
136,1
137,1
138,1
139,1
140,1
141,1
142,1
143,1
144,1
145,1
146,1
147,1
148,1
149,1
150,1
151,1
152,1
153,1
154,1
155,1
156,1
157,1
158,1
159,1
160,1
161,1
162,1
163,1
164,1
165,1
166,1
167,1
168,1
169,1
170,1
171,1
172,1
173,1
174,1
175,1
176,1
177,1
178,1
179,1
180,1
181,1
182,1
183,1
184,1
185,1
186,1
187,1
188,1
189,1
190,1
191,1
192,1
193,1
194,1
195,1
196,1
197,1
198,1
199,1
200,1
201,1
202,1
203,1
204,1
205,1
206,1
207,1
208,1
209,1
210,1
211,1
212,1
213,1
214,1
215,1
216,1
217,1
218,1
219,1
220,1
221,1
222,1
223,1
224,2
225,2
226,2
227,2
228,2
229,2
230,2
231,2
232,2
233,2
234,2
235,2
236,2
237,2
238,2
239,2
240,2
241,2
242,3
243,3
244,3
245,3
246,3
247,3
248,3
249,3
250,3
251,3
252,3
253,3
254,3
255,3
256,3
257,4
258,4
259,4
260,4
261,4
262,4
263,4
264,4
265,4
266,4
267,4
268,4
269,4
270,4
271,4
272,4
273,4
274,4
275,4
276,4
277,4
278,4
279,4
280,4
281,4
282,4
283,4
284,6
285,6
286,6
287,6
288,6
289,7
290,7
291,7
292,7
293,7
294,7
295,7
296,7
297,7
298,7
299,7
300,7
301,7
302,7
303,7
304,7
305,7
306,7
307,7
308,7
309,7
310,7
311,7
312,7
313,7
314,7
315,7
316,7
317,7
318,8
319,8
320,8
321,8
322,8
323,8
324,8
325,8
326,9
327,9
328,9
329,9
330,9
331,9
332,9
333,10
334,10
335,10
336,10
337,10
338,10
339,10
340,10
341,10
342,10
343,10
344,10
345,10
346,10
347,10
348,10
349,10
350,10
351,10
352,10
353,10
354,11
355,11
356,11
357,11
358,11
359,11
360,11
361,11
362,11
363,11
364,11
365,11
366,11
367,13
368,13
369,13
370,13
371,14
372,14
373,15
374,15
375,15
376,15
377,15
378,15
379,15
380,15
381,15
382,15
383,15
384,15
385,15
386,15
387,15
388,15
389,15
390,15
391,15
392,15
393,15
394,15
395,15
396,15
397,15
398,15
399,15
400,15
401,15
402,15
403,15
404,17
405,17
406,17
407,17
408,18
409,18
410,18
411,18
412,18
413,18
414,19
415,19
416,19
417,19
418,19
419,19
420,19
421,19
422,19
423,19
424,19
425,19
426,19
427,19
428,19
429,20
430,20
431,20
432,20
433,21
434,21
435,21
436,21
437,21
438,21
439,21
440,21
441,21
442,21
443,22
444,23
445,23
446,23
447,23
448,23
449,23
450,23
451,23
452,24
453,24
454,24
455,24
456,24
457,25
458,25
459,25
460,25
461,25
462,25
463,26
464,27
465,27
466,27
467,27
468,27
469,27
470,27
471,27
472,27
473,27
474,27
475,27
476,27
477,28
478,28
479,28
480,28
481,28
482,28
483,28
484,28
485,28
486,28
487,29
488,29
489,29
490,29
491,29
492,29
493,29
494,29
495,29
496,29
497,29
498,29
499,29
500,29
501,29
502,29
503,29
504,29
505,29
506,29
507,29
508,29
509,29
510,29
511,29
512,29
513,29
514,29
515,29
516,29
517,30
518,30
519,30
520,30
521,30
522,30
523,30
524,30
525,30
526,30
527,30
528,30
529,30
530,30
531,30
532,30
533,30
534,30
535,30
536,30
537,30
538,30
539,30
540,30
541,30
542,30
543,30
544,30
545,30
546,30
547,30
548,30
549,30
550,30
551,30
552,30
553,30
554,30
555,31
556,31
557,31
558,31
559,31
560,31
561,31
562,31
563,31
564,31
565,31
566,31
567,31
568,31
569,31
570,31
571,31
572,31
573,31
574,31
575,31
576,31
577,31
578,31
579,31
580,31
581,31
582,31
583,31
584,31
585,32
586,32
587,32
588,32
589,32
590,32
591,32
592,32
593,32
594,32
595,32
596,32
597,32
598,32
599,32
600,32
601,32
602,32
603,32
604,32
605,32
606,32
607,32
608,32
609,32
610,32
611,32
612,32
613,33
614,33
615,33
616,33
617,33
618,33
619,33
620,33
621,33
622,33
623,33
624,33
625,33
626,33
627,33
628,33
629,33
630,33
631,33
632,33
633,33
634,33
635,33
636,33
637,33
638,33
639,33
640,33
641,33
642,33
643,33
644,33
645,33
646,33
647,33
648,33
649,34
650,34
651,34
652,34
653,34
654,34
655,34
656,34
657,34
658,34
659,34
660,34
661,34
662,34
663,34
664,34
665,34
666,34
667,34
668,34
669,34
670,34
671,34
672,34
673,34
674,34
675,34
676,34
677,34
678,34
679,34
680,34
681,34
682,34
683,34
684,34
685,34
686,34
687,34
688,34
689,34
690,34
691,34
692,34
693,34
694,34
695,34
696,34
697,34
698,34
699,34
700,34
701,34
702,34
703,34
704,34
705,34
706,34
707,34
708,34
709,34
710,34
711,34
712,34
713,34
714,34
715,34
716,34
717,34
718,34
719,34
720,34
721,34
722,34
723,34
724,34
725,34
726,34
727,34
728,34
729,34
730,34
731,34
732,34
733,34
734,34
735,34
736,34
737,34
738,34
739,34
740,34
741,34
742,34
743,34
744,34
745,34
746,34
747,34
748,34
749,34
750,34
751,34
752,34
753,34
754,34
755,34
756,34
757,34
758,34
759,34
760,34
761,34
762,34
763,34
764,34
765,34
766,34
767,34
768,34
769,34
770,34
771,34
772,34
773,34
774,34
775,34
776,34
777,34
778,34
779,34
780,34
781,34
782,34
783,34
784,34
785,34
786,34
787,34
788,34
789,34
790,34
791,35
792,35
793,35
794,35
795,35
796,35
797,35
798,35
799,35
800,36
801,36
802,36
803,36
804,36
805,36
806,36
807,36
808,36
809,36
810,36
811,36
812,36
813,36
814,36
815,36
816,36
817,36
818,36
819,36
820,36
821,36
822,36
823,36
824,36
825,36
826,36
827,36
828,36
829,36
830,36
831,36
832,36
833,36
834,36
835,36
836,36
837,37
838,37
839,37
840,37
841,37
842,37
843,37
844,37
845,37
846,38
847,38
848,38
849,38
850,38
851,38
852,38
853,38
854,39
855,39
856,39
857,39
858,39
859,40
860,40
861,40
862,40
863,40
864,40
865,40
866,40
867,40
868,40
869,40
870,40
871,40
872,40
873,40
874,40
875,40
876,40
877,40
878,40
879,40
880,40
881,40
882,41
883,41
884,41
885,41
886,41
887,41
888,41
889,41
890,42
891,42
892,42
893,42
894,42
895,42
896,42
897,43
898,43
899,43
900,43
901,43
902,43
903,43
904,43
905,44
906,44
907,44
908,44
909,44
910,44
911,44
912,44
913,44
914,44
915,44
916,44
917,44
918,44
919,44
920,45
921,45
922,45
923,45
924,45
925,45
926,45
927,45
928,45
929,45
930,45
931,45
932,45
933,45
934,46
935,46
936,46
937,46
938,46
939,46
940,46
941,46
942,46
943,46
944,46
945,46
946,46
947,46
948,46
949,46
950,46
951,46
952,47
953,47
954,47
955,47
956,47
957,47
958,47
959,47
960,48
961,48
962,48
963,49
964,49
965,49
966,49
967,50
968,50
969,50
970,50
971,50
972,50
973,50
974,50
975,50
976,50
977,50
978,50
979,50
980,50
981,50
982,50
983,50
984,50
985,50
986,50
987,50
988,50
989,50
990,50
991,50
992,50
993,50
994,50
995,50
996,50
997,50
998,51
999,51
1000,51
1001,51
1002,51
1003,51
1004,51
1005,51
1006,51
1007,51
1008,51
1009,51
1010,51
1011,52
1012,52
1013,52
1014,52
1015,53
1016,53
1017,53
1018,54
1019,54
1020,54
1021,54
1022,54
1023,54
1024,54
1025,54
1026,54
1027,54
1028,54
1029,54
1030,54
1031,54
1032,54
1033,54
1034,54
1035,54
1036,54
1037,54
1038,54
1039,54
1040,54
1041,54
1042,54
1043,54
1044,54
1045,54
1046,54
1047,55
1048,55
1049,55
1050,55
1051,55
1052,55
1053,55
1054,55
1055,55
1056,55
1057,55
1058,55
1059,55
1060,55
1061,55
1062,55
1063,55
1064,55
1065,55
1066,55
1067,55
1068,55
1069,55
1070,55
1071,55
1072,55
1073,55
1074,55
1075,55
1076,55
1077,56
1078,56
1079,56
1080,56
1081,56
1082,56
1083,56
1084,56
1085,57
1086,57
1087,57
1088,57
1089,57
1090,57
1091,57
1092,57
1093,57
1094,57
1095,57
1096,57
1097,57
1098,57
1099,58
1100,59
1101,59
1102,60
1103,60
1104,60
1105,60
1106,60
1107,60
1108,60
1109,60
1110,60
1111,60
1112,60
1113,60
1114,60
1115,60
1116,60
1117,60
1118,60
1119,60
1120,60
1121,60
1122,60
1123,60
1124,60
1125,60
1126,60
1127,60
1128,60
1129,60
1130,60
1131,60
1132,60
1133,60
1134,60
1135,60
1136,60
1137,60
1138,60
1139,60
1140,60
1141,60
1142,60
1143,60
1144,60
1145,60
1146,60
1147,60
1148,60
1149,60
1150,60
1151,60
1152,60
1153,60
1154,60
1155,60
1156,60
1157,60
1158,60
1159,60
1160,60
1161,60
1162,60
1163,60
1164,60
1165,60
1166,60
1167,60
1168,60
1169,60
1170,60
1171,60
1172,60
1173,60
1174,60
1175,60
1176,60
1177,60
1178,60
1179,60
1180,60
1181,60
1182,60
1183,60
1184,60
1185,60
1186,60
1187,60
1188,60
1189,60
1190,60
1191,60
1192,60
1193,60
1194,60
1195,60
1196,60
1197,60
1198,60
1199,60
1200,60
1201,60
1202,60
1203,60
1204,60
1205,60
1206,60
1207,60
1208,60
1209,60
1210,60
1211,60
1212,60
1213,60
1214,60
1215,60
1216,60
1217,60
1218,60
1219,60
1220,60
1221,60
1222,60
1223,60
1224,60
1225,60
1226,60
1227,60
1228,60
1229,60
1230,60
1231,60
1232,60
1233,60
1234,60
1235,60
1236,60
1237,60
1238,60
1239,60
1240,60
1241,60
1242,60
1243,60
1244,60
1245,60
1246,60
1247,60
1248,61
1249,61
1250,61
1251,61
1252,61
1253,61
1254,61
1255,61
1256,61
1257,61
1258,61
1259,61
1260,61
1261,61
1262,61
1263,61
1264,61
1265,61
1266,61
1267,61
1268,61
1269,61
1270,61
1271,61
1272,61
1273,61
1274,61
1275,61
1276,61
1277,61
1278,61
1279,61
1280,61
1281,61
1282,61
1283,61
1284,61
1285,62
1286,62
1287,62
1288,62
1289,62
1290,62
1291,62
1292,62
1293,62
1294,62
1295,62
1296,62
1297,62
1298,62
1299,62
1300,62
1301,62
1302,62
1303,62
1304,62
1305,62
1306,62
1307,62
1308,62
1309,62
1310,62
1311,62
1312,62
1313,63
1314,63
1315,63
1316,63
1317,63
1318,63
1319,63
1320,63
1321,63
1322,63
1323,63
1324,63
1325,63
1326,63
1327,63
1328,63
1329,64
1330,64
1331,64
1332,64
1333,64
1334,64
1335,64
1336,64
1337,64
1338,64
1339,64
1340,64
1341,64
1342,64
1343,64
1344,64
1345,64
1346,64
1347,65
1348,65
1349,65
1350,65
1351,65
1352,65
1353,65
1354,65
1355,65
1356,65
1357,65
1358,65
1359,65
1360,65
1361,65
1362,65
1363,65
1364,65
1365,65
1366,65
1367,65
1368,65
1369,65
1370,65
1371,65
1372,65
1373,65
1374,65
1375,65
1376,65
1377,65
1378,65
1379,65
1380,65
1381,65
1382,65
1383,65
1384,65
1385,65
1386,65
1387,65
1388,65
1389,65
1390,65
1391,65
1392,65
1393,65
1394,65
1395,65
1396,65
1397,65
1398,65
1399,65
1400,65
1401,65
1402,65
1403,65
1404,65
1405,65
1406,65
1407,65
1408,65
1409,65
1410,65
1411,65
1412,65
1413,65
1414,65
1415,65
1416,65
1417,65
1418,65
1419,65
1420,65
1421,65
1422,66
1423,66
1424,66
1425,66
1426,66
1427,66
1428,66
1429,66
1430,66
1431,66
1432,66
1433,66
1434,66
1435,66
1436,66
1437,66
1438,66
1439,66
1440,66
1441,66
1442,66
1443,66
1444,66
1445,66
1446,66
1447,66
1448,66
1449,66
1450,66
1451,66
1452,66
1453,66
1454,66
1455,66
1456,66
1457,67
1458,67
1459,67
1460,67
1461,67
1462,67
1463,68
1464,68
1465,68
1466,68
1467,68
1468,68
1469,68
1470,68
1471,68
1472,68
1473,68
1474,68
1475,68
1476,68
1477,68
1478,68
1479,68
1480,68
1481,68
1482,68
1483,68
1484,68
1485,68
1486,68
1487,68
1488,68
1489,68
1490,68
1491,68
1492,68
1493,68
1494,68
1495,68
1496,68
1497,68
1498,68
1499,68
1500,68
1501,68
1502,68
1503,68
1504,68
1505,68
1506,68
1507,68
1508,68
1509,68
1510,68
1511,68
1512,68
1513,68
1514,68
1515,68
1516,68
1517,68
1518,68
1519,69
1520,69
1521,69
1522,69
1523,69
1524,69
1525,69
1526,69
1527,69
1528,69
1529,69
1530,69
1531,69
1532,69
1533,69
1534,69
1535,69
1536,69
1537,69
1538,69
1539,69
1540,69
1541,69
1542,70
1543,70
1544,70
1545,70
1546,70
1547,70
1548,70
1549,70
1550,70
1551,70
1552,70
1553,70
1554,70
1555,71
1556,71
1557,71
1558,71
1559,71
1560,71
1561,71
1562,71
1563,71
1564,71
1565,71
1566,71
1567,71
1568,71
1569,71
1570,71
1571,71
1572,71
1573,71
1574,71
1575,71
1576,71
1577,71
1578,71
1579,71
1580,71
1581,71
1582,71
1583,71
1584,71
1585,71
1586,71
1587,71
1588,73
1589,73
1590,73
1591,74
1592,74
1593,74
1594,74
1595,74
1596,74
1597,74
1598,74
1599,74
1600,74
1601,75
1602,75
1603,75
1604,75
1605,75
1606,75
1607,75
1608,75
1609,75
1610,75
1611,75
1612,75
1613,76
1614,76
1615,76
1616,76
1617,76
1618,76
1619,76
1620,76
1621,76
1622,76
1623,77
1624,77
1625,77
1626,77
1627,77
1628,77
1629,77
1630,77
1631,78
1632,78
1633,78
1634,78
1635,78
1636,78
1637,78
1638,78
1639,78
1640,78
1641,78
1642,78
1643,78
1644,78
1645,78
1646,78
1647,78
1648,78
1649,78
1650,78
1651,78
1652,78
1653,78
1654,78
1655,78
1656,78
1657,78
1658,78
1659,78
1660,78
1661,78
1662,78
1663,78
1664,78
1665,79
1666,79
1667,79
1668,79
1669,79
1670,79
1671,79
1672,79
1673,79
1674,79
1675,79
1676,79
1677,79
1678,79
1679,79
1680,79
1681,79
1682,79
1683,79
1684,79
1685,79
1686,79
1687,79
1688,79
1689,79
1690,79
1691,79
1692,79
1693,79
1694,79
1695,79
1696,80
1697,80
1698,81
1699,81
1700,81
1701,82
1702,82
1703,82
1704,82
1705,82
1706,82
1707,82
1708,82
1709,82
1710,82
1711,83
1712,83
1713,83
1714,83
1715,83
1716,83
1717,83
1718,83
1719,83
1720,83
1721,83
1722,83
1723,83
1724,83
1725,83
1726,83
1727,83
1728,83
1729,83
1730,83
1731,83
1732,83
1733,83
1734,83
1735,83
1736,83
1737,83
1738,83
1739,83
1740,83
1741,83
1742,83
1743,83
1744,84
1745,84
1746,84
1747,84
1748,84
1749,84
1750,85
1751,85
1752,85
1753,85
1754,85
1755,85
1756,85
1757,85
1758,85
1759,86
1760,86
1761,86
1762,86
1763,86
1764,86
1765,86
1766,86
1767,86
1768,86
1769,86
1770,86
1771,86
1772,86
1773,86
1774,86
1775,86
1776,86
1777,86
1778,86
1779,86
1780,86
1781,86
1782,86
1783,86
1784,86
1785,86
1786,86
1787,86
1788,86
1789,86
1790,86
1791,86
1792,86
1793,86
1794,86
1795,86
1796,86
1797,86
1798,86
1799,86
1800,86
1801,86
1802,86
1803,86
1804,86
1805,86
1806,86
1807,86
1808,86
1809,86
1810,86
1811,86
1812,86
1813,86
1814,86
1815,86
1816,86
1817,86
1818,86
1819,86
1820,86
1821,86
1822,86
1823,86
1824,86
1825,86
1826,86
1827,87
1828,87
1829,87
1830,87
1831,88
1832,88
1833,89
1834,89
1835,89
1836,89
1837,89
1838,89
1839,89
1840,89
1841,89
1842,89
1843,89
1844,89
1845,89
1846,89
1847,89
1848,89
1849,89
1850,89
1851,89
1852,89
1853,89
1854,89
1855,89
1856,89
1857,89
1858,89
1859,89
1860,89
1861,89
1862,89
1863,89
1864,89
1865,89
1866,89
1867,89
1868,89
1869,89
1870,89
1871,89
1872,89
1873,89
1874,89
1875,89
1876,89
1877,89
1878,89
1879,89
1880,89
1881,89
1882,89
1883,89
1884,89
1885,89
1886,89
1887,89
1888,89
1889,89
1890,89
1891,89
1892,89
1893,89
1894,90
1895,90
1896,90
1897,90
1898,90
1899,90
1900,90
1901,90
1902,90
1903,90
1904,90
1905,90
1906,90
1907,90
1908,90
1909,90
1910,90
1911,90
1912,90
1913,90
1914,90
1915,90
1916,90
1917,90
1918,90
1919,90
1920,90
1921,90
1922,90
1923,90
1924,90
1925,90
1926,90
1927,90
1928,90
1929,90
1930,90
1931,90
1932,90
1933,90
1934,91
1935,91
1936,91
1937,91
1938,91
1939,91
1940,91
1941,91
1942,91
1943,91
1944,91
1945,91
1946,91
1947,91
1948,91
1949,91
1950,91
1951,91
1952,91
1953,91
1954,91
1955,91
1956,91
1957,91
1958,91
1959,91
1960,91
1961,91
1962,91
1963,91
1964,91
1965,91
1966,91
1967,91
1968,91
1969,91
1970,91
1971,91
1972,91
1973,91
1974,91
1975,91
1976,91
1977,91
1978,91
1979,91
1980,91
1981,91
1982,91
1983,91
1984,91
1985,91
1986,91
1987,91
1988,91
1989,91
1990,91
1991,91
1992,91
1993,91
1994,91
1995,91
1996,91
1997,91
1998,91
1999,91
2000,91
