"tick","total"
0,0
1,0
2,0
3,0
4,0
5,0
6,0
7,0
8,0
9,0
10,0
11,0
12,0
13,0
14,0
15,0
16,0
17,0
18,0
19,0
20,0
21,0
22,0
23,0
24,0
25,0
26,0
27,0
28,0
29,0
30,0
31,0
32,0
33,0
34,0
35,0
36,0
37,0
38,0
39,0
40,0
41,0
42,0
43,0
44,0
45,0
46,0
47,0
48,0
49,0
50,0
51,0
52,0
53,0
54,0
55,0
56,0
57,0
58,0
59,0
60,0
61,0
62,0
63,0
64,0
65,0
66,0
67,0
68,0
69,0
70,0
71,0
72,0
73,0
74,0
75,0
76,0
77,0
78,0
79,0
80,0
81,0
82,0
83,0
84,0
85,0
86,0
87,0
88,0
89,0
90,0
91,0
92,0
93,0
94,0
95,0
96,0
97,0
98,0
99,0
100,0
101,0
102,0
103,0
104,0
105,0
106,0
107,0
108,0
109,0
110,0
111,0
112,0
113,0
114,0
115,0
116,0
117,0
118,0
119,0
120,0
121,0
122,0
123,0
124,0
125,0
126,0
127,0
128,0
129,0
130,0
131,0
132,0
133,0
134,0
135,0
136,0
137,0
138,0
139,0
140,0
141,0
142,0
143,0
144,0
145,0
146,0
147,0
148,0
149,0
150,0
151,0
152,0
153,0
154,0
155,0
156,0
157,0
158,0
159,0
160,0
161,0
162,0
163,0
164,0
165,0
166,0
167,0
168,0
169,0
170,0
171,0
172,0
173,0
174,0
175,0
176,0
177,0
178,0
179,0
180,0
181,0
182,0
183,0
184,0
185,0
186,0
187,0
188,0
189,0
190,0
191,0
192,0
193,0
194,0
195,0
196,0
197,0
198,0
199,0
200,0
201,0
202,0
203,0
204,0
205,0
206,0
207,0
208,0
209,0
210,0
211,0
212,0
213,0
214,0
215,0
216,0
217,0
218,0
219,0
220,1
221,1
222,1
223,2
224,2
225,2
226,2
227,2
228,2
229,2
230,2
231,3
232,3
233,3
234,3
235,3
236,4
237,4
238,4
239,4
240,5
241,5
242,5
243,5
244,5
245,5
246,5
247,5
248,5
249,6
250,6
251,6
252,6
253,6
254,6
255,6
256,6
257,6
258,6
259,6
260,6
261,6
262,6
263,6
264,6
265,6
266,7
267,7
268,7
269,7
270,7
271,7
272,7
273,8
274,8
275,8
276,9
277,9
278,9
279,9
280,9
281,9
282,10
283,11
284,11
285,11
286,12
287,12
288,12
289,12
290,13
291,13
292,13
293,13
294,13
295,13
296,13
297,14
298,14
299,14
300,14
301,14
302,14
303,15
304,15
305,15
306,15
307,15
308,15
309,15
310,15
311,15
312,15
313,16
314,16
315,16
316,16
317,16
318,16
319,16
320,17
321,18
322,18
323,19
324,19
325,19
326,20
327,20
328,20
329,20
330,20
331,20
332,20
333,20
334,21
335,21
336,21
337,21
338,21
339,21
340,21
341,21
342,21
343,21
344,21
345,21
346,21
347,21
348,21
349,21
350,21
351,21
352,21
353,21
354,21
355,21
356,21
357,21
358,21
359,21
360,21
361,21
362,21
363,21
364,21
365,21
366,22
367,22
368,22
369,22
370,22
371,22
372,22
373,22
374,22
375,22
376,22
377,22
378,22
379,22
380,22
381,23
382,23
383,23
384,23
385,23
386,23
387,23
388,23
389,23
390,23
391,23
392,23
393,23
394,23
395,23
396,23
397,23
398,23
399,23
400,23
401,23
402,23
403,23
404,23
405,23
406,23
407,23
408,23
409,23
410,23
411,23
412,23
413,23
414,23
415,24
416,24
417,24
418,24
419,24
420,24
421,24
422,24
423,24
424,24
425,24
426,24
427,24
428,24
429,24
430,25
431,25
432,25
433,25
434,25
435,25
436,25
437,25
438,25
439,25
440,25
441,25
442,25
443,26
444,27
445,27
446,27
447,27
448,27
449,28
450,28
451,28
452,28
453,28
454,28
455,28
456,28
457,28
458,28
459,29
460,30
461,30
462,30
463,30
464,30
465,31
466,31
467,31
468,31
469,31
470,31
471,31
472,31
473,31
474,31
475,31
476,31
477,31
478,31
479,31
480,31
481,31
482,31
483,31
484,31
485,31
486,31
487,31
488,31
489,31
490,31
491,31
492,31
493,31
494,31
495,31
496,31
497,31
498,31
499,31
500,31
501,31
502,31
503,31
504,31
505,31
506,31
507,31
508,31
509,31
510,31
511,31
512,31
513,31
514,31
515,31
516,31
517,31
518,31
519,31
520,31
521,31
522,31
523,31
524,31
525,31
526,31
527,31
528,31
529,31
530,31
531,31
532,31
533,31
534,31
535,31
536,31
537,31
538,31
539,31
540,31
541,31
542,31
543,31
544,31
545,31
546,31
547,31
548,31
549,31
550,31
551,31
552,32
553,32
554,32
555,32
556,33
557,33
558,33
559,33
560,33
561,33
562,33
563,33
564,33
565,33
566,33
567,33
568,33
569,33
570,33
571,33
572,33
573,33
574,33
575,33
576,33
577,33
578,33
579,33
580,33
581,33
582,33
583,33
584,33
585,33
586,33
587,33
588,33
589,33
590,33
591,33
592,33
593,33
594,33
595,33
596,33
597,33
598,33
599,33
600,33
601,33
602,34
603,34
604,34
605,34
606,34
607,34
608,34
609,34
610,34
611,34
612,34
613,35
614,35
615,35
616,35
617,35
618,36
619,36
620,36
621,36
622,37
623,37
624,37
625,37
626,37
627,37
628,37
629,37
630,37
631,37
632,37
633,37
634,37
635,38
636,39
637,39
638,39
639,39
640,39
641,39
642,39
643,39
644,39
645,39
646,39
647,39
648,39
649,39
650,39
651,39
652,39
653,39
654,39
655,39
656,39
657,39
658,39
659,39
660,39
661,39
662,39
663,39
664,39
665,39
666,39
667,39
668,39
669,39
670,39
671,39
672,39
673,39
674,39
675,39
676,39
677,39
678,39
679,39
680,39
681,39
682,39
683,39
684,39
685,39
686,39
687,39
688,39
689,39
690,39
691,39
692,39
693,40
694,40
695,40
696,40
697,40
698,40
699,40
700,40
701,40
702,40
703,41
704,41
705,41
706,41
707,41
708,41
709,41
710,41
711,41
712,41
713,41
714,41
715,41
716,41
717,41
718,41
719,41
720,41
721,41
722,41
723,41
724,41
725,41
726,41
727,41
728,41
729,41
730,41
731,41
732,41
733,41
734,41
735,41
736,41
737,42
738,42
739,42
740,42
741,43
742,43
743,43
744,44
745,44
746,44
747,44
748,44
749,44
750,44
751,45
752,45
753,45
754,45
755,45
756,46
757,46
758,46
759,46
760,46
761,46
762,46
763,46
764,46
765,47
766,47
767,47
768,47
769,47
770,47
771,47
772,47
773,47
774,48
775,48
776,48
777,48
778,48
779,48
780,48
781,48
782,48
783,48
784,48
785,48
786,48
787,48
788,48
789,48
790,48
791,48
792,48
793,48
794,48
795,48
796,48
797,48
798,48
799,48
800,48
801,48
802,48
803,48
804,48
805,48
806,48
807,48
808,48
809,48
810,48
811,48
812,48
813,48
814,48
815,48
816,48
817,48
818,48
819,48
820,48
821,48
822,48
823,48
824,48
825,48
826,48
827,48
828,48
829,48
830,48
831,48
832,48
833,48
834,48
835,48
836,48
837,48
838,48
839,48
840,48
841,48
842,48
843,48
844,48
845,48
846,48
847,48
848,48
849,48
850,48
851,48
852,48
853,48
854,48
855,48
856,48
857,48
858,48
859,48
860,48
861,48
862,48
863,48
864,48
865,48
866,48
867,48
868,48
869,48
870,48
871,48
872,48
873,48
874,48
875,48
876,48
877,48
878,48
879,48
880,48
881,48
882,48
883,48
884,48
885,48
886,48
887,48
888,48
889,48
890,48
891,48
892,48
893,48
894,48
895,48
896,48
897,48
898,48
899,48
900,48
901,48
902,48
903,48
904,48
905,48
906,48
907,48
908,48
909,48
910,48
911,48
912,48
913,48
914,48
915,48
916,48
917,48
918,48
919,48
920,48
921,48
922,48
923,48
924,48
925,48
926,48
927,48
928,48
929,48
930,48
931,48
932,48
933,48
934,48
935,48
936,49
937,49
938,49
939,49
940,49
941,49
942,49
943,49
944,49
945,49
946,49
947,49
948,49
949,49
950,49
951,49
952,49
953,49
954,49
955,49
956,49
957,49
958,49
959,49
960,49
961,49
962,49
963,49
964,49
965,49
966,49
967,49
968,49
969,49
970,49
971,49
972,49
973,49
974,49
975,49
976,49
977,49
978,49
979,49
980,49
981,49
982,49
983,49
984,49
985,49
986,49
987,49
988,49
989,49
990,49
991,49
992,49
993,50
994,50
995,50
996,50
997,50
998,50
999,50
1000,50
1001,50
1002,50
1003,50
1004,50
1005,50
1006,50
1007,50
1008,50
1009,50
1010,50
1011,51
1012,52
1013,52
1014,52
1015,52
1016,52
1017,52
1018,52
1019,52
1020,52
1021,52
1022,52
1023,52
1024,52
1025,52
1026,52
1027,52
1028,52
1029,52
1030,52
1031,52
1032,52
1033,52
1034,52
1035,52
1036,52
1037,52
1038,52
1039,52
1040,52
1041,52
1042,52
1043,52
1044,52
1045,52
1046,52
1047,52
1048,52
1049,52
1050,52
1051,52
1052,52
1053,52
1054,52
1055,52
1056,52
1057,52
1058,53
1059,53
1060,53
1061,53
1062,53
1063,53
1064,53
1065,53
1066,53
1067,53
1068,53
1069,53
1070,53
1071,53
1072,53
1073,53
1074,53
1075,53
1076,53
1077,53
1078,53
1079,54
1080,54
1081,54
1082,54
1083,54
1084,54
1085,54
1086,54
1087,54
1088,54
1089,54
1090,54
1091,54
1092,54
1093,54
1094,55
1095,55
1096,55
1097,55
1098,55
1099,55
1100,56
1101,56
1102,56
1103,57
1104,57
1105,58
1106,58
1107,58
1108,58
1109,58
1110,58
1111,58
1112,58
1113,58
1114,58
1115,58
1116,58
1117,58
1118,58
1119,58
1120,58
1121,58
1122,58
1123,58
1124,58
1125,58
1126,58
1127,58
1128,58
1129,58
1130,58
1131,58
1132,58
1133,58
1134,59
1135,59
1136,59
1137,59
1138,59
1139,59
1140,59
1141,59
1142,59
1143,60
1144,60
1145,60
1146,60
1147,60
1148,60
1149,60
1150,60
1151,60
1152,60
1153,60
1154,60
1155,60
1156,60
1157,60
1158,60
1159,61
1160,61
1161,62
1162,62
1163,62
1164,62
1165,62
1166,62
1167,62
1168,62
1169,62
1170,62
1171,62
1172,62
1173,62
1174,62
1175,63
1176,63
1177,63
1178,63
1179,63
1180,63
1181,63
1182,63
1183,63
1184,64
1185,64
1186,64
1187,64
1188,64
1189,64
1190,64
1191,64
1192,64
1193,64
1194,64
1195,64
1196,64
1197,64
1198,64
1199,64
1200,64
1201,64
1202,64
1203,64
1204,64
1205,64
1206,64
1207,64
1208,64
1209,64
1210,64
1211,64
1212,64
1213,64
1214,64
1215,64
1216,64
1217,64
1218,64
1219,64
1220,64
1221,64
1222,64
1223,64
1224,64
1225,64
1226,64
1227,64
1228,64
1229,64
1230,64
1231,64
1232,64
1233,64
1234,64
1235,64
1236,64
1237,64
1238,64
1239,64
1240,64
1241,64
1242,64
1243,64
1244,64
1245,64
1246,64
1247,64
1248,64
1249,64
1250,64
1251,64
1252,65
1253,65
1254,65
1255,65
1256,65
1257,65
1258,65
1259,65
1260,65
1261,65
1262,65
1263,65
1264,65
1265,65
1266,65
1267,65
1268,65
1269,65
1270,65
1271,65
1272,65
1273,65
1274,65
1275,65
1276,65
1277,65
1278,65
1279,65
1280,65
1281,65
1282,65
1283,65
1284,65
1285,65
1286,65
1287,65
1288,65
1289,65
1290,65
1291,65
1292,65
1293,65
1294,65
1295,65
1296,66
1297,66
1298,67
1299,67
1300,67
1301,67
1302,67
1303,67
1304,67
1305,67
1306,67
1307,67
1308,67
1309,67
1310,67
1311,67
1312,67
1313,67
1314,67
1315,67
1316,67
1317,67
1318,67
1319,67
1320,67
1321,67
1322,67
1323,67
1324,67
1325,67
1326,67
1327,67
1328,67
1329,67
1330,67
1331,67
1332,67
1333,67
1334,67
1335,67
1336,67
1337,67
1338,67
1339,67
1340,67
1341,67
1342,67
1343,67
1344,67
1345,67
1346,67
1347,67
1348,67
1349,67
1350,67
1351,67
1352,67
1353,67
1354,67
1355,67
1356,67
1357,67
1358,67
1359,67
1360,67
1361,67
1362,67
1363,67
1364,67
1365,67
1366,67
1367,67
1368,67
1369,67
1370,67
1371,67
1372,67
1373,67
1374,67
1375,67
1376,67
1377,67
1378,67
1379,67
1380,67
1381,67
1382,67
1383,67
1384,67
1385,67
1386,67
1387,67
1388,67
1389,67
1390,67
1391,67
1392,67
1393,67
1394,67
1395,67
1396,67
1397,68
1398,68
1399,68
1400,68
1401,68
1402,68
1403,68
1404,68
1405,68
1406,68
1407,68
1408,68
1409,68
1410,68
1411,68
1412,68
1413,68
1414,68
1415,68
1416,68
1417,68
1418,68
1419,68
1420,68
1421,68
1422,68
1423,68
1424,68
1425,68
1426,68
1427,69
1428,69
1429,69
1430,69
1431,69
1432,69
1433,69
1434,69
1435,69
1436,69
1437,69
1438,69
1439,69
1440,69
1441,69
1442,69
1443,69
1444,69
1445,69
1446,69
1447,69
1448,69
1449,69
1450,69
1451,69
1452,69
1453,69
1454,69
1455,69
1456,69
1457,69
1458,69
1459,69
1460,69
1461,69
1462,69
1463,69
1464,69
1465,69
1466,70
1467,70
1468,70
1469,70
1470,70
1471,70
1472,70
1473,70
1474,70
1475,70
1476,70
1477,70
1478,70
1479,70
1480,70
1481,71
1482,71
1483,71
1484,71
1485,71
1486,71
1487,71
1488,71
1489,71
1490,71
1491,71
1492,71
1493,71
1494,72
1495,72
1496,72
1497,73
1498,73
1499,73
1500,73
1501,73
1502,73
1503,73
1504,73
1505,73
1506,73
1507,73
1508,73
1509,73
1510,73
1511,73
1512,73
1513,73
1514,73
1515,73
1516,73
1517,73
1518,73
1519,74
1520,74
1521,74
1522,74
1523,74
1524,74
1525,74
1526,74
1527,74
1528,74
1529,74
1530,75
1531,75
1532,75
1533,75
1534,75
1535,75
1536,75
1537,75
1538,75
1539,75
1540,75
1541,75
1542,75
1543,75
1544,75
1545,75
1546,75
1547,75
1548,75
1549,75
1550,75
1551,75
1552,75
1553,75
1554,75
1555,75
1556,75
1557,75
1558,75
1559,75
1560,76
1561,76
1562,76
1563,76
1564,76
1565,76
1566,76
1567,76
1568,76
1569,76
1570,76
1571,76
1572,76
1573,76
1574,76
1575,76
1576,76
1577,76
1578,76
1579,76
1580,76
1581,76
1582,76
1583,76
1584,76
1585,76
1586,76
1587,76
1588,76
1589,76
1590,76
1591,76
1592,77
1593,77
1594,77
1595,77
1596,77
1597,77
1598,77
1599,77
1600,77
1601,77
1602,77
1603,77
1604,77
1605,77
1606,77
1607,77
1608,77
1609,78
1610,78
1611,78
1612,78
1613,78
1614,78
1615,80
1616,80
1617,80
1618,80
1619,80
1620,80
1621,81
1622,81
1623,81
1624,81
1625,81
1626,81
1627,81
1628,81
1629,81
1630,81
1631,82
1632,82
1633,82
1634,82
1635,82
1636,82
1637,82
1638,82
1639,82
1640,82
1641,82
1642,82
1643,82
1644,82
1645,82
1646,82
1647,82
1648,82
1649,83
1650,83
1651,83
1652,83
1653,83
1654,83
1655,83
1656,83
1657,83
1658,83
1659,83
1660,83
1661,83
1662,83
1663,83
1664,83
1665,83
1666,83
1667,83
1668,83
1669,83
1670,83
1671,83
1672,83
1673,83
1674,83
1675,83
1676,83
1677,83
1678,83
1679,83
1680,83
1681,83
1682,83
1683,83
1684,83
1685,83
1686,83
1687,83
1688,83
1689,83
1690,83
1691,83
1692,83
1693,83
1694,83
1695,83
1696,83
1697,83
1698,83
1699,83
1700,83
1701,83
1702,83
1703,83
1704,83
1705,83
1706,83
1707,83
1708,83
1709,83
1710,83
1711,83
1712,83
1713,83
1714,83
1715,83
1716,83
1717,83
1718,83
1719,83
1720,83
1721,83
1722,83
1723,83
1724,83
1725,83
1726,83
1727,83
1728,83
1729,84
1730,84
1731,84
1732,84
1733,84
1734,84
1735,84
1736,84
1737,84
1738,84
1739,84
1740,84
1741,84
1742,84
1743,84
1744,84
1745,84
1746,85
1747,86
1748,87
1749,88
1750,89
1751,91
1752,92
1753,94
1754,95
1755,95
1756,96
1757,96
1758,97
1759,97
1760,97
1761,97
1762,97
1763,97
1764,97
1765,98
1766,98
1767,98
1768,98
1769,98
1770,98
1771,98
1772,98
1773,98
1774,98
1775,98
1776,98
1777,98
1778,98
1779,98
1780,98
1781,98
1782,98
1783,98
1784,98
1785,98
1786,98
1787,98
1788,98
1789,98
1790,98
1791,98
1792,98
1793,98
1794,98
1795,98
1796,98
1797,98
1798,98
1799,98
1800,98
1801,98
1802,98
1803,98
1804,98
1805,98
1806,98
1807,98
1808,98
1809,98
1810,98
1811,98
1812,98
1813,98
1814,98
1815,98
1816,98
1817,98
1818,98
1819,98
1820,98
1821,98
1822,98
1823,98
1824,98
1825,98
1826,98
1827,98
1828,98
1829,98
1830,98
1831,98
1832,98
1833,98
1834,98
1835,98
1836,98
1837,98
1838,98
1839,98
1840,98
1841,98
1842,98
1843,98
1844,98
1845,98
1846,98
1847,98
1848,98
1849,98
1850,98
1851,98
1852,98
1853,98
1854,98
1855,98
1856,98
1857,98
1858,98
1859,98
1860,98
1861,98
1862,99
1863,99
1864,99
1865,99
1866,99
1867,99
1868,100
1869,100
1870,100
1871,100
1872,100
1873,100
1874,100
1875,100
1876,100
1877,100
1878,100
1879,100
1880,100
1881,100
1882,100
1883,100
1884,101
1885,101
1886,101
1887,101
1888,101
1889,101
1890,102
1891,102
1892,103
1893,103
1894,103
1895,103
1896,104
1897,105
1898,105
1899,105
1900,105
1901,105
1902,105
1903,105
1904,105
1905,105
1906,105
1907,105
1908,105
1909,105
1910,105
1911,105
1912,105
1913,105
1914,105
1915,105
1916,106
1917,106
1918,106
1919,106
1920,106
1921,106
1922,106
1923,106
1924,106
1925,107
1926,108
1927,108
1928,108
1929,108
1930,108
1931,108
1932,108
1933,108
1934,108
1935,108
1936,108
1937,108
1938,108
1939,108
1940,108
1941,108
1942,108
1943,108
1944,108
1945,108
1946,108
1947,108
1948,108
1949,108
1950,108
1951,108
1952,108
1953,108
1954,108
1955,108
1956,108
1957,108
1958,108
1959,108
1960,108
1961,108
1962,108
1963,108
1964,108
1965,108
1966,108
1967,108
1968,108
1969,108
1970,108
1971,108
1972,108
1973,108
1974,108
1975,108
1976,108
1977,108
1978,108
1979,108
1980,108
1981,108
1982,108
1983,108
1984,108
1985,108
1986,108
1987,108
1988,108
1989,108
1990,108
1991,108
1992,108
1993,108
1994,108
1995,108
1996,108
1997,108
1998,108
1999,108
2000,108
