"tick","total"
0,0
1,0
2,0
3,0
4,0
5,0
6,0
7,0
8,0
9,0
10,0
11,0
12,0
13,0
14,0
15,0
16,0
17,0
18,0
19,0
20,0
21,0
22,0
23,0
24,0
25,0
26,0
27,0
28,0
29,0
30,0
31,0
32,0
33,0
34,0
35,0
36,0
37,0
38,0
39,0
40,0
41,0
42,0
43,0
44,0
45,0
46,0
47,0
48,0
49,0
50,0
51,0
52,0
53,0
54,0
55,0
56,0
57,0
58,0
59,0
60,0
61,0
62,0
63,0
64,0
65,0
66,0
67,0
68,0
69,0
70,0
71,0
72,0
73,0
74,0
75,0
76,0
77,0
78,0
79,0
80,0
81,0
82,0
83,0
84,0
85,0
86,0
87,0
88,0
89,0
90,0
91,0
92,0
93,0
94,0
95,0
96,0
97,0
98,0
99,0
100,0
101,0
102,0
103,0
104,0
105,0
106,0
107,0
108,0
109,0
110,0
111,0
112,0
113,0
114,0
115,0
116,0
117,0
118,0
119,0
120,0
121,0
122,0
123,0
124,0
125,0
126,0
127,0
128,0
129,0
130,0
131,0
132,0
133,0
134,0
135,0
136,0
137,0
138,0
139,0
140,0
141,0
142,0
143,0
144,0
145,0
146,0
147,0
148,0
149,0
150,0
151,0
152,0
153,0
154,0
155,0
156,0
157,0
158,0
159,0
160,0
161,0
162,0
163,0
164,0
165,0
166,0
167,0
168,0
169,0
170,0
171,0
172,0
173,0
174,0
175,0
176,0
177,0
178,0
179,0
180,0
181,0
182,0
183,0
184,0
185,0
186,0
187,0
188,0
189,0
190,0
191,0
192,0
193,0
194,0
195,0
196,0
197,0
198,0
199,0
200,0
201,0
202,0
203,0
204,0
205,0
206,0
207,0
208,0
209,0
210,0
211,0
212,0
213,0
214,0
215,0
216,0
217,0
218,0
219,0
220,0
221,0
222,0
223,0
224,0
225,0
226,1
227,1
228,1
229,1
230,1
231,1
232,1
233,1
234,1
235,1
236,1
237,1
238,1
239,1
240,1
241,1
242,1
243,1
244,1
245,1
246,1
247,1
248,1
249,1
250,1
251,1
252,1
253,1
254,1
255,1
256,2
257,2
258,2
259,2
260,2
261,2
262,2
263,2
264,2
265,3
266,3
267,4
268,4
269,4
270,4
271,4
272,4
273,5
274,5
275,5
276,5
277,5
278,5
279,5
280,5
281,5
282,5
283,5
284,5
285,5
286,5
287,5
288,5
289,6
290,6
291,6
292,6
293,6
294,6
295,6
296,6
297,6
298,6
299,6
300,6
301,6
302,6
303,6
304,6
305,6
306,6
307,6
308,7
309,7
310,7
311,7
312,7
313,7
314,7
315,7
316,7
317,7
318,7
319,7
320,7
321,7
322,7
323,7
324,7
325,7
326,7
327,7
328,7
329,7
330,8
331,8
332,8
333,8
334,8
335,8
336,8
337,8
338,8
339,8
340,8
341,8
342,8
343,8
344,8
345,9
346,9
347,9
348,9
349,9
350,9
351,9
352,9
353,10
354,10
355,10
356,11
357,11
358,11
359,11
360,11
361,11
362,13
363,13
364,13
365,13
366,13
367,13
368,13
369,13
370,14
371,14
372,14
373,14
374,14
375,14
376,14
377,14
378,14
379,14
380,14
381,15
382,15
383,15
384,16
385,16
386,16
387,16
388,17
389,17
390,17
391,17
392,17
393,17
394,17
395,17
396,18
397,18
398,18
399,18
400,18
401,18
402,18
403,18
404,18
405,18
406,18
407,18
408,18
409,19
410,19
411,19
412,19
413,19
414,19
415,19
416,19
417,19
418,19
419,19
420,19
421,19
422,19
423,19
424,19
425,19
426,19
427,19
428,19
429,19
430,19
431,19
432,20
433,20
434,20
435,20
436,20
437,20
438,20
439,20
440,20
441,20
442,20
443,20
444,20
445,20
446,20
447,20
448,20
449,20
450,20
451,20
452,20
453,20
454,21
455,21
456,21
457,21
458,21
459,21
460,21
461,21
462,21
463,21
464,21
465,21
466,21
467,22
468,22
469,22
470,22
471,22
472,22
473,22
474,22
475,22
476,22
477,22
478,22
479,22
480,22
481,22
482,22
483,22
484,22
485,22
486,22
487,22
488,22
489,22
490,22
491,22
492,22
493,22
494,22
495,22
496,22
497,22
498,23
499,23
500,23
501,23
502,23
503,23
504,24
505,24
506,25
507,25
508,25
509,25
510,25
511,25
512,25
513,26
514,26
515,27
516,27
517,27
518,27
519,28
520,28
521,28
522,28
523,28
524,28
525,29
526,29
527,29
528,29
529,29
530,29
531,29
532,29
533,29
534,29
535,29
536,29
537,29
538,29
539,29
540,29
541,29
542,29
543,30
544,30
545,30
546,31
547,31
548,31
549,31
550,31
551,31
552,31
553,31
554,31
555,31
556,31
557,31
558,31
559,31
560,31
561,31
562,31
563,31
564,31
565,31
566,31
567,31
568,31
569,32
570,32
571,32
572,32
573,32
574,32
575,32
576,32
577,32
578,32
579,32
580,32
581,32
582,32
583,32
584,32
585,32
586,32
587,32
588,32
589,32
590,32
591,32
592,32
593,32
594,32
595,32
596,32
597,32
598,32
599,32
600,32
601,32
602,32
603,32
604,32
605,32
606,32
607,32
608,32
609,32
610,32
611,32
612,32
613,32
614,32
615,32
616,32
617,32
618,32
619,32
620,32
621,32
622,32
623,32
624,32
625,32
626,32
627,32
628,32
629,32
630,32
631,32
632,32
633,33
634,33
635,33
636,33
637,33
638,33
639,33
640,33
641,33
642,33
643,33
644,33
645,33
646,33
647,33
648,33
649,33
650,33
651,33
652,33
653,33
654,33
655,33
656,33
657,33
658,33
659,33
660,33
661,33
662,33
663,33
664,33
665,33
666,33
667,33
668,33
669,33
670,33
671,33
672,33
673,33
674,33
675,33
676,33
677,33
678,33
679,34
680,34
681,34
682,34
683,34
684,34
685,34
686,34
687,34
688,34
689,34
690,34
691,34
692,34
693,34
694,34
695,34
696,34
697,34
698,34
699,34
700,34
701,34
702,34
703,34
704,34
705,34
706,34
707,34
708,34
709,34
710,34
711,34
712,34
713,34
714,34
715,34
716,34
717,34
718,34
719,34
720,34
721,34
722,34
723,34
724,35
725,35
726,35
727,35
728,35
729,35
730,35
731,35
732,35
733,35
734,35
735,35
736,35
737,35
738,35
739,36
740,36
741,37
742,37
743,37
744,37
745,37
746,37
747,37
748,37
749,37
750,37
751,38
752,38
753,38
754,38
755,38
756,38
757,38
758,38
759,38
760,38
761,38
762,38
763,38
764,38
765,38
766,38
767,38
768,38
769,38
770,38
771,38
772,38
773,38
774,38
775,38
776,38
777,39
778,39
779,39
780,39
781,39
782,39
783,39
784,39
785,39
786,39
787,39
788,39
789,39
790,39
791,39
792,40
793,40
794,40
795,40
796,40
797,40
798,40
799,40
800,40
801,40
802,40
803,40
804,40
805,40
806,40
807,40
808,40
809,40
810,40
811,40
812,40
813,40
814,40
815,40
816,40
817,40
818,40
819,40
820,40
821,40
822,41
823,41
824,41
825,41
826,41
827,41
828,41
829,41
830,41
831,41
832,41
833,41
834,41
835,41
836,41
837,41
838,41
839,41
840,41
841,41
842,41
843,41
844,41
845,41
846,41
847,41
848,41
849,41
850,41
851,41
852,41
853,41
854,41
855,41
856,41
857,41
858,41
859,41
860,41
861,41
862,41
863,41
864,41
865,41
866,41
867,41
868,41
869,41
870,41
871,41
872,41
873,41
874,41
875,41
876,41
877,41
878,41
879,41
880,41
881,41
882,41
883,41
884,41
885,41
886,41
887,41
888,41
889,41
890,41
891,41
892,42
893,42
894,42
895,42
896,43
897,43
898,43
899,43
900,43
901,43
902,43
903,44
904,44
905,44
906,44
907,44
908,44
909,45
910,45
911,45
912,45
913,45
914,45
915,45
916,45
917,45
918,45
919,45
920,45
921,45
922,45
923,45
924,45
925,45
926,45
927,45
928,45
929,45
930,45
931,45
932,45
933,45
934,45
935,45
936,45
937,45
938,45
939,45
940,45
941,45
942,45
943,45
944,45
945,45
946,45
947,45
948,45
949,45
950,45
951,45
952,45
953,45
954,45
955,45
956,45
957,45
958,45
959,45
960,46
961,46
962,46
963,46
964,46
965,46
966,46
967,46
968,46
969,46
970,46
971,46
972,47
973,48
974,48
975,48
976,48
977,48
978,48
979,48
980,48
981,48
982,48
983,48
984,48
985,48
986,48
987,48
988,48
989,48
990,48
991,48
992,48
993,48
994,48
995,48
996,48
997,48
998,48
999,48
1000,48
1001,48
1002,48
1003,48
1004,48
1005,48
1006,48
1007,48
1008,48
1009,48
1010,48
1011,48
1012,48
1013,48
1014,48
1015,48
1016,48
1017,48
1018,48
1019,48
1020,48
1021,48
1022,48
1023,48
1024,48
1025,48
1026,48
1027,48
1028,48
1029,48
1030,49
1031,49
1032,49
1033,49
1034,49
1035,50
1036,50
1037,50
1038,50
1039,50
1040,50
1041,50
1042,50
1043,50
1044,50
1045,51
1046,51
1047,51
1048,52
1049,52
1050,53
1051,53
1052,53
1053,53
1054,54
1055,54
1056,54
1057,54
1058,54
1059,54
1060,54
1061,54
1062,54
1063,54
1064,54
1065,54
1066,54
1067,54
1068,54
1069,54
1070,54
1071,54
1072,54
1073,54
1074,54
1075,54
1076,54
1077,54
1078,54
1079,54
1080,54
1081,54
1082,54
1083,54
1084,54
1085,54
1086,54
1087,54
1088,54
1089,54
1090,54
1091,54
1092,54
1093,54
1094,55
1095,55
1096,55
1097,55
1098,55
1099,55
1100,55
1101,55
1102,56
1103,56
1104,57
1105,57
1106,57
1107,57
1108,57
1109,57
1110,57
1111,57
1112,58
1113,58
1114,58
1115,58
1116,58
1117,58
1118,58
1119,58
1120,58
1121,58
1122,58
1123,58
1124,58
1125,58
1126,58
1127,58
1128,58
1129,58
1130,58
1131,58
1132,58
1133,58
1134,58
1135,58
1136,58
1137,58
1138,58
1139,58
1140,58
1141,58
1142,58
1143,58
1144,58
1145,58
1146,58
1147,58
1148,58
1149,58
1150,58
1151,58
1152,58
1153,58
1154,58
1155,59
1156,59
1157,59
1158,59
1159,59
1160,59
1161,59
1162,59
1163,59
1164,59
1165,59
1166,59
1167,59
1168,59
1169,59
1170,59
1171,59
1172,59
1173,59
1174,59
1175,59
1176,59
1177,59
1178,59
1179,59
1180,59
1181,59
1182,59
1183,59
1184,59
1185,59
1186,59
1187,59
1188,59
1189,60
1190,60
1191,60
1192,60
1193,60
1194,60
1195,60
1196,60
1197,60
1198,60
1199,60
1200,60
1201,60
1202,60
1203,60
1204,60
1205,60
1206,60
1207,60
1208,60
1209,60
1210,60
1211,60
1212,60
1213,60
1214,60
1215,60
1216,60
1217,60
1218,60
1219,60
1220,60
1221,60
1222,60
1223,60
1224,60
1225,60
1226,60
1227,60
1228,60
1229,60
1230,60
1231,60
1232,60
1233,60
1234,60
1235,60
1236,60
1237,60
1238,60
1239,60
1240,60
1241,60
1242,60
1243,60
1244,60
1245,60
1246,60
1247,60
1248,60
1249,60
1250,60
1251,60
1252,60
1253,60
1254,60
1255,60
1256,60
1257,60
1258,60
1259,60
1260,60
1261,60
1262,60
1263,60
1264,60
1265,61
1266,61
1267,61
1268,61
1269,61
1270,61
1271,61
1272,61
1273,61
1274,61
1275,61
1276,61
1277,61
1278,61
1279,61
1280,61
1281,61
1282,61
1283,61
1284,61
1285,61
1286,61
1287,61
1288,61
1289,61
1290,61
1291,61
1292,61
1293,61
1294,61
1295,61
1296,61
1297,61
1298,61
1299,61
1300,61
1301,61
1302,61
1303,61
1304,61
1305,62
1306,62
1307,62
1308,62
1309,62
1310,62
1311,62
1312,62
1313,62
1314,62
1315,62
1316,62
1317,62
1318,62
1319,62
1320,62
1321,62
1322,62
1323,62
1324,62
1325,62
1326,62
1327,62
1328,62
1329,62
1330,62
1331,62
1332,62
1333,62
1334,62
1335,62
1336,62
1337,62
1338,62
1339,62
1340,62
1341,62
1342,62
1343,62
1344,62
1345,62
1346,62
1347,62
1348,62
1349,62
1350,62
1351,62
1352,62
1353,62
1354,62
1355,62
1356,62
1357,62
1358,62
1359,62
1360,62
1361,62
1362,62
1363,62
1364,62
1365,62
1366,62
1367,62
1368,62
1369,62
1370,62
1371,62
1372,62
1373,62
1374,62
1375,62
1376,63
1377,63
1378,63
1379,63
1380,63
1381,63
1382,63
1383,63
1384,63
1385,63
1386,63
1387,63
1388,63
1389,63
1390,63
1391,63
1392,63
1393,63
1394,63
1395,63
1396,63
1397,63
1398,63
1399,63
1400,63
1401,63
1402,63
1403,63
1404,63
1405,63
1406,63
1407,63
1408,63
1409,63
1410,63
1411,63
1412,64
1413,64
1414,64
1415,64
1416,64
1417,64
1418,64
1419,64
1420,64
1421,64
1422,64
1423,64
1424,64
1425,64
1426,64
1427,64
1428,64
1429,64
1430,64
1431,64
1432,64
1433,64
1434,64
1435,64
1436,64
1437,64
1438,64
1439,64
1440,64
1441,65
1442,65
1443,65
1444,65
1445,66
1446,66
1447,66
1448,66
1449,67
1450,67
1451,67
1452,68
1453,68
1454,68
1455,68
1456,68
1457,68
1458,68
1459,68
1460,68
1461,68
1462,68
1463,68
1464,68
1465,69
1466,69
1467,70
1468,70
1469,70
1470,70
1471,70
1472,70
1473,70
1474,70
1475,70
1476,70
1477,71
1478,71
1479,71
1480,71
1481,71
1482,71
1483,71
1484,71
1485,71
1486,71
1487,71
1488,71
1489,71
1490,71
1491,71
1492,71
1493,71
1494,71
1495,71
1496,71
1497,72
1498,72
1499,72
1500,72
1501,72
1502,72
1503,72
1504,72
1505,72
1506,72
1507,72
1508,72
1509,72
1510,72
1511,72
1512,72
1513,73
1514,73
1515,73
1516,73
1517,73
1518,73
1519,75
1520,75
1521,75
1522,75
1523,75
1524,75
1525,75
1526,75
1527,75
1528,75
1529,75
1530,75
1531,75
1532,75
1533,75
1534,75
1535,75
1536,75
1537,75
1538,75
1539,75
1540,75
1541,75
1542,75
1543,75
1544,75
1545,75
1546,75
1547,75
1548,75
1549,75
1550,75
1551,75
1552,75
1553,75
1554,75
1555,75
1556,75
1557,75
1558,75
1559,75
1560,75
1561,75
1562,75
1563,75
1564,75
1565,75
1566,75
1567,75
1568,75
1569,75
1570,76
1571,76
1572,76
1573,76
1574,76
1575,76
1576,76
1577,76
1578,76
1579,77
1580,77
1581,77
1582,77
1583,77
1584,77
1585,78
1586,78
1587,78
1588,78
1589,78
1590,78
1591,78
1592,78
1593,78
1594,78
1595,79
1596,79
1597,79
1598,79
1599,79
1600,79
1601,79
1602,79
1603,79
1604,79
1605,79
1606,79
1607,79
1608,79
1609,79
1610,79
1611,79
1612,79
1613,79
1614,79
1615,79
1616,79
1617,79
1618,79
1619,79
1620,79
1621,79
1622,79
1623,79
1624,79
1625,79
1626,79
1627,79
1628,80
1629,80
1630,80
1631,80
1632,80
1633,80
1634,80
1635,80
1636,80
1637,80
1638,80
1639,80
1640,80
1641,80
1642,80
1643,80
1644,80
1645,80
1646,80
1647,80
1648,80
1649,80
1650,80
1651,80
1652,80
1653,80
1654,80
1655,80
1656,80
1657,80
1658,80
1659,81
1660,81
1661,81
1662,81
1663,81
1664,81
1665,81
1666,81
1667,81
1668,81
1669,81
1670,81
1671,81
1672,81
1673,81
1674,81
1675,81
1676,81
1677,81
1678,81
1679,81
1680,81
1681,81
1682,81
1683,81
1684,81
1685,81
1686,82
1687,82
1688,82
1689,82
1690,82
1691,83
1692,83
1693,83
1694,83
1695,83
1696,83
1697,83
1698,84
1699,85
1700,85
1701,85
1702,85
1703,85
1704,86
1705,86
1706,86
1707,86
1708,86
1709,86
1710,86
1711,86
1712,86
1713,86
1714,86
1715,86
1716,86
1717,86
1718,86
1719,86
1720,86
1721,86
1722,86
1723,86
1724,86
1725,86
1726,86
1727,86
1728,86
1729,86
1730,86
1731,86
1732,86
1733,86
1734,86
1735,86
1736,86
1737,86
1738,86
1739,86
1740,86
1741,86
1742,86
1743,86
1744,86
1745,86
1746,86
1747,86
1748,86
1749,86
1750,86
1751,87
1752,87
1753,87
1754,88
1755,88
1756,88
1757,88
1758,88
1759,88
1760,88
1761,88
1762,89
1763,89
1764,89
1765,89
1766,89
1767,89
1768,89
1769,89
1770,89
1771,89
1772,89
1773,89
1774,89
1775,89
1776,89
1777,89
1778,89
1779,89
1780,89
1781,89
1782,89
1783,89
1784,89
1785,89
1786,89
1787,89
1788,89
1789,89
1790,89
1791,89
1792,89
1793,89
1794,89
1795,89
1796,89
1797,89
1798,90
1799,90
1800,90
1801,90
1802,90
1803,90
1804,90
1805,90
1806,90
1807,90
1808,90
1809,90
1810,90
1811,90
1812,90
1813,90
1814,90
1815,90
1816,90
1817,90
1818,90
1819,90
1820,90
1821,91
1822,91
1823,91
1824,91
1825,91
1826,91
1827,91
1828,91
1829,91
1830,92
1831,92
1832,92
1833,92
1834,92
1835,92
1836,92
1837,92
1838,92
1839,92
1840,92
1841,92
1842,92
1843,92
1844,92
1845,92
1846,92
1847,92
1848,92
1849,92
1850,92
1851,92
1852,92
1853,92
1854,92
1855,92
1856,92
1857,93
1858,93
1859,93
1860,93
1861,93
1862,93
1863,93
1864,93
1865,93
1866,93
1867,93
1868,93
1869,94
1870,94
1871,94
1872,94
1873,94
1874,94
1875,94
1876,94
1877,94
1878,94
1879,95
1880,95
1881,95
1882,95
1883,95
1884,95
1885,96
1886,96
1887,96
1888,96
1889,96
1890,96
1891,96
1892,96
1893,96
1894,96
1895,96
1896,96
1897,96
1898,96
1899,96
1900,96
1901,96
1902,97
1903,97
1904,97
1905,97
1906,97
1907,97
1908,97
1909,97
1910,97
1911,97
1912,97
1913,97
1914,97
1915,97
1916,97
1917,97
1918,97
1919,97
1920,97
1921,97
1922,97
1923,97
1924,97
1925,98
1926,98
1927,98
1928,98
1929,98
1930,98
1931,98
1932,98
1933,98
1934,98
1935,98
1936,98
1937,98
1938,98
1939,98
1940,98
1941,98
1942,98
1943,98
1944,99
1945,99
1946,99
1947,99
1948,99
1949,99
1950,99
1951,99
1952,100
1953,100
1954,100
1955,100
1956,100
1957,100
1958,100
1959,100
1960,100
1961,100
1962,100
1963,100
1964,100
1965,100
1966,100
1967,100
1968,100
1969,100
1970,100
1971,100
1972,100
1973,100
1974,100
1975,100
1976,100
1977,100
1978,100
1979,100
1980,100
1981,100
1982,100
1983,100
1984,101
1985,101
1986,101
1987,101
1988,101
1989,101
1990,101
1991,101
1992,101
1993,101
1994,101
1995,101
1996,101
1997,101
1998,101
1999,101
2000,101
