"tick","total"
0,0
1,0
2,0
3,0
4,0
5,0
6,0
7,0
8,0
9,0
10,0
11,0
12,0
13,0
14,0
15,0
16,0
17,0
18,0
19,0
20,0
21,0
22,0
23,0
24,0
25,0
26,0
27,0
28,0
29,0
30,0
31,0
32,0
33,0
34,0
35,0
36,0
37,0
38,0
39,0
40,0
41,0
42,0
43,0
44,0
45,0
46,0
47,0
48,0
49,0
50,0
51,0
52,0
53,0
54,0
55,0
56,0
57,0
58,0
59,0
60,0
61,0
62,0
63,0
64,0
65,0
66,0
67,0
68,0
69,0
70,0
71,0
72,0
73,0
74,0
75,0
76,0
77,0
78,0
79,0
80,0
81,0
82,0
83,0
84,0
85,0
86,0
87,0
88,0
89,0
90,0
91,0
92,0
93,0
94,0
95,0
96,0
97,0
98,0
99,0
100,0
101,0
102,0
103,0
104,0
105,0
106,0
107,0
108,0
109,0
110,0
111,0
112,0
113,0
114,0
115,0
116,0
117,0
118,0
119,0
120,0
121,0
122,0
123,0
124,0
125,0
126,0
127,0
128,0
129,0
130,0
131,0
132,0
133,0
134,0
135,0
136,0
137,0
138,0
139,0
140,0
141,0
142,0
143,0
144,0
145,0
146,1
147,1
148,1
149,1
150,1
151,1
152,1
153,1
154,1
155,1
156,1
157,1
158,1
159,1
160,1
161,1
162,1
163,1
164,1
165,1
166,1
167,1
168,1
169,1
170,1
171,1
172,1
173,1
174,1
175,1
176,1
177,1
178,1
179,1
180,1
181,1
182,1
183,1
184,1
185,1
186,1
187,1
188,1
189,1
190,1
191,1
192,1
193,1
194,1
195,1
196,1
197,1
198,1
199,1
200,1
201,1
202,1
203,1
204,1
205,1
206,1
207,1
208,1
209,1
210,1
211,1
212,1
213,1
214,1
215,1
216,1
217,1
218,1
219,1
220,1
221,1
222,1
223,1
224,1
225,1
226,1
227,1
228,1
229,1
230,1
231,1
232,1
233,1
234,1
235,1
236,1
237,1
238,1
239,1
240,1
241,1
242,1
243,1
244,1
245,2
246,2
247,2
248,2
249,2
250,2
251,2
252,2
253,3
254,3
255,3
256,3
257,3
258,3
259,3
260,3
261,3
262,3
263,3
264,4
265,4
266,4
267,4
268,4
269,4
270,4
271,4
272,4
273,4
274,4
275,4
276,4
277,4
278,4
279,4
280,4
281,4
282,4
283,4
284,4
285,4
286,5
287,5
288,5
289,5
290,5
291,5
292,5
293,5
294,5
295,5
296,5
297,5
298,5
299,5
300,5
301,5
302,8
303,8
304,8
305,8
306,8
307,8
308,8
309,8
310,8
311,8
312,8
313,8
314,8
315,8
316,8
317,8
318,8
319,8
320,8
321,8
322,9
323,10
324,10
325,10
326,10
327,10
328,11
329,11
330,11
331,11
332,11
333,11
334,11
335,11
336,11
337,11
338,11
339,11
340,11
341,11
342,11
343,11
344,11
345,12
346,12
347,12
348,12
349,12
350,12
351,12
352,12
353,12
354,12
355,12
356,12
357,12
358,12
359,12
360,12
361,12
362,12
363,12
364,12
365,12
366,13
367,13
368,14
369,14
370,14
371,14
372,14
373,14
374,14
375,14
376,14
377,14
378,14
379,14
380,14
381,14
382,14
383,14
384,14
385,14
386,14
387,14
388,14
389,14
390,14
391,14
392,14
393,14
394,14
395,14
396,14
397,14
398,15
399,15
400,16
401,16
402,16
403,16
404,16
405,17
406,17
407,17
408,17
409,17
410,17
411,17
412,17
413,17
414,17
415,17
416,18
417,18
418,18
419,18
420,18
421,18
422,18
423,18
424,18
425,18
426,18
427,19
428,20
429,20
430,20
431,20
432,21
433,22
434,22
435,22
436,22
437,22
438,22
439,22
440,22
441,22
442,22
443,23
444,23
445,23
446,23
447,23
448,23
449,23
450,23
451,23
452,23
453,23
454,23
455,23
456,23
457,23
458,23
459,23
460,23
461,23
462,23
463,23
464,23
465,23
466,23
467,23
468,24
469,25
470,25
471,25
472,26
473,26
474,26
475,26
476,26
477,26
478,26
479,27
480,27
481,27
482,27
483,27
484,27
485,27
486,27
487,27
488,27
489,27
490,27
491,27
492,27
493,27
494,27
495,27
496,27
497,27
498,27
499,27
500,27
501,28
502,28
503,28
504,28
505,28
506,28
507,28
508,28
509,28
510,28
511,28
512,28
513,28
514,29
515,29
516,29
517,29
518,29
519,29
520,30
521,32
522,32
523,32
524,32
525,33
526,33
527,33
528,33
529,33
530,33
531,33
532,33
533,33
534,33
535,33
536,33
537,33
538,33
539,33
540,33
541,33
542,33
543,33
544,33
545,33
546,33
547,33
548,33
549,33
550,33
551,33
552,33
553,33
554,33
555,33
556,33
557,33
558,33
559,33
560,33
561,33
562,33
563,33
564,33
565,33
566,33
567,33
568,33
569,34
570,34
571,34
572,34
573,34
574,34
575,34
576,34
577,34
578,34
579,34
580,35
581,35
582,35
583,35
584,35
585,35
586,35
587,35
588,35
589,35
590,35
591,35
592,35
593,35
594,35
595,35
596,35
597,35
598,35
599,35
600,35
601,35
602,35
603,35
604,35
605,35
606,35
607,35
608,35
609,35
610,35
611,35
612,35
613,35
614,35
615,35
616,35
617,35
618,35
619,35
620,35
621,35
622,35
623,35
624,36
625,36
626,36
627,36
628,36
629,36
630,36
631,36
632,36
633,36
634,36
635,36
636,36
637,36
638,36
639,36
640,36
641,37
642,37
643,37
644,37
645,37
646,37
647,37
648,37
649,37
650,37
651,37
652,37
653,37
654,37
655,37
656,37
657,37
658,37
659,37
660,37
661,37
662,37
663,37
664,37
665,37
666,37
667,37
668,37
669,37
670,37
671,38
672,38
673,38
674,38
675,38
676,39
677,39
678,39
679,39
680,39
681,39
682,39
683,39
684,39
685,39
686,39
687,39
688,39
689,39
690,39
691,39
692,39
693,39
694,39
695,39
696,39
697,39
698,39
699,39
700,39
701,39
702,39
703,40
704,40
705,40
706,40
707,40
708,40
709,40
710,41
711,41
712,41
713,42
714,42
715,42
716,42
717,42
718,42
719,42
720,42
721,42
722,43
723,43
724,43
725,43
726,43
727,44
728,44
729,44
730,44
731,44
732,44
733,44
734,44
735,44
736,44
737,45
738,45
739,46
740,46
741,46
742,46
743,46
744,46
745,46
746,46
747,46
748,47
749,47
750,47
751,47
752,47
753,47
754,47
755,47
756,47
757,47
758,47
759,47
760,47
761,47
762,47
763,47
764,47
765,47
766,47
767,47
768,47
769,47
770,47
771,47
772,47
773,47
774,47
775,48
776,48
777,48
778,48
779,48
780,48
781,48
782,48
783,48
784,48
785,48
786,48
787,49
788,50
789,50
790,50
791,50
792,50
793,50
794,50
795,50
796,52
797,52
798,52
799,52
800,52
801,52
802,52
803,52
804,52
805,52
806,52
807,52
808,52
809,52
810,52
811,52
812,52
813,53
814,53
815,54
816,54
817,54
818,54
819,54
820,54
821,54
822,54
823,54
824,54
825,54
826,54
827,54
828,54
829,54
830,54
831,54
832,54
833,54
834,54
835,54
836,55
837,55
838,55
839,55
840,55
841,55
842,55
843,55
844,55
845,55
846,55
847,55
848,55
849,55
850,55
851,55
852,55
853,55
854,55
855,55
856,55
857,55
858,55
859,55
860,55
861,55
862,55
863,55
864,55
865,55
866,55
867,55
868,55
869,55
870,56
871,56
872,56
873,56
874,56
875,57
876,57
877,57
878,57
879,57
880,57
881,57
882,57
883,57
884,57
885,57
886,57
887,57
888,57
889,57
890,57
891,57
892,58
893,58
894,58
895,58
896,58
897,58
898,58
899,58
900,58
901,58
902,58
903,58
904,58
905,58
906,58
907,58
908,58
909,58
910,58
911,58
912,58
913,58
914,58
915,58
916,58
917,58
918,58
919,58
920,59
921,59
922,59
923,59
924,59
925,59
926,59
927,59
928,59
929,59
930,59
931,59
932,59
933,59
934,59
935,59
936,59
937,59
938,59
939,60
940,60
941,60
942,60
943,60
944,60
945,60
946,60
947,60
948,60
949,60
950,60
951,60
952,60
953,60
954,60
955,60
956,60
957,60
958,60
959,60
960,60
961,60
962,60
963,60
964,60
965,60
966,60
967,60
968,60
969,60
970,60
971,60
972,60
973,60
974,60
975,60
976,60
977,60
978,60
979,60
980,60
981,60
982,60
983,60
984,60
985,60
986,60
987,60
988,60
989,60
990,60
991,60
992,60
993,60
994,60
995,60
996,60
997,60
998,60
999,60
1000,60
1001,60
1002,60
1003,60
1004,60
1005,60
1006,60
1007,60
1008,60
1009,60
1010,60
1011,60
1012,60
1013,60
1014,60
1015,60
1016,60
1017,60
1018,60
1019,60
1020,60
1021,60
1022,60
1023,60
1024,60
1025,60
1026,60
1027,60
1028,60
1029,60
1030,60
1031,60
1032,60
1033,60
1034,60
1035,60
1036,60
1037,60
1038,60
1039,60
1040,60
1041,60
1042,60
1043,60
1044,60
1045,60
1046,60
1047,60
1048,60
1049,60
1050,60
1051,60
1052,60
1053,60
1054,60
1055,60
1056,60
1057,60
1058,60
1059,60
1060,60
1061,60
1062,60
1063,60
1064,60
1065,60
1066,60
1067,60
1068,60
1069,60
1070,60
1071,60
1072,60
1073,60
1074,60
1075,60
1076,60
1077,60
1078,60
1079,60
1080,60
1081,60
1082,60
1083,60
1084,60
1085,60
1086,60
1087,60
1088,60
1089,60
1090,60
1091,60
1092,60
1093,60
1094,60
1095,60
1096,60
1097,60
1098,60
1099,60
1100,60
1101,60
1102,60
1103,61
1104,61
1105,61
1106,61
1107,61
1108,61
1109,61
1110,61
1111,61
1112,61
1113,61
1114,61
1115,61
1116,61
1117,61
1118,61
1119,61
1120,61
1121,61
1122,61
1123,61
1124,61
1125,61
1126,61
1127,61
1128,61
1129,61
1130,61
1131,61
1132,61
1133,61
1134,61
1135,61
1136,61
1137,61
1138,61
1139,61
1140,61
1141,61
1142,61
1143,61
1144,61
1145,61
1146,61
1147,61
1148,61
1149,61
1150,61
1151,61
1152,61
1153,61
1154,61
1155,61
1156,61
1157,61
1158,61
1159,61
1160,61
1161,61
1162,61
1163,61
1164,61
1165,61
1166,61
1167,61
1168,62
1169,62
1170,62
1171,62
1172,62
1173,62
1174,62
1175,62
1176,62
1177,62
1178,62
1179,62
1180,62
1181,62
1182,62
1183,62
1184,62
1185,62
1186,62
1187,62
1188,62
1189,62
1190,62
1191,62
1192,62
1193,62
1194,62
1195,62
1196,62
1197,62
1198,62
1199,62
1200,62
1201,62
1202,62
1203,62
1204,62
1205,62
1206,62
1207,62
1208,62
1209,62
1210,63
1211,63
1212,63
1213,63
1214,63
1215,63
1216,63
1217,63
1218,63
1219,63
1220,63
1221,63
1222,63
1223,63
1224,63
1225,63
1226,63
1227,63
1228,63
1229,63
1230,63
1231,63
1232,63
1233,63
1234,63
1235,63
1236,64
1237,65
1238,65
1239,65
1240,65
1241,65
1242,65
1243,65
1244,65
1245,65
1246,65
1247,65
1248,65
1249,65
1250,65
1251,65
1252,65
1253,66
1254,66
1255,66
1256,66
1257,66
1258,66
1259,66
1260,66
1261,66
1262,66
1263,66
1264,66
1265,66
1266,66
1267,66
1268,66
1269,66
1270,66
1271,66
1272,66
1273,66
1274,66
1275,66
1276,67
1277,67
1278,67
1279,67
1280,67
1281,67
1282,67
1283,67
1284,67
1285,67
1286,67
1287,68
1288,68
1289,68
1290,68
1291,68
1292,68
1293,68
1294,68
1295,68
1296,68
1297,68
1298,69
1299,69
1300,69
1301,69
1302,69
1303,69
1304,69
1305,69
1306,69
1307,69
1308,69
1309,69
1310,69
1311,69
1312,69
1313,70
1314,70
1315,70
1316,70
1317,70
1318,70
1319,70
1320,70
1321,70
1322,70
1323,70
1324,70
1325,70
1326,70
1327,70
1328,70
1329,70
1330,70
1331,70
1332,70
1333,70
1334,70
1335,70
1336,70
1337,71
1338,71
1339,71
1340,71
1341,71
1342,71
1343,71
1344,71
1345,71
1346,71
1347,71
1348,72
1349,72
1350,72
1351,72
1352,72
1353,72
1354,72
1355,72
1356,72
1357,72
1358,72
1359,72
1360,72
1361,72
1362,72
1363,72
1364,72
1365,72
1366,72
1367,72
1368,72
1369,72
1370,72
1371,72
1372,72
1373,72
1374,72
1375,72
1376,72
1377,72
1378,72
1379,73
1380,73
1381,73
1382,73
1383,73
1384,74
1385,74
1386,74
1387,74
1388,74
1389,74
1390,74
1391,74
1392,74
1393,75
1394,75
1395,75
1396,75
1397,75
1398,75
1399,75
1400,75
1401,75
1402,75
1403,75
1404,75
1405,75
1406,75
1407,75
1408,76
1409,76
1410,76
1411,76
1412,76
1413,76
1414,76
1415,76
1416,76
1417,76
1418,76
1419,76
1420,76
1421,76
1422,76
1423,76
1424,76
1425,76
1426,76
1427,76
1428,76
1429,76
1430,76
1431,78
1432,78
1433,78
1434,78
1435,79
1436,80
1437,80
1438,80
1439,80
1440,80
1441,80
1442,80
1443,80
1444,80
1445,80
1446,80
1447,80
1448,80
1449,80
1450,80
1451,80
1452,80
1453,80
1454,80
1455,80
1456,80
1457,80
1458,81
1459,81
1460,81
1461,81
1462,81
1463,81
1464,81
1465,81
1466,81
1467,81
1468,81
1469,81
1470,81
1471,81
1472,81
1473,81
1474,81
1475,81
1476,81
1477,81
1478,81
1479,81
1480,81
1481,81
1482,81
1483,82
1484,82
1485,82
1486,82
1487,83
1488,83
1489,83
1490,83
1491,84
1492,84
1493,85
1494,85
1495,85
1496,85
1497,85
1498,85
1499,85
1500,85
1501,85
1502,85
1503,85
1504,85
1505,85
1506,85
1507,85
1508,85
1509,85
1510,85
1511,85
1512,85
1513,85
1514,85
1515,85
1516,85
1517,85
1518,85
1519,86
1520,86
1521,86
1522,86
1523,86
1524,86
1525,86
1526,86
1527,86
1528,86
1529,86
1530,87
1531,87
1532,87
1533,87
1534,87
1535,87
1536,87
1537,87
1538,87
1539,88
1540,88
1541,88
1542,88
1543,88
1544,88
1545,88
1546,88
1547,88
1548,88
1549,88
1550,88
1551,89
1552,89
1553,89
1554,89
1555,89
1556,89
1557,89
1558,89
1559,89
1560,89
1561,89
1562,89
1563,89
1564,89
1565,89
1566,89
1567,89
1568,89
1569,89
1570,89
1571,89
1572,89
1573,89
1574,89
1575,89
1576,89
1577,89
1578,89
1579,89
1580,89
1581,90
1582,90
1583,90
1584,90
1585,90
1586,90
1587,90
1588,90
1589,90
1590,90
1591,90
1592,90
1593,90
1594,90
1595,90
1596,90
1597,90
1598,90
1599,90
1600,90
1601,90
1602,90
1603,90
1604,90
1605,90
1606,90
1607,90
1608,90
1609,90
1610,90
1611,90
1612,90
1613,90
1614,90
1615,90
1616,90
1617,90
1618,90
1619,90
1620,90
1621,90
1622,90
1623,90
1624,90
1625,90
1626,90
1627,90
1628,90
1629,90
1630,90
1631,90
1632,90
1633,90
1634,90
1635,90
1636,90
1637,90
1638,90
1639,90
1640,90
1641,90
1642,90
1643,90
1644,90
1645,90
1646,90
1647,90
1648,90
1649,90
1650,90
1651,90
1652,90
1653,90
1654,90
1655,90
1656,90
1657,90
1658,90
1659,90
1660,90
1661,90
1662,90
1663,90
1664,90
1665,90
1666,90
1667,90
1668,90
1669,90
1670,90
1671,90
1672,90
1673,90
1674,90
1675,90
1676,90
1677,90
1678,90
1679,90
1680,90
1681,90
1682,90
1683,90
1684,90
1685,90
1686,90
1687,90
1688,90
1689,90
1690,90
1691,90
1692,90
1693,90
1694,90
1695,90
1696,90
1697,90
1698,90
1699,90
1700,91
1701,91
1702,91
1703,91
1704,91
1705,91
1706,91
1707,91
1708,91
1709,91
1710,91
1711,92
1712,92
1713,93
1714,93
1715,93
1716,93
1717,93
1718,93
1719,93
1720,93
1721,93
1722,93
1723,93
1724,93
1725,93
1726,93
1727,93
1728,93
1729,93
1730,93
1731,93
1732,93
1733,93
1734,94
1735,94
1736,94
1737,94
1738,94
1739,96
1740,96
1741,96
1742,96
1743,96
1744,97
1745,97
1746,97
1747,97
1748,97
1749,97
1750,97
1751,97
1752,97
1753,97
1754,97
1755,97
1756,97
1757,97
1758,97
1759,97
1760,97
1761,97
1762,97
1763,97
1764,97
1765,97
1766,97
1767,97
1768,97
1769,97
1770,97
1771,97
1772,97
1773,97
1774,97
1775,97
1776,97
1777,97
1778,97
1779,98
1780,98
1781,98
1782,98
1783,98
1784,98
1785,98
1786,98
1787,98
1788,98
1789,98
1790,98
1791,98
1792,98
1793,98
1794,98
1795,98
1796,98
1797,98
1798,98
1799,98
1800,98
1801,98
1802,98
1803,98
1804,98
1805,98
1806,98
1807,98
1808,98
1809,98
1810,98
1811,98
1812,98
1813,98
1814,98
1815,98
1816,98
1817,98
1818,98
1819,98
1820,99
1821,99
1822,99
1823,99
1824,99
1825,99
1826,99
1827,99
1828,99
1829,99
1830,99
1831,99
1832,100
1833,100
1834,100
1835,100
1836,100
1837,100
1838,100
1839,100
1840,101
1841,101
1842,101
1843,101
1844,101
1845,101
1846,101
1847,101
1848,101
1849,102
1850,102
1851,102
1852,102
1853,102
1854,102
1855,102
1856,102
1857,102
1858,102
1859,102
1860,102
1861,102
1862,102
1863,102
1864,102
1865,102
1866,102
1867,102
1868,102
1869,102
1870,102
1871,102
1872,102
1873,102
1874,102
1875,102
1876,102
1877,102
1878,102
1879,102
1880,102
1881,102
1882,102
1883,102
1884,102
1885,102
1886,102
1887,102
1888,102
1889,102
1890,102
1891,102
1892,102
1893,102
1894,102
1895,102
1896,102
1897,102
1898,102
1899,102
1900,102
1901,102
1902,102
1903,103
1904,103
1905,103
1906,103
1907,103
1908,103
1909,103
1910,104
1911,104
1912,104
1913,105
1914,105
1915,105
1916,105
1917,105
1918,105
1919,105
1920,105
1921,105
1922,105
1923,105
1924,105
1925,105
1926,105
1927,105
1928,105
1929,106
1930,106
1931,106
1932,106
1933,106
1934,106
1935,106
1936,106
1937,106
1938,106
1939,106
1940,106
1941,106
1942,106
1943,106
1944,106
1945,106
1946,106
1947,106
1948,106
1949,106
1950,106
1951,106
1952,106
1953,106
1954,106
1955,107
1956,107
1957,107
1958,108
1959,108
1960,108
1961,108
1962,108
1963,108
1964,108
1965,108
1966,108
1967,108
1968,108
1969,108
1970,108
1971,108
1972,108
1973,108
1974,108
1975,108
1976,108
1977,108
1978,108
1979,108
1980,108
1981,108
1982,108
1983,108
1984,109
1985,109
1986,109
1987,110
1988,110
1989,110
1990,110
1991,110
1992,110
1993,110
1994,110
1995,110
1996,110
1997,110
1998,110
1999,111
2000,111
