"tick","total"
0,0
1,0
2,0
3,0
4,0
5,0
6,2
7,2
8,2
9,2
10,2
11,2
12,2
13,2
14,2
15,2
16,3
17,3
18,3
19,3
20,3
21,3
22,3
23,3
24,3
25,3
26,3
27,3
28,3
29,3
30,3
31,3
32,3
33,3
34,3
35,3
36,3
37,3
38,3
39,3
40,3
41,3
42,3
43,3
44,3
45,3
46,3
47,3
48,4
49,4
50,4
51,4
52,4
53,5
54,5
55,5
56,5
57,5
58,5
59,5
60,5
61,5
62,5
63,5
64,5
65,5
66,6
67,7
68,7
69,7
70,7
71,7
72,7
73,7
74,8
75,9
76,9
77,9
78,9
79,9
80,9
81,9
82,9
83,9
84,10
85,10
86,10
87,10
88,10
89,11
90,11
91,11
92,11
93,12
94,12
95,12
96,12
97,12
98,12
99,12
100,12
101,12
102,12
103,12
104,12
105,12
106,12
107,12
108,12
109,12
110,12
111,14
112,14
113,14
114,14
115,14
116,15
117,16
118,16
119,16
120,16
121,16
122,16
123,16
124,16
125,16
126,16
127,17
128,17
129,17
130,18
131,18
132,18
133,18
134,18
135,18
136,18
137,18
138,18
139,18
140,18
141,18
142,18
143,18
144,18
145,19
146,20
147,21
148,21
149,21
150,21
151,23
152,23
153,23
154,23
155,23
156,23
157,23
158,23
159,24
160,24
161,24
162,24
163,24
164,24
165,24
166,24
167,24
168,24
169,24
170,24
171,24
172,24
173,24
174,24
175,24
176,24
177,24
178,24
179,24
180,24
181,24
182,24
183,24
184,24
185,24
186,24
187,24
188,24
189,24
190,24
191,24
192,24
193,25
194,25
195,25
196,25
197,25
198,25
199,25
200,25
201,25
202,26
203,26
204,26
205,26
206,26
207,26
208,26
209,26
210,27
211,28
212,28
213,28
214,28
215,28
216,28
217,28
218,28
219,28
220,28
221,28
222,28
223,28
224,28
225,28
226,28
227,28
228,28
229,28
230,28
231,29
232,29
233,30
234,30
235,30
236,30
237,30
238,30
239,30
240,30
241,30
242,30
243,30
244,30
245,31
246,31
247,31
248,31
249,32
250,32
251,33
252,33
253,33
254,34
255,35
256,35
257,36
258,36
259,36
260,36
261,36
262,36
263,36
264,36
265,36
266,36
267,36
268,36
269,36
270,36
271,36
272,36
273,36
274,36
275,36
276,36
277,36
278,37
279,37
280,37
281,38
282,38
283,38
284,38
285,38
286,38
287,38
288,38
289,38
290,38
291,38
292,38
293,38
294,38
295,38
296,38
297,38
298,38
299,39
300,39
301,39
302,39
303,39
304,39
305,39
306,39
307,39
308,39
309,39
310,39
311,39
312,39
313,39
314,39
315,39
316,39
317,39
318,39
319,39
320,39
321,39
322,39
323,39
324,40
325,40
326,40
327,40
328,40
329,40
330,40
331,40
332,40
333,40
334,40
335,40
336,40
337,40
338,40
339,40
340,40
341,40
342,40
343,40
344,40
345,40
346,40
347,40
348,41
349,41
350,41
351,41
352,41
353,41
354,41
355,41
356,41
357,41
358,41
359,41
360,41
361,41
362,41
363,41
364,42
365,42
366,42
367,42
368,42
369,42
370,43
371,43
372,43
373,43
374,43
375,43
376,43
377,43
378,43
379,44
380,44
381,44
382,44
383,44
384,44
385,44
386,44
387,44
388,44
389,44
390,44
391,44
392,44
393,44
394,44
395,44
396,45
397,45
398,45
399,45
400,46
401,46
402,46
403,46
404,47
405,47
406,47
407,47
408,47
409,47
410,47
411,48
412,48
413,48
414,48
415,48
416,48
417,48
418,48
419,48
420,48
421,48
422,48
423,48
424,48
425,49
426,49
427,50
428,50
429,50
430,50
431,50
432,50
433,51
434,51
435,51
436,52
437,52
438,53
439,53
440,53
441,53
442,53
443,53
444,53
445,53
446,54
447,54
448,54
449,54
450,54
451,55
452,55
453,55
454,55
455,55
456,55
457,55
458,55
459,55
460,55
461,55
462,55
463,55
464,55
465,55
466,55
467,55
468,55
469,55
470,55
471,55
472,55
473,56
474,56
475,56
476,56
477,56
478,57
479,57
480,57
481,57
482,57
483,57
484,57
485,57
486,57
487,57
488,57
489,57
490,57
491,57
492,57
493,57
494,57
495,57
496,57
497,57
498,57
499,57
500,57
501,57
502,57
503,57
504,57
505,57
506,57
507,57
508,57
509,57
510,57
511,58
512,58
513,58
514,58
515,59
516,59
517,59
518,59
519,59
520,59
521,59
522,59
523,59
524,59
525,59
526,59
527,59
528,59
529,59
530,60
531,60
532,60
533,60
534,60
535,60
536,61
537,61
538,61
539,61
540,61
541,61
542,61
543,61
544,61
545,61
546,61
547,61
548,61
549,61
550,61
551,61
552,61
553,61
554,61
555,61
556,61
557,61
558,61
559,61
560,61
561,61
562,61
563,61
564,61
565,61
566,61
567,61
568,61
569,61
570,61
571,61
572,61
573,61
574,61
575,61
576,61
577,61
578,62
579,62
580,62
581,62
582,62
583,62
584,62
585,62
586,62
587,62
588,62
589,62
590,62
591,62
592,62
593,62
594,62
595,62
596,62
597,62
598,62
599,62
600,62
601,62
602,63
603,63
604,63
605,63
606,63
607,63
608,63
609,63
610,63
611,63
612,63
613,63
614,63
615,63
616,63
617,63
618,63
619,63
620,63
621,63
622,63
623,63
624,63
625,63
626,63
627,63
628,63
629,63
630,63
631,63
632,63
633,63
634,63
635,63
636,63
637,63
638,63
639,63
640,63
641,63
642,63
643,63
644,63
645,64
646,64
647,64
648,64
649,64
650,64
651,64
652,64
653,65
654,66
655,66
656,66
657,66
658,66
659,66
660,66
661,66
662,66
663,66
664,66
665,66
666,66
667,66
668,67
669,67
670,67
671,67
672,67
673,67
674,67
675,67
676,67
677,67
678,67
679,67
680,67
681,68
682,68
683,68
684,68
685,68
686,68
687,68
688,68
689,68
690,68
691,68
692,68
693,68
694,68
695,68
696,68
697,68
698,68
699,68
700,68
701,68
702,70
703,70
704,70
705,70
706,70
707,70
708,71
709,71
710,71
711,71
712,71
713,71
714,71
715,71
716,71
717,71
718,71
719,72
720,72
721,72
722,72
723,72
724,72
725,72
726,72
727,72
728,72
729,73
730,73
731,73
732,73
733,73
734,73
735,73
736,73
737,73
738,73
739,73
740,73
741,73
742,73
743,73
744,73
745,73
746,73
747,73
748,73
749,73
750,73
751,73
752,73
753,73
754,73
755,73
756,73
757,73
758,73
759,74
760,74
761,74
762,74
763,74
764,74
765,74
766,74
767,74
768,74
769,75
770,76
771,77
772,77
773,77
774,77
775,77
776,77
777,77
778,77
779,78
780,78
781,78
782,78
783,78
784,79
785,79
786,79
787,79
788,79
789,79
790,79
791,79
792,79
793,80
794,80
795,80
796,80
797,80
798,80
799,80
800,80
801,80
802,80
803,80
804,80
805,80
806,80
807,80
808,80
809,80
810,80
811,80
812,80
813,80
814,81
815,81
816,81
817,81
818,81
819,81
820,81
821,81
822,81
823,81
824,82
825,82
826,82
827,82
828,82
829,82
830,82
831,82
832,82
833,82
834,82
835,82
836,82
837,82
838,82
839,82
840,82
841,82
842,82
843,82
844,82
845,82
846,82
847,82
848,82
849,83
850,83
851,83
852,83
853,84
854,84
855,84
856,85
857,85
858,85
859,85
860,85
861,86
862,86
863,86
864,86
865,86
866,86
867,86
868,86
869,86
870,86
871,86
872,86
873,87
874,88
875,88
876,88
877,89
878,89
879,89
880,90
881,90
882,90
883,90
884,90
885,90
886,90
887,90
888,90
889,90
890,90
891,90
892,90
893,90
894,90
895,90
896,90
897,90
898,90
899,90
900,90
901,90
902,90
903,90
904,90
905,90
906,90
907,90
908,90
909,90
910,90
911,90
912,90
913,90
914,90
915,90
916,90
917,90
918,90
919,90
920,90
921,90
922,90
923,90
924,91
925,91
926,91
927,91
928,92
929,92
930,92
931,92
932,92
933,92
934,92
935,92
936,92
937,92
938,92
939,92
940,92
941,92
942,93
943,93
944,93
945,93
946,93
947,93
948,93
949,94
950,94
951,94
952,95
953,95
954,95
955,95
956,95
957,95
958,95
959,95
960,95
961,95
962,95
963,95
964,95
965,95
966,95
967,95
968,95
969,95
970,95
971,95
972,95
973,95
974,95
975,95
976,95
977,95
978,95
979,95
980,95
981,95
982,95
983,95
984,95
985,95
986,95
987,95
988,95
989,95
990,95
991,95
992,95
993,95
994,95
995,95
996,95
997,95
998,95
999,95
1000,96
1001,96
1002,96
1003,96
1004,96
1005,96
1006,96
1007,96
1008,96
1009,96
1010,96
1011,96
1012,96
1013,96
1014,96
1015,96
1016,96
1017,96
1018,96
1019,96
1020,96
1021,96
1022,96
1023,96
1024,96
1025,96
1026,96
1027,96
1028,96
1029,96
1030,96
1031,96
1032,96
1033,96
1034,96
1035,96
1036,96
1037,96
1038,96
1039,96
1040,96
1041,96
1042,96
1043,96
1044,97
1045,97
1046,97
1047,97
1048,97
1049,97
1050,97
1051,97
1052,97
1053,97
1054,97
1055,97
1056,97
1057,97
1058,97
1059,97
1060,98
1061,98
1062,98
1063,98
1064,98
1065,98
1066,99
1067,99
1068,99
1069,99
1070,99
1071,99
1072,99
1073,99
1074,99
1075,99
1076,99
1077,99
1078,99
1079,99
1080,99
1081,99
1082,99
1083,99
1084,99
1085,99
1086,99
1087,99
1088,99
1089,99
1090,99
1091,99
1092,99
1093,100
1094,100
1095,100
1096,100
1097,100
1098,100
1099,100
1100,100
1101,100
1102,100
1103,100
1104,100
1105,100
1106,101
1107,101
1108,101
1109,101
1110,101
1111,101
1112,101
1113,101
1114,101
1115,101
1116,101
1117,102
1118,102
1119,102
1120,102
1121,102
1122,102
1123,102
1124,102
1125,102
1126,102
1127,102
1128,103
1129,103
1130,103
1131,103
1132,103
1133,103
1134,103
1135,103
1136,103
1137,103
1138,103
1139,103
1140,103
1141,104
1142,104
1143,104
1144,104
1145,104
1146,104
1147,104
1148,105
1149,105
1150,105
1151,105
1152,105
1153,105
1154,105
1155,105
1156,105
1157,105
1158,105
1159,105
1160,105
1161,105
1162,105
1163,105
1164,105
1165,105
1166,105
1167,105
1168,105
1169,105
1170,105
1171,105
1172,105
1173,106
1174,106
1175,106
1176,106
1177,106
1178,106
1179,106
1180,106
1181,106
1182,106
1183,106
1184,106
1185,106
1186,106
1187,106
1188,107
1189,107
1190,107
1191,107
1192,107
1193,107
1194,107
1195,107
1196,108
1197,108
1198,108
1199,108
1200,108
1201,108
1202,108
1203,108
1204,108
1205,108
1206,109
1207,109
1208,109
1209,109
1210,109
1211,110
1212,110
1213,110
1214,110
1215,110
1216,110
1217,110
1218,110
1219,110
1220,110
1221,110
1222,110
1223,111
1224,111
1225,113
1226,113
1227,113
1228,113
1229,113
1230,113
1231,113
1232,113
1233,113
1234,113
1235,113
1236,113
1237,113
1238,113
1239,113
1240,113
1241,113
1242,113
1243,113
1244,113
1245,113
1246,113
1247,113
1248,113
1249,113
1250,113
1251,113
1252,113
1253,113
1254,113
1255,113
1256,113
1257,113
1258,113
1259,113
1260,113
1261,113
1262,113
1263,113
1264,113
1265,113
1266,113
1267,113
1268,113
1269,113
1270,113
1271,113
1272,114
1273,114
1274,114
1275,114
1276,114
1277,114
1278,114
1279,114
1280,114
1281,114
1282,114
1283,115
1284,115
1285,115
1286,115
1287,115
1288,115
1289,115
1290,115
1291,116
1292,116
1293,116
1294,116
1295,116
1296,116
1297,116
1298,116
1299,116
1300,116
1301,116
1302,116
1303,116
1304,116
1305,116
1306,116
1307,116
1308,117
1309,117
1310,118
1311,118
1312,118
1313,118
1314,118
1315,118
1316,118
1317,119
1318,119
1319,119
1320,119
1321,119
1322,119
1323,119
1324,119
1325,119
1326,119
1327,119
1328,119
1329,119
1330,119
1331,119
1332,120
1333,120
1334,120
1335,120
1336,120
1337,120
1338,120
1339,120
1340,120
1341,120
1342,120
1343,120
1344,120
1345,120
1346,120
1347,120
1348,120
1349,120
1350,120
1351,120
1352,120
1353,120
1354,120
1355,120
1356,120
1357,120
1358,121
1359,121
1360,121
1361,121
1362,121
1363,121
1364,121
1365,121
1366,121
1367,121
1368,121
1369,121
1370,122
1371,122
1372,122
1373,122
1374,122
1375,122
1376,122
1377,122
1378,122
1379,122
1380,122
1381,122
1382,122
1383,122
1384,122
1385,122
1386,122
1387,122
1388,122
1389,122
1390,122
1391,122
1392,122
1393,122
1394,123
1395,123
1396,124
1397,124
1398,124
1399,125
1400,125
1401,125
1402,125
1403,125
1404,125
1405,126
1406,126
1407,126
1408,126
1409,126
1410,126
1411,126
1412,126
1413,126
1414,126
1415,126
1416,126
1417,126
1418,126
1419,126
1420,126
1421,126
1422,126
1423,126
1424,126
1425,126
1426,126
1427,127
1428,127
1429,127
1430,127
1431,127
1432,127
1433,127
1434,128
1435,128
1436,128
1437,128
1438,129
1439,129
1440,129
1441,129
1442,129
1443,129
1444,129
1445,129
1446,129
1447,129
1448,130
1449,130
1450,130
1451,130
1452,130
1453,130
1454,130
1455,130
1456,130
1457,130
1458,130
1459,130
1460,130
1461,130
1462,130
1463,130
1464,130
1465,130
1466,130
1467,131
1468,131
1469,131
1470,131
1471,131
1472,131
1473,131
1474,132
1475,133
1476,133
1477,133
1478,133
1479,133
1480,133
1481,134
1482,134
1483,134
1484,134
1485,134
1486,135
1487,135
1488,135
1489,135
1490,135
1491,135
1492,135
1493,135
1494,135
1495,135
1496,135
1497,135
1498,135
1499,136
1500,136
1501,137
1502,137
1503,137
1504,137
1505,137
1506,137
1507,137
1508,137
1509,137
1510,137
1511,137
1512,137
1513,137
1514,137
1515,137
1516,137
1517,137
1518,137
1519,137
1520,137
1521,137
1522,137
1523,137
1524,137
1525,137
1526,137
1527,137
1528,137
1529,138
1530,138
1531,138
1532,138
1533,138
1534,138
1535,138
1536,138
1537,138
1538,138
1539,138
1540,138
1541,138
1542,138
1543,138
1544,138
1545,138
1546,138
1547,138
1548,138
1549,138
1550,138
1551,138
1552,139
1553,139
1554,139
1555,139
1556,139
1557,139
1558,139
1559,139
1560,139
1561,139
1562,139
1563,139
1564,139
1565,139
1566,139
1567,139
1568,140
1569,140
1570,140
1571,140
1572,140
1573,141
1574,141
1575,141
1576,141
1577,141
1578,141
1579,141
1580,141
1581,141
1582,141
1583,141
1584,141
1585,141
1586,141
1587,141
1588,141
1589,141
1590,141
1591,141
1592,141
1593,142
1594,142
1595,142
1596,142
1597,143
1598,143
1599,143
1600,143
1601,143
1602,143
1603,143
1604,143
1605,143
1606,143
1607,143
1608,143
1609,143
1610,143
1611,143
1612,143
1613,143
1614,143
1615,143
1616,143
1617,143
1618,143
1619,143
1620,143
1621,143
1622,143
1623,143
1624,143
1625,143
1626,143
1627,143
1628,143
1629,143
1630,143
1631,143
1632,143
1633,143
1634,143
1635,143
1636,143
1637,143
1638,143
1639,143
1640,143
1641,143
1642,143
1643,143
1644,143
1645,143
1646,143
1647,143
1648,143
1649,143
1650,143
1651,143
1652,143
1653,143
1654,143
1655,143
1656,143
1657,143
1658,143
1659,143
1660,143
1661,143
1662,143
1663,143
1664,143
1665,143
1666,143
1667,143
1668,144
1669,145
1670,145
1671,145
1672,145
1673,145
1674,145
1675,145
1676,145
1677,145
1678,145
1679,145
1680,146
1681,146
1682,146
1683,148
1684,148
1685,149
1686,149
1687,149
1688,150
1689,150
1690,150
1691,150
1692,150
1693,150
1694,150
1695,150
1696,151
1697,151
1698,151
1699,151
1700,151
1701,151
1702,151
1703,151
1704,151
1705,151
1706,151
1707,151
1708,151
1709,151
1710,151
1711,151
1712,151
1713,151
1714,151
1715,151
1716,151
1717,151
1718,151
1719,151
1720,151
1721,151
1722,151
1723,151
1724,151
1725,151
1726,151
1727,151
1728,151
1729,151
1730,151
1731,151
1732,151
1733,151
1734,151
1735,151
1736,151
1737,151
1738,151
1739,151
1740,151
1741,151
1742,151
1743,151
1744,152
1745,152
1746,152
1747,152
1748,152
1749,152
1750,152
1751,152
1752,152
1753,153
1754,153
1755,153
1756,153
1757,153
1758,153
1759,153
1760,153
1761,153
1762,153
1763,153
1764,153
1765,153
1766,153
1767,153
1768,153
1769,153
1770,153
1771,153
1772,153
1773,153
1774,154
1775,154
1776,154
1777,154
1778,154
1779,154
1780,154
1781,154
1782,154
1783,154
1784,154
1785,154
1786,154
1787,154
1788,154
1789,154
1790,154
1791,154
1792,154
1793,154
1794,154
1795,154
1796,154
1797,154
1798,154
1799,154
1800,154
1801,154
1802,154
1803,154
1804,154
1805,154
1806,154
1807,154
1808,154
1809,154
1810,154
1811,154
1812,154
1813,154
1814,154
1815,154
1816,154
1817,154
1818,154
1819,154
1820,154
1821,155
1822,155
1823,155
1824,155
1825,155
1826,155
1827,155
1828,155
1829,155
1830,155
1831,155
1832,155
1833,155
1834,155
1835,155
1836,155
1837,155
1838,155
1839,155
1840,155
1841,156
1842,156
1843,156
1844,156
1845,156
1846,156
1847,156
1848,156
1849,156
1850,156
1851,156
1852,156
1853,156
1854,156
1855,156
1856,156
1857,156
1858,156
1859,156
1860,156
1861,156
1862,156
1863,156
1864,156
1865,156
1866,156
1867,156
1868,156
1869,156
1870,156
1871,156
1872,156
1873,156
1874,156
1875,156
1876,156
1877,156
1878,156
1879,156
1880,156
1881,157
1882,157
1883,157
1884,157
1885,157
1886,158
1887,158
1888,158
1889,158
1890,158
1891,158
1892,158
1893,158
1894,158
1895,158
1896,158
1897,158
1898,158
1899,158
1900,158
1901,158
1902,158
1903,158
1904,158
1905,158
1906,158
1907,158
1908,159
1909,159
1910,159
1911,159
1912,159
1913,159
1914,159
1915,159
1916,159
1917,159
1918,160
1919,160
1920,160
1921,161
1922,161
1923,161
1924,161
1925,161
1926,161
1927,161
1928,161
1929,161
1930,161
1931,162
1932,162
1933,162
1934,162
1935,162
1936,162
1937,162
1938,162
1939,162
1940,162
1941,162
1942,162
1943,163
1944,163
1945,163
1946,163
1947,163
1948,163
1949,163
1950,163
1951,163
1952,163
1953,163
1954,163
1955,163
1956,163
1957,163
1958,163
1959,163
1960,163
1961,164
1962,164
1963,164
1964,164
1965,164
1966,165
1967,165
1968,165
1969,165
1970,165
1971,165
1972,165
1973,166
1974,167
1975,167
1976,167
1977,167
1978,167
1979,167
1980,167
1981,167
1982,167
1983,167
1984,167
1985,167
1986,167
1987,167
1988,167
1989,167
1990,167
1991,167
1992,167
1993,167
1994,167
1995,167
1996,167
1997,167
1998,167
1999,167
2000,167
