"tick","susceptible","exposed","infectious","recovered"
0,99,1,0,0
1,99,1,0,0
2,99,1,0,0
3,99,1,0,0
4,99,1,0,0
5,99,1,0,0
6,99,1,0,0
7,99,1,0,0
8,99,1,0,0
9,99,1,0,0
10,99,1,0,0
11,99,1,0,0
12,99,1,0,0
13,99,1,0,0
14,99,1,0,0
15,99,1,0,0
16,99,1,0,0
17,99,1,0,0
18,99,1,0,0
19,99,1,0,0
20,99,1,0,0
21,99,1,0,0
22,99,1,0,0
23,99,1,0,0
24,99,1,0,0
25,99,1,0,0
26,99,1,0,0
27,99,1,0,0
28,99,1,0,0
29,99,1,0,0
30,99,1,0,0
31,99,1,0,0
32,99,1,0,0
33,99,1,0,0
34,99,1,0,0
35,99,1,0,0
36,99,1,0,0
37,99,1,0,0
38,99,1,0,0
39,99,1,0,0
40,99,1,0,0
41,99,1,0,0
42,99,1,0,0
43,99,1,0,0
44,99,1,0,0
45,99,1,0,0
46,99,1,0,0
47,99,1,0,0
48,99,1,0,0
49,99,1,0,0
50,99,1,0,0
51,99,1,0,0
52,99,1,0,0
53,99,1,0,0
54,99,1,0,0
55,99,1,0,0
56,99,1,0,0
57,99,1,0,0
58,99,1,0,0
59,99,1,0,0
60,99,1,0,0
61,99,1,0,0
62,99,1,0,0
63,99,1,0,0
64,99,1,0,0
65,99,1,0,0
66,99,1,0,0
67,99,1,0,0
68,99,1,0,0
69,99,1,0,0
70,99,1,0,0
71,99,1,0,0
72,99,1,0,0
73,99,1,0,0
74,99,1,0,0
75,99,1,0,0
76,99,1,0,0
77,99,1,0,0
78,99,1,0,0
79,99,1,0,0
80,99,1,0,0
81,99,1,0,0
82,99,1,0,0
83,99,1,0,0
84,99,1,0,0
85,99,1,0,0
86,99,1,0,0
87,99,1,0,0
88,99,1,0,0
89,99,1,0,0
90,99,1,0,0
91,99,1,0,0
92,99,1,0,0
93,99,1,0,0
94,99,1,0,0
95,99,1,0,0
96,99,1,0,0
97,99,1,0,0
98,99,1,0,0
99,99,1,0,0
100,99,1,0,0
101,99,1,0,0
102,99,1,0,0
103,99,1,0,0
104,99,1,0,0
105,99,1,0,0
106,99,1,0,0
107,99,1,0,0
108,99,1,0,0
109,99,1,0,0
110,99,1,0,0
111,99,1,0,0
112,99,1,0,0
113,99,1,0,0
114,99,1,0,0
115,99,1,0,0
116,99,1,0,0
117,99,1,0,0
118,99,1,0,0
119,99,1,0,0
120,99,1,0,0
121,99,1,0,0
122,99,1,0,0
123,99,1,0,0
124,99,1,0,0
125,99,1,0,0
126,99,1,0,0
127,99,1,0,0
128,99,1,0,0
129,99,1,0,0
130,99,1,0,0
131,99,1,0,0
132,99,1,0,0
133,99,1,0,0
134,99,1,0,0
135,99,1,0,0
136,99,1,0,0
137,99,1,0,0
138,99,1,0,0
139,99,1,0,0
140,99,1,0,0
141,99,1,0,0
142,99,1,0,0
143,99,1,0,0
144,99,1,0,0
145,99,1,0,0
146,99,1,0,0
147,99,1,0,0
148,99,1,0,0
149,99,1,0,0
150,99,1,0,0
151,99,1,0,0
152,99,1,0,0
153,99,1,0,0
154,99,1,0,0
155,99,1,0,0
156,99,1,0,0
157,99,1,0,0
158,99,1,0,0
159,99,1,0,0
160,99,1,0,0
161,99,1,0,0
162,99,1,0,0
163,99,1,0,0
164,99,1,0,0
165,99,1,0,0
166,99,1,0,0
167,99,1,0,0
168,99,1,0,0
169,99,1,0,0
170,99,1,0,0
171,99,1,0,0
172,99,1,0,0
173,99,1,0,0
174,99,1,0,0
175,99,1,0,0
176,99,1,0,0
177,99,1,0,0
178,99,1,0,0
179,99,1,0,0
180,99,1,0,0
181,99,1,0,0
182,99,1,0,0
183,99,1,0,0
184,99,1,0,0
185,99,1,0,0
186,99,1,0,0
187,99,1,0,0
188,99,1,0,0
189,99,1,0,0
190,99,1,0,0
191,99,1,0,0
192,99,1,0,0
193,99,1,0,0
194,99,1,0,0
195,99,1,0,0
196,99,1,0,0
197,99,1,0,0
198,99,1,0,0
199,99,1,0,0
200,99,1,0,0
201,99,0,1,0
202,99,0,1,0
203,99,0,1,0
204,98,1,1,0
205,98,1,1,0
206,98,1,1,0
207,98,1,1,0
208,98,1,1,0
209,98,1,1,0
210,98,1,1,0
211,98,1,1,0
212,98,1,1,0
213,98,1,1,0
214,98,1,1,0
215,98,1,1,0
216,97,2,1,0
217,97,2,1,0
218,97,2,1,0
219,97,2,1,0
220,97,2,1,0
221,97,2,1,0
222,97,2,1,0
223,97,2,1,0
224,97,2,1,0
225,97,2,1,0
226,97,2,1,0
227,97,2,1,0
228,97,2,1,0
229,97,2,1,0
230,97,2,1,0
231,97,2,1,0
232,97,2,1,0
233,97,2,1,0
234,97,2,1,0
235,97,2,1,0
236,97,2,1,0
237,97,2,1,0
238,97,2,1,0
239,97,2,1,0
240,97,2,1,0
241,97,2,1,0
242,97,2,1,0
243,97,2,1,0
244,97,2,1,0
245,97,2,1,0
246,97,2,1,0
247,97,2,1,0
248,96,3,1,0
249,96,3,1,0
250,96,3,1,0
251,96,3,1,0
252,96,3,1,0
253,96,3,1,0
254,96,3,1,0
255,96,3,1,0
256,96,3,1,0
257,96,3,1,0
258,96,3,1,0
259,96,3,1,0
260,96,3,1,0
261,96,3,1,0
262,96,3,1,0
263,96,3,1,0
264,96,3,1,0
265,96,3,1,0
266,96,3,1,0
267,96,3,1,0
268,96,3,1,0
269,96,3,1,0
270,96,3,1,0
271,96,3,1,0
272,96,3,1,0
273,96,3,1,0
274,96,3,1,0
275,96,3,1,0
276,96,3,1,0
277,96,3,1,0
278,96,3,1,0
279,96,3,1,0
280,96,3,1,0
281,96,3,1,0
282,96,3,1,0
283,96,3,1,0
284,96,3,1,0
285,96,3,1,0
286,96,3,1,0
287,96,3,1,0
288,96,3,1,0
289,96,3,1,0
290,96,3,1,0
291,96,3,1,0
292,96,3,1,0
293,96,3,1,0
294,96,3,1,0
295,96,3,1,0
296,96,3,1,0
297,96,3,1,0
298,96,3,1,0
299,96,3,1,0
300,96,3,1,0
301,96,3,1,0
302,96,3,1,0
303,96,3,1,0
304,96,3,1,0
305,96,3,1,0
306,96,3,1,0
307,96,3,1,0
308,96,3,1,0
309,96,3,1,0
310,96,3,1,0
311,96,3,1,0
312,96,3,1,0
313,96,3,1,0
314,96,3,1,0
315,96,3,1,0
316,96,3,1,0
317,96,3,1,0
318,96,3,1,0
319,96,3,1,0
320,96,3,1,0
321,96,3,1,0
322,96,3,1,0
323,96,3,1,0
324,96,3,1,0
325,96,3,1,0
326,96,3,1,0
327,96,3,1,0
328,96,3,1,0
329,96,3,1,0
330,96,3,1,0
331,96,3,1,0
332,96,3,1,0
333,96,3,1,0
334,96,3,1,0
335,96,3,1,0
336,96,3,1,0
337,96,3,1,0
338,96,3,1,0
339,96,3,1,0
340,96,3,1,0
341,96,3,1,0
342,96,3,1,0
343,96,3,1,0
344,96,3,1,0
345,96,3,1,0
346,96,3,1,0
347,96,3,1,0
348,96,3,1,0
349,96,3,1,0
350,96,3,1,0
351,96,3,1,0
352,96,3,1,0
353,96,3,1,0
354,96,3,1,0
355,96,3,1,0
356,96,3,1,0
357,96,3,1,0
358,96,3,1,0
359,96,3,1,0
360,96,3,1,0
361,96,3,1,0
362,96,3,1,0
363,96,3,1,0
364,96,3,1,0
365,96,3,1,0
366,96,3,1,0
367,96,3,1,0
368,96,3,1,0
369,96,3,1,0
370,96,3,1,0
371,96,3,1,0
372,96,3,1,0
373,96,3,1,0
374,96,3,1,0
375,96,3,1,0
376,96,3,1,0
377,96,3,1,0
378,96,3,1,0
379,96,3,1,0
380,96,3,1,0
381,96,3,1,0
382,96,3,1,0
383,96,3,1,0
384,96,3,1,0
385,96,3,1,0
386,96,3,1,0
387,96,3,1,0
388,96,3,1,0
389,96,3,1,0
390,96,3,1,0
391,96,3,1,0
392,96,3,1,0
393,96,3,1,0
394,96,3,1,0
395,96,3,1,0
396,96,3,1,0
397,96,3,1,0
398,96,3,1,0
399,96,3,1,0
400,96,3,1,0
401,96,3,1,0
402,96,3,0,1
403,96,3,0,1
404,96,3,0,1
405,96,2,1,1
406,96,2,1,1
407,96,2,1,1
408,96,2,1,1
409,96,2,1,1
410,96,2,1,1
411,96,2,1,1
412,96,2,1,1
413,96,2,1,1
414,96,2,1,1
415,96,2,1,1
416,96,2,1,1
417,96,1,2,1
418,96,1,2,1
419,96,1,2,1
420,96,1,2,1
421,96,1,2,1
422,96,1,2,1
423,96,1,2,1
424,96,1,2,1
425,96,1,2,1
426,96,1,2,1
427,96,1,2,1
428,96,1,2,1
429,95,2,2,1
430,95,2,2,1
431,95,2,2,1
432,95,2,2,1
433,95,2,2,1
434,95,2,2,1
435,95,2,2,1
436,95,2,2,1
437,95,2,2,1
438,95,2,2,1
439,95,2,2,1
440,95,2,2,1
441,95,2,2,1
442,95,2,2,1
443,94,3,2,1
444,94,3,2,1
445,94,3,2,1
446,94,3,2,1
447,94,3,2,1
448,94,3,2,1
449,94,2,3,1
450,94,2,3,1
451,94,2,3,1
452,94,2,3,1
453,94,2,3,1
454,94,2,3,1
455,94,2,3,1
456,94,2,3,1
457,94,2,3,1
458,94,2,3,1
459,94,2,3,1
460,94,2,3,1
461,94,2,3,1
462,93,3,3,1
463,93,3,3,1
464,93,3,3,1
465,93,3,3,1
466,93,3,3,1
467,93,3,3,1
468,93,3,3,1
469,93,3,3,1
470,93,3,3,1
471,93,3,3,1
472,93,3,3,1
473,93,3,3,1
474,93,3,3,1
475,92,4,3,1
476,92,4,3,1
477,92,4,3,1
478,92,4,3,1
479,91,5,3,1
480,90,6,3,1
481,90,6,3,1
482,90,6,3,1
483,90,6,3,1
484,90,6,3,1
485,90,6,3,1
486,90,6,3,1
487,90,6,3,1
488,90,6,3,1
489,90,6,3,1
490,90,6,3,1
491,90,6,3,1
492,90,6,3,1
493,90,6,3,1
494,90,6,3,1
495,90,6,3,1
496,90,6,3,1
497,90,6,3,1
498,90,6,3,1
499,90,6,3,1
500,90,6,3,1
501,90,6,3,1
502,90,6,3,1
503,90,6,3,1
504,90,6,3,1
505,90,6,3,1
506,90,6,3,1
507,90,6,3,1
508,90,6,3,1
509,90,6,3,1
510,90,6,3,1
511,90,6,3,1
512,90,6,3,1
513,90,6,3,1
514,90,6,3,1
515,90,6,3,1
516,90,6,3,1
517,90,6,3,1
518,90,6,3,1
519,90,6,3,1
520,90,6,3,1
521,90,6,3,1
522,90,6,3,1
523,90,6,3,1
524,90,6,3,1
525,90,6,3,1
526,90,6,3,1
527,90,6,3,1
528,90,6,3,1
529,90,6,3,1
530,90,6,3,1
531,90,6,3,1
532,90,6,3,1
533,90,6,3,1
534,90,6,3,1
535,90,6,3,1
536,90,6,3,1
537,90,6,3,1
538,90,6,3,1
539,90,6,3,1
540,90,6,3,1
541,90,6,3,1
542,90,6,3,1
543,90,6,3,1
544,90,6,3,1
545,90,6,3,1
546,90,6,3,1
547,90,6,3,1
548,90,6,3,1
549,90,6,3,1
550,90,6,3,1
551,90,6,3,1
552,90,6,3,1
553,90,6,3,1
554,90,6,3,1
555,90,6,3,1
556,90,6,3,1
557,90,6,3,1
558,90,6,3,1
559,90,6,3,1
560,90,6,3,1
561,90,6,3,1
562,90,6,3,1
563,90,6,3,1
564,90,6,3,1
565,90,6,3,1
566,90,6,3,1
567,90,6,3,1
568,90,6,3,1
569,90,6,3,1
570,90,6,3,1
571,90,6,3,1
572,90,6,3,1
573,89,7,3,1
574,89,7,3,1
575,89,7,3,1
576,89,7,3,1
577,89,7,3,1
578,89,7,3,1
579,89,7,3,1
580,89,7,3,1
581,89,7,3,1
582,89,7,3,1
583,89,7,3,1
584,89,7,3,1
585,89,7,3,1
586,89,7,3,1
587,89,7,3,1
588,89,7,3,1
589,89,7,3,1
590,89,7,3,1
591,89,7,3,1
592,89,7,3,1
593,89,7,3,1
594,89,7,3,1
595,89,7,3,1
596,89,7,3,1
597,87,9,3,1
598,87,9,3,1
599,87,9,3,1
600,87,9,3,1
601,87,9,3,1
602,87,9,3,1
603,87,9,3,1
604,87,9,3,1
605,87,9,3,1
606,87,9,2,2
607,87,9,2,2
608,87,9,2,2
609,87,9,2,2
610,87,9,2,2
611,87,9,2,2
612,87,9,2,2
613,87,9,2,2
614,87,9,2,2
615,87,9,2,2
616,87,9,2,2
617,87,9,2,2
618,87,9,1,3
619,87,9,1,3
620,87,9,1,3
621,87,9,1,3
622,87,9,1,3
623,87,9,1,3
624,87,9,1,3
625,87,9,1,3
626,87,9,1,3
627,87,9,1,3
628,87,9,1,3
629,87,9,1,3
630,86,9,2,3
631,86,9,2,3
632,86,9,2,3
633,86,9,2,3
634,86,9,2,3
635,86,9,2,3
636,86,9,2,3
637,86,9,2,3
638,86,9,2,3
639,85,10,2,3
640,85,10,2,3
641,85,10,2,3
642,85,10,2,3
643,85,10,2,3
644,85,9,3,3
645,84,10,3,3
646,84,10,3,3
647,84,10,3,3
648,84,10,3,3
649,84,10,3,3
650,84,10,2,4
651,84,10,2,4
652,84,10,2,4
653,84,10,2,4
654,83,11,2,4
655,83,11,2,4
656,83,11,2,4
657,83,11,2,4
658,83,11,2,4
659,83,11,2,4
660,83,11,2,4
661,83,11,2,4
662,83,11,2,4
663,83,10,3,4
664,83,10,3,4
665,83,10,3,4
666,83,10,3,4
667,83,10,3,4
668,83,10,3,4
669,83,10,3,4
670,83,10,3,4
671,83,10,3,4
672,83,10,3,4
673,83,10,3,4
674,83,10,3,4
675,83,10,3,4
676,83,9,4,4
677,83,9,4,4
678,83,9,4,4
679,83,9,4,4
680,83,8,5,4
681,83,7,6,4
682,83,7,6,4
683,83,7,6,4
684,82,8,6,4
685,82,8,6,4
686,82,8,6,4
687,82,8,6,4
688,81,9,6,4
689,80,10,6,4
690,80,10,6,4
691,80,10,6,4
692,80,10,6,4
693,79,11,6,4
694,79,11,6,4
695,79,11,6,4
696,79,11,6,4
697,79,11,6,4
698,79,11,6,4
699,79,11,6,4
700,78,12,6,4
701,78,12,6,4
702,78,12,6,4
703,78,12,6,4
704,78,12,6,4
705,78,12,6,4
706,78,12,6,4
707,78,12,6,4
708,78,12,6,4
709,78,12,6,4
710,78,12,6,4
711,78,12,6,4
712,78,12,6,4
713,78,12,6,4
714,78,12,6,4
715,78,12,6,4
716,78,12,6,4
717,78,12,6,4
718,78,12,6,4
719,78,12,6,4
720,78,12,6,4
721,78,12,6,4
722,78,12,6,4
723,77,13,6,4
724,77,13,6,4
725,77,13,6,4
726,77,13,6,4
727,77,13,6,4
728,77,13,6,4
729,77,13,6,4
730,77,13,6,4
731,77,13,6,4
732,77,13,6,4
733,77,13,6,4
734,77,13,6,4
735,77,13,6,4
736,77,13,6,4
737,77,13,6,4
738,77,13,6,4
739,77,13,6,4
740,77,13,6,4
741,76,14,6,4
742,76,14,6,4
743,76,14,6,4
744,76,14,6,4
745,76,14,6,4
746,76,14,6,4
747,76,14,6,4
748,76,14,6,4
749,76,14,6,4
750,76,14,6,4
751,76,14,6,4
752,76,14,6,4
753,76,14,6,4
754,76,14,6,4
755,76,14,6,4
756,76,14,6,4
757,76,14,6,4
758,75,15,6,4
759,75,15,6,4
760,75,15,6,4
761,75,15,6,4
762,75,15,6,4
763,75,15,6,4
764,74,16,6,4
765,74,16,6,4
766,73,17,6,4
767,73,17,6,4
768,73,17,6,4
769,73,17,6,4
770,73,17,6,4
771,73,17,6,4
772,73,17,6,4
773,73,17,6,4
774,73,16,7,4
775,73,16,7,4
776,73,16,7,4
777,72,17,7,4
778,72,17,7,4
779,72,17,7,4
780,72,17,7,4
781,72,17,7,4
782,72,17,7,4
783,72,17,7,4
784,72,17,7,4
785,72,17,7,4
786,72,17,7,4
787,72,17,7,4
788,72,17,7,4
789,72,17,7,4
790,72,17,7,4
791,72,17,7,4
792,72,17,7,4
793,72,17,7,4
794,72,17,7,4
795,72,17,7,4
796,72,17,7,4
797,72,17,7,4
798,72,15,9,4
799,72,15,9,4
800,72,15,9,4
801,72,15,9,4
802,70,17,9,4
803,70,17,9,4
804,70,17,9,4
805,70,17,9,4
806,70,17,9,4
807,70,17,9,4
808,70,17,9,4
809,70,17,9,4
810,69,18,9,4
811,69,18,9,4
812,69,18,9,4
813,69,18,9,4
814,69,18,9,4
815,69,18,9,4
816,69,18,9,4
817,69,18,9,4
818,69,18,9,4
819,69,18,9,4
820,69,18,9,4
821,69,18,9,4
822,69,18,9,4
823,68,19,9,4
824,68,19,9,4
825,68,19,9,4
826,68,19,9,4
827,68,19,9,4
828,68,19,9,4
829,68,19,9,4
830,68,19,9,4
831,68,18,9,5
832,67,19,9,5
833,67,19,9,5
834,67,19,9,5
835,66,20,9,5
836,66,20,9,5
837,66,20,9,5
838,66,20,9,5
839,66,20,9,5
840,66,19,10,5
841,65,20,10,5
842,65,20,10,5
843,65,20,10,5
844,65,20,10,5
845,65,20,9,6
846,65,19,10,6
847,64,20,10,6
848,64,20,10,6
849,64,20,10,6
850,64,20,10,6
851,64,20,10,6
852,64,20,10,6
853,64,20,10,6
854,64,20,10,6
855,64,19,11,6
856,64,19,11,6
857,64,19,11,6
858,64,19,11,6
859,64,19,11,6
860,64,19,11,6
861,64,19,11,6
862,64,19,11,6
863,64,19,11,6
864,64,19,10,7
865,64,19,10,7
866,64,19,10,7
867,64,19,10,7
868,64,19,10,7
869,63,20,10,7
870,63,20,10,7
871,63,20,10,7
872,63,20,10,7
873,63,20,10,7
874,63,20,10,7
875,63,20,10,7
876,63,20,10,7
877,63,20,9,8
878,63,20,9,8
879,63,20,9,8
880,63,20,9,8
881,63,20,8,9
882,63,20,7,10
883,62,21,7,10
884,62,21,7,10
885,62,20,8,10
886,62,20,8,10
887,61,21,8,10
888,61,21,8,10
889,61,20,9,10
890,60,20,10,10
891,60,20,10,10
892,60,20,10,10
893,60,20,10,10
894,60,19,11,10
895,59,20,11,10
896,59,20,11,10
897,59,20,11,10
898,59,20,11,10
899,59,20,11,10
900,59,20,11,10
901,59,19,12,10
902,59,19,12,10
903,59,19,12,10
904,59,19,12,10
905,58,20,12,10
906,57,21,12,10
907,56,22,12,10
908,56,22,12,10
909,56,22,12,10
910,56,22,12,10
911,56,22,12,10
912,56,22,12,10
913,56,22,12,10
914,56,22,12,10
915,56,22,12,10
916,56,22,12,10
917,56,22,12,10
918,56,22,12,10
919,56,22,12,10
920,56,22,12,10
921,56,22,12,10
922,56,22,12,10
923,56,22,12,10
924,56,21,13,10
925,56,21,13,10
926,56,21,13,10
927,56,21,13,10
928,56,21,13,10
929,56,21,13,10
930,56,21,13,10
931,56,21,13,10
932,56,21,13,10
933,55,22,13,10
934,55,22,13,10
935,55,22,13,10
936,55,22,13,10
937,55,22,13,10
938,55,22,13,10
939,55,22,13,10
940,55,22,13,10
941,55,22,13,10
942,55,21,14,10
943,54,22,14,10
944,54,22,14,10
945,54,22,14,10
946,54,22,14,10
947,54,22,14,10
948,54,22,14,10
949,53,23,14,10
950,52,24,14,10
951,52,24,14,10
952,52,24,14,10
953,52,24,14,10
954,52,24,14,10
955,52,24,14,10
956,52,24,14,10
957,52,24,14,10
958,52,24,14,10
959,51,24,15,10
960,49,26,15,10
961,48,27,15,10
962,48,27,15,10
963,48,27,15,10
964,48,27,15,10
965,48,26,16,10
966,48,26,16,10
967,47,26,17,10
968,47,26,17,10
969,46,27,17,10
970,46,27,17,10
971,46,27,17,10
972,45,28,17,10
973,45,28,17,10
974,45,28,17,10
975,45,28,16,11
976,45,28,16,11
977,45,28,16,11
978,45,27,17,11
979,45,27,17,11
980,45,27,17,11
981,45,27,17,11
982,45,27,17,11
983,45,27,17,11
984,44,28,17,11
985,43,29,17,11
986,43,29,17,11
987,43,29,17,11
988,43,29,17,11
989,43,29,17,11
990,43,29,17,11
991,43,29,17,11
992,43,29,17,11
993,43,29,17,11
994,43,29,17,11
995,43,29,17,11
996,43,29,17,11
997,43,29,17,11
998,43,29,17,11
999,43,29,15,13
1000,43,29,15,13
1001,43,29,15,13
1002,43,29,15,13
1003,43,27,17,13
1004,43,27,17,13
1005,42,28,17,13
1006,42,28,17,13
1007,42,28,17,13
1008,42,28,17,13
1009,42,28,17,13
1010,42,28,17,13
1011,42,27,18,13
1012,42,27,18,13
1013,42,27,18,13
1014,42,27,18,13
1015,42,27,18,13
1016,42,27,18,13
1017,42,27,18,13
1018,42,27,18,13
1019,42,27,18,13
1020,42,27,18,13
1021,42,27,18,13
1022,42,27,18,13
1023,42,27,18,13
1024,42,26,19,13
1025,42,26,19,13
1026,42,26,19,13
1027,42,26,19,13
1028,42,26,19,13
1029,42,26,19,13
1030,42,26,19,13
1031,42,26,19,13
1032,42,26,18,14
1033,42,25,19,14
1034,42,25,19,14
1035,42,25,19,14
1036,42,24,20,14
1037,42,24,20,14
1038,42,24,20,14
1039,42,24,20,14
1040,42,24,20,14
1041,42,24,19,15
1042,42,23,20,15
1043,42,23,20,15
1044,42,23,20,15
1045,42,23,20,15
1046,42,23,20,15
1047,42,23,19,16
1048,42,22,20,16
1049,42,22,20,16
1050,42,22,20,16
1051,42,22,20,16
1052,42,22,20,16
1053,42,22,20,16
1054,42,22,20,16
1055,42,22,20,16
1056,42,22,19,17
1057,42,22,19,17
1058,42,22,19,17
1059,42,22,19,17
1060,42,22,19,17
1061,42,22,19,17
1062,42,22,19,17
1063,42,22,19,17
1064,42,22,19,17
1065,42,22,19,17
1066,42,22,19,17
1067,42,22,19,17
1068,42,22,19,17
1069,42,22,19,17
1070,42,21,20,17
1071,42,21,20,17
1072,42,21,20,17
1073,42,21,20,17
1074,42,21,20,17
1075,42,21,20,17
1076,42,21,20,17
1077,42,21,20,17
1078,42,21,20,17
1079,41,22,20,17
1080,41,22,20,17
1081,41,22,20,17
1082,41,22,20,17
1083,41,22,20,17
1084,41,21,21,17
1085,41,21,21,17
1086,41,21,20,18
1087,41,21,20,18
1088,41,20,21,18
1089,41,20,21,18
1090,41,20,20,19
1091,41,19,20,20
1092,41,19,20,20
1093,41,19,20,20
1094,41,19,20,20
1095,41,19,19,21
1096,41,18,20,21
1097,41,18,20,21
1098,41,18,20,21
1099,41,18,20,21
1100,41,18,20,21
1101,41,18,20,21
1102,41,18,19,22
1103,40,19,19,22
1104,40,19,19,22
1105,40,19,19,22
1106,40,18,20,22
1107,40,17,21,22
1108,40,16,22,22
1109,40,16,22,22
1110,40,16,22,22
1111,40,16,22,22
1112,40,16,22,22
1113,40,16,22,22
1114,40,16,22,22
1115,40,16,22,22
1116,40,16,22,22
1117,40,16,22,22
1118,40,16,22,22
1119,40,16,22,22
1120,40,16,22,22
1121,40,16,22,22
1122,40,16,22,22
1123,40,16,22,22
1124,39,17,22,22
1125,39,17,21,23
1126,39,17,21,23
1127,39,17,21,23
1128,39,17,21,23
1129,39,17,21,23
1130,39,17,21,23
1131,39,17,21,23
1132,39,17,21,23
1133,39,17,21,23
1134,39,16,22,23
1135,39,16,22,23
1136,39,16,22,23
1137,39,16,22,23
1138,38,17,22,23
1139,38,17,22,23
1140,38,17,22,23
1141,38,17,22,23
1142,38,17,22,23
1143,37,18,21,24
1144,37,17,22,24
1145,37,17,22,24
1146,37,17,22,24
1147,37,17,22,24
1148,37,17,22,24
1149,37,17,22,24
1150,37,16,23,24
1151,37,15,24,24
1152,37,15,24,24
1153,37,15,24,24
1154,37,15,24,24
1155,37,15,24,24
1156,37,15,24,24
1157,37,15,24,24
1158,37,15,24,24
1159,37,15,24,24
1160,37,14,24,25
1161,37,12,26,25
1162,37,11,27,25
1163,37,11,27,25
1164,37,11,27,25
1165,37,11,27,25
1166,36,12,26,26
1167,36,12,26,26
1168,36,11,26,27
1169,36,11,26,27
1170,36,10,27,27
1171,36,10,27,27
1172,36,10,27,27
1173,35,10,28,27
1174,35,10,28,27
1175,35,10,28,27
1176,35,10,28,27
1177,35,10,28,27
1178,35,10,28,27
1179,34,11,27,28
1180,34,11,27,28
1181,34,11,27,28
1182,34,11,27,28
1183,34,11,27,28
1184,34,11,27,28
1185,34,10,28,28
1186,34,9,29,28
1187,34,9,29,28
1188,34,9,29,28
1189,34,9,29,28
1190,33,10,29,28
1191,33,10,29,28
1192,33,10,29,28
1193,33,10,29,28
1194,33,10,29,28
1195,33,10,29,28
1196,33,10,29,28
1197,33,10,29,28
1198,33,10,29,28
1199,33,10,29,28
1200,33,10,29,28
1201,33,10,29,28
1202,32,11,29,28
1203,32,11,29,28
1204,32,11,27,30
1205,32,11,27,30
1206,32,10,28,30
1207,32,10,28,30
1208,32,10,28,30
1209,32,10,28,30
1210,32,10,28,30
1211,32,10,28,30
1212,32,10,27,31
1213,32,10,27,31
1214,32,10,27,31
1215,32,10,27,31
1216,32,10,27,31
1217,32,10,27,31
1218,32,10,27,31
1219,32,10,27,31
1220,32,10,27,31
1221,32,10,27,31
1222,32,10,27,31
1223,32,10,27,31
1224,32,10,27,31
1225,32,10,26,32
1226,32,10,26,32
1227,32,10,26,32
1228,32,10,26,32
1229,32,10,26,32
1230,32,10,26,32
1231,31,11,26,32
1232,31,11,26,32
1233,30,12,26,32
1234,29,13,25,33
1235,29,13,25,33
1236,29,13,25,33
1237,29,13,24,34
1238,29,13,24,34
1239,29,13,24,34
1240,29,13,24,34
1241,28,14,24,34
1242,28,14,24,34
1243,28,14,23,35
1244,28,14,23,35
1245,28,14,23,35
1246,28,14,23,35
1247,28,14,23,35
1248,28,14,23,35
1249,28,14,22,36
1250,28,14,22,36
1251,28,14,22,36
1252,28,14,22,36
1253,28,14,22,36
1254,28,14,22,36
1255,28,14,22,36
1256,28,14,22,36
1257,28,14,22,36
1258,28,14,22,36
1259,28,14,22,36
1260,28,14,22,36
1261,28,14,22,36
1262,28,14,22,36
1263,28,14,22,36
1264,28,14,22,36
1265,28,14,22,36
1266,28,14,22,36
1267,28,14,22,36
1268,28,14,22,36
1269,28,14,22,36
1270,28,14,22,36
1271,28,14,21,37
1272,28,14,21,37
1273,28,14,21,37
1274,28,14,21,37
1275,28,14,21,37
1276,28,14,21,37
1277,28,14,21,37
1278,28,14,21,37
1279,28,14,21,37
1280,28,13,22,37
1281,28,13,22,37
1282,28,13,22,37
1283,28,13,22,37
1284,28,13,22,37
1285,28,13,21,38
1286,28,13,21,38
1287,28,13,21,38
1288,28,13,21,38
1289,28,13,20,39
1290,28,13,20,39
1291,28,13,20,39
1292,28,13,19,40
1293,28,13,19,40
1294,28,13,19,40
1295,28,13,19,40
1296,28,13,19,40
1297,28,13,18,41
1298,28,13,18,41
1299,28,13,18,41
1300,28,13,18,41
1301,28,13,18,41
1302,28,13,18,41
1303,28,13,18,41
1304,28,12,19,41
1305,28,12,19,41
1306,28,12,19,41
1307,28,12,18,42
1308,28,12,17,43
1309,28,12,16,44
1310,28,12,16,44
1311,28,12,16,44
1312,28,12,16,44
1313,28,12,16,44
1314,28,12,16,44
1315,28,12,16,44
1316,28,12,16,44
1317,28,12,16,44
1318,28,12,16,44
1319,28,12,16,44
1320,28,12,16,44
1321,28,12,16,44
1322,28,12,16,44
1323,28,12,16,44
1324,28,12,16,44
1325,28,11,17,44
1326,28,11,17,44
1327,28,11,17,44
1328,28,11,17,44
1329,28,11,17,44
1330,28,11,17,44
1331,28,11,17,44
1332,28,11,17,44
1333,28,11,17,44
1334,28,11,17,44
1335,28,11,16,45
1336,28,11,16,45
1337,27,12,16,45
1338,27,12,16,45
1339,27,11,17,45
1340,27,11,17,45
1341,27,11,17,45
1342,27,11,17,45
1343,27,11,17,45
1344,27,10,18,45
1345,27,10,17,46
1346,27,10,17,46
1347,27,10,17,46
1348,27,10,17,46
1349,27,10,17,46
1350,27,10,17,46
1351,27,10,16,47
1352,27,10,15,48
1353,27,10,15,48
1354,27,10,15,48
1355,27,10,15,48
1356,27,10,15,48
1357,27,10,15,48
1358,27,10,15,48
1359,27,10,15,48
1360,27,10,15,48
1361,26,11,14,49
1362,26,11,12,51
1363,26,11,11,52
1364,26,11,11,52
1365,26,11,11,52
1366,26,11,11,52
1367,26,10,12,52
1368,26,10,12,52
1369,26,10,11,53
1370,26,10,11,53
1371,26,10,10,54
1372,26,10,10,54
1373,26,10,10,54
1374,26,9,10,55
1375,26,9,10,55
1376,26,9,10,55
1377,26,9,10,55
1378,26,9,10,55
1379,26,9,10,55
1380,26,8,11,55
1381,26,8,11,55
1382,26,8,11,55
1383,26,8,11,55
1384,26,8,11,55
1385,26,8,11,55
1386,26,8,10,56
1387,26,8,9,57
1388,26,8,9,57
1389,26,8,9,57
1390,26,8,9,57
1391,26,7,10,57
1392,26,7,10,57
1393,26,7,10,57
1394,26,7,10,57
1395,26,7,10,57
1396,26,7,10,57
1397,26,7,10,57
1398,26,7,10,57
1399,26,7,10,57
1400,26,7,10,57
1401,26,7,10,57
1402,26,7,10,57
1403,26,6,11,57
1404,26,6,11,57
1405,26,6,11,57
1406,26,6,11,57
1407,26,6,10,58
1408,26,6,10,58
1409,26,6,10,58
1410,26,6,10,58
1411,26,6,10,58
1412,26,6,10,58
1413,26,6,10,58
1414,26,6,10,58
1415,26,6,10,58
1416,26,6,10,58
1417,26,6,10,58
1418,26,6,10,58
1419,26,6,10,58
1420,26,6,10,58
1421,26,6,10,58
1422,26,6,10,58
1423,26,6,10,58
1424,26,6,10,58
1425,26,6,10,58
1426,26,6,10,58
1427,26,6,10,58
1428,26,6,10,58
1429,26,6,10,58
1430,26,6,10,58
1431,26,6,10,58
1432,26,5,11,58
1433,26,5,11,58
1434,26,4,12,58
1435,26,3,13,58
1436,26,3,13,58
1437,26,3,13,58
1438,25,4,13,58
1439,25,4,13,58
1440,25,4,13,58
1441,25,4,13,58
1442,25,3,14,58
1443,25,3,14,58
1444,25,3,14,58
1445,25,3,14,58
1446,25,3,14,58
1447,25,3,14,58
1448,25,3,14,58
1449,25,3,14,58
1450,25,3,14,58
1451,25,3,14,58
1452,25,3,14,58
1453,25,3,14,58
1454,25,3,14,58
1455,25,3,14,58
1456,25,3,14,58
1457,25,3,14,58
1458,25,3,14,58
1459,25,3,14,58
1460,25,3,14,58
1461,25,3,14,58
1462,25,3,14,58
1463,25,3,14,58
1464,25,3,14,58
1465,25,3,14,58
1466,25,3,14,58
1467,25,3,14,58
1468,25,3,14,58
1469,25,3,14,58
1470,25,3,14,58
1471,25,3,14,58
1472,25,3,14,58
1473,25,3,14,58
1474,25,3,14,58
1475,25,3,14,58
1476,25,3,14,58
1477,25,3,14,58
1478,25,3,14,58
1479,25,3,14,58
1480,25,3,14,58
1481,25,3,13,59
1482,25,3,13,59
1483,25,3,13,59
1484,25,3,13,59
1485,25,3,13,59
1486,25,3,13,59
1487,25,3,13,59
1488,25,3,13,59
1489,25,3,13,59
1490,25,3,13,59
1491,25,3,13,59
1492,25,3,13,59
1493,25,3,13,59
1494,25,3,13,59
1495,25,3,13,59
1496,25,3,13,59
1497,25,3,13,59
1498,25,3,13,59
1499,25,3,13,59
1500,25,3,13,59
1501,25,3,13,59
1502,25,3,13,59
1503,25,3,13,59
1504,25,3,13,59
1505,25,3,12,60
1506,25,3,12,60
1507,25,3,12,60
1508,25,3,12,60
1509,25,3,12,60
1510,25,3,12,60
1511,25,3,12,60
1512,25,3,12,60
1513,25,3,12,60
1514,25,3,12,60
1515,25,3,12,60
1516,25,3,12,60
1517,25,3,12,60
1518,25,3,12,60
1519,25,3,12,60
1520,25,3,12,60
1521,25,3,12,60
1522,25,3,12,60
1523,25,3,12,60
1524,25,3,12,60
1525,25,3,12,60
1526,25,3,11,61
1527,25,3,11,61
1528,25,3,11,61
1529,25,3,11,61
1530,25,3,11,61
1531,25,3,11,61
1532,25,3,11,61
1533,25,3,11,61
1534,25,3,11,61
1535,25,3,11,61
1536,25,3,11,61
1537,25,3,11,61
1538,25,2,12,61
1539,25,2,12,61
1540,25,2,11,62
1541,25,2,11,62
1542,25,2,11,62
1543,25,2,11,62
1544,25,2,11,62
1545,25,2,10,63
1546,25,2,10,63
1547,25,2,10,63
1548,25,2,10,63
1549,25,2,10,63
1550,25,2,10,63
1551,24,3,10,63
1552,24,3,10,63
1553,24,3,10,63
1554,24,3,10,63
1555,24,3,10,63
1556,24,3,10,63
1557,24,3,10,63
1558,24,3,10,63
1559,24,3,10,63
1560,24,3,10,63
1561,24,3,10,63
1562,24,2,11,63
1563,24,2,11,63
1564,24,2,11,63
1565,24,2,11,63
1566,24,2,11,63
1567,24,2,11,63
1568,24,2,10,64
1569,24,2,10,64
1570,24,2,10,64
1571,24,2,10,64
1572,24,2,10,64
1573,24,2,10,64
1574,24,2,10,64
1575,24,2,9,65
1576,23,3,9,65
1577,23,3,9,65
1578,23,3,9,65
1579,23,3,9,65
1580,23,3,9,65
1581,23,3,8,66
1582,23,3,8,66
1583,23,3,8,66
1584,23,3,8,66
1585,23,3,8,66
1586,23,3,8,66
1587,23,3,8,66
1588,23,3,8,66
1589,23,3,8,66
1590,23,3,8,66
1591,23,3,8,66
1592,23,3,7,67
1593,23,3,7,67
1594,23,3,7,67
1595,23,3,7,67
1596,23,3,7,67
1597,23,3,7,67
1598,23,3,7,67
1599,23,3,7,67
1600,23,3,7,67
1601,23,3,7,67
1602,23,3,7,67
1603,23,3,7,67
1604,23,3,6,68
1605,23,3,6,68
1606,23,3,6,68
1607,23,3,6,68
1608,23,3,6,68
1609,23,3,6,68
1610,23,3,6,68
1611,23,3,6,68
1612,23,3,6,68
1613,23,3,6,68
1614,23,3,6,68
1615,23,3,6,68
1616,23,3,6,68
1617,23,3,6,68
1618,23,3,6,68
1619,23,3,6,68
1620,23,3,6,68
1621,23,3,6,68
1622,23,3,6,68
1623,23,3,6,68
1624,23,3,6,68
1625,23,3,6,68
1626,23,3,6,68
1627,23,3,6,68
1628,23,3,6,68
1629,23,3,6,68
1630,23,3,6,68
1631,23,3,6,68
1632,23,3,6,68
1633,23,3,5,69
1634,23,3,5,69
1635,23,3,4,70
1636,23,3,3,71
1637,23,3,3,71
1638,23,3,3,71
1639,23,2,4,71
1640,23,2,4,71
1641,23,2,4,71
1642,21,4,4,71
1643,21,4,3,72
1644,21,4,3,72
1645,21,4,3,72
1646,21,4,3,72
1647,21,4,3,72
1648,21,4,3,72
1649,21,4,3,72
1650,21,4,3,72
1651,21,4,3,72
1652,21,4,3,72
1653,21,4,3,72
1654,21,4,3,72
1655,21,4,3,72
1656,21,4,3,72
1657,21,4,3,72
1658,21,4,3,72
1659,21,4,3,72
1660,21,4,3,72
1661,21,4,3,72
1662,21,4,3,72
1663,21,4,3,72
1664,21,4,3,72
1665,21,4,3,72
1666,21,4,3,72
1667,21,4,3,72
1668,21,4,3,72
1669,21,4,3,72
1670,21,4,3,72
1671,21,4,3,72
1672,21,4,3,72
1673,21,4,3,72
1674,21,4,3,72
1675,21,4,3,72
1676,21,4,3,72
1677,21,4,3,72
1678,21,4,3,72
1679,21,4,3,72
1680,21,4,3,72
1681,21,4,3,72
1682,21,4,3,72
1683,21,4,3,72
1684,21,4,3,72
1685,21,4,3,72
1686,21,4,3,72
1687,21,4,3,72
1688,21,4,3,72
1689,21,4,3,72
1690,21,4,3,72
1691,21,4,3,72
1692,21,4,3,72
1693,21,4,3,72
1694,21,4,3,72
1695,21,4,3,72
1696,21,4,3,72
1697,21,4,3,72
1698,21,4,3,72
1699,21,4,3,72
1700,21,4,3,72
1701,21,4,3,72
1702,21,4,3,72
1703,21,4,3,72
1704,21,4,3,72
1705,21,4,3,72
1706,21,4,3,72
1707,21,4,3,72
1708,21,4,3,72
1709,21,4,3,72
1710,21,4,3,72
1711,21,4,3,72
1712,21,4,3,72
1713,21,4,3,72
1714,21,4,3,72
1715,21,4,3,72
1716,21,4,3,72
1717,21,4,3,72
1718,21,4,3,72
1719,21,4,3,72
1720,21,4,3,72
1721,21,4,3,72
1722,21,4,3,72
1723,21,4,3,72
1724,21,4,3,72
1725,21,4,3,72
1726,21,4,3,72
1727,21,4,3,72
1728,21,4,3,72
1729,21,4,3,72
1730,21,4,3,72
1731,21,4,3,72
1732,21,4,3,72
1733,21,4,3,72
1734,21,4,3,72
1735,21,4,3,72
1736,21,4,3,72
1737,21,4,3,72
1738,21,4,3,72
1739,21,4,2,73
1740,21,4,2,73
1741,21,4,2,73
1742,21,4,2,73
1743,21,4,2,73
1744,21,4,2,73
1745,21,4,2,73
1746,21,4,2,73
1747,21,4,2,73
1748,21,4,2,73
1749,21,4,2,73
1750,21,4,2,73
1751,21,4,2,73
1752,21,3,3,73
1753,21,3,3,73
1754,21,3,3,73
1755,21,3,3,73
1756,21,3,3,73
1757,21,3,3,73
1758,21,3,3,73
1759,21,3,3,73
1760,21,3,3,73
1761,21,3,3,73
1762,21,3,3,73
1763,21,3,2,74
1764,21,3,2,74
1765,21,3,2,74
1766,21,3,2,74
1767,21,3,2,74
1768,21,3,2,74
1769,21,3,2,74
1770,21,3,2,74
1771,21,3,2,74
1772,21,3,2,74
1773,21,3,2,74
1774,21,3,2,74
1775,21,3,2,74
1776,21,3,2,74
1777,21,2,3,74
1778,21,2,3,74
1779,21,2,3,74
1780,21,2,3,74
1781,21,2,3,74
1782,21,2,3,74
1783,21,2,3,74
1784,21,2,3,74
1785,21,2,3,74
1786,21,2,3,74
1787,21,2,3,74
1788,21,2,3,74
1789,21,2,3,74
1790,21,2,3,74
1791,21,2,3,74
1792,21,2,3,74
1793,21,2,3,74
1794,21,2,3,74
1795,21,2,3,74
1796,21,2,3,74
1797,21,2,3,74
1798,21,2,3,74
1799,21,2,3,74
1800,21,2,3,74
1801,21,2,3,74
1802,21,2,3,74
1803,21,2,3,74
1804,21,2,3,74
1805,21,2,3,74
1806,21,2,3,74
1807,21,2,3,74
1808,21,2,3,74
1809,21,2,3,74
1810,21,2,3,74
1811,21,2,3,74
1812,21,2,3,74
1813,21,2,3,74
1814,21,2,3,74
1815,21,2,3,74
1816,21,2,3,74
1817,21,2,3,74
1818,21,2,3,74
1819,21,2,3,74
1820,21,2,3,74
1821,21,2,3,74
1822,21,2,3,74
1823,21,2,3,74
1824,21,2,3,74
1825,21,2,3,74
1826,21,2,3,74
1827,21,2,3,74
1828,21,2,3,74
1829,21,2,3,74
1830,21,2,3,74
1831,21,2,3,74
1832,21,2,3,74
1833,21,2,3,74
1834,21,2,3,74
1835,21,2,3,74
1836,21,2,3,74
1837,21,2,3,74
1838,21,2,3,74
1839,21,2,3,74
1840,21,2,2,75
1841,21,2,2,75
1842,21,2,2,75
1843,21,0,4,75
1844,21,0,4,75
1845,21,0,4,75
1846,21,0,4,75
1847,21,0,4,75
1848,21,0,4,75
1849,21,0,4,75
1850,21,0,4,75
1851,21,0,4,75
1852,21,0,4,75
1853,21,0,4,75
1854,21,0,4,75
1855,21,0,4,75
1856,21,0,4,75
1857,21,0,4,75
1858,21,0,4,75
1859,21,0,4,75
1860,21,0,4,75
1861,21,0,4,75
1862,21,0,4,75
1863,21,0,4,75
1864,21,0,4,75
1865,21,0,4,75
1866,21,0,4,75
1867,21,0,4,75
1868,21,0,4,75
1869,21,0,4,75
1870,21,0,4,75
1871,21,0,4,75
1872,21,0,4,75
1873,21,0,4,75
1874,21,0,4,75
1875,21,0,4,75
1876,21,0,4,75
1877,21,0,4,75
1878,21,0,4,75
1879,21,0,4,75
1880,21,0,4,75
1881,21,0,4,75
1882,21,0,4,75
1883,21,0,4,75
1884,21,0,4,75
1885,21,0,4,75
1886,21,0,4,75
1887,21,0,4,75
1888,21,0,4,75
1889,21,0,4,75
1890,21,0,4,75
1891,21,0,4,75
1892,21,0,4,75
1893,21,0,4,75
1894,21,0,4,75
1895,21,0,4,75
1896,21,0,4,75
1897,21,0,4,75
1898,21,0,4,75
1899,21,0,4,75
1900,21,0,4,75
1901,21,0,4,75
1902,21,0,4,75
1903,21,0,4,75
1904,21,0,4,75
1905,21,0,4,75
1906,21,0,4,75
1907,21,0,4,75
1908,21,0,4,75
1909,21,0,4,75
1910,21,0,4,75
1911,21,0,4,75
1912,21,0,4,75
1913,21,0,4,75
1914,21,0,4,75
1915,21,0,4,75
1916,21,0,4,75
1917,21,0,4,75
1918,21,0,4,75
1919,21,0,4,75
1920,21,0,4,75
1921,21,0,4,75
1922,21,0,4,75
1923,21,0,4,75
1924,21,0,4,75
1925,21,0,4,75
1926,21,0,4,75
1927,21,0,4,75
1928,21,0,4,75
1929,21,0,4,75
1930,21,0,4,75
1931,21,0,4,75
1932,21,0,4,75
1933,21,0,4,75
1934,21,0,4,75
1935,21,0,4,75
1936,21,0,4,75
1937,21,0,4,75
1938,21,0,4,75
1939,21,0,4,75
1940,21,0,4,75
1941,21,0,4,75
1942,21,0,4,75
1943,21,0,4,75
1944,21,0,4,75
1945,21,0,4,75
1946,21,0,4,75
1947,21,0,4,75
1948,21,0,4,75
1949,21,0,4,75
1950,21,0,4,75
1951,21,0,4,75
1952,21,0,4,75
1953,21,0,3,76
1954,21,0,3,76
1955,21,0,3,76
1956,21,0,3,76
1957,21,0,3,76
1958,21,0,3,76
1959,21,0,3,76
1960,21,0,3,76
1961,21,0,3,76
1962,21,0,3,76
1963,21,0,3,76
1964,21,0,3,76
1965,21,0,3,76
1966,21,0,3,76
1967,21,0,3,76
1968,21,0,3,76
1969,21,0,3,76
1970,21,0,3,76
1971,21,0,3,76
1972,21,0,3,76
1973,21,0,3,76
1974,21,0,3,76
1975,21,0,3,76
1976,21,0,3,76
1977,20,1,3,76
1978,20,1,2,77
1979,20,1,2,77
1980,20,1,2,77
1981,20,1,2,77
1982,20,1,2,77
1983,20,1,2,77
1984,20,1,2,77
1985,20,1,2,77
1986,20,1,2,77
1987,20,1,2,77
1988,20,1,2,77
1989,20,1,2,77
1990,20,1,2,77
1991,20,1,2,77
1992,20,1,2,77
1993,20,1,2,77
1994,20,1,2,77
1995,20,1,2,77
1996,20,1,2,77
1997,20,1,2,77
1998,20,1,2,77
1999,20,1,2,77
2000,20,1,2,77
