"tick","total"
0,0
1,1
2,1
3,1
4,1
5,1
6,1
7,1
8,1
9,1
10,1
11,1
12,1
13,1
14,1
15,1
16,1
17,1
18,1
19,1
20,1
21,1
22,1
23,1
24,1
25,1
26,1
27,1
28,1
29,1
30,1
31,1
32,1
33,1
34,1
35,1
36,1
37,1
38,1
39,1
40,1
41,1
42,1
43,1
44,1
45,1
46,1
47,1
48,1
49,1
50,1
51,1
52,1
53,1
54,1
55,1
56,1
57,1
58,1
59,1
60,1
61,1
62,1
63,1
64,1
65,1
66,1
67,1
68,1
69,1
70,1
71,1
72,1
73,1
74,1
75,1
76,1
77,1
78,1
79,1
80,1
81,1
82,1
83,1
84,1
85,1
86,1
87,1
88,1
89,1
90,1
91,1
92,1
93,1
94,1
95,1
96,1
97,1
98,1
99,1
100,1
101,1
102,1
103,1
104,1
105,1
106,1
107,1
108,1
109,1
110,1
111,1
112,1
113,1
114,1
115,1
116,1
117,1
118,1
119,1
120,1
121,1
122,1
123,1
124,1
125,1
126,1
127,1
128,1
129,1
130,1
131,1
132,1
133,1
134,1
135,1
136,1
137,1
138,1
139,1
140,1
141,1
142,1
143,1
144,1
145,1
146,1
147,1
148,1
149,1
150,1
151,1
152,1
153,1
154,1
155,1
156,1
157,1
158,1
159,1
160,1
161,1
162,1
163,1
164,1
165,1
166,1
167,1
168,1
169,1
170,1
171,1
172,1
173,1
174,1
175,1
176,1
177,1
178,1
179,1
180,1
181,1
182,1
183,1
184,1
185,1
186,1
187,1
188,1
189,1
190,1
191,1
192,1
193,1
194,1
195,1
196,1
197,1
198,1
199,1
200,1
201,1
202,1
203,1
204,1
205,1
206,1
207,1
208,1
209,1
210,1
211,2
212,2
213,3
214,3
215,4
216,4
217,4
218,4
219,4
220,4
221,4
222,4
223,4
224,4
225,4
226,4
227,4
228,4
229,4
230,4
231,4
232,4
233,4
234,4
235,4
236,4
237,4
238,4
239,4
240,4
241,4
242,4
243,4
244,4
245,4
246,4
247,4
248,4
249,4
250,4
251,4
252,5
253,5
254,5
255,5
256,5
257,5
258,5
259,5
260,5
261,5
262,5
263,5
264,5
265,5
266,5
267,6
268,6
269,6
270,6
271,6
272,6
273,7
274,7
275,7
276,8
277,8
278,8
279,9
280,10
281,10
282,10
283,10
284,11
285,11
286,11
287,11
288,11
289,11
290,11
291,11
292,11
293,11
294,11
295,11
296,12
297,12
298,13
299,13
300,13
301,13
302,13
303,13
304,13
305,13
306,13
307,13
308,13
309,13
310,13
311,13
312,13
313,13
314,13
315,13
316,13
317,13
318,13
319,14
320,15
321,15
322,16
323,16
324,16
325,16
326,17
327,17
328,17
329,17
330,19
331,19
332,19
333,19
334,19
335,19
336,20
337,20
338,20
339,20
340,22
341,23
342,23
343,23
344,23
345,23
346,23
347,23
348,23
349,23
350,23
351,23
352,23
353,24
354,24
355,24
356,24
357,24
358,24
359,24
360,24
361,24
362,24
363,24
364,24
365,24
366,24
367,24
368,24
369,24
370,24
371,24
372,24
373,24
374,25
375,25
376,26
377,26
378,26
379,26
380,26
381,26
382,26
383,26
384,26
385,26
386,26
387,26
388,26
389,27
390,27
391,27
392,27
393,27
394,27
395,27
396,27
397,27
398,27
399,27
400,27
401,27
402,27
403,27
404,27
405,27
406,27
407,27
408,27
409,27
410,27
411,27
412,27
413,27
414,27
415,27
416,27
417,27
418,27
419,27
420,27
421,27
422,27
423,27
424,27
425,27
426,27
427,27
428,27
429,27
430,27
431,27
432,27
433,27
434,27
435,27
436,27
437,27
438,27
439,27
440,27
441,28
442,28
443,28
444,28
445,28
446,28
447,28
448,28
449,28
450,28
451,28
452,28
453,28
454,28
455,28
456,29
457,29
458,29
459,29
460,29
461,30
462,30
463,30
464,30
465,30
466,30
467,30
468,30
469,30
470,30
471,30
472,30
473,30
474,30
475,30
476,30
477,30
478,30
479,30
480,30
481,30
482,30
483,30
484,30
485,30
486,30
487,30
488,30
489,30
490,30
491,30
492,30
493,30
494,30
495,30
496,30
497,30
498,30
499,30
500,30
501,30
502,30
503,30
504,30
505,30
506,30
507,30
508,30
509,30
510,30
511,30
512,30
513,30
514,31
515,31
516,31
517,31
518,31
519,31
520,31
521,31
522,31
523,31
524,31
525,31
526,31
527,31
528,31
529,31
530,31
531,31
532,31
533,31
534,31
535,31
536,31
537,31
538,31
539,31
540,31
541,31
542,31
543,31
544,31
545,31
546,31
547,31
548,31
549,31
550,31
551,31
552,31
553,31
554,31
555,31
556,31
557,31
558,31
559,31
560,31
561,31
562,31
563,31
564,31
565,31
566,31
567,31
568,31
569,31
570,31
571,31
572,31
573,31
574,31
575,31
576,31
577,31
578,31
579,31
580,31
581,31
582,31
583,31
584,31
585,31
586,31
587,31
588,31
589,31
590,31
591,31
592,31
593,31
594,31
595,31
596,31
597,31
598,31
599,31
600,31
601,31
602,31
603,31
604,31
605,31
606,31
607,31
608,31
609,31
610,31
611,31
612,31
613,31
614,31
615,31
616,31
617,31
618,31
619,31
620,31
621,31
622,31
623,31
624,31
625,31
626,31
627,31
628,31
629,31
630,31
631,31
632,31
633,31
634,31
635,31
636,31
637,31
638,31
639,31
640,31
641,31
642,31
643,31
644,32
645,33
646,33
647,33
648,33
649,33
650,33
651,33
652,34
653,34
654,34
655,34
656,34
657,34
658,35
659,35
660,35
661,36
662,36
663,37
664,37
665,37
666,37
667,37
668,37
669,38
670,38
671,38
672,38
673,38
674,38
675,38
676,38
677,38
678,38
679,39
680,39
681,39
682,39
683,39
684,39
685,39
686,39
687,39
688,39
689,39
690,39
691,39
692,39
693,39
694,39
695,39
696,40
697,40
698,40
699,40
700,41
701,41
702,41
703,41
704,41
705,41
706,41
707,41
708,41
709,41
710,41
711,41
712,41
713,41
714,41
715,41
716,41
717,41
718,41
719,41
720,41
721,41
722,41
723,41
724,41
725,41
726,41
727,41
728,41
729,41
730,41
731,41
732,41
733,41
734,41
735,41
736,41
737,41
738,41
739,41
740,41
741,41
742,41
743,41
744,41
745,41
746,41
747,41
748,41
749,41
750,41
751,41
752,41
753,41
754,41
755,41
756,41
757,41
758,41
759,41
760,41
761,41
762,41
763,41
764,41
765,41
766,41
767,41
768,42
769,42
770,42
771,43
772,44
773,44
774,44
775,44
776,44
777,44
778,44
779,44
780,44
781,44
782,44
783,44
784,44
785,44
786,44
787,44
788,44
789,44
790,44
791,44
792,45
793,45
794,45
795,45
796,45
797,45
798,45
799,45
800,45
801,45
802,45
803,45
804,45
805,45
806,45
807,45
808,45
809,45
810,45
811,45
812,45
813,45
814,45
815,45
816,45
817,46
818,46
819,46
820,46
821,46
822,46
823,46
824,46
825,46
826,46
827,46
828,46
829,46
830,46
831,46
832,46
833,46
834,46
835,46
836,46
837,46
838,46
839,46
840,46
841,46
842,47
843,47
844,47
845,47
846,48
847,48
848,48
849,48
850,48
851,48
852,48
853,48
854,49
855,49
856,49
857,49
858,49
859,49
860,49
861,49
862,49
863,49
864,49
865,49
866,49
867,49
868,49
869,49
870,49
871,49
872,50
873,50
874,50
875,50
876,51
877,51
878,51
879,51
880,51
881,51
882,51
883,51
884,51
885,51
886,51
887,51
888,51
889,51
890,51
891,51
892,51
893,51
894,51
895,53
896,53
897,53
898,53
899,53
900,53
901,53
902,53
903,53
904,53
905,53
906,53
907,53
908,53
909,53
910,53
911,53
912,53
913,53
914,54
915,54
916,54
917,54
918,54
919,54
920,54
921,54
922,54
923,54
924,54
925,54
926,54
927,54
928,54
929,54
930,54
931,54
932,54
933,54
934,54
935,54
936,54
937,54
938,55
939,55
940,55
941,55
942,55
943,55
944,55
945,55
946,55
947,55
948,55
949,55
950,55
951,55
952,55
953,55
954,55
955,55
956,55
957,55
958,55
959,55
960,55
961,55
962,55
963,55
964,55
965,55
966,55
967,55
968,55
969,56
970,56
971,56
972,56
973,57
974,57
975,57
976,58
977,58
978,58
979,58
980,58
981,58
982,58
983,58
984,58
985,58
986,58
987,58
988,58
989,59
990,59
991,59
992,59
993,59
994,59
995,59
996,59
997,59
998,59
999,59
1000,59
1001,59
1002,59
1003,59
1004,59
1005,59
1006,60
1007,61
1008,61
1009,61
1010,61
1011,61
1012,61
1013,61
1014,61
1015,61
1016,61
1017,61
1018,61
1019,61
1020,61
1021,61
1022,61
1023,61
1024,61
1025,61
1026,61
1027,61
1028,61
1029,61
1030,61
1031,61
1032,61
1033,61
1034,62
1035,63
1036,63
1037,63
1038,63
1039,63
1040,63
1041,63
1042,63
1043,63
1044,63
1045,63
1046,63
1047,64
1048,64
1049,64
1050,64
1051,64
1052,64
1053,64
1054,64
1055,64
1056,64
1057,64
1058,64
1059,64
1060,64
1061,64
1062,64
1063,64
1064,64
1065,64
1066,64
1067,64
1068,64
1069,64
1070,64
1071,65
1072,65
1073,65
1074,65
1075,65
1076,65
1077,65
1078,66
1079,66
1080,66
1081,66
1082,66
1083,66
1084,66
1085,66
1086,66
1087,66
1088,66
1089,66
1090,66
1091,66
1092,66
1093,66
1094,66
1095,66
1096,66
1097,66
1098,67
1099,67
1100,67
1101,67
1102,67
1103,67
1104,67
1105,67
1106,67
1107,67
1108,67
1109,67
1110,67
1111,67
1112,67
1113,67
1114,67
1115,67
1116,67
1117,67
1118,67
1119,67
1120,67
1121,67
1122,67
1123,67
1124,67
1125,67
1126,67
1127,67
1128,67
1129,67
1130,67
1131,67
1132,67
1133,67
1134,67
1135,67
1136,67
1137,67
1138,67
1139,67
1140,67
1141,67
1142,67
1143,67
1144,67
1145,67
1146,67
1147,67
1148,67
1149,67
1150,67
1151,67
1152,67
1153,67
1154,67
1155,67
1156,67
1157,67
1158,67
1159,67
1160,67
1161,67
1162,67
1163,67
1164,67
1165,67
1166,67
1167,67
1168,67
1169,67
1170,67
1171,67
1172,67
1173,68
1174,68
1175,68
1176,68
1177,68
1178,68
1179,68
1180,68
1181,68
1182,68
1183,68
1184,68
1185,68
1186,68
1187,68
1188,68
1189,68
1190,69
1191,69
1192,69
1193,69
1194,69
1195,69
1196,69
1197,69
1198,69
1199,69
1200,69
1201,69
1202,69
1203,69
1204,69
1205,69
1206,69
1207,69
1208,69
1209,69
1210,69
1211,69
1212,69
1213,69
1214,69
1215,69
1216,69
1217,69
1218,69
1219,69
1220,69
1221,69
1222,69
1223,69
1224,69
1225,69
1226,69
1227,69
1228,69
1229,69
1230,69
1231,70
1232,70
1233,70
1234,70
1235,70
1236,70
1237,70
1238,70
1239,70
1240,70
1241,70
1242,70
1243,70
1244,70
1245,70
1246,70
1247,70
1248,70
1249,70
1250,70
1251,70
1252,70
1253,70
1254,70
1255,70
1256,70
1257,70
1258,70
1259,70
1260,70
1261,70
1262,70
1263,70
1264,70
1265,70
1266,70
1267,70
1268,70
1269,70
1270,70
1271,70
1272,70
1273,70
1274,70
1275,70
1276,70
1277,70
1278,70
1279,70
1280,70
1281,70
1282,70
1283,70
1284,70
1285,70
1286,70
1287,70
1288,70
1289,70
1290,70
1291,70
1292,70
1293,70
1294,70
1295,70
1296,70
1297,70
1298,70
1299,70
1300,70
1301,70
1302,70
1303,70
1304,70
1305,70
1306,70
1307,70
1308,70
1309,70
1310,70
1311,70
1312,70
1313,70
1314,70
1315,70
1316,70
1317,70
1318,70
1319,70
1320,70
1321,70
1322,70
1323,70
1324,70
1325,70
1326,70
1327,70
1328,70
1329,70
1330,70
1331,70
1332,71
1333,71
1334,71
1335,73
1336,73
1337,73
1338,73
1339,73
1340,73
1341,74
1342,74
1343,74
1344,74
1345,74
1346,74
1347,74
1348,74
1349,74
1350,75
1351,75
1352,75
1353,75
1354,75
1355,75
1356,75
1357,75
1358,75
1359,75
1360,75
1361,75
1362,75
1363,75
1364,75
1365,75
1366,75
1367,75
1368,75
1369,75
1370,75
1371,75
1372,75
1373,75
1374,75
1375,75
1376,75
1377,75
1378,75
1379,75
1380,75
1381,75
1382,75
1383,75
1384,75
1385,75
1386,75
1387,75
1388,75
1389,75
1390,75
1391,75
1392,75
1393,75
1394,75
1395,75
1396,75
1397,75
1398,75
1399,75
1400,75
1401,75
1402,75
1403,75
1404,75
1405,75
1406,76
1407,76
1408,76
1409,76
1410,76
1411,77
1412,77
1413,77
1414,78
1415,78
1416,78
1417,78
1418,78
1419,78
1420,78
1421,78
1422,78
1423,78
1424,79
1425,79
1426,79
1427,79
1428,79
1429,79
1430,79
1431,79
1432,79
1433,79
1434,79
1435,79
1436,79
1437,80
1438,80
1439,80
1440,80
1441,80
1442,80
1443,80
1444,80
1445,80
1446,80
1447,80
1448,80
1449,80
1450,80
1451,80
1452,80
1453,80
1454,80
1455,81
1456,81
1457,81
1458,81
1459,81
1460,81
1461,81
1462,81
1463,81
1464,81
1465,81
1466,81
1467,81
1468,81
1469,81
1470,81
1471,81
1472,81
1473,82
1474,82
1475,82
1476,82
1477,82
1478,82
1479,82
1480,82
1481,82
1482,82
1483,82
1484,82
1485,82
1486,82
1487,82
1488,83
1489,83
1490,84
1491,85
1492,85
1493,86
1494,86
1495,86
1496,87
1497,87
1498,87
1499,87
1500,87
1501,87
1502,87
1503,87
1504,87
1505,87
1506,87
1507,87
1508,87
1509,88
1510,88
1511,88
1512,88
1513,88
1514,88
1515,88
1516,88
1517,88
1518,88
1519,88
1520,88
1521,88
1522,88
1523,88
1524,88
1525,88
1526,88
1527,88
1528,88
1529,88
1530,88
1531,88
1532,88
1533,89
1534,89
1535,89
1536,89
1537,89
1538,89
1539,89
1540,89
1541,89
1542,89
1543,89
1544,89
1545,90
1546,90
1547,90
1548,91
1549,91
1550,91
1551,91
1552,91
1553,91
1554,91
1555,91
1556,91
1557,91
1558,91
1559,91
1560,91
1561,91
1562,91
1563,91
1564,91
1565,91
1566,92
1567,92
1568,92
1569,92
1570,93
1571,94
1572,95
1573,96
1574,97
1575,98
1576,99
1577,100
1578,100
1579,100
1580,100
1581,100
1582,100
1583,100
1584,100
1585,100
1586,100
1587,100
1588,100
1589,100
1590,100
1591,100
1592,100
1593,100
1594,100
1595,100
1596,100
1597,100
1598,100
1599,100
1600,100
1601,100
1602,100
1603,100
1604,100
1605,100
1606,100
1607,100
1608,100
1609,100
1610,100
1611,100
1612,100
1613,100
1614,100
1615,100
1616,100
1617,100
1618,100
1619,100
1620,100
1621,100
1622,100
1623,100
1624,100
1625,100
1626,100
1627,100
1628,100
1629,100
1630,100
1631,100
1632,100
1633,100
1634,100
1635,100
1636,100
1637,100
1638,100
1639,100
1640,100
1641,100
1642,100
1643,100
1644,100
1645,100
1646,100
1647,100
1648,100
1649,100
1650,100
1651,100
1652,100
1653,100
1654,100
1655,100
1656,100
1657,100
1658,100
1659,100
1660,100
1661,100
1662,100
1663,100
1664,100
1665,100
1666,100
1667,100
1668,100
1669,100
1670,100
1671,100
1672,100
1673,100
1674,100
1675,100
1676,100
1677,100
1678,100
1679,100
1680,100
1681,100
1682,100
1683,100
1684,100
1685,100
1686,100
1687,100
1688,100
1689,100
1690,100
1691,100
1692,100
1693,100
1694,100
1695,100
1696,100
1697,100
1698,101
1699,101
1700,101
1701,101
1702,101
1703,101
1704,101
1705,101
1706,101
1707,101
1708,101
1709,101
1710,101
1711,101
1712,101
1713,101
1714,101
1715,101
1716,101
1717,101
1718,101
1719,101
1720,101
1721,101
1722,101
1723,101
1724,101
1725,101
1726,101
1727,101
1728,101
1729,101
1730,101
1731,101
1732,101
1733,101
1734,101
1735,101
1736,101
1737,101
1738,101
1739,101
1740,101
1741,101
1742,102
1743,104
1744,104
1745,104
1746,104
1747,104
1748,104
1749,104
1750,104
1751,104
1752,104
1753,104
1754,104
1755,104
1756,105
1757,105
1758,105
1759,105
1760,105
1761,105
1762,105
1763,105
1764,105
1765,105
1766,105
1767,105
1768,105
1769,105
1770,105
1771,105
1772,105
1773,105
1774,105
1775,105
1776,105
1777,105
1778,105
1779,105
1780,105
1781,105
1782,105
1783,105
1784,105
1785,105
1786,105
1787,105
1788,105
1789,105
1790,105
1791,105
1792,105
1793,105
1794,105
1795,105
1796,105
1797,105
1798,106
1799,106
1800,106
1801,106
1802,106
1803,106
1804,108
1805,108
1806,108
1807,108
1808,109
1809,109
1810,109
1811,109
1812,109
1813,109
1814,110
1815,110
1816,110
1817,110
1818,111
1819,111
1820,112
1821,112
1822,112
1823,112
1824,112
1825,112
1826,112
1827,112
1828,112
1829,112
1830,112
1831,112
1832,112
1833,113
1834,113
1835,113
1836,113
1837,113
1838,113
1839,113
1840,113
1841,113
1842,113
1843,113
1844,113
1845,113
1846,113
1847,113
1848,113
1849,113
1850,113
1851,113
1852,113
1853,113
1854,113
1855,113
1856,113
1857,113
1858,113
1859,113
1860,113
1861,113
1862,113
1863,113
1864,113
1865,113
1866,113
1867,113
1868,113
1869,113
1870,113
1871,113
1872,113
1873,113
1874,113
1875,113
1876,113
1877,113
1878,113
1879,113
1880,113
1881,113
1882,113
1883,113
1884,113
1885,113
1886,113
1887,113
1888,113
1889,113
1890,113
1891,113
1892,113
1893,113
1894,113
1895,113
1896,113
1897,113
1898,113
1899,113
1900,113
1901,113
1902,113
1903,113
1904,114
1905,114
1906,114
1907,114
1908,114
1909,114
1910,114
1911,114
1912,114
1913,114
1914,114
1915,114
1916,114
1917,114
1918,114
1919,114
1920,114
1921,114
1922,114
1923,114
1924,114
1925,115
1926,115
1927,115
1928,115
1929,115
1930,115
1931,115
1932,115
1933,115
1934,116
1935,116
1936,116
1937,116
1938,116
1939,116
1940,116
1941,116
1942,116
1943,117
1944,117
1945,117
1946,117
1947,117
1948,117
1949,117
1950,117
1951,117
1952,118
1953,118
1954,118
1955,118
1956,118
1957,118
1958,118
1959,118
1960,118
1961,118
1962,118
1963,118
1964,118
1965,118
1966,118
1967,118
1968,118
1969,118
1970,118
1971,118
1972,118
1973,118
1974,118
1975,118
1976,118
1977,118
1978,118
1979,118
1980,118
1981,118
1982,118
1983,118
1984,118
1985,119
1986,119
1987,119
1988,119
1989,119
1990,119
1991,119
1992,119
1993,119
1994,119
1995,119
1996,119
1997,119
1998,119
1999,119
2000,119
