"tick","total"
0,0
1,0
2,0
3,0
4,0
5,0
6,0
7,0
8,0
9,0
10,0
11,0
12,0
13,0
14,0
15,0
16,0
17,0
18,0
19,0
20,0
21,0
22,0
23,0
24,0
25,0
26,0
27,0
28,0
29,1
30,1
31,1
32,1
33,1
34,1
35,1
36,1
37,1
38,1
39,1
40,1
41,1
42,1
43,1
44,1
45,1
46,1
47,1
48,1
49,1
50,1
51,1
52,1
53,1
54,1
55,1
56,1
57,1
58,1
59,1
60,1
61,1
62,1
63,1
64,1
65,1
66,1
67,1
68,1
69,1
70,1
71,1
72,1
73,1
74,1
75,1
76,1
77,1
78,1
79,1
80,1
81,1
82,1
83,1
84,1
85,1
86,1
87,1
88,1
89,1
90,1
91,1
92,1
93,1
94,1
95,1
96,1
97,1
98,1
99,1
100,1
101,1
102,1
103,1
104,1
105,1
106,1
107,1
108,1
109,1
110,1
111,1
112,1
113,1
114,1
115,1
116,1
117,1
118,1
119,1
120,1
121,1
122,1
123,1
124,1
125,1
126,2
127,3
128,4
129,4
130,4
131,4
132,4
133,4
134,4
135,4
136,4
137,4
138,4
139,4
140,4
141,5
142,5
143,6
144,6
145,6
146,6
147,6
148,6
149,6
150,7
151,7
152,7
153,7
154,7
155,7
156,7
157,7
158,7
159,7
160,7
161,7
162,7
163,7
164,7
165,8
166,9
167,9
168,9
169,9
170,9
171,10
172,10
173,10
174,11
175,11
176,11
177,12
178,12
179,12
180,12
181,12
182,12
183,13
184,13
185,13
186,13
187,14
188,14
189,14
190,14
191,14
192,14
193,14
194,14
195,15
196,15
197,16
198,16
199,17
200,17
201,17
202,17
203,17
204,17
205,18
206,18
207,18
208,18
209,18
210,18
211,18
212,18
213,19
214,19
215,19
216,20
217,20
218,21
219,21
220,21
221,21
222,21
223,21
224,21
225,21
226,22
227,22
228,22
229,22
230,22
231,22
232,22
233,22
234,22
235,23
236,23
237,23
238,23
239,23
240,23
241,23
242,23
243,23
244,23
245,23
246,23
247,23
248,24
249,24
250,24
251,24
252,24
253,24
254,25
255,25
256,25
257,25
258,25
259,25
260,25
261,25
262,26
263,26
264,26
265,26
266,26
267,27
268,27
269,27
270,27
271,28
272,28
273,28
274,28
275,28
276,28
277,28
278,28
279,28
280,28
281,28
282,28
283,28
284,28
285,28
286,28
287,28
288,28
289,28
290,28
291,28
292,28
293,28
294,28
295,28
296,28
297,28
298,28
299,28
300,28
301,28
302,28
303,28
304,28
305,28
306,28
307,28
308,28
309,28
310,28
311,28
312,28
313,28
314,28
315,28
316,28
317,28
318,28
319,28
320,28
321,28
322,28
323,28
324,28
325,28
326,28
327,28
328,28
329,28
330,28
331,28
332,28
333,28
334,28
335,28
336,28
337,28
338,28
339,28
340,28
341,28
342,28
343,28
344,28
345,28
346,28
347,28
348,28
349,28
350,28
351,28
352,28
353,28
354,29
355,29
356,29
357,30
358,30
359,30
360,30
361,30
362,30
363,30
364,30
365,30
366,30
367,30
368,30
369,31
370,32
371,33
372,33
373,33
374,34
375,34
376,34
377,35
378,35
379,35
380,35
381,36
382,36
383,36
384,36
385,36
386,36
387,36
388,36
389,36
390,36
391,37
392,37
393,37
394,37
395,37
396,38
397,38
398,38
399,38
400,39
401,39
402,40
403,40
404,40
405,40
406,40
407,40
408,40
409,41
410,41
411,41
412,41
413,41
414,42
415,42
416,42
417,42
418,42
419,42
420,42
421,42
422,42
423,42
424,42
425,42
426,42
427,42
428,42
429,42
430,42
431,42
432,42
433,42
434,42
435,42
436,42
437,42
438,42
439,42
440,42
441,42
442,42
443,42
444,43
445,44
446,44
447,44
448,44
449,44
450,44
451,44
452,44
453,45
454,45
455,45
456,45
457,45
458,45
459,45
460,45
461,45
462,45
463,45
464,45
465,45
466,45
467,45
468,45
469,45
470,45
471,45
472,45
473,46
474,46
475,46
476,46
477,46
478,46
479,46
480,46
481,46
482,46
483,46
484,46
485,47
486,48
487,48
488,48
489,48
490,48
491,48
492,48
493,48
494,48
495,48
496,48
497,48
498,48
499,48
500,48
501,48
502,48
503,48
504,48
505,48
506,48
507,48
508,48
509,48
510,48
511,48
512,48
513,48
514,48
515,49
516,49
517,49
518,49
519,49
520,49
521,49
522,49
523,49
524,49
525,49
526,49
527,49
528,49
529,49
530,49
531,49
532,49
533,49
534,49
535,49
536,49
537,49
538,49
539,49
540,49
541,49
542,50
543,50
544,50
545,50
546,50
547,50
548,50
549,50
550,50
551,50
552,50
553,50
554,50
555,50
556,50
557,50
558,51
559,51
560,51
561,51
562,51
563,51
564,51
565,51
566,51
567,51
568,51
569,51
570,51
571,51
572,51
573,52
574,52
575,52
576,52
577,52
578,52
579,52
580,52
581,52
582,52
583,52
584,52
585,52
586,52
587,52
588,52
589,52
590,52
591,52
592,52
593,53
594,53
595,53
596,53
597,53
598,53
599,53
600,53
601,53
602,53
603,53
604,53
605,53
606,54
607,54
608,54
609,54
610,54
611,54
612,55
613,55
614,55
615,55
616,55
617,55
618,55
619,55
620,55
621,55
622,55
623,55
624,55
625,55
626,55
627,55
628,55
629,55
630,55
631,55
632,56
633,57
634,57
635,57
636,57
637,57
638,57
639,57
640,57
641,57
642,57
643,57
644,57
645,57
646,57
647,57
648,57
649,57
650,57
651,57
652,57
653,57
654,57
655,57
656,58
657,58
658,58
659,58
660,58
661,58
662,58
663,58
664,58
665,58
666,58
667,58
668,58
669,58
670,58
671,58
672,58
673,59
674,59
675,59
676,59
677,59
678,59
679,59
680,59
681,60
682,60
683,60
684,60
685,60
686,60
687,60
688,60
689,60
690,60
691,60
692,60
693,60
694,60
695,60
696,60
697,60
698,61
699,61
700,61
701,61
702,61
703,61
704,61
705,61
706,61
707,61
708,61
709,62
710,62
711,62
712,62
713,62
714,62
715,62
716,62
717,62
718,62
719,62
720,62
721,62
722,62
723,62
724,62
725,62
726,62
727,62
728,63
729,63
730,63
731,63
732,63
733,63
734,63
735,63
736,63
737,63
738,63
739,65
740,65
741,65
742,65
743,65
744,65
745,65
746,65
747,65
748,65
749,65
750,65
751,65
752,65
753,65
754,65
755,65
756,65
757,65
758,65
759,65
760,65
761,65
762,65
763,65
764,65
765,65
766,65
767,65
768,65
769,65
770,65
771,65
772,65
773,65
774,65
775,65
776,65
777,65
778,65
779,65
780,65
781,65
782,65
783,65
784,65
785,65
786,65
787,65
788,65
789,65
790,65
791,65
792,65
793,65
794,65
795,65
796,65
797,65
798,65
799,65
800,65
801,65
802,65
803,65
804,65
805,65
806,65
807,65
808,65
809,65
810,65
811,65
812,65
813,65
814,65
815,65
816,65
817,65
818,66
819,66
820,66
821,66
822,66
823,67
824,67
825,69
826,69
827,69
828,69
829,69
830,69
831,69
832,69
833,69
834,69
835,69
836,70
837,71
838,71
839,71
840,71
841,71
842,71
843,71
844,71
845,71
846,71
847,71
848,71
849,71
850,71
851,72
852,72
853,72
854,72
855,73
856,73
857,73
858,73
859,73
860,73
861,73
862,73
863,73
864,73
865,73
866,74
867,74
868,74
869,74
870,74
871,75
872,75
873,75
874,75
875,75
876,75
877,75
878,75
879,75
880,75
881,76
882,77
883,78
884,78
885,78
886,78
887,78
888,79
889,79
890,79
891,79
892,79
893,79
894,79
895,79
896,79
897,79
898,79
899,79
900,79
901,80
902,80
903,80
904,80
905,80
906,80
907,80
908,80
909,80
910,80
911,80
912,80
913,80
914,80
915,80
916,80
917,80
918,81
919,81
920,81
921,81
922,81
923,81
924,81
925,81
926,81
927,81
928,81
929,81
930,81
931,81
932,81
933,82
934,82
935,82
936,82
937,83
938,83
939,83
940,83
941,83
942,84
943,84
944,85
945,85
946,86
947,86
948,86
949,86
950,86
951,86
952,86
953,86
954,86
955,86
956,86
957,86
958,86
959,86
960,86
961,87
962,88
963,88
964,88
965,88
966,89
967,89
968,89
969,89
970,89
971,89
972,89
973,89
974,89
975,89
976,89
977,89
978,89
979,89
980,89
981,89
982,89
983,90
984,90
985,90
986,90
987,90
988,90
989,90
990,90
991,90
992,90
993,90
994,90
995,90
996,90
997,90
998,90
999,90
1000,90
1001,90
1002,90
1003,90
1004,90
1005,90
1006,91
1007,91
1008,91
1009,91
1010,91
1011,91
1012,91
1013,91
1014,91
1015,91
1016,91
1017,91
1018,91
1019,91
1020,91
1021,91
1022,91
1023,91
1024,91
1025,91
1026,91
1027,91
1028,91
1029,91
1030,91
1031,91
1032,91
1033,91
1034,91
1035,91
1036,91
1037,91
1038,91
1039,91
1040,91
1041,91
1042,91
1043,91
1044,91
1045,91
1046,91
1047,91
1048,91
1049,91
1050,91
1051,91
1052,91
1053,91
1054,91
1055,91
1056,91
1057,91
1058,91
1059,91
1060,91
1061,91
1062,91
1063,91
1064,91
1065,91
1066,91
1067,91
1068,91
1069,91
1070,91
1071,91
1072,91
1073,91
1074,91
1075,91
1076,91
1077,91
1078,91
1079,91
1080,91
1081,91
1082,91
1083,91
1084,91
1085,91
1086,91
1087,91
1088,91
1089,91
1090,91
1091,91
1092,91
1093,91
1094,91
1095,91
1096,91
1097,91
1098,91
1099,91
1100,91
1101,91
1102,91
1103,91
1104,91
1105,91
1106,91
1107,91
1108,91
1109,91
1110,91
1111,91
1112,91
1113,91
1114,91
1115,91
1116,91
1117,91
1118,91
1119,91
1120,92
1121,92
1122,92
1123,92
1124,92
1125,92
1126,92
1127,92
1128,92
1129,92
1130,92
1131,92
1132,92
1133,92
1134,92
1135,92
1136,92
1137,92
1138,92
1139,92
1140,92
1141,92
1142,92
1143,92
1144,92
1145,92
1146,92
1147,92
1148,92
1149,92
1150,92
1151,92
1152,92
1153,92
1154,92
1155,92
1156,92
1157,92
1158,92
1159,92
1160,92
1161,92
1162,92
1163,92
1164,92
1165,92
1166,92
1167,92
1168,92
1169,92
1170,92
1171,92
1172,92
1173,92
1174,92
1175,92
1176,92
1177,92
1178,92
1179,92
1180,92
1181,92
1182,92
1183,92
1184,92
1185,92
1186,92
1187,92
1188,92
1189,92
1190,93
1191,93
1192,93
1193,93
1194,93
1195,93
1196,93
1197,93
1198,93
1199,93
1200,93
1201,93
1202,93
1203,93
1204,93
1205,93
1206,93
1207,93
1208,93
1209,94
1210,94
1211,94
1212,94
1213,94
1214,94
1215,94
1216,94
1217,94
1218,94
1219,94
1220,94
1221,94
1222,94
1223,94
1224,94
1225,94
1226,94
1227,94
1228,94
1229,94
1230,94
1231,94
1232,94
1233,94
1234,94
1235,95
1236,95
1237,96
1238,96
1239,96
1240,96
1241,96
1242,96
1243,96
1244,96
1245,96
1246,96
1247,96
1248,96
1249,96
1250,96
1251,96
1252,96
1253,96
1254,96
1255,96
1256,96
1257,96
1258,96
1259,96
1260,96
1261,96
1262,96
1263,96
1264,96
1265,96
1266,96
1267,96
1268,96
1269,96
1270,96
1271,96
1272,96
1273,96
1274,96
1275,96
1276,96
1277,96
1278,96
1279,96
1280,96
1281,96
1282,96
1283,96
1284,96
1285,96
1286,96
1287,96
1288,96
1289,96
1290,97
1291,97
1292,97
1293,97
1294,97
1295,97
1296,97
1297,97
1298,97
1299,97
1300,97
1301,97
1302,97
1303,98
1304,98
1305,98
1306,98
1307,98
1308,99
1309,99
1310,99
1311,99
1312,99
1313,99
1314,99
1315,99
1316,100
1317,100
1318,100
1319,100
1320,100
1321,100
1322,100
1323,100
1324,100
1325,100
1326,100
1327,100
1328,100
1329,100
1330,101
1331,101
1332,101
1333,101
1334,101
1335,101
1336,101
1337,101
1338,101
1339,101
1340,101
1341,101
1342,101
1343,102
1344,102
1345,102
1346,102
1347,102
1348,102
1349,102
1350,102
1351,102
1352,102
1353,102
1354,102
1355,103
1356,103
1357,104
1358,104
1359,104
1360,104
1361,104
1362,104
1363,104
1364,104
1365,104
1366,104
1367,104
1368,104
1369,104
1370,104
1371,106
1372,106
1373,106
1374,106
1375,106
1376,106
1377,106
1378,106
1379,106
1380,106
1381,106
1382,106
1383,106
1384,107
1385,107
1386,107
1387,107
1388,107
1389,107
1390,108
1391,108
1392,109
1393,109
1394,109
1395,109
1396,109
1397,109
1398,109
1399,109
1400,109
1401,109
1402,109
1403,109
1404,109
1405,110
1406,110
1407,110
1408,110
1409,110
1410,110
1411,110
1412,111
1413,111
1414,111
1415,111
1416,111
1417,111
1418,111
1419,111
1420,111
1421,111
1422,111
1423,111
1424,111
1425,112
1426,112
1427,112
1428,112
1429,112
1430,112
1431,112
1432,112
1433,112
1434,112
1435,112
1436,112
1437,112
1438,112
1439,112
1440,112
1441,112
1442,112
1443,112
1444,112
1445,112
1446,112
1447,112
1448,112
1449,112
1450,112
1451,112
1452,113
1453,113
1454,113
1455,113
1456,113
1457,114
1458,115
1459,115
1460,115
1461,115
1462,115
1463,115
1464,115
1465,115
1466,115
1467,115
1468,115
1469,115
1470,115
1471,115
1472,115
1473,115
1474,115
1475,115
1476,115
1477,115
1478,115
1479,115
1480,115
1481,115
1482,115
1483,115
1484,115
1485,115
1486,115
1487,115
1488,115
1489,115
1490,115
1491,115
1492,115
1493,115
1494,115
1495,115
1496,115
1497,115
1498,115
1499,115
1500,115
1501,115
1502,115
1503,115
1504,115
1505,115
1506,115
1507,115
1508,115
1509,115
1510,115
1511,115
1512,115
1513,115
1514,115
1515,115
1516,115
1517,115
1518,115
1519,115
1520,115
1521,115
1522,115
1523,115
1524,115
1525,115
1526,115
1527,115
1528,115
1529,115
1530,115
1531,115
1532,115
1533,115
1534,115
1535,115
1536,115
1537,115
1538,115
1539,115
1540,115
1541,115
1542,115
1543,115
1544,115
1545,115
1546,115
1547,115
1548,115
1549,115
1550,115
1551,115
1552,115
1553,115
1554,115
1555,115
1556,115
1557,115
1558,115
1559,116
1560,116
1561,116
1562,116
1563,116
1564,116
1565,116
1566,116
1567,116
1568,116
1569,116
1570,116
1571,116
1572,116
1573,116
1574,116
1575,116
1576,116
1577,116
1578,116
1579,116
1580,116
1581,116
1582,116
1583,116
1584,117
1585,117
1586,117
1587,117
1588,118
1589,118
1590,118
1591,118
1592,118
1593,118
1594,118
1595,118
1596,118
1597,118
1598,118
1599,118
1600,118
1601,118
1602,118
1603,118
1604,118
1605,118
1606,118
1607,118
1608,118
1609,118
1610,118
1611,118
1612,118
1613,118
1614,118
1615,118
1616,118
1617,118
1618,118
1619,118
1620,118
1621,118
1622,118
1623,118
1624,118
1625,119
1626,119
1627,119
1628,119
1629,119
1630,119
1631,119
1632,119
1633,119
1634,119
1635,119
1636,119
1637,119
1638,119
1639,119
1640,119
1641,119
1642,119
1643,119
1644,119
1645,119
1646,119
1647,119
1648,119
1649,119
1650,119
1651,119
1652,119
1653,119
1654,119
1655,119
1656,119
1657,119
1658,120
1659,121
1660,121
1661,121
1662,121
1663,121
1664,121
1665,121
1666,121
1667,121
1668,121
1669,121
1670,121
1671,121
1672,121
1673,121
1674,121
1675,121
1676,121
1677,121
1678,121
1679,121
1680,121
1681,121
1682,121
1683,121
1684,121
1685,121
1686,121
1687,121
1688,121
1689,121
1690,121
1691,121
1692,121
1693,121
1694,121
1695,121
1696,121
1697,121
1698,121
1699,121
1700,121
1701,121
1702,121
1703,121
1704,121
1705,121
1706,121
1707,121
1708,121
1709,121
1710,121
1711,121
1712,121
1713,121
1714,121
1715,121
1716,121
1717,122
1718,122
1719,122
1720,122
1721,122
1722,122
1723,122
1724,122
1725,122
1726,122
1727,122
1728,122
1729,122
1730,122
1731,122
1732,122
1733,122
1734,122
1735,122
1736,122
1737,122
1738,122
1739,122
1740,122
1741,122
1742,122
1743,122
1744,122
1745,122
1746,122
1747,122
1748,122
1749,122
1750,123
1751,124
1752,124
1753,124
1754,124
1755,124
1756,124
1757,124
1758,124
1759,124
1760,124
1761,124
1762,124
1763,124
1764,124
1765,124
1766,124
1767,124
1768,124
1769,124
1770,124
1771,124
1772,124
1773,124
1774,124
1775,124
1776,124
1777,124
1778,124
1779,124
1780,124
1781,124
1782,124
1783,124
1784,124
1785,124
1786,124
1787,124
1788,124
1789,124
1790,124
1791,124
1792,124
1793,124
1794,124
1795,124
1796,124
1797,124
1798,124
1799,124
1800,124
1801,124
1802,124
1803,124
1804,124
1805,124
1806,124
1807,124
1808,124
1809,124
1810,124
1811,124
1812,124
1813,124
1814,124
1815,124
1816,124
1817,124
1818,124
1819,124
1820,124
1821,124
1822,124
1823,124
1824,124
1825,124
1826,124
1827,124
1828,125
1829,125
1830,125
1831,125
1832,125
1833,125
1834,125
1835,125
1836,125
1837,125
1838,125
1839,125
1840,125
1841,125
1842,125
1843,125
1844,125
1845,125
1846,126
1847,126
1848,126
1849,126
1850,126
1851,126
1852,126
1853,126
1854,126
1855,126
1856,126
1857,126
1858,126
1859,126
1860,126
1861,127
1862,127
1863,127
1864,127
1865,127
1866,127
1867,127
1868,127
1869,127
1870,127
1871,127
1872,127
1873,127
1874,127
1875,127
1876,127
1877,127
1878,127
1879,127
1880,127
1881,127
1882,127
1883,127
1884,127
1885,127
1886,127
1887,128
1888,128
1889,128
1890,128
1891,128
1892,128
1893,128
1894,128
1895,128
1896,128
1897,128
1898,128
1899,128
1900,128
1901,128
1902,128
1903,128
1904,128
1905,128
1906,128
1907,128
1908,128
1909,128
1910,128
1911,128
1912,128
1913,128
1914,128
1915,128
1916,128
1917,128
1918,128
1919,128
1920,128
1921,128
1922,128
1923,128
1924,128
1925,128
1926,128
1927,128
1928,128
1929,128
1930,128
1931,128
1932,128
1933,128
1934,128
1935,128
1936,128
1937,128
1938,128
1939,128
1940,128
1941,128
1942,129
1943,129
1944,129
1945,129
1946,129
1947,129
1948,129
1949,129
1950,129
1951,129
1952,130
1953,130
1954,130
1955,130
1956,130
1957,130
1958,130
1959,130
1960,130
1961,130
1962,130
1963,130
1964,130
1965,130
1966,130
1967,130
1968,130
1969,130
1970,130
1971,130
1972,130
1973,130
1974,130
1975,131
1976,131
1977,131
1978,131
1979,131
1980,131
1981,131
1982,131
1983,131
1984,131
1985,131
1986,131
1987,131
1988,131
1989,131
1990,131
1991,131
1992,131
1993,131
1994,131
1995,131
1996,131
1997,131
1998,131
1999,131
2000,131
