"tick","total"
0,0
1,0
2,0
3,0
4,0
5,0
6,0
7,0
8,0
9,0
10,0
11,0
12,0
13,0
14,0
15,0
16,0
17,0
18,0
19,0
20,0
21,0
22,0
23,0
24,0
25,0
26,0
27,0
28,0
29,0
30,0
31,0
32,0
33,0
34,0
35,0
36,0
37,0
38,0
39,0
40,0
41,0
42,0
43,0
44,0
45,0
46,0
47,0
48,0
49,0
50,0
51,0
52,0
53,0
54,0
55,0
56,0
57,0
58,0
59,0
60,0
61,0
62,0
63,0
64,0
65,0
66,0
67,0
68,0
69,0
70,0
71,0
72,0
73,0
74,0
75,0
76,0
77,0
78,0
79,0
80,0
81,0
82,0
83,0
84,0
85,0
86,0
87,0
88,0
89,0
90,0
91,0
92,0
93,0
94,0
95,0
96,0
97,0
98,0
99,0
100,0
101,0
102,0
103,0
104,0
105,0
106,0
107,0
108,0
109,0
110,0
111,0
112,0
113,0
114,0
115,0
116,0
117,0
118,0
119,0
120,0
121,0
122,0
123,0
124,0
125,0
126,0
127,0
128,0
129,0
130,0
131,0
132,0
133,0
134,0
135,0
136,0
137,0
138,0
139,0
140,0
141,0
142,0
143,0
144,0
145,0
146,0
147,0
148,0
149,0
150,0
151,0
152,0
153,0
154,0
155,0
156,0
157,0
158,0
159,0
160,0
161,0
162,0
163,0
164,0
165,0
166,0
167,0
168,0
169,0
170,0
171,0
172,0
173,0
174,0
175,0
176,0
177,0
178,0
179,0
180,0
181,0
182,0
183,0
184,0
185,0
186,0
187,0
188,0
189,0
190,0
191,0
192,0
193,0
194,0
195,0
196,0
197,0
198,0
199,0
200,0
201,0
202,0
203,0
204,0
205,0
206,0
207,0
208,0
209,0
210,0
211,0
212,0
213,0
214,0
215,0
216,0
217,0
218,0
219,0
220,0
221,0
222,0
223,0
224,0
225,0
226,0
227,0
228,0
229,0
230,0
231,0
232,0
233,0
234,0
235,0
236,0
237,0
238,0
239,0
240,0
241,0
242,0
243,0
244,0
245,0
246,0
247,0
248,0
249,0
250,0
251,0
252,0
253,0
254,0
255,0
256,0
257,0
258,1
259,1
260,1
261,1
262,1
263,1
264,1
265,2
266,2
267,3
268,3
269,3
270,3
271,3
272,3
273,3
274,3
275,3
276,3
277,3
278,3
279,3
280,3
281,3
282,3
283,3
284,4
285,4
286,4
287,4
288,4
289,4
290,4
291,4
292,4
293,4
294,4
295,4
296,4
297,4
298,4
299,5
300,5
301,6
302,6
303,6
304,6
305,6
306,6
307,7
308,7
309,7
310,7
311,7
312,7
313,7
314,7
315,7
316,7
317,7
318,7
319,7
320,7
321,7
322,7
323,7
324,7
325,7
326,7
327,8
328,8
329,8
330,8
331,8
332,8
333,8
334,8
335,8
336,8
337,8
338,8
339,8
340,8
341,8
342,8
343,8
344,8
345,8
346,8
347,8
348,8
349,8
350,8
351,8
352,8
353,8
354,8
355,8
356,8
357,8
358,9
359,9
360,9
361,9
362,9
363,9
364,9
365,9
366,9
367,9
368,10
369,10
370,10
371,10
372,10
373,10
374,10
375,10
376,10
377,10
378,10
379,10
380,10
381,10
382,11
383,11
384,11
385,12
386,12
387,12
388,12
389,12
390,12
391,12
392,12
393,12
394,13
395,13
396,13
397,14
398,14
399,14
400,14
401,14
402,14
403,14
404,14
405,14
406,14
407,14
408,14
409,14
410,14
411,14
412,14
413,14
414,14
415,14
416,14
417,14
418,14
419,14
420,15
421,15
422,15
423,16
424,17
425,17
426,17
427,17
428,17
429,17
430,17
431,17
432,17
433,17
434,18
435,18
436,18
437,18
438,18
439,18
440,19
441,19
442,19
443,19
444,19
445,19
446,19
447,19
448,19
449,19
450,19
451,19
452,19
453,19
454,19
455,19
456,19
457,19
458,19
459,19
460,19
461,19
462,20
463,20
464,20
465,20
466,20
467,20
468,20
469,20
470,20
471,20
472,20
473,20
474,20
475,21
476,21
477,21
478,21
479,21
480,21
481,21
482,21
483,21
484,21
485,22
486,22
487,22
488,22
489,22
490,22
491,22
492,22
493,22
494,22
495,22
496,22
497,22
498,22
499,22
500,22
501,22
502,22
503,22
504,22
505,22
506,22
507,22
508,23
509,23
510,23
511,23
512,23
513,23
514,23
515,23
516,23
517,23
518,23
519,23
520,23
521,23
522,23
523,23
524,23
525,23
526,23
527,23
528,23
529,23
530,24
531,24
532,24
533,24
534,25
535,26
536,26
537,26
538,26
539,26
540,26
541,26
542,26
543,26
544,26
545,26
546,26
547,26
548,26
549,26
550,26
551,26
552,26
553,26
554,26
555,26
556,26
557,26
558,26
559,26
560,26
561,26
562,26
563,26
564,26
565,26
566,26
567,26
568,26
569,26
570,27
571,27
572,27
573,27
574,27
575,27
576,27
577,27
578,27
579,28
580,28
581,28
582,28
583,28
584,29
585,29
586,29
587,29
588,29
589,29
590,29
591,29
592,29
593,29
594,29
595,29
596,29
597,29
598,29
599,29
600,29
601,29
602,29
603,29
604,29
605,29
606,29
607,29
608,29
609,29
610,29
611,29
612,29
613,29
614,29
615,29
616,29
617,29
618,29
619,29
620,30
621,30
622,30
623,30
624,30
625,30
626,30
627,30
628,30
629,30
630,30
631,30
632,30
633,30
634,30
635,30
636,30
637,30
638,30
639,30
640,30
641,30
642,30
643,30
644,30
645,30
646,30
647,30
648,30
649,30
650,30
651,30
652,30
653,30
654,30
655,30
656,30
657,30
658,30
659,30
660,30
661,30
662,30
663,30
664,30
665,30
666,30
667,30
668,30
669,30
670,30
671,30
672,30
673,30
674,30
675,30
676,30
677,30
678,30
679,30
680,30
681,30
682,30
683,30
684,30
685,30
686,30
687,30
688,30
689,30
690,30
691,30
692,30
693,30
694,30
695,30
696,30
697,30
698,30
699,30
700,30
701,30
702,30
703,30
704,30
705,30
706,30
707,30
708,30
709,30
710,30
711,30
712,30
713,30
714,30
715,30
716,30
717,30
718,30
719,30
720,30
721,30
722,30
723,30
724,30
725,30
726,30
727,30
728,30
729,30
730,30
731,30
732,30
733,30
734,30
735,30
736,30
737,30
738,30
739,30
740,30
741,30
742,30
743,30
744,30
745,30
746,30
747,30
748,30
749,30
750,30
751,30
752,30
753,30
754,31
755,31
756,31
757,31
758,31
759,31
760,31
761,31
762,31
763,31
764,31
765,31
766,31
767,31
768,31
769,31
770,31
771,31
772,31
773,31
774,31
775,31
776,31
777,31
778,31
779,32
780,32
781,32
782,32
783,32
784,32
785,32
786,32
787,32
788,32
789,32
790,32
791,32
792,32
793,32
794,32
795,32
796,32
797,32
798,32
799,32
800,32
801,32
802,32
803,32
804,32
805,32
806,32
807,32
808,32
809,32
810,32
811,32
812,32
813,32
814,32
815,32
816,32
817,32
818,32
819,32
820,32
821,32
822,32
823,32
824,32
825,32
826,32
827,32
828,32
829,32
830,32
831,32
832,33
833,33
834,34
835,34
836,34
837,34
838,34
839,34
840,35
841,35
842,35
843,35
844,35
845,35
846,35
847,35
848,35
849,35
850,35
851,35
852,35
853,35
854,35
855,35
856,35
857,35
858,35
859,35
860,35
861,35
862,35
863,35
864,36
865,37
866,37
867,37
868,37
869,37
870,37
871,37
872,37
873,37
874,37
875,37
876,37
877,37
878,37
879,37
880,37
881,37
882,37
883,37
884,37
885,37
886,37
887,37
888,37
889,37
890,37
891,38
892,38
893,38
894,38
895,39
896,39
897,39
898,39
899,39
900,39
901,39
902,39
903,39
904,39
905,39
906,39
907,39
908,39
909,39
910,39
911,39
912,39
913,39
914,39
915,39
916,39
917,39
918,39
919,39
920,39
921,39
922,39
923,39
924,40
925,40
926,40
927,40
928,40
929,41
930,41
931,41
932,41
933,41
934,41
935,41
936,41
937,41
938,41
939,41
940,41
941,41
942,41
943,41
944,41
945,41
946,41
947,41
948,41
949,41
950,41
951,41
952,41
953,41
954,41
955,41
956,42
957,43
958,43
959,43
960,43
961,43
962,43
963,43
964,43
965,43
966,43
967,43
968,43
969,43
970,43
971,43
972,43
973,43
974,43
975,43
976,43
977,43
978,43
979,43
980,43
981,43
982,43
983,43
984,43
985,43
986,43
987,43
988,43
989,43
990,43
991,43
992,43
993,43
994,43
995,43
996,43
997,43
998,43
999,43
1000,43
1001,43
1002,43
1003,43
1004,43
1005,43
1006,43
1007,43
1008,43
1009,43
1010,43
1011,43
1012,43
1013,43
1014,43
1015,43
1016,43
1017,43
1018,43
1019,43
1020,43
1021,43
1022,43
1023,43
1024,43
1025,43
1026,43
1027,43
1028,43
1029,43
1030,43
1031,43
1032,43
1033,43
1034,43
1035,43
1036,43
1037,43
1038,43
1039,43
1040,43
1041,43
1042,43
1043,43
1044,43
1045,43
1046,43
1047,43
1048,43
1049,44
1050,44
1051,44
1052,44
1053,44
1054,44
1055,44
1056,44
1057,44
1058,44
1059,44
1060,44
1061,44
1062,44
1063,44
1064,44
1065,44
1066,44
1067,44
1068,44
1069,44
1070,44
1071,44
1072,44
1073,44
1074,44
1075,44
1076,44
1077,44
1078,44
1079,44
1080,44
1081,44
1082,44
1083,44
1084,44
1085,44
1086,44
1087,44
1088,44
1089,44
1090,44
1091,44
1092,44
1093,44
1094,44
1095,44
1096,44
1097,44
1098,44
1099,44
1100,44
1101,45
1102,45
1103,45
1104,45
1105,45
1106,45
1107,45
1108,45
1109,45
1110,45
1111,45
1112,45
1113,45
1114,45
1115,45
1116,45
1117,45
1118,46
1119,46
1120,46
1121,46
1122,46
1123,46
1124,46
1125,46
1126,46
1127,46
1128,46
1129,46
1130,46
1131,46
1132,46
1133,46
1134,46
1135,47
1136,47
1137,47
1138,47
1139,47
1140,47
1141,47
1142,47
1143,47
1144,47
1145,47
1146,47
1147,47
1148,47
1149,47
1150,47
1151,47
1152,47
1153,47
1154,47
1155,47
1156,47
1157,47
1158,47
1159,47
1160,47
1161,47
1162,47
1163,47
1164,47
1165,47
1166,47
1167,47
1168,47
1169,47
1170,47
1171,47
1172,48
1173,48
1174,48
1175,48
1176,48
1177,48
1178,49
1179,49
1180,49
1181,49
1182,49
1183,49
1184,49
1185,49
1186,49
1187,49
1188,49
1189,49
1190,49
1191,49
1192,49
1193,49
1194,50
1195,50
1196,50
1197,50
1198,50
1199,51
1200,51
1201,51
1202,52
1203,52
1204,52
1205,52
1206,52
1207,52
1208,53
1209,53
1210,53
1211,53
1212,53
1213,53
1214,53
1215,53
1216,54
1217,54
1218,54
1219,54
1220,54
1221,54
1222,54
1223,54
1224,54
1225,54
1226,54
1227,54
1228,54
1229,54
1230,54
1231,54
1232,54
1233,54
1234,54
1235,54
1236,54
1237,54
1238,54
1239,54
1240,54
1241,54
1242,54
1243,54
1244,54
1245,54
1246,54
1247,54
1248,54
1249,54
1250,54
1251,54
1252,54
1253,54
1254,54
1255,54
1256,54
1257,55
1258,55
1259,55
1260,55
1261,55
1262,55
1263,55
1264,55
1265,55
1266,55
1267,55
1268,55
1269,55
1270,55
1271,56
1272,56
1273,56
1274,56
1275,56
1276,56
1277,56
1278,56
1279,56
1280,56
1281,56
1282,56
1283,56
1284,56
1285,57
1286,57
1287,57
1288,57
1289,58
1290,58
1291,58
1292,59
1293,59
1294,59
1295,60
1296,60
1297,60
1298,60
1299,60
1300,60
1301,60
1302,60
1303,60
1304,60
1305,60
1306,60
1307,60
1308,60
1309,60
1310,60
1311,60
1312,60
1313,60
1314,60
1315,60
1316,60
1317,60
1318,60
1319,60
1320,60
1321,60
1322,60
1323,60
1324,60
1325,60
1326,60
1327,60
1328,60
1329,60
1330,60
1331,60
1332,60
1333,60
1334,60
1335,60
1336,60
1337,60
1338,60
1339,60
1340,60
1341,60
1342,60
1343,60
1344,60
1345,60
1346,60
1347,60
1348,60
1349,60
1350,60
1351,60
1352,60
1353,60
1354,60
1355,60
1356,60
1357,60
1358,60
1359,60
1360,60
1361,60
1362,60
1363,60
1364,60
1365,60
1366,60
1367,60
1368,60
1369,60
1370,60
1371,60
1372,60
1373,60
1374,60
1375,60
1376,60
1377,60
1378,61
1379,61
1380,61
1381,61
1382,61
1383,61
1384,61
1385,61
1386,61
1387,61
1388,61
1389,61
1390,61
1391,61
1392,61
1393,61
1394,61
1395,61
1396,61
1397,61
1398,62
1399,62
1400,62
1401,62
1402,62
1403,62
1404,62
1405,62
1406,62
1407,62
1408,62
1409,62
1410,63
1411,63
1412,63
1413,63
1414,63
1415,63
1416,63
1417,63
1418,63
1419,63
1420,63
1421,63
1422,63
1423,63
1424,63
1425,63
1426,63
1427,63
1428,63
1429,63
1430,63
1431,63
1432,63
1433,63
1434,63
1435,63
1436,63
1437,63
1438,63
1439,63
1440,63
1441,63
1442,63
1443,63
1444,63
1445,63
1446,63
1447,63
1448,63
1449,63
1450,63
1451,63
1452,63
1453,63
1454,63
1455,63
1456,63
1457,64
1458,64
1459,64
1460,64
1461,64
1462,64
1463,64
1464,64
1465,64
1466,64
1467,64
1468,65
1469,65
1470,65
1471,65
1472,65
1473,65
1474,65
1475,65
1476,65
1477,65
1478,65
1479,65
1480,65
1481,65
1482,65
1483,65
1484,65
1485,65
1486,65
1487,65
1488,65
1489,65
1490,65
1491,65
1492,65
1493,65
1494,65
1495,65
1496,65
1497,65
1498,65
1499,65
1500,65
1501,65
1502,65
1503,65
1504,65
1505,65
1506,65
1507,66
1508,66
1509,66
1510,66
1511,66
1512,66
1513,66
1514,66
1515,66
1516,66
1517,66
1518,66
1519,66
1520,67
1521,67
1522,67
1523,67
1524,67
1525,67
1526,67
1527,67
1528,67
1529,67
1530,67
1531,67
1532,67
1533,67
1534,67
1535,67
1536,67
1537,67
1538,67
1539,67
1540,67
1541,67
1542,67
1543,67
1544,67
1545,67
1546,67
1547,67
1548,67
1549,68
1550,68
1551,68
1552,69
1553,69
1554,70
1555,70
1556,70
1557,70
1558,70
1559,70
1560,70
1561,70
1562,70
1563,70
1564,70
1565,70
1566,70
1567,70
1568,70
1569,70
1570,70
1571,70
1572,70
1573,70
1574,70
1575,70
1576,70
1577,70
1578,70
1579,70
1580,70
1581,70
1582,70
1583,70
1584,70
1585,70
1586,70
1587,70
1588,70
1589,71
1590,71
1591,71
1592,71
1593,71
1594,71
1595,71
1596,71
1597,71
1598,71
1599,71
1600,73
1601,73
1602,73
1603,73
1604,73
1605,73
1606,73
1607,73
1608,74
1609,74
1610,74
1611,74
1612,74
1613,74
1614,74
1615,74
1616,74
1617,74
1618,74
1619,74
1620,74
1621,74
1622,74
1623,74
1624,74
1625,74
1626,74
1627,74
1628,74
1629,74
1630,75
1631,75
1632,75
1633,75
1634,75
1635,75
1636,75
1637,75
1638,75
1639,75
1640,75
1641,76
1642,76
1643,76
1644,76
1645,76
1646,76
1647,76
1648,76
1649,76
1650,77
1651,77
1652,77
1653,77
1654,77
1655,78
1656,78
1657,78
1658,78
1659,78
1660,78
1661,78
1662,78
1663,78
1664,78
1665,78
1666,80
1667,80
1668,80
1669,81
1670,81
1671,81
1672,81
1673,81
1674,81
1675,81
1676,81
1677,81
1678,81
1679,81
1680,81
1681,81
1682,81
1683,81
1684,81
1685,81
1686,81
1687,81
1688,81
1689,81
1690,82
1691,82
1692,82
1693,82
1694,82
1695,82
1696,82
1697,82
1698,82
1699,82
1700,82
1701,82
1702,82
1703,82
1704,82
1705,82
1706,82
1707,82
1708,82
1709,82
1710,82
1711,82
1712,82
1713,82
1714,82
1715,82
1716,82
1717,82
1718,82
1719,82
1720,82
1721,82
1722,82
1723,82
1724,82
1725,82
1726,82
1727,82
1728,82
1729,83
1730,83
1731,83
1732,83
1733,83
1734,83
1735,83
1736,83
1737,83
1738,83
1739,83
1740,83
1741,83
1742,83
1743,83
1744,83
1745,83
1746,83
1747,83
1748,83
1749,83
1750,84
1751,84
1752,85
1753,85
1754,85
1755,85
1756,85
1757,86
1758,86
1759,86
1760,86
1761,86
1762,86
1763,86
1764,86
1765,86
1766,86
1767,86
1768,86
1769,86
1770,86
1771,86
1772,86
1773,86
1774,86
1775,86
1776,86
1777,86
1778,86
1779,86
1780,86
1781,86
1782,86
1783,86
1784,86
1785,86
1786,86
1787,86
1788,86
1789,86
1790,86
1791,86
1792,86
1793,86
1794,86
1795,86
1796,86
1797,86
1798,86
1799,86
1800,86
1801,86
1802,86
1803,86
1804,86
1805,86
1806,86
1807,87
1808,87
1809,87
1810,87
1811,87
1812,87
1813,87
1814,87
1815,87
1816,87
1817,88
1818,88
1819,88
1820,89
1821,89
1822,89
1823,89
1824,89
1825,89
1826,89
1827,89
1828,89
1829,89
1830,89
1831,89
1832,89
1833,89
1834,89
1835,89
1836,89
1837,89
1838,89
1839,89
1840,89
1841,89
1842,89
1843,89
1844,89
1845,89
1846,89
1847,90
1848,90
1849,90
1850,90
1851,90
1852,90
1853,90
1854,90
1855,90
1856,90
1857,90
1858,90
1859,90
1860,90
1861,90
1862,90
1863,90
1864,90
1865,90
1866,90
1867,90
1868,90
1869,90
1870,90
1871,90
1872,90
1873,90
1874,90
1875,90
1876,90
1877,90
1878,90
1879,90
1880,90
1881,90
1882,90
1883,90
1884,90
1885,90
1886,90
1887,90
1888,90
1889,90
1890,90
1891,90
1892,90
1893,90
1894,90
1895,90
1896,90
1897,90
1898,90
1899,90
1900,90
1901,90
1902,90
1903,90
1904,90
1905,90
1906,90
1907,90
1908,90
1909,90
1910,90
1911,90
1912,90
1913,90
1914,90
1915,90
1916,90
1917,90
1918,90
1919,90
1920,90
1921,90
1922,90
1923,90
1924,90
1925,90
1926,90
1927,90
1928,90
1929,90
1930,90
1931,90
1932,90
1933,90
1934,90
1935,90
1936,90
1937,90
1938,90
1939,90
1940,90
1941,90
1942,90
1943,90
1944,90
1945,90
1946,90
1947,90
1948,90
1949,90
1950,90
1951,90
1952,90
1953,90
1954,90
1955,90
1956,90
1957,90
1958,90
1959,90
1960,90
1961,90
1962,90
1963,90
1964,90
1965,90
1966,90
1967,90
1968,90
1969,90
1970,90
1971,90
1972,90
1973,90
1974,90
1975,90
1976,90
1977,90
1978,90
1979,90
1980,90
1981,90
1982,90
1983,90
1984,90
1985,90
1986,90
1987,90
1988,90
1989,90
1990,90
1991,90
1992,90
1993,90
1994,90
1995,90
1996,90
1997,90
1998,90
1999,90
2000,90
