"tick","total"
0,0
1,0
2,0
3,0
4,0
5,0
6,0
7,0
8,0
9,0
10,0
11,0
12,0
13,0
14,0
15,0
16,0
17,0
18,0
19,0
20,0
21,0
22,0
23,0
24,0
25,0
26,0
27,0
28,0
29,0
30,0
31,0
32,0
33,0
34,0
35,0
36,0
37,0
38,0
39,0
40,0
41,0
42,0
43,0
44,0
45,0
46,0
47,0
48,0
49,0
50,0
51,0
52,0
53,0
54,0
55,0
56,0
57,0
58,0
59,0
60,0
61,0
62,0
63,0
64,0
65,0
66,0
67,0
68,0
69,0
70,0
71,0
72,0
73,0
74,0
75,0
76,0
77,0
78,0
79,0
80,0
81,0
82,0
83,0
84,0
85,0
86,0
87,0
88,0
89,0
90,0
91,0
92,0
93,0
94,0
95,0
96,0
97,0
98,0
99,0
100,0
101,0
102,0
103,0
104,0
105,0
106,0
107,0
108,0
109,0
110,0
111,0
112,0
113,0
114,0
115,0
116,0
117,0
118,0
119,0
120,0
121,0
122,0
123,0
124,0
125,0
126,0
127,0
128,0
129,0
130,0
131,0
132,0
133,0
134,0
135,0
136,0
137,0
138,0
139,0
140,0
141,0
142,0
143,0
144,0
145,0
146,0
147,0
148,0
149,0
150,0
151,0
152,0
153,0
154,0
155,0
156,0
157,0
158,0
159,0
160,0
161,0
162,0
163,0
164,0
165,0
166,0
167,0
168,0
169,0
170,0
171,0
172,0
173,0
174,0
175,0
176,0
177,0
178,0
179,0
180,0
181,0
182,0
183,0
184,0
185,0
186,0
187,0
188,0
189,0
190,0
191,0
192,0
193,0
194,0
195,0
196,0
197,0
198,0
199,0
200,0
201,0
202,0
203,0
204,0
205,0
206,0
207,0
208,0
209,0
210,0
211,0
212,0
213,0
214,0
215,0
216,0
217,0
218,0
219,0
220,0
221,0
222,0
223,0
224,0
225,0
226,0
227,0
228,0
229,0
230,0
231,0
232,0
233,0
234,0
235,0
236,0
237,0
238,0
239,0
240,0
241,0
242,0
243,0
244,0
245,0
246,0
247,0
248,0
249,0
250,0
251,0
252,0
253,0
254,0
255,0
256,0
257,0
258,1
259,1
260,1
261,1
262,1
263,1
264,1
265,2
266,2
267,3
268,3
269,3
270,3
271,3
272,3
273,3
274,3
275,3
276,3
277,3
278,3
279,3
280,3
281,3
282,3
283,3
284,4
285,4
286,4
287,4
288,4
289,4
290,4
291,4
292,4
293,4
294,4
295,4
296,4
297,4
298,4
299,5
300,5
301,6
302,6
303,6
304,6
305,6
306,6
307,7
308,7
309,7
310,7
311,7
312,7
313,7
314,7
315,7
316,7
317,7
318,7
319,7
320,7
321,7
322,7
323,7
324,7
325,7
326,7
327,8
328,8
329,8
330,8
331,8
332,8
333,8
334,8
335,8
336,8
337,8
338,8
339,8
340,8
341,8
342,8
343,8
344,8
345,8
346,8
347,8
348,8
349,8
350,8
351,8
352,8
353,8
354,8
355,10
356,10
357,11
358,11
359,11
360,11
361,11
362,11
363,11
364,11
365,11
366,11
367,11
368,11
369,11
370,11
371,11
372,12
373,12
374,12
375,12
376,12
377,12
378,13
379,13
380,13
381,13
382,13
383,13
384,13
385,13
386,13
387,13
388,13
389,13
390,13
391,13
392,13
393,13
394,13
395,13
396,13
397,13
398,13
399,13
400,13
401,14
402,14
403,14
404,14
405,14
406,14
407,14
408,14
409,14
410,14
411,14
412,14
413,14
414,14
415,14
416,14
417,14
418,14
419,14
420,14
421,14
422,14
423,14
424,14
425,14
426,14
427,14
428,14
429,14
430,14
431,14
432,14
433,14
434,14
435,14
436,15
437,15
438,16
439,16
440,16
441,16
442,16
443,16
444,16
445,16
446,16
447,16
448,16
449,16
450,16
451,16
452,16
453,16
454,16
455,16
456,16
457,16
458,16
459,16
460,16
461,16
462,16
463,16
464,16
465,16
466,16
467,16
468,17
469,17
470,17
471,17
472,17
473,17
474,17
475,17
476,17
477,17
478,17
479,17
480,17
481,17
482,17
483,17
484,17
485,17
486,17
487,17
488,17
489,17
490,17
491,18
492,18
493,18
494,18
495,18
496,19
497,19
498,19
499,19
500,19
501,19
502,20
503,20
504,20
505,20
506,20
507,20
508,20
509,21
510,22
511,22
512,22
513,23
514,23
515,23
516,23
517,24
518,24
519,24
520,24
521,24
522,24
523,24
524,24
525,24
526,24
527,24
528,24
529,24
530,24
531,24
532,24
533,24
534,24
535,24
536,24
537,24
538,24
539,24
540,24
541,24
542,24
543,24
544,24
545,25
546,25
547,25
548,25
549,25
550,25
551,25
552,27
553,27
554,27
555,27
556,27
557,27
558,27
559,27
560,27
561,27
562,27
563,27
564,27
565,27
566,27
567,27
568,27
569,27
570,27
571,27
572,27
573,27
574,27
575,27
576,27
577,27
578,27
579,27
580,27
581,27
582,27
583,27
584,28
585,28
586,28
587,28
588,28
589,28
590,28
591,28
592,28
593,28
594,28
595,28
596,28
597,28
598,28
599,28
600,28
601,28
602,28
603,28
604,28
605,28
606,28
607,29
608,29
609,29
610,30
611,30
612,30
613,30
614,30
615,30
616,30
617,30
618,30
619,30
620,30
621,30
622,30
623,30
624,30
625,30
626,30
627,30
628,30
629,30
630,30
631,30
632,30
633,30
634,30
635,30
636,30
637,30
638,30
639,30
640,30
641,30
642,30
643,30
644,30
645,30
646,30
647,30
648,30
649,30
650,30
651,30
652,30
653,30
654,30
655,30
656,30
657,30
658,30
659,30
660,30
661,30
662,30
663,30
664,30
665,30
666,30
667,30
668,30
669,30
670,30
671,30
672,30
673,30
674,30
675,30
676,30
677,30
678,30
679,30
680,30
681,30
682,30
683,30
684,30
685,30
686,30
687,30
688,30
689,30
690,30
691,30
692,30
693,30
694,30
695,30
696,30
697,30
698,30
699,30
700,30
701,30
702,30
703,30
704,30
705,30
706,30
707,30
708,30
709,30
710,30
711,30
712,30
713,30
714,30
715,30
716,30
717,30
718,30
719,30
720,30
721,30
722,30
723,30
724,30
725,30
726,30
727,30
728,30
729,30
730,30
731,30
732,30
733,30
734,30
735,30
736,30
737,30
738,30
739,30
740,30
741,30
742,30
743,30
744,30
745,30
746,30
747,30
748,30
749,30
750,30
751,30
752,30
753,30
754,30
755,30
756,30
757,30
758,30
759,30
760,30
761,30
762,30
763,30
764,30
765,30
766,30
767,30
768,30
769,30
770,30
771,30
772,30
773,30
774,30
775,30
776,30
777,30
778,30
779,30
780,30
781,30
782,30
783,30
784,30
785,30
786,30
787,30
788,30
789,30
790,30
791,30
792,30
793,30
794,30
795,30
796,30
797,30
798,30
799,30
800,30
801,30
802,30
803,30
804,30
805,30
806,30
807,30
808,30
809,30
810,30
811,30
812,30
813,30
814,30
815,30
816,30
817,30
818,30
819,30
820,30
821,30
822,30
823,30
824,31
825,31
826,31
827,32
828,32
829,32
830,32
831,32
832,32
833,32
834,32
835,32
836,32
837,32
838,32
839,32
840,32
841,32
842,32
843,32
844,32
845,32
846,32
847,32
848,32
849,33
850,33
851,33
852,33
853,33
854,33
855,33
856,33
857,33
858,33
859,33
860,33
861,33
862,33
863,33
864,33
865,33
866,33
867,33
868,33
869,33
870,33
871,33
872,33
873,33
874,33
875,34
876,34
877,34
878,34
879,34
880,34
881,34
882,34
883,34
884,34
885,34
886,34
887,34
888,34
889,35
890,35
891,35
892,35
893,35
894,35
895,35
896,35
897,35
898,35
899,35
900,35
901,35
902,35
903,35
904,35
905,35
906,35
907,35
908,35
909,35
910,35
911,35
912,35
913,35
914,35
915,35
916,35
917,35
918,35
919,35
920,35
921,35
922,35
923,35
924,35
925,35
926,35
927,36
928,36
929,36
930,36
931,36
932,36
933,36
934,36
935,36
936,36
937,36
938,36
939,36
940,36
941,36
942,37
943,37
944,37
945,37
946,37
947,37
948,37
949,37
950,37
951,37
952,37
953,37
954,37
955,37
956,37
957,37
958,37
959,37
960,37
961,37
962,37
963,37
964,37
965,37
966,37
967,37
968,37
969,37
970,37
971,37
972,37
973,37
974,37
975,37
976,37
977,37
978,37
979,37
980,37
981,37
982,38
983,38
984,38
985,38
986,38
987,38
988,38
989,38
990,38
991,38
992,38
993,38
994,38
995,38
996,38
997,38
998,38
999,38
1000,38
1001,38
1002,38
1003,38
1004,38
1005,38
1006,38
1007,38
1008,38
1009,38
1010,38
1011,38
1012,38
1013,38
1014,38
1015,38
1016,38
1017,38
1018,38
1019,38
1020,38
1021,38
1022,38
1023,38
1024,38
1025,38
1026,38
1027,38
1028,39
1029,39
1030,39
1031,39
1032,39
1033,39
1034,39
1035,39
1036,39
1037,39
1038,39
1039,39
1040,39
1041,39
1042,39
1043,39
1044,39
1045,39
1046,39
1047,39
1048,39
1049,39
1050,39
1051,39
1052,39
1053,39
1054,39
1055,40
1056,40
1057,41
1058,41
1059,41
1060,41
1061,41
1062,41
1063,41
1064,41
1065,41
1066,41
1067,41
1068,41
1069,41
1070,41
1071,41
1072,41
1073,41
1074,41
1075,42
1076,42
1077,42
1078,42
1079,42
1080,42
1081,43
1082,43
1083,43
1084,44
1085,44
1086,44
1087,44
1088,44
1089,44
1090,44
1091,44
1092,44
1093,44
1094,44
1095,44
1096,44
1097,44
1098,45
1099,45
1100,45
1101,45
1102,45
1103,45
1104,46
1105,46
1106,46
1107,46
1108,46
1109,46
1110,46
1111,46
1112,46
1113,46
1114,46
1115,46
1116,46
1117,46
1118,46
1119,46
1120,46
1121,46
1122,46
1123,46
1124,47
1125,47
1126,47
1127,47
1128,47
1129,47
1130,47
1131,47
1132,47
1133,47
1134,47
1135,47
1136,47
1137,47
1138,47
1139,47
1140,47
1141,47
1142,47
1143,47
1144,47
1145,47
1146,47
1147,47
1148,47
1149,47
1150,47
1151,47
1152,47
1153,47
1154,47
1155,47
1156,47
1157,47
1158,47
1159,47
1160,48
1161,48
1162,49
1163,49
1164,50
1165,50
1166,50
1167,50
1168,50
1169,50
1170,50
1171,50
1172,50
1173,50
1174,50
1175,50
1176,50
1177,50
1178,50
1179,50
1180,50
1181,50
1182,50
1183,50
1184,51
1185,51
1186,51
1187,51
1188,51
1189,51
1190,51
1191,51
1192,51
1193,51
1194,51
1195,52
1196,52
1197,52
1198,52
1199,52
1200,52
1201,52
1202,53
1203,53
1204,53
1205,53
1206,53
1207,53
1208,53
1209,53
1210,53
1211,53
1212,53
1213,53
1214,53
1215,53
1216,53
1217,53
1218,53
1219,53
1220,53
1221,53
1222,53
1223,53
1224,53
1225,53
1226,54
1227,54
1228,54
1229,54
1230,54
1231,54
1232,54
1233,54
1234,54
1235,55
1236,55
1237,55
1238,55
1239,55
1240,55
1241,55
1242,55
1243,55
1244,55
1245,55
1246,55
1247,55
1248,55
1249,55
1250,55
1251,55
1252,55
1253,55
1254,55
1255,55
1256,55
1257,55
1258,55
1259,55
1260,55
1261,55
1262,55
1263,55
1264,55
1265,55
1266,55
1267,55
1268,55
1269,55
1270,55
1271,55
1272,55
1273,55
1274,55
1275,56
1276,56
1277,56
1278,56
1279,56
1280,56
1281,56
1282,56
1283,56
1284,56
1285,56
1286,57
1287,57
1288,57
1289,57
1290,57
1291,57
1292,57
1293,57
1294,57
1295,57
1296,57
1297,57
1298,57
1299,58
1300,58
1301,58
1302,58
1303,58
1304,59
1305,59
1306,59
1307,59
1308,59
1309,59
1310,59
1311,59
1312,59
1313,59
1314,59
1315,59
1316,59
1317,59
1318,59
1319,59
1320,59
1321,59
1322,59
1323,59
1324,59
1325,59
1326,59
1327,59
1328,59
1329,59
1330,59
1331,59
1332,59
1333,59
1334,59
1335,59
1336,59
1337,59
1338,59
1339,59
1340,59
1341,59
1342,59
1343,60
1344,60
1345,60
1346,60
1347,60
1348,60
1349,60
1350,60
1351,60
1352,60
1353,60
1354,60
1355,60
1356,60
1357,60
1358,60
1359,60
1360,60
1361,60
1362,60
1363,60
1364,60
1365,60
1366,60
1367,60
1368,60
1369,60
1370,60
1371,60
1372,60
1373,60
1374,60
1375,60
1376,60
1377,60
1378,60
1379,60
1380,60
1381,60
1382,60
1383,60
1384,60
1385,60
1386,60
1387,60
1388,60
1389,60
1390,60
1391,60
1392,60
1393,60
1394,60
1395,60
1396,60
1397,60
1398,60
1399,60
1400,60
1401,60
1402,60
1403,60
1404,60
1405,60
1406,60
1407,60
1408,60
1409,60
1410,60
1411,60
1412,60
1413,60
1414,60
1415,60
1416,60
1417,60
1418,60
1419,60
1420,60
1421,60
1422,60
1423,61
1424,61
1425,61
1426,61
1427,61
1428,61
1429,61
1430,61
1431,61
1432,61
1433,61
1434,61
1435,61
1436,61
1437,62
1438,62
1439,62
1440,62
1441,62
1442,62
1443,62
1444,62
1445,62
1446,62
1447,62
1448,62
1449,62
1450,62
1451,62
1452,62
1453,62
1454,62
1455,62
1456,62
1457,62
1458,62
1459,62
1460,62
1461,62
1462,62
1463,62
1464,62
1465,62
1466,62
1467,62
1468,62
1469,62
1470,63
1471,63
1472,63
1473,63
1474,63
1475,63
1476,63
1477,63
1478,63
1479,63
1480,63
1481,63
1482,63
1483,63
1484,63
1485,63
1486,64
1487,64
1488,64
1489,66
1490,66
1491,66
1492,66
1493,66
1494,66
1495,66
1496,66
1497,66
1498,66
1499,66
1500,66
1501,66
1502,67
1503,67
1504,67
1505,67
1506,67
1507,67
1508,67
1509,67
1510,67
1511,67
1512,67
1513,67
1514,67
1515,67
1516,67
1517,68
1518,68
1519,68
1520,68
1521,68
1522,68
1523,68
1524,68
1525,68
1526,68
1527,68
1528,68
1529,68
1530,68
1531,69
1532,69
1533,69
1534,69
1535,70
1536,70
1537,70
1538,70
1539,70
1540,70
1541,70
1542,70
1543,70
1544,70
1545,70
1546,70
1547,70
1548,70
1549,70
1550,70
1551,70
1552,71
1553,71
1554,71
1555,71
1556,71
1557,71
1558,71
1559,71
1560,71
1561,71
1562,71
1563,72
1564,72
1565,72
1566,72
1567,72
1568,72
1569,72
1570,72
1571,72
1572,72
1573,72
1574,72
1575,72
1576,73
1577,73
1578,73
1579,73
1580,73
1581,74
1582,74
1583,74
1584,74
1585,74
1586,74
1587,74
1588,74
1589,74
1590,74
1591,74
1592,74
1593,74
1594,75
1595,75
1596,75
1597,75
1598,75
1599,75
1600,75
1601,75
1602,75
1603,75
1604,75
1605,75
1606,75
1607,75
1608,75
1609,75
1610,75
1611,75
1612,75
1613,75
1614,75
1615,75
1616,75
1617,75
1618,75
1619,76
1620,76
1621,76
1622,76
1623,76
1624,76
1625,76
1626,76
1627,76
1628,76
1629,76
1630,76
1631,76
1632,76
1633,77
1634,77
1635,77
1636,77
1637,77
1638,77
1639,77
1640,77
1641,77
1642,77
1643,77
1644,77
1645,77
1646,77
1647,77
1648,77
1649,77
1650,77
1651,77
1652,78
1653,78
1654,78
1655,78
1656,78
1657,78
1658,78
1659,78
1660,78
1661,78
1662,78
1663,78
1664,78
1665,78
1666,78
1667,78
1668,78
1669,78
1670,78
1671,78
1672,78
1673,78
1674,79
1675,79
1676,79
1677,79
1678,79
1679,79
1680,80
1681,81
1682,81
1683,81
1684,81
1685,81
1686,81
1687,83
1688,83
1689,83
1690,83
1691,83
1692,83
1693,83
1694,83
1695,83
1696,83
1697,83
1698,83
1699,83
1700,84
1701,84
1702,84
1703,84
1704,84
1705,84
1706,84
1707,84
1708,84
1709,84
1710,84
1711,84
1712,84
1713,84
1714,84
1715,84
1716,84
1717,84
1718,84
1719,85
1720,85
1721,85
1722,85
1723,85
1724,85
1725,85
1726,85
1727,85
1728,85
1729,85
1730,85
1731,85
1732,85
1733,85
1734,85
1735,85
1736,85
1737,85
1738,85
1739,85
1740,85
1741,85
1742,85
1743,85
1744,85
1745,85
1746,85
1747,85
1748,85
1749,85
1750,85
1751,85
1752,85
1753,85
1754,85
1755,85
1756,85
1757,85
1758,85
1759,85
1760,85
1761,85
1762,85
1763,85
1764,86
1765,86
1766,86
1767,86
1768,86
1769,86
1770,87
1771,87
1772,87
1773,87
1774,87
1775,87
1776,88
1777,88
1778,88
1779,88
1780,88
1781,88
1782,88
1783,88
1784,88
1785,88
1786,88
1787,88
1788,88
1789,88
1790,88
1791,88
1792,88
1793,88
1794,88
1795,89
1796,89
1797,89
1798,89
1799,89
1800,89
1801,89
1802,89
1803,89
1804,89
1805,89
1806,89
1807,89
1808,89
1809,89
1810,89
1811,89
1812,89
1813,89
1814,89
1815,89
1816,90
1817,90
1818,90
1819,90
1820,90
1821,90
1822,90
1823,90
1824,90
1825,90
1826,90
1827,90
1828,90
1829,90
1830,91
1831,91
1832,91
1833,91
1834,91
1835,91
1836,91
1837,91
1838,91
1839,91
1840,91
1841,91
1842,91
1843,91
1844,91
1845,91
1846,91
1847,91
1848,91
1849,92
1850,92
1851,92
1852,92
1853,92
1854,92
1855,92
1856,92
1857,92
1858,92
1859,92
1860,92
1861,92
1862,92
1863,92
1864,92
1865,92
1866,92
1867,92
1868,92
1869,92
1870,92
1871,92
1872,92
1873,92
1874,92
1875,92
1876,92
1877,92
1878,92
1879,92
1880,92
1881,92
1882,92
1883,92
1884,92
1885,92
1886,92
1887,92
1888,92
1889,92
1890,92
1891,92
1892,92
1893,92
1894,92
1895,92
1896,92
1897,92
1898,92
1899,92
1900,92
1901,92
1902,92
1903,92
1904,92
1905,92
1906,92
1907,92
1908,92
1909,92
1910,92
1911,93
1912,93
1913,93
1914,93
1915,93
1916,93
1917,93
1918,93
1919,93
1920,93
1921,93
1922,93
1923,93
1924,93
1925,93
1926,93
1927,93
1928,93
1929,93
1930,93
1931,93
1932,93
1933,93
1934,93
1935,93
1936,93
1937,93
1938,93
1939,93
1940,93
1941,93
1942,93
1943,93
1944,93
1945,93
1946,93
1947,93
1948,93
1949,93
1950,93
1951,93
1952,93
1953,93
1954,93
1955,93
1956,93
1957,93
1958,93
1959,93
1960,93
1961,93
1962,93
1963,93
1964,93
1965,93
1966,93
1967,93
1968,93
1969,93
1970,93
1971,93
1972,93
1973,93
1974,93
1975,93
1976,93
1977,93
1978,93
1979,93
1980,93
1981,93
1982,93
1983,93
1984,94
1985,94
1986,94
1987,94
1988,94
1989,94
1990,94
1991,94
1992,94
1993,94
1994,94
1995,94
1996,94
1997,94
1998,94
1999,94
2000,94
