"tick","total"
0,0
1,0
2,0
3,0
4,0
5,0
6,0
7,0
8,0
9,0
10,0
11,0
12,0
13,0
14,0
15,0
16,0
17,0
18,0
19,0
20,0
21,0
22,0
23,0
24,0
25,0
26,0
27,0
28,0
29,0
30,0
31,0
32,0
33,0
34,0
35,0
36,0
37,0
38,0
39,0
40,0
41,0
42,0
43,0
44,0
45,0
46,0
47,0
48,0
49,0
50,0
51,0
52,0
53,0
54,0
55,0
56,0
57,0
58,0
59,0
60,0
61,0
62,0
63,0
64,0
65,0
66,0
67,0
68,0
69,0
70,0
71,0
72,0
73,0
74,0
75,0
76,0
77,0
78,0
79,0
80,0
81,0
82,0
83,0
84,0
85,0
86,0
87,0
88,0
89,0
90,0
91,0
92,0
93,0
94,0
95,0
96,0
97,0
98,0
99,0
100,0
101,0
102,0
103,0
104,0
105,0
106,0
107,0
108,0
109,0
110,0
111,0
112,0
113,0
114,0
115,0
116,0
117,0
118,0
119,0
120,0
121,0
122,0
123,0
124,0
125,0
126,0
127,0
128,0
129,0
130,0
131,0
132,0
133,0
134,0
135,0
136,0
137,0
138,0
139,0
140,0
141,0
142,0
143,0
144,0
145,0
146,0
147,0
148,0
149,0
150,0
151,0
152,0
153,0
154,0
155,0
156,0
157,0
158,0
159,0
160,0
161,0
162,0
163,0
164,0
165,0
166,0
167,0
168,0
169,0
170,0
171,0
172,0
173,0
174,0
175,0
176,0
177,0
178,0
179,1
180,1
181,1
182,1
183,1
184,1
185,1
186,1
187,1
188,1
189,1
190,1
191,1
192,1
193,1
194,1
195,1
196,1
197,1
198,1
199,1
200,1
201,1
202,1
203,1
204,1
205,1
206,1
207,1
208,1
209,1
210,1
211,1
212,1
213,1
214,1
215,1
216,1
217,1
218,1
219,1
220,1
221,1
222,1
223,1
224,1
225,1
226,1
227,1
228,1
229,1
230,1
231,1
232,1
233,1
234,1
235,2
236,2
237,2
238,2
239,2
240,2
241,2
242,2
243,2
244,2
245,2
246,2
247,2
248,2
249,2
250,2
251,2
252,2
253,2
254,2
255,2
256,2
257,2
258,2
259,2
260,2
261,2
262,2
263,2
264,2
265,2
266,2
267,2
268,3
269,3
270,3
271,3
272,4
273,4
274,4
275,4
276,4
277,4
278,4
279,4
280,4
281,5
282,6
283,6
284,6
285,6
286,6
287,6
288,6
289,6
290,6
291,6
292,6
293,6
294,6
295,6
296,6
297,6
298,6
299,6
300,6
301,6
302,6
303,6
304,6
305,6
306,6
307,6
308,6
309,6
310,6
311,6
312,6
313,6
314,6
315,6
316,6
317,6
318,7
319,7
320,7
321,7
322,7
323,7
324,7
325,7
326,7
327,7
328,7
329,7
330,8
331,8
332,8
333,8
334,8
335,8
336,8
337,8
338,9
339,9
340,9
341,10
342,11
343,11
344,11
345,11
346,11
347,11
348,11
349,11
350,11
351,11
352,11
353,12
354,12
355,12
356,12
357,12
358,12
359,12
360,12
361,12
362,12
363,13
364,14
365,14
366,14
367,14
368,14
369,14
370,15
371,15
372,15
373,15
374,15
375,15
376,16
377,16
378,16
379,16
380,16
381,16
382,17
383,17
384,17
385,18
386,18
387,18
388,19
389,19
390,19
391,19
392,20
393,20
394,20
395,20
396,20
397,20
398,20
399,20
400,20
401,20
402,20
403,21
404,21
405,21
406,21
407,21
408,21
409,21
410,21
411,21
412,21
413,21
414,21
415,21
416,21
417,21
418,21
419,21
420,21
421,21
422,21
423,21
424,21
425,21
426,21
427,21
428,22
429,22
430,22
431,22
432,22
433,22
434,22
435,22
436,22
437,22
438,22
439,22
440,22
441,22
442,22
443,22
444,22
445,22
446,22
447,22
448,22
449,22
450,22
451,22
452,22
453,22
454,22
455,22
456,22
457,22
458,22
459,22
460,22
461,22
462,22
463,22
464,22
465,22
466,22
467,22
468,22
469,22
470,23
471,23
472,23
473,23
474,23
475,23
476,23
477,23
478,23
479,23
480,23
481,23
482,24
483,24
484,24
485,24
486,24
487,24
488,24
489,24
490,24
491,24
492,24
493,24
494,24
495,25
496,25
497,25
498,25
499,25
500,25
501,25
502,25
503,25
504,25
505,25
506,25
507,25
508,25
509,25
510,25
511,25
512,26
513,26
514,26
515,26
516,26
517,26
518,26
519,26
520,26
521,26
522,26
523,26
524,26
525,26
526,26
527,26
528,27
529,27
530,27
531,27
532,27
533,27
534,27
535,27
536,27
537,27
538,27
539,27
540,27
541,27
542,27
543,27
544,27
545,27
546,27
547,27
548,27
549,27
550,27
551,27
552,27
553,27
554,27
555,27
556,27
557,27
558,27
559,27
560,27
561,27
562,27
563,27
564,27
565,27
566,27
567,27
568,27
569,27
570,27
571,27
572,27
573,27
574,27
575,27
576,27
577,27
578,27
579,27
580,27
581,27
582,27
583,27
584,27
585,27
586,27
587,27
588,27
589,27
590,27
591,27
592,27
593,27
594,27
595,27
596,27
597,27
598,27
599,27
600,27
601,27
602,27
603,27
604,27
605,28
606,28
607,28
608,28
609,28
610,28
611,28
612,28
613,28
614,28
615,28
616,28
617,29
618,29
619,29
620,29
621,29
622,29
623,29
624,29
625,29
626,29
627,30
628,30
629,31
630,31
631,31
632,31
633,31
634,31
635,31
636,31
637,32
638,32
639,32
640,32
641,32
642,32
643,32
644,32
645,32
646,32
647,33
648,33
649,33
650,33
651,33
652,33
653,33
654,33
655,33
656,33
657,33
658,33
659,33
660,33
661,33
662,33
663,33
664,33
665,33
666,33
667,33
668,33
669,33
670,33
671,33
672,33
673,33
674,33
675,33
676,33
677,33
678,33
679,33
680,33
681,33
682,33
683,33
684,33
685,33
686,33
687,33
688,33
689,33
690,34
691,34
692,34
693,34
694,34
695,34
696,34
697,34
698,34
699,34
700,34
701,34
702,34
703,34
704,34
705,34
706,34
707,34
708,34
709,34
710,34
711,34
712,34
713,34
714,34
715,34
716,34
717,34
718,34
719,35
720,35
721,35
722,35
723,35
724,35
725,35
726,35
727,35
728,35
729,35
730,35
731,35
732,35
733,35
734,35
735,35
736,35
737,35
738,35
739,35
740,35
741,35
742,35
743,35
744,35
745,35
746,36
747,36
748,36
749,36
750,36
751,36
752,36
753,36
754,37
755,37
756,37
757,37
758,37
759,37
760,37
761,37
762,37
763,37
764,37
765,37
766,38
767,39
768,40
769,40
770,40
771,40
772,40
773,41
774,41
775,41
776,41
777,41
778,41
779,41
780,41
781,41
782,41
783,41
784,41
785,41
786,41
787,41
788,41
789,41
790,41
791,41
792,41
793,41
794,41
795,41
796,41
797,41
798,41
799,41
800,42
801,42
802,42
803,42
804,42
805,42
806,42
807,42
808,42
809,42
810,42
811,42
812,42
813,42
814,42
815,42
816,42
817,42
818,42
819,42
820,42
821,42
822,42
823,42
824,43
825,43
826,43
827,43
828,43
829,43
830,43
831,43
832,43
833,43
834,43
835,43
836,43
837,43
838,43
839,43
840,43
841,43
842,43
843,43
844,43
845,43
846,43
847,43
848,43
849,43
850,43
851,43
852,43
853,43
854,43
855,43
856,43
857,43
858,43
859,43
860,44
861,44
862,44
863,44
864,44
865,44
866,44
867,44
868,44
869,44
870,44
871,44
872,44
873,44
874,44
875,44
876,44
877,44
878,44
879,44
880,44
881,44
882,44
883,44
884,44
885,44
886,44
887,44
888,44
889,44
890,44
891,44
892,44
893,44
894,44
895,44
896,44
897,44
898,44
899,44
900,44
901,44
902,44
903,44
904,44
905,44
906,44
907,44
908,44
909,44
910,44
911,44
912,44
913,44
914,44
915,44
916,44
917,44
918,44
919,44
920,44
921,44
922,44
923,44
924,44
925,44
926,44
927,44
928,44
929,44
930,44
931,44
932,44
933,44
934,44
935,44
936,44
937,44
938,44
939,44
940,44
941,44
942,44
943,44
944,44
945,44
946,44
947,44
948,44
949,44
950,44
951,44
952,44
953,44
954,44
955,44
956,44
957,44
958,44
959,44
960,44
961,44
962,44
963,44
964,44
965,44
966,44
967,44
968,44
969,44
970,44
971,44
972,44
973,44
974,44
975,44
976,44
977,44
978,44
979,44
980,44
981,44
982,44
983,44
984,44
985,44
986,45
987,45
988,45
989,45
990,45
991,45
992,45
993,45
994,45
995,45
996,45
997,45
998,45
999,45
1000,45
1001,45
1002,45
1003,45
1004,45
1005,45
1006,45
1007,45
1008,45
1009,46
1010,46
1011,46
1012,47
1013,47
1014,47
1015,47
1016,47
1017,47
1018,47
1019,47
1020,47
1021,47
1022,47
1023,47
1024,47
1025,47
1026,47
1027,47
1028,47
1029,47
1030,47
1031,47
1032,47
1033,47
1034,47
1035,47
1036,47
1037,47
1038,47
1039,47
1040,47
1041,47
1042,47
1043,47
1044,47
1045,47
1046,47
1047,47
1048,47
1049,47
1050,47
1051,47
1052,47
1053,47
1054,47
1055,47
1056,47
1057,48
1058,48
1059,48
1060,48
1061,48
1062,48
1063,48
1064,48
1065,48
1066,48
1067,48
1068,48
1069,49
1070,49
1071,49
1072,49
1073,49
1074,49
1075,49
1076,49
1077,49
1078,49
1079,49
1080,49
1081,49
1082,49
1083,49
1084,49
1085,49
1086,50
1087,50
1088,50
1089,50
1090,50
1091,50
1092,50
1093,50
1094,50
1095,50
1096,50
1097,50
1098,51
1099,51
1100,51
1101,51
1102,51
1103,51
1104,51
1105,51
1106,52
1107,52
1108,52
1109,52
1110,53
1111,53
1112,53
1113,53
1114,53
1115,53
1116,53
1117,53
1118,53
1119,53
1120,53
1121,53
1122,53
1123,53
1124,53
1125,53
1126,53
1127,53
1128,53
1129,53
1130,53
1131,53
1132,53
1133,53
1134,53
1135,53
1136,53
1137,53
1138,53
1139,53
1140,53
1141,53
1142,53
1143,53
1144,53
1145,53
1146,53
1147,53
1148,53
1149,53
1150,53
1151,53
1152,53
1153,53
1154,53
1155,53
1156,53
1157,53
1158,53
1159,53
1160,53
1161,53
1162,53
1163,53
1164,53
1165,53
1166,54
1167,54
1168,54
1169,54
1170,54
1171,54
1172,54
1173,54
1174,54
1175,54
1176,55
1177,55
1178,55
1179,55
1180,55
1181,55
1182,55
1183,55
1184,55
1185,55
1186,55
1187,55
1188,55
1189,55
1190,55
1191,55
1192,55
1193,55
1194,55
1195,55
1196,55
1197,55
1198,55
1199,55
1200,55
1201,55
1202,55
1203,55
1204,55
1205,55
1206,55
1207,55
1208,55
1209,55
1210,55
1211,55
1212,55
1213,55
1214,55
1215,55
1216,55
1217,55
1218,55
1219,55
1220,55
1221,55
1222,55
1223,55
1224,55
1225,55
1226,55
1227,55
1228,55
1229,55
1230,55
1231,55
1232,55
1233,55
1234,55
1235,55
1236,55
1237,55
1238,55
1239,55
1240,55
1241,55
1242,55
1243,55
1244,55
1245,55
1246,55
1247,55
1248,55
1249,55
1250,55
1251,55
1252,55
1253,55
1254,55
1255,55
1256,55
1257,55
1258,55
1259,55
1260,55
1261,55
1262,55
1263,55
1264,55
1265,55
1266,55
1267,55
1268,55
1269,55
1270,55
1271,55
1272,56
1273,56
1274,56
1275,56
1276,56
1277,56
1278,56
1279,56
1280,57
1281,57
1282,57
1283,57
1284,57
1285,57
1286,57
1287,57
1288,57
1289,57
1290,57
1291,57
1292,57
1293,57
1294,57
1295,58
1296,58
1297,58
1298,58
1299,58
1300,58
1301,58
1302,58
1303,58
1304,58
1305,59
1306,59
1307,59
1308,59
1309,59
1310,59
1311,59
1312,59
1313,59
1314,60
1315,60
1316,60
1317,60
1318,60
1319,60
1320,60
1321,60
1322,60
1323,60
1324,60
1325,60
1326,60
1327,60
1328,60
1329,60
1330,60
1331,60
1332,60
1333,60
1334,60
1335,60
1336,60
1337,60
1338,60
1339,60
1340,61
1341,61
1342,61
1343,61
1344,61
1345,61
1346,61
1347,61
1348,61
1349,61
1350,61
1351,61
1352,61
1353,61
1354,61
1355,61
1356,61
1357,61
1358,61
1359,61
1360,61
1361,61
1362,61
1363,61
1364,61
1365,61
1366,61
1367,61
1368,61
1369,61
1370,61
1371,61
1372,61
1373,61
1374,61
1375,61
1376,61
1377,61
1378,61
1379,61
1380,61
1381,61
1382,61
1383,61
1384,62
1385,62
1386,62
1387,62
1388,62
1389,62
1390,62
1391,62
1392,62
1393,62
1394,62
1395,62
1396,62
1397,62
1398,62
1399,62
1400,62
1401,62
1402,62
1403,62
1404,62
1405,63
1406,63
1407,63
1408,63
1409,63
1410,63
1411,63
1412,63
1413,63
1414,63
1415,64
1416,64
1417,64
1418,64
1419,64
1420,64
1421,64
1422,64
1423,64
1424,64
1425,64
1426,64
1427,64
1428,64
1429,64
1430,64
1431,64
1432,64
1433,64
1434,64
1435,64
1436,64
1437,64
1438,64
1439,64
1440,65
1441,65
1442,65
1443,65
1444,65
1445,65
1446,65
1447,66
1448,67
1449,67
1450,67
1451,67
1452,67
1453,68
1454,68
1455,68
1456,68
1457,68
1458,69
1459,69
1460,69
1461,69
1462,69
1463,69
1464,69
1465,69
1466,69
1467,69
1468,69
1469,69
1470,69
1471,69
1472,69
1473,70
1474,70
1475,70
1476,71
1477,71
1478,72
1479,72
1480,72
1481,72
1482,72
1483,72
1484,72
1485,72
1486,72
1487,72
1488,72
1489,72
1490,72
1491,72
1492,72
1493,72
1494,72
1495,72
1496,72
1497,72
1498,73
1499,73
1500,73
1501,73
1502,73
1503,73
1504,73
1505,73
1506,73
1507,73
1508,73
1509,73
1510,73
1511,73
1512,73
1513,73
1514,73
1515,73
1516,73
1517,73
1518,73
1519,73
1520,74
1521,74
1522,74
1523,74
1524,74
1525,75
1526,75
1527,77
1528,78
1529,78
1530,78
1531,78
1532,78
1533,78
1534,78
1535,78
1536,78
1537,78
1538,78
1539,78
1540,78
1541,78
1542,78
1543,78
1544,78
1545,79
1546,80
1547,80
1548,80
1549,80
1550,80
1551,80
1552,81
1553,81
1554,81
1555,81
1556,81
1557,81
1558,81
1559,81
1560,81
1561,81
1562,81
1563,81
1564,81
1565,81
1566,81
1567,81
1568,81
1569,81
1570,81
1571,81
1572,81
1573,81
1574,82
1575,82
1576,82
1577,82
1578,82
1579,82
1580,82
1581,82
1582,82
1583,82
1584,82
1585,82
1586,82
1587,82
1588,82
1589,82
1590,83
1591,83
1592,84
1593,84
1594,84
1595,84
1596,84
1597,84
1598,85
1599,86
1600,87
1601,87
1602,87
1603,87
1604,87
1605,87
1606,87
1607,87
1608,87
1609,87
1610,87
1611,87
1612,87
1613,87
1614,87
1615,87
1616,87
1617,87
1618,87
1619,87
1620,87
1621,87
1622,87
1623,87
1624,87
1625,87
1626,87
1627,87
1628,87
1629,88
1630,88
1631,88
1632,88
1633,88
1634,88
1635,88
1636,89
1637,89
1638,90
1639,90
1640,90
1641,90
1642,90
1643,90
1644,90
1645,90
1646,90
1647,90
1648,90
1649,90
1650,90
1651,90
1652,90
1653,90
1654,90
1655,90
1656,90
1657,90
1658,90
1659,90
1660,90
1661,90
1662,90
1663,90
1664,90
1665,90
1666,90
1667,90
1668,90
1669,90
1670,90
1671,90
1672,90
1673,90
1674,90
1675,90
1676,90
1677,90
1678,90
1679,90
1680,90
1681,90
1682,90
1683,90
1684,90
1685,90
1686,90
1687,90
1688,90
1689,90
1690,90
1691,90
1692,90
1693,90
1694,90
1695,90
1696,90
1697,90
1698,90
1699,90
1700,90
1701,90
1702,90
1703,90
1704,90
1705,90
1706,90
1707,90
1708,90
1709,90
1710,90
1711,90
1712,90
1713,90
1714,90
1715,90
1716,90
1717,90
1718,90
1719,90
1720,90
1721,90
1722,90
1723,90
1724,90
1725,90
1726,90
1727,90
1728,90
1729,90
1730,90
1731,90
1732,90
1733,90
1734,90
1735,90
1736,90
1737,90
1738,90
1739,90
1740,90
1741,90
1742,90
1743,90
1744,90
1745,90
1746,90
1747,90
1748,90
1749,90
1750,90
1751,90
1752,90
1753,90
1754,90
1755,90
1756,90
1757,90
1758,90
1759,90
1760,90
1761,90
1762,91
1763,91
1764,91
1765,91
1766,91
1767,91
1768,91
1769,91
1770,91
1771,91
1772,91
1773,91
1774,91
1775,91
1776,91
1777,91
1778,91
1779,91
1780,91
1781,91
1782,91
1783,91
1784,91
1785,91
1786,91
1787,91
1788,91
1789,91
1790,91
1791,91
1792,91
1793,91
1794,91
1795,91
1796,91
1797,92
1798,92
1799,92
1800,93
1801,93
1802,93
1803,93
1804,93
1805,94
1806,94
1807,94
1808,94
1809,94
1810,94
1811,94
1812,94
1813,94
1814,94
1815,94
1816,94
1817,94
1818,94
1819,94
1820,94
1821,94
1822,94
1823,94
1824,94
1825,94
1826,94
1827,94
1828,94
1829,94
1830,94
1831,94
1832,94
1833,94
1834,94
1835,94
1836,94
1837,94
1838,94
1839,94
1840,94
1841,94
1842,94
1843,94
1844,94
1845,94
1846,94
1847,94
1848,94
1849,94
1850,94
1851,95
1852,95
1853,95
1854,96
1855,96
1856,96
1857,96
1858,96
1859,96
1860,97
1861,97
1862,97
1863,97
1864,97
1865,97
1866,97
1867,97
1868,97
1869,97
1870,97
1871,97
1872,97
1873,97
1874,97
1875,97
1876,97
1877,98
1878,98
1879,98
1880,98
1881,98
1882,98
1883,98
1884,98
1885,98
1886,98
1887,98
1888,98
1889,98
1890,98
1891,98
1892,98
1893,98
1894,98
1895,98
1896,98
1897,98
1898,98
1899,98
1900,98
1901,98
1902,98
1903,98
1904,98
1905,99
1906,99
1907,99
1908,99
1909,99
1910,100
1911,101
1912,101
1913,101
1914,101
1915,101
1916,101
1917,101
1918,101
1919,101
1920,101
1921,101
1922,101
1923,101
1924,101
1925,101
1926,101
1927,102
1928,102
1929,102
1930,102
1931,102
1932,102
1933,102
1934,102
1935,102
1936,102
1937,102
1938,102
1939,102
1940,102
1941,102
1942,102
1943,102
1944,103
1945,103
1946,103
1947,103
1948,104
1949,104
1950,104
1951,104
1952,104
1953,105
1954,107
1955,107
1956,107
1957,107
1958,107
1959,107
1960,107
1961,107
1962,107
1963,107
1964,107
1965,107
1966,107
1967,107
1968,107
1969,107
1970,107
1971,107
1972,108
1973,108
1974,108
1975,108
1976,108
1977,108
1978,108
1979,108
1980,108
1981,108
1982,109
1983,109
1984,110
1985,110
1986,110
1987,110
1988,110
1989,110
1990,110
1991,110
1992,110
1993,110
1994,110
1995,110
1996,110
1997,110
1998,110
1999,110
2000,110
