"tick","total"
0,0
1,1
2,1
3,1
4,1
5,1
6,1
7,1
8,1
9,1
10,1
11,1
12,1
13,1
14,1
15,1
16,1
17,1
18,1
19,1
20,1
21,1
22,1
23,1
24,1
25,1
26,1
27,1
28,1
29,1
30,1
31,1
32,1
33,1
34,1
35,1
36,1
37,1
38,1
39,1
40,1
41,1
42,1
43,1
44,1
45,1
46,1
47,1
48,1
49,1
50,1
51,1
52,1
53,1
54,1
55,1
56,1
57,1
58,1
59,1
60,1
61,1
62,1
63,1
64,1
65,1
66,1
67,1
68,1
69,1
70,1
71,1
72,1
73,1
74,1
75,1
76,1
77,1
78,1
79,1
80,1
81,1
82,1
83,1
84,1
85,1
86,1
87,1
88,1
89,1
90,1
91,1
92,1
93,1
94,1
95,1
96,1
97,1
98,1
99,1
100,1
101,1
102,1
103,1
104,1
105,1
106,1
107,1
108,1
109,1
110,1
111,1
112,1
113,1
114,1
115,1
116,1
117,1
118,1
119,1
120,1
121,1
122,1
123,1
124,1
125,3
126,3
127,3
128,3
129,3
130,3
131,3
132,3
133,3
134,3
135,3
136,3
137,4
138,4
139,4
140,4
141,5
142,6
143,7
144,8
145,8
146,8
147,8
148,8
149,8
150,8
151,8
152,8
153,8
154,8
155,9
156,9
157,9
158,9
159,9
160,9
161,9
162,9
163,9
164,9
165,9
166,9
167,9
168,9
169,9
170,9
171,9
172,9
173,9
174,9
175,10
176,10
177,10
178,10
179,10
180,10
181,10
182,10
183,10
184,10
185,10
186,10
187,10
188,10
189,10
190,10
191,10
192,10
193,10
194,10
195,10
196,10
197,10
198,10
199,10
200,11
201,11
202,12
203,12
204,13
205,14
206,14
207,14
208,14
209,14
210,14
211,14
212,14
213,15
214,16
215,16
216,16
217,16
218,16
219,16
220,16
221,17
222,17
223,17
224,17
225,18
226,18
227,19
228,19
229,19
230,19
231,19
232,20
233,20
234,21
235,22
236,22
237,22
238,22
239,22
240,22
241,22
242,22
243,22
244,23
245,23
246,23
247,23
248,24
249,25
250,25
251,25
252,25
253,25
254,25
255,25
256,25
257,25
258,25
259,25
260,25
261,25
262,25
263,25
264,25
265,26
266,26
267,28
268,28
269,28
270,28
271,28
272,28
273,28
274,28
275,28
276,28
277,28
278,28
279,28
280,28
281,28
282,28
283,28
284,28
285,28
286,28
287,28
288,28
289,28
290,28
291,28
292,29
293,29
294,29
295,30
296,30
297,30
298,30
299,30
300,30
301,30
302,30
303,30
304,30
305,30
306,30
307,30
308,30
309,30
310,30
311,30
312,30
313,30
314,30
315,30
316,30
317,30
318,30
319,30
320,30
321,30
322,30
323,30
324,30
325,30
326,30
327,30
328,30
329,30
330,30
331,30
332,30
333,30
334,30
335,30
336,30
337,30
338,30
339,30
340,30
341,30
342,30
343,30
344,30
345,30
346,30
347,30
348,30
349,30
350,30
351,30
352,30
353,30
354,30
355,30
356,30
357,30
358,30
359,30
360,30
361,30
362,30
363,30
364,30
365,30
366,30
367,30
368,31
369,31
370,31
371,31
372,31
373,31
374,31
375,31
376,31
377,31
378,31
379,32
380,32
381,32
382,32
383,32
384,32
385,32
386,32
387,32
388,32
389,32
390,32
391,32
392,32
393,32
394,32
395,32
396,32
397,32
398,32
399,32
400,32
401,32
402,32
403,32
404,32
405,33
406,35
407,35
408,35
409,35
410,35
411,36
412,36
413,36
414,36
415,36
416,36
417,36
418,36
419,37
420,37
421,37
422,37
423,37
424,37
425,37
426,37
427,37
428,37
429,37
430,37
431,37
432,37
433,37
434,37
435,37
436,37
437,37
438,37
439,37
440,37
441,37
442,37
443,37
444,37
445,37
446,37
447,38
448,39
449,39
450,39
451,40
452,40
453,40
454,40
455,40
456,40
457,40
458,40
459,40
460,41
461,41
462,41
463,41
464,41
465,41
466,41
467,42
468,42
469,42
470,42
471,42
472,42
473,42
474,42
475,42
476,42
477,42
478,42
479,42
480,42
481,42
482,42
483,42
484,42
485,42
486,42
487,42
488,43
489,43
490,43
491,43
492,43
493,43
494,43
495,43
496,43
497,43
498,43
499,43
500,43
501,43
502,43
503,43
504,44
505,44
506,44
507,44
508,44
509,44
510,44
511,44
512,44
513,44
514,44
515,44
516,44
517,44
518,45
519,45
520,45
521,45
522,46
523,46
524,46
525,46
526,46
527,46
528,46
529,46
530,46
531,46
532,47
533,47
534,47
535,47
536,47
537,47
538,47
539,48
540,48
541,48
542,48
543,48
544,48
545,48
546,49
547,49
548,49
549,49
550,49
551,49
552,49
553,49
554,49
555,49
556,49
557,49
558,49
559,49
560,49
561,50
562,50
563,50
564,50
565,50
566,50
567,50
568,50
569,50
570,50
571,50
572,50
573,50
574,50
575,50
576,50
577,50
578,50
579,50
580,50
581,50
582,50
583,50
584,50
585,50
586,50
587,50
588,50
589,51
590,51
591,51
592,51
593,51
594,51
595,52
596,52
597,52
598,52
599,52
600,52
601,52
602,52
603,52
604,52
605,52
606,52
607,52
608,52
609,52
610,52
611,52
612,52
613,52
614,52
615,52
616,52
617,52
618,52
619,52
620,52
621,52
622,52
623,52
624,52
625,52
626,52
627,52
628,52
629,52
630,52
631,52
632,52
633,52
634,52
635,52
636,52
637,52
638,53
639,53
640,53
641,54
642,54
643,54
644,54
645,54
646,54
647,54
648,55
649,55
650,55
651,55
652,55
653,55
654,55
655,56
656,56
657,56
658,57
659,57
660,57
661,58
662,58
663,58
664,58
665,58
666,58
667,58
668,58
669,58
670,58
671,58
672,58
673,58
674,58
675,58
676,58
677,58
678,58
679,58
680,59
681,60
682,60
683,60
684,60
685,60
686,60
687,60
688,60
689,60
690,60
691,60
692,60
693,60
694,60
695,60
696,60
697,60
698,60
699,60
700,60
701,60
702,60
703,60
704,60
705,60
706,60
707,60
708,60
709,60
710,60
711,60
712,60
713,60
714,60
715,60
716,60
717,60
718,60
719,60
720,60
721,60
722,60
723,60
724,60
725,60
726,60
727,60
728,60
729,60
730,60
731,60
732,60
733,61
734,61
735,61
736,61
737,61
738,61
739,61
740,62
741,62
742,62
743,62
744,62
745,62
746,62
747,62
748,62
749,62
750,62
751,62
752,62
753,62
754,62
755,62
756,62
757,62
758,62
759,62
760,62
761,62
762,62
763,62
764,62
765,63
766,63
767,63
768,63
769,63
770,63
771,63
772,63
773,63
774,63
775,63
776,63
777,63
778,64
779,64
780,64
781,64
782,64
783,64
784,64
785,64
786,64
787,64
788,64
789,64
790,64
791,64
792,64
793,64
794,64
795,64
796,64
797,64
798,65
799,66
800,66
801,66
802,66
803,66
804,66
805,66
806,66
807,66
808,66
809,66
810,66
811,66
812,66
813,66
814,66
815,66
816,66
817,66
818,66
819,66
820,66
821,66
822,66
823,66
824,66
825,66
826,66
827,66
828,66
829,66
830,66
831,66
832,66
833,66
834,66
835,66
836,66
837,66
838,66
839,66
840,66
841,66
842,66
843,66
844,66
845,67
846,67
847,67
848,67
849,67
850,67
851,67
852,67
853,67
854,67
855,67
856,67
857,67
858,67
859,68
860,68
861,68
862,68
863,68
864,68
865,68
866,68
867,68
868,68
869,68
870,68
871,68
872,68
873,68
874,68
875,68
876,68
877,68
878,68
879,68
880,68
881,68
882,68
883,68
884,68
885,68
886,68
887,69
888,69
889,69
890,69
891,69
892,69
893,69
894,69
895,69
896,69
897,69
898,70
899,71
900,71
901,72
902,72
903,72
904,72
905,72
906,72
907,72
908,72
909,72
910,72
911,72
912,72
913,72
914,72
915,72
916,72
917,72
918,72
919,72
920,72
921,73
922,73
923,73
924,73
925,73
926,73
927,73
928,73
929,73
930,73
931,73
932,73
933,73
934,73
935,73
936,73
937,73
938,74
939,75
940,75
941,76
942,76
943,76
944,77
945,77
946,78
947,78
948,78
949,78
950,78
951,78
952,78
953,78
954,78
955,78
956,78
957,78
958,78
959,78
960,78
961,78
962,78
963,78
964,79
965,80
966,80
967,80
968,80
969,80
970,80
971,80
972,80
973,81
974,81
975,81
976,81
977,81
978,81
979,81
980,81
981,81
982,81
983,81
984,81
985,81
986,81
987,81
988,81
989,81
990,81
991,82
992,82
993,82
994,82
995,82
996,83
997,83
998,83
999,83
1000,83
1001,83
1002,83
1003,83
1004,83
1005,83
1006,83
1007,83
1008,83
1009,83
1010,83
1011,83
1012,83
1013,83
1014,83
1015,83
1016,83
1017,83
1018,83
1019,83
1020,83
1021,83
1022,83
1023,83
1024,83
1025,83
1026,83
1027,83
1028,83
1029,83
1030,83
1031,83
1032,83
1033,83
1034,83
1035,83
1036,83
1037,83
1038,83
1039,83
1040,83
1041,83
1042,83
1043,83
1044,84
1045,84
1046,84
1047,84
1048,84
1049,84
1050,84
1051,84
1052,84
1053,84
1054,84
1055,84
1056,84
1057,84
1058,84
1059,84
1060,84
1061,84
1062,84
1063,84
1064,84
1065,84
1066,86
1067,86
1068,86
1069,86
1070,86
1071,87
1072,87
1073,87
1074,88
1075,88
1076,88
1077,88
1078,88
1079,89
1080,89
1081,89
1082,89
1083,89
1084,89
1085,89
1086,89
1087,89
1088,89
1089,89
1090,89
1091,89
1092,89
1093,89
1094,89
1095,89
1096,89
1097,89
1098,89
1099,89
1100,89
1101,89
1102,89
1103,89
1104,89
1105,89
1106,89
1107,89
1108,89
1109,89
1110,89
1111,89
1112,89
1113,89
1114,89
1115,89
1116,89
1117,89
1118,89
1119,89
1120,89
1121,89
1122,89
1123,89
1124,89
1125,89
1126,89
1127,89
1128,89
1129,89
1130,89
1131,89
1132,89
1133,89
1134,89
1135,89
1136,89
1137,89
1138,89
1139,89
1140,89
1141,89
1142,89
1143,89
1144,89
1145,89
1146,89
1147,90
1148,90
1149,90
1150,90
1151,90
1152,90
1153,90
1154,90
1155,90
1156,90
1157,90
1158,90
1159,90
1160,90
1161,90
1162,90
1163,91
1164,91
1165,91
1166,91
1167,91
1168,91
1169,91
1170,91
1171,91
1172,91
1173,91
1174,91
1175,91
1176,91
1177,91
1178,91
1179,92
1180,92
1181,92
1182,92
1183,92
1184,92
1185,92
1186,92
1187,92
1188,92
1189,92
1190,92
1191,92
1192,92
1193,92
1194,92
1195,92
1196,92
1197,92
1198,92
1199,92
1200,92
1201,93
1202,93
1203,93
1204,93
1205,93
1206,93
1207,93
1208,94
1209,94
1210,94
1211,94
1212,94
1213,94
1214,94
1215,94
1216,94
1217,94
1218,94
1219,94
1220,94
1221,94
1222,94
1223,94
1224,94
1225,94
1226,94
1227,94
1228,94
1229,94
1230,94
1231,94
1232,94
1233,94
1234,94
1235,94
1236,94
1237,94
1238,94
1239,94
1240,94
1241,94
1242,94
1243,94
1244,94
1245,94
1246,94
1247,94
1248,95
1249,95
1250,95
1251,95
1252,95
1253,95
1254,95
1255,95
1256,95
1257,95
1258,95
1259,95
1260,95
1261,95
1262,95
1263,95
1264,95
1265,95
1266,95
1267,95
1268,95
1269,95
1270,95
1271,95
1272,96
1273,96
1274,96
1275,96
1276,96
1277,97
1278,97
1279,97
1280,97
1281,97
1282,97
1283,97
1284,97
1285,97
1286,97
1287,98
1288,98
1289,98
1290,99
1291,99
1292,99
1293,99
1294,99
1295,99
1296,99
1297,99
1298,100
1299,100
1300,100
1301,100
1302,100
1303,100
1304,100
1305,100
1306,100
1307,100
1308,100
1309,100
1310,100
1311,100
1312,100
1313,100
1314,100
1315,100
1316,101
1317,101
1318,102
1319,102
1320,102
1321,102
1322,102
1323,102
1324,102
1325,102
1326,102
1327,102
1328,102
1329,102
1330,102
1331,102
1332,102
1333,102
1334,104
1335,104
1336,104
1337,104
1338,104
1339,104
1340,104
1341,105
1342,105
1343,106
1344,106
1345,106
1346,106
1347,106
1348,106
1349,106
1350,106
1351,106
1352,106
1353,106
1354,106
1355,106
1356,106
1357,106
1358,106
1359,106
1360,106
1361,106
1362,106
1363,106
1364,106
1365,106
1366,107
1367,107
1368,107
1369,107
1370,107
1371,107
1372,107
1373,107
1374,107
1375,107
1376,107
1377,107
1378,107
1379,107
1380,107
1381,107
1382,107
1383,107
1384,107
1385,107
1386,107
1387,107
1388,107
1389,107
1390,107
1391,107
1392,107
1393,107
1394,107
1395,107
1396,107
1397,107
1398,107
1399,107
1400,107
1401,107
1402,108
1403,108
1404,108
1405,108
1406,109
1407,109
1408,109
1409,109
1410,109
1411,109
1412,109
1413,109
1414,109
1415,109
1416,109
1417,109
1418,109
1419,109
1420,109
1421,109
1422,109
1423,109
1424,109
1425,110
1426,110
1427,110
1428,110
1429,110
1430,110
1431,110
1432,110
1433,110
1434,110
1435,110
1436,110
1437,110
1438,110
1439,110
1440,110
1441,110
1442,110
1443,111
1444,111
1445,111
1446,112
1447,112
1448,112
1449,112
1450,112
1451,112
1452,112
1453,112
1454,112
1455,112
1456,112
1457,112
1458,112
1459,112
1460,112
1461,112
1462,112
1463,112
1464,112
1465,112
1466,112
1467,112
1468,112
1469,113
1470,113
1471,113
1472,113
1473,113
1474,113
1475,113
1476,113
1477,113
1478,113
1479,113
1480,113
1481,113
1482,113
1483,113
1484,113
1485,113
1486,113
1487,113
1488,113
1489,113
1490,113
1491,113
1492,113
1493,113
1494,113
1495,113
1496,114
1497,114
1498,114
1499,114
1500,114
1501,115
1502,115
1503,115
1504,115
1505,115
1506,115
1507,115
1508,115
1509,115
1510,115
1511,115
1512,115
1513,115
1514,115
1515,115
1516,115
1517,115
1518,115
1519,115
1520,115
1521,115
1522,115
1523,115
1524,115
1525,115
1526,115
1527,115
1528,115
1529,115
1530,115
1531,115
1532,115
1533,115
1534,115
1535,115
1536,115
1537,115
1538,115
1539,115
1540,115
1541,115
1542,115
1543,115
1544,115
1545,116
1546,116
1547,116
1548,116
1549,116
1550,116
1551,116
1552,116
1553,116
1554,116
1555,116
1556,116
1557,116
1558,116
1559,116
1560,116
1561,116
1562,116
1563,116
1564,116
1565,116
1566,116
1567,116
1568,117
1569,117
1570,117
1571,117
1572,118
1573,119
1574,119
1575,119
1576,119
1577,119
1578,119
1579,119
1580,119
1581,119
1582,119
1583,119
1584,119
1585,119
1586,119
1587,119
1588,119
1589,119
1590,119
1591,119
1592,119
1593,119
1594,119
1595,119
1596,119
1597,119
1598,119
1599,119
1600,119
1601,119
1602,119
1603,119
1604,119
1605,119
1606,119
1607,119
1608,119
1609,119
1610,119
1611,119
1612,119
1613,119
1614,119
1615,119
1616,119
1617,119
1618,119
1619,119
1620,119
1621,119
1622,119
1623,119
1624,119
1625,119
1626,119
1627,119
1628,119
1629,119
1630,119
1631,119
1632,119
1633,119
1634,119
1635,119
1636,119
1637,119
1638,119
1639,120
1640,120
1641,120
1642,120
1643,120
1644,120
1645,120
1646,120
1647,120
1648,120
1649,120
1650,120
1651,120
1652,120
1653,120
1654,120
1655,120
1656,120
1657,120
1658,120
1659,120
1660,120
1661,120
1662,120
1663,121
1664,122
1665,122
1666,122
1667,122
1668,122
1669,122
1670,122
1671,122
1672,122
1673,122
1674,122
1675,122
1676,122
1677,122
1678,122
1679,122
1680,122
1681,122
1682,122
1683,122
1684,122
1685,122
1686,123
1687,123
1688,123
1689,123
1690,123
1691,123
1692,123
1693,123
1694,123
1695,123
1696,123
1697,123
1698,123
1699,123
1700,123
1701,123
1702,123
1703,123
1704,123
1705,123
1706,123
1707,123
1708,123
1709,123
1710,123
1711,123
1712,123
1713,123
1714,123
1715,123
1716,123
1717,123
1718,123
1719,123
1720,123
1721,123
1722,123
1723,123
1724,123
1725,123
1726,123
1727,123
1728,123
1729,123
1730,123
1731,123
1732,123
1733,123
1734,123
1735,123
1736,123
1737,123
1738,123
1739,123
1740,123
1741,123
1742,123
1743,123
1744,123
1745,123
1746,123
1747,123
1748,123
1749,123
1750,123
1751,123
1752,123
1753,123
1754,123
1755,123
1756,123
1757,123
1758,123
1759,123
1760,123
1761,123
1762,123
1763,123
1764,123
1765,123
1766,123
1767,123
1768,123
1769,123
1770,124
1771,124
1772,124
1773,124
1774,124
1775,124
1776,124
1777,124
1778,124
1779,124
1780,124
1781,124
1782,124
1783,124
1784,124
1785,124
1786,124
1787,124
1788,124
1789,124
1790,125
1791,125
1792,125
1793,125
1794,125
1795,125
1796,125
1797,125
1798,125
1799,125
1800,125
1801,125
1802,125
1803,125
1804,125
1805,125
1806,125
1807,125
1808,125
1809,125
1810,125
1811,125
1812,125
1813,126
1814,126
1815,126
1816,126
1817,126
1818,126
1819,126
1820,126
1821,126
1822,126
1823,126
1824,126
1825,126
1826,126
1827,126
1828,126
1829,126
1830,126
1831,126
1832,126
1833,126
1834,126
1835,126
1836,126
1837,126
1838,126
1839,126
1840,126
1841,126
1842,126
1843,126
1844,126
1845,126
1846,126
1847,126
1848,126
1849,126
1850,126
1851,126
1852,126
1853,126
1854,126
1855,126
1856,126
1857,126
1858,126
1859,126
1860,126
1861,126
1862,126
1863,126
1864,127
1865,127
1866,127
1867,127
1868,127
1869,127
1870,127
1871,127
1872,127
1873,127
1874,127
1875,127
1876,128
1877,128
1878,128
1879,129
1880,129
1881,129
1882,129
1883,129
1884,129
1885,130
1886,131
1887,131
1888,131
1889,131
1890,131
1891,131
1892,131
1893,131
1894,131
1895,131
1896,131
1897,132
1898,132
1899,132
1900,133
1901,133
1902,133
1903,133
1904,133
1905,133
1906,133
1907,133
1908,133
1909,133
1910,133
1911,133
1912,133
1913,133
1914,133
1915,133
1916,133
1917,133
1918,133
1919,133
1920,133
1921,133
1922,133
1923,133
1924,134
1925,134
1926,134
1927,134
1928,134
1929,134
1930,134
1931,134
1932,134
1933,134
1934,134
1935,134
1936,134
1937,134
1938,134
1939,134
1940,134
1941,134
1942,134
1943,135
1944,135
1945,135
1946,135
1947,136
1948,136
1949,136
1950,136
1951,136
1952,136
1953,136
1954,136
1955,137
1956,137
1957,137
1958,137
1959,137
1960,137
1961,137
1962,137
1963,137
1964,137
1965,137
1966,137
1967,137
1968,137
1969,137
1970,137
1971,137
1972,137
1973,137
1974,137
1975,137
1976,137
1977,137
1978,137
1979,137
1980,137
1981,137
1982,137
1983,137
1984,137
1985,137
1986,137
1987,137
1988,137
1989,137
1990,137
1991,137
1992,137
1993,137
1994,138
1995,138
1996,138
1997,138
1998,138
1999,138
2000,138
