"tick","susceptible","exposed","infectious","recovered"
0,99,1,0,0
1,99,1,0,0
2,99,1,0,0
3,99,1,0,0
4,99,1,0,0
5,99,1,0,0
6,99,1,0,0
7,99,1,0,0
8,99,1,0,0
9,99,1,0,0
10,99,1,0,0
11,99,1,0,0
12,99,1,0,0
13,99,1,0,0
14,99,1,0,0
15,99,1,0,0
16,99,1,0,0
17,99,1,0,0
18,99,1,0,0
19,99,1,0,0
20,99,1,0,0
21,99,1,0,0
22,99,1,0,0
23,99,1,0,0
24,99,1,0,0
25,99,1,0,0
26,99,1,0,0
27,99,1,0,0
28,99,1,0,0
29,99,1,0,0
30,99,1,0,0
31,99,1,0,0
32,99,1,0,0
33,99,1,0,0
34,99,1,0,0
35,99,1,0,0
36,99,1,0,0
37,99,1,0,0
38,99,1,0,0
39,99,1,0,0
40,99,1,0,0
41,99,1,0,0
42,99,1,0,0
43,99,1,0,0
44,99,1,0,0
45,99,1,0,0
46,99,1,0,0
47,99,1,0,0
48,99,1,0,0
49,99,1,0,0
50,99,1,0,0
51,99,1,0,0
52,99,1,0,0
53,99,1,0,0
54,99,1,0,0
55,99,1,0,0
56,99,1,0,0
57,99,1,0,0
58,99,1,0,0
59,99,1,0,0
60,99,1,0,0
61,99,1,0,0
62,99,1,0,0
63,99,1,0,0
64,99,1,0,0
65,99,1,0,0
66,99,1,0,0
67,99,1,0,0
68,99,1,0,0
69,99,1,0,0
70,99,1,0,0
71,99,1,0,0
72,99,1,0,0
73,99,1,0,0
74,99,1,0,0
75,99,1,0,0
76,99,1,0,0
77,99,1,0,0
78,99,1,0,0
79,99,1,0,0
80,99,1,0,0
81,99,1,0,0
82,99,1,0,0
83,99,1,0,0
84,99,1,0,0
85,99,1,0,0
86,99,1,0,0
87,99,1,0,0
88,99,1,0,0
89,99,1,0,0
90,99,1,0,0
91,99,1,0,0
92,99,1,0,0
93,99,1,0,0
94,99,1,0,0
95,99,1,0,0
96,99,1,0,0
97,99,1,0,0
98,99,1,0,0
99,99,1,0,0
100,99,1,0,0
101,99,1,0,0
102,99,1,0,0
103,99,1,0,0
104,99,1,0,0
105,99,1,0,0
106,99,1,0,0
107,99,1,0,0
108,99,1,0,0
109,99,1,0,0
110,99,1,0,0
111,99,1,0,0
112,99,1,0,0
113,99,1,0,0
114,99,1,0,0
115,99,1,0,0
116,99,1,0,0
117,99,1,0,0
118,99,1,0,0
119,99,1,0,0
120,99,1,0,0
121,99,1,0,0
122,99,1,0,0
123,99,1,0,0
124,99,1,0,0
125,99,1,0,0
126,99,1,0,0
127,99,1,0,0
128,99,1,0,0
129,99,1,0,0
130,99,1,0,0
131,99,1,0,0
132,99,1,0,0
133,99,1,0,0
134,99,1,0,0
135,99,1,0,0
136,99,1,0,0
137,99,1,0,0
138,99,1,0,0
139,99,1,0,0
140,99,1,0,0
141,99,1,0,0
142,99,1,0,0
143,99,1,0,0
144,99,1,0,0
145,99,1,0,0
146,99,1,0,0
147,99,1,0,0
148,99,1,0,0
149,99,1,0,0
150,99,1,0,0
151,99,1,0,0
152,99,1,0,0
153,99,1,0,0
154,99,1,0,0
155,99,1,0,0
156,99,1,0,0
157,99,1,0,0
158,99,1,0,0
159,99,1,0,0
160,99,1,0,0
161,99,1,0,0
162,99,1,0,0
163,99,1,0,0
164,99,1,0,0
165,99,1,0,0
166,99,1,0,0
167,99,1,0,0
168,99,1,0,0
169,99,1,0,0
170,99,1,0,0
171,99,1,0,0
172,99,1,0,0
173,99,1,0,0
174,99,1,0,0
175,99,1,0,0
176,99,1,0,0
177,99,1,0,0
178,99,1,0,0
179,99,1,0,0
180,99,1,0,0
181,99,1,0,0
182,99,1,0,0
183,99,1,0,0
184,99,1,0,0
185,99,1,0,0
186,99,1,0,0
187,99,1,0,0
188,99,1,0,0
189,99,1,0,0
190,99,1,0,0
191,99,1,0,0
192,99,1,0,0
193,99,1,0,0
194,99,1,0,0
195,99,1,0,0
196,99,1,0,0
197,99,1,0,0
198,99,1,0,0
199,99,1,0,0
200,99,1,0,0
201,99,0,1,0
202,99,0,1,0
203,99,0,1,0
204,99,0,1,0
205,99,0,1,0
206,99,0,1,0
207,99,0,1,0
208,99,0,1,0
209,99,0,1,0
210,99,0,1,0
211,99,0,1,0
212,99,0,1,0
213,99,0,1,0
214,99,0,1,0
215,99,0,1,0
216,99,0,1,0
217,99,0,1,0
218,99,0,1,0
219,99,0,1,0
220,99,0,1,0
221,99,0,1,0
222,99,0,1,0
223,99,0,1,0
224,99,0,1,0
225,99,0,1,0
226,99,0,1,0
227,99,0,1,0
228,99,0,1,0
229,99,0,1,0
230,99,0,1,0
231,99,0,1,0
232,99,0,1,0
233,99,0,1,0
234,99,0,1,0
235,99,0,1,0
236,99,0,1,0
237,99,0,1,0
238,99,0,1,0
239,99,0,1,0
240,99,0,1,0
241,99,0,1,0
242,99,0,1,0
243,99,0,1,0
244,99,0,1,0
245,99,0,1,0
246,99,0,1,0
247,99,0,1,0
248,99,0,1,0
249,99,0,1,0
250,99,0,1,0
251,99,0,1,0
252,99,0,1,0
253,99,0,1,0
254,99,0,1,0
255,99,0,1,0
256,99,0,1,0
257,99,0,1,0
258,99,0,1,0
259,99,0,1,0
260,99,0,1,0
261,99,0,1,0
262,99,0,1,0
263,99,0,1,0
264,99,0,1,0
265,99,0,1,0
266,99,0,1,0
267,99,0,1,0
268,99,0,1,0
269,99,0,1,0
270,99,0,1,0
271,99,0,1,0
272,99,0,1,0
273,99,0,1,0
274,99,0,1,0
275,99,0,1,0
276,99,0,1,0
277,99,0,1,0
278,99,0,1,0
279,99,0,1,0
280,99,0,1,0
281,99,0,1,0
282,99,0,1,0
283,99,0,1,0
284,99,0,1,0
285,99,0,1,0
286,99,0,1,0
287,99,0,1,0
288,99,0,1,0
289,98,1,1,0
290,98,1,1,0
291,98,1,1,0
292,98,1,1,0
293,98,1,1,0
294,98,1,1,0
295,98,1,1,0
296,98,1,1,0
297,98,1,1,0
298,98,1,1,0
299,98,1,1,0
300,98,1,1,0
301,98,1,1,0
302,98,1,1,0
303,98,1,1,0
304,98,1,1,0
305,98,1,1,0
306,98,1,1,0
307,98,1,1,0
308,98,1,1,0
309,98,1,1,0
310,98,1,1,0
311,98,1,1,0
312,98,1,1,0
313,98,1,1,0
314,98,1,1,0
315,98,1,1,0
316,98,1,1,0
317,98,1,1,0
318,98,1,1,0
319,98,1,1,0
320,98,1,1,0
321,98,1,1,0
322,98,1,1,0
323,98,1,1,0
324,98,1,1,0
325,98,1,1,0
326,98,1,1,0
327,98,1,1,0
328,97,2,1,0
329,97,2,1,0
330,97,2,1,0
331,97,2,1,0
332,97,2,1,0
333,97,2,1,0
334,97,2,1,0
335,97,2,1,0
336,97,2,1,0
337,97,2,1,0
338,97,2,1,0
339,97,2,1,0
340,97,2,1,0
341,97,2,1,0
342,97,2,1,0
343,97,2,1,0
344,97,2,1,0
345,97,2,1,0
346,97,2,1,0
347,97,2,1,0
348,97,2,1,0
349,97,2,1,0
350,97,2,1,0
351,97,2,1,0
352,97,2,1,0
353,97,2,1,0
354,96,3,1,0
355,96,3,1,0
356,96,3,1,0
357,96,3,1,0
358,96,3,1,0
359,96,3,1,0
360,96,3,1,0
361,96,3,1,0
362,96,3,1,0
363,96,3,1,0
364,96,3,1,0
365,96,3,1,0
366,96,3,1,0
367,96,3,1,0
368,96,3,1,0
369,96,3,1,0
370,96,3,1,0
371,96,3,1,0
372,96,3,1,0
373,96,3,1,0
374,96,3,1,0
375,96,3,1,0
376,96,3,1,0
377,96,3,1,0
378,96,3,1,0
379,96,3,1,0
380,96,3,1,0
381,96,3,1,0
382,96,3,1,0
383,96,3,1,0
384,96,3,1,0
385,96,3,1,0
386,96,3,1,0
387,96,3,1,0
388,96,3,1,0
389,96,3,1,0
390,96,3,1,0
391,96,3,1,0
392,96,3,1,0
393,96,3,1,0
394,96,3,1,0
395,96,3,1,0
396,96,3,1,0
397,96,3,1,0
398,96,3,1,0
399,96,3,1,0
400,96,3,1,0
401,96,3,1,0
402,96,3,0,1
403,96,3,0,1
404,96,3,0,1
405,96,3,0,1
406,96,3,0,1
407,96,3,0,1
408,96,3,0,1
409,96,3,0,1
410,96,3,0,1
411,96,3,0,1
412,96,3,0,1
413,96,3,0,1
414,96,3,0,1
415,96,3,0,1
416,96,3,0,1
417,96,3,0,1
418,96,3,0,1
419,96,3,0,1
420,96,3,0,1
421,96,3,0,1
422,96,3,0,1
423,96,3,0,1
424,96,3,0,1
425,96,3,0,1
426,96,3,0,1
427,96,3,0,1
428,96,3,0,1
429,96,3,0,1
430,96,3,0,1
431,96,3,0,1
432,96,3,0,1
433,96,3,0,1
434,96,3,0,1
435,96,3,0,1
436,96,3,0,1
437,96,3,0,1
438,96,3,0,1
439,96,3,0,1
440,96,3,0,1
441,96,3,0,1
442,96,3,0,1
443,96,3,0,1
444,96,3,0,1
445,96,3,0,1
446,96,3,0,1
447,96,3,0,1
448,96,3,0,1
449,96,3,0,1
450,96,3,0,1
451,96,3,0,1
452,96,3,0,1
453,96,3,0,1
454,96,3,0,1
455,96,3,0,1
456,96,3,0,1
457,96,3,0,1
458,96,3,0,1
459,96,3,0,1
460,96,3,0,1
461,96,3,0,1
462,96,3,0,1
463,96,3,0,1
464,96,3,0,1
465,96,3,0,1
466,96,3,0,1
467,96,3,0,1
468,96,3,0,1
469,96,3,0,1
470,96,3,0,1
471,96,3,0,1
472,96,3,0,1
473,96,3,0,1
474,96,3,0,1
475,96,3,0,1
476,96,3,0,1
477,96,3,0,1
478,96,3,0,1
479,96,3,0,1
480,96,3,0,1
481,96,3,0,1
482,96,3,0,1
483,96,3,0,1
484,96,3,0,1
485,96,3,0,1
486,96,3,0,1
487,96,3,0,1
488,96,3,0,1
489,96,3,0,1
490,96,2,1,1
491,96,2,1,1
492,96,2,1,1
493,96,2,1,1
494,96,2,1,1
495,96,2,1,1
496,95,3,1,1
497,94,4,1,1
498,94,4,1,1
499,92,6,1,1
500,92,6,1,1
501,91,7,1,1
502,91,7,1,1
503,91,7,1,1
504,91,7,1,1
505,91,7,1,1
506,91,7,1,1
507,91,7,1,1
508,91,7,1,1
509,90,8,1,1
510,90,8,1,1
511,90,8,1,1
512,90,8,1,1
513,89,9,1,1
514,89,9,1,1
515,89,9,1,1
516,89,9,1,1
517,89,9,1,1
518,89,9,1,1
519,89,9,1,1
520,89,9,1,1
521,89,9,1,1
522,89,9,1,1
523,89,9,1,1
524,89,9,1,1
525,89,9,1,1
526,89,9,1,1
527,89,9,1,1
528,89,9,1,1
529,89,8,2,1
530,89,8,2,1
531,89,8,2,1
532,89,8,2,1
533,89,8,2,1
534,89,8,2,1
535,88,9,2,1
536,88,9,2,1
537,88,9,2,1
538,88,9,2,1
539,88,9,2,1
540,88,9,2,1
541,88,9,2,1
542,88,9,2,1
543,88,9,2,1
544,88,9,2,1
545,88,9,2,1
546,88,9,2,1
547,88,9,2,1
548,88,9,2,1
549,88,9,2,1
550,88,9,2,1
551,88,9,2,1
552,88,9,2,1
553,88,9,2,1
554,88,9,2,1
555,88,8,3,1
556,88,8,3,1
557,88,8,3,1
558,88,8,3,1
559,88,8,3,1
560,88,8,3,1
561,88,8,3,1
562,88,8,3,1
563,88,8,3,1
564,88,8,3,1
565,88,8,3,1
566,88,8,3,1
567,88,8,3,1
568,88,8,3,1
569,88,8,3,1
570,88,8,3,1
571,88,8,3,1
572,88,8,3,1
573,88,8,3,1
574,88,8,3,1
575,88,8,3,1
576,88,8,3,1
577,88,8,3,1
578,88,8,3,1
579,88,8,3,1
580,87,9,3,1
581,87,9,3,1
582,87,9,3,1
583,87,9,3,1
584,87,9,3,1
585,86,10,3,1
586,86,10,3,1
587,86,10,3,1
588,86,10,3,1
589,86,10,3,1
590,86,10,3,1
591,86,10,3,1
592,86,10,3,1
593,86,10,3,1
594,86,10,3,1
595,86,10,3,1
596,86,10,3,1
597,86,10,3,1
598,86,10,3,1
599,86,10,3,1
600,86,10,3,1
601,86,10,3,1
602,86,10,3,1
603,86,10,3,1
604,86,10,3,1
605,86,10,3,1
606,86,10,3,1
607,86,10,3,1
608,86,10,3,1
609,86,10,3,1
610,86,10,3,1
611,86,10,3,1
612,86,10,3,1
613,86,10,3,1
614,86,10,3,1
615,86,10,3,1
616,86,10,3,1
617,86,10,3,1
618,86,10,3,1
619,86,10,3,1
620,86,10,3,1
621,86,10,3,1
622,86,10,3,1
623,86,10,3,1
624,86,10,3,1
625,86,10,3,1
626,86,10,3,1
627,86,10,3,1
628,86,10,3,1
629,86,10,3,1
630,86,10,3,1
631,86,10,3,1
632,86,10,3,1
633,86,10,3,1
634,86,10,3,1
635,86,10,3,1
636,86,10,3,1
637,86,10,3,1
638,86,10,3,1
639,86,10,3,1
640,86,10,3,1
641,86,10,3,1
642,86,10,3,1
643,86,10,3,1
644,86,10,3,1
645,86,10,3,1
646,86,10,3,1
647,86,10,3,1
648,86,10,3,1
649,86,10,3,1
650,86,10,3,1
651,86,10,3,1
652,86,10,3,1
653,86,10,3,1
654,86,10,3,1
655,86,10,3,1
656,86,10,3,1
657,86,10,3,1
658,86,10,3,1
659,86,10,3,1
660,86,10,3,1
661,86,10,3,1
662,86,10,3,1
663,86,10,3,1
664,86,10,3,1
665,86,10,3,1
666,86,10,3,1
667,86,10,3,1
668,86,10,3,1
669,86,10,3,1
670,86,10,3,1
671,86,10,3,1
672,86,10,3,1
673,86,10,3,1
674,86,10,3,1
675,86,10,3,1
676,86,10,3,1
677,86,10,3,1
678,86,10,3,1
679,86,10,3,1
680,86,10,3,1
681,86,10,3,1
682,86,10,3,1
683,86,10,3,1
684,86,10,3,1
685,86,10,3,1
686,86,10,3,1
687,86,10,3,1
688,86,10,3,1
689,86,10,3,1
690,86,10,3,1
691,86,10,2,2
692,86,10,2,2
693,86,10,2,2
694,86,10,2,2
695,86,10,2,2
696,86,10,2,2
697,86,9,3,2
698,86,8,4,2
699,86,8,4,2
700,86,6,6,2
701,86,6,6,2
702,86,5,7,2
703,86,5,7,2
704,86,5,7,2
705,86,5,7,2
706,86,5,7,2
707,86,5,7,2
708,86,5,7,2
709,86,5,7,2
710,86,4,8,2
711,86,4,8,2
712,86,4,8,2
713,86,4,8,2
714,86,3,9,2
715,86,3,9,2
716,86,3,9,2
717,86,3,9,2
718,86,3,9,2
719,86,3,9,2
720,86,3,9,2
721,86,3,9,2
722,86,3,9,2
723,86,3,9,2
724,86,3,9,2
725,86,3,9,2
726,86,3,9,2
727,86,3,9,2
728,86,3,9,2
729,86,3,9,2
730,86,3,8,3
731,86,3,8,3
732,86,3,8,3
733,86,3,8,3
734,86,3,8,3
735,86,3,8,3
736,85,3,9,3
737,85,3,9,3
738,83,5,9,3
739,81,7,9,3
740,81,7,9,3
741,81,7,9,3
742,81,7,9,3
743,80,8,9,3
744,80,8,9,3
745,80,8,9,3
746,80,8,9,3
747,80,8,9,3
748,79,9,9,3
749,79,9,9,3
750,79,9,9,3
751,77,11,9,3
752,77,11,9,3
753,77,11,9,3
754,77,11,9,3
755,77,11,9,3
756,77,11,8,4
757,77,11,8,4
758,77,11,8,4
759,77,11,8,4
760,77,11,8,4
761,77,11,8,4
762,77,11,8,4
763,76,12,8,4
764,76,12,8,4
765,76,12,8,4
766,76,12,8,4
767,76,12,8,4
768,76,12,8,4
769,76,12,8,4
770,76,12,8,4
771,76,12,8,4
772,76,12,8,4
773,76,12,8,4
774,75,13,8,4
775,75,13,8,4
776,75,13,8,4
777,75,13,8,4
778,75,13,8,4
779,75,13,8,4
780,75,13,8,4
781,75,12,9,4
782,75,12,9,4
783,75,12,9,4
784,75,12,9,4
785,75,12,9,4
786,75,11,10,4
787,75,11,10,4
788,72,14,10,4
789,71,15,10,4
790,69,17,10,4
791,69,17,10,4
792,69,17,10,4
793,67,19,10,4
794,67,19,10,4
795,67,19,10,4
796,67,19,10,4
797,67,19,10,4
798,67,19,10,4
799,67,19,10,4
800,66,20,10,4
801,66,20,10,4
802,65,21,10,4
803,65,21,10,4
804,65,21,10,4
805,65,21,10,4
806,65,21,10,4
807,65,21,10,4
808,65,21,10,4
809,65,21,10,4
810,65,21,10,4
811,65,21,10,4
812,65,21,10,4
813,65,21,10,4
814,65,21,10,4
815,65,21,10,4
816,65,21,10,4
817,65,21,10,4
818,65,21,10,4
819,65,21,10,4
820,65,21,10,4
821,65,21,10,4
822,65,21,10,4
823,65,21,10,4
824,65,21,10,4
825,65,21,10,4
826,65,21,10,4
827,65,21,10,4
828,65,21,10,4
829,65,21,10,4
830,65,21,10,4
831,65,21,10,4
832,65,21,10,4
833,64,22,10,4
834,64,22,10,4
835,64,22,10,4
836,64,22,10,4
837,64,22,10,4
838,64,22,10,4
839,64,22,10,4
840,64,22,10,4
841,64,22,10,4
842,64,22,10,4
843,64,22,10,4
844,64,22,10,4
845,64,22,10,4
846,64,22,10,4
847,64,22,10,4
848,64,22,10,4
849,64,22,10,4
850,64,22,10,4
851,64,22,10,4
852,64,22,10,4
853,64,22,10,4
854,64,22,10,4
855,64,22,10,4
856,64,22,10,4
857,64,22,10,4
858,64,22,10,4
859,64,22,10,4
860,63,23,10,4
861,63,23,10,4
862,63,23,10,4
863,63,23,10,4
864,63,23,10,4
865,63,23,10,4
866,63,23,10,4
867,63,23,10,4
868,63,23,10,4
869,63,23,10,4
870,63,23,10,4
871,63,23,10,4
872,63,23,10,4
873,63,23,10,4
874,63,23,10,4
875,63,23,10,4
876,63,23,10,4
877,63,23,10,4
878,63,23,10,4
879,63,23,10,4
880,63,23,10,4
881,63,23,10,4
882,63,23,10,4
883,63,23,10,4
884,63,23,10,4
885,63,23,10,4
886,63,23,10,4
887,63,23,10,4
888,63,23,10,4
889,63,23,10,4
890,63,23,10,4
891,63,23,10,4
892,63,23,10,4
893,63,23,10,4
894,63,23,10,4
895,63,23,10,4
896,63,23,10,4
897,63,23,10,4
898,63,23,9,5
899,63,23,8,6
900,63,23,8,6
901,63,23,6,8
902,63,23,6,8
903,63,23,5,9
904,63,23,5,9
905,63,23,5,9
906,63,23,5,9
907,63,23,5,9
908,63,23,5,9
909,63,23,5,9
910,63,23,5,9
911,63,23,4,10
912,63,23,4,10
913,63,23,4,10
914,63,23,4,10
915,63,23,3,11
916,63,23,3,11
917,63,23,3,11
918,63,23,3,11
919,63,23,3,11
920,63,23,3,11
921,63,23,3,11
922,63,23,3,11
923,63,23,3,11
924,62,24,3,11
925,62,24,3,11
926,62,24,3,11
927,62,24,3,11
928,62,24,3,11
929,62,24,3,11
930,62,24,3,11
931,62,24,3,11
932,62,24,3,11
933,62,24,3,11
934,62,24,3,11
935,62,24,3,11
936,62,24,3,11
937,62,23,3,12
938,62,23,3,12
939,62,21,5,12
940,61,20,7,12
941,59,22,7,12
942,59,22,7,12
943,59,22,7,12
944,59,21,8,12
945,59,21,8,12
946,59,21,8,12
947,57,23,8,12
948,57,23,8,12
949,56,23,9,12
950,56,23,9,12
951,54,25,9,12
952,54,23,11,12
953,53,24,11,12
954,53,24,11,12
955,53,24,11,12
956,52,25,11,12
957,51,26,11,12
958,50,27,11,12
959,50,27,11,12
960,50,27,11,12
961,50,27,11,12
962,50,27,11,12
963,49,28,11,12
964,49,27,12,12
965,49,27,12,12
966,49,27,12,12
967,49,27,12,12
968,49,27,12,12
969,49,27,12,12
970,49,27,12,12
971,49,27,12,12
972,49,27,12,12
973,49,27,12,12
974,49,27,12,12
975,49,26,13,12
976,49,26,13,12
977,49,26,13,12
978,49,26,13,12
979,49,26,13,12
980,49,26,13,12
981,49,26,13,12
982,49,26,12,13
983,49,26,12,13
984,49,26,12,13
985,48,27,12,13
986,48,27,12,13
987,48,27,11,14
988,48,27,11,14
989,48,24,14,14
990,48,23,15,14
991,48,21,17,14
992,48,21,17,14
993,48,21,17,14
994,47,20,19,14
995,47,20,19,14
996,47,20,19,14
997,47,20,19,14
998,47,20,19,14
999,47,20,19,14
1000,46,21,19,14
1001,46,20,20,14
1002,46,20,20,14
1003,46,19,21,14
1004,46,19,21,14
1005,46,19,21,14
1006,46,19,21,14
1007,45,20,21,14
1008,45,20,21,14
1009,45,20,21,14
1010,44,21,21,14
1011,44,21,21,14
1012,43,22,21,14
1013,43,22,21,14
1014,43,22,21,14
1015,43,22,21,14
1016,43,22,21,14
1017,43,22,21,14
1018,43,22,21,14
1019,43,22,21,14
1020,43,22,21,14
1021,43,22,21,14
1022,43,22,21,14
1023,43,22,21,14
1024,43,22,21,14
1025,43,22,21,14
1026,43,22,21,14
1027,43,22,21,14
1028,43,22,21,14
1029,43,22,21,14
1030,43,22,21,14
1031,43,22,21,14
1032,43,22,21,14
1033,43,22,21,14
1034,43,21,22,14
1035,43,21,22,14
1036,43,21,22,14
1037,43,21,22,14
1038,43,21,22,14
1039,43,21,22,14
1040,43,21,22,14
1041,42,22,22,14
1042,42,22,22,14
1043,42,22,22,14
1044,42,22,22,14
1045,42,22,22,14
1046,42,22,22,14
1047,42,22,22,14
1048,42,22,22,14
1049,42,22,22,14
1050,42,22,22,14
1051,42,22,22,14
1052,42,22,22,14
1053,42,22,22,14
1054,42,22,22,14
1055,42,22,22,14
1056,42,22,22,14
1057,42,22,22,14
1058,41,23,22,14
1059,41,23,22,14
1060,41,23,22,14
1061,41,22,23,14
1062,41,22,23,14
1063,41,22,23,14
1064,41,22,23,14
1065,41,22,23,14
1066,40,23,23,14
1067,40,23,23,14
1068,40,23,23,14
1069,40,23,23,14
1070,40,23,23,14
1071,40,23,23,14
1072,40,23,23,14
1073,40,23,23,14
1074,40,23,23,14
1075,39,24,23,14
1076,39,24,23,14
1077,39,24,23,14
1078,39,24,23,14
1079,39,24,23,14
1080,39,24,23,14
1081,39,24,23,14
1082,39,24,23,14
1083,39,24,23,14
1084,39,24,23,14
1085,39,24,23,14
1086,39,24,23,14
1087,39,24,23,14
1088,39,24,23,14
1089,39,24,23,14
1090,39,24,23,14
1091,39,24,23,14
1092,39,24,23,14
1093,39,24,23,14
1094,39,24,23,14
1095,39,24,23,14
1096,38,25,23,14
1097,38,25,23,14
1098,38,25,23,14
1099,37,26,23,14
1100,37,26,23,14
1101,37,26,23,14
1102,36,27,23,14
1103,36,27,23,14
1104,36,27,23,14
1105,36,27,23,14
1106,36,27,23,14
1107,36,27,23,14
1108,36,27,23,14
1109,36,27,23,14
1110,36,27,23,14
1111,36,27,23,14
1112,36,27,23,14
1113,36,27,23,14
1114,36,27,23,14
1115,36,27,23,14
1116,36,27,23,14
1117,36,27,23,14
1118,36,27,23,14
1119,36,27,23,14
1120,36,27,23,14
1121,36,27,23,14
1122,36,27,23,14
1123,36,27,23,14
1124,36,27,23,14
1125,36,26,24,14
1126,36,26,24,14
1127,36,26,24,14
1128,36,26,24,14
1129,36,26,24,14
1130,36,26,24,14
1131,36,26,24,14
1132,36,26,24,14
1133,36,26,24,14
1134,36,26,24,14
1135,36,26,24,14
1136,36,26,24,14
1137,36,26,24,14
1138,36,26,23,15
1139,36,26,23,15
1140,36,26,21,17
1141,36,25,20,19
1142,36,23,22,19
1143,35,24,22,19
1144,35,24,22,19
1145,34,25,21,20
1146,34,25,21,20
1147,34,25,21,20
1148,34,23,23,20
1149,34,23,23,20
1150,34,22,23,21
1151,34,22,23,21
1152,34,20,25,21
1153,34,20,23,23
1154,34,19,24,23
1155,33,20,24,23
1156,33,20,24,23
1157,33,19,25,23
1158,33,18,26,23
1159,33,17,27,23
1160,33,17,27,23
1161,33,17,27,23
1162,33,17,27,23
1163,33,17,27,23
1164,33,16,28,23
1165,33,16,27,24
1166,33,16,27,24
1167,33,16,27,24
1168,33,16,27,24
1169,33,16,27,24
1170,33,16,27,24
1171,32,17,27,24
1172,31,18,27,24
1173,31,18,27,24
1174,30,19,27,24
1175,30,19,27,24
1176,30,19,26,25
1177,30,19,26,25
1178,30,19,26,25
1179,30,19,26,25
1180,30,19,26,25
1181,30,19,26,25
1182,30,19,26,25
1183,30,19,26,25
1184,30,19,26,25
1185,30,19,26,25
1186,30,18,27,25
1187,30,18,27,25
1188,30,18,27,25
1189,30,18,27,25
1190,30,18,24,28
1191,30,18,23,29
1192,30,18,21,31
1193,30,18,21,31
1194,30,18,21,31
1195,29,18,20,33
1196,29,18,20,33
1197,29,18,20,33
1198,29,18,20,33
1199,29,18,20,33
1200,29,18,20,33
1201,28,18,21,33
1202,28,18,20,34
1203,28,18,20,34
1204,27,19,19,35
1205,27,19,19,35
1206,27,19,19,35
1207,27,19,19,35
1208,27,18,20,35
1209,27,18,20,35
1210,27,18,20,35
1211,27,17,21,35
1212,27,17,21,35
1213,27,16,22,35
1214,27,16,22,35
1215,27,16,22,35
1216,27,16,22,35
1217,27,16,22,35
1218,27,16,22,35
1219,27,16,22,35
1220,27,16,22,35
1221,27,16,22,35
1222,27,16,22,35
1223,27,16,22,35
1224,27,16,22,35
1225,27,16,22,35
1226,27,16,22,35
1227,27,16,22,35
1228,27,16,22,35
1229,27,16,22,35
1230,27,16,22,35
1231,27,16,22,35
1232,27,16,22,35
1233,27,16,22,35
1234,27,16,22,35
1235,27,16,21,36
1236,27,16,21,36
1237,26,17,21,36
1238,26,17,21,36
1239,26,17,21,36
1240,26,17,21,36
1241,26,17,21,36
1242,26,16,22,36
1243,26,16,22,36
1244,26,16,22,36
1245,26,16,22,36
1246,26,16,22,36
1247,25,17,22,36
1248,25,17,22,36
1249,25,17,22,36
1250,25,17,22,36
1251,25,17,22,36
1252,24,18,22,36
1253,24,18,22,36
1254,24,18,22,36
1255,24,18,22,36
1256,24,18,22,36
1257,24,18,22,36
1258,24,18,22,36
1259,24,17,23,36
1260,24,17,23,36
1261,24,17,23,36
1262,23,18,22,37
1263,23,18,22,37
1264,23,18,22,37
1265,22,19,22,37
1266,22,19,22,37
1267,22,18,23,37
1268,22,18,23,37
1269,22,18,23,37
1270,22,18,23,37
1271,22,18,23,37
1272,22,18,23,37
1273,22,18,23,37
1274,22,18,23,37
1275,22,18,23,37
1276,22,17,24,37
1277,22,17,24,37
1278,22,17,24,37
1279,22,17,24,37
1280,22,17,24,37
1281,22,17,24,37
1282,22,17,24,37
1283,22,17,24,37
1284,22,17,24,37
1285,21,18,24,37
1286,20,19,24,37
1287,20,19,24,37
1288,20,19,24,37
1289,20,19,24,37
1290,20,19,24,37
1291,20,19,24,37
1292,20,19,24,37
1293,20,19,24,37
1294,20,19,24,37
1295,20,19,24,37
1296,20,19,24,37
1297,20,18,25,37
1298,20,18,25,37
1299,20,18,25,37
1300,20,17,26,37
1301,20,17,26,37
1302,20,17,26,37
1303,20,16,27,37
1304,20,16,27,37
1305,20,16,27,37
1306,20,16,27,37
1307,20,16,27,37
1308,20,16,27,37
1309,19,17,27,37
1310,19,17,27,37
1311,19,17,27,37
1312,19,17,27,37
1313,19,17,27,37
1314,19,17,27,37
1315,19,17,27,37
1316,19,17,27,37
1317,19,17,27,37
1318,19,17,27,37
1319,18,18,27,37
1320,18,18,27,37
1321,18,18,27,37
1322,18,18,27,37
1323,18,18,27,37
1324,18,18,27,37
1325,18,18,27,37
1326,17,19,26,38
1327,17,19,26,38
1328,17,19,26,38
1329,17,19,26,38
1330,17,19,26,38
1331,17,19,26,38
1332,17,19,26,38
1333,17,19,26,38
1334,17,19,26,38
1335,17,19,26,38
1336,17,19,26,38
1337,17,19,26,38
1338,17,19,26,38
1339,17,19,26,38
1340,17,19,26,38
1341,17,19,26,38
1342,17,19,25,39
1343,17,19,23,41
1344,17,18,24,41
1345,17,18,24,41
1346,17,17,25,41
1347,17,17,25,41
1348,16,18,25,41
1349,16,18,23,43
1350,16,18,23,43
1351,16,18,22,44
1352,16,18,22,44
1353,16,18,20,46
1354,16,18,20,46
1355,16,18,19,47
1356,16,17,20,47
1357,16,17,20,47
1358,16,17,19,48
1359,16,17,18,49
1360,16,17,17,50
1361,16,17,17,50
1362,16,17,17,50
1363,16,17,17,50
1364,16,17,17,50
1365,16,17,16,51
1366,16,17,16,51
1367,16,17,16,51
1368,16,17,16,51
1369,16,17,16,51
1370,16,17,16,51
1371,16,17,16,51
1372,16,16,17,51
1373,16,15,18,51
1374,16,15,18,51
1375,16,14,19,51
1376,16,14,19,51
1377,16,14,19,51
1378,16,14,19,51
1379,16,14,19,51
1380,16,14,19,51
1381,16,14,19,51
1382,16,14,19,51
1383,16,14,19,51
1384,16,14,19,51
1385,16,14,19,51
1386,16,14,19,51
1387,16,14,18,52
1388,16,14,18,52
1389,16,14,18,52
1390,16,14,18,52
1391,16,14,18,52
1392,16,14,18,52
1393,16,14,18,52
1394,16,14,18,52
1395,16,14,18,52
1396,16,13,18,53
1397,16,13,18,53
1398,16,13,18,53
1399,16,13,18,53
1400,16,13,18,53
1401,16,13,18,53
1402,16,12,18,54
1403,16,12,18,54
1404,16,12,18,54
1405,16,11,19,54
1406,16,11,19,54
1407,16,11,19,54
1408,16,11,19,54
1409,16,11,18,55
1410,16,11,18,55
1411,16,11,18,55
1412,16,11,17,56
1413,16,11,17,56
1414,16,11,16,57
1415,16,11,16,57
1416,16,11,16,57
1417,16,11,16,57
1418,16,11,16,57
1419,16,11,16,57
1420,16,11,16,57
1421,16,11,16,57
1422,16,11,16,57
1423,16,11,16,57
1424,16,11,16,57
1425,16,11,16,57
1426,16,11,16,57
1427,16,11,16,57
1428,16,11,16,57
1429,16,11,16,57
1430,16,11,16,57
1431,16,11,16,57
1432,16,11,16,57
1433,16,11,16,57
1434,16,11,16,57
1435,16,11,16,57
1436,16,11,16,57
1437,16,11,16,57
1438,16,10,17,57
1439,16,10,17,57
1440,16,10,17,57
1441,16,10,17,57
1442,16,10,17,57
1443,16,10,16,58
1444,16,10,16,58
1445,16,10,16,58
1446,16,10,16,58
1447,16,10,16,58
1448,16,9,17,58
1449,16,9,17,58
1450,16,9,17,58
1451,16,9,17,58
1452,16,9,17,58
1453,16,8,18,58
1454,16,8,18,58
1455,16,8,18,58
1456,16,8,18,58
1457,16,8,18,58
1458,16,8,18,58
1459,16,8,18,58
1460,16,8,17,59
1461,16,8,17,59
1462,16,8,17,59
1463,16,7,18,59
1464,16,7,18,59
1465,16,7,18,59
1466,16,6,19,59
1467,15,7,19,59
1468,15,7,18,60
1469,15,7,18,60
1470,15,7,18,60
1471,15,7,18,60
1472,15,7,18,60
1473,15,7,18,60
1474,15,7,18,60
1475,15,7,18,60
1476,15,7,18,60
1477,15,7,17,61
1478,15,7,17,61
1479,15,7,17,61
1480,15,7,17,61
1481,15,7,17,61
1482,15,7,17,61
1483,15,7,17,61
1484,15,7,17,61
1485,15,7,17,61
1486,15,6,18,61
1487,15,5,19,61
1488,15,5,19,61
1489,15,5,19,61
1490,14,6,19,61
1491,14,6,19,61
1492,14,6,19,61
1493,14,6,19,61
1494,14,6,19,61
1495,14,6,19,61
1496,14,6,19,61
1497,14,6,19,61
1498,14,6,18,62
1499,14,6,18,62
1500,14,6,18,62
1501,14,6,17,63
1502,14,6,17,63
1503,14,6,17,63
1504,14,6,16,64
1505,14,6,16,64
1506,14,6,16,64
1507,14,6,16,64
1508,14,6,16,64
1509,14,6,16,64
1510,14,5,17,64
1511,14,5,17,64
1512,14,5,17,64
1513,14,5,17,64
1514,14,5,17,64
1515,13,6,17,64
1516,13,6,17,64
1517,13,6,17,64
1518,13,6,17,64
1519,13,6,17,64
1520,13,5,18,64
1521,13,5,18,64
1522,13,5,18,64
1523,13,5,18,64
1524,13,5,18,64
1525,13,5,18,64
1526,13,5,18,64
1527,13,4,19,64
1528,13,4,19,64
1529,13,4,19,64
1530,13,4,19,64
1531,13,4,19,64
1532,13,4,19,64
1533,13,4,19,64
1534,13,4,19,64
1535,13,4,19,64
1536,13,4,19,64
1537,13,4,19,64
1538,13,4,19,64
1539,13,4,19,64
1540,13,4,19,64
1541,13,4,19,64
1542,13,4,19,64
1543,13,4,19,64
1544,12,5,19,64
1545,12,5,18,65
1546,12,5,18,65
1547,12,5,17,66
1548,12,5,17,66
1549,12,4,18,66
1550,12,4,18,66
1551,12,4,18,66
1552,12,4,18,66
1553,12,4,18,66
1554,12,4,18,66
1555,12,4,18,66
1556,12,4,18,66
1557,12,4,17,67
1558,12,4,17,67
1559,11,5,17,67
1560,11,5,17,67
1561,11,5,17,67
1562,11,5,17,67
1563,11,5,17,67
1564,11,5,17,67
1565,11,5,17,67
1566,11,5,17,67
1567,11,5,17,67
1568,11,5,17,67
1569,11,5,17,67
1570,11,5,17,67
1571,11,5,17,67
1572,11,5,17,67
1573,11,5,16,68
1574,11,5,15,69
1575,11,5,15,69
1576,11,5,14,70
1577,11,5,14,70
1578,11,5,14,70
1579,11,5,14,70
1580,11,5,14,70
1581,11,5,14,70
1582,11,5,14,70
1583,11,5,14,70
1584,11,5,14,70
1585,11,5,14,70
1586,11,5,14,70
1587,11,5,14,70
1588,11,5,14,70
1589,11,5,14,70
1590,11,5,14,70
1591,11,5,14,70
1592,11,5,14,70
1593,11,5,14,70
1594,11,5,14,70
1595,11,5,14,70
1596,11,5,14,70
1597,11,5,13,71
1598,11,5,13,71
1599,11,5,13,71
1600,11,5,13,71
1601,11,5,13,71
1602,11,5,13,71
1603,11,5,12,72
1604,11,5,12,72
1605,11,5,12,72
1606,11,5,11,73
1607,11,5,11,73
1608,11,5,11,73
1609,11,5,11,73
1610,11,5,11,73
1611,11,5,11,73
1612,11,5,11,73
1613,11,5,11,73
1614,11,5,11,73
1615,11,5,11,73
1616,11,5,11,73
1617,11,5,11,73
1618,11,5,11,73
1619,11,5,11,73
1620,11,5,11,73
1621,11,5,11,73
1622,11,5,11,73
1623,11,5,11,73
1624,11,5,11,73
1625,11,5,11,73
1626,11,5,11,73
1627,11,5,11,73
1628,11,5,11,73
1629,11,5,11,73
1630,11,5,11,73
1631,11,5,11,73
1632,11,5,11,73
1633,11,5,11,73
1634,11,5,11,73
1635,11,5,11,73
1636,11,5,11,73
1637,11,5,11,73
1638,11,5,11,73
1639,11,5,10,74
1640,11,5,10,74
1641,11,5,10,74
1642,11,5,10,74
1643,11,5,10,74
1644,11,5,10,74
1645,11,5,10,74
1646,11,5,10,74
1647,11,5,10,74
1648,11,5,10,74
1649,11,5,9,75
1650,11,5,9,75
1651,11,5,9,75
1652,11,5,9,75
1653,11,5,9,75
1654,11,5,8,76
1655,11,5,8,76
1656,11,5,8,76
1657,11,5,8,76
1658,11,5,8,76
1659,11,5,8,76
1660,11,5,8,76
1661,11,5,8,76
1662,11,5,8,76
1663,11,5,8,76
1664,11,5,7,77
1665,11,5,7,77
1666,11,5,7,77
1667,11,5,6,78
1668,11,4,7,78
1669,11,4,7,78
1670,11,4,7,78
1671,11,4,7,78
1672,11,4,7,78
1673,11,4,7,78
1674,11,4,7,78
1675,11,4,7,78
1676,11,4,7,78
1677,11,4,7,78
1678,11,4,7,78
1679,11,4,7,78
1680,11,4,7,78
1681,11,4,7,78
1682,11,4,7,78
1683,11,4,7,78
1684,11,4,7,78
1685,11,4,7,78
1686,11,4,7,78
1687,11,4,6,79
1688,11,4,5,80
1689,11,4,5,80
1690,11,4,5,80
1691,11,3,6,80
1692,11,3,6,80
1693,11,3,6,80
1694,11,3,6,80
1695,11,3,6,80
1696,11,3,6,80
1697,11,3,6,80
1698,11,3,6,80
1699,11,3,6,80
1700,11,3,6,80
1701,11,3,6,80
1702,11,3,6,80
1703,11,3,6,80
1704,11,3,6,80
1705,11,3,6,80
1706,11,3,6,80
1707,11,3,6,80
1708,11,3,6,80
1709,11,3,6,80
1710,11,3,6,80
1711,11,3,5,81
1712,11,3,5,81
1713,11,3,5,81
1714,11,3,5,81
1715,11,3,5,81
1716,11,2,6,81
1717,11,2,6,81
1718,10,3,6,81
1719,9,4,6,81
1720,9,4,6,81
1721,8,5,5,82
1722,8,5,5,82
1723,8,5,5,82
1724,8,5,5,82
1725,8,5,5,82
1726,8,5,5,82
1727,8,5,5,82
1728,8,5,4,83
1729,8,5,4,83
1730,8,5,4,83
1731,8,5,4,83
1732,8,5,4,83
1733,8,5,4,83
1734,8,5,4,83
1735,8,5,4,83
1736,8,5,4,83
1737,8,5,4,83
1738,8,5,4,83
1739,8,5,4,83
1740,8,5,4,83
1741,8,5,4,83
1742,8,5,4,83
1743,8,5,4,83
1744,8,5,4,83
1745,8,4,5,83
1746,8,4,5,83
1747,8,4,5,83
1748,8,4,5,83
1749,8,4,5,83
1750,8,4,4,84
1751,8,4,4,84
1752,8,4,4,84
1753,8,4,4,84
1754,8,4,4,84
1755,8,4,4,84
1756,8,4,4,84
1757,8,4,4,84
1758,8,4,4,84
1759,8,4,4,84
1760,8,3,5,84
1761,8,3,5,84
1762,8,3,5,84
1763,8,3,5,84
1764,8,3,5,84
1765,8,3,5,84
1766,8,3,5,84
1767,8,3,5,84
1768,8,3,5,84
1769,8,3,5,84
1770,8,3,5,84
1771,8,3,5,84
1772,8,3,5,84
1773,8,3,5,84
1774,8,3,5,84
1775,8,3,5,84
1776,8,3,5,84
1777,8,3,5,84
1778,8,3,5,84
1779,8,3,5,84
1780,8,3,5,84
1781,8,3,5,84
1782,8,3,5,84
1783,8,3,5,84
1784,8,3,5,84
1785,8,3,5,84
1786,8,3,5,84
1787,8,3,5,84
1788,7,4,5,84
1789,7,4,5,84
1790,7,4,5,84
1791,7,4,5,84
1792,7,4,5,84
1793,7,4,5,84
1794,7,4,5,84
1795,7,4,5,84
1796,7,4,5,84
1797,7,4,5,84
1798,7,4,5,84
1799,7,4,5,84
1800,7,4,5,84
1801,7,4,5,84
1802,7,4,5,84
1803,7,4,5,84
1804,7,4,5,84
1805,7,4,5,84
1806,7,4,5,84
1807,7,4,5,84
1808,7,4,5,84
1809,7,4,5,84
1810,7,4,5,84
1811,7,4,5,84
1812,7,4,5,84
1813,7,4,5,84
1814,7,4,5,84
1815,7,4,5,84
1816,7,4,5,84
1817,7,4,5,84
1818,7,4,5,84
1819,7,4,5,84
1820,7,4,5,84
1821,7,4,5,84
1822,7,4,5,84
1823,7,4,5,84
1824,7,4,5,84
1825,7,4,5,84
1826,7,4,5,84
1827,7,4,5,84
1828,7,4,5,84
1829,7,4,5,84
1830,7,4,5,84
1831,7,4,5,84
1832,7,4,5,84
1833,7,4,5,84
1834,7,4,5,84
1835,7,4,5,84
1836,7,4,5,84
1837,7,4,5,84
1838,7,4,5,84
1839,7,4,5,84
1840,7,4,5,84
1841,7,4,5,84
1842,7,4,5,84
1843,7,4,5,84
1844,7,4,5,84
1845,7,4,5,84
1846,7,4,5,84
1847,7,4,5,84
1848,7,4,5,84
1849,7,4,5,84
1850,7,4,5,84
1851,7,4,5,84
1852,7,4,5,84
1853,7,4,5,84
1854,7,4,5,84
1855,7,4,5,84
1856,6,5,5,84
1857,6,5,5,84
1858,6,5,5,84
1859,6,5,5,84
1860,6,5,5,84
1861,6,5,5,84
1862,6,5,5,84
1863,6,5,5,84
1864,6,5,5,84
1865,6,5,5,84
1866,6,5,5,84
1867,6,5,5,84
1868,6,5,5,84
1869,6,5,4,85
1870,6,5,4,85
1871,6,5,4,85
1872,6,5,4,85
1873,6,5,4,85
1874,6,5,4,85
1875,6,5,4,85
1876,6,5,4,85
1877,6,5,4,85
1878,6,5,4,85
1879,6,5,4,85
1880,6,5,4,85
1881,6,5,4,85
1882,6,5,4,85
1883,6,5,4,85
1884,6,5,4,85
1885,6,5,4,85
1886,6,5,4,85
1887,6,5,4,85
1888,6,5,4,85
1889,6,5,4,85
1890,6,5,4,85
1891,6,5,4,85
1892,6,5,3,86
1893,6,5,3,86
1894,6,5,3,86
1895,6,5,3,86
1896,6,5,3,86
1897,6,5,3,86
1898,6,5,3,86
1899,6,5,3,86
1900,6,5,3,86
1901,6,5,3,86
1902,6,5,3,86
1903,6,5,3,86
1904,6,5,3,86
1905,6,5,3,86
1906,6,5,3,86
1907,6,5,3,86
1908,6,5,3,86
1909,6,5,3,86
1910,6,5,3,86
1911,6,5,3,86
1912,6,5,3,86
1913,6,5,3,86
1914,6,5,3,86
1915,6,5,3,86
1916,6,5,3,86
1917,6,5,2,87
1918,6,5,2,87
1919,6,4,3,87
1920,6,3,4,87
1921,6,3,4,87
1922,6,2,5,87
1923,6,2,5,87
1924,6,2,5,87
1925,6,2,5,87
1926,6,2,5,87
1927,6,2,5,87
1928,6,2,5,87
1929,6,2,5,87
1930,6,2,5,87
1931,6,2,5,87
1932,6,2,5,87
1933,6,2,5,87
1934,6,2,5,87
1935,6,2,5,87
1936,6,2,5,87
1937,6,2,5,87
1938,6,2,5,87
1939,6,2,5,87
1940,6,2,5,87
1941,6,2,5,87
1942,6,2,5,87
1943,6,2,5,87
1944,6,2,5,87
1945,6,2,5,87
1946,6,2,4,88
1947,6,2,4,88
1948,6,2,4,88
1949,6,2,4,88
1950,6,2,4,88
1951,6,2,4,88
1952,6,2,4,88
1953,6,2,4,88
1954,6,2,4,88
1955,6,2,4,88
1956,6,2,4,88
1957,6,2,4,88
1958,6,2,4,88
1959,6,2,4,88
1960,6,2,4,88
1961,6,2,3,89
1962,6,2,3,89
1963,6,2,3,89
1964,6,2,3,89
1965,6,2,3,89
1966,6,2,3,89
1967,6,2,3,89
1968,6,2,3,89
1969,6,2,3,89
1970,6,2,3,89
1971,6,2,3,89
1972,6,2,3,89
1973,6,2,3,89
1974,6,2,3,89
1975,6,2,3,89
1976,6,2,3,89
1977,6,2,3,89
1978,6,2,3,89
1979,6,2,3,89
1980,6,2,3,89
1981,6,2,3,89
1982,6,2,3,89
1983,6,2,3,89
1984,6,2,3,89
1985,6,2,3,89
1986,6,2,3,89
1987,6,2,3,89
1988,6,2,3,89
1989,6,1,4,89
1990,6,1,4,89
1991,6,1,4,89
1992,6,1,4,89
1993,6,1,4,89
1994,6,1,4,89
1995,6,1,4,89
1996,6,1,4,89
1997,6,1,4,89
1998,6,1,4,89
1999,6,1,4,89
2000,6,1,4,89
