"tick","total"
0,0
1,0
2,0
3,0
4,0
5,0
6,0
7,0
8,0
9,0
10,0
11,0
12,0
13,0
14,0
15,0
16,0
17,0
18,0
19,0
20,0
21,0
22,0
23,0
24,0
25,0
26,0
27,0
28,0
29,0
30,0
31,0
32,0
33,0
34,0
35,0
36,0
37,0
38,0
39,0
40,0
41,0
42,0
43,0
44,0
45,0
46,0
47,0
48,0
49,0
50,0
51,0
52,0
53,0
54,0
55,0
56,0
57,0
58,0
59,0
60,0
61,0
62,0
63,0
64,0
65,0
66,0
67,0
68,0
69,0
70,0
71,0
72,0
73,0
74,0
75,0
76,0
77,0
78,0
79,0
80,0
81,0
82,0
83,0
84,0
85,0
86,0
87,0
88,0
89,0
90,0
91,0
92,0
93,0
94,0
95,0
96,0
97,0
98,0
99,0
100,0
101,0
102,0
103,0
104,0
105,0
106,0
107,0
108,0
109,0
110,0
111,0
112,0
113,0
114,0
115,0
116,0
117,0
118,0
119,0
120,0
121,0
122,0
123,0
124,0
125,0
126,0
127,0
128,0
129,0
130,0
131,0
132,0
133,0
134,0
135,0
136,0
137,0
138,0
139,0
140,0
141,0
142,0
143,0
144,0
145,0
146,0
147,0
148,0
149,0
150,0
151,0
152,0
153,0
154,0
155,0
156,0
157,0
158,0
159,0
160,0
161,0
162,0
163,0
164,0
165,0
166,0
167,0
168,0
169,0
170,0
171,0
172,0
173,0
174,0
175,0
176,0
177,0
178,0
179,0
180,0
181,0
182,0
183,0
184,0
185,0
186,0
187,0
188,0
189,0
190,0
191,0
192,0
193,0
194,0
195,0
196,0
197,0
198,0
199,0
200,0
201,0
202,0
203,0
204,0
205,0
206,0
207,0
208,0
209,0
210,0
211,0
212,0
213,1
214,1
215,1
216,1
217,1
218,1
219,1
220,1
221,2
222,2
223,2
224,2
225,2
226,2
227,3
228,3
229,3
230,3
231,3
232,4
233,6
234,6
235,6
236,6
237,6
238,6
239,6
240,6
241,6
242,6
243,6
244,6
245,6
246,6
247,7
248,7
249,7
250,8
251,8
252,8
253,8
254,8
255,8
256,8
257,8
258,8
259,8
260,8
261,9
262,10
263,10
264,10
265,10
266,10
267,10
268,10
269,10
270,10
271,10
272,10
273,10
274,10
275,10
276,10
277,10
278,10
279,11
280,11
281,12
282,12
283,12
284,12
285,12
286,12
287,12
288,12
289,12
290,12
291,12
292,12
293,12
294,12
295,12
296,12
297,12
298,12
299,12
300,13
301,13
302,13
303,13
304,13
305,13
306,13
307,13
308,13
309,13
310,13
311,13
312,14
313,14
314,14
315,14
316,14
317,14
318,14
319,15
320,15
321,15
322,15
323,15
324,15
325,15
326,15
327,15
328,15
329,16
330,16
331,16
332,16
333,16
334,16
335,16
336,16
337,16
338,16
339,16
340,16
341,16
342,17
343,17
344,17
345,17
346,17
347,17
348,17
349,18
350,18
351,18
352,18
353,18
354,19
355,19
356,19
357,19
358,20
359,20
360,20
361,21
362,21
363,22
364,22
365,22
366,22
367,22
368,22
369,22
370,22
371,22
372,22
373,22
374,22
375,22
376,22
377,22
378,22
379,22
380,22
381,22
382,22
383,22
384,22
385,22
386,23
387,23
388,23
389,23
390,23
391,23
392,23
393,23
394,23
395,23
396,23
397,23
398,23
399,23
400,23
401,23
402,23
403,23
404,23
405,23
406,23
407,23
408,23
409,24
410,24
411,24
412,24
413,25
414,25
415,25
416,25
417,25
418,25
419,25
420,25
421,25
422,25
423,25
424,25
425,25
426,25
427,25
428,25
429,25
430,25
431,25
432,25
433,25
434,25
435,25
436,25
437,25
438,26
439,26
440,26
441,27
442,27
443,28
444,28
445,28
446,28
447,29
448,29
449,29
450,29
451,29
452,29
453,29
454,29
455,29
456,29
457,29
458,29
459,29
460,29
461,29
462,29
463,29
464,29
465,29
466,29
467,29
468,29
469,29
470,29
471,29
472,29
473,29
474,29
475,29
476,29
477,29
478,29
479,30
480,30
481,30
482,30
483,30
484,30
485,30
486,30
487,30
488,30
489,30
490,30
491,30
492,30
493,30
494,30
495,30
496,30
497,30
498,30
499,30
500,30
501,30
502,30
503,30
504,31
505,31
506,31
507,31
508,31
509,31
510,31
511,31
512,31
513,31
514,31
515,31
516,31
517,31
518,31
519,31
520,31
521,31
522,31
523,31
524,31
525,31
526,31
527,31
528,31
529,31
530,31
531,31
532,31
533,31
534,31
535,31
536,31
537,32
538,32
539,32
540,32
541,32
542,32
543,32
544,32
545,32
546,32
547,32
548,32
549,33
550,33
551,33
552,33
553,34
554,34
555,34
556,35
557,35
558,35
559,35
560,35
561,35
562,35
563,35
564,35
565,35
566,35
567,35
568,35
569,35
570,36
571,36
572,37
573,37
574,37
575,37
576,37
577,37
578,37
579,37
580,38
581,38
582,38
583,38
584,38
585,38
586,38
587,38
588,38
589,38
590,38
591,38
592,38
593,38
594,38
595,38
596,38
597,38
598,38
599,38
600,38
601,38
602,38
603,38
604,38
605,38
606,38
607,38
608,38
609,38
610,38
611,38
612,38
613,38
614,38
615,38
616,38
617,38
618,38
619,38
620,38
621,38
622,38
623,38
624,38
625,38
626,38
627,38
628,38
629,38
630,38
631,38
632,38
633,38
634,38
635,38
636,38
637,38
638,38
639,38
640,39
641,39
642,39
643,39
644,40
645,40
646,40
647,40
648,40
649,40
650,40
651,40
652,40
653,40
654,40
655,41
656,41
657,41
658,41
659,41
660,41
661,41
662,41
663,41
664,41
665,41
666,42
667,42
668,42
669,42
670,43
671,43
672,43
673,43
674,43
675,43
676,43
677,43
678,43
679,43
680,43
681,43
682,43
683,43
684,43
685,43
686,43
687,43
688,43
689,43
690,43
691,43
692,43
693,43
694,43
695,43
696,43
697,43
698,43
699,43
700,43
701,43
702,43
703,44
704,44
705,44
706,44
707,44
708,44
709,44
710,44
711,44
712,45
713,45
714,45
715,45
716,45
717,45
718,45
719,45
720,45
721,45
722,45
723,45
724,45
725,45
726,45
727,45
728,45
729,45
730,45
731,45
732,45
733,45
734,45
735,45
736,45
737,45
738,45
739,45
740,45
741,45
742,45
743,45
744,45
745,45
746,45
747,45
748,45
749,45
750,45
751,45
752,45
753,45
754,45
755,45
756,45
757,45
758,45
759,45
760,45
761,45
762,45
763,45
764,45
765,45
766,45
767,45
768,45
769,45
770,45
771,45
772,45
773,45
774,45
775,45
776,45
777,45
778,45
779,45
780,46
781,46
782,46
783,46
784,46
785,46
786,46
787,46
788,46
789,46
790,46
791,46
792,46
793,46
794,46
795,46
796,46
797,46
798,46
799,46
800,46
801,46
802,46
803,46
804,46
805,47
806,47
807,47
808,47
809,47
810,47
811,47
812,47
813,47
814,47
815,47
816,47
817,47
818,47
819,47
820,48
821,48
822,48
823,48
824,48
825,48
826,49
827,49
828,49
829,49
830,49
831,49
832,49
833,49
834,49
835,49
836,49
837,49
838,49
839,49
840,49
841,49
842,49
843,49
844,49
845,49
846,49
847,49
848,49
849,49
850,49
851,49
852,49
853,49
854,49
855,49
856,49
857,49
858,50
859,50
860,50
861,50
862,50
863,50
864,50
865,50
866,50
867,50
868,50
869,50
870,50
871,50
872,50
873,50
874,50
875,50
876,50
877,50
878,50
879,50
880,50
881,50
882,50
883,50
884,50
885,50
886,50
887,50
888,50
889,50
890,50
891,50
892,50
893,50
894,50
895,50
896,50
897,50
898,50
899,50
900,50
901,50
902,50
903,50
904,50
905,50
906,50
907,50
908,50
909,50
910,50
911,50
912,50
913,50
914,50
915,50
916,50
917,50
918,50
919,50
920,50
921,50
922,50
923,50
924,50
925,50
926,50
927,50
928,50
929,50
930,50
931,50
932,50
933,50
934,50
935,50
936,50
937,51
938,52
939,53
940,54
941,55
942,56
943,57
944,58
945,59
946,60
947,61
948,61
949,61
950,61
951,61
952,61
953,61
954,61
955,61
956,61
957,61
958,61
959,61
960,61
961,61
962,61
963,61
964,61
965,61
966,61
967,61
968,61
969,61
970,61
971,61
972,61
973,61
974,61
975,61
976,61
977,61
978,61
979,61
980,61
981,61
982,61
983,61
984,61
985,61
986,61
987,61
988,61
989,61
990,61
991,61
992,61
993,61
994,61
995,61
996,61
997,61
998,61
999,61
1000,61
1001,61
1002,61
1003,61
1004,61
1005,61
1006,61
1007,61
1008,61
1009,61
1010,61
1011,61
1012,61
1013,61
1014,61
1015,61
1016,61
1017,61
1018,61
1019,61
1020,61
1021,61
1022,61
1023,61
1024,61
1025,61
1026,61
1027,61
1028,61
1029,61
1030,61
1031,61
1032,61
1033,61
1034,61
1035,61
1036,61
1037,61
1038,61
1039,61
1040,61
1041,61
1042,61
1043,61
1044,61
1045,61
1046,61
1047,61
1048,61
1049,61
1050,61
1051,61
1052,61
1053,61
1054,61
1055,61
1056,61
1057,61
1058,61
1059,61
1060,61
1061,61
1062,61
1063,61
1064,61
1065,61
1066,61
1067,61
1068,61
1069,61
1070,61
1071,61
1072,61
1073,61
1074,61
1075,61
1076,61
1077,61
1078,61
1079,61
1080,62
1081,63
1082,64
1083,65
1084,66
1085,67
1086,69
1087,70
1088,71
1089,71
1090,71
1091,71
1092,71
1093,71
1094,71
1095,71
1096,71
1097,71
1098,71
1099,71
1100,71
1101,71
1102,71
1103,71
1104,71
1105,71
1106,71
1107,71
1108,71
1109,71
1110,71
1111,71
1112,71
1113,71
1114,71
1115,71
1116,71
1117,71
1118,71
1119,71
1120,71
1121,71
1122,71
1123,71
1124,71
1125,71
1126,71
1127,71
1128,71
1129,71
1130,71
1131,71
1132,71
1133,71
1134,71
1135,71
1136,71
1137,71
1138,71
1139,71
1140,71
1141,71
1142,71
1143,71
1144,71
1145,71
1146,71
1147,71
1148,71
1149,71
1150,71
1151,71
1152,71
1153,71
1154,71
1155,71
1156,71
1157,71
1158,71
1159,71
1160,71
1161,71
1162,71
1163,71
1164,71
1165,71
1166,71
1167,71
1168,71
1169,71
1170,71
1171,71
1172,71
1173,71
1174,71
1175,71
1176,71
1177,71
1178,71
1179,71
1180,71
1181,71
1182,71
1183,71
1184,71
1185,71
1186,71
1187,71
1188,71
1189,71
1190,71
1191,71
1192,71
1193,71
1194,71
1195,71
1196,71
1197,71
1198,71
1199,71
1200,71
1201,71
1202,71
1203,71
1204,71
1205,71
1206,71
1207,71
1208,71
1209,71
1210,71
1211,71
1212,71
1213,71
1214,71
1215,71
1216,71
1217,71
1218,71
1219,71
1220,71
1221,71
1222,71
1223,71
1224,71
1225,71
1226,71
1227,71
1228,71
1229,71
1230,71
1231,71
1232,71
1233,71
1234,71
1235,71
1236,71
1237,71
1238,71
1239,71
1240,71
1241,71
1242,71
1243,71
1244,71
1245,71
1246,71
1247,71
1248,71
1249,71
1250,71
1251,71
1252,72
1253,72
1254,72
1255,72
1256,72
1257,72
1258,72
1259,72
1260,72
1261,72
1262,72
1263,72
1264,72
1265,72
1266,72
1267,72
1268,72
1269,72
1270,72
1271,72
1272,72
1273,72
1274,72
1275,72
1276,72
1277,72
1278,72
1279,72
1280,72
1281,72
1282,72
1283,72
1284,72
1285,72
1286,72
1287,72
1288,72
1289,72
1290,72
1291,72
1292,72
1293,72
1294,72
1295,72
1296,72
1297,72
1298,72
1299,72
1300,72
1301,72
1302,73
1303,73
1304,73
1305,73
1306,73
1307,73
1308,73
1309,73
1310,73
1311,73
1312,73
1313,73
1314,73
1315,73
1316,73
1317,73
1318,73
1319,73
1320,73
1321,73
1322,73
1323,73
1324,73
1325,73
1326,73
1327,75
1328,75
1329,76
1330,76
1331,76
1332,76
1333,76
1334,76
1335,76
1336,76
1337,76
1338,76
1339,76
1340,77
1341,77
1342,77
1343,77
1344,77
1345,77
1346,77
1347,77
1348,77
1349,77
1350,77
1351,77
1352,77
1353,77
1354,77
1355,78
1356,79
1357,79
1358,79
1359,79
1360,79
1361,79
1362,79
1363,79
1364,79
1365,79
1366,79
1367,79
1368,79
1369,79
1370,79
1371,79
1372,79
1373,79
1374,79
1375,79
1376,79
1377,79
1378,79
1379,79
1380,79
1381,79
1382,80
1383,81
1384,81
1385,81
1386,81
1387,81
1388,81
1389,81
1390,81
1391,81
1392,81
1393,81
1394,81
1395,81
1396,81
1397,81
1398,81
1399,81
1400,81
1401,81
1402,81
1403,81
1404,81
1405,81
1406,81
1407,81
1408,81
1409,81
1410,81
1411,81
1412,81
1413,81
1414,81
1415,81
1416,81
1417,81
1418,81
1419,81
1420,81
1421,81
1422,81
1423,81
1424,81
1425,81
1426,81
1427,81
1428,81
1429,81
1430,81
1431,81
1432,81
1433,81
1434,82
1435,82
1436,82
1437,82
1438,82
1439,82
1440,82
1441,82
1442,82
1443,82
1444,82
1445,82
1446,82
1447,82
1448,82
1449,82
1450,82
1451,82
1452,82
1453,82
1454,82
1455,82
1456,82
1457,82
1458,82
1459,82
1460,82
1461,82
1462,83
1463,83
1464,83
1465,83
1466,83
1467,83
1468,83
1469,83
1470,83
1471,83
1472,83
1473,83
1474,83
1475,83
1476,83
1477,83
1478,83
1479,84
1480,84
1481,84
1482,84
1483,84
1484,84
1485,84
1486,84
1487,84
1488,84
1489,84
1490,84
1491,84
1492,84
1493,84
1494,84
1495,84
1496,84
1497,84
1498,84
1499,84
1500,84
1501,84
1502,84
1503,84
1504,85
1505,85
1506,85
1507,85
1508,85
1509,85
1510,85
1511,85
1512,85
1513,85
1514,85
1515,85
1516,86
1517,86
1518,87
1519,87
1520,88
1521,88
1522,88
1523,88
1524,88
1525,88
1526,88
1527,88
1528,88
1529,88
1530,88
1531,88
1532,88
1533,88
1534,88
1535,88
1536,89
1537,89
1538,89
1539,89
1540,89
1541,89
1542,89
1543,89
1544,89
1545,89
1546,89
1547,89
1548,89
1549,89
1550,89
1551,89
1552,89
1553,89
1554,89
1555,89
1556,89
1557,89
1558,89
1559,90
1560,90
1561,90
1562,90
1563,90
1564,90
1565,90
1566,90
1567,90
1568,90
1569,91
1570,91
1571,92
1572,92
1573,92
1574,92
1575,92
1576,92
1577,92
1578,92
1579,92
1580,92
1581,92
1582,92
1583,92
1584,92
1585,92
1586,92
1587,92
1588,92
1589,92
1590,92
1591,92
1592,92
1593,92
1594,92
1595,92
1596,92
1597,92
1598,92
1599,92
1600,92
1601,92
1602,92
1603,92
1604,92
1605,92
1606,92
1607,92
1608,92
1609,92
1610,92
1611,92
1612,92
1613,92
1614,92
1615,92
1616,93
1617,93
1618,93
1619,93
1620,93
1621,93
1622,93
1623,93
1624,93
1625,94
1626,95
1627,95
1628,95
1629,95
1630,95
1631,95
1632,95
1633,95
1634,95
1635,95
1636,95
1637,95
1638,95
1639,95
1640,95
1641,95
1642,95
1643,95
1644,95
1645,95
1646,95
1647,95
1648,95
1649,95
1650,95
1651,95
1652,95
1653,95
1654,96
1655,96
1656,96
1657,96
1658,96
1659,96
1660,96
1661,96
1662,96
1663,97
1664,97
1665,97
1666,97
1667,97
1668,97
1669,97
1670,97
1671,97
1672,97
1673,97
1674,97
1675,97
1676,97
1677,97
1678,97
1679,97
1680,97
1681,98
1682,98
1683,98
1684,98
1685,99
1686,99
1687,99
1688,99
1689,99
1690,99
1691,99
1692,99
1693,99
1694,99
1695,99
1696,99
1697,99
1698,99
1699,99
1700,99
1701,99
1702,99
1703,99
1704,99
1705,99
1706,99
1707,99
1708,99
1709,99
1710,99
1711,99
1712,99
1713,99
1714,99
1715,99
1716,99
1717,99
1718,99
1719,99
1720,99
1721,99
1722,99
1723,99
1724,99
1725,99
1726,99
1727,99
1728,99
1729,99
1730,99
1731,99
1732,99
1733,99
1734,99
1735,99
1736,99
1737,99
1738,99
1739,99
1740,99
1741,99
1742,99
1743,99
1744,99
1745,99
1746,99
1747,99
1748,99
1749,99
1750,99
1751,100
1752,100
1753,100
1754,100
1755,100
1756,100
1757,100
1758,100
1759,100
1760,100
1761,100
1762,100
1763,100
1764,100
1765,100
1766,100
1767,100
1768,100
1769,100
1770,100
1771,100
1772,100
1773,100
1774,100
1775,100
1776,100
1777,100
1778,100
1779,100
1780,100
1781,100
1782,100
1783,100
1784,100
1785,100
1786,100
1787,100
1788,100
1789,100
1790,100
1791,100
1792,100
1793,100
1794,100
1795,100
1796,100
1797,100
1798,100
1799,100
1800,100
1801,100
1802,100
1803,100
1804,100
1805,100
1806,100
1807,100
1808,100
1809,100
1810,100
1811,100
1812,100
1813,100
1814,100
1815,100
1816,100
1817,100
1818,100
1819,100
1820,100
1821,100
1822,100
1823,100
1824,100
1825,100
1826,100
1827,100
1828,101
1829,101
1830,101
1831,101
1832,101
1833,101
1834,101
1835,101
1836,101
1837,101
1838,101
1839,101
1840,101
1841,101
1842,101
1843,101
1844,101
1845,101
1846,101
1847,101
1848,101
1849,101
1850,101
1851,101
1852,101
1853,101
1854,101
1855,101
1856,101
1857,101
1858,101
1859,101
1860,101
1861,101
1862,101
1863,101
1864,101
1865,101
1866,101
1867,101
1868,101
1869,101
1870,101
1871,101
1872,101
1873,101
1874,101
1875,101
1876,101
1877,101
1878,101
1879,101
1880,101
1881,101
1882,101
1883,101
1884,101
1885,101
1886,101
1887,101
1888,101
1889,101
1890,101
1891,101
1892,101
1893,101
1894,101
1895,101
1896,101
1897,101
1898,101
1899,101
1900,101
1901,101
1902,101
1903,101
1904,101
1905,101
1906,101
1907,101
1908,101
1909,101
1910,101
1911,101
1912,101
1913,101
1914,101
1915,101
1916,101
1917,101
1918,101
1919,101
1920,101
1921,101
1922,101
1923,101
1924,101
1925,101
1926,101
1927,101
1928,101
1929,101
1930,101
1931,101
1932,101
1933,101
1934,101
1935,102
1936,102
1937,102
1938,102
1939,102
1940,102
1941,102
1942,102
1943,102
1944,102
1945,102
1946,102
1947,102
1948,102
1949,102
1950,102
1951,102
1952,102
1953,103
1954,103
1955,103
1956,103
1957,103
1958,103
1959,103
1960,103
1961,103
1962,103
1963,103
1964,103
1965,103
1966,103
1967,103
1968,103
1969,103
1970,104
1971,104
1972,104
1973,104
1974,104
1975,104
1976,104
1977,104
1978,104
1979,104
1980,104
1981,104
1982,104
1983,104
1984,104
1985,104
1986,104
1987,104
1988,104
1989,104
1990,104
1991,104
1992,104
1993,104
1994,104
1995,104
1996,104
1997,104
1998,104
1999,104
2000,104
