"tick","total"
0,0
1,1
2,1
3,1
4,1
5,1
6,1
7,1
8,1
9,1
10,1
11,1
12,1
13,1
14,1
15,1
16,1
17,1
18,1
19,1
20,1
21,1
22,1
23,1
24,1
25,1
26,1
27,1
28,1
29,1
30,1
31,1
32,1
33,1
34,1
35,1
36,1
37,1
38,1
39,1
40,1
41,1
42,1
43,1
44,1
45,1
46,1
47,1
48,1
49,1
50,1
51,1
52,1
53,1
54,1
55,1
56,1
57,1
58,1
59,1
60,1
61,1
62,1
63,1
64,1
65,1
66,1
67,1
68,1
69,1
70,1
71,1
72,1
73,1
74,1
75,1
76,1
77,1
78,1
79,1
80,1
81,1
82,1
83,1
84,1
85,1
86,1
87,1
88,1
89,1
90,1
91,1
92,1
93,1
94,1
95,1
96,1
97,1
98,1
99,1
100,1
101,1
102,1
103,1
104,1
105,1
106,1
107,1
108,1
109,1
110,1
111,1
112,1
113,1
114,1
115,1
116,1
117,1
118,1
119,1
120,1
121,1
122,1
123,1
124,1
125,1
126,1
127,1
128,1
129,1
130,1
131,1
132,1
133,1
134,1
135,1
136,1
137,1
138,1
139,1
140,1
141,1
142,1
143,1
144,1
145,1
146,1
147,1
148,1
149,1
150,1
151,1
152,1
153,1
154,1
155,1
156,1
157,1
158,1
159,1
160,1
161,1
162,1
163,1
164,1
165,1
166,1
167,1
168,1
169,1
170,1
171,1
172,1
173,1
174,1
175,1
176,1
177,1
178,1
179,1
180,1
181,1
182,1
183,1
184,1
185,1
186,1
187,1
188,1
189,1
190,1
191,1
192,1
193,1
194,1
195,1
196,1
197,1
198,1
199,1
200,1
201,1
202,1
203,1
204,1
205,1
206,1
207,1
208,1
209,1
210,1
211,1
212,1
213,1
214,1
215,1
216,1
217,1
218,1
219,1
220,1
221,1
222,1
223,1
224,1
225,1
226,1
227,1
228,1
229,1
230,1
231,1
232,1
233,1
234,1
235,1
236,1
237,1
238,1
239,1
240,1
241,1
242,1
243,1
244,1
245,1
246,1
247,1
248,1
249,1
250,1
251,1
252,1
253,1
254,1
255,1
256,1
257,1
258,1
259,1
260,2
261,2
262,2
263,2
264,2
265,2
266,3
267,3
268,3
269,3
270,3
271,3
272,3
273,3
274,3
275,3
276,3
277,3
278,3
279,3
280,4
281,4
282,4
283,4
284,4
285,4
286,4
287,4
288,4
289,4
290,4
291,4
292,4
293,4
294,4
295,5
296,6
297,6
298,6
299,6
300,6
301,7
302,7
303,7
304,7
305,7
306,7
307,7
308,7
309,7
310,7
311,7
312,7
313,7
314,7
315,7
316,7
317,7
318,7
319,7
320,7
321,7
322,7
323,7
324,7
325,7
326,7
327,7
328,7
329,7
330,7
331,7
332,7
333,7
334,7
335,7
336,7
337,7
338,7
339,7
340,7
341,7
342,7
343,7
344,7
345,7
346,7
347,7
348,7
349,8
350,9
351,9
352,10
353,10
354,10
355,10
356,11
357,11
358,11
359,11
360,11
361,11
362,11
363,11
364,11
365,11
366,11
367,11
368,11
369,11
370,11
371,11
372,11
373,11
374,11
375,11
376,11
377,11
378,11
379,11
380,11
381,11
382,11
383,11
384,11
385,11
386,12
387,12
388,13
389,13
390,13
391,14
392,14
393,14
394,14
395,14
396,14
397,14
398,14
399,14
400,14
401,14
402,14
403,14
404,14
405,14
406,14
407,14
408,14
409,14
410,14
411,14
412,14
413,14
414,14
415,14
416,14
417,14
418,14
419,14
420,14
421,15
422,15
423,15
424,15
425,15
426,15
427,15
428,16
429,16
430,16
431,17
432,17
433,17
434,17
435,18
436,19
437,19
438,20
439,20
440,20
441,20
442,20
443,20
444,20
445,20
446,20
447,20
448,20
449,20
450,20
451,20
452,20
453,20
454,21
455,21
456,21
457,21
458,21
459,21
460,21
461,21
462,21
463,21
464,21
465,21
466,22
467,23
468,23
469,23
470,23
471,23
472,23
473,23
474,23
475,23
476,23
477,23
478,23
479,23
480,23
481,23
482,23
483,23
484,23
485,23
486,23
487,23
488,23
489,23
490,23
491,23
492,23
493,23
494,23
495,23
496,23
497,23
498,23
499,23
500,23
501,23
502,23
503,23
504,23
505,24
506,24
507,24
508,24
509,24
510,24
511,24
512,24
513,24
514,24
515,24
516,24
517,24
518,24
519,24
520,24
521,24
522,24
523,24
524,24
525,24
526,24
527,24
528,24
529,24
530,24
531,24
532,24
533,24
534,24
535,24
536,25
537,26
538,26
539,26
540,26
541,26
542,26
543,26
544,26
545,26
546,26
547,26
548,26
549,26
550,26
551,26
552,26
553,26
554,26
555,26
556,26
557,26
558,26
559,26
560,26
561,26
562,26
563,26
564,26
565,26
566,26
567,26
568,26
569,26
570,26
571,26
572,26
573,26
574,26
575,26
576,26
577,26
578,26
579,26
580,26
581,26
582,26
583,26
584,26
585,26
586,26
587,26
588,26
589,26
590,26
591,26
592,26
593,26
594,26
595,26
596,26
597,26
598,26
599,26
600,26
601,26
602,26
603,26
604,26
605,26
606,26
607,26
608,26
609,26
610,26
611,26
612,26
613,26
614,26
615,26
616,26
617,26
618,26
619,26
620,26
621,26
622,26
623,26
624,26
625,26
626,26
627,26
628,26
629,26
630,26
631,26
632,26
633,26
634,26
635,26
636,27
637,27
638,27
639,27
640,27
641,27
642,27
643,27
644,27
645,27
646,27
647,27
648,27
649,27
650,27
651,27
652,27
653,27
654,27
655,27
656,27
657,27
658,27
659,27
660,27
661,27
662,27
663,27
664,27
665,27
666,27
667,27
668,27
669,27
670,27
671,27
672,27
673,27
674,27
675,27
676,27
677,27
678,27
679,27
680,27
681,27
682,27
683,27
684,27
685,27
686,27
687,27
688,27
689,27
690,27
691,27
692,27
693,27
694,28
695,28
696,28
697,28
698,28
699,28
700,28
701,28
702,28
703,28
704,28
705,28
706,28
707,28
708,28
709,28
710,28
711,28
712,28
713,28
714,28
715,28
716,28
717,29
718,29
719,29
720,29
721,29
722,29
723,29
724,29
725,29
726,29
727,29
728,29
729,29
730,29
731,29
732,29
733,29
734,29
735,29
736,29
737,29
738,29
739,29
740,29
741,29
742,29
743,29
744,29
745,29
746,29
747,29
748,29
749,29
750,29
751,29
752,29
753,29
754,29
755,29
756,29
757,30
758,30
759,31
760,31
761,31
762,31
763,31
764,31
765,31
766,31
767,31
768,31
769,31
770,31
771,31
772,31
773,31
774,32
775,33
776,33
777,33
778,33
779,33
780,33
781,33
782,33
783,33
784,34
785,34
786,34
787,34
788,34
789,34
790,34
791,34
792,34
793,34
794,34
795,34
796,34
797,34
798,34
799,34
800,34
801,34
802,34
803,34
804,34
805,34
806,34
807,34
808,34
809,34
810,34
811,34
812,34
813,34
814,34
815,34
816,34
817,34
818,34
819,34
820,34
821,34
822,34
823,34
824,34
825,34
826,34
827,34
828,34
829,34
830,34
831,34
832,34
833,34
834,34
835,34
836,34
837,34
838,34
839,34
840,34
841,34
842,34
843,34
844,34
845,34
846,34
847,34
848,34
849,34
850,34
851,34
852,34
853,34
854,34
855,34
856,34
857,35
858,35
859,35
860,35
861,35
862,35
863,35
864,35
865,35
866,35
867,35
868,35
869,35
870,35
871,35
872,35
873,35
874,35
875,35
876,35
877,35
878,35
879,35
880,35
881,35
882,35
883,35
884,35
885,35
886,36
887,36
888,36
889,37
890,37
891,37
892,37
893,37
894,37
895,37
896,37
897,37
898,37
899,37
900,38
901,38
902,38
903,38
904,38
905,38
906,38
907,38
908,38
909,39
910,39
911,39
912,39
913,40
914,40
915,40
916,40
917,40
918,40
919,40
920,40
921,40
922,40
923,40
924,40
925,40
926,40
927,40
928,40
929,40
930,40
931,40
932,40
933,40
934,40
935,40
936,41
937,41
938,41
939,41
940,41
941,41
942,41
943,41
944,41
945,41
946,41
947,41
948,41
949,41
950,41
951,41
952,41
953,41
954,41
955,41
956,41
957,41
958,41
959,41
960,41
961,41
962,41
963,41
964,41
965,41
966,41
967,41
968,41
969,41
970,41
971,41
972,41
973,41
974,41
975,41
976,41
977,41
978,41
979,41
980,41
981,41
982,41
983,41
984,41
985,41
986,41
987,41
988,41
989,41
990,41
991,41
992,41
993,41
994,41
995,41
996,41
997,41
998,41
999,41
1000,41
1001,41
1002,41
1003,41
1004,41
1005,41
1006,41
1007,41
1008,41
1009,41
1010,41
1011,41
1012,41
1013,41
1014,41
1015,41
1016,41
1017,41
1018,41
1019,41
1020,41
1021,41
1022,41
1023,41
1024,41
1025,41
1026,41
1027,41
1028,41
1029,41
1030,41
1031,41
1032,41
1033,41
1034,41
1035,41
1036,41
1037,41
1038,41
1039,41
1040,41
1041,41
1042,41
1043,41
1044,41
1045,41
1046,41
1047,42
1048,42
1049,42
1050,42
1051,42
1052,42
1053,42
1054,42
1055,42
1056,42
1057,42
1058,42
1059,42
1060,43
1061,43
1062,43
1063,43
1064,43
1065,44
1066,44
1067,44
1068,44
1069,44
1070,44
1071,44
1072,44
1073,44
1074,44
1075,44
1076,44
1077,45
1078,45
1079,45
1080,45
1081,45
1082,45
1083,45
1084,45
1085,45
1086,45
1087,45
1088,45
1089,45
1090,45
1091,45
1092,45
1093,45
1094,45
1095,45
1096,45
1097,45
1098,45
1099,45
1100,45
1101,45
1102,45
1103,45
1104,45
1105,45
1106,45
1107,45
1108,45
1109,45
1110,45
1111,45
1112,45
1113,45
1114,45
1115,45
1116,45
1117,46
1118,46
1119,46
1120,46
1121,46
1122,46
1123,46
1124,46
1125,46
1126,46
1127,46
1128,46
1129,46
1130,46
1131,46
1132,46
1133,46
1134,46
1135,46
1136,46
1137,46
1138,46
1139,46
1140,46
1141,47
1142,48
1143,48
1144,48
1145,48
1146,48
1147,48
1148,48
1149,48
1150,48
1151,48
1152,49
1153,49
1154,49
1155,49
1156,49
1157,49
1158,49
1159,49
1160,49
1161,49
1162,49
1163,49
1164,49
1165,49
1166,49
1167,49
1168,49
1169,49
1170,49
1171,49
1172,49
1173,49
1174,49
1175,49
1176,49
1177,49
1178,49
1179,49
1180,49
1181,49
1182,49
1183,49
1184,49
1185,49
1186,49
1187,49
1188,49
1189,49
1190,49
1191,49
1192,49
1193,49
1194,49
1195,49
1196,50
1197,50
1198,50
1199,50
1200,50
1201,50
1202,50
1203,50
1204,50
1205,50
1206,50
1207,50
1208,50
1209,51
1210,51
1211,52
1212,52
1213,52
1214,52
1215,52
1216,52
1217,52
1218,52
1219,52
1220,52
1221,52
1222,52
1223,52
1224,52
1225,52
1226,52
1227,52
1228,52
1229,52
1230,52
1231,52
1232,52
1233,52
1234,52
1235,53
1236,53
1237,53
1238,53
1239,53
1240,53
1241,53
1242,53
1243,53
1244,53
1245,53
1246,53
1247,53
1248,53
1249,53
1250,53
1251,54
1252,54
1253,54
1254,54
1255,54
1256,54
1257,54
1258,54
1259,54
1260,54
1261,54
1262,54
1263,54
1264,54
1265,54
1266,54
1267,54
1268,54
1269,54
1270,54
1271,54
1272,54
1273,54
1274,54
1275,54
1276,54
1277,54
1278,54
1279,54
1280,54
1281,54
1282,54
1283,54
1284,54
1285,54
1286,54
1287,54
1288,54
1289,54
1290,54
1291,54
1292,54
1293,54
1294,54
1295,54
1296,54
1297,54
1298,54
1299,54
1300,54
1301,54
1302,54
1303,54
1304,54
1305,54
1306,54
1307,54
1308,54
1309,54
1310,54
1311,54
1312,54
1313,54
1314,54
1315,54
1316,54
1317,54
1318,54
1319,54
1320,54
1321,54
1322,54
1323,54
1324,54
1325,54
1326,54
1327,54
1328,54
1329,54
1330,55
1331,55
1332,55
1333,55
1334,55
1335,55
1336,55
1337,55
1338,55
1339,55
1340,55
1341,55
1342,55
1343,55
1344,55
1345,55
1346,55
1347,55
1348,55
1349,55
1350,55
1351,55
1352,55
1353,55
1354,56
1355,56
1356,56
1357,56
1358,56
1359,56
1360,56
1361,56
1362,56
1363,56
1364,57
1365,57
1366,57
1367,57
1368,57
1369,57
1370,57
1371,58
1372,58
1373,58
1374,58
1375,58
1376,58
1377,58
1378,58
1379,58
1380,58
1381,58
1382,58
1383,58
1384,58
1385,58
1386,58
1387,58
1388,58
1389,58
1390,58
1391,59
1392,59
1393,59
1394,59
1395,59
1396,59
1397,59
1398,59
1399,59
1400,59
1401,59
1402,60
1403,60
1404,60
1405,60
1406,60
1407,60
1408,60
1409,60
1410,60
1411,60
1412,60
1413,60
1414,60
1415,60
1416,60
1417,60
1418,61
1419,61
1420,61
1421,61
1422,61
1423,61
1424,61
1425,61
1426,61
1427,61
1428,61
1429,61
1430,61
1431,61
1432,61
1433,61
1434,61
1435,61
1436,61
1437,61
1438,61
1439,61
1440,61
1441,61
1442,61
1443,61
1444,61
1445,61
1446,61
1447,61
1448,61
1449,61
1450,61
1451,61
1452,61
1453,61
1454,61
1455,61
1456,61
1457,61
1458,61
1459,61
1460,61
1461,61
1462,61
1463,61
1464,61
1465,61
1466,61
1467,61
1468,62
1469,62
1470,62
1471,63
1472,63
1473,64
1474,64
1475,64
1476,64
1477,64
1478,64
1479,64
1480,64
1481,65
1482,65
1483,65
1484,65
1485,65
1486,65
1487,65
1488,65
1489,65
1490,65
1491,65
1492,65
1493,66
1494,66
1495,66
1496,66
1497,66
1498,66
1499,66
1500,66
1501,66
1502,66
1503,66
1504,66
1505,66
1506,66
1507,67
1508,67
1509,67
1510,67
1511,67
1512,67
1513,67
1514,67
1515,67
1516,67
1517,67
1518,67
1519,67
1520,67
1521,67
1522,67
1523,67
1524,67
1525,67
1526,68
1527,68
1528,68
1529,68
1530,68
1531,68
1532,68
1533,68
1534,68
1535,68
1536,68
1537,69
1538,69
1539,69
1540,69
1541,69
1542,69
1543,69
1544,69
1545,69
1546,69
1547,69
1548,69
1549,69
1550,70
1551,70
1552,70
1553,70
1554,70
1555,70
1556,70
1557,70
1558,70
1559,70
1560,70
1561,70
1562,70
1563,70
1564,70
1565,70
1566,70
1567,70
1568,70
1569,70
1570,70
1571,70
1572,70
1573,70
1574,70
1575,70
1576,70
1577,70
1578,70
1579,70
1580,70
1581,70
1582,70
1583,70
1584,70
1585,70
1586,70
1587,70
1588,70
1589,70
1590,70
1591,70
1592,70
1593,70
1594,71
1595,71
1596,71
1597,71
1598,71
1599,71
1600,71
1601,71
1602,71
1603,72
1604,72
1605,72
1606,72
1607,72
1608,72
1609,72
1610,72
1611,72
1612,72
1613,72
1614,72
1615,72
1616,72
1617,72
1618,72
1619,72
1620,72
1621,72
1622,72
1623,72
1624,72
1625,72
1626,72
1627,72
1628,72
1629,72
1630,72
1631,72
1632,72
1633,72
1634,72
1635,72
1636,72
1637,72
1638,72
1639,72
1640,72
1641,72
1642,72
1643,72
1644,72
1645,72
1646,72
1647,72
1648,72
1649,72
1650,72
1651,72
1652,72
1653,72
1654,72
1655,72
1656,72
1657,72
1658,72
1659,72
1660,72
1661,72
1662,72
1663,72
1664,72
1665,72
1666,72
1667,72
1668,72
1669,72
1670,72
1671,72
1672,72
1673,72
1674,72
1675,72
1676,72
1677,72
1678,72
1679,72
1680,72
1681,73
1682,73
1683,73
1684,73
1685,73
1686,73
1687,73
1688,73
1689,73
1690,73
1691,73
1692,73
1693,73
1694,73
1695,73
1696,73
1697,73
1698,73
1699,73
1700,73
1701,73
1702,73
1703,73
1704,73
1705,73
1706,73
1707,73
1708,73
1709,74
1710,74
1711,74
1712,74
1713,74
1714,74
1715,74
1716,74
1717,74
1718,74
1719,74
1720,74
1721,74
1722,74
1723,74
1724,74
1725,74
1726,75
1727,75
1728,75
1729,75
1730,75
1731,75
1732,75
1733,76
1734,76
1735,76
1736,76
1737,76
1738,76
1739,76
1740,76
1741,76
1742,76
1743,76
1744,76
1745,76
1746,76
1747,76
1748,76
1749,77
1750,77
1751,77
1752,77
1753,77
1754,77
1755,77
1756,77
1757,77
1758,77
1759,77
1760,77
1761,77
1762,77
1763,77
1764,77
1765,77
1766,77
1767,77
1768,77
1769,77
1770,78
1771,78
1772,78
1773,78
1774,78
1775,78
1776,78
1777,78
1778,78
1779,78
1780,78
1781,78
1782,78
1783,78
1784,78
1785,78
1786,78
1787,78
1788,79
1789,79
1790,79
1791,79
1792,79
1793,79
1794,79
1795,79
1796,79
1797,79
1798,79
1799,79
1800,80
1801,80
1802,80
1803,81
1804,81
1805,81
1806,81
1807,81
1808,81
1809,81
1810,81
1811,81
1812,81
1813,81
1814,81
1815,81
1816,82
1817,82
1818,82
1819,82
1820,82
1821,83
1822,83
1823,83
1824,83
1825,83
1826,83
1827,84
1828,84
1829,84
1830,84
1831,84
1832,84
1833,84
1834,84
1835,84
1836,84
1837,84
1838,84
1839,84
1840,84
1841,84
1842,84
1843,84
1844,84
1845,84
1846,85
1847,85
1848,85
1849,85
1850,85
1851,85
1852,85
1853,85
1854,85
1855,85
1856,85
1857,85
1858,85
1859,85
1860,85
1861,85
1862,85
1863,85
1864,85
1865,85
1866,85
1867,85
1868,85
1869,85
1870,85
1871,85
1872,85
1873,85
1874,85
1875,85
1876,85
1877,85
1878,85
1879,85
1880,85
1881,85
1882,85
1883,85
1884,85
1885,85
1886,85
1887,85
1888,85
1889,85
1890,85
1891,85
1892,85
1893,85
1894,85
1895,85
1896,85
1897,86
1898,86
1899,86
1900,86
1901,86
1902,86
1903,86
1904,86
1905,86
1906,86
1907,86
1908,86
1909,86
1910,86
1911,86
1912,86
1913,86
1914,86
1915,86
1916,86
1917,86
1918,86
1919,86
1920,86
1921,86
1922,86
1923,86
1924,86
1925,86
1926,86
1927,86
1928,86
1929,86
1930,86
1931,86
1932,86
1933,86
1934,86
1935,86
1936,86
1937,86
1938,86
1939,87
1940,87
1941,87
1942,87
1943,87
1944,87
1945,87
1946,87
1947,87
1948,87
1949,88
1950,88
1951,88
1952,88
1953,88
1954,88
1955,88
1956,88
1957,88
1958,88
1959,88
1960,88
1961,88
1962,88
1963,88
1964,88
1965,88
1966,88
1967,88
1968,88
1969,88
1970,88
1971,88
1972,88
1973,88
1974,88
1975,88
1976,88
1977,88
1978,89
1979,89
1980,89
1981,89
1982,90
1983,90
1984,90
1985,90
1986,90
1987,90
1988,90
1989,90
1990,90
1991,90
1992,90
1993,90
1994,90
1995,90
1996,90
1997,90
1998,91
1999,91
2000,91
