"tick","total"
0,0
1,0
2,0
3,0
4,0
5,0
6,0
7,0
8,0
9,0
10,0
11,0
12,0
13,0
14,0
15,0
16,0
17,0
18,0
19,0
20,0
21,0
22,0
23,0
24,0
25,0
26,0
27,0
28,0
29,0
30,0
31,0
32,0
33,0
34,0
35,0
36,0
37,0
38,0
39,0
40,0
41,0
42,0
43,0
44,0
45,0
46,0
47,0
48,0
49,0
50,0
51,0
52,0
53,0
54,0
55,0
56,0
57,0
58,0
59,0
60,0
61,0
62,0
63,0
64,0
65,0
66,0
67,0
68,0
69,0
70,0
71,0
72,0
73,0
74,0
75,0
76,0
77,0
78,0
79,0
80,0
81,0
82,0
83,0
84,0
85,0
86,0
87,0
88,0
89,0
90,0
91,0
92,0
93,0
94,0
95,0
96,0
97,0
98,0
99,0
100,0
101,0
102,0
103,0
104,0
105,0
106,0
107,0
108,0
109,0
110,0
111,0
112,0
113,0
114,0
115,0
116,0
117,0
118,0
119,0
120,0
121,0
122,0
123,0
124,0
125,0
126,0
127,0
128,0
129,0
130,0
131,0
132,0
133,0
134,0
135,0
136,0
137,0
138,0
139,0
140,0
141,0
142,0
143,0
144,0
145,0
146,0
147,0
148,0
149,0
150,0
151,0
152,0
153,0
154,0
155,0
156,0
157,0
158,0
159,0
160,0
161,0
162,0
163,0
164,0
165,1
166,1
167,1
168,1
169,1
170,1
171,1
172,1
173,1
174,1
175,1
176,1
177,1
178,1
179,1
180,1
181,1
182,1
183,1
184,1
185,1
186,1
187,1
188,1
189,1
190,1
191,1
192,1
193,1
194,1
195,1
196,1
197,1
198,1
199,1
200,1
201,1
202,1
203,1
204,1
205,1
206,1
207,1
208,1
209,1
210,1
211,1
212,1
213,1
214,1
215,1
216,1
217,1
218,1
219,1
220,1
221,1
222,1
223,1
224,1
225,1
226,2
227,2
228,2
229,2
230,2
231,2
232,2
233,2
234,2
235,2
236,2
237,2
238,3
239,3
240,3
241,3
242,3
243,3
244,3
245,3
246,3
247,4
248,4
249,4
250,4
251,4
252,4
253,4
254,4
255,4
256,4
257,5
258,5
259,6
260,6
261,6
262,6
263,6
264,6
265,6
266,6
267,6
268,6
269,7
270,7
271,7
272,7
273,7
274,7
275,7
276,7
277,7
278,7
279,7
280,7
281,7
282,7
283,7
284,7
285,7
286,7
287,7
288,7
289,7
290,7
291,7
292,7
293,7
294,7
295,7
296,7
297,7
298,7
299,7
300,8
301,8
302,8
303,8
304,8
305,8
306,8
307,8
308,8
309,9
310,9
311,9
312,9
313,9
314,9
315,9
316,9
317,9
318,9
319,9
320,9
321,9
322,9
323,10
324,10
325,10
326,10
327,10
328,10
329,10
330,10
331,11
332,11
333,11
334,11
335,11
336,11
337,11
338,11
339,11
340,12
341,12
342,12
343,12
344,12
345,12
346,12
347,12
348,12
349,12
350,12
351,12
352,12
353,12
354,12
355,12
356,12
357,12
358,12
359,12
360,13
361,13
362,13
363,13
364,13
365,14
366,14
367,14
368,14
369,14
370,15
371,16
372,16
373,16
374,16
375,16
376,16
377,16
378,16
379,16
380,16
381,16
382,16
383,16
384,17
385,17
386,17
387,17
388,17
389,17
390,17
391,17
392,17
393,17
394,17
395,17
396,17
397,17
398,17
399,17
400,17
401,17
402,17
403,17
404,17
405,17
406,17
407,17
408,17
409,17
410,17
411,17
412,17
413,17
414,17
415,17
416,17
417,18
418,18
419,18
420,18
421,18
422,18
423,18
424,18
425,18
426,19
427,19
428,19
429,19
430,19
431,19
432,19
433,19
434,19
435,19
436,19
437,19
438,19
439,19
440,19
441,19
442,20
443,20
444,20
445,20
446,20
447,20
448,20
449,20
450,21
451,21
452,21
453,21
454,21
455,21
456,21
457,21
458,21
459,21
460,21
461,21
462,21
463,21
464,21
465,22
466,22
467,22
468,22
469,22
470,22
471,22
472,22
473,22
474,22
475,22
476,22
477,22
478,23
479,23
480,23
481,24
482,24
483,25
484,25
485,25
486,25
487,25
488,25
489,25
490,25
491,25
492,25
493,25
494,25
495,25
496,25
497,26
498,26
499,26
500,26
501,26
502,26
503,26
504,26
505,27
506,27
507,27
508,27
509,27
510,27
511,27
512,27
513,27
514,27
515,27
516,27
517,27
518,27
519,27
520,27
521,28
522,28
523,28
524,28
525,28
526,28
527,28
528,28
529,28
530,28
531,28
532,28
533,28
534,28
535,28
536,28
537,28
538,28
539,28
540,28
541,28
542,28
543,28
544,28
545,28
546,28
547,28
548,28
549,28
550,28
551,28
552,28
553,29
554,29
555,29
556,29
557,29
558,29
559,29
560,29
561,29
562,29
563,29
564,30
565,30
566,30
567,30
568,30
569,30
570,30
571,30
572,30
573,30
574,30
575,30
576,30
577,30
578,30
579,30
580,30
581,30
582,30
583,30
584,30
585,30
586,30
587,30
588,30
589,30
590,30
591,30
592,30
593,30
594,30
595,30
596,30
597,30
598,30
599,30
600,30
601,30
602,30
603,30
604,30
605,31
606,31
607,31
608,31
609,31
610,31
611,31
612,31
613,31
614,31
615,31
616,31
617,31
618,31
619,31
620,31
621,31
622,31
623,31
624,31
625,31
626,31
627,31
628,31
629,31
630,31
631,31
632,31
633,31
634,32
635,32
636,32
637,32
638,32
639,32
640,32
641,32
642,32
643,32
644,32
645,32
646,32
647,32
648,32
649,32
650,32
651,32
652,32
653,32
654,32
655,32
656,32
657,32
658,32
659,32
660,34
661,34
662,34
663,34
664,34
665,34
666,34
667,34
668,34
669,34
670,34
671,34
672,34
673,35
674,35
675,35
676,35
677,35
678,35
679,35
680,35
681,35
682,35
683,35
684,35
685,35
686,35
687,35
688,35
689,35
690,35
691,35
692,35
693,35
694,35
695,35
696,35
697,35
698,35
699,35
700,35
701,35
702,35
703,35
704,35
705,35
706,35
707,35
708,36
709,36
710,36
711,36
712,36
713,36
714,36
715,36
716,36
717,36
718,36
719,36
720,36
721,36
722,36
723,36
724,36
725,36
726,36
727,36
728,36
729,36
730,36
731,36
732,36
733,36
734,36
735,36
736,36
737,36
738,37
739,37
740,37
741,37
742,37
743,37
744,37
745,37
746,37
747,37
748,37
749,37
750,37
751,37
752,37
753,37
754,37
755,37
756,37
757,37
758,37
759,37
760,37
761,37
762,37
763,37
764,37
765,37
766,37
767,37
768,37
769,38
770,38
771,38
772,38
773,38
774,38
775,38
776,38
777,38
778,38
779,38
780,38
781,38
782,38
783,38
784,38
785,38
786,38
787,38
788,38
789,38
790,38
791,38
792,38
793,38
794,38
795,38
796,39
797,39
798,39
799,39
800,39
801,39
802,39
803,39
804,39
805,39
806,39
807,40
808,41
809,41
810,41
811,41
812,41
813,41
814,41
815,41
816,41
817,41
818,41
819,41
820,41
821,41
822,41
823,42
824,42
825,42
826,42
827,42
828,43
829,43
830,43
831,43
832,43
833,43
834,44
835,44
836,44
837,44
838,44
839,44
840,44
841,44
842,44
843,44
844,44
845,45
846,45
847,45
848,45
849,45
850,45
851,45
852,45
853,45
854,45
855,45
856,45
857,45
858,45
859,45
860,45
861,45
862,45
863,45
864,45
865,45
866,45
867,45
868,45
869,45
870,45
871,45
872,45
873,46
874,46
875,46
876,47
877,47
878,47
879,47
880,47
881,47
882,47
883,47
884,47
885,47
886,47
887,47
888,47
889,47
890,47
891,48
892,48
893,48
894,48
895,48
896,48
897,48
898,48
899,48
900,48
901,48
902,48
903,48
904,48
905,48
906,48
907,48
908,48
909,48
910,48
911,48
912,48
913,48
914,48
915,48
916,48
917,48
918,48
919,48
920,48
921,48
922,48
923,48
924,48
925,48
926,48
927,48
928,48
929,48
930,48
931,48
932,48
933,48
934,48
935,48
936,48
937,48
938,48
939,48
940,48
941,48
942,48
943,48
944,48
945,48
946,48
947,50
948,50
949,51
950,51
951,51
952,52
953,52
954,52
955,52
956,52
957,52
958,52
959,52
960,53
961,53
962,53
963,54
964,54
965,54
966,54
967,54
968,54
969,54
970,54
971,54
972,54
973,55
974,55
975,55
976,55
977,55
978,55
979,55
980,55
981,56
982,57
983,58
984,59
985,60
986,61
987,62
988,64
989,65
990,66
991,67
992,67
993,67
994,68
995,68
996,68
997,68
998,68
999,68
1000,68
1001,68
1002,68
1003,68
1004,68
1005,68
1006,68
1007,68
1008,68
1009,68
1010,68
1011,68
1012,68
1013,68
1014,68
1015,68
1016,68
1017,68
1018,68
1019,68
1020,68
1021,68
1022,68
1023,68
1024,68
1025,68
1026,68
1027,68
1028,68
1029,68
1030,68
1031,68
1032,68
1033,68
1034,68
1035,68
1036,68
1037,68
1038,68
1039,68
1040,68
1041,68
1042,68
1043,68
1044,68
1045,68
1046,68
1047,68
1048,68
1049,68
1050,68
1051,68
1052,68
1053,68
1054,68
1055,68
1056,68
1057,68
1058,68
1059,68
1060,68
1061,68
1062,68
1063,68
1064,69
1065,69
1066,69
1067,69
1068,69
1069,69
1070,69
1071,69
1072,69
1073,69
1074,69
1075,69
1076,69
1077,69
1078,69
1079,69
1080,69
1081,69
1082,69
1083,69
1084,69
1085,69
1086,69
1087,69
1088,69
1089,69
1090,69
1091,69
1092,69
1093,69
1094,69
1095,69
1096,70
1097,70
1098,70
1099,70
1100,70
1101,70
1102,70
1103,70
1104,70
1105,70
1106,70
1107,70
1108,70
1109,70
1110,70
1111,70
1112,70
1113,70
1114,71
1115,71
1116,71
1117,71
1118,72
1119,72
1120,72
1121,72
1122,72
1123,72
1124,72
1125,72
1126,72
1127,72
1128,72
1129,72
1130,72
1131,73
1132,73
1133,73
1134,73
1135,73
1136,73
1137,73
1138,73
1139,73
1140,73
1141,73
1142,73
1143,73
1144,73
1145,73
1146,73
1147,73
1148,73
1149,73
1150,73
1151,73
1152,73
1153,73
1154,73
1155,73
1156,73
1157,73
1158,73
1159,73
1160,73
1161,73
1162,73
1163,73
1164,73
1165,73
1166,73
1167,73
1168,73
1169,73
1170,73
1171,73
1172,73
1173,73
1174,73
1175,73
1176,73
1177,73
1178,73
1179,73
1180,73
1181,73
1182,73
1183,73
1184,73
1185,74
1186,75
1187,75
1188,75
1189,75
1190,75
1191,75
1192,75
1193,75
1194,75
1195,75
1196,75
1197,76
1198,76
1199,76
1200,76
1201,76
1202,76
1203,76
1204,76
1205,76
1206,76
1207,76
1208,76
1209,76
1210,76
1211,76
1212,76
1213,76
1214,76
1215,76
1216,76
1217,76
1218,76
1219,76
1220,76
1221,76
1222,76
1223,76
1224,76
1225,76
1226,76
1227,76
1228,76
1229,76
1230,76
1231,76
1232,76
1233,77
1234,77
1235,77
1236,77
1237,77
1238,77
1239,77
1240,78
1241,79
1242,79
1243,79
1244,79
1245,79
1246,79
1247,79
1248,79
1249,79
1250,79
1251,79
1252,79
1253,79
1254,79
1255,79
1256,79
1257,79
1258,79
1259,79
1260,79
1261,79
1262,80
1263,80
1264,80
1265,80
1266,80
1267,80
1268,80
1269,80
1270,80
1271,80
1272,80
1273,80
1274,80
1275,80
1276,80
1277,80
1278,80
1279,80
1280,80
1281,80
1282,80
1283,80
1284,80
1285,80
1286,80
1287,80
1288,80
1289,80
1290,80
1291,80
1292,80
1293,80
1294,80
1295,80
1296,80
1297,80
1298,80
1299,80
1300,80
1301,80
1302,80
1303,80
1304,80
1305,80
1306,80
1307,80
1308,80
1309,80
1310,80
1311,80
1312,80
1313,81
1314,82
1315,82
1316,82
1317,83
1318,83
1319,83
1320,83
1321,83
1322,84
1323,84
1324,84
1325,84
1326,84
1327,84
1328,84
1329,84
1330,84
1331,84
1332,84
1333,84
1334,84
1335,84
1336,84
1337,84
1338,84
1339,84
1340,84
1341,84
1342,84
1343,84
1344,84
1345,84
1346,84
1347,85
1348,85
1349,85
1350,85
1351,85
1352,85
1353,85
1354,85
1355,85
1356,85
1357,85
1358,85
1359,85
1360,86
1361,86
1362,86
1363,86
1364,86
1365,86
1366,86
1367,86
1368,86
1369,86
1370,86
1371,86
1372,86
1373,86
1374,86
1375,86
1376,86
1377,86
1378,86
1379,86
1380,86
1381,86
1382,86
1383,86
1384,86
1385,86
1386,87
1387,87
1388,87
1389,87
1390,87
1391,87
1392,88
1393,88
1394,89
1395,89
1396,89
1397,89
1398,89
1399,89
1400,89
1401,89
1402,90
1403,90
1404,90
1405,90
1406,90
1407,90
1408,90
1409,90
1410,90
1411,91
1412,91
1413,91
1414,91
1415,91
1416,91
1417,91
1418,91
1419,91
1420,92
1421,93
1422,94
1423,95
1424,96
1425,97
1426,98
1427,99
1428,100
1429,101
1430,101
1431,101
1432,101
1433,101
1434,101
1435,103
1436,103
1437,103
1438,103
1439,103
1440,103
1441,103
1442,103
1443,103
1444,104
1445,104
1446,104
1447,104
1448,104
1449,104
1450,104
1451,104
1452,104
1453,104
1454,104
1455,104
1456,104
1457,104
1458,104
1459,104
1460,104
1461,104
1462,104
1463,104
1464,104
1465,104
1466,104
1467,104
1468,104
1469,104
1470,104
1471,104
1472,104
1473,104
1474,104
1475,104
1476,104
1477,104
1478,104
1479,104
1480,104
1481,104
1482,104
1483,104
1484,104
1485,104
1486,104
1487,104
1488,104
1489,104
1490,104
1491,104
1492,104
1493,104
1494,104
1495,104
1496,104
1497,104
1498,104
1499,104
1500,104
1501,104
1502,104
1503,104
1504,104
1505,104
1506,104
1507,104
1508,104
1509,104
1510,104
1511,104
1512,104
1513,104
1514,104
1515,104
1516,104
1517,104
1518,104
1519,104
1520,104
1521,104
1522,104
1523,104
1524,104
1525,104
1526,104
1527,104
1528,104
1529,104
1530,104
1531,104
1532,104
1533,104
1534,104
1535,104
1536,104
1537,104
1538,104
1539,104
1540,104
1541,104
1542,104
1543,104
1544,104
1545,104
1546,104
1547,104
1548,104
1549,105
1550,105
1551,105
1552,105
1553,105
1554,105
1555,105
1556,105
1557,105
1558,105
1559,105
1560,105
1561,105
1562,105
1563,105
1564,105
1565,105
1566,106
1567,106
1568,106
1569,106
1570,106
1571,106
1572,106
1573,106
1574,106
1575,106
1576,107
1577,107
1578,107
1579,107
1580,107
1581,107
1582,107
1583,107
1584,107
1585,107
1586,107
1587,107
1588,107
1589,107
1590,107
1591,107
1592,107
1593,107
1594,107
1595,107
1596,107
1597,107
1598,107
1599,107
1600,107
1601,107
1602,107
1603,107
1604,107
1605,107
1606,108
1607,108
1608,108
1609,108
1610,108
1611,108
1612,108
1613,108
1614,108
1615,108
1616,108
1617,109
1618,109
1619,109
1620,109
1621,109
1622,109
1623,109
1624,109
1625,109
1626,109
1627,109
1628,109
1629,109
1630,109
1631,109
1632,109
1633,109
1634,109
1635,109
1636,109
1637,109
1638,109
1639,109
1640,109
1641,109
1642,109
1643,109
1644,109
1645,109
1646,109
1647,109
1648,109
1649,109
1650,109
1651,109
1652,109
1653,109
1654,109
1655,109
1656,109
1657,109
1658,109
1659,109
1660,109
1661,109
1662,109
1663,109
1664,109
1665,109
1666,109
1667,109
1668,109
1669,109
1670,109
1671,109
1672,109
1673,110
1674,110
1675,110
1676,110
1677,110
1678,110
1679,112
1680,112
1681,112
1682,112
1683,112
1684,112
1685,112
1686,112
1687,112
1688,112
1689,112
1690,112
1691,114
1692,114
1693,114
1694,114
1695,114
1696,114
1697,114
1698,114
1699,114
1700,115
1701,115
1702,115
1703,115
1704,115
1705,115
1706,115
1707,115
1708,115
1709,115
1710,115
1711,115
1712,115
1713,115
1714,115
1715,115
1716,115
1717,115
1718,115
1719,115
1720,115
1721,115
1722,115
1723,115
1724,115
1725,115
1726,115
1727,115
1728,115
1729,115
1730,115
1731,115
1732,115
1733,115
1734,115
1735,115
1736,115
1737,116
1738,116
1739,116
1740,116
1741,116
1742,116
1743,116
1744,116
1745,116
1746,116
1747,116
1748,116
1749,116
1750,116
1751,116
1752,116
1753,116
1754,116
1755,116
1756,116
1757,116
1758,116
1759,116
1760,117
1761,117
1762,117
1763,117
1764,117
1765,117
1766,117
1767,117
1768,117
1769,117
1770,117
1771,117
1772,117
1773,118
1774,118
1775,118
1776,118
1777,118
1778,118
1779,118
1780,118
1781,118
1782,118
1783,118
1784,118
1785,118
1786,118
1787,118
1788,118
1789,118
1790,118
1791,118
1792,118
1793,118
1794,118
1795,118
1796,118
1797,118
1798,119
1799,120
1800,120
1801,120
1802,120
1803,120
1804,120
1805,120
1806,120
1807,120
1808,120
1809,120
1810,120
1811,120
1812,120
1813,120
1814,120
1815,120
1816,120
1817,120
1818,120
1819,120
1820,120
1821,120
1822,120
1823,120
1824,120
1825,121
1826,121
1827,121
1828,121
1829,121
1830,121
1831,121
1832,121
1833,121
1834,121
1835,121
1836,121
1837,121
1838,121
1839,121
1840,121
1841,121
1842,121
1843,121
1844,121
1845,121
1846,121
1847,121
1848,121
1849,121
1850,121
1851,121
1852,121
1853,121
1854,121
1855,122
1856,122
1857,122
1858,122
1859,122
1860,122
1861,122
1862,122
1863,122
1864,122
1865,122
1866,122
1867,122
1868,122
1869,122
1870,122
1871,122
1872,122
1873,122
1874,122
1875,122
1876,122
1877,122
1878,122
1879,122
1880,122
1881,122
1882,122
1883,122
1884,122
1885,122
1886,122
1887,122
1888,122
1889,122
1890,122
1891,122
1892,122
1893,122
1894,122
1895,122
1896,122
1897,122
1898,122
1899,122
1900,122
1901,122
1902,122
1903,122
1904,122
1905,122
1906,122
1907,122
1908,122
1909,122
1910,122
1911,122
1912,122
1913,122
1914,122
1915,122
1916,122
1917,122
1918,123
1919,123
1920,123
1921,123
1922,123
1923,123
1924,123
1925,123
1926,123
1927,123
1928,123
1929,123
1930,123
1931,123
1932,123
1933,123
1934,123
1935,123
1936,123
1937,123
1938,123
1939,123
1940,123
1941,123
1942,123
1943,123
1944,123
1945,123
1946,123
1947,123
1948,124
1949,124
1950,124
1951,124
1952,124
1953,124
1954,124
1955,124
1956,124
1957,124
1958,124
1959,124
1960,124
1961,124
1962,124
1963,124
1964,124
1965,124
1966,124
1967,124
1968,124
1969,124
1970,124
1971,124
1972,124
1973,124
1974,124
1975,125
1976,125
1977,125
1978,125
1979,125
1980,125
1981,125
1982,126
1983,126
1984,126
1985,126
1986,126
1987,126
1988,126
1989,126
1990,126
1991,126
1992,126
1993,126
1994,126
1995,126
1996,126
1997,127
1998,127
1999,127
2000,127
