"tick","total"
0,0
1,0
2,0
3,0
4,0
5,0
6,0
7,0
8,0
9,0
10,0
11,0
12,0
13,0
14,0
15,0
16,0
17,0
18,0
19,0
20,0
21,0
22,0
23,0
24,0
25,0
26,0
27,0
28,0
29,0
30,0
31,0
32,0
33,0
34,0
35,0
36,0
37,0
38,0
39,0
40,0
41,0
42,0
43,0
44,0
45,0
46,0
47,0
48,0
49,0
50,0
51,0
52,0
53,0
54,0
55,0
56,0
57,0
58,0
59,0
60,0
61,0
62,0
63,0
64,0
65,0
66,0
67,0
68,0
69,0
70,0
71,0
72,0
73,0
74,0
75,0
76,0
77,0
78,0
79,0
80,0
81,0
82,0
83,0
84,0
85,0
86,0
87,0
88,0
89,0
90,0
91,0
92,0
93,0
94,0
95,0
96,0
97,0
98,0
99,0
100,0
101,0
102,0
103,0
104,0
105,0
106,0
107,0
108,0
109,0
110,0
111,0
112,0
113,0
114,0
115,0
116,0
117,0
118,0
119,0
120,0
121,0
122,0
123,0
124,0
125,0
126,0
127,0
128,0
129,0
130,0
131,0
132,0
133,0
134,0
135,0
136,0
137,0
138,0
139,0
140,0
141,0
142,0
143,0
144,0
145,0
146,0
147,0
148,0
149,0
150,0
151,0
152,0
153,0
154,0
155,0
156,0
157,0
158,0
159,0
160,0
161,0
162,0
163,0
164,0
165,0
166,0
167,0
168,0
169,0
170,0
171,0
172,0
173,0
174,0
175,0
176,0
177,0
178,0
179,0
180,0
181,0
182,0
183,0
184,0
185,0
186,0
187,0
188,0
189,0
190,0
191,0
192,0
193,0
194,0
195,0
196,0
197,0
198,0
199,0
200,0
201,0
202,0
203,0
204,0
205,0
206,0
207,0
208,0
209,0
210,0
211,0
212,0
213,0
214,0
215,0
216,0
217,0
218,0
219,0
220,0
221,0
222,0
223,0
224,0
225,0
226,0
227,0
228,0
229,0
230,0
231,0
232,0
233,0
234,1
235,1
236,1
237,1
238,1
239,1
240,1
241,1
242,1
243,1
244,1
245,1
246,1
247,1
248,1
249,1
250,2
251,2
252,2
253,2
254,2
255,3
256,3
257,3
258,3
259,3
260,3
261,3
262,3
263,3
264,3
265,3
266,3
267,3
268,3
269,3
270,3
271,3
272,3
273,3
274,4
275,4
276,4
277,4
278,4
279,4
280,4
281,4
282,4
283,4
284,4
285,4
286,4
287,4
288,4
289,4
290,4
291,4
292,5
293,5
294,5
295,5
296,5
297,5
298,5
299,5
300,5
301,5
302,5
303,5
304,5
305,5
306,6
307,6
308,6
309,6
310,7
311,7
312,8
313,8
314,8
315,8
316,8
317,8
318,8
319,8
320,8
321,9
322,9
323,9
324,9
325,10
326,10
327,10
328,10
329,10
330,10
331,10
332,10
333,10
334,10
335,11
336,12
337,12
338,12
339,12
340,12
341,12
342,12
343,12
344,13
345,13
346,13
347,13
348,13
349,13
350,13
351,13
352,13
353,13
354,14
355,14
356,14
357,14
358,14
359,14
360,14
361,14
362,14
363,15
364,15
365,15
366,15
367,15
368,15
369,15
370,15
371,15
372,15
373,15
374,15
375,15
376,16
377,16
378,16
379,16
380,16
381,16
382,16
383,16
384,16
385,16
386,16
387,16
388,16
389,16
390,16
391,16
392,16
393,16
394,16
395,16
396,16
397,16
398,16
399,16
400,16
401,16
402,17
403,17
404,17
405,17
406,17
407,17
408,17
409,17
410,17
411,18
412,18
413,18
414,18
415,18
416,18
417,18
418,18
419,18
420,18
421,18
422,18
423,18
424,18
425,18
426,18
427,18
428,18
429,18
430,18
431,18
432,18
433,18
434,18
435,18
436,18
437,18
438,18
439,19
440,19
441,19
442,19
443,19
444,19
445,20
446,20
447,20
448,21
449,21
450,21
451,21
452,21
453,21
454,21
455,21
456,21
457,21
458,21
459,21
460,21
461,21
462,21
463,21
464,21
465,21
466,21
467,21
468,22
469,23
470,23
471,23
472,23
473,23
474,23
475,23
476,24
477,24
478,24
479,24
480,24
481,24
482,24
483,24
484,24
485,24
486,24
487,24
488,24
489,24
490,24
491,24
492,24
493,24
494,24
495,24
496,24
497,24
498,24
499,24
500,24
501,24
502,24
503,24
504,24
505,24
506,24
507,24
508,24
509,24
510,24
511,24
512,24
513,24
514,24
515,24
516,24
517,24
518,24
519,24
520,24
521,24
522,24
523,24
524,24
525,24
526,24
527,24
528,24
529,24
530,24
531,24
532,24
533,24
534,24
535,24
536,24
537,24
538,24
539,24
540,24
541,24
542,24
543,24
544,24
545,24
546,24
547,24
548,24
549,24
550,24
551,24
552,24
553,24
554,24
555,25
556,25
557,25
558,25
559,25
560,25
561,25
562,25
563,25
564,26
565,26
566,26
567,26
568,26
569,26
570,26
571,26
572,26
573,26
574,26
575,26
576,26
577,26
578,26
579,26
580,26
581,26
582,26
583,26
584,26
585,26
586,26
587,26
588,26
589,26
590,26
591,26
592,26
593,26
594,26
595,26
596,26
597,26
598,26
599,26
600,26
601,26
602,26
603,26
604,26
605,26
606,26
607,26
608,26
609,26
610,26
611,26
612,26
613,26
614,26
615,26
616,26
617,26
618,26
619,26
620,26
621,26
622,26
623,26
624,26
625,26
626,26
627,26
628,26
629,26
630,26
631,26
632,26
633,26
634,26
635,26
636,26
637,26
638,26
639,26
640,26
641,26
642,26
643,26
644,26
645,26
646,26
647,26
648,26
649,26
650,26
651,26
652,26
653,26
654,26
655,26
656,26
657,26
658,26
659,26
660,26
661,26
662,26
663,26
664,26
665,26
666,26
667,26
668,26
669,26
670,26
671,26
672,26
673,26
674,26
675,26
676,26
677,26
678,26
679,26
680,26
681,26
682,26
683,26
684,26
685,27
686,27
687,27
688,27
689,27
690,27
691,27
692,27
693,27
694,27
695,27
696,27
697,27
698,28
699,28
700,28
701,28
702,28
703,28
704,28
705,28
706,28
707,28
708,28
709,28
710,28
711,29
712,29
713,29
714,29
715,29
716,29
717,29
718,29
719,29
720,29
721,29
722,29
723,29
724,30
725,30
726,30
727,30
728,30
729,31
730,31
731,31
732,31
733,31
734,31
735,31
736,32
737,32
738,32
739,32
740,32
741,32
742,32
743,32
744,32
745,32
746,32
747,32
748,33
749,34
750,34
751,34
752,34
753,34
754,34
755,35
756,35
757,35
758,35
759,35
760,35
761,35
762,35
763,36
764,37
765,37
766,37
767,37
768,37
769,37
770,37
771,37
772,38
773,38
774,38
775,38
776,38
777,38
778,38
779,38
780,38
781,38
782,38
783,38
784,38
785,38
786,38
787,38
788,38
789,38
790,38
791,38
792,38
793,38
794,38
795,38
796,38
797,38
798,38
799,38
800,38
801,38
802,38
803,38
804,38
805,39
806,39
807,40
808,40
809,40
810,40
811,40
812,40
813,40
814,41
815,41
816,41
817,41
818,41
819,41
820,41
821,41
822,41
823,41
824,41
825,41
826,41
827,41
828,41
829,41
830,42
831,42
832,42
833,42
834,42
835,42
836,42
837,43
838,43
839,43
840,43
841,43
842,43
843,43
844,43
845,43
846,43
847,43
848,43
849,43
850,43
851,43
852,44
853,44
854,44
855,44
856,44
857,44
858,44
859,44
860,44
861,44
862,44
863,44
864,44
865,44
866,44
867,44
868,44
869,44
870,44
871,44
872,44
873,44
874,44
875,44
876,44
877,44
878,45
879,45
880,46
881,46
882,46
883,46
884,46
885,46
886,46
887,46
888,46
889,46
890,46
891,46
892,46
893,46
894,46
895,46
896,46
897,46
898,46
899,46
900,46
901,47
902,47
903,47
904,47
905,47
906,47
907,47
908,47
909,47
910,47
911,47
912,47
913,47
914,47
915,47
916,47
917,47
918,47
919,47
920,47
921,47
922,47
923,47
924,47
925,47
926,47
927,47
928,47
929,47
930,48
931,48
932,48
933,48
934,48
935,48
936,48
937,48
938,48
939,48
940,48
941,48
942,48
943,48
944,48
945,48
946,48
947,48
948,48
949,48
950,48
951,48
952,48
953,48
954,48
955,48
956,48
957,48
958,48
959,48
960,48
961,48
962,48
963,48
964,48
965,48
966,48
967,48
968,48
969,48
970,48
971,48
972,48
973,48
974,48
975,48
976,48
977,48
978,48
979,48
980,48
981,48
982,48
983,48
984,48
985,48
986,48
987,48
988,48
989,48
990,48
991,48
992,48
993,48
994,48
995,48
996,48
997,48
998,48
999,48
1000,48
1001,48
1002,48
1003,48
1004,48
1005,48
1006,48
1007,48
1008,48
1009,48
1010,48
1011,48
1012,48
1013,48
1014,48
1015,48
1016,48
1017,48
1018,48
1019,48
1020,49
1021,49
1022,49
1023,49
1024,49
1025,49
1026,49
1027,49
1028,49
1029,49
1030,49
1031,49
1032,49
1033,49
1034,49
1035,49
1036,49
1037,49
1038,49
1039,49
1040,49
1041,49
1042,49
1043,49
1044,49
1045,49
1046,49
1047,49
1048,49
1049,49
1050,49
1051,49
1052,49
1053,49
1054,49
1055,49
1056,49
1057,49
1058,49
1059,49
1060,49
1061,49
1062,49
1063,49
1064,49
1065,49
1066,49
1067,49
1068,49
1069,49
1070,49
1071,49
1072,49
1073,49
1074,49
1075,49
1076,49
1077,49
1078,49
1079,49
1080,49
1081,49
1082,49
1083,49
1084,49
1085,49
1086,49
1087,49
1088,49
1089,49
1090,49
1091,49
1092,49
1093,49
1094,49
1095,49
1096,49
1097,49
1098,49
1099,49
1100,49
1101,49
1102,49
1103,49
1104,49
1105,49
1106,49
1107,49
1108,49
1109,49
1110,49
1111,49
1112,49
1113,49
1114,49
1115,49
1116,49
1117,49
1118,49
1119,49
1120,49
1121,49
1122,49
1123,49
1124,49
1125,49
1126,49
1127,49
1128,50
1129,50
1130,50
1131,50
1132,50
1133,50
1134,50
1135,50
1136,50
1137,50
1138,50
1139,50
1140,50
1141,50
1142,50
1143,50
1144,50
1145,50
1146,50
1147,50
1148,50
1149,50
1150,50
1151,50
1152,50
1153,50
1154,50
1155,50
1156,50
1157,50
1158,50
1159,50
1160,50
1161,50
1162,50
1163,50
1164,50
1165,50
1166,50
1167,50
1168,50
1169,50
1170,51
1171,51
1172,51
1173,51
1174,51
1175,51
1176,51
1177,51
1178,51
1179,51
1180,51
1181,51
1182,51
1183,51
1184,51
1185,51
1186,51
1187,51
1188,51
1189,51
1190,51
1191,52
1192,52
1193,52
1194,52
1195,52
1196,52
1197,52
1198,52
1199,52
1200,52
1201,52
1202,52
1203,52
1204,52
1205,52
1206,52
1207,52
1208,54
1209,54
1210,54
1211,54
1212,54
1213,54
1214,54
1215,54
1216,54
1217,54
1218,54
1219,54
1220,54
1221,54
1222,54
1223,54
1224,54
1225,54
1226,54
1227,54
1228,54
1229,54
1230,54
1231,54
1232,54
1233,54
1234,54
1235,54
1236,54
1237,54
1238,54
1239,54
1240,54
1241,54
1242,54
1243,54
1244,54
1245,54
1246,54
1247,54
1248,54
1249,54
1250,54
1251,54
1252,55
1253,55
1254,55
1255,55
1256,55
1257,55
1258,55
1259,55
1260,55
1261,55
1262,55
1263,55
1264,55
1265,55
1266,55
1267,55
1268,55
1269,55
1270,55
1271,55
1272,55
1273,55
1274,55
1275,55
1276,55
1277,55
1278,55
1279,55
1280,55
1281,55
1282,55
1283,55
1284,55
1285,55
1286,55
1287,55
1288,55
1289,55
1290,55
1291,55
1292,55
1293,55
1294,55
1295,55
1296,55
1297,55
1298,55
1299,55
1300,55
1301,55
1302,55
1303,55
1304,55
1305,55
1306,56
1307,56
1308,56
1309,56
1310,56
1311,57
1312,57
1313,57
1314,57
1315,57
1316,57
1317,57
1318,57
1319,57
1320,58
1321,58
1322,58
1323,58
1324,59
1325,60
1326,60
1327,60
1328,60
1329,60
1330,60
1331,60
1332,60
1333,60
1334,60
1335,60
1336,60
1337,60
1338,60
1339,60
1340,60
1341,60
1342,61
1343,61
1344,61
1345,62
1346,62
1347,62
1348,62
1349,62
1350,62
1351,62
1352,62
1353,62
1354,62
1355,62
1356,62
1357,62
1358,62
1359,62
1360,62
1361,62
1362,62
1363,62
1364,62
1365,62
1366,62
1367,62
1368,62
1369,62
1370,62
1371,62
1372,62
1373,62
1374,62
1375,62
1376,62
1377,62
1378,62
1379,62
1380,62
1381,62
1382,62
1383,62
1384,62
1385,62
1386,62
1387,62
1388,62
1389,62
1390,62
1391,62
1392,62
1393,62
1394,62
1395,62
1396,62
1397,63
1398,63
1399,63
1400,63
1401,63
1402,63
1403,63
1404,63
1405,63
1406,63
1407,63
1408,63
1409,63
1410,64
1411,64
1412,64
1413,64
1414,64
1415,64
1416,64
1417,64
1418,64
1419,64
1420,64
1421,64
1422,64
1423,64
1424,64
1425,64
1426,65
1427,65
1428,65
1429,65
1430,65
1431,65
1432,65
1433,65
1434,65
1435,65
1436,65
1437,65
1438,65
1439,65
1440,65
1441,65
1442,65
1443,65
1444,65
1445,65
1446,65
1447,65
1448,65
1449,65
1450,65
1451,65
1452,65
1453,65
1454,65
1455,65
1456,65
1457,66
1458,66
1459,66
1460,66
1461,66
1462,66
1463,66
1464,66
1465,66
1466,66
1467,66
1468,66
1469,66
1470,66
1471,67
1472,67
1473,67
1474,67
1475,67
1476,67
1477,67
1478,67
1479,67
1480,67
1481,67
1482,68
1483,68
1484,69
1485,69
1486,69
1487,69
1488,69
1489,69
1490,69
1491,69
1492,69
1493,69
1494,69
1495,69
1496,69
1497,69
1498,70
1499,71
1500,71
1501,71
1502,71
1503,71
1504,71
1505,72
1506,72
1507,72
1508,72
1509,72
1510,72
1511,72
1512,72
1513,72
1514,73
1515,73
1516,73
1517,73
1518,73
1519,73
1520,73
1521,73
1522,73
1523,74
1524,74
1525,74
1526,74
1527,74
1528,74
1529,74
1530,74
1531,74
1532,74
1533,74
1534,74
1535,74
1536,74
1537,74
1538,74
1539,75
1540,75
1541,75
1542,75
1543,75
1544,75
1545,75
1546,75
1547,75
1548,76
1549,77
1550,77
1551,77
1552,78
1553,78
1554,78
1555,78
1556,78
1557,79
1558,79
1559,79
1560,79
1561,79
1562,79
1563,79
1564,79
1565,79
1566,79
1567,79
1568,79
1569,79
1570,80
1571,80
1572,80
1573,80
1574,80
1575,80
1576,80
1577,81
1578,81
1579,81
1580,81
1581,81
1582,81
1583,81
1584,81
1585,81
1586,82
1587,82
1588,82
1589,82
1590,82
1591,82
1592,82
1593,82
1594,82
1595,82
1596,82
1597,82
1598,82
1599,82
1600,82
1601,82
1602,82
1603,82
1604,82
1605,82
1606,82
1607,82
1608,82
1609,82
1610,82
1611,82
1612,82
1613,82
1614,82
1615,82
1616,82
1617,82
1618,82
1619,82
1620,82
1621,82
1622,82
1623,82
1624,82
1625,82
1626,82
1627,82
1628,82
1629,82
1630,82
1631,82
1632,82
1633,82
1634,82
1635,83
1636,83
1637,83
1638,83
1639,83
1640,83
1641,84
1642,84
1643,84
1644,84
1645,85
1646,85
1647,85
1648,85
1649,85
1650,85
1651,85
1652,85
1653,85
1654,85
1655,85
1656,85
1657,85
1658,85
1659,86
1660,86
1661,86
1662,86
1663,87
1664,87
1665,87
1666,87
1667,88
1668,88
1669,89
1670,89
1671,89
1672,89
1673,89
1674,89
1675,89
1676,89
1677,89
1678,89
1679,89
1680,89
1681,89
1682,89
1683,89
1684,89
1685,89
1686,89
1687,89
1688,89
1689,89
1690,89
1691,89
1692,89
1693,90
1694,90
1695,91
1696,91
1697,91
1698,91
1699,91
1700,91
1701,91
1702,91
1703,91
1704,91
1705,91
1706,91
1707,91
1708,91
1709,91
1710,91
1711,91
1712,91
1713,91
1714,91
1715,91
1716,91
1717,91
1718,91
1719,91
1720,91
1721,91
1722,91
1723,91
1724,92
1725,92
1726,92
1727,92
1728,92
1729,92
1730,92
1731,92
1732,92
1733,92
1734,92
1735,92
1736,92
1737,92
1738,92
1739,92
1740,92
1741,92
1742,92
1743,92
1744,92
1745,92
1746,92
1747,92
1748,92
1749,92
1750,92
1751,92
1752,92
1753,92
1754,92
1755,92
1756,92
1757,92
1758,92
1759,92
1760,92
1761,92
1762,92
1763,92
1764,92
1765,92
1766,92
1767,92
1768,92
1769,92
1770,92
1771,92
1772,92
1773,92
1774,92
1775,92
1776,93
1777,93
1778,93
1779,93
1780,93
1781,93
1782,93
1783,93
1784,93
1785,93
1786,94
1787,94
1788,94
1789,94
1790,94
1791,94
1792,94
1793,94
1794,94
1795,94
1796,94
1797,94
1798,94
1799,94
1800,94
1801,94
1802,94
1803,94
1804,94
1805,94
1806,94
1807,94
1808,94
1809,94
1810,94
1811,94
1812,94
1813,94
1814,94
1815,94
1816,94
1817,94
1818,94
1819,94
1820,94
1821,94
1822,94
1823,94
1824,94
1825,94
1826,95
1827,95
1828,95
1829,95
1830,95
1831,95
1832,95
1833,95
1834,95
1835,95
1836,95
1837,95
1838,95
1839,95
1840,95
1841,95
1842,95
1843,95
1844,95
1845,95
1846,95
1847,95
1848,95
1849,95
1850,95
1851,95
1852,95
1853,95
1854,95
1855,95
1856,95
1857,95
1858,95
1859,95
1860,95
1861,95
1862,95
1863,95
1864,95
1865,96
1866,96
1867,96
1868,96
1869,96
1870,96
1871,96
1872,96
1873,96
1874,96
1875,96
1876,96
1877,96
1878,97
1879,97
1880,97
1881,97
1882,97
1883,97
1884,97
1885,97
1886,97
1887,97
1888,97
1889,97
1890,97
1891,97
1892,97
1893,97
1894,97
1895,97
1896,97
1897,97
1898,97
1899,97
1900,97
1901,97
1902,97
1903,97
1904,97
1905,98
1906,98
1907,98
1908,98
1909,98
1910,98
1911,98
1912,98
1913,98
1914,98
1915,98
1916,98
1917,98
1918,98
1919,98
1920,98
1921,98
1922,98
1923,99
1924,99
1925,99
1926,99
1927,100
1928,100
1929,100
1930,100
1931,100
1932,100
1933,100
1934,100
1935,100
1936,100
1937,100
1938,100
1939,100
1940,100
1941,100
1942,100
1943,100
1944,100
1945,100
1946,100
1947,101
1948,101
1949,101
1950,101
1951,102
1952,102
1953,102
1954,102
1955,102
1956,102
1957,102
1958,102
1959,102
1960,102
1961,102
1962,102
1963,102
1964,102
1965,102
1966,102
1967,102
1968,102
1969,102
1970,102
1971,102
1972,102
1973,102
1974,102
1975,102
1976,102
1977,102
1978,102
1979,102
1980,102
1981,102
1982,102
1983,102
1984,102
1985,102
1986,102
1987,102
1988,102
1989,102
1990,102
1991,102
1992,102
1993,102
1994,102
1995,102
1996,102
1997,102
1998,102
1999,102
2000,102
