"tick","susceptible","exposed","infectious","recovered"
0,99,1,0,0
1,99,1,0,0
2,99,1,0,0
3,99,1,0,0
4,99,1,0,0
5,99,1,0,0
6,99,1,0,0
7,99,1,0,0
8,99,1,0,0
9,99,1,0,0
10,99,1,0,0
11,99,1,0,0
12,99,1,0,0
13,99,1,0,0
14,99,1,0,0
15,99,1,0,0
16,99,1,0,0
17,99,1,0,0
18,99,1,0,0
19,99,1,0,0
20,99,1,0,0
21,99,1,0,0
22,99,1,0,0
23,99,1,0,0
24,99,1,0,0
25,99,1,0,0
26,99,1,0,0
27,99,1,0,0
28,99,1,0,0
29,99,1,0,0
30,99,1,0,0
31,99,1,0,0
32,99,1,0,0
33,99,1,0,0
34,99,1,0,0
35,99,1,0,0
36,99,1,0,0
37,99,1,0,0
38,99,1,0,0
39,99,1,0,0
40,99,1,0,0
41,99,1,0,0
42,99,1,0,0
43,99,1,0,0
44,99,1,0,0
45,99,1,0,0
46,99,1,0,0
47,99,1,0,0
48,99,1,0,0
49,99,1,0,0
50,99,1,0,0
51,99,1,0,0
52,99,1,0,0
53,99,1,0,0
54,99,1,0,0
55,99,1,0,0
56,99,1,0,0
57,99,1,0,0
58,99,1,0,0
59,99,1,0,0
60,99,1,0,0
61,99,1,0,0
62,99,1,0,0
63,99,1,0,0
64,99,1,0,0
65,99,1,0,0
66,99,1,0,0
67,99,1,0,0
68,99,1,0,0
69,99,1,0,0
70,99,1,0,0
71,99,1,0,0
72,99,1,0,0
73,99,1,0,0
74,99,1,0,0
75,99,1,0,0
76,99,1,0,0
77,99,1,0,0
78,99,1,0,0
79,99,1,0,0
80,99,1,0,0
81,99,1,0,0
82,99,1,0,0
83,99,1,0,0
84,99,1,0,0
85,99,1,0,0
86,99,1,0,0
87,99,1,0,0
88,99,1,0,0
89,99,1,0,0
90,99,1,0,0
91,99,1,0,0
92,99,1,0,0
93,99,1,0,0
94,99,1,0,0
95,99,1,0,0
96,99,1,0,0
97,99,1,0,0
98,99,1,0,0
99,99,1,0,0
100,99,1,0,0
101,99,1,0,0
102,99,1,0,0
103,99,1,0,0
104,99,1,0,0
105,99,1,0,0
106,99,1,0,0
107,99,1,0,0
108,99,1,0,0
109,99,1,0,0
110,99,1,0,0
111,99,1,0,0
112,99,1,0,0
113,99,1,0,0
114,99,1,0,0
115,99,1,0,0
116,99,1,0,0
117,99,1,0,0
118,99,1,0,0
119,99,1,0,0
120,99,1,0,0
121,99,1,0,0
122,99,1,0,0
123,99,1,0,0
124,99,1,0,0
125,99,1,0,0
126,99,1,0,0
127,99,1,0,0
128,99,1,0,0
129,99,1,0,0
130,99,1,0,0
131,99,1,0,0
132,99,1,0,0
133,99,1,0,0
134,99,1,0,0
135,99,1,0,0
136,99,1,0,0
137,99,1,0,0
138,99,1,0,0
139,99,1,0,0
140,99,1,0,0
141,99,1,0,0
142,99,1,0,0
143,99,1,0,0
144,99,1,0,0
145,99,1,0,0
146,99,1,0,0
147,99,1,0,0
148,99,1,0,0
149,99,1,0,0
150,99,1,0,0
151,99,1,0,0
152,99,1,0,0
153,99,1,0,0
154,99,1,0,0
155,99,1,0,0
156,99,1,0,0
157,99,1,0,0
158,99,1,0,0
159,99,1,0,0
160,99,1,0,0
161,99,1,0,0
162,99,1,0,0
163,99,1,0,0
164,99,1,0,0
165,99,1,0,0
166,99,1,0,0
167,99,1,0,0
168,99,1,0,0
169,99,1,0,0
170,99,1,0,0
171,99,1,0,0
172,99,1,0,0
173,99,1,0,0
174,99,1,0,0
175,99,1,0,0
176,99,1,0,0
177,99,1,0,0
178,99,1,0,0
179,99,1,0,0
180,99,1,0,0
181,99,1,0,0
182,99,1,0,0
183,99,1,0,0
184,99,1,0,0
185,99,1,0,0
186,99,1,0,0
187,99,1,0,0
188,99,1,0,0
189,99,1,0,0
190,99,1,0,0
191,99,1,0,0
192,99,1,0,0
193,99,1,0,0
194,99,1,0,0
195,99,1,0,0
196,99,1,0,0
197,99,1,0,0
198,99,1,0,0
199,99,1,0,0
200,99,1,0,0
201,98,1,1,0
202,98,1,1,0
203,98,1,1,0
204,98,1,1,0
205,98,1,1,0
206,98,1,1,0
207,98,1,1,0
208,98,1,1,0
209,98,1,1,0
210,98,1,1,0
211,98,1,1,0
212,98,1,1,0
213,98,1,1,0
214,98,1,1,0
215,98,1,1,0
216,98,1,1,0
217,98,1,1,0
218,98,1,1,0
219,98,1,1,0
220,98,1,1,0
221,98,1,1,0
222,98,1,1,0
223,98,1,1,0
224,98,1,1,0
225,98,1,1,0
226,98,1,1,0
227,98,1,1,0
228,98,1,1,0
229,98,1,1,0
230,98,1,1,0
231,98,1,1,0
232,98,1,1,0
233,98,1,1,0
234,98,1,1,0
235,98,1,1,0
236,98,1,1,0
237,98,1,1,0
238,98,1,1,0
239,98,1,1,0
240,98,1,1,0
241,98,1,1,0
242,98,1,1,0
243,98,1,1,0
244,98,1,1,0
245,98,1,1,0
246,98,1,1,0
247,98,1,1,0
248,98,1,1,0
249,98,1,1,0
250,98,1,1,0
251,98,1,1,0
252,98,1,1,0
253,98,1,1,0
254,98,1,1,0
255,98,1,1,0
256,98,1,1,0
257,98,1,1,0
258,98,1,1,0
259,98,1,1,0
260,98,1,1,0
261,98,1,1,0
262,98,1,1,0
263,98,1,1,0
264,98,1,1,0
265,98,1,1,0
266,98,1,1,0
267,98,1,1,0
268,98,1,1,0
269,98,1,1,0
270,98,1,1,0
271,98,1,1,0
272,98,1,1,0
273,98,1,1,0
274,98,1,1,0
275,98,1,1,0
276,98,1,1,0
277,98,1,1,0
278,98,1,1,0
279,98,1,1,0
280,98,1,1,0
281,98,1,1,0
282,98,1,1,0
283,98,1,1,0
284,98,1,1,0
285,98,1,1,0
286,98,1,1,0
287,98,1,1,0
288,98,1,1,0
289,98,1,1,0
290,98,1,1,0
291,98,1,1,0
292,98,1,1,0
293,98,1,1,0
294,98,1,1,0
295,98,1,1,0
296,98,1,1,0
297,98,1,1,0
298,98,1,1,0
299,98,1,1,0
300,98,1,1,0
301,98,1,1,0
302,98,1,1,0
303,98,1,1,0
304,98,1,1,0
305,98,1,1,0
306,98,1,1,0
307,98,1,1,0
308,98,1,1,0
309,98,1,1,0
310,98,1,1,0
311,98,1,1,0
312,98,1,1,0
313,98,1,1,0
314,98,1,1,0
315,98,1,1,0
316,98,1,1,0
317,98,1,1,0
318,98,1,1,0
319,98,1,1,0
320,98,1,1,0
321,98,1,1,0
322,98,1,1,0
323,98,1,1,0
324,98,1,1,0
325,98,1,1,0
326,98,1,1,0
327,98,1,1,0
328,98,1,1,0
329,98,1,1,0
330,98,1,1,0
331,98,1,1,0
332,98,1,1,0
333,98,1,1,0
334,98,1,1,0
335,98,1,1,0
336,98,1,1,0
337,98,1,1,0
338,98,1,1,0
339,98,1,1,0
340,98,1,1,0
341,98,1,1,0
342,98,1,1,0
343,98,1,1,0
344,98,1,1,0
345,98,1,1,0
346,98,1,1,0
347,98,1,1,0
348,98,1,1,0
349,98,1,1,0
350,98,1,1,0
351,98,1,1,0
352,98,1,1,0
353,98,1,1,0
354,98,1,1,0
355,98,1,1,0
356,98,1,1,0
357,98,1,1,0
358,98,1,1,0
359,98,1,1,0
360,98,1,1,0
361,98,1,1,0
362,98,1,1,0
363,98,1,1,0
364,98,1,1,0
365,98,1,1,0
366,98,1,1,0
367,98,1,1,0
368,98,1,1,0
369,98,1,1,0
370,98,1,1,0
371,97,2,1,0
372,97,2,1,0
373,97,2,1,0
374,97,2,1,0
375,97,2,1,0
376,97,2,1,0
377,97,2,1,0
378,97,2,1,0
379,97,2,1,0
380,97,2,1,0
381,97,2,1,0
382,97,2,1,0
383,97,2,1,0
384,97,2,1,0
385,97,2,1,0
386,97,2,1,0
387,97,2,1,0
388,97,2,1,0
389,97,2,1,0
390,97,2,1,0
391,97,2,1,0
392,97,2,1,0
393,97,2,1,0
394,97,2,1,0
395,97,2,1,0
396,97,2,1,0
397,97,2,1,0
398,97,2,1,0
399,97,2,1,0
400,97,2,1,0
401,97,2,1,0
402,97,1,1,1
403,97,1,1,1
404,97,1,1,1
405,97,1,1,1
406,97,1,1,1
407,97,1,1,1
408,97,1,1,1
409,97,1,1,1
410,97,1,1,1
411,97,1,1,1
412,97,1,1,1
413,97,1,1,1
414,97,1,1,1
415,97,1,1,1
416,97,1,1,1
417,97,1,1,1
418,97,1,1,1
419,97,1,1,1
420,97,1,1,1
421,97,1,1,1
422,97,1,1,1
423,97,1,1,1
424,97,1,1,1
425,97,1,1,1
426,97,1,1,1
427,97,1,1,1
428,97,1,1,1
429,97,1,1,1
430,97,1,1,1
431,97,1,1,1
432,97,1,1,1
433,97,1,1,1
434,97,1,1,1
435,97,1,1,1
436,97,1,1,1
437,97,1,1,1
438,97,1,1,1
439,97,1,1,1
440,97,1,1,1
441,97,1,1,1
442,97,1,1,1
443,97,1,1,1
444,97,1,1,1
445,97,1,1,1
446,97,1,1,1
447,97,1,1,1
448,97,1,1,1
449,97,1,1,1
450,96,2,1,1
451,96,2,1,1
452,96,2,1,1
453,96,2,1,1
454,96,2,1,1
455,96,2,1,1
456,96,2,1,1
457,96,2,1,1
458,96,2,1,1
459,96,2,1,1
460,96,2,1,1
461,96,2,1,1
462,96,2,1,1
463,96,2,1,1
464,96,2,1,1
465,96,2,1,1
466,96,2,1,1
467,96,2,1,1
468,96,2,1,1
469,96,2,1,1
470,96,2,1,1
471,96,2,1,1
472,96,2,1,1
473,96,2,1,1
474,96,2,1,1
475,96,2,1,1
476,96,2,1,1
477,96,2,1,1
478,96,2,1,1
479,96,2,1,1
480,96,2,1,1
481,96,2,1,1
482,96,2,1,1
483,96,2,1,1
484,96,2,1,1
485,96,2,1,1
486,96,2,1,1
487,96,2,1,1
488,96,2,1,1
489,96,2,1,1
490,95,3,1,1
491,95,3,1,1
492,95,3,1,1
493,95,3,1,1
494,95,3,1,1
495,95,3,1,1
496,95,3,1,1
497,95,3,1,1
498,95,3,1,1
499,95,3,1,1
500,95,3,1,1
501,95,3,1,1
502,95,3,1,1
503,95,3,1,1
504,95,3,1,1
505,95,3,1,1
506,95,3,1,1
507,95,3,1,1
508,95,3,1,1
509,95,3,1,1
510,95,3,1,1
511,95,3,1,1
512,95,3,1,1
513,95,3,1,1
514,95,3,1,1
515,95,3,1,1
516,95,3,1,1
517,95,3,1,1
518,95,3,1,1
519,95,3,1,1
520,95,3,1,1
521,95,3,1,1
522,95,3,1,1
523,94,4,1,1
524,94,4,1,1
525,94,4,1,1
526,94,4,1,1
527,94,4,1,1
528,94,4,1,1
529,94,4,1,1
530,94,4,1,1
531,94,4,1,1
532,94,4,1,1
533,94,4,1,1
534,94,4,1,1
535,94,4,1,1
536,94,4,1,1
537,94,4,1,1
538,94,4,1,1
539,94,4,1,1
540,94,4,1,1
541,94,4,1,1
542,94,4,1,1
543,94,4,1,1
544,94,4,1,1
545,94,4,1,1
546,94,4,1,1
547,94,4,1,1
548,94,4,1,1
549,94,4,1,1
550,94,4,1,1
551,93,5,1,1
552,93,5,1,1
553,93,5,1,1
554,93,5,1,1
555,93,5,1,1
556,93,5,1,1
557,93,5,1,1
558,93,5,1,1
559,93,5,1,1
560,93,5,1,1
561,93,5,1,1
562,93,5,1,1
563,93,5,1,1
564,93,5,1,1
565,93,5,1,1
566,93,5,1,1
567,93,5,1,1
568,93,5,1,1
569,93,5,1,1
570,93,5,1,1
571,93,5,1,1
572,93,4,2,1
573,93,4,2,1
574,93,4,2,1
575,93,4,2,1
576,93,4,2,1
577,93,4,2,1
578,93,4,2,1
579,93,4,2,1
580,93,4,2,1
581,93,4,2,1
582,93,4,2,1
583,93,4,2,1
584,93,4,2,1
585,93,4,2,1
586,93,4,2,1
587,93,4,2,1
588,93,4,2,1
589,93,4,2,1
590,93,4,2,1
591,93,4,2,1
592,93,4,2,1
593,93,4,2,1
594,93,4,2,1
595,93,4,2,1
596,93,4,2,1
597,93,4,2,1
598,93,4,2,1
599,93,4,2,1
600,93,4,2,1
601,93,4,2,1
602,93,4,2,1
603,93,4,1,2
604,93,4,1,2
605,93,4,1,2
606,93,4,1,2
607,93,4,1,2
608,93,4,1,2
609,93,4,1,2
610,93,4,1,2
611,93,4,1,2
612,93,4,1,2
613,93,4,1,2
614,93,4,1,2
615,93,4,1,2
616,93,4,1,2
617,93,4,1,2
618,93,4,1,2
619,93,4,1,2
620,93,4,1,2
621,93,4,1,2
622,93,4,1,2
623,93,4,1,2
624,93,4,1,2
625,93,4,1,2
626,93,4,1,2
627,93,4,1,2
628,93,4,1,2
629,93,4,1,2
630,93,4,1,2
631,93,4,1,2
632,93,4,1,2
633,93,4,1,2
634,93,4,1,2
635,93,4,1,2
636,93,4,1,2
637,93,4,1,2
638,93,4,1,2
639,93,4,1,2
640,93,4,1,2
641,93,4,1,2
642,93,4,1,2
643,93,4,1,2
644,93,4,1,2
645,93,4,1,2
646,93,4,1,2
647,93,4,1,2
648,93,4,1,2
649,93,4,1,2
650,93,4,1,2
651,92,4,2,2
652,92,4,2,2
653,92,4,2,2
654,92,4,2,2
655,92,4,2,2
656,91,5,2,2
657,91,5,2,2
658,91,5,2,2
659,91,5,2,2
660,91,5,2,2
661,91,5,2,2
662,91,5,2,2
663,91,5,2,2
664,91,5,2,2
665,91,5,2,2
666,91,5,2,2
667,91,5,2,2
668,91,5,2,2
669,91,5,2,2
670,91,5,2,2
671,91,5,2,2
672,91,5,2,2
673,91,5,2,2
674,91,5,2,2
675,91,5,2,2
676,91,5,2,2
677,91,5,2,2
678,91,5,2,2
679,91,5,2,2
680,91,5,2,2
681,91,5,2,2
682,91,5,2,2
683,91,5,2,2
684,91,5,2,2
685,91,5,2,2
686,91,5,2,2
687,90,6,2,2
688,90,6,2,2
689,90,6,2,2
690,90,6,2,2
691,90,5,3,2
692,90,5,3,2
693,90,5,3,2
694,90,5,3,2
695,90,5,3,2
696,90,5,3,2
697,90,5,3,2
698,90,5,3,2
699,90,5,3,2
700,90,5,3,2
701,90,5,3,2
702,90,5,3,2
703,90,5,3,2
704,90,5,3,2
705,90,5,3,2
706,90,5,3,2
707,90,5,3,2
708,90,5,3,2
709,90,5,3,2
710,90,5,3,2
711,90,5,3,2
712,90,5,3,2
713,89,6,3,2
714,89,6,3,2
715,89,6,3,2
716,89,6,3,2
717,89,6,3,2
718,89,6,3,2
719,89,6,3,2
720,89,6,3,2
721,89,6,3,2
722,89,6,3,2
723,89,6,3,2
724,89,5,4,2
725,89,5,4,2
726,89,5,4,2
727,89,5,4,2
728,89,5,4,2
729,88,6,4,2
730,86,8,4,2
731,85,9,4,2
732,84,10,4,2
733,84,10,4,2
734,84,10,4,2
735,83,11,4,2
736,83,11,4,2
737,83,11,4,2
738,83,11,4,2
739,83,11,4,2
740,83,11,4,2
741,82,12,4,2
742,82,12,4,2
743,82,12,4,2
744,82,12,4,2
745,82,12,4,2
746,82,12,4,2
747,82,12,4,2
748,82,12,4,2
749,82,12,4,2
750,82,12,4,2
751,82,12,4,2
752,81,12,5,2
753,81,12,5,2
754,81,12,5,2
755,81,12,5,2
756,81,12,5,2
757,81,12,5,2
758,81,12,5,2
759,81,12,5,2
760,81,12,5,2
761,81,12,5,2
762,81,12,5,2
763,81,12,5,2
764,81,12,5,2
765,81,12,5,2
766,81,12,5,2
767,81,12,5,2
768,81,12,5,2
769,81,12,5,2
770,81,12,5,2
771,81,12,5,2
772,81,12,5,2
773,81,12,4,3
774,81,12,4,3
775,81,12,4,3
776,81,12,4,3
777,81,12,4,3
778,81,12,4,3
779,81,12,4,3
780,81,12,4,3
781,81,12,4,3
782,81,12,4,3
783,81,12,4,3
784,81,12,4,3
785,81,12,4,3
786,81,12,4,3
787,81,12,4,3
788,81,12,4,3
789,81,12,4,3
790,81,12,4,3
791,81,12,4,3
792,81,12,4,3
793,81,12,4,3
794,81,12,4,3
795,81,12,4,3
796,81,12,4,3
797,81,12,4,3
798,81,12,4,3
799,81,12,4,3
800,81,12,4,3
801,81,12,4,3
802,81,12,4,3
803,81,12,4,3
804,81,12,4,3
805,81,12,4,3
806,81,12,4,3
807,81,12,4,3
808,81,12,4,3
809,81,12,4,3
810,81,12,4,3
811,81,12,4,3
812,80,13,4,3
813,80,13,4,3
814,80,13,4,3
815,80,13,4,3
816,80,13,4,3
817,80,13,4,3
818,80,13,4,3
819,80,13,4,3
820,80,13,4,3
821,80,13,4,3
822,80,13,4,3
823,80,13,4,3
824,80,13,4,3
825,80,13,4,3
826,80,13,4,3
827,80,13,4,3
828,80,13,4,3
829,80,13,4,3
830,80,13,4,3
831,80,13,4,3
832,80,13,4,3
833,80,13,4,3
834,80,13,4,3
835,80,13,4,3
836,80,13,4,3
837,80,13,4,3
838,80,13,4,3
839,80,13,4,3
840,80,13,4,3
841,80,13,4,3
842,80,13,4,3
843,80,13,4,3
844,80,13,4,3
845,80,13,4,3
846,80,13,4,3
847,80,13,4,3
848,80,13,4,3
849,80,13,4,3
850,80,13,4,3
851,80,13,4,3
852,80,12,4,4
853,80,12,4,4
854,80,12,4,4
855,80,12,4,4
856,80,12,4,4
857,80,11,5,4
858,80,11,5,4
859,80,11,5,4
860,80,11,5,4
861,80,11,5,4
862,80,11,5,4
863,80,11,5,4
864,80,11,5,4
865,80,11,5,4
866,80,11,5,4
867,80,11,5,4
868,80,11,5,4
869,80,11,5,4
870,80,11,5,4
871,80,11,5,4
872,79,12,5,4
873,79,12,5,4
874,79,12,5,4
875,79,12,5,4
876,78,13,5,4
877,78,13,5,4
878,78,13,5,4
879,78,13,5,4
880,78,13,5,4
881,78,13,5,4
882,78,13,5,4
883,78,13,5,4
884,78,13,5,4
885,78,13,5,4
886,78,13,5,4
887,78,13,5,4
888,78,12,6,4
889,78,12,6,4
890,78,12,6,4
891,77,13,6,4
892,76,14,5,5
893,75,15,5,5
894,75,15,5,5
895,75,15,5,5
896,75,15,5,5
897,74,16,5,5
898,74,16,5,5
899,73,17,5,5
900,71,19,5,5
901,71,19,5,5
902,70,20,5,5
903,70,20,5,5
904,70,20,5,5
905,70,20,5,5
906,70,20,5,5
907,70,20,5,5
908,70,20,5,5
909,70,20,5,5
910,70,20,5,5
911,70,20,5,5
912,70,20,5,5
913,70,20,5,5
914,70,19,6,5
915,70,19,6,5
916,70,19,6,5
917,70,19,6,5
918,70,19,6,5
919,70,19,6,5
920,69,20,6,5
921,68,21,6,5
922,68,21,6,5
923,67,22,6,5
924,65,24,6,5
925,65,24,5,6
926,65,24,5,6
927,65,24,5,6
928,65,24,5,6
929,65,24,5,6
930,65,23,6,6
931,65,21,8,6
932,65,20,9,6
933,65,19,10,6
934,65,19,10,6
935,64,20,10,6
936,64,19,11,6
937,64,19,11,6
938,64,19,11,6
939,64,19,11,6
940,64,19,11,6
941,64,19,11,6
942,64,18,12,6
943,63,19,12,6
944,63,19,12,6
945,63,19,12,6
946,63,19,12,6
947,63,19,12,6
948,63,19,12,6
949,63,19,12,6
950,62,20,12,6
951,62,20,12,6
952,62,20,12,6
953,62,19,12,7
954,62,19,12,7
955,60,21,12,7
956,60,21,12,7
957,59,22,12,7
958,58,23,12,7
959,57,24,12,7
960,57,24,12,7
961,57,24,12,7
962,56,25,12,7
963,55,26,12,7
964,55,26,12,7
965,55,26,12,7
966,55,26,12,7
967,55,26,12,7
968,55,26,12,7
969,55,26,12,7
970,55,26,12,7
971,55,26,12,7
972,55,26,12,7
973,55,26,12,7
974,55,26,12,7
975,55,26,12,7
976,54,27,12,7
977,54,27,12,7
978,54,27,12,7
979,54,27,12,7
980,54,27,12,7
981,54,27,12,7
982,54,27,12,7
983,54,27,12,7
984,54,27,12,7
985,54,27,12,7
986,54,27,12,7
987,54,27,12,7
988,53,28,12,7
989,53,28,12,7
990,53,28,12,7
991,53,28,12,7
992,53,28,12,7
993,53,28,12,7
994,53,28,12,7
995,53,28,12,7
996,53,28,12,7
997,53,28,12,7
998,53,28,12,7
999,53,28,12,7
1000,53,28,12,7
1001,53,28,12,7
1002,53,28,12,7
1003,53,28,12,7
1004,53,28,12,7
1005,53,28,12,7
1006,53,28,12,7
1007,53,28,12,7
1008,53,28,12,7
1009,53,28,12,7
1010,53,28,12,7
1011,53,28,12,7
1012,53,28,12,7
1013,53,27,13,7
1014,53,27,13,7
1015,53,27,13,7
1016,53,27,13,7
1017,53,27,13,7
1018,53,27,13,7
1019,53,27,13,7
1020,53,27,13,7
1021,53,27,13,7
1022,53,27,13,7
1023,53,27,13,7
1024,53,27,13,7
1025,53,27,13,7
1026,53,27,13,7
1027,53,27,13,7
1028,53,27,13,7
1029,53,27,13,7
1030,53,27,13,7
1031,53,27,13,7
1032,53,27,13,7
1033,53,27,13,7
1034,53,27,13,7
1035,53,27,13,7
1036,52,28,13,7
1037,52,28,13,7
1038,50,30,13,7
1039,50,30,13,7
1040,50,30,13,7
1041,50,30,13,7
1042,50,30,13,7
1043,49,31,13,7
1044,49,31,13,7
1045,49,31,13,7
1046,49,31,13,7
1047,49,31,13,7
1048,49,31,13,7
1049,49,31,13,7
1050,49,31,13,7
1051,49,31,13,7
1052,49,31,13,7
1053,49,31,12,8
1054,49,31,12,8
1055,49,31,12,8
1056,49,31,12,8
1057,49,31,12,8
1058,48,32,11,9
1059,48,32,11,9
1060,48,32,11,9
1061,48,32,11,9
1062,47,33,11,9
1063,47,33,11,9
1064,47,33,11,9
1065,47,33,11,9
1066,47,33,11,9
1067,47,33,11,9
1068,47,33,11,9
1069,47,33,11,9
1070,47,33,11,9
1071,47,33,11,9
1072,47,33,11,9
1073,47,32,12,9
1074,47,32,12,9
1075,47,32,12,9
1076,47,32,12,9
1077,47,31,13,9
1078,47,31,13,9
1079,47,31,13,9
1080,46,32,13,9
1081,45,33,13,9
1082,45,33,13,9
1083,45,33,13,9
1084,45,33,13,9
1085,45,33,13,9
1086,45,33,13,9
1087,45,33,13,9
1088,45,33,13,9
1089,45,33,12,10
1090,45,33,12,10
1091,45,33,12,10
1092,45,32,13,10
1093,45,31,14,10
1094,45,30,15,10
1095,45,30,15,10
1096,45,30,15,10
1097,45,30,15,10
1098,45,29,16,10
1099,45,29,16,10
1100,45,28,17,10
1101,45,26,19,10
1102,45,26,19,10
1103,45,25,20,10
1104,45,25,20,10
1105,45,25,20,10
1106,45,25,20,10
1107,45,25,20,10
1108,45,25,20,10
1109,45,25,20,10
1110,45,25,20,10
1111,45,25,20,10
1112,45,25,20,10
1113,45,25,20,10
1114,45,25,20,10
1115,45,25,19,11
1116,45,25,19,11
1117,45,25,19,11
1118,45,25,19,11
1119,45,25,19,11
1120,45,25,19,11
1121,45,24,20,11
1122,45,23,21,11
1123,45,23,21,11
1124,45,22,22,11
1125,45,20,24,11
1126,45,20,24,11
1127,44,21,24,11
1128,44,21,24,11
1129,44,21,24,11
1130,44,21,24,11
1131,44,21,23,12
1132,44,21,21,14
1133,44,21,20,15
1134,44,21,19,16
1135,44,21,19,16
1136,44,20,20,16
1137,44,20,19,17
1138,44,20,19,17
1139,44,20,19,17
1140,44,20,19,17
1141,44,20,19,17
1142,44,20,19,17
1143,44,20,18,18
1144,44,19,19,18
1145,44,19,19,18
1146,44,19,19,18
1147,44,19,19,18
1148,44,19,19,18
1149,44,19,19,18
1150,44,19,19,18
1151,44,18,20,18
1152,44,18,20,18
1153,44,18,20,18
1154,44,18,19,19
1155,44,18,19,19
1156,44,16,21,19
1157,43,17,21,19
1158,43,16,22,19
1159,43,15,23,19
1160,43,14,24,19
1161,43,14,24,19
1162,43,14,24,19
1163,43,13,25,19
1164,41,14,26,19
1165,41,14,26,19
1166,41,14,26,19
1167,40,15,26,19
1168,40,15,26,19
1169,40,15,26,19
1170,40,15,26,19
1171,40,15,26,19
1172,40,15,26,19
1173,40,15,26,19
1174,40,15,26,19
1175,40,15,26,19
1176,40,15,26,19
1177,40,14,27,19
1178,40,14,27,19
1179,40,14,27,19
1180,40,14,27,19
1181,40,14,27,19
1182,39,15,27,19
1183,39,15,27,19
1184,39,15,27,19
1185,39,15,27,19
1186,39,15,27,19
1187,39,15,27,19
1188,39,15,27,19
1189,39,14,28,19
1190,39,14,28,19
1191,38,15,28,19
1192,38,15,28,19
1193,38,15,28,19
1194,38,15,28,19
1195,38,15,28,19
1196,38,15,28,19
1197,37,16,28,19
1198,37,16,28,19
1199,37,16,28,19
1200,36,17,28,19
1201,35,18,28,19
1202,35,18,28,19
1203,35,18,28,19
1204,35,18,28,19
1205,35,18,28,19
1206,35,18,28,19
1207,35,18,28,19
1208,35,18,28,19
1209,35,18,28,19
1210,35,18,28,19
1211,35,18,28,19
1212,35,18,28,19
1213,34,19,28,19
1214,34,19,27,20
1215,34,19,27,20
1216,34,19,27,20
1217,34,19,27,20
1218,34,19,27,20
1219,34,19,27,20
1220,34,19,27,20
1221,34,19,27,20
1222,34,19,27,20
1223,34,19,27,20
1224,34,19,27,20
1225,34,19,27,20
1226,34,19,27,20
1227,34,19,27,20
1228,34,19,27,20
1229,34,19,27,20
1230,33,20,27,20
1231,32,21,27,20
1232,32,21,27,20
1233,32,21,27,20
1234,32,21,27,20
1235,32,21,27,20
1236,32,21,27,20
1237,32,20,28,20
1238,32,20,28,20
1239,32,18,30,20
1240,32,18,30,20
1241,32,18,30,20
1242,32,18,30,20
1243,32,18,30,20
1244,32,17,31,20
1245,32,17,31,20
1246,32,17,31,20
1247,32,17,31,20
1248,32,17,31,20
1249,32,17,31,20
1250,32,17,31,20
1251,32,17,31,20
1252,32,17,31,20
1253,31,18,31,20
1254,31,18,31,20
1255,31,18,31,20
1256,31,18,31,20
1257,31,18,31,20
1258,31,18,31,20
1259,31,17,32,20
1260,31,17,32,20
1261,30,18,32,20
1262,30,18,32,20
1263,30,17,33,20
1264,30,17,33,20
1265,28,19,33,20
1266,28,19,33,20
1267,28,19,33,20
1268,28,19,33,20
1269,28,19,33,20
1270,28,19,33,20
1271,28,19,33,20
1272,28,19,33,20
1273,28,19,33,20
1274,28,19,32,21
1275,27,20,32,21
1276,27,20,32,21
1277,27,20,32,21
1278,27,20,31,22
1279,27,20,31,22
1280,27,20,31,22
1281,27,19,32,22
1282,27,18,33,22
1283,27,18,33,22
1284,27,18,33,22
1285,27,18,33,22
1286,27,18,33,22
1287,27,18,33,22
1288,27,18,33,22
1289,27,18,33,22
1290,27,18,33,22
1291,27,18,33,22
1292,27,18,33,22
1293,27,18,32,23
1294,27,18,31,24
1295,27,18,30,25
1296,27,18,30,25
1297,27,18,30,25
1298,27,18,30,25
1299,27,18,29,26
1300,27,18,29,26
1301,27,18,28,27
1302,27,18,26,29
1303,27,18,26,29
1304,27,18,25,30
1305,26,19,25,30
1306,26,19,25,30
1307,26,19,25,30
1308,26,19,25,30
1309,26,19,25,30
1310,26,19,25,30
1311,26,19,25,30
1312,26,19,25,30
1313,26,19,25,30
1314,26,19,25,30
1315,26,19,25,30
1316,26,19,25,30
1317,26,19,25,30
1318,26,19,25,30
1319,26,19,25,30
1320,26,19,25,30
1321,26,19,25,30
1322,26,19,24,31
1323,26,19,23,32
1324,26,19,23,32
1325,26,19,22,33
1326,26,19,20,35
1327,26,19,20,35
1328,26,18,21,35
1329,26,18,21,35
1330,26,18,21,35
1331,26,18,21,35
1332,26,18,21,35
1333,26,18,21,35
1334,25,19,21,35
1335,25,19,21,35
1336,25,19,21,35
1337,25,19,20,36
1338,25,19,20,36
1339,25,19,20,36
1340,25,19,20,36
1341,25,19,20,36
1342,25,19,20,36
1343,25,19,20,36
1344,25,19,20,36
1345,24,20,19,37
1346,24,20,19,37
1347,23,21,19,37
1348,22,22,19,37
1349,22,22,19,37
1350,22,22,19,37
1351,22,22,19,37
1352,22,22,18,38
1353,22,22,18,38
1354,22,22,18,38
1355,22,22,18,38
1356,22,22,18,38
1357,22,22,16,40
1358,22,21,17,40
1359,22,21,16,41
1360,22,21,15,42
1361,22,21,14,43
1362,22,21,14,43
1363,22,21,14,43
1364,22,21,13,44
1365,22,19,14,45
1366,22,19,14,45
1367,21,20,14,45
1368,21,19,15,45
1369,21,19,15,45
1370,21,19,15,45
1371,21,19,15,45
1372,21,19,15,45
1373,21,19,15,45
1374,21,19,15,45
1375,21,19,15,45
1376,21,19,15,45
1377,21,19,15,45
1378,21,19,14,46
1379,21,19,14,46
1380,21,19,14,46
1381,21,19,14,46
1382,21,19,14,46
1383,21,18,15,46
1384,21,18,15,46
1385,21,18,15,46
1386,21,18,15,46
1387,21,18,15,46
1388,21,18,15,46
1389,21,18,15,46
1390,21,18,14,47
1391,21,18,14,47
1392,21,17,15,47
1393,21,17,15,47
1394,21,17,15,47
1395,21,17,15,47
1396,21,17,15,47
1397,21,17,15,47
1398,21,16,16,47
1399,21,16,16,47
1400,21,16,16,47
1401,21,15,17,47
1402,21,14,18,47
1403,21,14,18,47
1404,21,14,18,47
1405,21,14,18,47
1406,21,14,18,47
1407,21,14,18,47
1408,21,14,18,47
1409,21,14,18,47
1410,21,14,18,47
1411,21,14,18,47
1412,21,14,18,47
1413,21,14,18,47
1414,21,13,19,47
1415,21,13,19,47
1416,21,13,19,47
1417,21,13,19,47
1418,21,13,19,47
1419,21,13,19,47
1420,20,14,19,47
1421,20,14,19,47
1422,20,14,19,47
1423,20,14,19,47
1424,20,14,19,47
1425,20,14,19,47
1426,20,14,19,47
1427,20,14,19,47
1428,20,14,19,47
1429,20,14,19,47
1430,20,14,19,47
1431,20,13,20,47
1432,20,12,21,47
1433,20,12,21,47
1434,20,12,21,47
1435,20,12,21,47
1436,20,12,21,47
1437,20,12,21,47
1438,20,12,20,48
1439,20,12,20,48
1440,20,12,18,50
1441,20,12,18,50
1442,20,12,18,50
1443,20,12,18,50
1444,20,12,18,50
1445,20,12,17,51
1446,20,12,17,51
1447,20,12,17,51
1448,20,12,17,51
1449,20,12,17,51
1450,20,12,17,51
1451,20,12,17,51
1452,20,12,17,51
1453,20,12,17,51
1454,20,11,18,51
1455,20,11,18,51
1456,19,12,18,51
1457,19,12,18,51
1458,19,12,18,51
1459,19,12,18,51
1460,19,12,17,52
1461,19,12,17,52
1462,19,11,18,52
1463,19,11,18,52
1464,19,11,17,53
1465,19,11,17,53
1466,19,9,19,53
1467,19,9,19,53
1468,19,9,19,53
1469,19,9,19,53
1470,19,9,19,53
1471,19,9,19,53
1472,19,9,19,53
1473,19,9,19,53
1474,19,9,19,53
1475,19,9,19,53
1476,19,8,20,53
1477,19,8,20,53
1478,19,8,20,53
1479,19,8,20,53
1480,19,8,20,53
1481,19,8,20,53
1482,18,9,19,54
1483,18,9,18,55
1484,17,10,18,55
1485,17,10,18,55
1486,17,10,18,55
1487,17,10,18,55
1488,17,10,18,55
1489,17,10,18,55
1490,17,10,18,55
1491,17,10,18,55
1492,17,10,18,55
1493,17,10,18,55
1494,17,10,18,55
1495,17,10,18,55
1496,17,10,18,55
1497,17,10,18,55
1498,17,10,18,55
1499,17,10,18,55
1500,17,10,18,55
1501,17,10,18,55
1502,17,10,18,55
1503,16,11,18,55
1504,16,11,18,55
1505,15,12,18,55
1506,15,11,19,55
1507,15,11,19,55
1508,15,11,19,55
1509,15,11,19,55
1510,15,11,19,55
1511,15,11,19,55
1512,14,12,19,55
1513,14,12,19,55
1514,14,12,19,55
1515,14,12,19,55
1516,14,12,19,55
1517,14,12,19,55
1518,14,12,19,55
1519,14,12,19,55
1520,14,12,19,55
1521,14,12,19,55
1522,14,12,19,55
1523,14,12,19,55
1524,13,13,19,55
1525,13,13,19,55
1526,13,13,19,55
1527,13,13,19,55
1528,13,13,19,55
1529,13,13,18,56
1530,13,13,18,56
1531,12,14,18,56
1532,12,14,18,56
1533,12,14,18,56
1534,12,14,18,56
1535,12,13,19,56
1536,12,13,19,56
1537,12,13,19,56
1538,12,13,19,56
1539,12,13,19,56
1540,12,13,19,56
1541,12,13,19,56
1542,12,13,19,56
1543,12,13,19,56
1544,11,14,19,56
1545,11,14,19,56
1546,11,13,20,56
1547,11,13,20,56
1548,11,12,21,56
1549,11,11,22,56
1550,11,11,22,56
1551,11,11,22,56
1552,11,11,22,56
1553,11,11,22,56
1554,11,11,22,56
1555,11,11,22,56
1556,11,11,22,56
1557,11,11,22,56
1558,11,11,22,56
1559,11,11,21,57
1560,11,11,21,57
1561,11,11,21,57
1562,11,11,21,57
1563,11,11,21,57
1564,11,11,21,57
1565,11,11,21,57
1566,11,11,19,59
1567,11,11,19,59
1568,11,10,20,59
1569,11,10,19,60
1570,11,10,19,60
1571,11,10,19,60
1572,11,10,19,60
1573,11,10,19,60
1574,11,10,19,60
1575,11,10,19,60
1576,11,10,19,60
1577,11,10,19,60
1578,11,10,19,60
1579,11,10,19,60
1580,11,10,19,60
1581,11,10,19,60
1582,11,10,19,60
1583,11,10,19,60
1584,11,10,18,61
1585,11,10,18,61
1586,11,10,18,61
1587,11,10,18,61
1588,11,10,18,61
1589,11,10,18,61
1590,11,10,18,61
1591,11,10,18,61
1592,11,10,18,61
1593,11,10,17,62
1594,11,10,17,62
1595,11,10,17,62
1596,11,10,17,62
1597,11,10,17,62
1598,11,10,17,62
1599,11,10,16,63
1600,11,10,16,63
1601,11,10,16,63
1602,11,10,15,64
1603,11,10,14,65
1604,11,10,14,65
1605,11,10,14,65
1606,11,10,14,65
1607,11,10,14,65
1608,11,10,14,65
1609,11,10,14,65
1610,11,10,14,65
1611,11,10,14,65
1612,11,10,14,65
1613,11,10,14,65
1614,11,10,14,65
1615,11,10,13,66
1616,11,10,13,66
1617,11,10,13,66
1618,11,10,13,66
1619,11,10,13,66
1620,11,10,13,66
1621,11,9,14,66
1622,11,9,14,66
1623,11,9,14,66
1624,11,9,14,66
1625,11,9,14,66
1626,11,9,14,66
1627,11,9,14,66
1628,11,9,14,66
1629,11,9,14,66
1630,11,9,14,66
1631,11,9,14,66
1632,11,9,13,67
1633,11,9,12,68
1634,11,9,12,68
1635,11,9,12,68
1636,11,9,12,68
1637,11,9,12,68
1638,11,9,12,68
1639,11,9,12,68
1640,11,9,12,68
1641,11,9,12,68
1642,11,9,12,68
1643,11,9,12,68
1644,11,9,12,68
1645,11,9,12,68
1646,11,9,12,68
1647,11,9,12,68
1648,11,9,12,68
1649,11,9,12,68
1650,11,9,12,68
1651,11,9,12,68
1652,11,9,12,68
1653,11,9,12,68
1654,11,9,12,68
1655,11,9,11,69
1656,11,9,11,69
1657,11,8,12,69
1658,11,8,12,69
1659,11,8,12,69
1660,11,8,12,69
1661,11,8,12,69
1662,11,8,12,69
1663,11,8,11,70
1664,11,8,11,70
1665,11,8,11,70
1666,11,8,11,70
1667,11,8,9,72
1668,11,8,9,72
1669,11,8,9,72
1670,11,8,9,72
1671,11,8,9,72
1672,11,8,9,72
1673,11,8,9,72
1674,11,8,9,72
1675,11,8,9,72
1676,11,8,9,72
1677,11,8,8,73
1678,11,8,8,73
1679,11,8,8,73
1680,11,8,8,73
1681,11,8,8,73
1682,11,8,8,73
1683,11,7,9,73
1684,11,7,9,73
1685,11,6,10,73
1686,11,6,10,73
1687,11,6,10,73
1688,11,6,10,73
1689,11,6,10,73
1690,11,6,10,73
1691,11,6,10,73
1692,11,6,10,73
1693,11,6,10,73
1694,11,6,10,73
1695,11,6,10,73
1696,11,6,10,73
1697,11,6,10,73
1698,11,6,10,73
1699,11,6,10,73
1700,11,6,10,73
1701,11,6,10,73
1702,11,6,10,73
1703,11,6,10,73
1704,11,5,11,73
1705,11,5,11,73
1706,11,4,12,73
1707,11,4,11,74
1708,11,4,11,74
1709,11,4,11,74
1710,11,4,11,74
1711,11,4,11,74
1712,11,4,11,74
1713,11,3,12,74
1714,11,3,12,74
1715,11,3,12,74
1716,11,3,12,74
1717,11,3,12,74
1718,11,3,12,74
1719,11,3,12,74
1720,11,3,12,74
1721,11,3,12,74
1722,11,3,12,74
1723,11,3,12,74
1724,11,3,12,74
1725,11,2,13,74
1726,11,2,13,74
1727,11,2,13,74
1728,11,2,13,74
1729,11,2,13,74
1730,11,2,13,74
1731,11,2,13,74
1732,10,2,14,74
1733,10,2,14,74
1734,10,2,14,74
1735,10,2,14,74
1736,10,2,13,75
1737,10,2,13,75
1738,10,2,13,75
1739,10,2,13,75
1740,10,2,13,75
1741,10,2,13,75
1742,10,2,13,75
1743,10,2,13,75
1744,10,2,13,75
1745,10,1,14,75
1746,10,1,14,75
1747,10,1,13,76
1748,10,1,13,76
1749,10,1,12,77
1750,9,2,11,78
1751,9,2,11,78
1752,9,2,11,78
1753,9,2,11,78
1754,9,2,11,78
1755,9,2,11,78
1756,9,2,11,78
1757,9,2,11,78
1758,9,2,11,78
1759,9,2,11,78
1760,9,2,11,78
1761,9,2,11,78
1762,9,2,11,78
1763,9,2,11,78
1764,9,2,11,78
1765,9,2,11,78
1766,9,2,11,78
1767,9,2,11,78
1768,9,2,11,78
1769,9,2,10,79
1770,9,2,10,79
1771,9,2,10,79
1772,9,2,10,79
1773,9,2,10,79
1774,9,2,10,79
1775,9,2,10,79
1776,9,2,10,79
1777,9,2,10,79
1778,9,2,10,79
1779,9,2,10,79
1780,9,2,10,79
1781,9,2,10,79
1782,9,2,10,79
1783,9,2,10,79
1784,9,2,10,79
1785,9,2,10,79
1786,9,2,10,79
1787,9,2,10,79
1788,9,2,10,79
1789,9,2,10,79
1790,9,2,10,79
1791,9,2,10,79
1792,9,2,10,79
1793,9,2,10,79
1794,9,2,10,79
1795,9,2,10,79
1796,9,2,10,79
1797,9,2,10,79
1798,9,2,10,79
1799,9,2,10,79
1800,9,2,10,79
1801,9,2,10,79
1802,9,2,10,79
1803,9,2,10,79
1804,9,2,10,79
1805,9,2,10,79
1806,9,2,10,79
1807,9,2,10,79
1808,9,2,10,79
1809,9,2,10,79
1810,9,2,10,79
1811,9,2,10,79
1812,9,2,10,79
1813,9,2,10,79
1814,9,2,10,79
1815,9,2,10,79
1816,9,2,10,79
1817,9,2,10,79
1818,9,2,10,79
1819,9,2,10,79
1820,9,2,10,79
1821,9,2,10,79
1822,9,2,9,80
1823,9,2,9,80
1824,9,2,9,80
1825,9,2,9,80
1826,9,2,9,80
1827,9,2,9,80
1828,9,2,9,80
1829,9,2,9,80
1830,9,2,9,80
1831,9,2,9,80
1832,9,2,9,80
1833,9,2,9,80
1834,9,2,9,80
1835,9,2,9,80
1836,9,2,9,80
1837,9,2,9,80
1838,9,2,9,80
1839,9,2,9,80
1840,9,2,9,80
1841,9,2,9,80
1842,9,2,9,80
1843,9,2,9,80
1844,9,2,9,80
1845,9,2,9,80
1846,9,2,9,80
1847,9,2,9,80
1848,9,2,9,80
1849,9,2,9,80
1850,9,2,9,80
1851,9,2,9,80
1852,9,2,9,80
1853,9,2,9,80
1854,9,2,9,80
1855,9,2,9,80
1856,9,2,9,80
1857,9,2,9,80
1858,9,2,8,81
1859,9,2,8,81
1860,9,2,8,81
1861,9,2,8,81
1862,9,2,8,81
1863,9,2,8,81
1864,9,2,8,81
1865,9,2,8,81
1866,9,2,8,81
1867,9,2,8,81
1868,9,2,8,81
1869,9,2,8,81
1870,9,2,8,81
1871,9,2,8,81
1872,9,2,8,81
1873,9,2,8,81
1874,9,2,8,81
1875,9,2,8,81
1876,9,2,8,81
1877,9,2,8,81
1878,9,2,8,81
1879,9,2,8,81
1880,9,2,8,81
1881,9,2,8,81
1882,9,2,8,81
1883,9,2,8,81
1884,9,2,7,82
1885,9,2,7,82
1886,9,2,6,83
1887,9,2,6,83
1888,9,2,6,83
1889,9,2,6,83
1890,9,2,6,83
1891,9,2,6,83
1892,9,2,6,83
1893,9,2,6,83
1894,9,2,6,83
1895,9,2,6,83
1896,9,2,6,83
1897,9,2,6,83
1898,9,2,6,83
1899,9,2,6,83
1900,9,2,6,83
1901,8,3,6,83
1902,8,3,6,83
1903,8,3,6,83
1904,8,3,6,83
1905,8,3,5,84
1906,8,3,5,84
1907,8,3,4,85
1908,8,3,4,85
1909,8,3,4,85
1910,8,3,4,85
1911,8,3,4,85
1912,8,3,4,85
1913,8,3,4,85
1914,8,3,3,86
1915,8,3,3,86
1916,8,3,3,86
1917,8,3,3,86
1918,8,3,3,86
1919,8,3,3,86
1920,8,3,3,86
1921,8,3,3,86
1922,8,3,3,86
1923,8,3,3,86
1924,8,3,3,86
1925,8,3,3,86
1926,8,3,2,87
1927,8,3,2,87
1928,8,3,2,87
1929,8,3,2,87
1930,8,3,2,87
1931,8,3,2,87
1932,8,3,2,87
1933,8,2,2,88
1934,8,2,2,88
1935,8,2,2,88
1936,8,2,2,88
1937,8,2,2,88
1938,8,2,2,88
1939,8,2,2,88
1940,8,2,2,88
1941,8,2,2,88
1942,8,2,2,88
1943,8,2,2,88
1944,8,2,2,88
1945,8,2,2,88
1946,8,2,1,89
1947,8,2,1,89
1948,8,2,1,89
1949,8,2,1,89
1950,8,2,1,89
1951,7,2,2,89
1952,7,2,2,89
1953,7,2,2,89
1954,7,2,2,89
1955,7,2,2,89
1956,7,2,2,89
1957,7,2,2,89
1958,7,2,2,89
1959,7,2,2,89
1960,7,2,2,89
1961,7,2,2,89
1962,7,2,2,89
1963,7,2,2,89
1964,7,2,2,89
1965,7,2,2,89
1966,7,2,2,89
1967,7,2,2,89
1968,7,2,2,89
1969,7,2,2,89
1970,7,2,2,89
1971,7,2,2,89
1972,7,2,2,89
1973,7,2,2,89
1974,7,2,2,89
1975,7,2,2,89
1976,7,2,2,89
1977,7,2,2,89
1978,7,2,2,89
1979,7,2,2,89
1980,7,2,2,89
1981,7,2,2,89
1982,7,2,2,89
1983,7,2,2,89
1984,7,2,2,89
1985,7,2,2,89
1986,7,2,2,89
1987,7,2,2,89
1988,7,2,2,89
1989,7,2,2,89
1990,7,2,2,89
1991,7,2,2,89
1992,7,2,2,89
1993,7,2,2,89
1994,7,2,2,89
1995,7,2,2,89
1996,7,2,2,89
1997,7,2,2,89
1998,7,2,2,89
1999,7,2,2,89
2000,7,2,2,89
