"tick","total"
0,0
1,0
2,0
3,0
4,0
5,0
6,0
7,0
8,0
9,0
10,0
11,0
12,0
13,0
14,0
15,0
16,0
17,0
18,0
19,0
20,0
21,0
22,0
23,0
24,0
25,0
26,0
27,0
28,0
29,0
30,0
31,0
32,0
33,0
34,0
35,0
36,0
37,0
38,0
39,0
40,0
41,0
42,0
43,0
44,0
45,0
46,0
47,0
48,0
49,0
50,0
51,0
52,0
53,0
54,0
55,0
56,0
57,0
58,0
59,0
60,0
61,0
62,0
63,0
64,0
65,0
66,0
67,0
68,0
69,0
70,0
71,0
72,0
73,0
74,0
75,0
76,0
77,0
78,0
79,0
80,0
81,0
82,0
83,0
84,0
85,0
86,0
87,0
88,0
89,0
90,0
91,0
92,0
93,0
94,0
95,0
96,0
97,0
98,0
99,0
100,0
101,0
102,0
103,0
104,0
105,0
106,0
107,0
108,0
109,0
110,0
111,0
112,0
113,0
114,0
115,0
116,0
117,0
118,0
119,0
120,0
121,0
122,0
123,0
124,0
125,0
126,0
127,0
128,0
129,0
130,0
131,0
132,0
133,0
134,0
135,0
136,0
137,0
138,0
139,0
140,0
141,0
142,0
143,0
144,0
145,0
146,0
147,0
148,0
149,0
150,0
151,0
152,0
153,0
154,0
155,0
156,0
157,0
158,0
159,0
160,0
161,0
162,0
163,0
164,0
165,0
166,0
167,0
168,0
169,0
170,0
171,0
172,0
173,0
174,0
175,0
176,0
177,0
178,0
179,0
180,0
181,0
182,0
183,0
184,0
185,0
186,0
187,0
188,0
189,0
190,0
191,0
192,0
193,0
194,0
195,0
196,0
197,0
198,0
199,0
200,0
201,0
202,0
203,0
204,0
205,0
206,0
207,0
208,0
209,0
210,0
211,0
212,1
213,1
214,1
215,1
216,2
217,2
218,2
219,2
220,2
221,2
222,2
223,2
224,2
225,2
226,2
227,2
228,2
229,2
230,2
231,2
232,2
233,2
234,2
235,2
236,2
237,2
238,2
239,2
240,2
241,2
242,2
243,2
244,2
245,2
246,2
247,2
248,2
249,2
250,2
251,2
252,3
253,3
254,3
255,3
256,3
257,3
258,3
259,3
260,3
261,3
262,3
263,3
264,3
265,3
266,3
267,3
268,3
269,4
270,4
271,4
272,4
273,4
274,4
275,5
276,5
277,5
278,5
279,5
280,5
281,5
282,5
283,5
284,5
285,5
286,5
287,5
288,5
289,6
290,6
291,6
292,6
293,6
294,6
295,6
296,6
297,7
298,7
299,7
300,7
301,7
302,9
303,9
304,9
305,9
306,9
307,9
308,9
309,9
310,9
311,9
312,9
313,9
314,9
315,9
316,9
317,9
318,9
319,9
320,9
321,9
322,9
323,9
324,9
325,9
326,9
327,9
328,9
329,9
330,9
331,9
332,10
333,10
334,10
335,10
336,10
337,10
338,10
339,10
340,10
341,10
342,10
343,10
344,10
345,10
346,10
347,10
348,10
349,11
350,11
351,12
352,12
353,12
354,12
355,13
356,13
357,13
358,13
359,13
360,14
361,14
362,14
363,14
364,14
365,15
366,15
367,15
368,16
369,16
370,16
371,16
372,16
373,17
374,17
375,17
376,17
377,17
378,17
379,17
380,17
381,17
382,17
383,17
384,18
385,18
386,18
387,20
388,20
389,22
390,22
391,22
392,22
393,22
394,22
395,22
396,23
397,24
398,24
399,24
400,24
401,24
402,24
403,24
404,24
405,24
406,24
407,24
408,24
409,24
410,24
411,24
412,24
413,24
414,24
415,24
416,24
417,24
418,24
419,24
420,24
421,24
422,24
423,24
424,24
425,24
426,24
427,24
428,24
429,24
430,24
431,25
432,25
433,25
434,26
435,26
436,26
437,26
438,26
439,27
440,27
441,27
442,27
443,27
444,27
445,27
446,27
447,27
448,27
449,27
450,27
451,27
452,27
453,27
454,28
455,28
456,29
457,29
458,29
459,29
460,29
461,29
462,29
463,29
464,29
465,29
466,29
467,29
468,29
469,29
470,29
471,29
472,29
473,29
474,29
475,29
476,29
477,29
478,29
479,29
480,29
481,29
482,29
483,29
484,29
485,29
486,29
487,29
488,29
489,29
490,29
491,29
492,29
493,29
494,29
495,29
496,29
497,29
498,29
499,29
500,29
501,29
502,29
503,29
504,30
505,30
506,30
507,30
508,30
509,30
510,30
511,30
512,30
513,30
514,30
515,30
516,30
517,30
518,30
519,30
520,30
521,30
522,30
523,30
524,30
525,30
526,30
527,30
528,30
529,30
530,30
531,30
532,30
533,30
534,31
535,31
536,31
537,31
538,31
539,31
540,31
541,31
542,32
543,32
544,32
545,32
546,33
547,33
548,33
549,33
550,33
551,33
552,33
553,33
554,33
555,33
556,33
557,33
558,33
559,33
560,34
561,34
562,34
563,34
564,34
565,34
566,34
567,34
568,34
569,34
570,34
571,34
572,34
573,34
574,34
575,34
576,34
577,34
578,34
579,34
580,34
581,34
582,34
583,34
584,34
585,34
586,35
587,35
588,35
589,35
590,35
591,35
592,35
593,35
594,35
595,35
596,35
597,35
598,35
599,35
600,36
601,36
602,36
603,36
604,36
605,36
606,36
607,36
608,36
609,36
610,36
611,36
612,36
613,36
614,36
615,36
616,36
617,36
618,36
619,36
620,36
621,36
622,36
623,36
624,36
625,36
626,36
627,36
628,36
629,36
630,36
631,36
632,36
633,36
634,36
635,36
636,36
637,36
638,37
639,37
640,37
641,37
642,37
643,37
644,37
645,38
646,39
647,39
648,39
649,39
650,39
651,39
652,39
653,39
654,39
655,39
656,39
657,39
658,39
659,39
660,39
661,39
662,39
663,39
664,39
665,39
666,39
667,39
668,40
669,40
670,40
671,40
672,40
673,40
674,40
675,40
676,40
677,40
678,41
679,41
680,41
681,41
682,41
683,41
684,41
685,41
686,41
687,41
688,41
689,41
690,41
691,41
692,41
693,41
694,41
695,41
696,42
697,42
698,42
699,42
700,42
701,43
702,43
703,43
704,44
705,44
706,44
707,44
708,44
709,44
710,44
711,44
712,44
713,44
714,44
715,45
716,46
717,46
718,46
719,47
720,48
721,48
722,49
723,49
724,50
725,50
726,50
727,50
728,50
729,50
730,50
731,50
732,50
733,50
734,50
735,50
736,50
737,50
738,50
739,50
740,50
741,50
742,50
743,50
744,50
745,50
746,50
747,50
748,50
749,50
750,50
751,50
752,50
753,50
754,50
755,51
756,51
757,51
758,51
759,51
760,51
761,51
762,51
763,51
764,51
765,51
766,51
767,51
768,51
769,51
770,51
771,51
772,51
773,51
774,51
775,51
776,51
777,51
778,51
779,51
780,51
781,51
782,51
783,51
784,51
785,51
786,51
787,51
788,51
789,51
790,51
791,52
792,52
793,52
794,52
795,52
796,52
797,52
798,52
799,52
800,52
801,52
802,52
803,52
804,52
805,52
806,52
807,52
808,52
809,52
810,52
811,52
812,52
813,52
814,52
815,53
816,53
817,53
818,53
819,53
820,53
821,53
822,53
823,53
824,53
825,53
826,53
827,53
828,53
829,53
830,53
831,53
832,53
833,53
834,53
835,53
836,53
837,53
838,53
839,53
840,53
841,53
842,53
843,53
844,53
845,53
846,53
847,53
848,53
849,53
850,53
851,53
852,53
853,53
854,53
855,53
856,53
857,53
858,53
859,53
860,53
861,53
862,53
863,53
864,53
865,53
866,53
867,53
868,53
869,53
870,53
871,53
872,53
873,53
874,53
875,53
876,53
877,53
878,53
879,53
880,53
881,53
882,53
883,53
884,53
885,53
886,53
887,53
888,53
889,53
890,53
891,53
892,53
893,53
894,53
895,53
896,53
897,53
898,53
899,53
900,53
901,53
902,53
903,53
904,53
905,53
906,53
907,53
908,53
909,53
910,53
911,53
912,53
913,53
914,53
915,53
916,53
917,53
918,53
919,53
920,53
921,53
922,53
923,53
924,53
925,53
926,53
927,53
928,53
929,53
930,53
931,53
932,53
933,53
934,54
935,54
936,55
937,55
938,55
939,55
940,55
941,55
942,55
943,55
944,55
945,55
946,55
947,55
948,55
949,55
950,55
951,55
952,55
953,55
954,55
955,55
956,55
957,55
958,55
959,55
960,55
961,55
962,55
963,55
964,55
965,55
966,55
967,55
968,55
969,55
970,55
971,55
972,55
973,55
974,55
975,55
976,55
977,55
978,55
979,55
980,55
981,55
982,55
983,55
984,55
985,55
986,55
987,55
988,55
989,55
990,55
991,55
992,55
993,55
994,55
995,55
996,55
997,55
998,55
999,55
1000,55
1001,55
1002,55
1003,55
1004,55
1005,55
1006,55
1007,55
1008,55
1009,55
1010,55
1011,55
1012,55
1013,55
1014,55
1015,55
1016,55
1017,55
1018,55
1019,55
1020,55
1021,55
1022,55
1023,55
1024,55
1025,55
1026,55
1027,55
1028,55
1029,55
1030,55
1031,55
1032,55
1033,55
1034,55
1035,55
1036,55
1037,55
1038,55
1039,55
1040,55
1041,55
1042,55
1043,55
1044,55
1045,55
1046,55
1047,55
1048,55
1049,55
1050,55
1051,55
1052,55
1053,55
1054,55
1055,55
1056,55
1057,55
1058,55
1059,55
1060,55
1061,55
1062,55
1063,55
1064,56
1065,56
1066,56
1067,56
1068,56
1069,56
1070,56
1071,56
1072,56
1073,56
1074,56
1075,57
1076,57
1077,57
1078,57
1079,57
1080,57
1081,57
1082,57
1083,57
1084,57
1085,57
1086,57
1087,57
1088,57
1089,57
1090,57
1091,57
1092,57
1093,57
1094,57
1095,57
1096,57
1097,57
1098,57
1099,57
1100,57
1101,57
1102,57
1103,57
1104,57
1105,57
1106,57
1107,57
1108,57
1109,57
1110,57
1111,58
1112,58
1113,58
1114,59
1115,59
1116,59
1117,59
1118,59
1119,59
1120,59
1121,59
1122,59
1123,59
1124,59
1125,59
1126,59
1127,59
1128,59
1129,59
1130,59
1131,59
1132,59
1133,59
1134,59
1135,59
1136,59
1137,59
1138,59
1139,59
1140,59
1141,59
1142,60
1143,60
1144,60
1145,60
1146,60
1147,60
1148,60
1149,60
1150,60
1151,60
1152,60
1153,60
1154,60
1155,60
1156,61
1157,61
1158,61
1159,61
1160,61
1161,61
1162,61
1163,62
1164,62
1165,62
1166,62
1167,62
1168,62
1169,62
1170,62
1171,62
1172,62
1173,62
1174,62
1175,63
1176,63
1177,63
1178,63
1179,63
1180,63
1181,63
1182,63
1183,63
1184,63
1185,64
1186,64
1187,64
1188,64
1189,64
1190,64
1191,64
1192,64
1193,64
1194,65
1195,65
1196,66
1197,66
1198,66
1199,67
1200,67
1201,67
1202,67
1203,67
1204,67
1205,67
1206,67
1207,67
1208,67
1209,67
1210,67
1211,67
1212,67
1213,67
1214,67
1215,67
1216,67
1217,67
1218,67
1219,68
1220,68
1221,68
1222,68
1223,68
1224,68
1225,69
1226,69
1227,69
1228,69
1229,69
1230,69
1231,69
1232,69
1233,69
1234,69
1235,69
1236,69
1237,69
1238,69
1239,70
1240,70
1241,70
1242,70
1243,70
1244,70
1245,70
1246,70
1247,70
1248,70
1249,70
1250,70
1251,70
1252,70
1253,70
1254,71
1255,71
1256,72
1257,72
1258,72
1259,72
1260,72
1261,72
1262,72
1263,72
1264,72
1265,72
1266,72
1267,72
1268,72
1269,72
1270,72
1271,72
1272,72
1273,72
1274,72
1275,72
1276,72
1277,73
1278,73
1279,73
1280,73
1281,73
1282,73
1283,73
1284,73
1285,73
1286,73
1287,73
1288,73
1289,73
1290,73
1291,73
1292,73
1293,73
1294,73
1295,73
1296,73
1297,73
1298,73
1299,73
1300,73
1301,73
1302,73
1303,73
1304,73
1305,73
1306,73
1307,73
1308,73
1309,73
1310,73
1311,73
1312,73
1313,73
1314,73
1315,73
1316,73
1317,73
1318,73
1319,73
1320,73
1321,73
1322,73
1323,73
1324,73
1325,73
1326,75
1327,76
1328,76
1329,76
1330,76
1331,76
1332,76
1333,76
1334,76
1335,76
1336,76
1337,76
1338,76
1339,76
1340,76
1341,76
1342,76
1343,76
1344,76
1345,76
1346,76
1347,76
1348,76
1349,76
1350,76
1351,76
1352,76
1353,76
1354,76
1355,76
1356,76
1357,76
1358,76
1359,76
1360,77
1361,77
1362,77
1363,77
1364,77
1365,77
1366,77
1367,77
1368,78
1369,78
1370,78
1371,78
1372,78
1373,78
1374,78
1375,78
1376,78
1377,78
1378,79
1379,79
1380,79
1381,79
1382,79
1383,79
1384,79
1385,79
1386,79
1387,80
1388,80
1389,80
1390,80
1391,80
1392,80
1393,80
1394,80
1395,80
1396,80
1397,80
1398,80
1399,80
1400,80
1401,80
1402,80
1403,80
1404,80
1405,80
1406,80
1407,80
1408,80
1409,80
1410,80
1411,80
1412,80
1413,80
1414,80
1415,80
1416,80
1417,80
1418,80
1419,80
1420,80
1421,80
1422,80
1423,80
1424,80
1425,80
1426,80
1427,80
1428,80
1429,80
1430,80
1431,80
1432,80
1433,80
1434,80
1435,80
1436,80
1437,80
1438,80
1439,80
1440,80
1441,80
1442,80
1443,80
1444,80
1445,80
1446,80
1447,80
1448,80
1449,80
1450,80
1451,81
1452,81
1453,81
1454,81
1455,81
1456,81
1457,81
1458,82
1459,82
1460,82
1461,82
1462,83
1463,83
1464,83
1465,83
1466,84
1467,84
1468,84
1469,84
1470,84
1471,84
1472,84
1473,84
1474,84
1475,84
1476,84
1477,84
1478,84
1479,84
1480,84
1481,84
1482,84
1483,84
1484,84
1485,84
1486,84
1487,84
1488,84
1489,85
1490,85
1491,86
1492,86
1493,86
1494,86
1495,86
1496,86
1497,86
1498,86
1499,86
1500,86
1501,86
1502,86
1503,86
1504,86
1505,86
1506,86
1507,86
1508,86
1509,86
1510,86
1511,86
1512,87
1513,87
1514,87
1515,87
1516,87
1517,87
1518,87
1519,87
1520,87
1521,87
1522,87
1523,87
1524,87
1525,87
1526,88
1527,88
1528,88
1529,88
1530,88
1531,89
1532,89
1533,89
1534,90
1535,90
1536,90
1537,90
1538,90
1539,90
1540,90
1541,90
1542,90
1543,90
1544,90
1545,90
1546,90
1547,90
1548,90
1549,90
1550,90
1551,90
1552,90
1553,90
1554,90
1555,90
1556,91
1557,92
1558,92
1559,92
1560,92
1561,92
1562,92
1563,92
1564,92
1565,92
1566,93
1567,93
1568,93
1569,93
1570,93
1571,93
1572,93
1573,93
1574,93
1575,93
1576,93
1577,93
1578,94
1579,95
1580,95
1581,95
1582,95
1583,95
1584,95
1585,95
1586,95
1587,96
1588,96
1589,96
1590,96
1591,96
1592,96
1593,96
1594,96
1595,96
1596,96
1597,96
1598,96
1599,96
1600,96
1601,96
1602,97
1603,97
1604,97
1605,97
1606,97
1607,97
1608,97
1609,97
1610,97
1611,97
1612,97
1613,98
1614,98
1615,98
1616,99
1617,99
1618,99
1619,99
1620,99
1621,100
1622,100
1623,100
1624,100
1625,100
1626,100
1627,100
1628,100
1629,100
1630,100
1631,100
1632,100
1633,100
1634,100
1635,100
1636,100
1637,100
1638,101
1639,101
1640,101
1641,101
1642,101
1643,101
1644,101
1645,101
1646,101
1647,101
1648,101
1649,101
1650,101
1651,101
1652,101
1653,101
1654,101
1655,101
1656,101
1657,101
1658,101
1659,101
1660,101
1661,101
1662,101
1663,101
1664,101
1665,101
1666,101
1667,101
1668,101
1669,101
1670,101
1671,101
1672,101
1673,101
1674,101
1675,101
1676,101
1677,101
1678,102
1679,102
1680,102
1681,102
1682,102
1683,102
1684,102
1685,102
1686,102
1687,103
1688,103
1689,103
1690,103
1691,103
1692,103
1693,103
1694,103
1695,103
1696,103
1697,103
1698,103
1699,103
1700,103
1701,103
1702,103
1703,103
1704,103
1705,103
1706,103
1707,103
1708,103
1709,103
1710,103
1711,103
1712,103
1713,103
1714,103
1715,103
1716,103
1717,103
1718,103
1719,103
1720,103
1721,103
1722,103
1723,103
1724,103
1725,103
1726,103
1727,103
1728,103
1729,103
1730,103
1731,103
1732,104
1733,104
1734,104
1735,104
1736,104
1737,104
1738,104
1739,104
1740,104
1741,104
1742,104
1743,104
1744,104
1745,104
1746,104
1747,104
1748,104
1749,104
1750,104
1751,104
1752,104
1753,104
1754,104
1755,104
1756,104
1757,104
1758,104
1759,104
1760,104
1761,104
1762,104
1763,104
1764,104
1765,104
1766,104
1767,104
1768,104
1769,104
1770,104
1771,104
1772,104
1773,104
1774,104
1775,104
1776,104
1777,104
1778,104
1779,104
1780,104
1781,104
1782,104
1783,104
1784,104
1785,104
1786,105
1787,105
1788,105
1789,105
1790,105
1791,105
1792,105
1793,105
1794,105
1795,105
1796,105
1797,105
1798,105
1799,105
1800,105
1801,105
1802,105
1803,105
1804,105
1805,105
1806,105
1807,105
1808,105
1809,105
1810,105
1811,105
1812,105
1813,105
1814,105
1815,105
1816,105
1817,105
1818,105
1819,105
1820,105
1821,105
1822,105
1823,105
1824,105
1825,105
1826,105
1827,105
1828,105
1829,105
1830,105
1831,105
1832,105
1833,105
1834,105
1835,105
1836,105
1837,105
1838,105
1839,105
1840,105
1841,105
1842,105
1843,105
1844,105
1845,105
1846,105
1847,105
1848,105
1849,105
1850,105
1851,105
1852,105
1853,105
1854,105
1855,105
1856,105
1857,105
1858,105
1859,105
1860,105
1861,105
1862,105
1863,105
1864,105
1865,105
1866,105
1867,105
1868,105
1869,105
1870,105
1871,106
1872,106
1873,106
1874,106
1875,106
1876,106
1877,106
1878,106
1879,106
1880,106
1881,106
1882,106
1883,106
1884,106
1885,106
1886,106
1887,106
1888,106
1889,106
1890,106
1891,106
1892,106
1893,107
1894,107
1895,107
1896,107
1897,107
1898,108
1899,108
1900,109
1901,109
1902,109
1903,109
1904,109
1905,109
1906,109
1907,109
1908,109
1909,110
1910,110
1911,110
1912,110
1913,110
1914,110
1915,110
1916,110
1917,110
1918,110
1919,110
1920,110
1921,110
1922,110
1923,110
1924,110
1925,110
1926,110
1927,110
1928,110
1929,110
1930,110
1931,110
1932,110
1933,110
1934,110
1935,111
1936,111
1937,111
1938,111
1939,111
1940,111
1941,111
1942,111
1943,111
1944,111
1945,111
1946,111
1947,111
1948,111
1949,111
1950,111
1951,111
1952,111
1953,111
1954,111
1955,111
1956,111
1957,111
1958,111
1959,111
1960,111
1961,111
1962,111
1963,112
1964,112
1965,112
1966,112
1967,112
1968,112
1969,112
1970,112
1971,112
1972,112
1973,113
1974,113
1975,113
1976,113
1977,113
1978,113
1979,113
1980,113
1981,113
1982,113
1983,113
1984,114
1985,114
1986,115
1987,115
1988,115
1989,115
1990,115
1991,115
1992,115
1993,115
1994,115
1995,115
1996,115
1997,115
1998,115
1999,115
2000,115
