"tick","total"
0,0
1,1
2,1
3,1
4,1
5,1
6,1
7,1
8,1
9,1
10,1
11,1
12,1
13,1
14,1
15,1
16,1
17,1
18,1
19,1
20,1
21,1
22,1
23,1
24,1
25,1
26,1
27,1
28,1
29,1
30,1
31,1
32,1
33,1
34,1
35,1
36,1
37,1
38,1
39,1
40,1
41,1
42,1
43,1
44,1
45,1
46,1
47,1
48,1
49,1
50,1
51,1
52,1
53,1
54,1
55,1
56,1
57,1
58,1
59,1
60,1
61,1
62,1
63,1
64,1
65,1
66,1
67,1
68,1
69,1
70,1
71,1
72,1
73,1
74,1
75,1
76,1
77,1
78,1
79,1
80,1
81,1
82,1
83,1
84,1
85,1
86,1
87,1
88,1
89,1
90,1
91,1
92,1
93,1
94,1
95,1
96,1
97,1
98,1
99,1
100,1
101,1
102,1
103,1
104,1
105,1
106,1
107,1
108,1
109,1
110,1
111,1
112,1
113,1
114,1
115,1
116,1
117,1
118,1
119,1
120,1
121,1
122,1
123,1
124,1
125,1
126,1
127,1
128,1
129,1
130,1
131,1
132,1
133,1
134,1
135,1
136,1
137,1
138,1
139,1
140,1
141,1
142,1
143,1
144,1
145,1
146,1
147,1
148,1
149,1
150,1
151,1
152,1
153,1
154,1
155,1
156,1
157,1
158,1
159,1
160,1
161,1
162,1
163,1
164,1
165,1
166,1
167,1
168,1
169,1
170,1
171,1
172,1
173,1
174,1
175,1
176,1
177,1
178,1
179,1
180,1
181,1
182,1
183,1
184,1
185,1
186,1
187,1
188,1
189,1
190,1
191,1
192,1
193,1
194,1
195,1
196,1
197,1
198,1
199,1
200,1
201,1
202,1
203,1
204,1
205,1
206,1
207,1
208,1
209,1
210,1
211,1
212,1
213,1
214,1
215,1
216,2
217,2
218,2
219,2
220,2
221,2
222,2
223,2
224,2
225,2
226,2
227,2
228,2
229,2
230,2
231,2
232,2
233,2
234,2
235,2
236,2
237,2
238,2
239,2
240,2
241,2
242,2
243,2
244,2
245,2
246,2
247,2
248,2
249,2
250,2
251,3
252,3
253,3
254,4
255,4
256,4
257,4
258,5
259,6
260,6
261,6
262,6
263,6
264,6
265,6
266,6
267,6
268,6
269,7
270,7
271,7
272,7
273,7
274,7
275,7
276,7
277,7
278,7
279,8
280,8
281,8
282,8
283,9
284,9
285,10
286,10
287,10
288,10
289,10
290,10
291,10
292,10
293,11
294,11
295,11
296,11
297,11
298,11
299,11
300,12
301,12
302,13
303,14
304,14
305,14
306,14
307,14
308,14
309,14
310,14
311,14
312,14
313,14
314,14
315,14
316,14
317,14
318,14
319,14
320,14
321,15
322,15
323,15
324,15
325,15
326,15
327,16
328,16
329,16
330,16
331,17
332,19
333,19
334,19
335,19
336,19
337,19
338,20
339,20
340,20
341,20
342,20
343,20
344,20
345,20
346,20
347,20
348,21
349,21
350,21
351,21
352,21
353,21
354,21
355,21
356,21
357,21
358,21
359,21
360,21
361,21
362,21
363,21
364,21
365,21
366,21
367,21
368,22
369,22
370,22
371,22
372,22
373,22
374,22
375,22
376,22
377,23
378,23
379,23
380,23
381,23
382,23
383,23
384,24
385,24
386,24
387,26
388,27
389,27
390,27
391,27
392,27
393,27
394,27
395,27
396,27
397,28
398,28
399,28
400,28
401,28
402,28
403,29
404,29
405,29
406,29
407,29
408,29
409,29
410,29
411,29
412,29
413,29
414,29
415,29
416,29
417,29
418,29
419,29
420,29
421,29
422,29
423,29
424,29
425,29
426,29
427,29
428,29
429,30
430,30
431,30
432,30
433,30
434,30
435,30
436,31
437,31
438,31
439,31
440,31
441,31
442,31
443,31
444,31
445,31
446,31
447,31
448,31
449,31
450,31
451,31
452,31
453,31
454,31
455,31
456,31
457,31
458,31
459,31
460,31
461,31
462,31
463,31
464,31
465,31
466,31
467,31
468,31
469,31
470,31
471,31
472,31
473,31
474,31
475,31
476,31
477,31
478,31
479,31
480,31
481,31
482,31
483,31
484,31
485,31
486,31
487,31
488,31
489,31
490,31
491,31
492,32
493,32
494,32
495,32
496,32
497,32
498,32
499,32
500,32
501,32
502,32
503,32
504,32
505,32
506,32
507,32
508,32
509,32
510,32
511,32
512,32
513,32
514,32
515,32
516,32
517,32
518,32
519,32
520,32
521,32
522,32
523,32
524,32
525,32
526,32
527,32
528,32
529,32
530,32
531,32
532,32
533,32
534,32
535,32
536,32
537,32
538,32
539,32
540,32
541,32
542,32
543,32
544,32
545,32
546,32
547,32
548,32
549,32
550,32
551,32
552,33
553,33
554,33
555,33
556,33
557,33
558,33
559,33
560,34
561,34
562,34
563,34
564,34
565,34
566,34
567,34
568,34
569,34
570,34
571,34
572,34
573,34
574,34
575,34
576,34
577,34
578,34
579,34
580,34
581,34
582,34
583,34
584,34
585,34
586,34
587,34
588,34
589,34
590,34
591,34
592,35
593,35
594,35
595,35
596,35
597,35
598,35
599,35
600,35
601,35
602,35
603,35
604,35
605,35
606,35
607,35
608,35
609,35
610,35
611,35
612,35
613,35
614,35
615,35
616,35
617,35
618,35
619,35
620,35
621,35
622,36
623,36
624,36
625,36
626,36
627,36
628,36
629,36
630,36
631,36
632,36
633,36
634,36
635,38
636,38
637,38
638,38
639,38
640,38
641,38
642,38
643,38
644,38
645,38
646,38
647,38
648,38
649,38
650,38
651,38
652,38
653,38
654,38
655,38
656,38
657,38
658,38
659,38
660,38
661,38
662,38
663,38
664,38
665,38
666,38
667,38
668,38
669,38
670,38
671,38
672,38
673,38
674,38
675,38
676,38
677,38
678,38
679,38
680,38
681,38
682,38
683,38
684,38
685,38
686,38
687,38
688,38
689,38
690,38
691,38
692,38
693,38
694,38
695,38
696,38
697,38
698,38
699,38
700,38
701,38
702,38
703,38
704,38
705,38
706,38
707,38
708,38
709,38
710,38
711,38
712,38
713,38
714,38
715,38
716,39
717,39
718,39
719,39
720,39
721,39
722,39
723,39
724,39
725,39
726,39
727,39
728,39
729,39
730,39
731,39
732,39
733,39
734,39
735,39
736,39
737,39
738,39
739,39
740,39
741,39
742,39
743,39
744,39
745,39
746,39
747,39
748,39
749,39
750,39
751,39
752,39
753,39
754,39
755,39
756,39
757,39
758,40
759,40
760,40
761,40
762,40
763,40
764,40
765,40
766,40
767,40
768,40
769,40
770,40
771,40
772,40
773,40
774,40
775,40
776,40
777,40
778,40
779,40
780,40
781,40
782,41
783,41
784,41
785,41
786,41
787,41
788,41
789,41
790,41
791,41
792,41
793,41
794,41
795,41
796,41
797,41
798,41
799,41
800,41
801,41
802,41
803,41
804,41
805,41
806,41
807,41
808,41
809,41
810,41
811,41
812,41
813,41
814,41
815,41
816,41
817,41
818,41
819,41
820,41
821,41
822,41
823,41
824,41
825,41
826,41
827,41
828,41
829,41
830,41
831,41
832,41
833,41
834,41
835,41
836,41
837,41
838,41
839,41
840,42
841,42
842,42
843,42
844,42
845,42
846,42
847,42
848,42
849,42
850,42
851,42
852,42
853,42
854,42
855,42
856,42
857,42
858,42
859,42
860,42
861,42
862,42
863,42
864,42
865,42
866,42
867,42
868,42
869,42
870,42
871,42
872,42
873,42
874,42
875,43
876,43
877,43
878,43
879,43
880,43
881,43
882,44
883,44
884,44
885,44
886,44
887,44
888,44
889,44
890,44
891,44
892,44
893,44
894,44
895,44
896,44
897,45
898,45
899,45
900,45
901,45
902,45
903,45
904,45
905,45
906,45
907,45
908,45
909,45
910,45
911,45
912,45
913,45
914,45
915,46
916,46
917,46
918,46
919,46
920,46
921,46
922,46
923,46
924,46
925,47
926,47
927,47
928,47
929,47
930,47
931,47
932,47
933,47
934,47
935,47
936,47
937,47
938,47
939,47
940,47
941,47
942,47
943,47
944,47
945,47
946,47
947,47
948,47
949,47
950,47
951,47
952,47
953,47
954,47
955,47
956,47
957,47
958,47
959,47
960,47
961,47
962,47
963,47
964,47
965,47
966,47
967,47
968,48
969,48
970,48
971,48
972,48
973,48
974,48
975,48
976,48
977,48
978,48
979,48
980,48
981,48
982,48
983,48
984,48
985,48
986,48
987,48
988,48
989,48
990,48
991,49
992,49
993,49
994,49
995,49
996,50
997,50
998,50
999,50
1000,50
1001,50
1002,50
1003,50
1004,50
1005,50
1006,50
1007,50
1008,50
1009,50
1010,50
1011,50
1012,50
1013,50
1014,50
1015,50
1016,50
1017,50
1018,50
1019,50
1020,50
1021,51
1022,51
1023,51
1024,51
1025,51
1026,52
1027,52
1028,52
1029,53
1030,53
1031,53
1032,53
1033,53
1034,53
1035,53
1036,53
1037,53
1038,53
1039,53
1040,53
1041,53
1042,53
1043,53
1044,53
1045,53
1046,53
1047,53
1048,53
1049,53
1050,54
1051,54
1052,54
1053,54
1054,54
1055,54
1056,54
1057,54
1058,54
1059,55
1060,55
1061,55
1062,55
1063,55
1064,55
1065,55
1066,55
1067,55
1068,55
1069,55
1070,55
1071,55
1072,55
1073,55
1074,55
1075,55
1076,55
1077,55
1078,55
1079,56
1080,56
1081,56
1082,56
1083,56
1084,56
1085,56
1086,56
1087,56
1088,56
1089,56
1090,56
1091,56
1092,56
1093,56
1094,56
1095,56
1096,56
1097,56
1098,56
1099,56
1100,56
1101,56
1102,56
1103,56
1104,56
1105,56
1106,56
1107,56
1108,56
1109,56
1110,56
1111,56
1112,56
1113,56
1114,56
1115,56
1116,56
1117,56
1118,56
1119,56
1120,56
1121,56
1122,56
1123,56
1124,57
1125,57
1126,57
1127,57
1128,57
1129,57
1130,57
1131,57
1132,57
1133,57
1134,57
1135,57
1136,57
1137,57
1138,57
1139,57
1140,57
1141,57
1142,58
1143,58
1144,58
1145,58
1146,58
1147,58
1148,58
1149,58
1150,58
1151,58
1152,58
1153,58
1154,58
1155,58
1156,58
1157,58
1158,58
1159,58
1160,58
1161,58
1162,58
1163,58
1164,58
1165,59
1166,59
1167,59
1168,59
1169,59
1170,59
1171,59
1172,59
1173,59
1174,59
1175,59
1176,59
1177,59
1178,59
1179,59
1180,59
1181,59
1182,59
1183,59
1184,59
1185,59
1186,59
1187,59
1188,59
1189,59
1190,59
1191,59
1192,59
1193,59
1194,59
1195,59
1196,59
1197,59
1198,59
1199,59
1200,59
1201,59
1202,60
1203,60
1204,60
1205,61
1206,61
1207,61
1208,61
1209,61
1210,61
1211,61
1212,61
1213,61
1214,61
1215,61
1216,61
1217,61
1218,61
1219,61
1220,61
1221,61
1222,61
1223,61
1224,61
1225,61
1226,61
1227,61
1228,61
1229,61
1230,61
1231,61
1232,61
1233,61
1234,61
1235,61
1236,61
1237,61
1238,61
1239,61
1240,61
1241,61
1242,61
1243,61
1244,61
1245,61
1246,61
1247,61
1248,61
1249,61
1250,61
1251,61
1252,61
1253,61
1254,62
1255,62
1256,62
1257,62
1258,62
1259,62
1260,62
1261,62
1262,62
1263,62
1264,62
1265,62
1266,62
1267,62
1268,62
1269,62
1270,62
1271,62
1272,62
1273,62
1274,62
1275,62
1276,63
1277,63
1278,63
1279,63
1280,63
1281,63
1282,63
1283,63
1284,63
1285,63
1286,63
1287,64
1288,65
1289,65
1290,65
1291,65
1292,65
1293,65
1294,65
1295,65
1296,65
1297,65
1298,66
1299,66
1300,66
1301,66
1302,66
1303,66
1304,67
1305,67
1306,67
1307,67
1308,67
1309,67
1310,67
1311,67
1312,67
1313,67
1314,67
1315,67
1316,67
1317,67
1318,67
1319,67
1320,67
1321,67
1322,67
1323,67
1324,67
1325,67
1326,67
1327,67
1328,67
1329,67
1330,67
1331,67
1332,67
1333,67
1334,67
1335,67
1336,67
1337,67
1338,67
1339,67
1340,67
1341,67
1342,67
1343,67
1344,67
1345,67
1346,67
1347,67
1348,67
1349,67
1350,67
1351,67
1352,68
1353,68
1354,68
1355,68
1356,69
1357,69
1358,70
1359,70
1360,70
1361,70
1362,70
1363,70
1364,70
1365,70
1366,70
1367,70
1368,70
1369,70
1370,70
1371,70
1372,70
1373,70
1374,70
1375,70
1376,70
1377,70
1378,70
1379,70
1380,70
1381,70
1382,70
1383,70
1384,70
1385,70
1386,70
1387,70
1388,70
1389,70
1390,70
1391,70
1392,70
1393,70
1394,70
1395,70
1396,70
1397,70
1398,70
1399,70
1400,70
1401,70
1402,70
1403,71
1404,71
1405,71
1406,72
1407,72
1408,72
1409,72
1410,72
1411,72
1412,72
1413,72
1414,72
1415,72
1416,72
1417,72
1418,72
1419,72
1420,72
1421,72
1422,72
1423,72
1424,72
1425,72
1426,72
1427,72
1428,73
1429,73
1430,73
1431,73
1432,73
1433,73
1434,73
1435,73
1436,73
1437,73
1438,73
1439,73
1440,73
1441,73
1442,73
1443,73
1444,73
1445,73
1446,73
1447,73
1448,73
1449,73
1450,73
1451,73
1452,73
1453,73
1454,73
1455,73
1456,73
1457,73
1458,73
1459,73
1460,73
1461,73
1462,73
1463,73
1464,73
1465,73
1466,73
1467,73
1468,73
1469,73
1470,74
1471,74
1472,74
1473,74
1474,74
1475,74
1476,74
1477,74
1478,74
1479,74
1480,74
1481,74
1482,74
1483,74
1484,74
1485,75
1486,75
1487,75
1488,75
1489,75
1490,75
1491,75
1492,75
1493,75
1494,75
1495,75
1496,75
1497,75
1498,75
1499,75
1500,75
1501,75
1502,75
1503,75
1504,75
1505,75
1506,75
1507,75
1508,75
1509,75
1510,75
1511,75
1512,75
1513,75
1514,75
1515,75
1516,75
1517,75
1518,75
1519,75
1520,75
1521,75
1522,75
1523,75
1524,75
1525,75
1526,75
1527,75
1528,75
1529,75
1530,75
1531,75
1532,76
1533,76
1534,76
1535,76
1536,76
1537,76
1538,76
1539,76
1540,76
1541,76
1542,76
1543,76
1544,76
1545,76
1546,76
1547,76
1548,76
1549,76
1550,77
1551,77
1552,77
1553,77
1554,78
1555,78
1556,79
1557,79
1558,79
1559,79
1560,79
1561,79
1562,79
1563,79
1564,79
1565,79
1566,79
1567,79
1568,79
1569,79
1570,79
1571,79
1572,79
1573,79
1574,80
1575,80
1576,80
1577,80
1578,80
1579,81
1580,81
1581,81
1582,81
1583,81
1584,81
1585,81
1586,81
1587,81
1588,81
1589,81
1590,81
1591,81
1592,81
1593,81
1594,81
1595,81
1596,81
1597,81
1598,81
1599,81
1600,81
1601,81
1602,81
1603,81
1604,81
1605,81
1606,81
1607,81
1608,81
1609,81
1610,81
1611,81
1612,81
1613,81
1614,81
1615,81
1616,81
1617,81
1618,81
1619,81
1620,81
1621,81
1622,81
1623,81
1624,81
1625,81
1626,81
1627,81
1628,81
1629,81
1630,81
1631,81
1632,81
1633,81
1634,81
1635,81
1636,81
1637,81
1638,81
1639,81
1640,81
1641,81
1642,81
1643,81
1644,81
1645,81
1646,81
1647,81
1648,81
1649,81
1650,81
1651,81
1652,82
1653,82
1654,82
1655,82
1656,82
1657,82
1658,82
1659,82
1660,82
1661,82
1662,82
1663,82
1664,82
1665,82
1666,82
1667,82
1668,82
1669,82
1670,82
1671,82
1672,82
1673,82
1674,82
1675,82
1676,83
1677,83
1678,83
1679,83
1680,83
1681,84
1682,84
1683,84
1684,84
1685,84
1686,85
1687,85
1688,85
1689,85
1690,85
1691,85
1692,85
1693,85
1694,85
1695,85
1696,85
1697,85
1698,85
1699,85
1700,85
1701,85
1702,85
1703,85
1704,85
1705,85
1706,85
1707,85
1708,85
1709,85
1710,85
1711,85
1712,85
1713,85
1714,85
1715,85
1716,85
1717,85
1718,85
1719,85
1720,85
1721,85
1722,85
1723,85
1724,85
1725,85
1726,85
1727,85
1728,85
1729,85
1730,85
1731,85
1732,85
1733,85
1734,85
1735,85
1736,85
1737,85
1738,85
1739,85
1740,85
1741,85
1742,85
1743,85
1744,85
1745,85
1746,85
1747,85
1748,86
1749,86
1750,86
1751,86
1752,86
1753,86
1754,86
1755,86
1756,86
1757,86
1758,87
1759,87
1760,87
1761,87
1762,87
1763,87
1764,87
1765,87
1766,87
1767,87
1768,87
1769,87
1770,87
1771,87
1772,87
1773,87
1774,87
1775,87
1776,87
1777,87
1778,87
1779,87
1780,87
1781,87
1782,87
1783,88
1784,88
1785,88
1786,88
1787,88
1788,88
1789,89
1790,90
1791,90
1792,90
1793,91
1794,91
1795,92
1796,92
1797,92
1798,92
1799,92
1800,92
1801,92
1802,92
1803,92
1804,92
1805,92
1806,93
1807,93
1808,93
1809,93
1810,93
1811,93
1812,93
1813,93
1814,94
1815,94
1816,94
1817,94
1818,94
1819,94
1820,94
1821,94
1822,94
1823,94
1824,94
1825,94
1826,94
1827,94
1828,94
1829,94
1830,95
1831,95
1832,95
1833,95
1834,95
1835,95
1836,95
1837,95
1838,95
1839,95
1840,95
1841,95
1842,95
1843,95
1844,95
1845,95
1846,96
1847,96
1848,96
1849,96
1850,96
1851,96
1852,96
1853,96
1854,96
1855,96
1856,96
1857,97
1858,97
1859,97
1860,97
1861,97
1862,97
1863,97
1864,97
1865,97
1866,97
1867,97
1868,97
1869,97
1870,97
1871,97
1872,97
1873,97
1874,97
1875,97
1876,97
1877,97
1878,97
1879,97
1880,97
1881,97
1882,97
1883,97
1884,97
1885,97
1886,97
1887,97
1888,97
1889,97
1890,98
1891,98
1892,98
1893,98
1894,98
1895,98
1896,98
1897,98
1898,98
1899,98
1900,98
1901,98
1902,98
1903,98
1904,98
1905,99
1906,99
1907,99
1908,99
1909,99
1910,99
1911,99
1912,99
1913,99
1914,99
1915,99
1916,99
1917,99
1918,99
1919,99
1920,99
1921,99
1922,99
1923,99
1924,99
1925,99
1926,99
1927,99
1928,99
1929,99
1930,99
1931,99
1932,99
1933,99
1934,99
1935,99
1936,99
1937,99
1938,99
1939,99
1940,99
1941,99
1942,99
1943,99
1944,99
1945,99
1946,99
1947,99
1948,99
1949,99
1950,99
1951,99
1952,99
1953,99
1954,99
1955,99
1956,99
1957,99
1958,99
1959,99
1960,99
1961,99
1962,99
1963,99
1964,99
1965,99
1966,99
1967,99
1968,99
1969,99
1970,99
1971,99
1972,99
1973,99
1974,99
1975,99
1976,99
1977,99
1978,99
1979,99
1980,99
1981,99
1982,99
1983,99
1984,99
1985,99
1986,99
1987,99
1988,99
1989,99
1990,99
1991,99
1992,99
1993,99
1994,99
1995,99
1996,99
1997,99
1998,99
1999,99
2000,99
