"tick","total"
0,0
1,0
2,0
3,0
4,0
5,0
6,0
7,0
8,0
9,0
10,0
11,0
12,0
13,0
14,0
15,0
16,0
17,0
18,0
19,0
20,0
21,0
22,0
23,0
24,0
25,0
26,0
27,0
28,0
29,0
30,0
31,0
32,0
33,0
34,0
35,0
36,0
37,0
38,0
39,0
40,0
41,0
42,0
43,0
44,0
45,0
46,0
47,0
48,0
49,0
50,0
51,0
52,0
53,0
54,0
55,0
56,0
57,0
58,0
59,0
60,0
61,0
62,0
63,0
64,0
65,0
66,0
67,0
68,0
69,0
70,0
71,0
72,0
73,0
74,0
75,0
76,0
77,0
78,0
79,0
80,0
81,0
82,0
83,0
84,0
85,0
86,0
87,0
88,0
89,0
90,0
91,0
92,0
93,0
94,0
95,0
96,0
97,0
98,0
99,0
100,0
101,0
102,0
103,0
104,0
105,0
106,0
107,0
108,0
109,0
110,0
111,0
112,0
113,0
114,0
115,0
116,0
117,0
118,0
119,0
120,0
121,0
122,0
123,0
124,0
125,0
126,0
127,0
128,0
129,0
130,0
131,0
132,0
133,0
134,0
135,0
136,0
137,0
138,0
139,0
140,0
141,0
142,0
143,0
144,0
145,0
146,0
147,0
148,0
149,0
150,0
151,0
152,0
153,0
154,0
155,0
156,0
157,0
158,0
159,0
160,0
161,0
162,0
163,0
164,0
165,0
166,0
167,0
168,0
169,0
170,0
171,0
172,0
173,0
174,0
175,0
176,0
177,0
178,0
179,0
180,0
181,0
182,0
183,0
184,0
185,0
186,0
187,0
188,0
189,0
190,0
191,0
192,0
193,0
194,0
195,0
196,0
197,0
198,0
199,0
200,0
201,0
202,0
203,0
204,0
205,0
206,0
207,0
208,0
209,1
210,1
211,1
212,1
213,1
214,1
215,1
216,1
217,1
218,1
219,1
220,1
221,1
222,1
223,1
224,1
225,1
226,1
227,1
228,1
229,1
230,1
231,1
232,1
233,1
234,1
235,1
236,2
237,2
238,2
239,2
240,2
241,2
242,2
243,2
244,2
245,2
246,2
247,2
248,2
249,2
250,2
251,2
252,3
253,3
254,4
255,4
256,4
257,5
258,6
259,6
260,6
261,6
262,6
263,6
264,6
265,6
266,6
267,7
268,8
269,8
270,8
271,8
272,8
273,8
274,8
275,8
276,8
277,8
278,8
279,8
280,8
281,8
282,8
283,8
284,8
285,8
286,8
287,8
288,8
289,8
290,9
291,9
292,10
293,10
294,10
295,10
296,10
297,10
298,10
299,10
300,10
301,10
302,10
303,11
304,11
305,11
306,11
307,11
308,12
309,12
310,12
311,12
312,12
313,12
314,12
315,12
316,12
317,12
318,12
319,12
320,12
321,12
322,12
323,12
324,12
325,12
326,12
327,12
328,12
329,12
330,12
331,12
332,12
333,12
334,12
335,12
336,12
337,12
338,12
339,12
340,13
341,13
342,13
343,13
344,13
345,13
346,13
347,13
348,13
349,13
350,13
351,13
352,13
353,14
354,14
355,16
356,16
357,16
358,16
359,17
360,18
361,18
362,19
363,19
364,19
365,19
366,19
367,19
368,19
369,19
370,19
371,19
372,19
373,19
374,19
375,19
376,19
377,19
378,19
379,20
380,20
381,20
382,20
383,20
384,20
385,20
386,20
387,20
388,20
389,20
390,20
391,22
392,22
393,22
394,22
395,22
396,22
397,22
398,22
399,22
400,22
401,22
402,22
403,22
404,22
405,22
406,22
407,22
408,22
409,22
410,22
411,22
412,23
413,23
414,23
415,23
416,24
417,24
418,24
419,24
420,24
421,25
422,25
423,25
424,25
425,25
426,25
427,25
428,25
429,25
430,25
431,25
432,26
433,26
434,26
435,26
436,27
437,27
438,27
439,27
440,27
441,27
442,27
443,27
444,27
445,27
446,27
447,27
448,27
449,28
450,28
451,28
452,28
453,28
454,28
455,28
456,28
457,28
458,28
459,28
460,28
461,28
462,28
463,28
464,28
465,28
466,28
467,28
468,28
469,28
470,28
471,28
472,28
473,28
474,28
475,28
476,28
477,29
478,29
479,29
480,29
481,29
482,29
483,30
484,30
485,30
486,30
487,30
488,30
489,30
490,30
491,30
492,30
493,30
494,30
495,30
496,30
497,30
498,30
499,30
500,30
501,30
502,30
503,30
504,30
505,30
506,30
507,30
508,30
509,30
510,30
511,30
512,30
513,30
514,30
515,30
516,30
517,30
518,30
519,30
520,30
521,30
522,30
523,30
524,30
525,30
526,30
527,30
528,30
529,30
530,30
531,30
532,30
533,30
534,30
535,30
536,30
537,30
538,30
539,30
540,30
541,30
542,30
543,30
544,30
545,30
546,30
547,30
548,30
549,30
550,30
551,30
552,30
553,30
554,30
555,30
556,30
557,30
558,30
559,30
560,30
561,30
562,30
563,30
564,30
565,30
566,30
567,30
568,30
569,30
570,30
571,31
572,31
573,31
574,31
575,31
576,31
577,31
578,31
579,31
580,31
581,31
582,31
583,31
584,31
585,31
586,31
587,31
588,31
589,31
590,31
591,31
592,31
593,31
594,31
595,31
596,31
597,31
598,31
599,31
600,31
601,31
602,31
603,31
604,31
605,31
606,31
607,31
608,31
609,31
610,31
611,31
612,31
613,31
614,31
615,31
616,32
617,32
618,32
619,32
620,32
621,32
622,32
623,32
624,32
625,32
626,32
627,32
628,32
629,32
630,32
631,32
632,32
633,32
634,32
635,32
636,32
637,32
638,32
639,32
640,32
641,33
642,33
643,33
644,33
645,33
646,33
647,33
648,34
649,34
650,34
651,34
652,34
653,34
654,34
655,34
656,34
657,34
658,34
659,34
660,34
661,34
662,34
663,34
664,34
665,34
666,34
667,34
668,34
669,34
670,34
671,34
672,34
673,34
674,34
675,34
676,34
677,34
678,34
679,34
680,34
681,34
682,34
683,34
684,34
685,34
686,34
687,34
688,34
689,34
690,34
691,34
692,34
693,34
694,34
695,34
696,34
697,34
698,34
699,35
700,35
701,35
702,35
703,35
704,35
705,35
706,35
707,35
708,35
709,35
710,35
711,35
712,35
713,35
714,36
715,36
716,36
717,36
718,36
719,36
720,36
721,36
722,36
723,36
724,36
725,36
726,36
727,36
728,37
729,37
730,37
731,37
732,37
733,37
734,37
735,37
736,37
737,37
738,37
739,37
740,37
741,37
742,37
743,37
744,37
745,37
746,37
747,37
748,37
749,37
750,37
751,37
752,37
753,38
754,38
755,38
756,38
757,38
758,38
759,38
760,38
761,38
762,38
763,38
764,38
765,38
766,38
767,39
768,39
769,39
770,39
771,39
772,39
773,39
774,39
775,39
776,39
777,39
778,39
779,39
780,39
781,39
782,39
783,39
784,39
785,39
786,39
787,39
788,39
789,39
790,39
791,39
792,39
793,40
794,40
795,40
796,40
797,40
798,40
799,40
800,40
801,40
802,40
803,40
804,40
805,40
806,40
807,40
808,40
809,40
810,40
811,40
812,40
813,40
814,40
815,40
816,41
817,41
818,41
819,41
820,41
821,41
822,41
823,42
824,42
825,42
826,42
827,42
828,42
829,42
830,42
831,42
832,42
833,42
834,42
835,42
836,42
837,42
838,42
839,42
840,42
841,42
842,42
843,42
844,42
845,42
846,42
847,42
848,42
849,42
850,42
851,42
852,42
853,42
854,42
855,42
856,42
857,42
858,42
859,42
860,42
861,42
862,42
863,42
864,42
865,42
866,42
867,42
868,42
869,42
870,42
871,42
872,43
873,43
874,43
875,43
876,43
877,43
878,43
879,43
880,43
881,43
882,43
883,43
884,43
885,43
886,43
887,43
888,43
889,43
890,43
891,43
892,43
893,43
894,43
895,43
896,43
897,43
898,43
899,43
900,43
901,43
902,43
903,43
904,43
905,43
906,43
907,44
908,44
909,44
910,44
911,44
912,44
913,44
914,44
915,44
916,44
917,44
918,44
919,44
920,44
921,44
922,44
923,44
924,44
925,44
926,44
927,44
928,44
929,44
930,44
931,44
932,44
933,44
934,44
935,44
936,44
937,44
938,44
939,44
940,44
941,44
942,44
943,44
944,44
945,44
946,44
947,44
948,44
949,44
950,44
951,44
952,45
953,45
954,45
955,45
956,45
957,45
958,45
959,45
960,45
961,45
962,45
963,45
964,45
965,45
966,45
967,45
968,45
969,45
970,45
971,46
972,46
973,46
974,46
975,46
976,46
977,46
978,46
979,46
980,46
981,46
982,46
983,46
984,46
985,47
986,47
987,47
988,47
989,47
990,47
991,47
992,47
993,47
994,47
995,47
996,47
997,47
998,47
999,48
1000,48
1001,48
1002,48
1003,48
1004,48
1005,48
1006,48
1007,48
1008,48
1009,48
1010,48
1011,48
1012,48
1013,48
1014,48
1015,48
1016,48
1017,48
1018,48
1019,48
1020,48
1021,48
1022,48
1023,48
1024,48
1025,48
1026,48
1027,48
1028,48
1029,48
1030,48
1031,48
1032,48
1033,48
1034,49
1035,49
1036,49
1037,49
1038,49
1039,49
1040,49
1041,49
1042,49
1043,49
1044,49
1045,49
1046,49
1047,49
1048,49
1049,49
1050,49
1051,49
1052,49
1053,49
1054,49
1055,49
1056,49
1057,49
1058,49
1059,49
1060,49
1061,49
1062,49
1063,49
1064,49
1065,49
1066,49
1067,49
1068,49
1069,49
1070,49
1071,49
1072,49
1073,49
1074,50
1075,50
1076,50
1077,50
1078,50
1079,50
1080,50
1081,50
1082,50
1083,50
1084,50
1085,51
1086,52
1087,52
1088,52
1089,52
1090,53
1091,53
1092,53
1093,53
1094,53
1095,53
1096,53
1097,53
1098,53
1099,53
1100,53
1101,53
1102,53
1103,53
1104,53
1105,53
1106,53
1107,53
1108,53
1109,53
1110,53
1111,54
1112,54
1113,54
1114,54
1115,54
1116,54
1117,54
1118,54
1119,54
1120,54
1121,54
1122,54
1123,54
1124,54
1125,54
1126,55
1127,55
1128,55
1129,55
1130,55
1131,55
1132,55
1133,55
1134,55
1135,55
1136,55
1137,55
1138,55
1139,55
1140,55
1141,56
1142,56
1143,56
1144,57
1145,57
1146,57
1147,57
1148,57
1149,57
1150,57
1151,57
1152,57
1153,57
1154,57
1155,57
1156,57
1157,57
1158,57
1159,57
1160,57
1161,57
1162,57
1163,57
1164,57
1165,57
1166,57
1167,58
1168,58
1169,58
1170,58
1171,58
1172,58
1173,58
1174,58
1175,58
1176,59
1177,59
1178,59
1179,59
1180,59
1181,59
1182,59
1183,59
1184,60
1185,60
1186,60
1187,60
1188,60
1189,60
1190,60
1191,60
1192,60
1193,60
1194,60
1195,60
1196,60
1197,60
1198,60
1199,60
1200,60
1201,60
1202,60
1203,60
1204,60
1205,60
1206,60
1207,60
1208,60
1209,60
1210,60
1211,60
1212,60
1213,60
1214,60
1215,60
1216,60
1217,60
1218,60
1219,60
1220,60
1221,60
1222,60
1223,60
1224,60
1225,60
1226,60
1227,60
1228,60
1229,60
1230,60
1231,60
1232,60
1233,60
1234,60
1235,60
1236,60
1237,60
1238,60
1239,60
1240,60
1241,60
1242,60
1243,60
1244,60
1245,60
1246,60
1247,60
1248,60
1249,60
1250,60
1251,60
1252,60
1253,60
1254,60
1255,60
1256,61
1257,61
1258,61
1259,61
1260,61
1261,61
1262,61
1263,61
1264,61
1265,61
1266,61
1267,61
1268,61
1269,61
1270,61
1271,61
1272,61
1273,61
1274,61
1275,61
1276,61
1277,61
1278,61
1279,61
1280,61
1281,61
1282,61
1283,61
1284,61
1285,61
1286,61
1287,61
1288,61
1289,61
1290,61
1291,62
1292,62
1293,62
1294,62
1295,62
1296,62
1297,62
1298,63
1299,63
1300,63
1301,63
1302,63
1303,63
1304,63
1305,63
1306,63
1307,64
1308,64
1309,64
1310,64
1311,64
1312,64
1313,64
1314,64
1315,64
1316,64
1317,65
1318,65
1319,65
1320,65
1321,65
1322,65
1323,65
1324,65
1325,65
1326,65
1327,65
1328,65
1329,65
1330,65
1331,65
1332,65
1333,65
1334,65
1335,65
1336,65
1337,65
1338,65
1339,65
1340,65
1341,65
1342,65
1343,65
1344,65
1345,65
1346,65
1347,65
1348,65
1349,65
1350,65
1351,65
1352,65
1353,65
1354,65
1355,66
1356,66
1357,66
1358,66
1359,66
1360,66
1361,66
1362,66
1363,66
1364,66
1365,66
1366,67
1367,67
1368,67
1369,67
1370,67
1371,67
1372,67
1373,67
1374,67
1375,67
1376,67
1377,67
1378,67
1379,67
1380,67
1381,67
1382,67
1383,67
1384,67
1385,68
1386,68
1387,68
1388,68
1389,68
1390,68
1391,69
1392,69
1393,69
1394,69
1395,69
1396,69
1397,69
1398,69
1399,69
1400,69
1401,69
1402,69
1403,69
1404,69
1405,69
1406,70
1407,70
1408,70
1409,70
1410,70
1411,70
1412,70
1413,70
1414,70
1415,70
1416,70
1417,70
1418,70
1419,70
1420,70
1421,70
1422,70
1423,70
1424,70
1425,71
1426,71
1427,72
1428,72
1429,72
1430,72
1431,72
1432,72
1433,72
1434,72
1435,72
1436,72
1437,72
1438,72
1439,72
1440,73
1441,73
1442,73
1443,73
1444,73
1445,73
1446,73
1447,73
1448,73
1449,73
1450,73
1451,73
1452,73
1453,73
1454,73
1455,73
1456,73
1457,73
1458,73
1459,73
1460,73
1461,73
1462,73
1463,74
1464,75
1465,75
1466,75
1467,75
1468,76
1469,76
1470,77
1471,77
1472,77
1473,77
1474,77
1475,77
1476,77
1477,77
1478,77
1479,77
1480,77
1481,77
1482,77
1483,77
1484,77
1485,77
1486,77
1487,77
1488,78
1489,78
1490,78
1491,78
1492,78
1493,79
1494,79
1495,79
1496,79
1497,79
1498,79
1499,79
1500,79
1501,80
1502,80
1503,80
1504,80
1505,80
1506,80
1507,80
1508,80
1509,80
1510,80
1511,80
1512,80
1513,80
1514,80
1515,80
1516,80
1517,80
1518,80
1519,80
1520,80
1521,80
1522,80
1523,81
1524,81
1525,81
1526,81
1527,82
1528,82
1529,82
1530,82
1531,82
1532,82
1533,82
1534,82
1535,83
1536,83
1537,83
1538,83
1539,83
1540,83
1541,83
1542,83
1543,83
1544,83
1545,83
1546,83
1547,83
1548,83
1549,83
1550,83
1551,83
1552,83
1553,83
1554,83
1555,83
1556,83
1557,83
1558,83
1559,83
1560,83
1561,83
1562,83
1563,83
1564,83
1565,83
1566,83
1567,83
1568,83
1569,83
1570,83
1571,83
1572,84
1573,84
1574,84
1575,85
1576,85
1577,85
1578,85
1579,85
1580,85
1581,85
1582,85
1583,85
1584,85
1585,85
1586,85
1587,85
1588,85
1589,85
1590,85
1591,85
1592,85
1593,85
1594,85
1595,85
1596,85
1597,85
1598,85
1599,85
1600,85
1601,85
1602,85
1603,85
1604,85
1605,85
1606,85
1607,85
1608,86
1609,86
1610,86
1611,87
1612,87
1613,87
1614,87
1615,87
1616,87
1617,87
1618,87
1619,87
1620,87
1621,87
1622,87
1623,87
1624,87
1625,87
1626,87
1627,87
1628,87
1629,87
1630,87
1631,87
1632,87
1633,87
1634,87
1635,87
1636,87
1637,87
1638,87
1639,87
1640,87
1641,87
1642,87
1643,87
1644,87
1645,87
1646,87
1647,87
1648,87
1649,87
1650,88
1651,89
1652,89
1653,89
1654,89
1655,90
1656,90
1657,90
1658,90
1659,90
1660,90
1661,90
1662,90
1663,90
1664,90
1665,90
1666,90
1667,90
1668,90
1669,90
1670,90
1671,90
1672,90
1673,90
1674,90
1675,90
1676,90
1677,90
1678,90
1679,90
1680,90
1681,90
1682,90
1683,90
1684,90
1685,90
1686,90
1687,90
1688,90
1689,90
1690,90
1691,90
1692,90
1693,90
1694,90
1695,90
1696,90
1697,90
1698,90
1699,90
1700,90
1701,90
1702,90
1703,90
1704,90
1705,90
1706,90
1707,90
1708,90
1709,90
1710,90
1711,90
1712,90
1713,90
1714,90
1715,90
1716,90
1717,90
1718,90
1719,90
1720,90
1721,90
1722,90
1723,90
1724,90
1725,90
1726,90
1727,90
1728,90
1729,90
1730,90
1731,90
1732,90
1733,90
1734,90
1735,90
1736,90
1737,90
1738,90
1739,90
1740,90
1741,90
1742,90
1743,90
1744,90
1745,90
1746,90
1747,90
1748,90
1749,90
1750,90
1751,90
1752,91
1753,91
1754,91
1755,91
1756,91
1757,91
1758,91
1759,91
1760,91
1761,91
1762,91
1763,91
1764,91
1765,91
1766,91
1767,91
1768,91
1769,91
1770,91
1771,91
1772,91
1773,91
1774,91
1775,91
1776,91
1777,91
1778,91
1779,91
1780,91
1781,91
1782,91
1783,92
1784,93
1785,93
1786,93
1787,93
1788,93
1789,93
1790,93
1791,93
1792,93
1793,93
1794,93
1795,93
1796,93
1797,93
1798,93
1799,93
1800,93
1801,93
1802,93
1803,93
1804,94
1805,94
1806,94
1807,94
1808,94
1809,94
1810,94
1811,94
1812,94
1813,94
1814,94
1815,94
1816,94
1817,94
1818,94
1819,94
1820,94
1821,94
1822,94
1823,94
1824,94
1825,94
1826,94
1827,94
1828,94
1829,94
1830,94
1831,94
1832,94
1833,94
1834,94
1835,94
1836,94
1837,94
1838,94
1839,94
1840,94
1841,94
1842,94
1843,94
1844,94
1845,94
1846,94
1847,94
1848,94
1849,94
1850,94
1851,94
1852,94
1853,94
1854,94
1855,94
1856,94
1857,94
1858,94
1859,94
1860,94
1861,94
1862,94
1863,94
1864,94
1865,94
1866,94
1867,94
1868,94
1869,94
1870,94
1871,94
1872,94
1873,94
1874,94
1875,94
1876,94
1877,94
1878,94
1879,94
1880,94
1881,94
1882,94
1883,94
1884,94
1885,94
1886,94
1887,94
1888,94
1889,94
1890,94
1891,94
1892,94
1893,95
1894,95
1895,95
1896,95
1897,95
1898,95
1899,95
1900,95
1901,95
1902,95
1903,95
1904,95
1905,95
1906,95
1907,95
1908,95
1909,95
1910,96
1911,97
1912,97
1913,97
1914,97
1915,97
1916,97
1917,97
1918,97
1919,97
1920,97
1921,97
1922,97
1923,97
1924,97
1925,97
1926,97
1927,97
1928,97
1929,97
1930,97
1931,97
1932,97
1933,97
1934,97
1935,97
1936,97
1937,97
1938,97
1939,97
1940,97
1941,97
1942,97
1943,97
1944,97
1945,97
1946,97
1947,98
1948,98
1949,98
1950,98
1951,98
1952,99
1953,99
1954,99
1955,99
1956,99
1957,99
1958,99
1959,99
1960,99
1961,99
1962,99
1963,99
1964,99
1965,99
1966,100
1967,101
1968,101
1969,101
1970,101
1971,101
1972,101
1973,101
1974,101
1975,102
1976,102
1977,102
1978,102
1979,102
1980,102
1981,102
1982,102
1983,102
1984,102
1985,102
1986,103
1987,103
1988,103
1989,103
1990,103
1991,103
1992,103
1993,103
1994,103
1995,103
1996,103
1997,103
1998,103
1999,103
2000,103
