"tick","total"
0,0
1,0
2,0
3,0
4,0
5,0
6,0
7,0
8,0
9,0
10,0
11,0
12,0
13,0
14,0
15,0
16,0
17,0
18,0
19,0
20,0
21,0
22,0
23,0
24,0
25,0
26,0
27,0
28,0
29,0
30,0
31,0
32,0
33,0
34,0
35,0
36,0
37,0
38,0
39,0
40,0
41,0
42,0
43,0
44,0
45,0
46,0
47,0
48,0
49,0
50,0
51,0
52,0
53,0
54,0
55,0
56,0
57,0
58,0
59,0
60,0
61,0
62,0
63,0
64,0
65,0
66,0
67,0
68,0
69,0
70,0
71,0
72,0
73,0
74,0
75,0
76,0
77,0
78,0
79,0
80,0
81,0
82,0
83,0
84,0
85,0
86,0
87,0
88,0
89,0
90,0
91,0
92,0
93,0
94,0
95,0
96,0
97,0
98,0
99,0
100,0
101,0
102,0
103,0
104,0
105,0
106,0
107,0
108,0
109,0
110,0
111,0
112,0
113,0
114,0
115,0
116,0
117,0
118,0
119,0
120,0
121,0
122,0
123,0
124,0
125,0
126,0
127,0
128,0
129,0
130,0
131,0
132,0
133,0
134,0
135,0
136,0
137,0
138,0
139,0
140,0
141,0
142,0
143,0
144,0
145,0
146,0
147,0
148,0
149,0
150,0
151,0
152,0
153,0
154,0
155,0
156,0
157,0
158,0
159,0
160,0
161,0
162,0
163,0
164,0
165,0
166,0
167,0
168,0
169,0
170,0
171,0
172,0
173,0
174,0
175,0
176,0
177,0
178,0
179,0
180,0
181,0
182,0
183,0
184,0
185,0
186,0
187,0
188,0
189,0
190,0
191,0
192,0
193,0
194,0
195,0
196,0
197,0
198,0
199,0
200,0
201,0
202,0
203,0
204,0
205,0
206,0
207,0
208,0
209,0
210,0
211,1
212,1
213,1
214,1
215,1
216,1
217,1
218,1
219,1
220,1
221,1
222,1
223,1
224,1
225,1
226,1
227,2
228,3
229,3
230,3
231,3
232,4
233,4
234,4
235,4
236,5
237,5
238,5
239,5
240,5
241,5
242,5
243,5
244,5
245,5
246,5
247,5
248,5
249,5
250,5
251,5
252,5
253,5
254,6
255,6
256,6
257,6
258,6
259,6
260,7
261,7
262,8
263,8
264,8
265,8
266,8
267,8
268,8
269,8
270,8
271,8
272,8
273,9
274,9
275,9
276,9
277,9
278,9
279,10
280,11
281,11
282,11
283,11
284,11
285,11
286,11
287,11
288,11
289,11
290,11
291,11
292,12
293,12
294,12
295,12
296,12
297,12
298,12
299,12
300,12
301,12
302,12
303,12
304,12
305,12
306,12
307,12
308,12
309,13
310,13
311,13
312,14
313,14
314,14
315,14
316,14
317,14
318,14
319,15
320,15
321,15
322,15
323,15
324,15
325,16
326,17
327,17
328,17
329,17
330,17
331,17
332,17
333,17
334,17
335,17
336,17
337,17
338,17
339,17
340,17
341,17
342,17
343,17
344,17
345,17
346,17
347,17
348,17
349,17
350,18
351,18
352,18
353,19
354,20
355,21
356,22
357,22
358,22
359,23
360,23
361,23
362,23
363,23
364,23
365,23
366,23
367,23
368,23
369,23
370,23
371,23
372,24
373,24
374,24
375,24
376,25
377,25
378,25
379,25
380,25
381,25
382,25
383,25
384,25
385,25
386,25
387,25
388,25
389,25
390,25
391,25
392,25
393,25
394,26
395,26
396,26
397,26
398,26
399,26
400,26
401,26
402,26
403,26
404,26
405,27
406,27
407,27
408,28
409,28
410,28
411,28
412,28
413,28
414,28
415,28
416,28
417,28
418,28
419,28
420,28
421,28
422,29
423,29
424,29
425,30
426,30
427,30
428,30
429,30
430,30
431,30
432,30
433,30
434,30
435,30
436,30
437,30
438,30
439,30
440,30
441,30
442,30
443,30
444,30
445,30
446,30
447,30
448,30
449,30
450,31
451,31
452,31
453,31
454,31
455,31
456,31
457,31
458,31
459,31
460,31
461,31
462,31
463,31
464,31
465,31
466,31
467,31
468,31
469,31
470,31
471,31
472,31
473,31
474,31
475,31
476,31
477,31
478,31
479,31
480,31
481,31
482,31
483,31
484,31
485,31
486,31
487,31
488,31
489,31
490,31
491,31
492,31
493,31
494,31
495,31
496,31
497,31
498,31
499,31
500,31
501,31
502,31
503,32
504,32
505,32
506,32
507,32
508,32
509,32
510,32
511,32
512,33
513,33
514,33
515,33
516,33
517,33
518,33
519,33
520,33
521,33
522,33
523,33
524,34
525,34
526,34
527,34
528,34
529,34
530,34
531,34
532,34
533,34
534,34
535,34
536,34
537,34
538,34
539,34
540,34
541,34
542,34
543,35
544,35
545,35
546,35
547,35
548,35
549,35
550,35
551,35
552,35
553,35
554,35
555,35
556,35
557,35
558,35
559,35
560,35
561,35
562,35
563,35
564,35
565,35
566,35
567,35
568,35
569,35
570,36
571,36
572,36
573,36
574,36
575,36
576,36
577,37
578,37
579,37
580,37
581,38
582,38
583,38
584,38
585,38
586,38
587,38
588,38
589,38
590,39
591,39
592,39
593,39
594,39
595,39
596,39
597,39
598,39
599,39
600,39
601,39
602,39
603,39
604,39
605,39
606,39
607,39
608,39
609,39
610,40
611,41
612,41
613,41
614,41
615,41
616,41
617,41
618,42
619,42
620,42
621,42
622,42
623,42
624,42
625,42
626,42
627,42
628,43
629,43
630,43
631,43
632,43
633,43
634,43
635,44
636,44
637,44
638,44
639,44
640,44
641,44
642,44
643,44
644,44
645,44
646,44
647,44
648,44
649,44
650,44
651,44
652,44
653,44
654,44
655,44
656,44
657,44
658,44
659,44
660,44
661,44
662,44
663,44
664,44
665,44
666,45
667,45
668,45
669,46
670,46
671,46
672,46
673,46
674,46
675,46
676,46
677,46
678,46
679,46
680,46
681,46
682,46
683,46
684,46
685,46
686,46
687,46
688,46
689,46
690,46
691,46
692,46
693,46
694,46
695,46
696,46
697,46
698,46
699,47
700,47
701,47
702,47
703,47
704,47
705,47
706,47
707,47
708,47
709,47
710,47
711,47
712,47
713,47
714,47
715,47
716,47
717,47
718,47
719,47
720,47
721,47
722,47
723,47
724,47
725,47
726,47
727,47
728,47
729,47
730,47
731,47
732,47
733,47
734,47
735,47
736,47
737,47
738,47
739,47
740,47
741,47
742,47
743,47
744,47
745,47
746,47
747,47
748,49
749,49
750,49
751,49
752,49
753,49
754,49
755,49
756,49
757,49
758,49
759,49
760,49
761,49
762,49
763,49
764,49
765,49
766,49
767,49
768,49
769,49
770,49
771,49
772,49
773,49
774,50
775,50
776,50
777,50
778,50
779,50
780,50
781,50
782,50
783,50
784,50
785,50
786,50
787,50
788,50
789,50
790,50
791,50
792,50
793,50
794,50
795,50
796,51
797,51
798,51
799,52
800,52
801,52
802,52
803,52
804,52
805,52
806,52
807,52
808,52
809,52
810,52
811,52
812,52
813,52
814,52
815,52
816,52
817,52
818,52
819,52
820,52
821,52
822,52
823,52
824,52
825,52
826,52
827,52
828,52
829,52
830,52
831,52
832,52
833,52
834,52
835,52
836,52
837,52
838,52
839,52
840,52
841,52
842,52
843,52
844,52
845,52
846,52
847,52
848,52
849,52
850,53
851,53
852,53
853,53
854,53
855,53
856,53
857,53
858,53
859,53
860,53
861,53
862,53
863,53
864,53
865,53
866,53
867,53
868,53
869,53
870,53
871,53
872,53
873,53
874,53
875,53
876,53
877,53
878,53
879,53
880,53
881,53
882,53
883,53
884,53
885,53
886,53
887,53
888,53
889,53
890,53
891,53
892,54
893,54
894,54
895,54
896,54
897,54
898,54
899,54
900,54
901,55
902,55
903,55
904,55
905,55
906,55
907,55
908,55
909,55
910,55
911,55
912,55
913,55
914,55
915,55
916,55
917,55
918,55
919,55
920,55
921,55
922,55
923,55
924,55
925,55
926,55
927,55
928,55
929,55
930,55
931,55
932,55
933,55
934,55
935,55
936,55
937,55
938,55
939,55
940,55
941,55
942,55
943,55
944,55
945,55
946,55
947,55
948,55
949,55
950,56
951,56
952,57
953,57
954,57
955,57
956,57
957,57
958,57
959,57
960,57
961,57
962,57
963,57
964,57
965,57
966,57
967,57
968,57
969,57
970,57
971,57
972,57
973,57
974,57
975,57
976,57
977,57
978,57
979,57
980,57
981,57
982,57
983,57
984,57
985,57
986,57
987,57
988,57
989,57
990,57
991,57
992,57
993,57
994,57
995,57
996,57
997,57
998,57
999,57
1000,57
1001,57
1002,57
1003,57
1004,57
1005,57
1006,57
1007,57
1008,57
1009,57
1010,57
1011,57
1012,57
1013,57
1014,57
1015,57
1016,57
1017,57
1018,57
1019,57
1020,57
1021,57
1022,57
1023,57
1024,57
1025,57
1026,57
1027,57
1028,57
1029,57
1030,57
1031,57
1032,57
1033,57
1034,57
1035,57
1036,57
1037,57
1038,57
1039,57
1040,57
1041,57
1042,57
1043,57
1044,57
1045,57
1046,57
1047,57
1048,57
1049,57
1050,57
1051,57
1052,57
1053,57
1054,57
1055,57
1056,58
1057,58
1058,58
1059,58
1060,58
1061,58
1062,58
1063,58
1064,59
1065,59
1066,59
1067,59
1068,59
1069,59
1070,59
1071,59
1072,59
1073,59
1074,59
1075,59
1076,59
1077,59
1078,59
1079,59
1080,59
1081,59
1082,59
1083,59
1084,59
1085,59
1086,59
1087,59
1088,59
1089,59
1090,59
1091,59
1092,59
1093,59
1094,59
1095,59
1096,59
1097,59
1098,59
1099,59
1100,59
1101,59
1102,59
1103,59
1104,59
1105,59
1106,59
1107,59
1108,59
1109,59
1110,59
1111,59
1112,59
1113,59
1114,59
1115,59
1116,59
1117,59
1118,59
1119,59
1120,59
1121,59
1122,59
1123,59
1124,59
1125,59
1126,59
1127,59
1128,59
1129,59
1130,59
1131,59
1132,59
1133,59
1134,59
1135,59
1136,59
1137,59
1138,59
1139,59
1140,59
1141,59
1142,59
1143,59
1144,59
1145,59
1146,59
1147,59
1148,59
1149,59
1150,59
1151,59
1152,59
1153,59
1154,59
1155,59
1156,59
1157,60
1158,60
1159,60
1160,60
1161,60
1162,60
1163,60
1164,60
1165,60
1166,60
1167,60
1168,60
1169,60
1170,60
1171,60
1172,60
1173,60
1174,60
1175,60
1176,60
1177,60
1178,60
1179,60
1180,60
1181,60
1182,60
1183,60
1184,60
1185,60
1186,60
1187,60
1188,60
1189,60
1190,60
1191,60
1192,60
1193,60
1194,60
1195,60
1196,60
1197,60
1198,60
1199,60
1200,60
1201,60
1202,60
1203,60
1204,60
1205,60
1206,60
1207,60
1208,60
1209,60
1210,60
1211,60
1212,60
1213,60
1214,60
1215,60
1216,60
1217,60
1218,60
1219,60
1220,60
1221,60
1222,60
1223,60
1224,60
1225,60
1226,60
1227,60
1228,60
1229,60
1230,60
1231,60
1232,60
1233,60
1234,60
1235,60
1236,60
1237,60
1238,60
1239,60
1240,60
1241,60
1242,60
1243,60
1244,60
1245,60
1246,60
1247,60
1248,60
1249,60
1250,60
1251,60
1252,60
1253,60
1254,60
1255,60
1256,60
1257,60
1258,60
1259,60
1260,60
1261,60
1262,60
1263,60
1264,60
1265,60
1266,60
1267,60
1268,60
1269,60
1270,60
1271,60
1272,60
1273,60
1274,60
1275,60
1276,60
1277,60
1278,60
1279,60
1280,60
1281,60
1282,60
1283,60
1284,60
1285,60
1286,60
1287,61
1288,61
1289,61
1290,61
1291,61
1292,61
1293,61
1294,61
1295,61
1296,61
1297,61
1298,61
1299,61
1300,61
1301,61
1302,61
1303,61
1304,61
1305,61
1306,61
1307,62
1308,62
1309,62
1310,62
1311,62
1312,62
1313,62
1314,62
1315,62
1316,62
1317,63
1318,63
1319,63
1320,63
1321,63
1322,63
1323,63
1324,63
1325,63
1326,63
1327,63
1328,63
1329,63
1330,63
1331,63
1332,63
1333,63
1334,63
1335,63
1336,63
1337,63
1338,63
1339,63
1340,63
1341,63
1342,63
1343,63
1344,63
1345,63
1346,63
1347,63
1348,63
1349,63
1350,63
1351,63
1352,63
1353,63
1354,64
1355,64
1356,64
1357,64
1358,64
1359,64
1360,64
1361,64
1362,64
1363,64
1364,64
1365,64
1366,64
1367,64
1368,64
1369,64
1370,64
1371,64
1372,64
1373,64
1374,64
1375,64
1376,64
1377,64
1378,64
1379,64
1380,64
1381,65
1382,65
1383,65
1384,65
1385,65
1386,66
1387,66
1388,66
1389,66
1390,66
1391,66
1392,66
1393,66
1394,66
1395,66
1396,66
1397,66
1398,66
1399,66
1400,66
1401,66
1402,66
1403,66
1404,67
1405,67
1406,67
1407,67
1408,67
1409,67
1410,67
1411,67
1412,67
1413,67
1414,67
1415,67
1416,67
1417,67
1418,67
1419,67
1420,67
1421,67
1422,68
1423,68
1424,68
1425,68
1426,68
1427,68
1428,68
1429,68
1430,68
1431,68
1432,68
1433,69
1434,70
1435,70
1436,70
1437,70
1438,70
1439,70
1440,70
1441,70
1442,70
1443,70
1444,70
1445,70
1446,70
1447,70
1448,70
1449,70
1450,70
1451,70
1452,70
1453,70
1454,70
1455,70
1456,70
1457,70
1458,70
1459,71
1460,72
1461,72
1462,72
1463,72
1464,72
1465,72
1466,72
1467,72
1468,72
1469,72
1470,72
1471,72
1472,72
1473,72
1474,72
1475,72
1476,72
1477,72
1478,72
1479,72
1480,72
1481,72
1482,72
1483,72
1484,73
1485,73
1486,73
1487,73
1488,74
1489,74
1490,74
1491,74
1492,74
1493,74
1494,74
1495,74
1496,74
1497,74
1498,74
1499,74
1500,74
1501,74
1502,74
1503,74
1504,74
1505,74
1506,74
1507,75
1508,76
1509,77
1510,77
1511,77
1512,77
1513,78
1514,78
1515,78
1516,78
1517,78
1518,78
1519,78
1520,78
1521,78
1522,78
1523,78
1524,78
1525,79
1526,79
1527,79
1528,79
1529,79
1530,79
1531,79
1532,79
1533,79
1534,79
1535,79
1536,79
1537,79
1538,79
1539,79
1540,80
1541,80
1542,80
1543,80
1544,80
1545,80
1546,80
1547,80
1548,80
1549,80
1550,80
1551,80
1552,80
1553,80
1554,82
1555,82
1556,82
1557,82
1558,82
1559,82
1560,82
1561,82
1562,83
1563,83
1564,83
1565,83
1566,83
1567,83
1568,83
1569,83
1570,83
1571,83
1572,83
1573,83
1574,83
1575,83
1576,83
1577,83
1578,83
1579,83
1580,83
1581,83
1582,83
1583,83
1584,83
1585,83
1586,83
1587,84
1588,84
1589,84
1590,84
1591,84
1592,84
1593,84
1594,84
1595,84
1596,84
1597,84
1598,84
1599,84
1600,84
1601,84
1602,85
1603,85
1604,85
1605,86
1606,86
1607,86
1608,86
1609,86
1610,86
1611,86
1612,86
1613,86
1614,86
1615,86
1616,86
1617,86
1618,86
1619,86
1620,86
1621,86
1622,86
1623,86
1624,86
1625,87
1626,87
1627,87
1628,87
1629,87
1630,87
1631,87
1632,87
1633,87
1634,87
1635,87
1636,87
1637,87
1638,87
1639,87
1640,87
1641,87
1642,87
1643,87
1644,87
1645,87
1646,87
1647,87
1648,87
1649,87
1650,87
1651,87
1652,87
1653,87
1654,87
1655,87
1656,87
1657,87
1658,87
1659,87
1660,88
1661,88
1662,88
1663,89
1664,89
1665,89
1666,90
1667,90
1668,90
1669,90
1670,90
1671,90
1672,90
1673,90
1674,90
1675,90
1676,90
1677,90
1678,90
1679,90
1680,90
1681,90
1682,90
1683,90
1684,90
1685,90
1686,90
1687,91
1688,91
1689,91
1690,91
1691,91
1692,91
1693,91
1694,91
1695,91
1696,91
1697,91
1698,91
1699,91
1700,91
1701,91
1702,91
1703,91
1704,91
1705,91
1706,91
1707,91
1708,91
1709,91
1710,91
1711,91
1712,91
1713,91
1714,91
1715,91
1716,91
1717,91
1718,91
1719,91
1720,91
1721,91
1722,91
1723,91
1724,91
1725,91
1726,91
1727,91
1728,91
1729,91
1730,91
1731,91
1732,91
1733,91
1734,91
1735,91
1736,91
1737,91
1738,91
1739,91
1740,91
1741,91
1742,91
1743,91
1744,91
1745,91
1746,91
1747,91
1748,91
1749,91
1750,91
1751,91
1752,91
1753,91
1754,91
1755,91
1756,91
1757,92
1758,92
1759,92
1760,92
1761,92
1762,92
1763,92
1764,92
1765,92
1766,92
1767,92
1768,92
1769,92
1770,92
1771,92
1772,92
1773,92
1774,92
1775,92
1776,92
1777,92
1778,92
1779,92
1780,92
1781,92
1782,92
1783,92
1784,92
1785,92
1786,92
1787,92
1788,92
1789,92
1790,92
1791,92
1792,92
1793,92
1794,92
1795,92
1796,92
1797,93
1798,93
1799,93
1800,93
1801,93
1802,93
1803,93
1804,94
1805,94
1806,94
1807,94
1808,94
1809,94
1810,94
1811,94
1812,94
1813,94
1814,94
1815,94
1816,94
1817,94
1818,94
1819,94
1820,94
1821,94
1822,95
1823,95
1824,95
1825,95
1826,95
1827,95
1828,95
1829,95
1830,95
1831,95
1832,95
1833,95
1834,96
1835,96
1836,96
1837,96
1838,96
1839,96
1840,96
1841,96
1842,96
1843,96
1844,96
1845,96
1846,96
1847,96
1848,96
1849,96
1850,96
1851,96
1852,96
1853,96
1854,96
1855,96
1856,96
1857,96
1858,96
1859,96
1860,96
1861,96
1862,96
1863,96
1864,96
1865,96
1866,96
1867,96
1868,96
1869,96
1870,97
1871,97
1872,97
1873,97
1874,97
1875,97
1876,97
1877,97
1878,97
1879,97
1880,97
1881,97
1882,97
1883,97
1884,97
1885,97
1886,97
1887,97
1888,97
1889,97
1890,97
1891,97
1892,97
1893,97
1894,97
1895,97
1896,97
1897,97
1898,97
1899,97
1900,97
1901,97
1902,97
1903,97
1904,97
1905,97
1906,97
1907,97
1908,98
1909,98
1910,98
1911,98
1912,98
1913,98
1914,98
1915,98
1916,99
1917,99
1918,99
1919,99
1920,99
1921,99
1922,99
1923,99
1924,99
1925,99
1926,99
1927,99
1928,99
1929,99
1930,99
1931,99
1932,99
1933,99
1934,99
1935,99
1936,99
1937,99
1938,99
1939,99
1940,99
1941,99
1942,99
1943,99
1944,99
1945,99
1946,100
1947,100
1948,100
1949,100
1950,100
1951,100
1952,100
1953,100
1954,100
1955,100
1956,100
1957,100
1958,100
1959,100
1960,100
1961,100
1962,100
1963,100
1964,100
1965,100
1966,101
1967,102
1968,102
1969,102
1970,102
1971,102
1972,102
1973,102
1974,102
1975,102
1976,102
1977,102
1978,102
1979,102
1980,102
1981,104
1982,104
1983,104
1984,104
1985,104
1986,104
1987,104
1988,104
1989,105
1990,105
1991,105
1992,105
1993,105
1994,105
1995,105
1996,105
1997,105
1998,105
1999,105
2000,106
