"tick","total"
0,0
1,0
2,0
3,0
4,0
5,0
6,0
7,0
8,0
9,0
10,0
11,0
12,0
13,0
14,0
15,0
16,0
17,0
18,0
19,0
20,0
21,0
22,0
23,0
24,0
25,0
26,0
27,0
28,0
29,0
30,0
31,0
32,0
33,0
34,0
35,0
36,0
37,0
38,0
39,0
40,0
41,0
42,0
43,0
44,0
45,0
46,0
47,0
48,0
49,0
50,0
51,0
52,0
53,0
54,0
55,0
56,0
57,0
58,0
59,0
60,0
61,0
62,0
63,0
64,0
65,0
66,0
67,0
68,0
69,0
70,0
71,0
72,0
73,0
74,0
75,0
76,0
77,0
78,0
79,0
80,0
81,0
82,0
83,0
84,0
85,0
86,0
87,0
88,0
89,0
90,0
91,0
92,0
93,0
94,0
95,0
96,0
97,0
98,0
99,0
100,0
101,0
102,0
103,0
104,0
105,0
106,0
107,0
108,0
109,0
110,0
111,0
112,0
113,1
114,1
115,1
116,1
117,1
118,1
119,1
120,1
121,1
122,1
123,1
124,1
125,1
126,1
127,1
128,1
129,1
130,1
131,1
132,1
133,1
134,1
135,1
136,1
137,1
138,1
139,1
140,1
141,1
142,1
143,1
144,1
145,1
146,1
147,1
148,1
149,1
150,1
151,1
152,1
153,1
154,1
155,1
156,1
157,1
158,1
159,1
160,1
161,1
162,1
163,1
164,1
165,1
166,1
167,1
168,1
169,1
170,1
171,1
172,1
173,1
174,2
175,2
176,2
177,2
178,2
179,2
180,3
181,3
182,3
183,3
184,4
185,4
186,4
187,4
188,4
189,4
190,4
191,4
192,4
193,4
194,4
195,4
196,4
197,4
198,5
199,5
200,5
201,5
202,7
203,7
204,7
205,7
206,7
207,7
208,8
209,8
210,8
211,8
212,8
213,8
214,8
215,8
216,8
217,8
218,8
219,9
220,9
221,9
222,9
223,9
224,9
225,9
226,10
227,10
228,10
229,10
230,10
231,10
232,11
233,11
234,11
235,11
236,11
237,11
238,11
239,11
240,11
241,11
242,11
243,11
244,11
245,11
246,12
247,12
248,12
249,13
250,13
251,13
252,13
253,13
254,13
255,13
256,13
257,13
258,13
259,13
260,13
261,13
262,13
263,13
264,13
265,13
266,13
267,13
268,13
269,13
270,13
271,13
272,13
273,13
274,13
275,14
276,14
277,14
278,14
279,14
280,14
281,15
282,15
283,15
284,15
285,15
286,15
287,15
288,16
289,17
290,17
291,17
292,17
293,17
294,17
295,17
296,17
297,18
298,18
299,18
300,18
301,18
302,18
303,18
304,19
305,19
306,19
307,19
308,19
309,19
310,19
311,20
312,20
313,20
314,20
315,20
316,20
317,20
318,20
319,20
320,20
321,20
322,20
323,20
324,20
325,20
326,20
327,21
328,21
329,21
330,21
331,21
332,21
333,21
334,21
335,21
336,21
337,21
338,21
339,21
340,21
341,21
342,22
343,23
344,23
345,23
346,23
347,23
348,23
349,23
350,23
351,23
352,23
353,23
354,23
355,23
356,23
357,23
358,23
359,23
360,23
361,23
362,23
363,23
364,23
365,23
366,23
367,23
368,23
369,23
370,23
371,23
372,23
373,23
374,23
375,23
376,23
377,25
378,25
379,25
380,25
381,25
382,25
383,25
384,25
385,25
386,25
387,25
388,25
389,25
390,25
391,25
392,25
393,25
394,25
395,25
396,25
397,25
398,25
399,26
400,26
401,26
402,26
403,26
404,26
405,26
406,26
407,26
408,26
409,26
410,26
411,26
412,26
413,26
414,26
415,26
416,26
417,26
418,26
419,26
420,26
421,26
422,26
423,26
424,26
425,27
426,27
427,27
428,29
429,29
430,29
431,29
432,29
433,29
434,29
435,29
436,29
437,29
438,29
439,29
440,30
441,30
442,30
443,30
444,30
445,30
446,30
447,30
448,30
449,30
450,30
451,30
452,30
453,30
454,30
455,30
456,30
457,30
458,30
459,30
460,30
461,30
462,30
463,30
464,30
465,30
466,30
467,30
468,30
469,30
470,30
471,30
472,31
473,31
474,31
475,31
476,31
477,31
478,31
479,31
480,31
481,31
482,31
483,31
484,31
485,31
486,31
487,31
488,31
489,31
490,31
491,31
492,31
493,31
494,32
495,32
496,32
497,32
498,32
499,32
500,32
501,32
502,32
503,32
504,32
505,32
506,32
507,32
508,32
509,32
510,32
511,32
512,32
513,32
514,32
515,32
516,32
517,32
518,32
519,32
520,32
521,32
522,32
523,32
524,32
525,32
526,32
527,32
528,33
529,33
530,33
531,33
532,33
533,33
534,33
535,33
536,33
537,33
538,34
539,34
540,34
541,34
542,34
543,34
544,34
545,34
546,34
547,34
548,34
549,34
550,34
551,34
552,34
553,34
554,34
555,34
556,34
557,34
558,34
559,34
560,34
561,34
562,34
563,34
564,34
565,34
566,34
567,34
568,34
569,34
570,34
571,35
572,35
573,35
574,35
575,35
576,35
577,35
578,35
579,35
580,36
581,36
582,36
583,36
584,36
585,36
586,36
587,37
588,37
589,37
590,37
591,37
592,37
593,37
594,37
595,37
596,37
597,37
598,37
599,37
600,37
601,37
602,37
603,37
604,37
605,37
606,37
607,37
608,37
609,37
610,37
611,37
612,37
613,37
614,37
615,37
616,37
617,37
618,38
619,38
620,38
621,38
622,38
623,38
624,39
625,39
626,39
627,39
628,39
629,39
630,39
631,39
632,39
633,39
634,39
635,39
636,39
637,39
638,39
639,39
640,39
641,39
642,39
643,39
644,39
645,39
646,39
647,39
648,39
649,39
650,39
651,39
652,39
653,39
654,39
655,39
656,39
657,39
658,39
659,39
660,39
661,40
662,40
663,40
664,40
665,40
666,40
667,40
668,40
669,42
670,42
671,43
672,43
673,43
674,43
675,43
676,43
677,43
678,43
679,43
680,43
681,43
682,43
683,43
684,43
685,43
686,43
687,43
688,43
689,43
690,43
691,43
692,43
693,43
694,43
695,43
696,43
697,43
698,43
699,43
700,43
701,43
702,43
703,43
704,43
705,44
706,44
707,44
708,44
709,44
710,44
711,44
712,44
713,45
714,45
715,45
716,45
717,45
718,45
719,45
720,45
721,46
722,46
723,46
724,47
725,48
726,48
727,48
728,48
729,48
730,49
731,49
732,49
733,49
734,49
735,49
736,49
737,49
738,49
739,49
740,49
741,49
742,49
743,49
744,49
745,49
746,49
747,49
748,49
749,49
750,49
751,49
752,49
753,49
754,49
755,49
756,49
757,49
758,49
759,49
760,49
761,49
762,49
763,49
764,49
765,49
766,49
767,49
768,49
769,49
770,49
771,49
772,49
773,49
774,49
775,50
776,50
777,50
778,50
779,50
780,50
781,50
782,50
783,50
784,50
785,50
786,50
787,50
788,50
789,50
790,50
791,50
792,50
793,50
794,50
795,50
796,50
797,50
798,50
799,50
800,50
801,50
802,50
803,50
804,50
805,50
806,50
807,51
808,51
809,51
810,51
811,51
812,51
813,51
814,51
815,51
816,51
817,52
818,52
819,52
820,52
821,52
822,52
823,52
824,52
825,52
826,52
827,52
828,52
829,53
830,53
831,53
832,53
833,53
834,53
835,53
836,53
837,53
838,53
839,53
840,53
841,53
842,54
843,54
844,54
845,54
846,54
847,54
848,54
849,54
850,54
851,54
852,54
853,54
854,54
855,54
856,54
857,54
858,55
859,55
860,55
861,55
862,55
863,56
864,56
865,56
866,56
867,56
868,56
869,56
870,56
871,56
872,56
873,56
874,56
875,56
876,56
877,56
878,56
879,56
880,56
881,56
882,56
883,56
884,56
885,56
886,56
887,56
888,56
889,56
890,56
891,56
892,56
893,56
894,56
895,56
896,56
897,56
898,56
899,56
900,56
901,56
902,56
903,56
904,56
905,56
906,56
907,56
908,56
909,56
910,56
911,56
912,56
913,56
914,56
915,56
916,57
917,57
918,58
919,58
920,58
921,58
922,60
923,60
924,60
925,60
926,60
927,60
928,60
929,60
930,60
931,60
932,60
933,60
934,60
935,60
936,60
937,60
938,60
939,61
940,61
941,61
942,61
943,61
944,61
945,61
946,61
947,61
948,61
949,61
950,61
951,61
952,61
953,61
954,63
955,63
956,63
957,63
958,63
959,63
960,63
961,64
962,64
963,65
964,65
965,65
966,65
967,65
968,65
969,65
970,65
971,65
972,65
973,65
974,65
975,66
976,66
977,66
978,66
979,66
980,66
981,66
982,66
983,66
984,67
985,67
986,67
987,67
988,67
989,67
990,67
991,67
992,67
993,67
994,67
995,67
996,67
997,67
998,67
999,67
1000,67
1001,67
1002,67
1003,67
1004,68
1005,68
1006,68
1007,68
1008,68
1009,68
1010,68
1011,68
1012,68
1013,69
1014,69
1015,69
1016,69
1017,69
1018,69
1019,69
1020,70
1021,70
1022,70
1023,70
1024,70
1025,71
1026,71
1027,71
1028,71
1029,71
1030,71
1031,71
1032,71
1033,71
1034,71
1035,71
1036,71
1037,71
1038,71
1039,71
1040,71
1041,71
1042,71
1043,71
1044,71
1045,71
1046,71
1047,71
1048,71
1049,71
1050,71
1051,71
1052,71
1053,71
1054,72
1055,72
1056,72
1057,72
1058,72
1059,72
1060,72
1061,72
1062,72
1063,72
1064,72
1065,72
1066,72
1067,72
1068,72
1069,72
1070,73
1071,73
1072,73
1073,73
1074,73
1075,73
1076,73
1077,73
1078,73
1079,73
1080,73
1081,74
1082,74
1083,74
1084,74
1085,74
1086,74
1087,74
1088,74
1089,74
1090,74
1091,74
1092,74
1093,74
1094,74
1095,74
1096,74
1097,74
1098,74
1099,74
1100,74
1101,74
1102,74
1103,74
1104,74
1105,75
1106,75
1107,75
1108,75
1109,75
1110,76
1111,76
1112,76
1113,76
1114,76
1115,77
1116,77
1117,77
1118,77
1119,77
1120,77
1121,77
1122,77
1123,77
1124,77
1125,77
1126,77
1127,77
1128,77
1129,77
1130,78
1131,78
1132,78
1133,78
1134,78
1135,78
1136,78
1137,78
1138,78
1139,78
1140,78
1141,78
1142,78
1143,78
1144,78
1145,78
1146,78
1147,78
1148,78
1149,78
1150,78
1151,78
1152,78
1153,78
1154,78
1155,78
1156,78
1157,78
1158,78
1159,78
1160,78
1161,78
1162,78
1163,78
1164,78
1165,78
1166,78
1167,78
1168,78
1169,78
1170,78
1171,78
1172,78
1173,78
1174,78
1175,78
1176,78
1177,78
1178,78
1179,79
1180,79
1181,79
1182,80
1183,80
1184,80
1185,80
1186,80
1187,80
1188,80
1189,80
1190,80
1191,80
1192,80
1193,80
1194,80
1195,80
1196,80
1197,80
1198,80
1199,80
1200,80
1201,80
1202,80
1203,80
1204,80
1205,80
1206,80
1207,80
1208,80
1209,80
1210,80
1211,80
1212,80
1213,81
1214,81
1215,81
1216,81
1217,81
1218,81
1219,81
1220,81
1221,81
1222,81
1223,81
1224,81
1225,81
1226,81
1227,81
1228,81
1229,81
1230,81
1231,81
1232,81
1233,81
1234,81
1235,81
1236,81
1237,82
1238,82
1239,82
1240,82
1241,82
1242,82
1243,82
1244,82
1245,82
1246,82
1247,82
1248,82
1249,82
1250,82
1251,82
1252,82
1253,82
1254,82
1255,83
1256,84
1257,84
1258,84
1259,84
1260,84
1261,84
1262,84
1263,84
1264,84
1265,84
1266,84
1267,84
1268,84
1269,84
1270,84
1271,84
1272,84
1273,84
1274,84
1275,84
1276,84
1277,84
1278,84
1279,84
1280,84
1281,84
1282,84
1283,84
1284,84
1285,84
1286,84
1287,84
1288,84
1289,84
1290,84
1291,84
1292,85
1293,85
1294,85
1295,85
1296,85
1297,85
1298,85
1299,85
1300,85
1301,85
1302,85
1303,85
1304,85
1305,85
1306,85
1307,85
1308,85
1309,85
1310,85
1311,85
1312,85
1313,85
1314,85
1315,85
1316,85
1317,85
1318,85
1319,85
1320,85
1321,85
1322,85
1323,85
1324,86
1325,86
1326,86
1327,86
1328,86
1329,86
1330,86
1331,86
1332,86
1333,86
1334,86
1335,86
1336,86
1337,87
1338,87
1339,87
1340,87
1341,87
1342,87
1343,87
1344,87
1345,88
1346,88
1347,89
1348,89
1349,89
1350,90
1351,90
1352,90
1353,91
1354,91
1355,91
1356,91
1357,91
1358,91
1359,91
1360,91
1361,91
1362,91
1363,91
1364,91
1365,92
1366,92
1367,92
1368,92
1369,92
1370,92
1371,93
1372,93
1373,93
1374,93
1375,93
1376,93
1377,94
1378,94
1379,94
1380,94
1381,94
1382,94
1383,94
1384,94
1385,94
1386,94
1387,94
1388,94
1389,94
1390,94
1391,94
1392,94
1393,94
1394,94
1395,94
1396,94
1397,94
1398,94
1399,95
1400,95
1401,95
1402,95
1403,95
1404,95
1405,95
1406,95
1407,95
1408,95
1409,95
1410,95
1411,95
1412,95
1413,95
1414,95
1415,95
1416,95
1417,95
1418,96
1419,96
1420,96
1421,96
1422,96
1423,96
1424,96
1425,96
1426,96
1427,96
1428,96
1429,96
1430,96
1431,96
1432,96
1433,96
1434,96
1435,96
1436,96
1437,96
1438,96
1439,96
1440,96
1441,96
1442,96
1443,96
1444,96
1445,96
1446,96
1447,96
1448,96
1449,96
1450,96
1451,96
1452,96
1453,96
1454,96
1455,96
1456,96
1457,96
1458,96
1459,96
1460,96
1461,96
1462,97
1463,97
1464,97
1465,97
1466,97
1467,97
1468,97
1469,97
1470,97
1471,97
1472,97
1473,97
1474,97
1475,97
1476,97
1477,97
1478,97
1479,98
1480,98
1481,98
1482,98
1483,98
1484,98
1485,98
1486,98
1487,98
1488,98
1489,98
1490,98
1491,98
1492,98
1493,98
1494,98
1495,98
1496,98
1497,98
1498,98
1499,98
1500,98
1501,98
1502,98
1503,98
1504,98
1505,98
1506,98
1507,98
1508,98
1509,98
1510,98
1511,98
1512,98
1513,98
1514,98
1515,98
1516,98
1517,98
1518,98
1519,98
1520,98
1521,98
1522,98
1523,98
1524,98
1525,98
1526,98
1527,98
1528,98
1529,98
1530,98
1531,98
1532,98
1533,99
1534,99
1535,99
1536,99
1537,99
1538,99
1539,100
1540,100
1541,100
1542,100
1543,100
1544,100
1545,100
1546,100
1547,100
1548,100
1549,100
1550,100
1551,100
1552,100
1553,100
1554,100
1555,100
1556,100
1557,100
1558,100
1559,100
1560,100
1561,100
1562,100
1563,100
1564,100
1565,100
1566,100
1567,100
1568,100
1569,100
1570,100
1571,100
1572,101
1573,101
1574,101
1575,101
1576,101
1577,101
1578,101
1579,101
1580,101
1581,101
1582,102
1583,102
1584,102
1585,102
1586,102
1587,102
1588,102
1589,102
1590,102
1591,102
1592,102
1593,102
1594,102
1595,102
1596,102
1597,102
1598,102
1599,102
1600,102
1601,102
1602,102
1603,102
1604,102
1605,102
1606,102
1607,102
1608,102
1609,102
1610,102
1611,102
1612,102
1613,102
1614,102
1615,102
1616,102
1617,102
1618,102
1619,102
1620,102
1621,102
1622,102
1623,102
1624,102
1625,102
1626,102
1627,102
1628,102
1629,102
1630,102
1631,102
1632,102
1633,102
1634,102
1635,102
1636,103
1637,103
1638,103
1639,103
1640,103
1641,103
1642,103
1643,103
1644,103
1645,103
1646,103
1647,103
1648,103
1649,103
1650,103
1651,103
1652,104
1653,105
1654,105
1655,105
1656,105
1657,105
1658,105
1659,105
1660,105
1661,105
1662,105
1663,105
1664,105
1665,105
1666,105
1667,105
1668,105
1669,105
1670,105
1671,105
1672,106
1673,106
1674,106
1675,106
1676,106
1677,106
1678,106
1679,106
1680,106
1681,106
1682,106
1683,106
1684,106
1685,106
1686,107
1687,107
1688,107
1689,107
1690,107
1691,107
1692,107
1693,107
1694,107
1695,107
1696,107
1697,107
1698,107
1699,107
1700,107
1701,108
1702,108
1703,108
1704,108
1705,108
1706,108
1707,108
1708,108
1709,108
1710,108
1711,108
1712,108
1713,108
1714,108
1715,108
1716,108
1717,108
1718,108
1719,108
1720,108
1721,108
1722,109
1723,109
1724,109
1725,109
1726,109
1727,109
1728,109
1729,110
1730,110
1731,110
1732,110
1733,111
1734,111
1735,111
1736,111
1737,111
1738,111
1739,111
1740,111
1741,112
1742,112
1743,112
1744,112
1745,112
1746,112
1747,112
1748,112
1749,112
1750,112
1751,112
1752,112
1753,112
1754,112
1755,112
1756,112
1757,112
1758,112
1759,112
1760,112
1761,112
1762,112
1763,112
1764,112
1765,112
1766,112
1767,112
1768,112
1769,112
1770,112
1771,112
1772,112
1773,112
1774,112
1775,112
1776,113
1777,113
1778,113
1779,113
1780,114
1781,115
1782,115
1783,115
1784,115
1785,115
1786,115
1787,115
1788,115
1789,115
1790,115
1791,115
1792,115
1793,115
1794,115
1795,115
1796,116
1797,116
1798,116
1799,116
1800,117
1801,118
1802,118
1803,118
1804,119
1805,119
1806,119
1807,119
1808,119
1809,119
1810,119
1811,119
1812,119
1813,119
1814,119
1815,119
1816,119
1817,119
1818,119
1819,119
1820,119
1821,119
1822,119
1823,119
1824,120
1825,120
1826,120
1827,120
1828,120
1829,120
1830,120
1831,120
1832,120
1833,120
1834,120
1835,120
1836,120
1837,120
1838,120
1839,120
1840,120
1841,120
1842,120
1843,120
1844,120
1845,120
1846,120
1847,120
1848,120
1849,120
1850,120
1851,120
1852,120
1853,120
1854,120
1855,120
1856,120
1857,120
1858,120
1859,120
1860,120
1861,120
1862,120
1863,120
1864,121
1865,121
1866,121
1867,121
1868,121
1869,121
1870,121
1871,121
1872,121
1873,121
1874,121
1875,121
1876,121
1877,121
1878,121
1879,121
1880,121
1881,122
1882,122
1883,122
1884,122
1885,122
1886,122
1887,122
1888,122
1889,123
1890,123
1891,123
1892,123
1893,123
1894,123
1895,123
1896,123
1897,123
1898,123
1899,123
1900,123
1901,123
1902,123
1903,123
1904,123
1905,123
1906,123
1907,123
1908,123
1909,123
1910,123
1911,123
1912,123
1913,123
1914,123
1915,123
1916,123
1917,123
1918,123
1919,125
1920,125
1921,125
1922,125
1923,125
1924,125
1925,125
1926,125
1927,125
1928,125
1929,125
1930,125
1931,125
1932,126
1933,126
1934,126
1935,126
1936,126
1937,127
1938,127
1939,127
1940,127
1941,127
1942,127
1943,127
1944,127
1945,127
1946,127
1947,127
1948,127
1949,127
1950,127
1951,128
1952,128
1953,128
1954,128
1955,128
1956,128
1957,128
1958,128
1959,128
1960,129
1961,129
1962,129
1963,129
1964,129
1965,130
1966,130
1967,130
1968,130
1969,130
1970,130
1971,130
1972,130
1973,130
1974,130
1975,130
1976,130
1977,130
1978,130
1979,132
1980,132
1981,132
1982,132
1983,132
1984,132
1985,132
1986,132
1987,132
1988,132
1989,132
1990,132
1991,132
1992,132
1993,132
1994,132
1995,132
1996,132
1997,132
1998,132
1999,132
2000,132
