"tick","susceptible","exposed","infectious","recovered"
0,99,1,0,0
1,99,1,0,0
2,99,1,0,0
3,99,1,0,0
4,99,1,0,0
5,99,1,0,0
6,99,1,0,0
7,99,1,0,0
8,99,1,0,0
9,99,1,0,0
10,99,1,0,0
11,99,1,0,0
12,99,1,0,0
13,99,1,0,0
14,99,1,0,0
15,99,1,0,0
16,99,1,0,0
17,99,1,0,0
18,99,1,0,0
19,99,1,0,0
20,99,1,0,0
21,99,1,0,0
22,99,1,0,0
23,99,1,0,0
24,99,1,0,0
25,99,1,0,0
26,99,1,0,0
27,99,1,0,0
28,99,1,0,0
29,99,1,0,0
30,99,1,0,0
31,99,1,0,0
32,99,1,0,0
33,99,1,0,0
34,99,1,0,0
35,99,1,0,0
36,99,1,0,0
37,99,1,0,0
38,99,1,0,0
39,99,1,0,0
40,99,1,0,0
41,99,1,0,0
42,99,1,0,0
43,99,1,0,0
44,99,1,0,0
45,99,1,0,0
46,99,1,0,0
47,99,1,0,0
48,99,1,0,0
49,99,1,0,0
50,99,1,0,0
51,99,1,0,0
52,99,1,0,0
53,99,1,0,0
54,99,1,0,0
55,99,1,0,0
56,99,1,0,0
57,99,1,0,0
58,99,1,0,0
59,99,1,0,0
60,99,1,0,0
61,99,1,0,0
62,99,1,0,0
63,99,1,0,0
64,99,1,0,0
65,99,1,0,0
66,99,1,0,0
67,99,1,0,0
68,99,1,0,0
69,99,1,0,0
70,99,1,0,0
71,99,1,0,0
72,99,1,0,0
73,99,1,0,0
74,99,1,0,0
75,99,1,0,0
76,99,1,0,0
77,99,1,0,0
78,99,1,0,0
79,99,1,0,0
80,99,1,0,0
81,99,1,0,0
82,99,1,0,0
83,99,1,0,0
84,99,1,0,0
85,99,1,0,0
86,99,1,0,0
87,99,1,0,0
88,99,1,0,0
89,99,1,0,0
90,99,1,0,0
91,99,1,0,0
92,99,1,0,0
93,99,1,0,0
94,99,1,0,0
95,99,1,0,0
96,99,1,0,0
97,99,1,0,0
98,99,1,0,0
99,99,1,0,0
100,99,1,0,0
101,99,1,0,0
102,99,1,0,0
103,99,1,0,0
104,99,1,0,0
105,99,1,0,0
106,99,1,0,0
107,99,1,0,0
108,99,1,0,0
109,99,1,0,0
110,99,1,0,0
111,99,1,0,0
112,99,1,0,0
113,99,1,0,0
114,99,1,0,0
115,99,1,0,0
116,99,1,0,0
117,99,1,0,0
118,99,1,0,0
119,99,1,0,0
120,99,1,0,0
121,99,1,0,0
122,99,1,0,0
123,99,1,0,0
124,99,1,0,0
125,99,1,0,0
126,99,1,0,0
127,99,1,0,0
128,99,1,0,0
129,99,1,0,0
130,99,1,0,0
131,99,1,0,0
132,99,1,0,0
133,99,1,0,0
134,99,1,0,0
135,99,1,0,0
136,99,1,0,0
137,99,1,0,0
138,99,1,0,0
139,99,1,0,0
140,99,1,0,0
141,99,1,0,0
142,99,1,0,0
143,99,1,0,0
144,99,1,0,0
145,99,1,0,0
146,99,1,0,0
147,99,1,0,0
148,99,1,0,0
149,99,1,0,0
150,99,1,0,0
151,99,1,0,0
152,99,1,0,0
153,99,1,0,0
154,99,1,0,0
155,99,1,0,0
156,99,1,0,0
157,99,1,0,0
158,99,1,0,0
159,99,1,0,0
160,99,1,0,0
161,99,1,0,0
162,99,1,0,0
163,99,1,0,0
164,99,1,0,0
165,99,1,0,0
166,99,1,0,0
167,99,1,0,0
168,99,1,0,0
169,99,1,0,0
170,99,1,0,0
171,99,1,0,0
172,99,1,0,0
173,99,1,0,0
174,99,1,0,0
175,99,1,0,0
176,99,1,0,0
177,99,1,0,0
178,99,1,0,0
179,99,1,0,0
180,99,1,0,0
181,99,1,0,0
182,99,1,0,0
183,99,1,0,0
184,99,1,0,0
185,99,1,0,0
186,99,1,0,0
187,99,1,0,0
188,99,1,0,0
189,99,1,0,0
190,99,1,0,0
191,99,1,0,0
192,99,1,0,0
193,99,1,0,0
194,99,1,0,0
195,99,1,0,0
196,99,1,0,0
197,99,1,0,0
198,99,1,0,0
199,99,1,0,0
200,99,1,0,0
201,99,0,1,0
202,99,0,1,0
203,99,0,1,0
204,99,0,1,0
205,99,0,1,0
206,99,0,1,0
207,99,0,1,0
208,99,0,1,0
209,99,0,1,0
210,99,0,1,0
211,99,0,1,0
212,99,0,1,0
213,99,0,1,0
214,99,0,1,0
215,99,0,1,0
216,99,0,1,0
217,99,0,1,0
218,99,0,1,0
219,99,0,1,0
220,99,0,1,0
221,99,0,1,0
222,99,0,1,0
223,99,0,1,0
224,99,0,1,0
225,99,0,1,0
226,99,0,1,0
227,99,0,1,0
228,99,0,1,0
229,99,0,1,0
230,99,0,1,0
231,99,0,1,0
232,99,0,1,0
233,99,0,1,0
234,99,0,1,0
235,99,0,1,0
236,99,0,1,0
237,99,0,1,0
238,99,0,1,0
239,99,0,1,0
240,99,0,1,0
241,99,0,1,0
242,99,0,1,0
243,99,0,1,0
244,99,0,1,0
245,99,0,1,0
246,99,0,1,0
247,99,0,1,0
248,99,0,1,0
249,99,0,1,0
250,99,0,1,0
251,99,0,1,0
252,98,1,1,0
253,98,1,1,0
254,98,1,1,0
255,98,1,1,0
256,98,1,1,0
257,98,1,1,0
258,98,1,1,0
259,98,1,1,0
260,97,2,1,0
261,97,2,1,0
262,97,2,1,0
263,97,2,1,0
264,97,2,1,0
265,97,2,1,0
266,97,2,1,0
267,97,2,1,0
268,97,2,1,0
269,97,2,1,0
270,97,2,1,0
271,97,2,1,0
272,97,2,1,0
273,97,2,1,0
274,97,2,1,0
275,97,2,1,0
276,97,2,1,0
277,97,2,1,0
278,97,2,1,0
279,97,2,1,0
280,97,2,1,0
281,97,2,1,0
282,97,2,1,0
283,97,2,1,0
284,97,2,1,0
285,97,2,1,0
286,97,2,1,0
287,97,2,1,0
288,97,2,1,0
289,97,2,1,0
290,97,2,1,0
291,97,2,1,0
292,97,2,1,0
293,97,2,1,0
294,97,2,1,0
295,97,2,1,0
296,97,2,1,0
297,97,2,1,0
298,97,2,1,0
299,97,2,1,0
300,97,2,1,0
301,97,2,1,0
302,97,2,1,0
303,97,2,1,0
304,97,2,1,0
305,97,2,1,0
306,97,2,1,0
307,97,2,1,0
308,97,2,1,0
309,97,2,1,0
310,97,2,1,0
311,97,2,1,0
312,97,2,1,0
313,97,2,1,0
314,97,2,1,0
315,97,2,1,0
316,97,2,1,0
317,97,2,1,0
318,97,2,1,0
319,97,2,1,0
320,97,2,1,0
321,97,2,1,0
322,97,2,1,0
323,97,2,1,0
324,97,2,1,0
325,97,2,1,0
326,97,2,1,0
327,97,2,1,0
328,97,2,1,0
329,97,2,1,0
330,97,2,1,0
331,97,2,1,0
332,97,2,1,0
333,97,2,1,0
334,97,2,1,0
335,97,2,1,0
336,97,2,1,0
337,97,2,1,0
338,97,2,1,0
339,97,2,1,0
340,97,2,1,0
341,97,2,1,0
342,97,2,1,0
343,97,2,1,0
344,97,2,1,0
345,97,2,1,0
346,97,2,1,0
347,97,2,1,0
348,97,2,1,0
349,97,2,1,0
350,97,2,1,0
351,97,2,1,0
352,97,2,1,0
353,97,2,1,0
354,97,2,1,0
355,97,2,1,0
356,97,2,1,0
357,97,2,1,0
358,97,2,1,0
359,97,2,1,0
360,97,2,1,0
361,97,2,1,0
362,97,2,1,0
363,97,2,1,0
364,97,2,1,0
365,97,2,1,0
366,97,2,1,0
367,97,2,1,0
368,97,2,1,0
369,97,2,1,0
370,97,2,1,0
371,97,2,1,0
372,97,2,1,0
373,97,2,1,0
374,97,2,1,0
375,97,2,1,0
376,97,2,1,0
377,97,2,1,0
378,97,2,1,0
379,97,2,1,0
380,97,2,1,0
381,97,2,1,0
382,97,2,1,0
383,97,2,1,0
384,97,2,1,0
385,97,2,1,0
386,97,2,1,0
387,97,2,1,0
388,97,2,1,0
389,97,2,1,0
390,97,2,1,0
391,97,2,1,0
392,97,2,1,0
393,97,2,1,0
394,97,2,1,0
395,97,2,1,0
396,97,2,1,0
397,97,2,1,0
398,97,2,1,0
399,97,2,1,0
400,97,2,1,0
401,97,2,1,0
402,97,2,0,1
403,97,2,0,1
404,97,2,0,1
405,97,2,0,1
406,97,2,0,1
407,97,2,0,1
408,97,2,0,1
409,97,2,0,1
410,97,2,0,1
411,97,2,0,1
412,97,2,0,1
413,97,2,0,1
414,97,2,0,1
415,97,2,0,1
416,97,2,0,1
417,97,2,0,1
418,97,2,0,1
419,97,2,0,1
420,97,2,0,1
421,97,2,0,1
422,97,2,0,1
423,97,2,0,1
424,97,2,0,1
425,97,2,0,1
426,97,2,0,1
427,97,2,0,1
428,97,2,0,1
429,97,2,0,1
430,97,2,0,1
431,97,2,0,1
432,97,2,0,1
433,97,2,0,1
434,97,2,0,1
435,97,2,0,1
436,97,2,0,1
437,97,2,0,1
438,97,2,0,1
439,97,2,0,1
440,97,2,0,1
441,97,2,0,1
442,97,2,0,1
443,97,2,0,1
444,97,2,0,1
445,97,2,0,1
446,97,2,0,1
447,97,2,0,1
448,97,2,0,1
449,97,2,0,1
450,97,2,0,1
451,97,2,0,1
452,97,2,0,1
453,97,1,1,1
454,97,1,1,1
455,97,1,1,1
456,97,1,1,1
457,97,1,1,1
458,97,1,1,1
459,97,1,1,1
460,97,1,1,1
461,97,0,2,1
462,97,0,2,1
463,97,0,2,1
464,97,0,2,1
465,97,0,2,1
466,97,0,2,1
467,97,0,2,1
468,97,0,2,1
469,97,0,2,1
470,97,0,2,1
471,97,0,2,1
472,97,0,2,1
473,97,0,2,1
474,97,0,2,1
475,97,0,2,1
476,97,0,2,1
477,97,0,2,1
478,97,0,2,1
479,97,0,2,1
480,96,1,2,1
481,96,1,2,1
482,96,1,2,1
483,96,1,2,1
484,96,1,2,1
485,96,1,2,1
486,96,1,2,1
487,96,1,2,1
488,96,1,2,1
489,96,1,2,1
490,96,1,2,1
491,96,1,2,1
492,96,1,2,1
493,96,1,2,1
494,96,1,2,1
495,96,1,2,1
496,95,2,2,1
497,95,2,2,1
498,95,2,2,1
499,95,2,2,1
500,95,2,2,1
501,95,2,2,1
502,95,2,2,1
503,95,2,2,1
504,95,2,2,1
505,95,2,2,1
506,95,2,2,1
507,95,2,2,1
508,95,2,2,1
509,95,2,2,1
510,95,2,2,1
511,95,2,2,1
512,95,2,2,1
513,95,2,2,1
514,95,2,2,1
515,95,2,2,1
516,95,2,2,1
517,95,2,2,1
518,95,2,2,1
519,95,2,2,1
520,95,2,2,1
521,95,2,2,1
522,95,2,2,1
523,95,2,2,1
524,95,2,2,1
525,95,2,2,1
526,95,2,2,1
527,95,2,2,1
528,95,2,2,1
529,95,2,2,1
530,95,2,2,1
531,95,2,2,1
532,95,2,2,1
533,95,2,2,1
534,95,2,2,1
535,95,2,2,1
536,95,2,2,1
537,95,2,2,1
538,95,2,2,1
539,95,2,2,1
540,95,2,2,1
541,95,2,2,1
542,95,2,2,1
543,94,3,2,1
544,94,3,2,1
545,94,3,2,1
546,94,3,2,1
547,94,3,2,1
548,94,3,2,1
549,94,3,2,1
550,94,3,2,1
551,94,3,2,1
552,94,3,2,1
553,94,3,2,1
554,94,3,2,1
555,94,3,2,1
556,94,3,2,1
557,94,3,2,1
558,94,3,2,1
559,94,3,2,1
560,94,3,2,1
561,94,3,2,1
562,94,3,2,1
563,94,3,2,1
564,94,3,2,1
565,94,3,2,1
566,94,3,2,1
567,94,3,2,1
568,94,3,2,1
569,94,3,2,1
570,94,3,2,1
571,94,3,2,1
572,94,3,2,1
573,94,3,2,1
574,94,3,2,1
575,94,3,2,1
576,94,3,2,1
577,94,3,2,1
578,94,3,2,1
579,94,3,2,1
580,94,3,2,1
581,94,3,2,1
582,94,3,2,1
583,94,3,2,1
584,94,3,2,1
585,94,3,2,1
586,94,3,2,1
587,94,3,2,1
588,94,3,2,1
589,94,3,2,1
590,94,3,2,1
591,94,3,2,1
592,94,3,2,1
593,94,3,2,1
594,94,3,2,1
595,94,3,2,1
596,94,3,2,1
597,94,3,2,1
598,94,3,2,1
599,94,3,2,1
600,94,3,2,1
601,94,3,2,1
602,94,3,2,1
603,94,3,2,1
604,94,3,2,1
605,94,3,2,1
606,94,3,2,1
607,94,3,2,1
608,94,3,2,1
609,94,3,2,1
610,94,3,2,1
611,94,3,2,1
612,94,3,2,1
613,94,3,2,1
614,94,3,2,1
615,94,3,2,1
616,94,3,2,1
617,94,3,2,1
618,94,3,2,1
619,94,3,2,1
620,94,3,2,1
621,94,3,2,1
622,94,3,2,1
623,94,3,2,1
624,94,3,2,1
625,94,3,2,1
626,94,3,2,1
627,94,3,2,1
628,94,3,2,1
629,94,3,2,1
630,94,3,2,1
631,94,3,2,1
632,94,3,2,1
633,94,3,2,1
634,94,3,2,1
635,94,3,2,1
636,94,3,2,1
637,94,3,2,1
638,94,3,2,1
639,94,3,2,1
640,94,3,2,1
641,94,3,2,1
642,94,3,2,1
643,94,3,2,1
644,94,3,2,1
645,94,3,2,1
646,94,3,2,1
647,94,3,2,1
648,94,3,2,1
649,94,3,2,1
650,94,3,2,1
651,94,3,2,1
652,94,3,2,1
653,94,3,2,1
654,94,3,1,2
655,94,3,1,2
656,94,3,1,2
657,94,3,1,2
658,94,3,1,2
659,94,3,1,2
660,94,3,1,2
661,94,3,1,2
662,94,3,0,3
663,94,3,0,3
664,94,3,0,3
665,94,3,0,3
666,94,3,0,3
667,94,3,0,3
668,94,3,0,3
669,94,3,0,3
670,94,3,0,3
671,94,3,0,3
672,94,3,0,3
673,94,3,0,3
674,94,3,0,3
675,94,3,0,3
676,94,3,0,3
677,94,3,0,3
678,94,3,0,3
679,94,3,0,3
680,94,3,0,3
681,94,2,1,3
682,94,2,1,3
683,94,2,1,3
684,94,2,1,3
685,94,2,1,3
686,94,2,1,3
687,94,2,1,3
688,94,2,1,3
689,94,2,1,3
690,94,2,1,3
691,94,2,1,3
692,94,2,1,3
693,94,2,1,3
694,94,2,1,3
695,94,2,1,3
696,94,2,1,3
697,94,1,2,3
698,94,1,2,3
699,94,1,2,3
700,94,1,2,3
701,94,1,2,3
702,94,1,2,3
703,94,1,2,3
704,94,1,2,3
705,94,1,2,3
706,94,1,2,3
707,94,1,2,3
708,94,1,2,3
709,94,1,2,3
710,94,1,2,3
711,94,1,2,3
712,94,1,2,3
713,94,1,2,3
714,94,1,2,3
715,94,1,2,3
716,94,1,2,3
717,94,1,2,3
718,94,1,2,3
719,94,1,2,3
720,94,1,2,3
721,94,1,2,3
722,94,1,2,3
723,94,1,2,3
724,94,1,2,3
725,94,1,2,3
726,94,1,2,3
727,94,1,2,3
728,94,1,2,3
729,94,1,2,3
730,94,1,2,3
731,94,1,2,3
732,94,1,2,3
733,94,1,2,3
734,94,1,2,3
735,94,1,2,3
736,94,1,2,3
737,94,1,2,3
738,94,1,2,3
739,94,1,2,3
740,94,1,2,3
741,94,1,2,3
742,94,1,2,3
743,94,1,2,3
744,94,0,3,3
745,94,0,3,3
746,94,0,3,3
747,94,0,3,3
748,94,0,3,3
749,94,0,3,3
750,94,0,3,3
751,94,0,3,3
752,94,0,3,3
753,94,0,3,3
754,94,0,3,3
755,94,0,3,3
756,94,0,3,3
757,94,0,3,3
758,94,0,3,3
759,94,0,3,3
760,94,0,3,3
761,94,0,3,3
762,94,0,3,3
763,94,0,3,3
764,94,0,3,3
765,94,0,3,3
766,94,0,3,3
767,94,0,3,3
768,94,0,3,3
769,94,0,3,3
770,94,0,3,3
771,94,0,3,3
772,94,0,3,3
773,94,0,3,3
774,94,0,3,3
775,94,0,3,3
776,94,0,3,3
777,94,0,3,3
778,94,0,3,3
779,94,0,3,3
780,94,0,3,3
781,94,0,3,3
782,94,0,3,3
783,94,0,3,3
784,94,0,3,3
785,94,0,3,3
786,94,0,3,3
787,94,0,3,3
788,94,0,3,3
789,94,0,3,3
790,94,0,3,3
791,94,0,3,3
792,94,0,3,3
793,94,0,3,3
794,94,0,3,3
795,94,0,3,3
796,94,0,3,3
797,94,0,3,3
798,94,0,3,3
799,94,0,3,3
800,94,0,3,3
801,94,0,3,3
802,94,0,3,3
803,94,0,3,3
804,94,0,3,3
805,94,0,3,3
806,94,0,3,3
807,94,0,3,3
808,94,0,3,3
809,94,0,3,3
810,94,0,3,3
811,94,0,3,3
812,94,0,3,3
813,94,0,3,3
814,94,0,3,3
815,94,0,3,3
816,94,0,3,3
817,94,0,3,3
818,94,0,3,3
819,94,0,3,3
820,94,0,3,3
821,94,0,3,3
822,94,0,3,3
823,94,0,3,3
824,94,0,3,3
825,94,0,3,3
826,94,0,3,3
827,94,0,3,3
828,94,0,3,3
829,94,0,3,3
830,94,0,3,3
831,94,0,3,3
832,94,0,3,3
833,94,0,3,3
834,94,0,3,3
835,94,0,3,3
836,94,0,3,3
837,94,0,3,3
838,94,0,3,3
839,94,0,3,3
840,94,0,3,3
841,94,0,3,3
842,94,0,3,3
843,94,0,3,3
844,94,0,3,3
845,94,0,3,3
846,94,0,3,3
847,94,0,3,3
848,94,0,3,3
849,94,0,3,3
850,94,0,3,3
851,94,0,3,3
852,94,0,3,3
853,94,0,3,3
854,94,0,3,3
855,94,0,3,3
856,94,0,3,3
857,94,0,3,3
858,94,0,3,3
859,94,0,3,3
860,94,0,3,3
861,94,0,3,3
862,94,0,3,3
863,94,0,3,3
864,94,0,3,3
865,94,0,3,3
866,94,0,3,3
867,94,0,3,3
868,94,0,3,3
869,94,0,3,3
870,94,0,3,3
871,94,0,3,3
872,94,0,3,3
873,94,0,3,3
874,94,0,3,3
875,94,0,3,3
876,94,0,3,3
877,93,1,3,3
878,93,1,3,3
879,93,1,3,3
880,93,1,3,3
881,93,1,3,3
882,93,1,2,4
883,93,1,2,4
884,93,1,2,4
885,93,1,2,4
886,93,1,2,4
887,93,1,2,4
888,93,1,2,4
889,93,1,2,4
890,93,1,2,4
891,93,1,2,4
892,93,1,2,4
893,93,1,2,4
894,93,1,2,4
895,93,1,2,4
896,93,1,2,4
897,93,1,2,4
898,93,1,1,5
899,93,1,1,5
900,93,1,1,5
901,93,1,1,5
902,93,1,1,5
903,93,1,1,5
904,93,1,1,5
905,93,1,1,5
906,93,1,1,5
907,93,1,1,5
908,93,1,1,5
909,93,1,1,5
910,93,1,1,5
911,93,1,1,5
912,93,1,1,5
913,93,1,1,5
914,93,1,1,5
915,93,1,1,5
916,93,1,1,5
917,93,1,1,5
918,93,1,1,5
919,93,1,1,5
920,93,1,1,5
921,93,1,1,5
922,93,1,1,5
923,93,1,1,5
924,93,1,1,5
925,93,1,1,5
926,93,1,1,5
927,93,1,1,5
928,93,1,1,5
929,93,1,1,5
930,93,1,1,5
931,93,1,1,5
932,93,1,1,5
933,93,1,1,5
934,93,1,1,5
935,93,1,1,5
936,93,1,1,5
937,93,1,1,5
938,93,1,1,5
939,93,1,1,5
940,93,1,1,5
941,93,1,1,5
942,93,1,1,5
943,93,1,1,5
944,93,1,1,5
945,93,1,0,6
946,93,1,0,6
947,93,1,0,6
948,93,1,0,6
949,93,1,0,6
950,93,1,0,6
951,93,1,0,6
952,93,1,0,6
953,93,1,0,6
954,93,1,0,6
955,93,1,0,6
956,93,1,0,6
957,93,1,0,6
958,93,1,0,6
959,93,1,0,6
960,93,1,0,6
961,93,1,0,6
962,93,1,0,6
963,93,1,0,6
964,93,1,0,6
965,93,1,0,6
966,93,1,0,6
967,93,1,0,6
968,93,1,0,6
969,93,1,0,6
970,93,1,0,6
971,93,1,0,6
972,93,1,0,6
973,93,1,0,6
974,93,1,0,6
975,93,1,0,6
976,93,1,0,6
977,93,1,0,6
978,93,1,0,6
979,93,1,0,6
980,93,1,0,6
981,93,1,0,6
982,93,1,0,6
983,93,1,0,6
984,93,1,0,6
985,93,1,0,6
986,93,1,0,6
987,93,1,0,6
988,93,1,0,6
989,93,1,0,6
990,93,1,0,6
991,93,1,0,6
992,93,1,0,6
993,93,1,0,6
994,93,1,0,6
995,93,1,0,6
996,93,1,0,6
997,93,1,0,6
998,93,1,0,6
999,93,1,0,6
1000,93,1,0,6
1001,93,1,0,6
1002,93,1,0,6
1003,93,1,0,6
1004,93,1,0,6
1005,93,1,0,6
1006,93,1,0,6
1007,93,1,0,6
1008,93,1,0,6
1009,93,1,0,6
1010,93,1,0,6
1011,93,1,0,6
1012,93,1,0,6
1013,93,1,0,6
1014,93,1,0,6
1015,93,1,0,6
1016,93,1,0,6
1017,93,1,0,6
1018,93,1,0,6
1019,93,1,0,6
1020,93,1,0,6
1021,93,1,0,6
1022,93,1,0,6
1023,93,1,0,6
1024,93,1,0,6
1025,93,1,0,6
1026,93,1,0,6
1027,93,1,0,6
1028,93,1,0,6
1029,93,1,0,6
1030,93,1,0,6
1031,93,1,0,6
1032,93,1,0,6
1033,93,1,0,6
1034,93,1,0,6
1035,93,1,0,6
1036,93,1,0,6
1037,93,1,0,6
1038,93,1,0,6
1039,93,1,0,6
1040,93,1,0,6
1041,93,1,0,6
1042,93,1,0,6
1043,93,1,0,6
1044,93,1,0,6
1045,93,1,0,6
1046,93,1,0,6
1047,93,1,0,6
1048,93,1,0,6
1049,93,1,0,6
1050,93,1,0,6
1051,93,1,0,6
1052,93,1,0,6
1053,93,1,0,6
1054,93,1,0,6
1055,93,1,0,6
1056,93,1,0,6
1057,93,1,0,6
1058,93,1,0,6
1059,93,1,0,6
1060,93,1,0,6
1061,93,1,0,6
1062,93,1,0,6
1063,93,1,0,6
1064,93,1,0,6
1065,93,1,0,6
1066,93,1,0,6
1067,93,1,0,6
1068,93,1,0,6
1069,93,1,0,6
1070,93,1,0,6
1071,93,1,0,6
1072,93,1,0,6
1073,93,1,0,6
1074,93,1,0,6
1075,93,1,0,6
1076,93,1,0,6
1077,93,1,0,6
1078,93,0,1,6
1079,93,0,1,6
1080,93,0,1,6
1081,93,0,1,6
1082,93,0,1,6
1083,93,0,1,6
1084,93,0,1,6
1085,93,0,1,6
1086,93,0,1,6
1087,93,0,1,6
1088,93,0,1,6
1089,93,0,1,6
1090,93,0,1,6
1091,93,0,1,6
1092,93,0,1,6
1093,93,0,1,6
1094,93,0,1,6
1095,93,0,1,6
1096,93,0,1,6
1097,93,0,1,6
1098,93,0,1,6
1099,93,0,1,6
1100,93,0,1,6
1101,93,0,1,6
1102,93,0,1,6
1103,93,0,1,6
1104,93,0,1,6
1105,93,0,1,6
1106,93,0,1,6
1107,93,0,1,6
1108,93,0,1,6
1109,93,0,1,6
1110,93,0,1,6
1111,93,0,1,6
1112,93,0,1,6
1113,93,0,1,6
1114,93,0,1,6
1115,93,0,1,6
1116,93,0,1,6
1117,93,0,1,6
1118,93,0,1,6
1119,93,0,1,6
1120,93,0,1,6
1121,93,0,1,6
1122,93,0,1,6
1123,93,0,1,6
1124,93,0,1,6
1125,93,0,1,6
1126,93,0,1,6
1127,93,0,1,6
1128,93,0,1,6
1129,93,0,1,6
1130,93,0,1,6
1131,93,0,1,6
1132,93,0,1,6
1133,93,0,1,6
1134,93,0,1,6
1135,93,0,1,6
1136,93,0,1,6
1137,93,0,1,6
1138,93,0,1,6
1139,93,0,1,6
1140,93,0,1,6
1141,93,0,1,6
1142,93,0,1,6
1143,93,0,1,6
1144,93,0,1,6
1145,93,0,1,6
1146,93,0,1,6
1147,93,0,1,6
1148,93,0,1,6
1149,93,0,1,6
1150,93,0,1,6
1151,93,0,1,6
1152,93,0,1,6
1153,93,0,1,6
1154,93,0,1,6
1155,93,0,1,6
1156,93,0,1,6
1157,93,0,1,6
1158,93,0,1,6
1159,93,0,1,6
1160,93,0,1,6
1161,93,0,1,6
1162,93,0,1,6
1163,93,0,1,6
1164,93,0,1,6
1165,92,1,1,6
1166,92,1,1,6
1167,92,1,1,6
1168,92,1,1,6
1169,92,1,1,6
1170,92,1,1,6
1171,91,2,1,6
1172,91,2,1,6
1173,91,2,1,6
1174,91,2,1,6
1175,91,2,1,6
1176,91,2,1,6
1177,91,2,1,6
1178,90,3,1,6
1179,90,3,1,6
1180,90,3,1,6
1181,90,3,1,6
1182,90,3,1,6
1183,90,3,1,6
1184,90,3,1,6
1185,90,3,1,6
1186,90,3,1,6
1187,90,3,1,6
1188,90,3,1,6
1189,90,3,1,6
1190,89,4,1,6
1191,89,4,1,6
1192,89,4,1,6
1193,89,4,1,6
1194,89,4,1,6
1195,89,4,1,6
1196,89,4,1,6
1197,89,4,1,6
1198,89,4,1,6
1199,89,4,1,6
1200,89,4,1,6
1201,89,4,1,6
1202,89,4,1,6
1203,89,4,1,6
1204,89,4,1,6
1205,89,4,1,6
1206,89,4,1,6
1207,89,4,1,6
1208,89,4,1,6
1209,89,4,1,6
1210,89,4,1,6
1211,89,4,1,6
1212,89,4,1,6
1213,89,4,1,6
1214,89,4,1,6
1215,89,4,1,6
1216,89,4,1,6
1217,89,4,1,6
1218,89,4,1,6
1219,89,4,1,6
1220,89,4,1,6
1221,89,4,1,6
1222,89,4,1,6
1223,89,4,1,6
1224,89,4,1,6
1225,89,4,1,6
1226,89,4,1,6
1227,89,4,1,6
1228,89,4,1,6
1229,89,4,1,6
1230,89,4,1,6
1231,89,4,1,6
1232,89,4,1,6
1233,89,4,1,6
1234,89,4,1,6
1235,89,4,1,6
1236,89,4,1,6
1237,89,4,1,6
1238,89,4,1,6
1239,89,4,1,6
1240,89,4,1,6
1241,89,4,1,6
1242,89,4,1,6
1243,89,4,1,6
1244,89,4,1,6
1245,89,4,1,6
1246,89,4,1,6
1247,89,4,1,6
1248,89,4,1,6
1249,89,4,1,6
1250,89,4,1,6
1251,89,4,1,6
1252,89,4,1,6
1253,89,4,1,6
1254,89,4,1,6
1255,89,4,1,6
1256,89,4,1,6
1257,89,4,1,6
1258,89,4,1,6
1259,89,4,1,6
1260,89,4,1,6
1261,89,4,1,6
1262,89,4,1,6
1263,89,4,1,6
1264,89,4,1,6
1265,89,4,1,6
1266,89,4,1,6
1267,89,4,1,6
1268,89,4,1,6
1269,89,4,1,6
1270,89,4,1,6
1271,89,4,1,6
1272,89,4,1,6
1273,89,4,1,6
1274,89,4,1,6
1275,89,4,1,6
1276,89,4,1,6
1277,89,4,1,6
1278,89,4,1,6
1279,89,4,0,7
1280,89,4,0,7
1281,89,4,0,7
1282,89,4,0,7
1283,89,4,0,7
1284,89,4,0,7
1285,89,4,0,7
1286,89,4,0,7
1287,89,4,0,7
1288,89,4,0,7
1289,89,4,0,7
1290,89,4,0,7
1291,89,4,0,7
1292,89,4,0,7
1293,89,4,0,7
1294,89,4,0,7
1295,89,4,0,7
1296,89,4,0,7
1297,89,4,0,7
1298,89,4,0,7
1299,89,4,0,7
1300,89,4,0,7
1301,89,4,0,7
1302,89,4,0,7
1303,89,4,0,7
1304,89,4,0,7
1305,89,4,0,7
1306,89,4,0,7
1307,89,4,0,7
1308,89,4,0,7
1309,89,4,0,7
1310,89,4,0,7
1311,89,4,0,7
1312,89,4,0,7
1313,89,4,0,7
1314,89,4,0,7
1315,89,4,0,7
1316,89,4,0,7
1317,89,4,0,7
1318,89,4,0,7
1319,89,4,0,7
1320,89,4,0,7
1321,89,4,0,7
1322,89,4,0,7
1323,89,4,0,7
1324,89,4,0,7
1325,89,4,0,7
1326,89,4,0,7
1327,89,4,0,7
1328,89,4,0,7
1329,89,4,0,7
1330,89,4,0,7
1331,89,4,0,7
1332,89,4,0,7
1333,89,4,0,7
1334,89,4,0,7
1335,89,4,0,7
1336,89,4,0,7
1337,89,4,0,7
1338,89,4,0,7
1339,89,4,0,7
1340,89,4,0,7
1341,89,4,0,7
1342,89,4,0,7
1343,89,4,0,7
1344,89,4,0,7
1345,89,4,0,7
1346,89,4,0,7
1347,89,4,0,7
1348,89,4,0,7
1349,89,4,0,7
1350,89,4,0,7
1351,89,4,0,7
1352,89,4,0,7
1353,89,4,0,7
1354,89,4,0,7
1355,89,4,0,7
1356,89,4,0,7
1357,89,4,0,7
1358,89,4,0,7
1359,89,4,0,7
1360,89,4,0,7
1361,89,4,0,7
1362,89,4,0,7
1363,89,4,0,7
1364,89,4,0,7
1365,89,4,0,7
1366,89,3,1,7
1367,88,4,1,7
1368,88,4,1,7
1369,88,4,1,7
1370,88,4,1,7
1371,88,4,1,7
1372,88,3,2,7
1373,88,3,2,7
1374,88,3,2,7
1375,88,3,2,7
1376,88,3,2,7
1377,88,3,2,7
1378,88,3,2,7
1379,88,2,3,7
1380,88,2,3,7
1381,88,2,3,7
1382,88,2,3,7
1383,88,2,3,7
1384,88,2,3,7
1385,88,2,3,7
1386,88,2,3,7
1387,88,2,3,7
1388,88,2,3,7
1389,88,2,3,7
1390,88,2,3,7
1391,87,2,4,7
1392,87,2,4,7
1393,87,2,4,7
1394,87,2,4,7
1395,87,2,4,7
1396,87,2,4,7
1397,87,2,4,7
1398,87,2,4,7
1399,87,2,4,7
1400,87,2,4,7
1401,86,3,4,7
1402,86,3,4,7
1403,86,3,4,7
1404,86,3,4,7
1405,86,3,4,7
1406,86,3,4,7
1407,86,3,4,7
1408,86,3,4,7
1409,86,3,4,7
1410,86,3,4,7
1411,86,3,4,7
1412,86,3,4,7
1413,86,3,4,7
1414,86,3,4,7
1415,86,3,4,7
1416,86,3,4,7
1417,86,3,4,7
1418,86,3,4,7
1419,86,3,4,7
1420,86,3,4,7
1421,86,3,4,7
1422,86,3,4,7
1423,86,3,4,7
1424,86,3,4,7
1425,86,3,4,7
1426,86,3,4,7
1427,86,3,4,7
1428,86,3,4,7
1429,86,3,4,7
1430,86,3,4,7
1431,86,3,4,7
1432,86,3,4,7
1433,86,3,4,7
1434,86,3,4,7
1435,86,3,4,7
1436,86,3,4,7
1437,86,3,4,7
1438,86,3,4,7
1439,86,3,4,7
1440,86,3,4,7
1441,86,3,4,7
1442,86,3,4,7
1443,86,3,4,7
1444,86,3,4,7
1445,86,3,4,7
1446,86,3,4,7
1447,86,3,4,7
1448,86,3,4,7
1449,86,3,4,7
1450,86,3,4,7
1451,86,3,4,7
1452,86,3,4,7
1453,86,3,4,7
1454,86,3,4,7
1455,86,3,4,7
1456,86,3,4,7
1457,86,3,4,7
1458,86,3,4,7
1459,86,3,4,7
1460,86,3,4,7
1461,86,3,4,7
1462,86,3,4,7
1463,86,3,4,7
1464,85,4,4,7
1465,85,4,4,7
1466,85,4,4,7
1467,85,4,4,7
1468,85,4,4,7
1469,85,4,4,7
1470,85,4,4,7
1471,85,4,4,7
1472,85,4,4,7
1473,85,4,4,7
1474,85,4,4,7
1475,85,4,4,7
1476,85,4,4,7
1477,85,4,4,7
1478,85,4,4,7
1479,85,4,4,7
1480,85,4,4,7
1481,85,4,4,7
1482,85,4,4,7
1483,85,4,4,7
1484,85,4,4,7
1485,85,4,4,7
1486,85,4,4,7
1487,85,4,4,7
1488,85,4,4,7
1489,85,4,4,7
1490,85,4,4,7
1491,85,4,4,7
1492,85,4,4,7
1493,85,4,4,7
1494,85,4,4,7
1495,85,4,4,7
1496,85,4,4,7
1497,85,4,4,7
1498,85,4,4,7
1499,85,4,4,7
1500,85,4,4,7
1501,85,4,4,7
1502,85,4,4,7
1503,85,4,4,7
1504,85,4,4,7
1505,85,4,4,7
1506,85,4,4,7
1507,85,4,4,7
1508,85,4,4,7
1509,85,4,4,7
1510,85,4,4,7
1511,85,4,4,7
1512,85,4,4,7
1513,85,4,4,7
1514,85,4,4,7
1515,85,4,4,7
1516,85,4,4,7
1517,85,4,4,7
1518,85,4,4,7
1519,85,4,4,7
1520,85,4,4,7
1521,85,4,4,7
1522,85,4,4,7
1523,85,4,4,7
1524,85,4,4,7
1525,84,5,4,7
1526,84,5,4,7
1527,84,5,4,7
1528,84,5,4,7
1529,84,5,4,7
1530,84,5,4,7
1531,84,5,4,7
1532,84,5,4,7
1533,84,5,4,7
1534,84,5,4,7
1535,84,5,4,7
1536,84,5,4,7
1537,84,5,4,7
1538,84,5,4,7
1539,84,5,4,7
1540,84,5,4,7
1541,84,5,4,7
1542,83,6,4,7
1543,83,6,4,7
1544,83,6,4,7
1545,83,6,4,7
1546,83,6,4,7
1547,83,6,4,7
1548,83,6,4,7
1549,83,6,4,7
1550,83,6,4,7
1551,83,6,4,7
1552,83,6,4,7
1553,83,6,4,7
1554,83,6,4,7
1555,83,6,4,7
1556,83,6,4,7
1557,83,6,4,7
1558,83,6,4,7
1559,83,6,4,7
1560,83,6,4,7
1561,83,6,4,7
1562,83,6,4,7
1563,83,6,4,7
1564,83,6,4,7
1565,83,6,4,7
1566,83,6,4,7
1567,82,7,3,8
1568,82,6,4,8
1569,82,6,4,8
1570,81,7,4,8
1571,81,7,4,8
1572,81,7,4,8
1573,81,7,3,9
1574,81,7,3,9
1575,81,7,3,9
1576,81,7,3,9
1577,81,7,3,9
1578,81,7,3,9
1579,81,7,3,9
1580,81,7,2,10
1581,81,7,2,10
1582,81,7,2,10
1583,81,7,2,10
1584,81,7,2,10
1585,81,7,2,10
1586,81,7,2,10
1587,81,7,2,10
1588,81,7,2,10
1589,81,7,2,10
1590,81,7,2,10
1591,81,7,2,10
1592,81,6,2,11
1593,81,6,2,11
1594,81,6,2,11
1595,81,6,2,11
1596,81,6,2,11
1597,81,6,2,11
1598,81,6,2,11
1599,81,6,2,11
1600,81,6,2,11
1601,81,6,2,11
1602,81,5,3,11
1603,81,5,3,11
1604,81,5,3,11
1605,81,5,3,11
1606,81,5,3,11
1607,80,6,3,11
1608,80,6,3,11
1609,80,6,3,11
1610,80,6,3,11
1611,80,6,3,11
1612,80,6,3,11
1613,80,6,3,11
1614,80,6,3,11
1615,80,6,3,11
1616,80,6,3,11
1617,80,6,3,11
1618,80,6,3,11
1619,80,6,3,11
1620,80,6,3,11
1621,80,6,3,11
1622,80,6,3,11
1623,80,6,3,11
1624,80,6,3,11
1625,80,6,3,11
1626,79,7,3,11
1627,79,7,3,11
1628,79,7,3,11
1629,79,7,3,11
1630,79,7,3,11
1631,79,7,3,11
1632,79,7,3,11
1633,79,7,3,11
1634,79,7,3,11
1635,79,7,3,11
1636,79,7,3,11
1637,79,7,3,11
1638,79,7,3,11
1639,79,7,3,11
1640,79,7,3,11
1641,79,7,3,11
1642,79,7,3,11
1643,79,7,3,11
1644,79,7,3,11
1645,79,7,3,11
1646,78,8,3,11
1647,78,8,3,11
1648,78,8,3,11
1649,78,8,3,11
1650,78,8,3,11
1651,78,8,3,11
1652,78,8,3,11
1653,78,8,3,11
1654,78,8,3,11
1655,78,8,3,11
1656,78,8,3,11
1657,78,8,3,11
1658,78,8,3,11
1659,78,8,3,11
1660,78,8,3,11
1661,78,8,3,11
1662,78,8,3,11
1663,78,8,3,11
1664,78,8,3,11
1665,78,7,4,11
1666,78,7,4,11
1667,78,7,4,11
1668,77,8,4,11
1669,77,8,4,11
1670,77,8,4,11
1671,77,8,4,11
1672,77,8,4,11
1673,77,8,4,11
1674,77,8,4,11
1675,77,8,4,11
1676,77,8,4,11
1677,77,8,4,11
1678,77,8,4,11
1679,77,8,4,11
1680,77,8,4,11
1681,77,8,4,11
1682,76,9,4,11
1683,76,9,4,11
1684,76,9,4,11
1685,76,9,4,11
1686,76,9,4,11
1687,76,9,4,11
1688,76,9,4,11
1689,76,9,4,11
1690,76,9,4,11
1691,76,9,4,11
1692,76,9,4,11
1693,76,9,4,11
1694,76,9,4,11
1695,76,9,4,11
1696,76,9,4,11
1697,76,9,4,11
1698,76,9,4,11
1699,76,9,4,11
1700,76,9,4,11
1701,76,9,4,11
1702,76,9,4,11
1703,76,9,4,11
1704,76,9,4,11
1705,76,9,4,11
1706,76,9,4,11
1707,76,9,4,11
1708,76,9,4,11
1709,76,9,4,11
1710,76,9,4,11
1711,76,9,4,11
1712,76,9,4,11
1713,76,9,4,11
1714,76,9,4,11
1715,76,9,4,11
1716,76,9,4,11
1717,76,9,4,11
1718,76,9,4,11
1719,76,9,4,11
1720,76,9,4,11
1721,75,10,4,11
1722,75,10,4,11
1723,75,10,4,11
1724,75,10,4,11
1725,75,10,4,11
1726,75,9,5,11
1727,73,11,5,11
1728,73,11,5,11
1729,73,11,5,11
1730,73,11,5,11
1731,73,11,5,11
1732,73,11,5,11
1733,73,11,5,11
1734,73,11,5,11
1735,73,11,5,11
1736,73,11,5,11
1737,73,11,5,11
1738,72,12,5,11
1739,72,12,5,11
1740,71,13,5,11
1741,71,13,5,11
1742,71,13,5,11
1743,71,12,6,11
1744,71,12,6,11
1745,71,12,6,11
1746,71,12,6,11
1747,71,12,6,11
1748,71,12,6,11
1749,71,12,6,11
1750,71,12,6,11
1751,71,12,6,11
1752,70,13,6,11
1753,70,13,6,11
1754,70,13,6,11
1755,70,13,6,11
1756,70,13,6,11
1757,70,13,6,11
1758,70,13,6,11
1759,70,13,6,11
1760,70,13,6,11
1761,70,13,6,11
1762,70,13,6,11
1763,70,13,6,11
1764,70,13,6,11
1765,70,13,6,11
1766,70,13,6,11
1767,70,13,6,11
1768,70,12,7,11
1769,70,12,6,12
1770,70,12,6,12
1771,70,11,7,12
1772,70,11,7,12
1773,70,11,7,12
1774,70,11,7,12
1775,70,11,7,12
1776,70,11,7,12
1777,70,11,7,12
1778,70,11,7,12
1779,70,11,7,12
1780,70,11,7,12
1781,70,11,7,12
1782,70,11,7,12
1783,70,11,7,12
1784,70,11,7,12
1785,70,11,7,12
1786,70,11,7,12
1787,70,11,7,12
1788,70,11,7,12
1789,69,12,7,12
1790,69,12,7,12
1791,69,12,7,12
1792,69,12,7,12
1793,69,12,6,13
1794,69,12,6,13
1795,69,12,6,13
1796,69,12,6,13
1797,69,12,6,13
1798,69,12,6,13
1799,69,12,6,13
1800,69,12,6,13
1801,69,12,6,13
1802,69,12,6,13
1803,69,12,5,14
1804,69,12,5,14
1805,69,12,5,14
1806,69,12,5,14
1807,69,12,5,14
1808,69,11,6,14
1809,69,11,6,14
1810,69,11,6,14
1811,69,11,6,14
1812,69,11,6,14
1813,69,11,6,14
1814,69,11,6,14
1815,69,11,6,14
1816,69,11,6,14
1817,69,11,6,14
1818,69,11,6,14
1819,69,11,6,14
1820,69,11,6,14
1821,69,11,6,14
1822,69,11,6,14
1823,69,11,6,14
1824,69,11,6,14
1825,69,11,6,14
1826,69,11,6,14
1827,67,12,7,14
1828,67,12,7,14
1829,66,13,7,14
1830,65,14,7,14
1831,65,14,7,14
1832,65,14,7,14
1833,65,14,7,14
1834,64,15,7,14
1835,64,15,7,14
1836,64,15,7,14
1837,64,15,7,14
1838,64,15,7,14
1839,64,15,7,14
1840,64,15,7,14
1841,64,15,7,14
1842,64,15,7,14
1843,64,15,7,14
1844,64,15,7,14
1845,63,16,7,14
1846,63,16,7,14
1847,62,16,8,14
1848,62,16,8,14
1849,62,16,8,14
1850,62,16,8,14
1851,62,16,8,14
1852,62,16,8,14
1853,62,16,8,14
1854,62,16,8,14
1855,62,16,8,14
1856,62,16,8,14
1857,61,17,8,14
1858,61,17,8,14
1859,61,17,8,14
1860,61,17,8,14
1861,61,17,8,14
1862,61,17,8,14
1863,61,17,8,14
1864,61,17,8,14
1865,61,17,8,14
1866,61,17,7,15
1867,61,17,7,15
1868,61,17,7,15
1869,61,16,8,15
1870,61,16,8,15
1871,61,16,8,15
1872,61,16,8,15
1873,61,16,8,15
1874,61,16,8,15
1875,61,16,8,15
1876,61,16,8,15
1877,61,16,8,15
1878,61,16,8,15
1879,61,16,8,15
1880,61,16,8,15
1881,61,16,8,15
1882,61,16,8,15
1883,61,15,9,15
1884,61,15,9,15
1885,61,15,9,15
1886,61,15,9,15
1887,61,15,9,15
1888,61,15,9,15
1889,61,15,9,15
1890,61,15,9,15
1891,61,15,9,15
1892,61,15,9,15
1893,61,15,9,15
1894,61,15,9,15
1895,61,15,9,15
1896,61,15,9,15
1897,61,15,9,15
1898,61,15,9,15
1899,60,16,9,15
1900,60,16,9,15
1901,60,16,9,15
1902,60,16,9,15
1903,60,16,9,15
1904,60,16,9,15
1905,60,16,9,15
1906,60,16,9,15
1907,60,16,9,15
1908,60,16,9,15
1909,60,16,9,15
1910,60,16,9,15
1911,60,16,9,15
1912,60,16,9,15
1913,60,16,9,15
1914,60,16,9,15
1915,60,16,9,15
1916,60,16,9,15
1917,60,16,9,15
1918,60,16,9,15
1919,60,16,9,15
1920,60,16,9,15
1921,60,16,9,15
1922,60,15,10,15
1923,59,16,10,15
1924,59,16,10,15
1925,59,16,10,15
1926,59,16,10,15
1927,59,16,9,16
1928,59,14,11,16
1929,59,14,11,16
1930,58,15,11,16
1931,57,16,11,16
1932,57,16,11,16
1933,57,16,11,16
1934,57,16,11,16
1935,57,16,11,16
1936,56,17,11,16
1937,55,18,11,16
1938,55,18,11,16
1939,55,17,12,16
1940,55,17,12,16
1941,54,17,13,16
1942,54,17,13,16
1943,53,18,13,16
1944,53,18,12,17
1945,53,18,12,17
1946,53,18,12,17
1947,53,18,12,17
1948,53,18,12,17
1949,53,18,12,17
1950,53,18,12,17
1951,53,18,12,17
1952,53,18,12,17
1953,53,17,13,17
1954,53,17,13,17
1955,53,17,13,17
1956,53,17,13,17
1957,53,17,13,17
1958,53,17,13,17
1959,53,17,13,17
1960,53,17,13,17
1961,53,17,13,17
1962,53,17,13,17
1963,53,17,13,17
1964,53,17,13,17
1965,53,17,13,17
1966,53,17,13,17
1967,53,17,13,17
1968,53,17,13,17
1969,53,17,12,18
1970,53,17,12,18
1971,53,17,12,18
1972,53,17,11,19
1973,53,17,11,19
1974,53,17,11,19
1975,53,17,11,19
1976,53,17,11,19
1977,53,17,11,19
1978,53,17,11,19
1979,53,17,11,19
1980,53,17,11,19
1981,53,17,11,19
1982,53,17,11,19
1983,53,17,11,19
1984,53,17,11,19
1985,53,17,11,19
1986,53,17,11,19
1987,53,17,11,19
1988,53,17,11,19
1989,53,17,11,19
1990,53,16,12,19
1991,53,16,12,19
1992,53,16,12,19
1993,53,16,12,19
1994,53,16,12,19
1995,53,16,12,19
1996,53,16,12,19
1997,53,16,12,19
1998,53,16,12,19
1999,53,16,12,19
2000,53,16,12,19
