"tick","susceptible","exposed","infectious","recovered"
0,99,1,0,0
1,99,1,0,0
2,99,1,0,0
3,99,1,0,0
4,99,1,0,0
5,99,1,0,0
6,99,1,0,0
7,99,1,0,0
8,99,1,0,0
9,99,1,0,0
10,99,1,0,0
11,99,1,0,0
12,99,1,0,0
13,99,1,0,0
14,99,1,0,0
15,99,1,0,0
16,99,1,0,0
17,99,1,0,0
18,99,1,0,0
19,99,1,0,0
20,99,1,0,0
21,99,1,0,0
22,99,1,0,0
23,99,1,0,0
24,99,1,0,0
25,99,1,0,0
26,99,1,0,0
27,99,1,0,0
28,99,1,0,0
29,99,1,0,0
30,99,1,0,0
31,99,1,0,0
32,99,1,0,0
33,99,1,0,0
34,99,1,0,0
35,99,1,0,0
36,99,1,0,0
37,99,1,0,0
38,99,1,0,0
39,99,1,0,0
40,99,1,0,0
41,99,1,0,0
42,99,1,0,0
43,99,1,0,0
44,99,1,0,0
45,99,1,0,0
46,99,1,0,0
47,99,1,0,0
48,99,1,0,0
49,99,1,0,0
50,99,1,0,0
51,99,1,0,0
52,99,1,0,0
53,99,1,0,0
54,99,1,0,0
55,99,1,0,0
56,99,1,0,0
57,99,1,0,0
58,99,1,0,0
59,99,1,0,0
60,99,1,0,0
61,99,1,0,0
62,99,1,0,0
63,99,1,0,0
64,99,1,0,0
65,99,1,0,0
66,99,1,0,0
67,99,1,0,0
68,99,1,0,0
69,99,1,0,0
70,99,1,0,0
71,99,1,0,0
72,99,1,0,0
73,99,1,0,0
74,99,1,0,0
75,99,1,0,0
76,99,1,0,0
77,99,1,0,0
78,99,1,0,0
79,99,1,0,0
80,99,1,0,0
81,99,1,0,0
82,99,1,0,0
83,99,1,0,0
84,99,1,0,0
85,99,1,0,0
86,99,1,0,0
87,99,1,0,0
88,99,1,0,0
89,99,1,0,0
90,99,1,0,0
91,99,1,0,0
92,99,1,0,0
93,99,1,0,0
94,99,1,0,0
95,99,1,0,0
96,99,1,0,0
97,99,1,0,0
98,99,1,0,0
99,99,1,0,0
100,99,1,0,0
101,99,1,0,0
102,99,1,0,0
103,99,1,0,0
104,99,1,0,0
105,99,1,0,0
106,99,1,0,0
107,99,1,0,0
108,99,1,0,0
109,99,1,0,0
110,99,1,0,0
111,99,1,0,0
112,99,1,0,0
113,99,1,0,0
114,99,1,0,0
115,99,1,0,0
116,99,1,0,0
117,99,1,0,0
118,99,1,0,0
119,99,1,0,0
120,99,1,0,0
121,99,1,0,0
122,99,1,0,0
123,99,1,0,0
124,99,1,0,0
125,99,1,0,0
126,99,1,0,0
127,99,1,0,0
128,99,1,0,0
129,99,1,0,0
130,99,1,0,0
131,99,1,0,0
132,99,1,0,0
133,99,1,0,0
134,99,1,0,0
135,99,1,0,0
136,99,1,0,0
137,99,1,0,0
138,99,1,0,0
139,99,1,0,0
140,99,1,0,0
141,99,1,0,0
142,99,1,0,0
143,99,1,0,0
144,99,1,0,0
145,99,1,0,0
146,99,1,0,0
147,99,1,0,0
148,99,1,0,0
149,99,1,0,0
150,99,1,0,0
151,99,1,0,0
152,99,1,0,0
153,99,1,0,0
154,99,1,0,0
155,99,1,0,0
156,99,1,0,0
157,99,1,0,0
158,99,1,0,0
159,99,1,0,0
160,99,1,0,0
161,99,1,0,0
162,99,1,0,0
163,99,1,0,0
164,99,1,0,0
165,99,1,0,0
166,99,1,0,0
167,99,1,0,0
168,99,1,0,0
169,99,1,0,0
170,99,1,0,0
171,99,1,0,0
172,99,1,0,0
173,99,1,0,0
174,99,1,0,0
175,99,1,0,0
176,99,1,0,0
177,99,1,0,0
178,99,1,0,0
179,99,1,0,0
180,99,1,0,0
181,99,1,0,0
182,99,1,0,0
183,99,1,0,0
184,99,1,0,0
185,99,1,0,0
186,99,1,0,0
187,99,1,0,0
188,99,1,0,0
189,99,1,0,0
190,99,1,0,0
191,99,1,0,0
192,99,1,0,0
193,99,1,0,0
194,99,1,0,0
195,99,1,0,0
196,99,1,0,0
197,99,1,0,0
198,99,1,0,0
199,99,1,0,0
200,99,1,0,0
201,99,0,1,0
202,98,1,1,0
203,98,1,1,0
204,98,1,1,0
205,98,1,1,0
206,98,1,1,0
207,98,1,1,0
208,98,1,1,0
209,98,1,1,0
210,98,1,1,0
211,98,1,1,0
212,98,1,1,0
213,98,1,1,0
214,98,1,1,0
215,98,1,1,0
216,98,1,1,0
217,98,1,1,0
218,98,1,1,0
219,98,1,1,0
220,98,1,1,0
221,98,1,1,0
222,98,1,1,0
223,98,1,1,0
224,98,1,1,0
225,98,1,1,0
226,98,1,1,0
227,98,1,1,0
228,98,1,1,0
229,98,1,1,0
230,98,1,1,0
231,98,1,1,0
232,98,1,1,0
233,98,1,1,0
234,98,1,1,0
235,98,1,1,0
236,98,1,1,0
237,98,1,1,0
238,98,1,1,0
239,98,1,1,0
240,98,1,1,0
241,98,1,1,0
242,98,1,1,0
243,98,1,1,0
244,98,1,1,0
245,98,1,1,0
246,98,1,1,0
247,98,1,1,0
248,98,1,1,0
249,98,1,1,0
250,98,1,1,0
251,98,1,1,0
252,98,1,1,0
253,98,1,1,0
254,98,1,1,0
255,98,1,1,0
256,98,1,1,0
257,98,1,1,0
258,98,1,1,0
259,98,1,1,0
260,98,1,1,0
261,98,1,1,0
262,98,1,1,0
263,98,1,1,0
264,98,1,1,0
265,98,1,1,0
266,98,1,1,0
267,98,1,1,0
268,98,1,1,0
269,98,1,1,0
270,98,1,1,0
271,98,1,1,0
272,98,1,1,0
273,98,1,1,0
274,98,1,1,0
275,98,1,1,0
276,98,1,1,0
277,98,1,1,0
278,98,1,1,0
279,98,1,1,0
280,98,1,1,0
281,98,1,1,0
282,98,1,1,0
283,98,1,1,0
284,98,1,1,0
285,97,2,1,0
286,97,2,1,0
287,97,2,1,0
288,97,2,1,0
289,97,2,1,0
290,97,2,1,0
291,97,2,1,0
292,97,2,1,0
293,97,2,1,0
294,97,2,1,0
295,97,2,1,0
296,97,2,1,0
297,97,2,1,0
298,97,2,1,0
299,97,2,1,0
300,97,2,1,0
301,97,2,1,0
302,97,2,1,0
303,97,2,1,0
304,97,2,1,0
305,97,2,1,0
306,97,2,1,0
307,97,2,1,0
308,97,2,1,0
309,97,2,1,0
310,97,2,1,0
311,97,2,1,0
312,97,2,1,0
313,97,2,1,0
314,97,2,1,0
315,97,2,1,0
316,97,2,1,0
317,97,2,1,0
318,97,2,1,0
319,97,2,1,0
320,97,2,1,0
321,97,2,1,0
322,97,2,1,0
323,97,2,1,0
324,97,2,1,0
325,97,2,1,0
326,97,2,1,0
327,97,2,1,0
328,97,2,1,0
329,97,2,1,0
330,97,2,1,0
331,97,2,1,0
332,97,2,1,0
333,97,2,1,0
334,97,2,1,0
335,97,2,1,0
336,97,2,1,0
337,97,2,1,0
338,97,2,1,0
339,97,2,1,0
340,97,2,1,0
341,97,2,1,0
342,97,2,1,0
343,97,2,1,0
344,97,2,1,0
345,97,2,1,0
346,97,2,1,0
347,97,2,1,0
348,97,2,1,0
349,97,2,1,0
350,97,2,1,0
351,97,2,1,0
352,97,2,1,0
353,97,2,1,0
354,97,2,1,0
355,97,2,1,0
356,97,2,1,0
357,97,2,1,0
358,97,2,1,0
359,97,2,1,0
360,97,2,1,0
361,97,2,1,0
362,97,2,1,0
363,97,2,1,0
364,97,2,1,0
365,97,2,1,0
366,97,2,1,0
367,97,2,1,0
368,97,2,1,0
369,97,2,1,0
370,97,2,1,0
371,97,2,1,0
372,97,2,1,0
373,97,2,1,0
374,97,2,1,0
375,97,2,1,0
376,97,2,1,0
377,97,2,1,0
378,97,2,1,0
379,97,2,1,0
380,97,2,1,0
381,97,2,1,0
382,97,2,1,0
383,97,2,1,0
384,97,2,1,0
385,97,2,1,0
386,97,2,1,0
387,97,2,1,0
388,97,2,1,0
389,97,2,1,0
390,97,2,1,0
391,97,2,1,0
392,97,2,1,0
393,97,2,1,0
394,97,2,1,0
395,97,2,1,0
396,97,2,1,0
397,97,2,1,0
398,97,2,1,0
399,97,2,1,0
400,97,2,1,0
401,97,2,1,0
402,97,2,0,1
403,97,1,1,1
404,97,1,1,1
405,97,1,1,1
406,97,1,1,1
407,97,1,1,1
408,97,1,1,1
409,97,1,1,1
410,97,1,1,1
411,97,1,1,1
412,97,1,1,1
413,97,1,1,1
414,97,1,1,1
415,97,1,1,1
416,97,1,1,1
417,97,1,1,1
418,97,1,1,1
419,97,1,1,1
420,97,1,1,1
421,97,1,1,1
422,97,1,1,1
423,97,1,1,1
424,97,1,1,1
425,97,1,1,1
426,97,1,1,1
427,97,1,1,1
428,97,1,1,1
429,97,1,1,1
430,97,1,1,1
431,97,1,1,1
432,97,1,1,1
433,97,1,1,1
434,97,1,1,1
435,97,1,1,1
436,97,1,1,1
437,97,1,1,1
438,97,1,1,1
439,97,1,1,1
440,97,1,1,1
441,97,1,1,1
442,97,1,1,1
443,97,1,1,1
444,97,1,1,1
445,97,1,1,1
446,97,1,1,1
447,97,1,1,1
448,97,1,1,1
449,97,1,1,1
450,97,1,1,1
451,97,1,1,1
452,97,1,1,1
453,97,1,1,1
454,97,1,1,1
455,97,1,1,1
456,97,1,1,1
457,97,1,1,1
458,97,1,1,1
459,97,1,1,1
460,97,1,1,1
461,97,1,1,1
462,97,1,1,1
463,96,2,1,1
464,96,2,1,1
465,96,2,1,1
466,96,2,1,1
467,96,2,1,1
468,96,2,1,1
469,96,2,1,1
470,96,2,1,1
471,96,2,1,1
472,96,2,1,1
473,96,2,1,1
474,96,2,1,1
475,96,2,1,1
476,96,2,1,1
477,96,2,1,1
478,96,2,1,1
479,96,2,1,1
480,96,2,1,1
481,96,2,1,1
482,96,2,1,1
483,96,2,1,1
484,96,2,1,1
485,96,2,1,1
486,96,1,2,1
487,96,1,2,1
488,96,1,2,1
489,95,2,2,1
490,95,2,2,1
491,95,2,2,1
492,95,2,2,1
493,95,2,2,1
494,95,2,2,1
495,95,2,2,1
496,95,2,2,1
497,95,2,2,1
498,95,2,2,1
499,95,2,2,1
500,95,2,2,1
501,95,2,2,1
502,95,2,2,1
503,95,2,2,1
504,95,2,2,1
505,95,2,2,1
506,95,2,2,1
507,95,2,2,1
508,95,2,2,1
509,95,2,2,1
510,95,2,2,1
511,95,2,2,1
512,95,2,2,1
513,95,2,2,1
514,95,2,2,1
515,95,2,2,1
516,95,2,2,1
517,95,2,2,1
518,95,2,2,1
519,95,2,2,1
520,95,2,2,1
521,95,2,2,1
522,95,2,2,1
523,95,2,2,1
524,95,2,2,1
525,95,2,2,1
526,95,2,2,1
527,95,2,2,1
528,95,2,2,1
529,95,2,2,1
530,95,2,2,1
531,95,2,2,1
532,95,2,2,1
533,95,2,2,1
534,95,2,2,1
535,95,2,2,1
536,95,2,2,1
537,95,2,2,1
538,95,2,2,1
539,95,2,2,1
540,95,2,2,1
541,95,2,2,1
542,95,2,2,1
543,95,2,2,1
544,95,2,2,1
545,95,2,2,1
546,95,2,2,1
547,95,2,2,1
548,95,2,2,1
549,95,2,2,1
550,95,2,2,1
551,95,2,2,1
552,95,2,2,1
553,95,2,2,1
554,95,2,2,1
555,95,2,2,1
556,95,2,2,1
557,95,2,2,1
558,95,2,2,1
559,95,2,2,1
560,95,2,2,1
561,95,2,2,1
562,95,2,2,1
563,95,2,2,1
564,95,2,2,1
565,95,2,2,1
566,95,2,2,1
567,95,2,2,1
568,95,2,2,1
569,95,2,2,1
570,95,2,2,1
571,95,2,2,1
572,95,2,2,1
573,95,2,2,1
574,95,2,2,1
575,95,2,2,1
576,95,2,2,1
577,95,2,2,1
578,95,2,2,1
579,95,2,2,1
580,95,2,2,1
581,95,2,2,1
582,95,2,2,1
583,95,2,2,1
584,95,2,2,1
585,95,2,2,1
586,95,2,2,1
587,95,2,2,1
588,95,2,2,1
589,95,2,2,1
590,95,2,2,1
591,95,2,2,1
592,95,2,2,1
593,95,2,2,1
594,95,2,2,1
595,95,2,2,1
596,95,2,2,1
597,95,2,2,1
598,95,2,2,1
599,95,2,2,1
600,95,2,2,1
601,95,2,2,1
602,95,2,2,1
603,95,2,2,1
604,95,2,1,2
605,95,2,1,2
606,95,2,1,2
607,95,2,1,2
608,95,2,1,2
609,95,2,1,2
610,95,2,1,2
611,95,2,1,2
612,95,2,1,2
613,95,2,1,2
614,95,2,1,2
615,95,2,1,2
616,95,2,1,2
617,95,2,1,2
618,95,2,1,2
619,95,2,1,2
620,95,2,1,2
621,95,2,1,2
622,95,2,1,2
623,95,2,1,2
624,95,2,1,2
625,95,2,1,2
626,95,2,1,2
627,95,2,1,2
628,95,2,1,2
629,95,2,1,2
630,95,2,1,2
631,95,2,1,2
632,95,2,1,2
633,95,2,1,2
634,95,2,1,2
635,95,2,1,2
636,95,2,1,2
637,95,2,1,2
638,95,2,1,2
639,95,2,1,2
640,95,2,1,2
641,95,2,1,2
642,95,2,1,2
643,95,2,1,2
644,95,2,1,2
645,94,3,1,2
646,94,3,1,2
647,94,3,1,2
648,94,3,1,2
649,94,3,1,2
650,94,3,1,2
651,94,3,1,2
652,94,3,1,2
653,94,3,1,2
654,94,3,1,2
655,94,3,1,2
656,94,3,1,2
657,94,3,1,2
658,94,3,1,2
659,94,3,1,2
660,94,3,1,2
661,94,3,1,2
662,94,3,1,2
663,94,3,1,2
664,94,2,2,2
665,94,2,2,2
666,94,2,2,2
667,94,2,2,2
668,94,2,2,2
669,94,2,2,2
670,94,2,2,2
671,94,2,2,2
672,94,2,2,2
673,94,2,2,2
674,94,2,2,2
675,94,2,2,2
676,94,2,2,2
677,94,2,2,2
678,94,2,2,2
679,94,2,2,2
680,94,2,2,2
681,94,2,2,2
682,94,2,2,2
683,94,2,2,2
684,94,2,2,2
685,94,2,2,2
686,94,2,2,2
687,94,2,1,3
688,94,2,1,3
689,94,2,1,3
690,94,1,2,3
691,94,1,2,3
692,94,1,2,3
693,94,1,2,3
694,94,1,2,3
695,94,1,2,3
696,94,1,2,3
697,94,1,2,3
698,94,1,2,3
699,94,1,2,3
700,94,1,2,3
701,94,1,2,3
702,94,1,2,3
703,94,1,2,3
704,94,1,2,3
705,93,2,2,3
706,93,2,2,3
707,93,2,2,3
708,93,2,2,3
709,93,2,2,3
710,93,2,2,3
711,93,2,2,3
712,93,2,2,3
713,93,2,2,3
714,93,2,2,3
715,93,2,2,3
716,93,2,2,3
717,93,2,2,3
718,93,2,2,3
719,93,2,2,3
720,93,2,2,3
721,93,2,2,3
722,93,2,2,3
723,93,2,2,3
724,93,2,2,3
725,93,2,2,3
726,93,2,2,3
727,93,2,2,3
728,93,2,2,3
729,93,2,2,3
730,93,2,2,3
731,93,2,2,3
732,93,2,2,3
733,93,2,2,3
734,93,2,2,3
735,93,2,2,3
736,93,2,2,3
737,93,2,2,3
738,93,2,2,3
739,93,2,2,3
740,93,2,2,3
741,93,2,2,3
742,93,2,2,3
743,93,2,2,3
744,93,2,2,3
745,93,2,2,3
746,93,2,2,3
747,93,2,2,3
748,93,2,2,3
749,93,2,2,3
750,93,2,2,3
751,93,2,2,3
752,93,2,2,3
753,93,2,2,3
754,93,2,2,3
755,93,2,2,3
756,93,2,2,3
757,93,2,2,3
758,93,2,2,3
759,93,2,2,3
760,93,2,2,3
761,93,2,2,3
762,93,2,2,3
763,93,2,2,3
764,93,2,2,3
765,93,2,2,3
766,93,2,2,3
767,93,2,2,3
768,93,2,2,3
769,93,2,2,3
770,93,2,2,3
771,93,2,2,3
772,93,2,2,3
773,93,2,2,3
774,93,2,2,3
775,93,2,2,3
776,93,2,2,3
777,93,2,2,3
778,93,2,2,3
779,93,2,2,3
780,93,2,2,3
781,93,2,2,3
782,93,2,2,3
783,93,2,2,3
784,93,2,2,3
785,93,2,2,3
786,93,2,2,3
787,93,2,2,3
788,93,2,2,3
789,93,2,2,3
790,93,2,2,3
791,93,2,2,3
792,93,2,2,3
793,93,2,2,3
794,93,2,2,3
795,93,2,2,3
796,93,2,2,3
797,93,2,2,3
798,93,2,2,3
799,93,2,2,3
800,93,2,2,3
801,93,2,2,3
802,93,2,2,3
803,93,2,2,3
804,93,2,2,3
805,93,2,2,3
806,93,2,2,3
807,93,2,2,3
808,93,2,2,3
809,93,2,2,3
810,93,2,2,3
811,93,2,2,3
812,93,2,2,3
813,93,2,2,3
814,93,2,2,3
815,93,2,2,3
816,93,2,2,3
817,93,2,2,3
818,93,2,2,3
819,93,2,2,3
820,93,2,2,3
821,93,2,2,3
822,93,2,2,3
823,93,2,2,3
824,93,2,2,3
825,93,2,2,3
826,93,2,2,3
827,93,2,2,3
828,93,2,2,3
829,93,2,2,3
830,93,2,2,3
831,93,2,2,3
832,93,2,2,3
833,93,2,2,3
834,93,2,2,3
835,93,2,2,3
836,93,2,2,3
837,93,2,2,3
838,93,2,2,3
839,93,2,2,3
840,93,2,2,3
841,93,2,2,3
842,93,2,2,3
843,93,2,2,3
844,93,2,2,3
845,93,2,2,3
846,93,1,3,3
847,93,1,3,3
848,93,1,3,3
849,93,1,3,3
850,93,1,3,3
851,93,1,3,3
852,92,2,3,3
853,92,2,3,3
854,92,2,3,3
855,92,2,3,3
856,92,2,3,3
857,92,2,3,3
858,92,2,3,3
859,92,2,3,3
860,92,2,3,3
861,92,2,3,3
862,92,2,3,3
863,92,2,3,3
864,92,2,3,3
865,92,2,2,4
866,92,2,2,4
867,92,2,2,4
868,92,2,2,4
869,92,2,2,4
870,92,2,2,4
871,92,2,2,4
872,92,2,2,4
873,92,2,2,4
874,92,2,2,4
875,92,2,2,4
876,92,2,2,4
877,92,2,2,4
878,92,2,2,4
879,92,2,2,4
880,92,2,2,4
881,92,2,2,4
882,92,2,2,4
883,92,2,2,4
884,92,2,2,4
885,92,2,2,4
886,92,2,2,4
887,92,2,2,4
888,92,2,2,4
889,92,2,2,4
890,92,2,2,4
891,92,2,1,5
892,92,2,1,5
893,92,2,1,5
894,92,2,1,5
895,92,2,1,5
896,92,2,1,5
897,92,2,1,5
898,92,2,1,5
899,92,2,1,5
900,92,2,1,5
901,92,2,1,5
902,92,2,1,5
903,92,2,1,5
904,92,2,1,5
905,92,2,1,5
906,92,1,2,5
907,91,2,2,5
908,91,2,2,5
909,91,2,2,5
910,91,2,2,5
911,91,2,2,5
912,91,2,2,5
913,91,2,2,5
914,91,2,2,5
915,91,2,2,5
916,91,2,2,5
917,91,2,2,5
918,91,2,2,5
919,91,2,2,5
920,91,2,2,5
921,91,2,2,5
922,91,2,2,5
923,91,2,2,5
924,91,2,2,5
925,91,2,2,5
926,91,2,2,5
927,91,2,2,5
928,91,2,2,5
929,91,2,2,5
930,91,2,2,5
931,91,2,2,5
932,91,2,2,5
933,91,2,2,5
934,91,2,2,5
935,91,2,2,5
936,91,2,2,5
937,91,2,2,5
938,91,2,2,5
939,91,2,2,5
940,91,2,2,5
941,91,2,2,5
942,91,2,2,5
943,91,2,2,5
944,91,2,2,5
945,91,2,2,5
946,91,2,2,5
947,91,2,2,5
948,91,2,2,5
949,90,3,2,5
950,90,3,2,5
951,90,3,2,5
952,90,3,2,5
953,90,3,2,5
954,90,3,2,5
955,90,3,2,5
956,90,3,2,5
957,90,3,2,5
958,90,3,2,5
959,90,3,2,5
960,90,3,2,5
961,90,3,2,5
962,90,3,2,5
963,90,3,2,5
964,90,3,2,5
965,90,3,2,5
966,90,3,2,5
967,90,3,2,5
968,90,3,2,5
969,90,3,2,5
970,90,3,2,5
971,90,3,2,5
972,89,4,2,5
973,89,4,2,5
974,89,4,2,5
975,89,4,2,5
976,89,4,2,5
977,89,4,2,5
978,89,4,2,5
979,89,4,2,5
980,89,4,2,5
981,89,4,2,5
982,89,4,2,5
983,89,4,2,5
984,89,4,2,5
985,89,4,2,5
986,89,4,2,5
987,89,4,2,5
988,89,4,2,5
989,89,4,2,5
990,89,4,2,5
991,89,4,2,5
992,89,4,2,5
993,89,4,2,5
994,89,4,2,5
995,89,4,2,5
996,89,4,2,5
997,89,4,2,5
998,89,4,2,5
999,89,4,2,5
1000,89,4,2,5
1001,89,4,2,5
1002,89,4,2,5
1003,89,4,2,5
1004,89,4,2,5
1005,89,4,2,5
1006,89,4,2,5
1007,89,4,2,5
1008,89,4,2,5
1009,89,4,2,5
1010,89,4,2,5
1011,89,4,2,5
1012,89,4,2,5
1013,89,4,2,5
1014,89,4,2,5
1015,89,4,2,5
1016,89,4,2,5
1017,89,4,2,5
1018,89,4,2,5
1019,89,4,2,5
1020,89,4,2,5
1021,89,4,2,5
1022,89,4,2,5
1023,89,4,2,5
1024,89,4,2,5
1025,89,4,2,5
1026,89,4,2,5
1027,89,4,2,5
1028,89,4,2,5
1029,89,4,2,5
1030,89,4,2,5
1031,89,4,2,5
1032,89,4,2,5
1033,89,4,2,5
1034,89,4,2,5
1035,89,4,2,5
1036,89,4,2,5
1037,89,4,2,5
1038,89,4,2,5
1039,89,4,2,5
1040,89,4,2,5
1041,89,4,2,5
1042,89,4,2,5
1043,89,4,2,5
1044,89,4,2,5
1045,89,4,2,5
1046,89,4,2,5
1047,89,4,1,6
1048,89,4,1,6
1049,89,4,1,6
1050,89,4,1,6
1051,89,4,1,6
1052,89,4,1,6
1053,89,3,2,6
1054,89,3,2,6
1055,89,3,2,6
1056,89,3,2,6
1057,89,3,2,6
1058,89,3,2,6
1059,89,3,2,6
1060,89,3,2,6
1061,89,3,2,6
1062,89,3,2,6
1063,89,3,2,6
1064,89,3,2,6
1065,89,3,2,6
1066,89,3,2,6
1067,89,3,2,6
1068,89,3,2,6
1069,89,3,2,6
1070,89,3,2,6
1071,89,3,2,6
1072,89,3,2,6
1073,89,3,2,6
1074,89,3,2,6
1075,89,3,2,6
1076,89,3,2,6
1077,89,3,2,6
1078,89,3,2,6
1079,89,3,2,6
1080,89,3,2,6
1081,89,3,2,6
1082,89,3,2,6
1083,89,3,2,6
1084,89,3,2,6
1085,89,3,2,6
1086,89,3,2,6
1087,89,3,2,6
1088,89,3,2,6
1089,89,3,2,6
1090,89,3,2,6
1091,89,3,2,6
1092,89,3,2,6
1093,89,3,2,6
1094,89,3,2,6
1095,89,3,2,6
1096,89,3,2,6
1097,89,3,2,6
1098,89,3,2,6
1099,89,3,2,6
1100,89,3,2,6
1101,89,3,2,6
1102,89,3,2,6
1103,89,3,2,6
1104,89,3,2,6
1105,89,3,2,6
1106,89,3,2,6
1107,89,3,1,7
1108,89,2,2,7
1109,89,2,2,7
1110,88,3,2,7
1111,88,3,2,7
1112,88,3,2,7
1113,87,4,2,7
1114,86,5,2,7
1115,86,5,2,7
1116,86,5,2,7
1117,86,5,2,7
1118,86,5,2,7
1119,86,5,2,7
1120,86,5,2,7
1121,86,5,2,7
1122,86,5,2,7
1123,86,5,2,7
1124,86,5,2,7
1125,86,5,2,7
1126,86,5,2,7
1127,86,5,2,7
1128,86,5,2,7
1129,86,5,2,7
1130,86,5,2,7
1131,86,5,2,7
1132,86,5,2,7
1133,86,5,2,7
1134,86,5,2,7
1135,86,5,2,7
1136,86,5,2,7
1137,86,5,2,7
1138,86,5,2,7
1139,85,6,2,7
1140,85,6,2,7
1141,85,6,2,7
1142,85,6,2,7
1143,85,6,2,7
1144,85,6,2,7
1145,85,6,2,7
1146,85,6,2,7
1147,85,6,2,7
1148,85,6,2,7
1149,85,6,2,7
1150,85,5,3,7
1151,85,5,3,7
1152,85,5,3,7
1153,85,5,3,7
1154,85,5,3,7
1155,85,5,3,7
1156,85,5,3,7
1157,85,5,3,7
1158,85,5,3,7
1159,85,5,3,7
1160,84,6,3,7
1161,84,6,3,7
1162,84,6,3,7
1163,84,6,3,7
1164,84,6,3,7
1165,84,6,3,7
1166,84,6,3,7
1167,84,6,3,7
1168,84,6,3,7
1169,84,6,3,7
1170,84,6,3,7
1171,83,7,3,7
1172,83,7,3,7
1173,83,6,4,7
1174,83,6,4,7
1175,83,6,4,7
1176,83,6,4,7
1177,83,6,4,7
1178,83,6,4,7
1179,83,6,4,7
1180,83,6,4,7
1181,83,6,4,7
1182,83,6,4,7
1183,83,6,4,7
1184,83,6,4,7
1185,83,6,4,7
1186,83,6,4,7
1187,83,6,4,7
1188,83,6,4,7
1189,83,6,4,7
1190,83,6,4,7
1191,83,6,4,7
1192,83,6,4,7
1193,83,6,4,7
1194,83,6,4,7
1195,83,6,4,7
1196,83,6,4,7
1197,83,6,4,7
1198,83,6,4,7
1199,83,6,4,7
1200,83,6,4,7
1201,83,6,4,7
1202,83,6,4,7
1203,83,6,4,7
1204,83,6,4,7
1205,83,6,4,7
1206,83,6,4,7
1207,83,6,4,7
1208,83,6,4,7
1209,83,6,4,7
1210,83,6,4,7
1211,83,6,4,7
1212,83,6,4,7
1213,83,6,4,7
1214,83,6,4,7
1215,83,6,4,7
1216,83,6,4,7
1217,83,6,4,7
1218,83,6,4,7
1219,83,6,4,7
1220,83,6,4,7
1221,83,6,4,7
1222,83,6,4,7
1223,83,6,4,7
1224,83,6,4,7
1225,83,6,4,7
1226,83,6,4,7
1227,83,6,4,7
1228,83,6,4,7
1229,83,6,4,7
1230,83,6,4,7
1231,83,6,4,7
1232,83,6,4,7
1233,83,6,4,7
1234,83,6,4,7
1235,82,7,4,7
1236,81,8,4,7
1237,81,8,4,7
1238,81,8,4,7
1239,81,8,4,7
1240,81,8,4,7
1241,81,8,4,7
1242,81,8,4,7
1243,81,8,4,7
1244,81,8,4,7
1245,81,8,4,7
1246,81,8,4,7
1247,81,8,4,7
1248,81,8,4,7
1249,81,8,4,7
1250,81,8,4,7
1251,81,8,4,7
1252,81,8,4,7
1253,81,8,4,7
1254,81,8,3,8
1255,81,8,3,8
1256,81,8,3,8
1257,81,8,3,8
1258,81,8,3,8
1259,81,8,3,8
1260,81,8,3,8
1261,81,8,3,8
1262,81,8,3,8
1263,81,8,3,8
1264,81,8,3,8
1265,81,8,3,8
1266,81,8,3,8
1267,81,8,3,8
1268,81,8,3,8
1269,81,8,3,8
1270,81,8,3,8
1271,80,9,3,8
1272,80,9,3,8
1273,80,9,3,8
1274,80,9,3,8
1275,80,9,3,8
1276,80,9,3,8
1277,80,9,3,8
1278,80,9,3,8
1279,80,9,3,8
1280,80,9,3,8
1281,80,9,3,8
1282,80,9,3,8
1283,80,9,3,8
1284,80,9,3,8
1285,80,9,3,8
1286,80,9,3,8
1287,80,9,3,8
1288,80,9,3,8
1289,80,9,3,8
1290,80,9,3,8
1291,80,9,3,8
1292,80,9,3,8
1293,80,9,3,8
1294,80,9,3,8
1295,80,9,3,8
1296,80,9,3,8
1297,80,9,3,8
1298,80,9,3,8
1299,80,9,3,8
1300,80,9,3,8
1301,80,9,3,8
1302,80,9,3,8
1303,80,9,3,8
1304,80,9,3,8
1305,80,9,3,8
1306,80,9,3,8
1307,80,9,3,8
1308,80,9,3,8
1309,80,9,2,9
1310,80,9,2,9
1311,80,8,3,9
1312,80,8,3,9
1313,80,8,3,9
1314,80,7,4,9
1315,80,6,5,9
1316,80,6,5,9
1317,79,7,5,9
1318,79,7,5,9
1319,78,8,5,9
1320,78,8,5,9
1321,78,8,5,9
1322,78,8,5,9
1323,78,8,5,9
1324,78,8,5,9
1325,78,8,5,9
1326,78,8,5,9
1327,78,8,5,9
1328,78,8,5,9
1329,78,8,5,9
1330,78,8,5,9
1331,78,8,5,9
1332,78,8,5,9
1333,78,8,5,9
1334,78,8,5,9
1335,78,8,5,9
1336,78,8,5,9
1337,78,8,5,9
1338,78,8,5,9
1339,78,8,5,9
1340,77,8,6,9
1341,77,8,6,9
1342,77,8,6,9
1343,77,8,6,9
1344,77,8,6,9
1345,77,8,6,9
1346,77,8,6,9
1347,77,8,6,9
1348,77,8,6,9
1349,77,8,6,9
1350,77,8,6,9
1351,77,8,5,10
1352,77,8,5,10
1353,77,8,5,10
1354,77,8,5,10
1355,77,8,5,10
1356,77,8,5,10
1357,77,8,5,10
1358,77,8,5,10
1359,77,8,5,10
1360,76,9,5,10
1361,76,8,6,10
1362,76,8,6,10
1363,76,8,6,10
1364,76,8,6,10
1365,76,8,6,10
1366,76,8,6,10
1367,76,8,6,10
1368,75,9,6,10
1369,75,9,6,10
1370,75,9,6,10
1371,75,9,6,10
1372,75,8,7,10
1373,75,8,7,10
1374,75,8,6,11
1375,75,8,6,11
1376,75,8,6,11
1377,75,8,6,11
1378,74,9,6,11
1379,74,9,6,11
1380,74,9,6,11
1381,74,9,6,11
1382,74,9,6,11
1383,74,9,6,11
1384,74,9,6,11
1385,74,9,6,11
1386,74,9,6,11
1387,74,9,6,11
1388,74,9,6,11
1389,74,9,6,11
1390,74,9,6,11
1391,74,9,6,11
1392,74,9,6,11
1393,74,9,6,11
1394,74,9,6,11
1395,74,9,6,11
1396,74,9,6,11
1397,74,9,6,11
1398,74,9,6,11
1399,74,9,6,11
1400,74,9,6,11
1401,74,9,6,11
1402,74,9,6,11
1403,73,10,6,11
1404,73,10,6,11
1405,73,10,6,11
1406,73,10,6,11
1407,73,10,6,11
1408,73,10,6,11
1409,73,10,6,11
1410,73,10,6,11
1411,73,10,6,11
1412,73,10,6,11
1413,73,10,6,11
1414,73,10,6,11
1415,73,10,6,11
1416,73,10,6,11
1417,73,10,6,11
1418,73,10,6,11
1419,73,10,6,11
1420,73,10,6,11
1421,73,10,6,11
1422,73,10,6,11
1423,73,10,6,11
1424,73,10,6,11
1425,73,10,6,11
1426,73,10,6,11
1427,73,10,6,11
1428,73,10,6,11
1429,73,10,6,11
1430,73,10,6,11
1431,73,10,6,11
1432,73,10,6,11
1433,73,10,6,11
1434,73,10,6,11
1435,73,10,6,11
1436,73,9,7,11
1437,73,8,8,11
1438,73,8,8,11
1439,73,8,8,11
1440,73,8,8,11
1441,73,8,8,11
1442,73,8,8,11
1443,73,8,8,11
1444,73,8,8,11
1445,73,8,8,11
1446,73,8,8,11
1447,73,8,8,11
1448,73,8,8,11
1449,73,8,8,11
1450,73,8,8,11
1451,73,8,8,11
1452,73,8,8,11
1453,73,8,8,11
1454,73,8,8,11
1455,72,9,8,11
1456,72,9,8,11
1457,72,9,8,11
1458,72,9,8,11
1459,72,9,8,11
1460,72,9,8,11
1461,72,9,8,11
1462,72,9,8,11
1463,72,9,8,11
1464,72,9,8,11
1465,72,9,8,11
1466,72,9,8,11
1467,72,9,8,11
1468,72,9,8,11
1469,72,9,8,11
1470,72,9,8,11
1471,72,9,8,11
1472,72,8,9,11
1473,72,8,9,11
1474,72,8,9,11
1475,72,8,9,11
1476,72,8,9,11
1477,72,8,9,11
1478,72,8,9,11
1479,72,8,9,11
1480,72,8,9,11
1481,72,8,9,11
1482,72,8,9,11
1483,72,8,9,11
1484,72,8,9,11
1485,72,8,9,11
1486,72,8,9,11
1487,72,8,9,11
1488,72,8,9,11
1489,72,8,9,11
1490,72,8,9,11
1491,72,8,9,11
1492,72,8,9,11
1493,72,8,9,11
1494,72,8,9,11
1495,72,8,9,11
1496,72,8,9,11
1497,72,8,9,11
1498,72,8,9,11
1499,72,8,9,11
1500,72,8,9,11
1501,72,8,9,11
1502,72,8,9,11
1503,72,8,9,11
1504,72,8,9,11
1505,72,8,9,11
1506,71,9,9,11
1507,71,9,9,11
1508,71,9,9,11
1509,71,9,9,11
1510,71,9,9,11
1511,71,9,9,11
1512,71,9,8,12
1513,71,9,8,12
1514,71,9,8,12
1515,71,9,7,13
1516,71,9,6,14
1517,71,9,6,14
1518,71,8,7,14
1519,71,8,7,14
1520,71,7,8,14
1521,71,7,8,14
1522,71,7,8,14
1523,71,7,8,14
1524,71,7,8,14
1525,71,7,8,14
1526,71,7,8,14
1527,71,7,8,14
1528,71,7,8,14
1529,71,7,8,14
1530,71,7,8,14
1531,71,7,8,14
1532,71,7,8,14
1533,71,7,8,14
1534,71,7,8,14
1535,71,7,8,14
1536,71,7,8,14
1537,71,7,8,14
1538,71,7,8,14
1539,71,7,8,14
1540,71,7,8,14
1541,71,6,8,15
1542,71,6,8,15
1543,71,6,8,15
1544,71,6,8,15
1545,71,6,8,15
1546,71,6,8,15
1547,71,6,8,15
1548,71,6,8,15
1549,71,6,8,15
1550,71,6,8,15
1551,71,6,8,15
1552,71,6,8,15
1553,71,6,8,15
1554,71,6,8,15
1555,71,6,8,15
1556,71,6,8,15
1557,71,6,8,15
1558,71,6,8,15
1559,71,6,8,15
1560,71,6,8,15
1561,71,5,9,15
1562,68,8,8,16
1563,68,8,8,16
1564,68,8,8,16
1565,68,8,8,16
1566,67,9,8,16
1567,67,9,8,16
1568,67,9,8,16
1569,67,8,9,16
1570,66,9,9,16
1571,66,9,9,16
1572,65,10,9,16
1573,65,10,8,17
1574,65,10,8,17
1575,65,10,8,17
1576,65,10,8,17
1577,65,10,8,17
1578,65,10,8,17
1579,65,9,9,17
1580,65,9,9,17
1581,65,9,9,17
1582,65,9,9,17
1583,64,10,9,17
1584,64,10,9,17
1585,64,10,9,17
1586,64,10,9,17
1587,63,11,9,17
1588,63,11,9,17
1589,63,11,9,17
1590,63,11,9,17
1591,63,11,9,17
1592,63,11,9,17
1593,63,11,9,17
1594,63,11,9,17
1595,63,11,9,17
1596,63,11,9,17
1597,63,11,9,17
1598,63,11,9,17
1599,63,11,9,17
1600,63,11,9,17
1601,63,11,9,17
1602,63,11,9,17
1603,63,11,9,17
1604,63,10,10,17
1605,63,10,10,17
1606,63,10,10,17
1607,63,10,10,17
1608,63,10,10,17
1609,63,10,10,17
1610,63,10,10,17
1611,63,10,10,17
1612,63,10,10,17
1613,63,10,10,17
1614,63,10,10,17
1615,63,10,10,17
1616,63,10,10,17
1617,63,10,10,17
1618,63,10,10,17
1619,62,11,10,17
1620,62,11,10,17
1621,62,11,10,17
1622,62,11,10,17
1623,62,11,10,17
1624,62,11,10,17
1625,62,11,10,17
1626,62,11,10,17
1627,62,11,10,17
1628,62,11,10,17
1629,62,11,10,17
1630,62,11,10,17
1631,62,11,10,17
1632,62,11,10,17
1633,61,12,10,17
1634,61,12,10,17
1635,61,12,10,17
1636,61,12,10,17
1637,61,12,9,18
1638,61,12,8,19
1639,61,12,8,19
1640,61,12,8,19
1641,61,12,8,19
1642,61,12,8,19
1643,61,12,8,19
1644,61,12,8,19
1645,61,12,8,19
1646,61,12,8,19
1647,61,12,8,19
1648,61,12,8,19
1649,61,12,8,19
1650,61,12,8,19
1651,61,12,8,19
1652,61,12,8,19
1653,60,13,8,19
1654,60,13,8,19
1655,60,13,8,19
1656,60,12,9,19
1657,59,13,9,19
1658,59,13,9,19
1659,59,13,9,19
1660,59,13,9,19
1661,59,13,9,19
1662,59,13,9,19
1663,59,13,9,19
1664,59,13,9,19
1665,59,13,9,19
1666,59,13,9,19
1667,59,13,9,19
1668,59,13,9,19
1669,59,13,9,19
1670,59,13,9,19
1671,59,13,9,19
1672,59,13,9,19
1673,58,14,8,20
1674,58,14,8,20
1675,58,14,8,20
1676,58,14,8,20
1677,57,15,8,20
1678,57,15,8,20
1679,57,15,8,20
1680,57,15,8,20
1681,57,15,8,20
1682,57,15,8,20
1683,57,15,8,20
1684,57,15,8,20
1685,57,15,8,20
1686,57,15,8,20
1687,57,15,8,20
1688,57,15,8,20
1689,57,15,8,20
1690,57,15,8,20
1691,57,15,8,20
1692,57,15,8,20
1693,57,15,8,20
1694,57,15,8,20
1695,57,15,8,20
1696,57,15,8,20
1697,57,15,8,20
1698,57,15,8,20
1699,57,15,8,20
1700,57,15,8,20
1701,57,15,8,20
1702,57,15,8,20
1703,57,15,8,20
1704,57,15,8,20
1705,57,15,8,20
1706,57,15,8,20
1707,57,14,9,20
1708,57,14,9,20
1709,57,14,9,20
1710,57,14,9,20
1711,57,14,9,20
1712,57,14,9,20
1713,57,14,9,20
1714,57,14,9,20
1715,57,14,9,20
1716,57,14,9,20
1717,57,14,9,20
1718,57,14,9,20
1719,57,14,8,21
1720,57,14,8,21
1721,57,14,7,22
1722,57,14,7,22
1723,57,14,7,22
1724,57,14,7,22
1725,57,14,7,22
1726,57,14,7,22
1727,57,14,7,22
1728,57,14,7,22
1729,57,14,7,22
1730,57,14,7,22
1731,57,14,7,22
1732,57,14,7,22
1733,57,14,7,22
1734,57,14,7,22
1735,57,14,7,22
1736,57,14,7,22
1737,57,14,7,22
1738,57,14,7,22
1739,57,14,7,22
1740,57,14,7,22
1741,57,14,7,22
1742,57,14,6,23
1743,57,14,6,23
1744,57,14,6,23
1745,57,14,6,23
1746,57,14,6,23
1747,57,14,6,23
1748,57,14,6,23
1749,57,14,6,23
1750,57,14,6,23
1751,57,14,6,23
1752,57,14,6,23
1753,57,14,6,23
1754,57,14,6,23
1755,57,14,6,23
1756,57,14,6,23
1757,57,14,6,23
1758,57,14,6,23
1759,57,14,6,23
1760,57,14,6,23
1761,57,14,6,23
1762,57,14,5,24
1763,57,11,8,24
1764,57,11,8,24
1765,57,11,8,24
1766,57,11,8,24
1767,57,10,9,24
1768,57,10,9,24
1769,57,10,9,24
1770,57,10,8,25
1771,57,9,9,25
1772,57,9,9,25
1773,57,8,10,25
1774,56,9,10,25
1775,56,9,10,25
1776,55,10,10,25
1777,55,10,10,25
1778,55,10,10,25
1779,55,10,10,25
1780,54,11,9,26
1781,54,11,9,26
1782,54,11,9,26
1783,54,11,9,26
1784,54,10,10,26
1785,54,10,10,26
1786,54,10,10,26
1787,54,10,10,26
1788,54,9,11,26
1789,54,9,11,26
1790,54,9,11,26
1791,54,9,11,26
1792,54,9,11,26
1793,54,9,11,26
1794,54,9,11,26
1795,54,9,11,26
1796,54,9,11,26
1797,54,9,11,26
1798,53,10,11,26
1799,53,10,11,26
1800,53,10,11,26
1801,53,10,11,26
1802,53,10,11,26
1803,53,10,11,26
1804,53,10,11,26
1805,53,10,10,27
1806,53,10,10,27
1807,53,10,10,27
1808,53,10,10,27
1809,53,10,10,27
1810,53,10,10,27
1811,53,10,10,27
1812,53,10,10,27
1813,53,10,10,27
1814,53,10,10,27
1815,53,10,10,27
1816,53,10,10,27
1817,53,10,10,27
1818,53,10,10,27
1819,53,10,10,27
1820,53,9,11,27
1821,53,9,11,27
1822,52,10,11,27
1823,52,10,11,27
1824,52,10,11,27
1825,51,11,11,27
1826,51,11,11,27
1827,51,11,11,27
1828,51,11,11,27
1829,51,11,11,27
1830,51,11,11,27
1831,51,11,11,27
1832,51,11,11,27
1833,51,11,11,27
1834,51,10,12,27
1835,50,11,12,27
1836,49,12,12,27
1837,48,13,12,27
1838,47,14,12,27
1839,46,15,12,27
1840,46,15,12,27
1841,46,15,12,27
1842,46,15,12,27
1843,46,15,12,27
1844,46,15,12,27
1845,46,15,12,27
1846,46,15,12,27
1847,46,15,12,27
1848,45,16,12,27
1849,45,16,12,27
1850,45,16,12,27
1851,45,16,12,27
1852,45,16,12,27
1853,45,16,12,27
1854,45,15,13,27
1855,45,15,13,27
1856,45,15,13,27
1857,45,15,12,28
1858,45,14,13,28
1859,45,14,13,28
1860,45,14,13,28
1861,45,14,13,28
1862,45,14,13,28
1863,45,14,13,28
1864,45,14,13,28
1865,45,14,13,28
1866,44,15,13,28
1867,44,15,13,28
1868,44,15,13,28
1869,44,15,13,28
1870,44,15,13,28
1871,44,15,13,28
1872,44,15,13,28
1873,44,15,13,28
1874,44,14,14,28
1875,44,14,14,28
1876,44,14,14,28
1877,44,14,14,28
1878,44,13,15,28
1879,44,13,15,28
1880,44,13,15,28
1881,44,13,15,28
1882,44,13,15,28
1883,44,13,15,28
1884,44,13,15,28
1885,44,13,15,28
1886,44,13,15,28
1887,44,13,15,28
1888,44,13,15,28
1889,44,13,15,28
1890,44,13,15,28
1891,44,13,15,28
1892,44,13,15,28
1893,44,13,15,28
1894,44,13,15,28
1895,44,13,15,28
1896,44,13,15,28
1897,44,13,15,28
1898,44,13,15,28
1899,44,13,15,28
1900,44,13,15,28
1901,44,13,15,28
1902,44,13,15,28
1903,44,13,15,28
1904,44,13,15,28
1905,44,13,15,28
1906,44,13,15,28
1907,44,13,15,28
1908,44,13,14,29
1909,44,13,14,29
1910,44,13,14,29
1911,44,13,14,29
1912,44,13,14,29
1913,44,13,14,29
1914,44,13,14,29
1915,44,13,14,29
1916,44,13,14,29
1917,44,13,14,29
1918,44,13,14,29
1919,44,13,14,29
1920,44,13,14,29
1921,44,13,14,29
1922,44,13,14,29
1923,44,13,14,29
1924,44,13,14,29
1925,44,13,14,29
1926,44,13,14,29
1927,44,13,14,29
1928,44,13,14,29
1929,44,13,14,29
1930,44,13,14,29
1931,44,13,14,29
1932,44,13,14,29
1933,44,13,14,29
1934,44,13,14,29
1935,44,13,14,29
1936,44,13,14,29
1937,44,13,14,29
1938,44,13,14,29
1939,44,13,14,29
1940,44,13,14,29
1941,44,13,14,29
1942,44,13,14,29
1943,44,13,14,29
1944,44,13,14,29
1945,44,13,14,29
1946,44,13,14,29
1947,44,13,14,29
1948,44,13,14,29
1949,44,13,14,29
1950,44,13,14,29
1951,44,13,14,29
1952,44,13,14,29
1953,44,13,14,29
1954,44,13,14,29
1955,44,13,14,29
1956,44,13,14,29
1957,44,13,14,29
1958,44,13,14,29
1959,44,13,14,29
1960,44,13,14,29
1961,43,14,14,29
1962,43,14,14,29
1963,43,14,14,29
1964,43,14,11,32
1965,43,14,11,32
1966,43,14,11,32
1967,43,14,11,32
1968,43,14,10,33
1969,43,14,10,33
1970,43,14,10,33
1971,43,14,10,33
1972,43,14,9,34
1973,43,14,9,34
1974,43,14,8,35
1975,43,13,9,35
1976,43,13,9,35
1977,43,12,10,35
1978,43,12,10,35
1979,43,12,10,35
1980,43,12,10,35
1981,43,11,11,35
1982,43,11,11,35
1983,43,11,11,35
1984,43,11,11,35
1985,43,11,10,36
1986,43,11,10,36
1987,43,11,10,36
1988,43,11,10,36
1989,43,11,9,37
1990,43,11,9,37
1991,43,11,9,37
1992,43,11,9,37
1993,43,11,9,37
1994,43,11,9,37
1995,43,11,9,37
1996,43,11,9,37
1997,43,11,9,37
1998,43,11,9,37
1999,43,10,10,37
2000,43,10,10,37
