"tick","total"
0,0
1,0
2,0
3,0
4,0
5,0
6,0
7,0
8,0
9,0
10,0
11,0
12,0
13,0
14,0
15,0
16,0
17,0
18,0
19,0
20,0
21,0
22,0
23,0
24,0
25,0
26,0
27,0
28,0
29,0
30,0
31,0
32,0
33,0
34,0
35,0
36,0
37,0
38,0
39,0
40,0
41,0
42,0
43,0
44,0
45,0
46,0
47,0
48,0
49,0
50,0
51,0
52,0
53,0
54,0
55,0
56,0
57,0
58,0
59,0
60,0
61,0
62,0
63,0
64,0
65,0
66,0
67,0
68,0
69,0
70,0
71,0
72,0
73,0
74,0
75,0
76,0
77,0
78,0
79,0
80,0
81,0
82,0
83,0
84,0
85,0
86,0
87,0
88,0
89,0
90,0
91,0
92,0
93,0
94,0
95,0
96,0
97,0
98,0
99,0
100,0
101,0
102,0
103,0
104,0
105,0
106,0
107,0
108,0
109,0
110,0
111,0
112,0
113,0
114,0
115,0
116,0
117,0
118,0
119,0
120,0
121,0
122,0
123,0
124,0
125,0
126,0
127,0
128,0
129,0
130,0
131,0
132,0
133,0
134,0
135,0
136,0
137,0
138,0
139,0
140,0
141,0
142,0
143,0
144,0
145,0
146,0
147,0
148,0
149,0
150,0
151,0
152,0
153,0
154,0
155,0
156,0
157,0
158,0
159,0
160,0
161,0
162,0
163,0
164,0
165,0
166,0
167,0
168,0
169,0
170,0
171,0
172,0
173,0
174,0
175,0
176,0
177,0
178,0
179,0
180,0
181,0
182,0
183,0
184,0
185,0
186,0
187,0
188,0
189,0
190,0
191,0
192,0
193,0
194,0
195,0
196,0
197,0
198,0
199,0
200,0
201,0
202,0
203,0
204,0
205,0
206,0
207,0
208,0
209,0
210,0
211,0
212,0
213,0
214,0
215,0
216,0
217,0
218,0
219,0
220,0
221,0
222,0
223,0
224,0
225,0
226,0
227,0
228,0
229,0
230,0
231,0
232,0
233,0
234,0
235,0
236,0
237,0
238,0
239,0
240,0
241,0
242,0
243,0
244,0
245,0
246,0
247,0
248,0
249,0
250,0
251,0
252,0
253,0
254,0
255,0
256,0
257,1
258,1
259,1
260,1
261,1
262,1
263,1
264,1
265,1
266,1
267,1
268,1
269,1
270,1
271,1
272,1
273,1
274,2
275,2
276,2
277,2
278,2
279,2
280,2
281,2
282,2
283,3
284,3
285,4
286,4
287,4
288,5
289,5
290,5
291,5
292,5
293,5
294,5
295,5
296,5
297,5
298,5
299,5
300,5
301,5
302,5
303,5
304,6
305,6
306,6
307,6
308,6
309,6
310,6
311,6
312,6
313,6
314,7
315,7
316,7
317,8
318,8
319,8
320,8
321,8
322,8
323,8
324,8
325,8
326,8
327,8
328,8
329,8
330,9
331,9
332,9
333,9
334,9
335,9
336,9
337,10
338,10
339,10
340,11
341,11
342,11
343,11
344,11
345,11
346,12
347,12
348,12
349,13
350,13
351,13
352,13
353,13
354,13
355,13
356,13
357,14
358,14
359,15
360,15
361,15
362,15
363,15
364,15
365,15
366,15
367,16
368,16
369,16
370,16
371,16
372,16
373,16
374,16
375,16
376,16
377,16
378,18
379,18
380,18
381,18
382,18
383,18
384,18
385,18
386,18
387,18
388,18
389,18
390,18
391,18
392,18
393,18
394,18
395,18
396,18
397,18
398,18
399,18
400,18
401,19
402,19
403,19
404,19
405,19
406,19
407,19
408,19
409,19
410,19
411,20
412,20
413,20
414,20
415,20
416,20
417,20
418,20
419,20
420,20
421,20
422,20
423,20
424,20
425,20
426,20
427,20
428,20
429,20
430,20
431,20
432,20
433,20
434,21
435,21
436,21
437,21
438,21
439,21
440,21
441,21
442,21
443,21
444,21
445,21
446,21
447,21
448,21
449,21
450,21
451,21
452,21
453,22
454,22
455,22
456,22
457,23
458,23
459,23
460,23
461,23
462,23
463,23
464,23
465,23
466,23
467,23
468,23
469,23
470,23
471,23
472,23
473,23
474,23
475,23
476,23
477,23
478,23
479,23
480,23
481,23
482,23
483,24
484,24
485,24
486,24
487,24
488,24
489,24
490,24
491,24
492,24
493,24
494,24
495,24
496,25
497,25
498,26
499,26
500,26
501,26
502,26
503,26
504,26
505,27
506,27
507,27
508,27
509,27
510,27
511,28
512,29
513,29
514,30
515,30
516,30
517,30
518,30
519,30
520,30
521,30
522,30
523,30
524,30
525,30
526,30
527,30
528,30
529,30
530,30
531,30
532,30
533,30
534,30
535,30
536,30
537,30
538,30
539,30
540,30
541,30
542,30
543,30
544,30
545,30
546,30
547,30
548,30
549,30
550,30
551,30
552,30
553,30
554,30
555,30
556,30
557,30
558,30
559,30
560,30
561,30
562,30
563,30
564,30
565,30
566,30
567,30
568,30
569,30
570,30
571,30
572,30
573,30
574,30
575,30
576,30
577,30
578,30
579,30
580,30
581,30
582,30
583,30
584,30
585,30
586,30
587,30
588,30
589,30
590,30
591,30
592,30
593,30
594,30
595,30
596,30
597,30
598,30
599,30
600,30
601,30
602,30
603,30
604,30
605,30
606,30
607,30
608,30
609,30
610,30
611,30
612,30
613,30
614,30
615,30
616,30
617,30
618,30
619,30
620,30
621,30
622,30
623,30
624,30
625,30
626,30
627,30
628,30
629,30
630,30
631,30
632,30
633,30
634,30
635,30
636,30
637,30
638,30
639,30
640,30
641,30
642,30
643,30
644,30
645,30
646,30
647,30
648,30
649,30
650,30
651,30
652,30
653,30
654,30
655,30
656,30
657,30
658,30
659,30
660,30
661,30
662,30
663,30
664,30
665,30
666,30
667,30
668,30
669,30
670,30
671,30
672,30
673,30
674,30
675,30
676,30
677,30
678,30
679,30
680,30
681,30
682,30
683,30
684,30
685,30
686,30
687,30
688,30
689,30
690,30
691,30
692,30
693,30
694,30
695,30
696,30
697,30
698,30
699,30
700,30
701,30
702,30
703,30
704,30
705,30
706,30
707,30
708,30
709,30
710,30
711,30
712,30
713,30
714,30
715,30
716,30
717,30
718,30
719,30
720,30
721,30
722,31
723,31
724,31
725,31
726,31
727,31
728,31
729,31
730,31
731,31
732,31
733,31
734,31
735,31
736,31
737,31
738,31
739,31
740,31
741,31
742,31
743,31
744,31
745,31
746,31
747,31
748,31
749,31
750,32
751,32
752,32
753,32
754,32
755,32
756,32
757,32
758,32
759,32
760,32
761,32
762,33
763,33
764,33
765,33
766,33
767,33
768,33
769,33
770,33
771,33
772,33
773,33
774,34
775,34
776,34
777,34
778,34
779,34
780,34
781,34
782,34
783,34
784,34
785,34
786,34
787,34
788,34
789,34
790,34
791,34
792,34
793,34
794,34
795,34
796,34
797,34
798,34
799,34
800,34
801,34
802,34
803,34
804,34
805,34
806,34
807,34
808,34
809,34
810,34
811,34
812,34
813,34
814,34
815,34
816,34
817,34
818,34
819,34
820,34
821,34
822,34
823,34
824,34
825,34
826,34
827,34
828,34
829,34
830,34
831,34
832,34
833,34
834,34
835,34
836,34
837,34
838,34
839,34
840,34
841,34
842,34
843,34
844,34
845,34
846,35
847,35
848,35
849,35
850,35
851,35
852,35
853,35
854,35
855,35
856,35
857,35
858,35
859,35
860,35
861,35
862,35
863,35
864,35
865,35
866,35
867,35
868,35
869,35
870,35
871,35
872,35
873,35
874,36
875,36
876,36
877,36
878,36
879,36
880,37
881,37
882,37
883,37
884,37
885,37
886,37
887,37
888,37
889,37
890,38
891,38
892,38
893,38
894,38
895,38
896,38
897,38
898,38
899,38
900,38
901,38
902,38
903,38
904,38
905,38
906,38
907,38
908,38
909,38
910,38
911,38
912,38
913,38
914,38
915,38
916,38
917,38
918,38
919,38
920,38
921,38
922,38
923,38
924,38
925,38
926,38
927,38
928,38
929,38
930,38
931,38
932,38
933,38
934,38
935,38
936,38
937,38
938,38
939,38
940,38
941,38
942,38
943,38
944,38
945,38
946,38
947,38
948,38
949,38
950,38
951,38
952,38
953,38
954,38
955,38
956,38
957,38
958,38
959,38
960,38
961,38
962,38
963,38
964,38
965,38
966,38
967,38
968,38
969,38
970,38
971,38
972,38
973,38
974,38
975,38
976,38
977,38
978,39
979,39
980,39
981,39
982,39
983,39
984,39
985,39
986,39
987,39
988,39
989,39
990,39
991,39
992,39
993,39
994,39
995,39
996,39
997,39
998,39
999,39
1000,39
1001,39
1002,39
1003,39
1004,39
1005,39
1006,39
1007,39
1008,39
1009,39
1010,39
1011,39
1012,39
1013,39
1014,39
1015,39
1016,39
1017,39
1018,39
1019,39
1020,39
1021,39
1022,39
1023,39
1024,39
1025,40
1026,40
1027,40
1028,40
1029,40
1030,40
1031,40
1032,40
1033,40
1034,40
1035,40
1036,40
1037,40
1038,40
1039,40
1040,40
1041,40
1042,40
1043,40
1044,40
1045,40
1046,40
1047,40
1048,40
1049,40
1050,40
1051,40
1052,40
1053,40
1054,40
1055,40
1056,40
1057,40
1058,40
1059,40
1060,40
1061,40
1062,40
1063,40
1064,40
1065,40
1066,40
1067,40
1068,40
1069,40
1070,40
1071,40
1072,40
1073,41
1074,41
1075,41
1076,42
1077,42
1078,42
1079,42
1080,42
1081,42
1082,42
1083,42
1084,42
1085,42
1086,42
1087,42
1088,42
1089,42
1090,42
1091,42
1092,42
1093,42
1094,43
1095,43
1096,43
1097,43
1098,43
1099,43
1100,44
1101,44
1102,44
1103,44
1104,44
1105,44
1106,44
1107,44
1108,44
1109,44
1110,44
1111,44
1112,44
1113,44
1114,44
1115,44
1116,44
1117,44
1118,44
1119,44
1120,44
1121,44
1122,44
1123,44
1124,45
1125,45
1126,45
1127,45
1128,45
1129,45
1130,45
1131,45
1132,45
1133,45
1134,46
1135,46
1136,46
1137,46
1138,46
1139,47
1140,48
1141,48
1142,48
1143,48
1144,49
1145,49
1146,49
1147,49
1148,49
1149,49
1150,49
1151,49
1152,49
1153,50
1154,50
1155,50
1156,50
1157,50
1158,50
1159,50
1160,51
1161,51
1162,51
1163,51
1164,51
1165,51
1166,51
1167,51
1168,51
1169,51
1170,51
1171,51
1172,51
1173,52
1174,52
1175,52
1176,52
1177,52
1178,52
1179,52
1180,52
1181,52
1182,52
1183,53
1184,54
1185,54
1186,54
1187,55
1188,55
1189,55
1190,55
1191,55
1192,55
1193,55
1194,55
1195,55
1196,55
1197,55
1198,55
1199,55
1200,55
1201,55
1202,55
1203,55
1204,55
1205,55
1206,55
1207,55
1208,55
1209,55
1210,55
1211,55
1212,55
1213,55
1214,55
1215,55
1216,55
1217,55
1218,55
1219,55
1220,55
1221,55
1222,55
1223,55
1224,55
1225,55
1226,55
1227,55
1228,55
1229,55
1230,55
1231,55
1232,55
1233,55
1234,55
1235,55
1236,55
1237,55
1238,55
1239,55
1240,55
1241,55
1242,55
1243,55
1244,55
1245,55
1246,55
1247,55
1248,55
1249,55
1250,55
1251,55
1252,55
1253,55
1254,55
1255,55
1256,55
1257,55
1258,55
1259,55
1260,55
1261,55
1262,55
1263,55
1264,55
1265,55
1266,55
1267,55
1268,55
1269,55
1270,55
1271,55
1272,55
1273,55
1274,56
1275,56
1276,56
1277,56
1278,56
1279,56
1280,56
1281,56
1282,56
1283,56
1284,56
1285,56
1286,57
1287,57
1288,57
1289,57
1290,57
1291,57
1292,57
1293,57
1294,57
1295,57
1296,57
1297,57
1298,57
1299,57
1300,57
1301,57
1302,57
1303,57
1304,57
1305,57
1306,57
1307,57
1308,57
1309,57
1310,57
1311,57
1312,57
1313,57
1314,58
1315,58
1316,58
1317,58
1318,58
1319,58
1320,58
1321,58
1322,58
1323,58
1324,58
1325,58
1326,58
1327,58
1328,58
1329,58
1330,58
1331,58
1332,58
1333,58
1334,58
1335,58
1336,58
1337,58
1338,58
1339,58
1340,58
1341,58
1342,58
1343,58
1344,58
1345,58
1346,58
1347,58
1348,58
1349,58
1350,58
1351,58
1352,58
1353,58
1354,58
1355,58
1356,59
1357,59
1358,59
1359,59
1360,59
1361,59
1362,59
1363,59
1364,59
1365,59
1366,59
1367,59
1368,59
1369,59
1370,59
1371,59
1372,59
1373,59
1374,59
1375,59
1376,59
1377,59
1378,60
1379,60
1380,60
1381,60
1382,60
1383,60
1384,60
1385,60
1386,60
1387,60
1388,60
1389,60
1390,60
1391,60
1392,60
1393,60
1394,60
1395,60
1396,60
1397,60
1398,60
1399,60
1400,60
1401,60
1402,60
1403,60
1404,60
1405,60
1406,60
1407,60
1408,60
1409,60
1410,60
1411,60
1412,60
1413,60
1414,60
1415,60
1416,60
1417,60
1418,60
1419,60
1420,60
1421,60
1422,60
1423,60
1424,60
1425,60
1426,60
1427,60
1428,60
1429,60
1430,60
1431,60
1432,60
1433,60
1434,60
1435,60
1436,60
1437,60
1438,60
1439,60
1440,60
1441,60
1442,60
1443,60
1444,60
1445,60
1446,60
1447,60
1448,60
1449,60
1450,60
1451,60
1452,60
1453,60
1454,60
1455,60
1456,61
1457,61
1458,61
1459,61
1460,61
1461,61
1462,61
1463,61
1464,61
1465,61
1466,61
1467,61
1468,62
1469,62
1470,62
1471,62
1472,62
1473,62
1474,62
1475,62
1476,62
1477,62
1478,62
1479,63
1480,63
1481,63
1482,63
1483,63
1484,63
1485,63
1486,63
1487,63
1488,63
1489,63
1490,63
1491,63
1492,63
1493,63
1494,63
1495,63
1496,63
1497,63
1498,63
1499,63
1500,63
1501,63
1502,63
1503,63
1504,63
1505,63
1506,63
1507,63
1508,63
1509,63
1510,63
1511,63
1512,63
1513,63
1514,63
1515,63
1516,63
1517,63
1518,63
1519,63
1520,63
1521,63
1522,63
1523,63
1524,63
1525,63
1526,63
1527,63
1528,63
1529,63
1530,63
1531,63
1532,63
1533,63
1534,63
1535,63
1536,63
1537,63
1538,63
1539,63
1540,63
1541,63
1542,63
1543,63
1544,63
1545,63
1546,63
1547,63
1548,63
1549,63
1550,63
1551,64
1552,64
1553,64
1554,64
1555,64
1556,64
1557,64
1558,64
1559,64
1560,64
1561,64
1562,64
1563,64
1564,64
1565,64
1566,64
1567,64
1568,65
1569,65
1570,65
1571,65
1572,66
1573,66
1574,66
1575,66
1576,66
1577,66
1578,66
1579,66
1580,66
1581,66
1582,66
1583,66
1584,66
1585,66
1586,66
1587,66
1588,66
1589,66
1590,66
1591,66
1592,66
1593,67
1594,67
1595,67
1596,67
1597,67
1598,67
1599,67
1600,67
1601,67
1602,67
1603,67
1604,67
1605,67
1606,67
1607,67
1608,67
1609,68
1610,68
1611,68
1612,68
1613,68
1614,69
1615,69
1616,70
1617,70
1618,70
1619,70
1620,70
1621,70
1622,70
1623,70
1624,70
1625,70
1626,70
1627,70
1628,70
1629,70
1630,70
1631,70
1632,70
1633,70
1634,71
1635,71
1636,71
1637,71
1638,71
1639,71
1640,71
1641,71
1642,71
1643,71
1644,72
1645,72
1646,72
1647,73
1648,73
1649,73
1650,73
1651,73
1652,73
1653,73
1654,73
1655,73
1656,73
1657,73
1658,73
1659,73
1660,73
1661,73
1662,74
1663,74
1664,74
1665,74
1666,74
1667,74
1668,74
1669,74
1670,74
1671,74
1672,74
1673,74
1674,74
1675,74
1676,74
1677,74
1678,74
1679,74
1680,74
1681,74
1682,74
1683,74
1684,74
1685,74
1686,74
1687,75
1688,75
1689,76
1690,76
1691,76
1692,76
1693,76
1694,76
1695,76
1696,76
1697,76
1698,77
1699,77
1700,77
1701,77
1702,77
1703,77
1704,77
1705,77
1706,77
1707,77
1708,77
1709,77
1710,77
1711,77
1712,77
1713,77
1714,77
1715,77
1716,77
1717,77
1718,77
1719,77
1720,77
1721,77
1722,77
1723,77
1724,77
1725,77
1726,77
1727,77
1728,77
1729,77
1730,77
1731,77
1732,77
1733,78
1734,78
1735,78
1736,78
1737,78
1738,78
1739,78
1740,78
1741,78
1742,78
1743,78
1744,78
1745,78
1746,78
1747,79
1748,79
1749,79
1750,79
1751,79
1752,79
1753,79
1754,79
1755,79
1756,79
1757,80
1758,80
1759,80
1760,80
1761,80
1762,80
1763,81
1764,81
1765,81
1766,81
1767,81
1768,81
1769,81
1770,81
1771,81
1772,81
1773,82
1774,82
1775,82
1776,82
1777,83
1778,83
1779,83
1780,83
1781,83
1782,83
1783,83
1784,83
1785,83
1786,83
1787,83
1788,83
1789,83
1790,83
1791,83
1792,83
1793,83
1794,84
1795,84
1796,84
1797,84
1798,84
1799,84
1800,84
1801,84
1802,84
1803,84
1804,84
1805,84
1806,84
1807,84
1808,84
1809,84
1810,84
1811,84
1812,84
1813,84
1814,84
1815,84
1816,84
1817,84
1818,84
1819,84
1820,84
1821,84
1822,84
1823,84
1824,85
1825,85
1826,85
1827,85
1828,85
1829,85
1830,85
1831,85
1832,86
1833,86
1834,86
1835,86
1836,86
1837,86
1838,86
1839,86
1840,86
1841,86
1842,86
1843,87
1844,87
1845,87
1846,87
1847,87
1848,87
1849,87
1850,87
1851,87
1852,87
1853,87
1854,87
1855,87
1856,87
1857,87
1858,87
1859,87
1860,87
1861,87
1862,87
1863,87
1864,88
1865,88
1866,88
1867,88
1868,88
1869,88
1870,88
1871,88
1872,88
1873,88
1874,88
1875,88
1876,88
1877,88
1878,88
1879,88
1880,88
1881,88
1882,89
1883,89
1884,89
1885,89
1886,89
1887,89
1888,89
1889,89
1890,89
1891,89
1892,89
1893,89
1894,89
1895,89
1896,91
1897,91
1898,91
1899,91
1900,91
1901,91
1902,92
1903,92
1904,92
1905,92
1906,92
1907,92
1908,92
1909,92
1910,92
1911,92
1912,92
1913,92
1914,92
1915,92
1916,92
1917,93
1918,93
1919,93
1920,93
1921,93
1922,93
1923,93
1924,93
1925,93
1926,93
1927,93
1928,93
1929,93
1930,93
1931,93
1932,93
1933,93
1934,93
1935,93
1936,93
1937,93
1938,93
1939,93
1940,93
1941,93
1942,93
1943,93
1944,93
1945,93
1946,93
1947,93
1948,93
1949,93
1950,93
1951,93
1952,93
1953,93
1954,93
1955,93
1956,93
1957,93
1958,93
1959,93
1960,93
1961,93
1962,93
1963,93
1964,93
1965,93
1966,93
1967,93
1968,93
1969,93
1970,93
1971,93
1972,93
1973,93
1974,93
1975,93
1976,93
1977,93
1978,93
1979,93
1980,93
1981,93
1982,93
1983,93
1984,93
1985,93
1986,93
1987,93
1988,93
1989,93
1990,93
1991,93
1992,93
1993,93
1994,93
1995,93
1996,93
1997,93
1998,93
1999,93
2000,94
