"tick","total"
0,0
1,0
2,0
3,0
4,0
5,0
6,0
7,0
8,0
9,0
10,0
11,0
12,0
13,0
14,0
15,0
16,0
17,0
18,0
19,0
20,0
21,0
22,0
23,0
24,0
25,0
26,0
27,0
28,0
29,0
30,0
31,0
32,0
33,0
34,0
35,0
36,0
37,0
38,0
39,0
40,0
41,0
42,0
43,0
44,0
45,0
46,0
47,0
48,0
49,0
50,0
51,0
52,0
53,0
54,0
55,0
56,0
57,0
58,0
59,0
60,0
61,0
62,0
63,0
64,0
65,0
66,0
67,0
68,0
69,0
70,0
71,0
72,0
73,0
74,0
75,0
76,0
77,0
78,0
79,0
80,0
81,0
82,0
83,0
84,0
85,0
86,0
87,0
88,0
89,0
90,0
91,0
92,0
93,0
94,0
95,0
96,0
97,0
98,0
99,0
100,0
101,0
102,0
103,0
104,0
105,0
106,0
107,0
108,0
109,0
110,0
111,0
112,0
113,0
114,0
115,0
116,0
117,0
118,0
119,0
120,0
121,0
122,0
123,0
124,0
125,0
126,0
127,0
128,0
129,0
130,0
131,0
132,0
133,0
134,0
135,0
136,0
137,0
138,0
139,0
140,0
141,0
142,0
143,0
144,0
145,0
146,0
147,0
148,0
149,0
150,0
151,0
152,0
153,0
154,0
155,0
156,0
157,0
158,0
159,0
160,0
161,0
162,0
163,0
164,0
165,0
166,0
167,0
168,0
169,0
170,0
171,0
172,0
173,0
174,0
175,0
176,0
177,0
178,0
179,0
180,0
181,0
182,0
183,0
184,0
185,0
186,0
187,0
188,0
189,0
190,0
191,0
192,0
193,0
194,0
195,0
196,0
197,0
198,0
199,0
200,0
201,0
202,0
203,0
204,0
205,0
206,0
207,0
208,0
209,0
210,1
211,1
212,1
213,1
214,1
215,1
216,1
217,1
218,1
219,1
220,1
221,1
222,1
223,1
224,1
225,1
226,1
227,2
228,2
229,2
230,2
231,2
232,3
233,3
234,3
235,3
236,3
237,4
238,4
239,4
240,4
241,4
242,5
243,5
244,5
245,5
246,6
247,6
248,6
249,6
250,6
251,6
252,6
253,6
254,6
255,6
256,6
257,6
258,7
259,7
260,7
261,7
262,7
263,7
264,7
265,7
266,7
267,7
268,7
269,7
270,8
271,8
272,8
273,8
274,8
275,8
276,8
277,8
278,8
279,8
280,8
281,8
282,8
283,8
284,8
285,8
286,9
287,9
288,9
289,9
290,9
291,9
292,9
293,9
294,9
295,9
296,9
297,10
298,10
299,10
300,10
301,10
302,10
303,11
304,11
305,11
306,11
307,11
308,11
309,11
310,11
311,11
312,11
313,11
314,11
315,11
316,11
317,11
318,11
319,11
320,11
321,11
322,11
323,11
324,11
325,11
326,11
327,11
328,11
329,11
330,12
331,12
332,12
333,12
334,12
335,12
336,12
337,12
338,12
339,12
340,12
341,12
342,12
343,12
344,12
345,12
346,12
347,12
348,12
349,12
350,12
351,12
352,12
353,12
354,12
355,12
356,12
357,12
358,12
359,12
360,12
361,12
362,12
363,12
364,12
365,12
366,13
367,13
368,13
369,13
370,13
371,15
372,15
373,15
374,15
375,15
376,15
377,15
378,15
379,15
380,15
381,15
382,15
383,15
384,15
385,15
386,15
387,15
388,15
389,16
390,16
391,16
392,16
393,16
394,16
395,16
396,16
397,16
398,16
399,16
400,16
401,16
402,16
403,16
404,16
405,16
406,16
407,16
408,16
409,16
410,16
411,17
412,17
413,17
414,17
415,17
416,17
417,17
418,17
419,17
420,17
421,17
422,17
423,17
424,18
425,18
426,19
427,19
428,19
429,19
430,19
431,20
432,20
433,20
434,20
435,20
436,20
437,20
438,20
439,20
440,20
441,20
442,20
443,20
444,20
445,20
446,21
447,22
448,22
449,22
450,22
451,22
452,22
453,22
454,22
455,22
456,22
457,22
458,22
459,22
460,22
461,22
462,22
463,22
464,22
465,22
466,22
467,22
468,22
469,22
470,22
471,22
472,22
473,22
474,22
475,22
476,22
477,22
478,22
479,22
480,22
481,22
482,22
483,22
484,22
485,22
486,22
487,22
488,22
489,22
490,22
491,22
492,22
493,22
494,22
495,22
496,22
497,22
498,22
499,22
500,22
501,22
502,22
503,22
504,22
505,23
506,24
507,24
508,24
509,24
510,24
511,24
512,24
513,24
514,24
515,24
516,24
517,24
518,24
519,24
520,24
521,24
522,24
523,24
524,24
525,24
526,24
527,24
528,24
529,24
530,25
531,26
532,26
533,26
534,26
535,26
536,26
537,26
538,26
539,26
540,26
541,26
542,27
543,27
544,28
545,28
546,28
547,28
548,28
549,28
550,28
551,28
552,28
553,28
554,28
555,28
556,28
557,28
558,28
559,28
560,28
561,28
562,28
563,28
564,28
565,28
566,29
567,29
568,29
569,29
570,29
571,29
572,29
573,29
574,29
575,29
576,29
577,29
578,29
579,29
580,29
581,29
582,29
583,29
584,29
585,29
586,29
587,29
588,29
589,29
590,29
591,29
592,29
593,29
594,29
595,29
596,29
597,29
598,29
599,29
600,29
601,29
602,29
603,29
604,29
605,29
606,29
607,29
608,29
609,29
610,29
611,29
612,29
613,29
614,29
615,30
616,30
617,30
618,30
619,30
620,30
621,30
622,30
623,30
624,30
625,30
626,30
627,30
628,30
629,30
630,30
631,30
632,30
633,30
634,30
635,30
636,30
637,30
638,30
639,30
640,30
641,30
642,30
643,30
644,30
645,31
646,31
647,31
648,32
649,32
650,32
651,32
652,32
653,32
654,32
655,32
656,32
657,32
658,32
659,32
660,32
661,32
662,32
663,32
664,32
665,32
666,32
667,32
668,32
669,32
670,32
671,32
672,32
673,32
674,32
675,32
676,32
677,32
678,32
679,32
680,32
681,32
682,32
683,34
684,34
685,34
686,34
687,34
688,34
689,35
690,35
691,35
692,35
693,35
694,35
695,35
696,35
697,35
698,35
699,35
700,35
701,35
702,35
703,35
704,35
705,35
706,35
707,35
708,35
709,35
710,35
711,36
712,36
713,36
714,36
715,36
716,36
717,36
718,36
719,36
720,36
721,36
722,36
723,36
724,36
725,36
726,36
727,36
728,36
729,36
730,36
731,36
732,36
733,36
734,36
735,36
736,36
737,36
738,37
739,37
740,37
741,37
742,37
743,37
744,38
745,38
746,38
747,38
748,38
749,38
750,38
751,38
752,38
753,38
754,38
755,38
756,38
757,38
758,38
759,38
760,38
761,38
762,38
763,38
764,38
765,39
766,39
767,39
768,39
769,39
770,39
771,39
772,39
773,39
774,39
775,39
776,39
777,39
778,39
779,39
780,39
781,39
782,39
783,39
784,39
785,39
786,39
787,39
788,39
789,39
790,39
791,39
792,40
793,40
794,40
795,40
796,40
797,40
798,40
799,40
800,40
801,41
802,41
803,41
804,41
805,41
806,41
807,41
808,42
809,42
810,42
811,42
812,42
813,42
814,42
815,42
816,42
817,42
818,42
819,42
820,42
821,42
822,42
823,42
824,42
825,42
826,42
827,42
828,42
829,44
830,44
831,44
832,44
833,44
834,44
835,44
836,44
837,44
838,44
839,44
840,44
841,44
842,44
843,44
844,44
845,44
846,44
847,44
848,44
849,44
850,44
851,44
852,44
853,44
854,44
855,44
856,44
857,44
858,44
859,44
860,44
861,44
862,44
863,44
864,44
865,44
866,44
867,44
868,44
869,44
870,44
871,44
872,44
873,44
874,44
875,44
876,44
877,44
878,44
879,44
880,44
881,44
882,44
883,44
884,44
885,44
886,44
887,44
888,44
889,44
890,44
891,44
892,44
893,44
894,44
895,44
896,44
897,44
898,44
899,44
900,44
901,44
902,44
903,44
904,44
905,44
906,44
907,44
908,44
909,44
910,44
911,44
912,44
913,44
914,44
915,44
916,44
917,44
918,44
919,44
920,44
921,44
922,44
923,44
924,44
925,44
926,44
927,44
928,44
929,44
930,44
931,44
932,44
933,44
934,44
935,44
936,44
937,44
938,44
939,44
940,44
941,44
942,44
943,44
944,44
945,44
946,44
947,44
948,44
949,44
950,45
951,45
952,45
953,45
954,45
955,45
956,45
957,45
958,45
959,46
960,46
961,46
962,47
963,47
964,47
965,47
966,47
967,47
968,47
969,47
970,47
971,47
972,47
973,47
974,47
975,47
976,47
977,47
978,47
979,47
980,47
981,47
982,47
983,47
984,47
985,47
986,47
987,47
988,47
989,47
990,47
991,47
992,47
993,47
994,47
995,47
996,47
997,47
998,47
999,47
1000,47
1001,47
1002,47
1003,47
1004,47
1005,47
1006,47
1007,47
1008,47
1009,47
1010,47
1011,47
1012,47
1013,47
1014,47
1015,47
1016,47
1017,47
1018,47
1019,47
1020,48
1021,48
1022,48
1023,48
1024,48
1025,48
1026,48
1027,48
1028,49
1029,49
1030,49
1031,49
1032,49
1033,49
1034,49
1035,49
1036,49
1037,49
1038,49
1039,49
1040,49
1041,50
1042,50
1043,50
1044,50
1045,50
1046,50
1047,50
1048,50
1049,50
1050,50
1051,50
1052,51
1053,51
1054,51
1055,51
1056,51
1057,51
1058,51
1059,51
1060,51
1061,51
1062,51
1063,51
1064,51
1065,51
1066,51
1067,51
1068,51
1069,52
1070,52
1071,52
1072,52
1073,52
1074,52
1075,52
1076,52
1077,52
1078,52
1079,52
1080,52
1081,52
1082,52
1083,52
1084,52
1085,52
1086,52
1087,52
1088,52
1089,52
1090,52
1091,52
1092,52
1093,52
1094,52
1095,52
1096,52
1097,52
1098,52
1099,52
1100,52
1101,52
1102,52
1103,52
1104,52
1105,52
1106,52
1107,52
1108,52
1109,52
1110,52
1111,52
1112,52
1113,52
1114,52
1115,52
1116,52
1117,52
1118,52
1119,52
1120,52
1121,52
1122,52
1123,52
1124,52
1125,52
1126,52
1127,52
1128,52
1129,52
1130,52
1131,52
1132,52
1133,52
1134,52
1135,52
1136,52
1137,52
1138,52
1139,52
1140,52
1141,52
1142,52
1143,52
1144,52
1145,52
1146,52
1147,52
1148,52
1149,52
1150,52
1151,53
1152,53
1153,53
1154,53
1155,53
1156,53
1157,53
1158,53
1159,53
1160,53
1161,53
1162,53
1163,53
1164,53
1165,53
1166,53
1167,53
1168,53
1169,54
1170,54
1171,55
1172,55
1173,55
1174,55
1175,55
1176,55
1177,55
1178,55
1179,55
1180,55
1181,55
1182,55
1183,55
1184,55
1185,55
1186,55
1187,55
1188,55
1189,55
1190,55
1191,55
1192,55
1193,55
1194,55
1195,55
1196,55
1197,55
1198,55
1199,55
1200,56
1201,56
1202,56
1203,56
1204,56
1205,56
1206,56
1207,56
1208,56
1209,56
1210,56
1211,56
1212,56
1213,56
1214,56
1215,56
1216,56
1217,56
1218,56
1219,56
1220,56
1221,56
1222,56
1223,56
1224,56
1225,57
1226,57
1227,58
1228,58
1229,58
1230,58
1231,58
1232,58
1233,58
1234,58
1235,58
1236,58
1237,58
1238,58
1239,58
1240,58
1241,58
1242,58
1243,58
1244,58
1245,58
1246,58
1247,58
1248,58
1249,58
1250,58
1251,58
1252,58
1253,58
1254,58
1255,58
1256,58
1257,58
1258,58
1259,58
1260,59
1261,60
1262,60
1263,60
1264,60
1265,60
1266,60
1267,60
1268,61
1269,61
1270,61
1271,61
1272,62
1273,62
1274,62
1275,62
1276,62
1277,62
1278,62
1279,62
1280,62
1281,62
1282,62
1283,62
1284,62
1285,62
1286,62
1287,62
1288,62
1289,62
1290,62
1291,62
1292,62
1293,62
1294,62
1295,62
1296,62
1297,62
1298,62
1299,62
1300,62
1301,62
1302,63
1303,63
1304,63
1305,63
1306,63
1307,63
1308,63
1309,63
1310,63
1311,63
1312,63
1313,63
1314,63
1315,63
1316,63
1317,63
1318,63
1319,63
1320,64
1321,64
1322,64
1323,64
1324,64
1325,64
1326,64
1327,64
1328,64
1329,64
1330,64
1331,64
1332,64
1333,64
1334,64
1335,64
1336,64
1337,64
1338,64
1339,64
1340,64
1341,64
1342,64
1343,64
1344,64
1345,66
1346,66
1347,66
1348,66
1349,66
1350,66
1351,66
1352,66
1353,66
1354,66
1355,66
1356,66
1357,66
1358,66
1359,66
1360,67
1361,67
1362,67
1363,68
1364,69
1365,69
1366,69
1367,69
1368,69
1369,69
1370,70
1371,70
1372,70
1373,70
1374,70
1375,70
1376,70
1377,70
1378,70
1379,70
1380,70
1381,70
1382,70
1383,70
1384,70
1385,70
1386,70
1387,70
1388,70
1389,70
1390,70
1391,70
1392,70
1393,70
1394,70
1395,70
1396,70
1397,70
1398,70
1399,70
1400,70
1401,70
1402,70
1403,70
1404,70
1405,70
1406,70
1407,70
1408,70
1409,70
1410,70
1411,70
1412,70
1413,70
1414,70
1415,70
1416,70
1417,70
1418,70
1419,70
1420,70
1421,70
1422,70
1423,70
1424,70
1425,70
1426,70
1427,70
1428,70
1429,70
1430,70
1431,70
1432,70
1433,70
1434,70
1435,70
1436,70
1437,70
1438,70
1439,70
1440,70
1441,70
1442,70
1443,70
1444,70
1445,70
1446,70
1447,70
1448,70
1449,70
1450,70
1451,70
1452,70
1453,70
1454,70
1455,70
1456,70
1457,70
1458,70
1459,70
1460,70
1461,70
1462,70
1463,70
1464,70
1465,70
1466,71
1467,71
1468,71
1469,71
1470,71
1471,71
1472,71
1473,71
1474,72
1475,72
1476,73
1477,73
1478,73
1479,73
1480,73
1481,73
1482,73
1483,74
1484,74
1485,74
1486,74
1487,74
1488,74
1489,74
1490,74
1491,74
1492,74
1493,74
1494,75
1495,75
1496,75
1497,75
1498,75
1499,75
1500,76
1501,76
1502,76
1503,76
1504,76
1505,76
1506,76
1507,76
1508,76
1509,76
1510,76
1511,76
1512,76
1513,76
1514,76
1515,76
1516,76
1517,76
1518,77
1519,77
1520,77
1521,77
1522,77
1523,77
1524,77
1525,77
1526,78
1527,78
1528,78
1529,78
1530,79
1531,79
1532,79
1533,79
1534,79
1535,79
1536,79
1537,80
1538,80
1539,80
1540,80
1541,80
1542,80
1543,80
1544,80
1545,80
1546,80
1547,80
1548,80
1549,80
1550,80
1551,80
1552,80
1553,80
1554,80
1555,80
1556,80
1557,80
1558,80
1559,80
1560,80
1561,80
1562,80
1563,80
1564,80
1565,80
1566,80
1567,80
1568,80
1569,80
1570,80
1571,80
1572,80
1573,80
1574,80
1575,80
1576,80
1577,80
1578,80
1579,80
1580,81
1581,81
1582,81
1583,81
1584,81
1585,81
1586,81
1587,81
1588,81
1589,81
1590,81
1591,81
1592,81
1593,81
1594,81
1595,81
1596,81
1597,81
1598,81
1599,81
1600,82
1601,82
1602,82
1603,82
1604,82
1605,82
1606,82
1607,82
1608,82
1609,82
1610,83
1611,83
1612,84
1613,84
1614,84
1615,84
1616,84
1617,84
1618,85
1619,85
1620,85
1621,86
1622,86
1623,86
1624,86
1625,86
1626,86
1627,86
1628,86
1629,87
1630,87
1631,87
1632,87
1633,87
1634,87
1635,87
1636,87
1637,87
1638,87
1639,87
1640,87
1641,87
1642,87
1643,87
1644,87
1645,87
1646,87
1647,87
1648,87
1649,87
1650,87
1651,87
1652,87
1653,87
1654,87
1655,87
1656,87
1657,87
1658,87
1659,87
1660,87
1661,87
1662,87
1663,87
1664,87
1665,87
1666,88
1667,88
1668,88
1669,88
1670,88
1671,88
1672,88
1673,88
1674,88
1675,88
1676,88
1677,88
1678,88
1679,88
1680,88
1681,88
1682,88
1683,88
1684,88
1685,88
1686,88
1687,88
1688,88
1689,88
1690,88
1691,88
1692,89
1693,89
1694,89
1695,89
1696,89
1697,89
1698,89
1699,89
1700,89
1701,89
1702,89
1703,89
1704,89
1705,89
1706,90
1707,90
1708,90
1709,90
1710,90
1711,91
1712,91
1713,91
1714,91
1715,91
1716,91
1717,91
1718,91
1719,91
1720,91
1721,91
1722,92
1723,92
1724,92
1725,92
1726,92
1727,92
1728,92
1729,92
1730,92
1731,93
1732,93
1733,93
1734,93
1735,93
1736,93
1737,94
1738,94
1739,94
1740,94
1741,94
1742,94
1743,94
1744,94
1745,94
1746,94
1747,95
1748,95
1749,95
1750,95
1751,95
1752,95
1753,95
1754,95
1755,95
1756,95
1757,96
1758,96
1759,96
1760,96
1761,96
1762,97
1763,97
1764,97
1765,97
1766,97
1767,97
1768,97
1769,97
1770,97
1771,97
1772,97
1773,97
1774,97
1775,97
1776,98
1777,98
1778,98
1779,98
1780,98
1781,98
1782,98
1783,98
1784,98
1785,98
1786,98
1787,98
1788,98
1789,98
1790,99
1791,99
1792,99
1793,99
1794,99
1795,99
1796,99
1797,99
1798,99
1799,99
1800,99
1801,99
1802,99
1803,99
1804,99
1805,99
1806,99
1807,99
1808,99
1809,99
1810,99
1811,99
1812,99
1813,99
1814,99
1815,100
1816,100
1817,100
1818,100
1819,100
1820,100
1821,100
1822,100
1823,100
1824,100
1825,100
1826,100
1827,100
1828,100
1829,100
1830,100
1831,100
1832,100
1833,100
1834,100
1835,100
1836,100
1837,100
1838,100
1839,100
1840,100
1841,100
1842,100
1843,100
1844,100
1845,100
1846,100
1847,100
1848,100
1849,100
1850,100
1851,100
1852,100
1853,100
1854,100
1855,100
1856,100
1857,100
1858,100
1859,100
1860,100
1861,100
1862,100
1863,100
1864,100
1865,100
1866,100
1867,100
1868,100
1869,100
1870,100
1871,100
1872,100
1873,100
1874,100
1875,100
1876,100
1877,100
1878,100
1879,100
1880,100
1881,100
1882,100
1883,100
1884,100
1885,100
1886,100
1887,100
1888,100
1889,100
1890,100
1891,100
1892,100
1893,100
1894,100
1895,100
1896,100
1897,100
1898,100
1899,100
1900,100
1901,100
1902,100
1903,100
1904,100
1905,100
1906,100
1907,100
1908,100
1909,100
1910,100
1911,100
1912,100
1913,100
1914,100
1915,100
1916,100
1917,100
1918,100
1919,100
1920,100
1921,100
1922,100
1923,100
1924,100
1925,100
1926,101
1927,101
1928,101
1929,101
1930,101
1931,101
1932,101
1933,101
1934,101
1935,101
1936,101
1937,101
1938,101
1939,101
1940,101
1941,101
1942,101
1943,101
1944,101
1945,101
1946,101
1947,101
1948,101
1949,101
1950,101
1951,101
1952,101
1953,101
1954,101
1955,101
1956,101
1957,101
1958,101
1959,101
1960,101
1961,101
1962,101
1963,101
1964,101
1965,101
1966,101
1967,101
1968,101
1969,101
1970,101
1971,101
1972,101
1973,101
1974,101
1975,101
1976,101
1977,101
1978,101
1979,101
1980,101
1981,102
1982,102
1983,102
1984,102
1985,102
1986,103
1987,103
1988,103
1989,103
1990,103
1991,104
1992,104
1993,104
1994,104
1995,104
1996,104
1997,104
1998,104
1999,104
2000,104
