tick,total
0,0.0
1,0.095
2,0.095
3,0.095
4,0.096
5,0.096
6,0.096
7,0.097
8,0.097
9,0.097
10,0.097
11,0.097
12,0.097
13,0.097
14,0.097
15,0.097
16,0.097
17,0.097
18,0.097
19,0.097
20,0.097
21,0.097
22,0.097
23,0.097
24,0.097
25,0.098
26,0.098
27,0.098
28,0.098
29,0.098
30,0.098
31,0.098
32,0.099
33,0.099
34,0.099
35,0.099
36,0.099
37,0.099
38,0.099
39,0.099
40,0.099
41,0.099
42,0.099
43,0.099
44,0.099
45,0.099
46,0.099
47,0.099
48,0.099
49,0.099
50,0.099
51,0.099
52,0.099
53,0.099
54,0.099
55,0.099
56,0.099
57,0.099
58,0.099
59,0.1
60,0.1
61,0.1
62,0.1
63,0.1
64,0.101
65,0.101
66,0.101
67,0.101
68,0.102
69,0.102
70,0.102
71,0.102
72,0.102
73,0.102
74,0.102
75,0.102
76,0.102
77,0.102
78,0.102
79,0.102
80,0.102
81,0.103
82,0.103
83,0.103
84,0.103
85,0.103
86,0.103
87,0.103
88,0.103
89,0.103
90,0.103
91,0.103
92,0.103
93,0.103
94,0.104
95,0.104
96,0.104
97,0.104
98,0.104
99,0.104
100,0.104
101,0.104
102,0.104
103,0.106
104,0.107
105,0.109
106,0.109
107,0.109
108,0.11
109,0.113
110,0.113
111,0.114
112,0.115
113,0.116
114,0.119
115,0.121
116,0.122
117,0.123
118,0.124
119,0.128
120,0.129
121,0.131
122,0.132
123,0.134
124,0.137
125,0.139
126,0.139
127,0.143
128,0.146
129,0.148
130,0.152
131,0.154
132,0.157
133,0.161
134,0.165
135,0.17
136,0.172
137,0.173
138,0.176
139,0.178
140,0.179
141,0.182
142,0.186
143,0.188
144,0.191
145,0.197
146,0.202
147,0.204
148,0.209
149,0.211
150,0.214
151,0.216
152,0.217
153,0.221
154,0.222
155,0.225
156,0.228
157,0.23
158,0.231
159,0.233
160,0.236
161,0.237
162,0.239
163,0.243
164,0.245
165,0.249
166,0.253
167,0.257
168,0.259
169,0.26
170,0.262
171,0.264
172,0.265
173,0.269
174,0.27
175,0.271
176,0.272
177,0.276
178,0.28
179,0.285
180,0.288
181,0.29
182,0.292
183,0.294
184,0.297
185,0.3
186,0.304
187,0.308
188,0.31
189,0.312
190,0.313
191,0.316
192,0.32
193,0.322
194,0.326
195,0.327
196,0.329
197,0.332
198,0.336
199,0.336
200,0.338
201,0.339
202,0.342
203,0.344
204,0.346
205,0.349
206,0.36
207,0.373
208,0.382
209,0.408
210,0.438
211,0.465
212,0.514
213,0.564
214,0.595
215,0.643
216,0.691
217,0.739
218,0.803
219,0.865
220,0.922
221,0.991
222,1.049
223,1.105
224,1.162
225,1.215
226,1.28
227,1.339
228,1.408
229,1.484
230,1.562
231,1.648
232,1.721
233,1.787
234,1.864
235,1.952
236,2.05
237,2.15
238,2.245
239,2.344
240,2.431
241,2.539
242,2.634
243,2.728
244,2.834
245,2.933
246,3.051
247,3.148
248,3.247
249,3.338
250,3.442
251,3.546
252,3.67
253,3.781
254,3.883
255,3.981
256,4.082
257,4.177
258,4.285
259,4.401
260,4.498
261,4.615
262,4.74
263,4.829
264,4.948
265,5.051
266,5.165
267,5.255
268,5.378
269,5.496
270,5.639
271,5.76
272,5.876
273,6.004
274,6.126
275,6.252
276,6.363
277,6.489
278,6.627
279,6.752
280,6.872
281,6.983
282,7.109
283,7.252
284,7.37
285,7.508
286,7.623
287,7.744
288,7.87
289,8.008
290,8.143
291,8.285
292,8.425
293,8.554
294,8.673
295,8.802
296,8.946
297,9.069
298,9.189
299,9.326
300,9.445
301,9.565
302,9.723
303,9.852
304,9.975
305,10.098
306,10.23
307,10.367
308,10.498
309,10.622
310,10.757
311,10.886
312,11.027
313,11.152
314,11.309
315,11.438
316,11.582
317,11.742
318,11.873
319,12.01
320,12.141
321,12.256
322,12.376
323,12.51
324,12.652
325,12.785
326,12.921
327,13.064
328,13.191
329,13.324
330,13.454
331,13.595
332,13.703
333,13.828
334,13.964
335,14.092
336,14.223
337,14.344
338,14.477
339,14.612
340,14.741
341,14.868
342,15.005
343,15.103
344,15.224
345,15.336
346,15.473
347,15.592
348,15.724
349,15.856
350,15.972
351,16.112
352,16.225
353,16.35
354,16.472
355,16.616
356,16.728
357,16.847
358,16.975
359,17.089
360,17.214
361,17.322
362,17.438
363,17.566
364,17.694
365,17.8
366,17.925
367,18.043
368,18.149
369,18.264
370,18.379
371,18.491
372,18.617
373,18.746
374,18.877
375,19.009
376,19.122
377,19.232
378,19.345
379,19.444
380,19.557
381,19.661
382,19.783
383,19.896
384,20.002
385,20.11
386,20.228
387,20.345
388,20.443
389,20.583
390,20.687
391,20.787
392,20.885
393,20.974
394,21.092
395,21.174
396,21.27
397,21.356
398,21.455
399,21.54
400,21.631
401,21.723
402,21.812
403,21.908
404,21.996
405,22.095
406,22.187
407,22.265
408,22.362
409,22.459
410,22.559
411,22.633
412,22.704
413,22.777
414,22.867
415,22.944
416,23.041
417,23.135
418,23.221
419,23.305
420,23.388
421,23.47
422,23.553
423,23.611
424,23.701
425,23.775
426,23.833
427,23.91
428,23.979
429,24.056
430,24.124
431,24.199
432,24.266
433,24.344
434,24.43
435,24.504
436,24.566
437,24.649
438,24.711
439,24.778
440,24.855
441,24.928
442,24.995
443,25.068
444,25.144
445,25.187
446,25.253
447,25.314
448,25.372
449,25.44
450,25.49
451,25.555
452,25.612
453,25.657
454,25.714
455,25.773
456,25.828
457,25.893
458,25.968
459,26.027
460,26.088
461,26.156
462,26.224
463,26.284
464,26.341
465,26.395
466,26.449
467,26.492
468,26.54
469,26.605
470,26.653
471,26.699
472,26.749
473,26.8
474,26.854
475,26.916
476,26.968
477,27.008
478,27.064
479,27.113
480,27.155
481,27.195
482,27.273
483,27.319
484,27.365
485,27.407
486,27.46
487,27.503
488,27.546
489,27.594
490,27.63
491,27.675
492,27.731
493,27.777
494,27.825
495,27.872
496,27.921
497,27.97
498,28.019
499,28.057
500,28.096
501,28.139
502,28.182
503,28.223
504,28.264
505,28.304
506,28.346
507,28.389
508,28.428
509,28.468
510,28.507
511,28.534
512,28.572
513,28.609
514,28.648
515,28.692
516,28.727
517,28.761
518,28.808
519,28.846
520,28.877
521,28.902
522,28.937
523,28.979
524,29.013
525,29.044
526,29.068
527,29.103
528,29.139
529,29.176
530,29.216
531,29.256
532,29.286
533,29.322
534,29.356
535,29.397
536,29.432
537,29.466
538,29.505
539,29.55
540,29.587
541,29.618
542,29.655
543,29.7
544,29.736
545,29.781
546,29.825
547,29.86
548,29.894
549,29.936
550,29.976
551,30.007
552,30.044
553,30.076
554,30.124
555,30.156
556,30.198
557,30.242
558,30.274
559,30.309
560,30.347
561,30.376
562,30.41
563,30.456
564,30.489
565,30.531
566,30.566
567,30.601
568,30.637
569,30.687
570,30.73
571,30.765
572,30.814
573,30.869
574,30.909
575,30.939
576,30.977
577,31.016
578,31.06
579,31.093
580,31.132
581,31.165
582,31.197
583,31.228
584,31.269
585,31.308
586,31.335
587,31.365
588,31.409
589,31.441
590,31.469
591,31.516
592,31.549
593,31.602
594,31.634
595,31.669
596,31.711
597,31.737
598,31.769
599,31.807
600,31.844
601,31.886
602,31.924
603,31.956
604,31.993
605,32.032
606,32.07
607,32.111
608,32.14
609,32.188
610,32.229
611,32.263
612,32.304
613,32.345
614,32.394
615,32.436
616,32.483
617,32.526
618,32.568
619,32.602
620,32.638
621,32.689
622,32.735
623,32.781
624,32.809
625,32.847
626,32.893
627,32.937
628,32.981
629,33.033
630,33.083
631,33.124
632,33.166
633,33.214
634,33.262
635,33.309
636,33.351
637,33.396
638,33.438
639,33.491
640,33.54
641,33.597
642,33.639
643,33.685
644,33.735
645,33.807
646,33.851
647,33.898
648,33.944
649,33.99
650,34.042
651,34.083
652,34.131
653,34.185
654,34.212
655,34.258
656,34.314
657,34.357
658,34.408
659,34.454
660,34.5
661,34.542
662,34.594
663,34.641
664,34.686
665,34.736
666,34.785
667,34.838
668,34.891
669,34.934
670,34.971
671,35.012
672,35.06
673,35.09
674,35.142
675,35.179
676,35.228
677,35.268
678,35.315
679,35.369
680,35.413
681,35.452
682,35.516
683,35.572
684,35.633
685,35.678
686,35.733
687,35.799
688,35.839
689,35.886
690,35.946
691,35.986
692,36.019
693,36.066
694,36.122
695,36.185
696,36.238
697,36.292
698,36.353
699,36.41
700,36.449
701,36.514
702,36.57
703,36.621
704,36.682
705,36.726
706,36.783
707,36.831
708,36.879
709,36.938
710,36.987
711,37.046
712,37.1
713,37.15
714,37.201
715,37.255
716,37.3
717,37.357
718,37.404
719,37.458
720,37.513
721,37.57
722,37.614
723,37.659
724,37.71
725,37.778
726,37.827
727,37.877
728,37.921
729,37.962
730,38.006
731,38.061
732,38.117
733,38.172
734,38.235
735,38.281
736,38.335
737,38.381
738,38.436
739,38.489
740,38.545
741,38.61
742,38.654
743,38.698
744,38.746
745,38.799
746,38.858
747,38.903
748,38.952
749,39.01
750,39.063
751,39.11
752,39.162
753,39.208
754,39.264
755,39.318
756,39.369
757,39.43
758,39.499
759,39.551
760,39.604
761,39.665
762,39.71
763,39.769
764,39.829
765,39.868
766,39.933
767,39.994
768,40.06
769,40.11
770,40.159
771,40.22
772,40.262
773,40.3
774,40.351
775,40.394
776,40.448
777,40.503
778,40.559
779,40.603
780,40.645
781,40.705
782,40.75
783,40.793
784,40.826
785,40.871
786,40.934
787,40.986
788,41.037
789,41.092
790,41.139
791,41.189
792,41.233
793,41.279
794,41.341
795,41.39
796,41.431
797,41.477
798,41.529
799,41.573
800,41.619
801,41.675
802,41.738
803,41.792
804,41.85
805,41.9
806,41.947
807,41.997
808,42.05
809,42.096
810,42.166
811,42.203
812,42.248
813,42.299
814,42.355
815,42.408
816,42.451
817,42.496
818,42.538
819,42.578
820,42.631
821,42.676
822,42.729
823,42.782
824,42.834
825,42.887
826,42.957
827,43.007
828,43.057
829,43.108
830,43.161
831,43.209
832,43.252
833,43.294
834,43.347
835,43.398
836,43.448
837,43.503
838,43.545
839,43.593
840,43.624
841,43.666
842,43.715
843,43.761
844,43.807
845,43.859
846,43.906
847,43.962
848,44.001
849,44.035
850,44.085
851,44.139
852,44.182
853,44.225
854,44.273
855,44.321
856,44.365
857,44.402
858,44.439
859,44.484
860,44.532
861,44.581
862,44.614
863,44.654
864,44.701
865,44.744
866,44.788
867,44.846
868,44.879
869,44.918
870,44.956
871,44.993
872,45.032
873,45.078
874,45.118
875,45.159
876,45.205
877,45.271
878,45.307
879,45.351
880,45.393
881,45.436
882,45.479
883,45.511
884,45.547
885,45.584
886,45.636
887,45.667
888,45.697
889,45.736
890,45.77
891,45.804
892,45.844
893,45.881
894,45.911
895,45.953
896,45.99
897,46.037
898,46.07
899,46.106
900,46.147
901,46.179
902,46.218
903,46.254
904,46.296
905,46.337
906,46.373
907,46.405
908,46.439
909,46.465
910,46.514
911,46.551
912,46.578
913,46.618
914,46.658
915,46.688
916,46.749
917,46.794
918,46.822
919,46.851
920,46.885
921,46.914
922,46.946
923,46.987
924,47.016
925,47.049
926,47.078
927,47.112
928,47.141
929,47.176
930,47.211
931,47.242
932,47.275
933,47.312
934,47.353
935,47.382
936,47.415
937,47.448
938,47.489
939,47.528
940,47.571
941,47.601
942,47.64
943,47.682
944,47.717
945,47.762
946,47.796
947,47.826
948,47.862
949,47.902
950,47.941
951,47.98
952,48.01
953,48.049
954,48.074
955,48.107
956,48.149
957,48.184
958,48.224
959,48.262
960,48.297
961,48.342
962,48.378
963,48.412
964,48.44
965,48.471
966,48.501
967,48.529
968,48.561
969,48.6
970,48.631
971,48.665
972,48.695
973,48.723
974,48.757
975,48.797
976,48.831
977,48.873
978,48.911
979,48.939
980,48.971
981,48.999
982,49.041
983,49.074
984,49.107
985,49.15
986,49.179
987,49.213
988,49.248
989,49.284
990,49.328
991,49.364
992,49.387
993,49.422
994,49.459
995,49.5
996,49.541
997,49.579
998,49.611
999,49.651
1000,49.685
1001,49.722
1002,49.761
1003,49.794
1004,49.83
1005,49.867
1006,49.908
1007,49.946
1008,49.993
1009,50.029
1010,50.062
1011,50.106
1012,50.133
1013,50.172
1014,50.208
1015,50.25
1016,50.284
1017,50.328
1018,50.362
1019,50.406
1020,50.447
1021,50.482
1022,50.523
1023,50.553
1024,50.583
1025,50.634
1026,50.664
1027,50.691
1028,50.726
1029,50.763
1030,50.801
1031,50.836
1032,50.871
1033,50.901
1034,50.932
1035,50.977
1036,51.016
1037,51.052
1038,51.092
1039,51.131
1040,51.174
1041,51.205
1042,51.242
1043,51.278
1044,51.314
1045,51.349
1046,51.377
1047,51.417
1048,51.449
1049,51.483
1050,51.522
1051,51.563
1052,51.603
1053,51.633
1054,51.675
1055,51.711
1056,51.745
1057,51.792
1058,51.834
1059,51.869
1060,51.908
1061,51.941
1062,51.976
1063,52.028
1064,52.073
1065,52.113
1066,52.156
1067,52.195
1068,52.228
1069,52.273
1070,52.312
1071,52.353
1072,52.393
1073,52.43
1074,52.474
1075,52.519
1076,52.564
1077,52.602
1078,52.636
1079,52.673
1080,52.713
1081,52.745
1082,52.778
1083,52.808
1084,52.842
1085,52.876
1086,52.916
1087,52.955
1088,53.001
1089,53.044
1090,53.08
1091,53.121
1092,53.162
1093,53.197
1094,53.24
1095,53.277
1096,53.317
1097,53.363
1098,53.402
1099,53.442
1100,53.477
1101,53.514
1102,53.552
1103,53.602
1104,53.653
1105,53.689
1106,53.737
1107,53.771
1108,53.822
1109,53.868
1110,53.909
1111,53.958
1112,53.992
1113,54.038
1114,54.088
1115,54.132
1116,54.176
1117,54.217
1118,54.256
1119,54.295
1120,54.345
1121,54.388
1122,54.415
1123,54.454
1124,54.496
1125,54.536
1126,54.584
1127,54.629
1128,54.673
1129,54.711
1130,54.753
1131,54.797
1132,54.848
1133,54.9
1134,54.936
1135,54.969
1136,55.006
1137,55.051
1138,55.092
1139,55.146
1140,55.192
1141,55.233
1142,55.287
1143,55.327
1144,55.379
1145,55.41
1146,55.442
1147,55.491
1148,55.533
1149,55.591
1150,55.633
1151,55.666
1152,55.722
1153,55.756
1154,55.804
1155,55.857
1156,55.901
1157,55.947
1158,55.99
1159,56.04
1160,56.069
1161,56.116
1162,56.164
1163,56.213
1164,56.259
1165,56.297
1166,56.334
1167,56.391
1168,56.444
1169,56.482
1170,56.51
1171,56.555
1172,56.604
1173,56.659
1174,56.709
1175,56.756
1176,56.801
1177,56.838
1178,56.881
1179,56.924
1180,56.966
1181,57.015
1182,57.067
1183,57.116
1184,57.157
1185,57.195
1186,57.244
1187,57.295
1188,57.336
1189,57.387
1190,57.446
1191,57.491
1192,57.535
1193,57.576
1194,57.622
1195,57.67
1196,57.722
1197,57.767
1198,57.813
1199,57.853
1200,57.908
1201,57.949
1202,57.995
1203,58.056
1204,58.108
1205,58.155
1206,58.208
1207,58.26
1208,58.305
1209,58.355
1210,58.398
1211,58.442
1212,58.495
1213,58.546
1214,58.592
1215,58.646
1216,58.691
1217,58.742
1218,58.782
1219,58.837
1220,58.891
1221,58.945
1222,58.989
1223,59.039
1224,59.088
1225,59.137
1226,59.188
1227,59.233
1228,59.292
1229,59.345
1230,59.383
1231,59.431
1232,59.483
1233,59.528
1234,59.572
1235,59.622
1236,59.663
1237,59.715
1238,59.759
1239,59.807
1240,59.863
1241,59.916
1242,59.976
1243,60.041
1244,60.083
1245,60.135
1246,60.177
1247,60.214
1248,60.263
1249,60.311
1250,60.353
1251,60.387
1252,60.439
1253,60.482
1254,60.529
1255,60.584
1256,60.629
1257,60.684
1258,60.731
1259,60.781
1260,60.823
1261,60.878
1262,60.94
1263,60.986
1264,61.027
1265,61.073
1266,61.13
1267,61.182
1268,61.244
1269,61.29
1270,61.339
1271,61.381
1272,61.427
1273,61.467
1274,61.513
1275,61.569
1276,61.611
1277,61.66
1278,61.709
1279,61.757
1280,61.819
1281,61.875
1282,61.928
1283,61.977
1284,62.03
1285,62.089
1286,62.135
1287,62.187
1288,62.239
1289,62.286
1290,62.331
1291,62.375
1292,62.434
1293,62.471
1294,62.524
1295,62.568
1296,62.614
1297,62.665
1298,62.716
1299,62.775
1300,62.832
1301,62.874
1302,62.926
1303,62.979
1304,63.034
1305,63.091
1306,63.165
1307,63.208
1308,63.262
1309,63.322
1310,63.385
1311,63.445
1312,63.497
1313,63.551
1314,63.594
1315,63.645
1316,63.703
1317,63.76
1318,63.803
1319,63.854
1320,63.896
1321,63.946
1322,63.988
1323,64.04
1324,64.089
1325,64.151
1326,64.205
1327,64.257
1328,64.308
1329,64.364
1330,64.411
1331,64.461
1332,64.515
1333,64.565
1334,64.605
1335,64.668
1336,64.719
1337,64.758
1338,64.813
1339,64.858
1340,64.916
1341,64.987
1342,65.046
1343,65.104
1344,65.161
1345,65.214
1346,65.283
1347,65.354
1348,65.403
1349,65.466
1350,65.514
1351,65.572
1352,65.632
1353,65.694
1354,65.751
1355,65.807
1356,65.87
1357,65.922
1358,65.972
1359,66.03
1360,66.097
1361,66.149
1362,66.207
1363,66.259
1364,66.313
1365,66.372
1366,66.434
1367,66.492
1368,66.547
1369,66.595
1370,66.657
1371,66.713
1372,66.762
1373,66.821
1374,66.88
1375,66.942
1376,67.01
1377,67.072
1378,67.12
1379,67.173
1380,67.223
1381,67.269
1382,67.333
1383,67.372
1384,67.426
1385,67.475
1386,67.533
1387,67.579
1388,67.636
1389,67.7
1390,67.762
1391,67.825
1392,67.865
1393,67.929
1394,67.982
1395,68.04
1396,68.102
1397,68.156
1398,68.209
1399,68.266
1400,68.323
1401,68.381
1402,68.442
1403,68.507
1404,68.564
1405,68.625
1406,68.694
1407,68.749
1408,68.802
1409,68.865
1410,68.921
1411,68.976
1412,69.035
1413,69.09
1414,69.142
1415,69.203
1416,69.259
1417,69.326
1418,69.383
1419,69.445
1420,69.502
1421,69.55
1422,69.616
1423,69.678
1424,69.736
1425,69.792
1426,69.852
1427,69.914
1428,69.975
1429,70.041
1430,70.085
1431,70.13
1432,70.179
1433,70.243
1434,70.304
1435,70.36
1436,70.414
1437,70.473
1438,70.523
1439,70.582
1440,70.658
1441,70.715
1442,70.772
1443,70.813
1444,70.882
1445,70.934
1446,70.989
1447,71.036
1448,71.107
1449,71.166
1450,71.217
1451,71.291
1452,71.344
1453,71.407
1454,71.452
1455,71.508
1456,71.57
1457,71.629
1458,71.688
1459,71.744
1460,71.803
1461,71.88
1462,71.941
1463,71.988
1464,72.063
1465,72.126
1466,72.178
1467,72.232
1468,72.296
1469,72.355
1470,72.425
1471,72.479
1472,72.538
1473,72.598
1474,72.648
1475,72.694
1476,72.765
1477,72.818
1478,72.878
1479,72.963
1480,73.026
1481,73.09
1482,73.146
1483,73.198
1484,73.25
1485,73.311
1486,73.371
1487,73.423
1488,73.486
1489,73.542
1490,73.601
1491,73.659
1492,73.718
1493,73.763
1494,73.817
1495,73.863
1496,73.933
1497,73.987
1498,74.037
1499,74.112
1500,74.167
1501,74.222
1502,74.275
1503,74.338
1504,74.399
1505,74.459
1506,74.524
1507,74.596
1508,74.65
1509,74.713
1510,74.784
1511,74.851
1512,74.914
1513,74.972
1514,75.039
1515,75.097
1516,75.152
1517,75.207
1518,75.269
1519,75.323
1520,75.373
1521,75.449
1522,75.515
1523,75.575
1524,75.636
1525,75.704
1526,75.773
1527,75.833
1528,75.896
1529,75.95
1530,76.012
1531,76.077
1532,76.15
1533,76.21
1534,76.273
1535,76.315
1536,76.37
1537,76.422
1538,76.481
1539,76.548
1540,76.6
1541,76.666
1542,76.724
1543,76.768
1544,76.83
1545,76.897
1546,76.952
1547,77.019
1548,77.08
1549,77.132
1550,77.191
1551,77.243
1552,77.29
1553,77.352
1554,77.421
1555,77.488
1556,77.54
1557,77.6
1558,77.664
1559,77.743
1560,77.8
1561,77.852
1562,77.909
1563,77.964
1564,78.017
1565,78.081
1566,78.132
1567,78.181
1568,78.243
1569,78.305
1570,78.365
1571,78.419
1572,78.478
1573,78.545
1574,78.615
1575,78.684
1576,78.759
1577,78.815
1578,78.883
1579,78.952
1580,79.014
1581,79.082
1582,79.13
1583,79.189
1584,79.246
1585,79.31
1586,79.362
1587,79.429
1588,79.51
1589,79.561
1590,79.623
1591,79.684
1592,79.736
1593,79.793
1594,79.862
1595,79.915
1596,79.975
1597,80.036
1598,80.073
1599,80.145
1600,80.211
1601,80.275
1602,80.336
1603,80.402
1604,80.467
1605,80.521
1606,80.578
1607,80.632
1608,80.683
1609,80.754
1610,80.811
1611,80.868
1612,80.935
1613,80.995
1614,81.052
1615,81.121
1616,81.175
1617,81.248
1618,81.304
1619,81.355
1620,81.414
1621,81.471
1622,81.518
1623,81.568
1624,81.617
1625,81.687
1626,81.736
1627,81.795
1628,81.84
1629,81.895
1630,81.958
1631,82.017
1632,82.078
1633,82.13
1634,82.181
1635,82.234
1636,82.297
1637,82.363
1638,82.409
1639,82.473
1640,82.525
1641,82.584
1642,82.63
1643,82.698
1644,82.767
1645,82.828
1646,82.878
1647,82.931
1648,82.99
1649,83.053
1650,83.109
1651,83.168
1652,83.226
1653,83.277
1654,83.327
1655,83.389
1656,83.433
1657,83.5
1658,83.559
1659,83.615
1660,83.678
1661,83.738
1662,83.801
1663,83.858
1664,83.905
1665,83.949
1666,84.006
1667,84.07
1668,84.14
1669,84.186
1670,84.242
1671,84.303
1672,84.366
1673,84.424
1674,84.483
1675,84.536
1676,84.593
1677,84.648
1678,84.692
1679,84.745
1680,84.804
1681,84.868
1682,84.919
1683,84.97
1684,85.021
1685,85.076
1686,85.138
1687,85.19
1688,85.241
1689,85.3
1690,85.36
1691,85.419
1692,85.477
1693,85.544
1694,85.595
1695,85.659
1696,85.722
1697,85.771
1698,85.836
1699,85.881
1700,85.931
1701,85.989
1702,86.044
1703,86.089
1704,86.132
1705,86.193
1706,86.252
1707,86.297
1708,86.34
1709,86.401
1710,86.447
1711,86.507
1712,86.565
1713,86.626
1714,86.677
1715,86.731
1716,86.781
1717,86.837
1718,86.896
1719,86.948
1720,87.012
1721,87.073
1722,87.128
1723,87.18
1724,87.226
1725,87.29
1726,87.346
1727,87.409
1728,87.474
1729,87.534
1730,87.605
1731,87.668
1732,87.729
1733,87.783
1734,87.84
1735,87.891
1736,87.94
1737,87.987
1738,88.044
1739,88.099
1740,88.166
1741,88.225
1742,88.275
1743,88.336
1744,88.386
1745,88.436
1746,88.497
1747,88.547
1748,88.605
1749,88.663
1750,88.713
1751,88.761
1752,88.831
1753,88.891
1754,88.949
1755,89.008
1756,89.051
1757,89.099
1758,89.149
1759,89.202
1760,89.261
1761,89.301
1762,89.352
1763,89.395
1764,89.444
1765,89.502
1766,89.553
1767,89.611
1768,89.655
1769,89.693
1770,89.741
1771,89.789
1772,89.84
1773,89.901
1774,89.95
1775,90.001
1776,90.045
1777,90.106
1778,90.155
1779,90.201
1780,90.258
1781,90.306
1782,90.358
1783,90.433
1784,90.484
1785,90.532
1786,90.604
1787,90.654
1788,90.709
1789,90.773
1790,90.817
1791,90.873
1792,90.927
1793,90.985
1794,91.034
1795,91.09
1796,91.132
1797,91.185
1798,91.238
1799,91.285
1800,91.328
1801,91.392
1802,91.445
1803,91.5
1804,91.558
1805,91.612
1806,91.662
1807,91.716
1808,91.77
1809,91.837
1810,91.89
1811,91.952
1812,92.007
1813,92.055
1814,92.121
1815,92.183
1816,92.229
1817,92.284
1818,92.334
1819,92.403
1820,92.449
1821,92.495
1822,92.552
1823,92.6
1824,92.652
1825,92.702
1826,92.757
1827,92.811
1828,92.862
1829,92.914
1830,92.976
1831,93.033
1832,93.077
1833,93.127
1834,93.182
1835,93.237
1836,93.272
1837,93.331
1838,93.384
1839,93.446
1840,93.508
1841,93.564
1842,93.617
1843,93.66
1844,93.712
1845,93.77
1846,93.822
1847,93.878
1848,93.931
1849,93.982
1850,94.031
1851,94.083
1852,94.14
1853,94.188
1854,94.243
1855,94.295
1856,94.353
1857,94.402
1858,94.459
1859,94.522
1860,94.567
1861,94.625
1862,94.678
1863,94.729
1864,94.778
1865,94.841
1866,94.898
1867,94.95
1868,94.99
1869,95.038
1870,95.095
1871,95.141
1872,95.195
1873,95.243
1874,95.304
1875,95.353
1876,95.404
1877,95.454
1878,95.51
1879,95.558
1880,95.622
1881,95.681
1882,95.724
1883,95.772
1884,95.821
1885,95.868
1886,95.922
1887,95.985
1888,96.051
1889,96.103
1890,96.165
1891,96.224
1892,96.274
1893,96.339
1894,96.381
1895,96.428
1896,96.486
1897,96.547
1898,96.6
1899,96.65
1900,96.701
1901,96.745
1902,96.799
1903,96.846
1904,96.889
1905,96.933
1906,96.996
1907,97.037
1908,97.089
1909,97.139
1910,97.182
1911,97.236
1912,97.291
1913,97.357
1914,97.418
1915,97.461
1916,97.51
1917,97.566
1918,97.602
1919,97.673
1920,97.724
1921,97.787
1922,97.839
1923,97.897
1924,97.961
1925,98.029
1926,98.078
1927,98.132
1928,98.187
1929,98.248
1930,98.301
1931,98.356
1932,98.395
1933,98.444
1934,98.495
1935,98.539
1936,98.592
1937,98.651
1938,98.698
1939,98.756
1940,98.796
1941,98.843
1942,98.902
1943,98.949
1944,99.01
1945,99.066
1946,99.113
1947,99.177
1948,99.235
1949,99.292
1950,99.351
1951,99.414
1952,99.461
1953,99.513
1954,99.564
1955,99.625
1956,99.683
1957,99.733
1958,99.794
1959,99.838
1960,99.889
1961,99.958
1962,100.012
1963,100.07
1964,100.12
1965,100.162
1966,100.22
1967,100.285
1968,100.342
1969,100.394
1970,100.446
1971,100.501
1972,100.549
1973,100.61
1974,100.671
1975,100.725
1976,100.773
1977,100.824
1978,100.869
1979,100.922
1980,100.978
1981,101.038
1982,101.101
1983,101.155
1984,101.208
1985,101.261
1986,101.298
1987,101.36
1988,101.413
1989,101.469
1990,101.515
1991,101.575
1992,101.632
1993,101.679
1994,101.731
1995,101.779
1996,101.832
1997,101.887
1998,101.924
1999,101.973
2000,102.024
