"tick","total"
0,0
1,0
2,0
3,0
4,0
5,0
6,0
7,0
8,0
9,0
10,0
11,0
12,0
13,0
14,0
15,0
16,0
17,0
18,0
19,0
20,0
21,0
22,0
23,0
24,0
25,0
26,0
27,0
28,0
29,0
30,0
31,0
32,0
33,0
34,0
35,0
36,0
37,0
38,0
39,0
40,0
41,0
42,0
43,0
44,0
45,0
46,0
47,0
48,0
49,0
50,0
51,0
52,0
53,0
54,0
55,0
56,0
57,0
58,0
59,0
60,0
61,0
62,0
63,0
64,0
65,0
66,0
67,0
68,0
69,0
70,0
71,0
72,0
73,0
74,0
75,0
76,0
77,0
78,0
79,0
80,0
81,0
82,0
83,0
84,0
85,0
86,0
87,0
88,0
89,0
90,0
91,0
92,0
93,0
94,0
95,0
96,0
97,0
98,0
99,0
100,0
101,0
102,0
103,0
104,0
105,0
106,0
107,0
108,0
109,0
110,0
111,0
112,0
113,0
114,0
115,0
116,0
117,0
118,0
119,0
120,0
121,0
122,0
123,0
124,0
125,0
126,0
127,0
128,0
129,0
130,0
131,0
132,0
133,0
134,0
135,0
136,0
137,0
138,0
139,0
140,0
141,0
142,0
143,0
144,0
145,1
146,1
147,1
148,1
149,1
150,1
151,1
152,1
153,1
154,1
155,1
156,1
157,1
158,1
159,1
160,1
161,1
162,1
163,1
164,1
165,1
166,1
167,1
168,1
169,1
170,1
171,1
172,1
173,1
174,1
175,1
176,1
177,1
178,1
179,1
180,1
181,1
182,1
183,1
184,1
185,1
186,1
187,1
188,1
189,1
190,1
191,1
192,1
193,1
194,1
195,1
196,1
197,1
198,1
199,1
200,1
201,1
202,1
203,1
204,1
205,1
206,1
207,1
208,1
209,1
210,1
211,1
212,1
213,1
214,2
215,2
216,2
217,2
218,3
219,3
220,3
221,3
222,3
223,3
224,3
225,3
226,3
227,3
228,3
229,3
230,3
231,3
232,3
233,3
234,3
235,3
236,3
237,4
238,4
239,4
240,4
241,4
242,4
243,4
244,4
245,4
246,4
247,4
248,4
249,4
250,4
251,4
252,4
253,4
254,4
255,4
256,4
257,4
258,4
259,4
260,4
261,4
262,4
263,4
264,5
265,5
266,5
267,5
268,5
269,5
270,5
271,5
272,5
273,5
274,5
275,5
276,5
277,5
278,5
279,5
280,6
281,6
282,6
283,6
284,6
285,6
286,6
287,6
288,6
289,6
290,6
291,6
292,6
293,6
294,7
295,7
296,7
297,7
298,7
299,7
300,8
301,8
302,8
303,8
304,8
305,8
306,8
307,10
308,10
309,10
310,10
311,10
312,10
313,10
314,10
315,10
316,10
317,10
318,10
319,10
320,10
321,10
322,10
323,10
324,11
325,12
326,12
327,12
328,13
329,13
330,13
331,13
332,13
333,13
334,13
335,13
336,13
337,14
338,14
339,14
340,14
341,15
342,15
343,15
344,15
345,15
346,15
347,15
348,15
349,15
350,15
351,15
352,15
353,15
354,16
355,16
356,16
357,17
358,17
359,17
360,17
361,17
362,17
363,17
364,17
365,17
366,17
367,17
368,17
369,17
370,17
371,17
372,18
373,18
374,18
375,18
376,18
377,18
378,18
379,18
380,18
381,18
382,18
383,18
384,18
385,18
386,19
387,19
388,20
389,20
390,20
391,20
392,20
393,20
394,20
395,20
396,20
397,21
398,21
399,21
400,21
401,21
402,21
403,21
404,21
405,21
406,21
407,21
408,21
409,21
410,21
411,21
412,21
413,21
414,21
415,21
416,21
417,21
418,21
419,21
420,21
421,21
422,21
423,21
424,22
425,22
426,22
427,22
428,23
429,23
430,23
431,23
432,23
433,23
434,23
435,23
436,23
437,23
438,23
439,23
440,24
441,24
442,24
443,24
444,24
445,24
446,24
447,24
448,24
449,24
450,24
451,24
452,24
453,24
454,24
455,24
456,24
457,24
458,24
459,24
460,24
461,24
462,24
463,24
464,24
465,24
466,24
467,24
468,24
469,24
470,24
471,24
472,24
473,24
474,24
475,24
476,24
477,24
478,24
479,24
480,24
481,24
482,24
483,24
484,24
485,24
486,25
487,25
488,25
489,25
490,25
491,25
492,25
493,25
494,25
495,25
496,25
497,25
498,25
499,26
500,26
501,26
502,26
503,26
504,26
505,26
506,26
507,26
508,26
509,26
510,26
511,27
512,27
513,27
514,27
515,28
516,28
517,29
518,29
519,29
520,29
521,29
522,29
523,29
524,29
525,29
526,29
527,29
528,29
529,29
530,29
531,29
532,29
533,29
534,29
535,29
536,29
537,29
538,30
539,30
540,30
541,30
542,30
543,30
544,30
545,30
546,31
547,31
548,31
549,31
550,31
551,31
552,31
553,31
554,31
555,31
556,31
557,31
558,32
559,32
560,32
561,32
562,32
563,32
564,32
565,32
566,33
567,33
568,33
569,33
570,33
571,33
572,33
573,33
574,33
575,33
576,33
577,33
578,33
579,33
580,33
581,33
582,34
583,34
584,34
585,34
586,34
587,34
588,34
589,34
590,34
591,34
592,34
593,34
594,34
595,34
596,34
597,34
598,34
599,34
600,34
601,34
602,34
603,34
604,34
605,34
606,34
607,34
608,34
609,34
610,34
611,34
612,34
613,34
614,34
615,34
616,34
617,34
618,34
619,34
620,34
621,34
622,34
623,34
624,34
625,34
626,34
627,34
628,34
629,34
630,34
631,34
632,34
633,34
634,34
635,34
636,34
637,34
638,34
639,34
640,34
641,34
642,34
643,34
644,34
645,34
646,34
647,34
648,35
649,35
650,35
651,35
652,35
653,35
654,35
655,35
656,35
657,35
658,35
659,35
660,35
661,35
662,35
663,35
664,35
665,35
666,35
667,35
668,35
669,35
670,35
671,35
672,35
673,35
674,35
675,35
676,35
677,35
678,35
679,35
680,35
681,35
682,35
683,35
684,35
685,35
686,35
687,35
688,35
689,35
690,35
691,35
692,35
693,35
694,35
695,35
696,35
697,35
698,35
699,35
700,36
701,36
702,36
703,36
704,36
705,36
706,36
707,36
708,36
709,36
710,36
711,36
712,37
713,37
714,37
715,37
716,37
717,38
718,38
719,38
720,38
721,38
722,38
723,38
724,38
725,38
726,38
727,38
728,38
729,38
730,38
731,38
732,38
733,39
734,39
735,39
736,39
737,39
738,39
739,39
740,39
741,39
742,39
743,40
744,40
745,40
746,40
747,40
748,40
749,40
750,40
751,40
752,41
753,41
754,41
755,41
756,41
757,41
758,41
759,41
760,41
761,41
762,41
763,41
764,41
765,41
766,41
767,41
768,41
769,42
770,42
771,42
772,42
773,42
774,42
775,42
776,42
777,42
778,42
779,42
780,42
781,42
782,42
783,42
784,42
785,42
786,42
787,42
788,42
789,42
790,42
791,42
792,42
793,42
794,42
795,42
796,42
797,42
798,42
799,42
800,42
801,42
802,42
803,42
804,42
805,42
806,42
807,42
808,42
809,42
810,43
811,43
812,43
813,44
814,44
815,44
816,44
817,44
818,44
819,44
820,44
821,44
822,44
823,44
824,44
825,44
826,44
827,44
828,44
829,44
830,45
831,45
832,45
833,45
834,45
835,45
836,46
837,46
838,46
839,46
840,46
841,46
842,46
843,46
844,46
845,46
846,47
847,47
848,47
849,48
850,48
851,49
852,49
853,49
854,49
855,49
856,49
857,49
858,49
859,49
860,49
861,49
862,49
863,49
864,49
865,49
866,49
867,49
868,49
869,49
870,49
871,49
872,49
873,49
874,49
875,49
876,49
877,49
878,49
879,49
880,49
881,49
882,50
883,50
884,50
885,50
886,50
887,50
888,50
889,50
890,50
891,50
892,50
893,50
894,50
895,50
896,50
897,50
898,50
899,50
900,50
901,50
902,50
903,50
904,50
905,50
906,50
907,50
908,50
909,50
910,50
911,51
912,51
913,51
914,51
915,51
916,51
917,51
918,51
919,51
920,51
921,51
922,51
923,51
924,51
925,51
926,51
927,51
928,51
929,51
930,51
931,51
932,51
933,51
934,51
935,51
936,51
937,51
938,51
939,52
940,52
941,52
942,52
943,52
944,52
945,52
946,52
947,52
948,52
949,52
950,52
951,52
952,52
953,52
954,52
955,52
956,52
957,52
958,52
959,52
960,52
961,52
962,52
963,52
964,52
965,52
966,52
967,52
968,52
969,52
970,52
971,52
972,52
973,52
974,52
975,52
976,52
977,52
978,52
979,52
980,52
981,52
982,52
983,52
984,52
985,52
986,52
987,52
988,52
989,52
990,52
991,52
992,52
993,52
994,52
995,53
996,53
997,53
998,53
999,53
1000,53
1001,53
1002,53
1003,53
1004,53
1005,53
1006,53
1007,53
1008,53
1009,53
1010,53
1011,53
1012,53
1013,53
1014,53
1015,53
1016,53
1017,53
1018,53
1019,53
1020,53
1021,53
1022,53
1023,53
1024,53
1025,53
1026,53
1027,53
1028,53
1029,53
1030,53
1031,53
1032,53
1033,53
1034,53
1035,53
1036,53
1037,53
1038,53
1039,53
1040,53
1041,53
1042,53
1043,53
1044,53
1045,53
1046,53
1047,53
1048,53
1049,53
1050,53
1051,53
1052,53
1053,53
1054,53
1055,53
1056,53
1057,53
1058,53
1059,53
1060,53
1061,53
1062,53
1063,53
1064,53
1065,53
1066,53
1067,53
1068,53
1069,53
1070,53
1071,53
1072,53
1073,53
1074,53
1075,53
1076,53
1077,53
1078,53
1079,53
1080,54
1081,54
1082,54
1083,54
1084,54
1085,54
1086,54
1087,54
1088,54
1089,54
1090,54
1091,54
1092,54
1093,54
1094,54
1095,54
1096,54
1097,54
1098,54
1099,54
1100,54
1101,54
1102,54
1103,54
1104,54
1105,54
1106,54
1107,54
1108,54
1109,54
1110,54
1111,54
1112,54
1113,54
1114,54
1115,54
1116,54
1117,54
1118,54
1119,54
1120,54
1121,54
1122,54
1123,54
1124,54
1125,54
1126,54
1127,54
1128,54
1129,54
1130,54
1131,54
1132,54
1133,54
1134,54
1135,54
1136,54
1137,54
1138,54
1139,55
1140,55
1141,55
1142,55
1143,55
1144,55
1145,55
1146,55
1147,55
1148,55
1149,55
1150,55
1151,55
1152,55
1153,55
1154,55
1155,55
1156,55
1157,55
1158,55
1159,55
1160,55
1161,55
1162,55
1163,55
1164,55
1165,55
1166,55
1167,55
1168,55
1169,55
1170,55
1171,55
1172,55
1173,55
1174,55
1175,55
1176,55
1177,55
1178,55
1179,55
1180,55
1181,55
1182,55
1183,55
1184,55
1185,55
1186,55
1187,55
1188,55
1189,55
1190,55
1191,55
1192,55
1193,55
1194,55
1195,55
1196,55
1197,55
1198,55
1199,55
1200,56
1201,56
1202,56
1203,56
1204,56
1205,56
1206,56
1207,57
1208,57
1209,57
1210,57
1211,57
1212,57
1213,57
1214,57
1215,57
1216,57
1217,57
1218,57
1219,57
1220,57
1221,57
1222,57
1223,57
1224,57
1225,57
1226,57
1227,57
1228,57
1229,57
1230,57
1231,57
1232,57
1233,57
1234,57
1235,57
1236,57
1237,57
1238,57
1239,57
1240,57
1241,57
1242,57
1243,57
1244,57
1245,57
1246,57
1247,57
1248,57
1249,57
1250,57
1251,57
1252,57
1253,57
1254,57
1255,57
1256,57
1257,57
1258,57
1259,57
1260,57
1261,58
1262,58
1263,58
1264,58
1265,58
1266,58
1267,58
1268,58
1269,58
1270,59
1271,59
1272,59
1273,59
1274,59
1275,59
1276,59
1277,59
1278,59
1279,59
1280,59
1281,59
1282,59
1283,59
1284,59
1285,59
1286,59
1287,59
1288,59
1289,59
1290,59
1291,59
1292,59
1293,59
1294,59
1295,59
1296,59
1297,60
1298,60
1299,60
1300,60
1301,60
1302,60
1303,60
1304,60
1305,60
1306,61
1307,61
1308,61
1309,61
1310,61
1311,61
1312,61
1313,62
1314,62
1315,63
1316,63
1317,63
1318,63
1319,63
1320,63
1321,63
1322,63
1323,63
1324,63
1325,63
1326,63
1327,63
1328,63
1329,63
1330,64
1331,64
1332,64
1333,64
1334,64
1335,64
1336,64
1337,64
1338,64
1339,64
1340,64
1341,64
1342,64
1343,64
1344,64
1345,64
1346,64
1347,64
1348,65
1349,65
1350,65
1351,65
1352,65
1353,65
1354,65
1355,65
1356,65
1357,66
1358,66
1359,66
1360,66
1361,66
1362,66
1363,66
1364,66
1365,67
1366,68
1367,68
1368,68
1369,68
1370,68
1371,68
1372,68
1373,68
1374,68
1375,68
1376,68
1377,69
1378,69
1379,69
1380,69
1381,69
1382,69
1383,69
1384,69
1385,69
1386,69
1387,69
1388,69
1389,69
1390,70
1391,71
1392,71
1393,71
1394,71
1395,71
1396,71
1397,72
1398,72
1399,72
1400,72
1401,72
1402,72
1403,72
1404,72
1405,72
1406,72
1407,73
1408,73
1409,73
1410,73
1411,73
1412,74
1413,74
1414,74
1415,74
1416,74
1417,74
1418,74
1419,74
1420,74
1421,74
1422,74
1423,74
1424,74
1425,74
1426,74
1427,74
1428,74
1429,75
1430,75
1431,75
1432,75
1433,75
1434,75
1435,75
1436,76
1437,76
1438,77
1439,77
1440,77
1441,77
1442,77
1443,77
1444,77
1445,77
1446,77
1447,77
1448,77
1449,77
1450,77
1451,77
1452,77
1453,77
1454,77
1455,77
1456,77
1457,77
1458,77
1459,77
1460,77
1461,77
1462,77
1463,77
1464,77
1465,77
1466,77
1467,77
1468,77
1469,77
1470,77
1471,77
1472,77
1473,77
1474,77
1475,78
1476,78
1477,78
1478,78
1479,78
1480,78
1481,78
1482,78
1483,79
1484,79
1485,79
1486,79
1487,79
1488,79
1489,79
1490,79
1491,79
1492,80
1493,80
1494,80
1495,80
1496,80
1497,80
1498,80
1499,80
1500,80
1501,80
1502,81
1503,81
1504,81
1505,81
1506,81
1507,81
1508,81
1509,81
1510,81
1511,81
1512,82
1513,82
1514,82
1515,82
1516,82
1517,82
1518,82
1519,82
1520,82
1521,82
1522,82
1523,82
1524,82
1525,82
1526,82
1527,82
1528,82
1529,82
1530,82
1531,82
1532,82
1533,82
1534,82
1535,82
1536,82
1537,82
1538,82
1539,82
1540,82
1541,82
1542,82
1543,82
1544,82
1545,82
1546,82
1547,82
1548,82
1549,82
1550,82
1551,82
1552,82
1553,82
1554,82
1555,82
1556,82
1557,82
1558,82
1559,82
1560,82
1561,82
1562,82
1563,82
1564,82
1565,82
1566,82
1567,82
1568,82
1569,82
1570,82
1571,82
1572,82
1573,82
1574,82
1575,82
1576,82
1577,82
1578,82
1579,82
1580,82
1581,82
1582,82
1583,82
1584,82
1585,82
1586,82
1587,82
1588,82
1589,83
1590,83
1591,83
1592,83
1593,83
1594,83
1595,83
1596,83
1597,83
1598,83
1599,83
1600,83
1601,83
1602,83
1603,83
1604,83
1605,83
1606,83
1607,83
1608,83
1609,83
1610,83
1611,83
1612,83
1613,83
1614,83
1615,83
1616,83
1617,83
1618,83
1619,83
1620,83
1621,83
1622,83
1623,83
1624,83
1625,83
1626,83
1627,83
1628,83
1629,83
1630,83
1631,83
1632,83
1633,84
1634,85
1635,85
1636,85
1637,85
1638,85
1639,85
1640,85
1641,85
1642,85
1643,85
1644,85
1645,85
1646,85
1647,85
1648,85
1649,85
1650,85
1651,85
1652,85
1653,85
1654,85
1655,85
1656,85
1657,85
1658,85
1659,85
1660,85
1661,85
1662,85
1663,85
1664,85
1665,85
1666,85
1667,85
1668,85
1669,85
1670,85
1671,85
1672,85
1673,85
1674,85
1675,85
1676,85
1677,85
1678,85
1679,85
1680,85
1681,85
1682,85
1683,85
1684,85
1685,85
1686,85
1687,85
1688,85
1689,85
1690,85
1691,85
1692,85
1693,85
1694,85
1695,85
1696,85
1697,85
1698,85
1699,85
1700,85
1701,85
1702,85
1703,85
1704,86
1705,86
1706,86
1707,86
1708,86
1709,86
1710,86
1711,86
1712,86
1713,86
1714,86
1715,86
1716,86
1717,86
1718,86
1719,86
1720,86
1721,86
1722,86
1723,86
1724,86
1725,86
1726,87
1727,89
1728,89
1729,89
1730,89
1731,90
1732,90
1733,90
1734,90
1735,90
1736,90
1737,90
1738,90
1739,91
1740,91
1741,91
1742,91
1743,91
1744,91
1745,91
1746,91
1747,91
1748,91
1749,91
1750,91
1751,91
1752,91
1753,91
1754,91
1755,91
1756,91
1757,91
1758,91
1759,91
1760,91
1761,91
1762,91
1763,91
1764,91
1765,91
1766,91
1767,91
1768,91
1769,92
1770,92
1771,92
1772,94
1773,94
1774,94
1775,94
1776,94
1777,94
1778,94
1779,94
1780,94
1781,94
1782,94
1783,94
1784,94
1785,94
1786,94
1787,94
1788,94
1789,94
1790,94
1791,94
1792,94
1793,94
1794,94
1795,94
1796,94
1797,94
1798,94
1799,94
1800,94
1801,94
1802,94
1803,94
1804,94
1805,94
1806,94
1807,94
1808,94
1809,94
1810,94
1811,94
1812,94
1813,94
1814,94
1815,94
1816,94
1817,94
1818,94
1819,95
1820,95
1821,95
1822,95
1823,95
1824,95
1825,95
1826,95
1827,95
1828,95
1829,95
1830,95
1831,95
1832,95
1833,95
1834,95
1835,95
1836,95
1837,95
1838,96
1839,96
1840,96
1841,96
1842,96
1843,96
1844,96
1845,96
1846,96
1847,96
1848,96
1849,96
1850,96
1851,96
1852,96
1853,96
1854,96
1855,97
1856,97
1857,97
1858,97
1859,97
1860,98
1861,98
1862,99
1863,99
1864,99
1865,99
1866,99
1867,99
1868,99
1869,99
1870,99
1871,99
1872,99
1873,99
1874,99
1875,99
1876,99
1877,99
1878,99
1879,99
1880,99
1881,99
1882,99
1883,100
1884,100
1885,100
1886,100
1887,100
1888,100
1889,100
1890,100
1891,100
1892,100
1893,100
1894,100
1895,100
1896,100
1897,100
1898,100
1899,100
1900,100
1901,100
1902,100
1903,100
1904,100
1905,100
1906,100
1907,100
1908,100
1909,100
1910,100
1911,100
1912,100
1913,100
1914,100
1915,100
1916,100
1917,100
1918,101
1919,101
1920,101
1921,101
1922,102
1923,102
1924,102
1925,102
1926,102
1927,102
1928,102
1929,102
1930,102
1931,102
1932,102
1933,102
1934,102
1935,102
1936,103
1937,103
1938,103
1939,104
1940,104
1941,104
1942,104
1943,104
1944,104
1945,104
1946,104
1947,104
1948,105
1949,105
1950,105
1951,105
1952,105
1953,105
1954,105
1955,105
1956,105
1957,106
1958,106
1959,107
1960,107
1961,107
1962,107
1963,107
1964,107
1965,107
1966,107
1967,107
1968,108
1969,108
1970,108
1971,109
1972,109
1973,109
1974,109
1975,109
1976,109
1977,109
1978,109
1979,109
1980,109
1981,109
1982,109
1983,110
1984,110
1985,110
1986,110
1987,110
1988,110
1989,111
1990,111
1991,111
1992,111
1993,111
1994,111
1995,112
1996,112
1997,112
1998,112
1999,112
2000,112
