"tick","susceptible","exposed","infectious","recovered"
0,99,1,0,0
1,99,1,0,0
2,99,1,0,0
3,99,1,0,0
4,99,1,0,0
5,99,1,0,0
6,99,1,0,0
7,99,1,0,0
8,99,1,0,0
9,99,1,0,0
10,99,1,0,0
11,99,1,0,0
12,99,1,0,0
13,99,1,0,0
14,99,1,0,0
15,99,1,0,0
16,99,1,0,0
17,99,1,0,0
18,99,1,0,0
19,99,1,0,0
20,99,1,0,0
21,99,1,0,0
22,99,1,0,0
23,99,1,0,0
24,99,1,0,0
25,99,1,0,0
26,99,1,0,0
27,99,1,0,0
28,99,1,0,0
29,99,1,0,0
30,99,1,0,0
31,99,1,0,0
32,99,1,0,0
33,99,1,0,0
34,99,1,0,0
35,99,1,0,0
36,99,1,0,0
37,99,1,0,0
38,99,1,0,0
39,99,1,0,0
40,99,1,0,0
41,99,1,0,0
42,99,1,0,0
43,99,1,0,0
44,99,1,0,0
45,99,1,0,0
46,99,1,0,0
47,99,1,0,0
48,99,1,0,0
49,99,1,0,0
50,99,1,0,0
51,99,1,0,0
52,99,1,0,0
53,99,1,0,0
54,99,1,0,0
55,99,1,0,0
56,99,1,0,0
57,99,1,0,0
58,99,1,0,0
59,99,1,0,0
60,99,1,0,0
61,99,1,0,0
62,99,1,0,0
63,99,1,0,0
64,99,1,0,0
65,99,1,0,0
66,99,1,0,0
67,99,1,0,0
68,99,1,0,0
69,99,1,0,0
70,99,1,0,0
71,99,1,0,0
72,99,1,0,0
73,99,1,0,0
74,99,1,0,0
75,99,1,0,0
76,99,1,0,0
77,99,1,0,0
78,99,1,0,0
79,99,1,0,0
80,99,1,0,0
81,99,1,0,0
82,99,1,0,0
83,99,1,0,0
84,99,1,0,0
85,99,1,0,0
86,99,1,0,0
87,99,1,0,0
88,99,1,0,0
89,99,1,0,0
90,99,1,0,0
91,99,1,0,0
92,99,1,0,0
93,99,1,0,0
94,99,1,0,0
95,99,1,0,0
96,99,1,0,0
97,99,1,0,0
98,99,1,0,0
99,99,1,0,0
100,99,1,0,0
101,99,1,0,0
102,99,1,0,0
103,99,1,0,0
104,99,1,0,0
105,99,1,0,0
106,99,1,0,0
107,99,1,0,0
108,99,1,0,0
109,99,1,0,0
110,99,1,0,0
111,99,1,0,0
112,99,1,0,0
113,99,1,0,0
114,99,1,0,0
115,99,1,0,0
116,99,1,0,0
117,99,1,0,0
118,99,1,0,0
119,99,1,0,0
120,99,1,0,0
121,99,1,0,0
122,99,1,0,0
123,99,1,0,0
124,99,1,0,0
125,99,1,0,0
126,99,1,0,0
127,99,1,0,0
128,99,1,0,0
129,99,1,0,0
130,99,1,0,0
131,99,1,0,0
132,99,1,0,0
133,99,1,0,0
134,99,1,0,0
135,99,1,0,0
136,99,1,0,0
137,99,1,0,0
138,99,1,0,0
139,99,1,0,0
140,99,1,0,0
141,99,1,0,0
142,99,1,0,0
143,99,1,0,0
144,99,1,0,0
145,99,1,0,0
146,99,1,0,0
147,99,1,0,0
148,99,1,0,0
149,99,1,0,0
150,99,1,0,0
151,99,1,0,0
152,99,1,0,0
153,99,1,0,0
154,99,1,0,0
155,99,1,0,0
156,99,1,0,0
157,99,1,0,0
158,99,1,0,0
159,99,1,0,0
160,99,1,0,0
161,99,1,0,0
162,99,1,0,0
163,99,1,0,0
164,99,1,0,0
165,99,1,0,0
166,99,1,0,0
167,99,1,0,0
168,99,1,0,0
169,99,1,0,0
170,99,1,0,0
171,99,1,0,0
172,99,1,0,0
173,99,1,0,0
174,99,1,0,0
175,99,1,0,0
176,99,1,0,0
177,99,1,0,0
178,99,1,0,0
179,99,1,0,0
180,99,1,0,0
181,99,1,0,0
182,99,1,0,0
183,99,1,0,0
184,99,1,0,0
185,99,1,0,0
186,99,1,0,0
187,99,1,0,0
188,99,1,0,0
189,99,1,0,0
190,99,1,0,0
191,99,1,0,0
192,99,1,0,0
193,99,1,0,0
194,99,1,0,0
195,99,1,0,0
196,99,1,0,0
197,99,1,0,0
198,99,1,0,0
199,99,1,0,0
200,99,1,0,0
201,99,0,1,0
202,99,0,1,0
203,99,0,1,0
204,99,0,1,0
205,99,0,1,0
206,99,0,1,0
207,99,0,1,0
208,99,0,1,0
209,99,0,1,0
210,99,0,1,0
211,99,0,1,0
212,99,0,1,0
213,99,0,1,0
214,99,0,1,0
215,99,0,1,0
216,99,0,1,0
217,99,0,1,0
218,99,0,1,0
219,99,0,1,0
220,99,0,1,0
221,99,0,1,0
222,99,0,1,0
223,99,0,1,0
224,99,0,1,0
225,99,0,1,0
226,99,0,1,0
227,99,0,1,0
228,99,0,1,0
229,99,0,1,0
230,99,0,1,0
231,99,0,1,0
232,99,0,1,0
233,99,0,1,0
234,99,0,1,0
235,99,0,1,0
236,99,0,1,0
237,99,0,1,0
238,99,0,1,0
239,99,0,1,0
240,99,0,1,0
241,99,0,1,0
242,99,0,1,0
243,99,0,1,0
244,99,0,1,0
245,99,0,1,0
246,99,0,1,0
247,99,0,1,0
248,99,0,1,0
249,99,0,1,0
250,99,0,1,0
251,99,0,1,0
252,99,0,1,0
253,99,0,1,0
254,99,0,1,0
255,99,0,1,0
256,99,0,1,0
257,99,0,1,0
258,99,0,1,0
259,99,0,1,0
260,99,0,1,0
261,99,0,1,0
262,99,0,1,0
263,99,0,1,0
264,99,0,1,0
265,99,0,1,0
266,99,0,1,0
267,99,0,1,0
268,99,0,1,0
269,99,0,1,0
270,99,0,1,0
271,99,0,1,0
272,99,0,1,0
273,99,0,1,0
274,99,0,1,0
275,99,0,1,0
276,99,0,1,0
277,99,0,1,0
278,99,0,1,0
279,99,0,1,0
280,99,0,1,0
281,99,0,1,0
282,99,0,1,0
283,99,0,1,0
284,99,0,1,0
285,99,0,1,0
286,99,0,1,0
287,99,0,1,0
288,99,0,1,0
289,99,0,1,0
290,99,0,1,0
291,99,0,1,0
292,99,0,1,0
293,99,0,1,0
294,99,0,1,0
295,99,0,1,0
296,99,0,1,0
297,99,0,1,0
298,99,0,1,0
299,99,0,1,0
300,99,0,1,0
301,99,0,1,0
302,99,0,1,0
303,99,0,1,0
304,99,0,1,0
305,99,0,1,0
306,99,0,1,0
307,99,0,1,0
308,99,0,1,0
309,99,0,1,0
310,99,0,1,0
311,99,0,1,0
312,99,0,1,0
313,99,0,1,0
314,99,0,1,0
315,99,0,1,0
316,99,0,1,0
317,99,0,1,0
318,99,0,1,0
319,99,0,1,0
320,99,0,1,0
321,99,0,1,0
322,99,0,1,0
323,99,0,1,0
324,99,0,1,0
325,99,0,1,0
326,99,0,1,0
327,99,0,1,0
328,98,1,1,0
329,98,1,1,0
330,98,1,1,0
331,98,1,1,0
332,98,1,1,0
333,98,1,1,0
334,98,1,1,0
335,98,1,1,0
336,98,1,1,0
337,98,1,1,0
338,98,1,1,0
339,98,1,1,0
340,98,1,1,0
341,98,1,1,0
342,98,1,1,0
343,98,1,1,0
344,98,1,1,0
345,98,1,1,0
346,98,1,1,0
347,98,1,1,0
348,98,1,1,0
349,98,1,1,0
350,98,1,1,0
351,98,1,1,0
352,98,1,1,0
353,98,1,1,0
354,98,1,1,0
355,98,1,1,0
356,98,1,1,0
357,98,1,1,0
358,98,1,1,0
359,98,1,1,0
360,98,1,1,0
361,98,1,1,0
362,98,1,1,0
363,98,1,1,0
364,98,1,1,0
365,98,1,1,0
366,98,1,1,0
367,98,1,1,0
368,98,1,1,0
369,98,1,1,0
370,98,1,1,0
371,98,1,1,0
372,98,1,1,0
373,98,1,1,0
374,98,1,1,0
375,98,1,1,0
376,98,1,1,0
377,98,1,1,0
378,98,1,1,0
379,98,1,1,0
380,98,1,1,0
381,98,1,1,0
382,98,1,1,0
383,98,1,1,0
384,98,1,1,0
385,98,1,1,0
386,98,1,1,0
387,98,1,1,0
388,98,1,1,0
389,98,1,1,0
390,98,1,1,0
391,98,1,1,0
392,98,1,1,0
393,98,1,1,0
394,98,1,1,0
395,98,1,1,0
396,98,1,1,0
397,98,1,1,0
398,98,1,1,0
399,98,1,1,0
400,98,1,1,0
401,98,1,1,0
402,98,1,0,1
403,98,1,0,1
404,98,1,0,1
405,98,1,0,1
406,98,1,0,1
407,98,1,0,1
408,98,1,0,1
409,98,1,0,1
410,98,1,0,1
411,98,1,0,1
412,98,1,0,1
413,98,1,0,1
414,98,1,0,1
415,98,1,0,1
416,98,1,0,1
417,98,1,0,1
418,98,1,0,1
419,98,1,0,1
420,98,1,0,1
421,98,1,0,1
422,98,1,0,1
423,98,1,0,1
424,98,1,0,1
425,98,1,0,1
426,98,1,0,1
427,98,1,0,1
428,98,1,0,1
429,98,1,0,1
430,98,1,0,1
431,98,1,0,1
432,98,1,0,1
433,98,1,0,1
434,98,1,0,1
435,98,1,0,1
436,98,1,0,1
437,98,1,0,1
438,98,1,0,1
439,98,1,0,1
440,98,1,0,1
441,98,1,0,1
442,98,1,0,1
443,98,1,0,1
444,98,1,0,1
445,98,1,0,1
446,98,1,0,1
447,98,1,0,1
448,98,1,0,1
449,98,1,0,1
450,98,1,0,1
451,98,1,0,1
452,98,1,0,1
453,98,1,0,1
454,98,1,0,1
455,98,1,0,1
456,98,1,0,1
457,98,1,0,1
458,98,1,0,1
459,98,1,0,1
460,98,1,0,1
461,98,1,0,1
462,98,1,0,1
463,98,1,0,1
464,98,1,0,1
465,98,1,0,1
466,98,1,0,1
467,98,1,0,1
468,98,1,0,1
469,98,1,0,1
470,98,1,0,1
471,98,1,0,1
472,98,1,0,1
473,98,1,0,1
474,98,1,0,1
475,98,1,0,1
476,98,1,0,1
477,98,1,0,1
478,98,1,0,1
479,98,1,0,1
480,98,1,0,1
481,98,1,0,1
482,98,1,0,1
483,98,1,0,1
484,98,1,0,1
485,98,1,0,1
486,98,1,0,1
487,98,1,0,1
488,98,1,0,1
489,98,1,0,1
490,98,1,0,1
491,98,1,0,1
492,98,1,0,1
493,98,1,0,1
494,98,1,0,1
495,98,1,0,1
496,98,1,0,1
497,98,1,0,1
498,98,1,0,1
499,98,1,0,1
500,98,1,0,1
501,98,1,0,1
502,98,1,0,1
503,98,1,0,1
504,98,1,0,1
505,98,1,0,1
506,98,1,0,1
507,98,1,0,1
508,98,1,0,1
509,98,1,0,1
510,98,1,0,1
511,98,1,0,1
512,98,1,0,1
513,98,1,0,1
514,98,1,0,1
515,98,1,0,1
516,98,1,0,1
517,98,1,0,1
518,98,1,0,1
519,98,1,0,1
520,98,1,0,1
521,98,1,0,1
522,98,1,0,1
523,98,1,0,1
524,98,1,0,1
525,98,1,0,1
526,98,1,0,1
527,98,1,0,1
528,98,1,0,1
529,98,0,1,1
530,98,0,1,1
531,98,0,1,1
532,98,0,1,1
533,98,0,1,1
534,98,0,1,1
535,98,0,1,1
536,98,0,1,1
537,98,0,1,1
538,98,0,1,1
539,98,0,1,1
540,98,0,1,1
541,98,0,1,1
542,98,0,1,1
543,98,0,1,1
544,98,0,1,1
545,98,0,1,1
546,98,0,1,1
547,98,0,1,1
548,98,0,1,1
549,98,0,1,1
550,98,0,1,1
551,98,0,1,1
552,98,0,1,1
553,98,0,1,1
554,98,0,1,1
555,98,0,1,1
556,98,0,1,1
557,98,0,1,1
558,98,0,1,1
559,98,0,1,1
560,98,0,1,1
561,98,0,1,1
562,98,0,1,1
563,98,0,1,1
564,98,0,1,1
565,98,0,1,1
566,98,0,1,1
567,98,0,1,1
568,98,0,1,1
569,98,0,1,1
570,98,0,1,1
571,98,0,1,1
572,98,0,1,1
573,98,0,1,1
574,98,0,1,1
575,98,0,1,1
576,98,0,1,1
577,98,0,1,1
578,98,0,1,1
579,98,0,1,1
580,98,0,1,1
581,98,0,1,1
582,98,0,1,1
583,98,0,1,1
584,98,0,1,1
585,98,0,1,1
586,98,0,1,1
587,98,0,1,1
588,98,0,1,1
589,98,0,1,1
590,98,0,1,1
591,98,0,1,1
592,98,0,1,1
593,98,0,1,1
594,98,0,1,1
595,98,0,1,1
596,98,0,1,1
597,98,0,1,1
598,98,0,1,1
599,98,0,1,1
600,98,0,1,1
601,98,0,1,1
602,98,0,1,1
603,98,0,1,1
604,98,0,1,1
605,98,0,1,1
606,98,0,1,1
607,98,0,1,1
608,98,0,1,1
609,98,0,1,1
610,98,0,1,1
611,98,0,1,1
612,98,0,1,1
613,98,0,1,1
614,98,0,1,1
615,98,0,1,1
616,98,0,1,1
617,98,0,1,1
618,98,0,1,1
619,98,0,1,1
620,98,0,1,1
621,98,0,1,1
622,98,0,1,1
623,98,0,1,1
624,98,0,1,1
625,98,0,1,1
626,98,0,1,1
627,98,0,1,1
628,98,0,1,1
629,98,0,1,1
630,98,0,1,1
631,97,1,1,1
632,97,1,1,1
633,97,1,1,1
634,97,1,1,1
635,97,1,1,1
636,97,1,1,1
637,97,1,1,1
638,97,1,1,1
639,97,1,1,1
640,97,1,1,1
641,97,1,1,1
642,97,1,1,1
643,97,1,1,1
644,97,1,1,1
645,97,1,1,1
646,97,1,1,1
647,97,1,1,1
648,97,1,1,1
649,97,1,1,1
650,97,1,1,1
651,97,1,1,1
652,97,1,1,1
653,97,1,1,1
654,97,1,1,1
655,97,1,1,1
656,97,1,1,1
657,97,1,1,1
658,97,1,1,1
659,97,1,1,1
660,97,1,1,1
661,97,1,1,1
662,97,1,1,1
663,97,1,1,1
664,97,1,1,1
665,97,1,1,1
666,97,1,1,1
667,97,1,1,1
668,97,1,1,1
669,97,1,1,1
670,97,1,1,1
671,97,1,1,1
672,97,1,1,1
673,97,1,1,1
674,97,1,1,1
675,97,1,1,1
676,97,1,1,1
677,97,1,1,1
678,97,1,1,1
679,97,1,1,1
680,97,1,1,1
681,97,1,1,1
682,97,1,1,1
683,97,1,1,1
684,97,1,1,1
685,97,1,1,1
686,97,1,1,1
687,97,1,1,1
688,97,1,1,1
689,97,1,1,1
690,97,1,1,1
691,97,1,1,1
692,97,1,1,1
693,97,1,1,1
694,97,1,1,1
695,97,1,1,1
696,97,1,1,1
697,97,1,1,1
698,97,1,1,1
699,97,1,1,1
700,97,1,1,1
701,97,1,1,1
702,97,1,1,1
703,97,1,1,1
704,97,1,1,1
705,97,1,1,1
706,97,1,1,1
707,97,1,1,1
708,97,1,1,1
709,97,1,1,1
710,97,1,1,1
711,97,1,1,1
712,97,1,1,1
713,97,1,1,1
714,97,1,1,1
715,97,1,1,1
716,97,1,1,1
717,97,1,1,1
718,97,1,1,1
719,97,1,1,1
720,97,1,1,1
721,97,1,1,1
722,97,1,1,1
723,97,1,1,1
724,97,1,1,1
725,97,1,1,1
726,97,1,1,1
727,97,1,1,1
728,97,1,1,1
729,97,1,1,1
730,97,1,0,2
731,97,1,0,2
732,97,1,0,2
733,97,1,0,2
734,97,1,0,2
735,97,1,0,2
736,97,1,0,2
737,97,1,0,2
738,97,1,0,2
739,97,1,0,2
740,97,1,0,2
741,97,1,0,2
742,97,1,0,2
743,97,1,0,2
744,97,1,0,2
745,97,1,0,2
746,97,1,0,2
747,97,1,0,2
748,97,1,0,2
749,97,1,0,2
750,97,1,0,2
751,97,1,0,2
752,97,1,0,2
753,97,1,0,2
754,97,1,0,2
755,97,1,0,2
756,97,1,0,2
757,97,1,0,2
758,97,1,0,2
759,97,1,0,2
760,97,1,0,2
761,97,1,0,2
762,97,1,0,2
763,97,1,0,2
764,97,1,0,2
765,97,1,0,2
766,97,1,0,2
767,97,1,0,2
768,97,1,0,2
769,97,1,0,2
770,97,1,0,2
771,97,1,0,2
772,97,1,0,2
773,97,1,0,2
774,97,1,0,2
775,97,1,0,2
776,97,1,0,2
777,97,1,0,2
778,97,1,0,2
779,97,1,0,2
780,97,1,0,2
781,97,1,0,2
782,97,1,0,2
783,97,1,0,2
784,97,1,0,2
785,97,1,0,2
786,97,1,0,2
787,97,1,0,2
788,97,1,0,2
789,97,1,0,2
790,97,1,0,2
791,97,1,0,2
792,97,1,0,2
793,97,1,0,2
794,97,1,0,2
795,97,1,0,2
796,97,1,0,2
797,97,1,0,2
798,97,1,0,2
799,97,1,0,2
800,97,1,0,2
801,97,1,0,2
802,97,1,0,2
803,97,1,0,2
804,97,1,0,2
805,97,1,0,2
806,97,1,0,2
807,97,1,0,2
808,97,1,0,2
809,97,1,0,2
810,97,1,0,2
811,97,1,0,2
812,97,1,0,2
813,97,1,0,2
814,97,1,0,2
815,97,1,0,2
816,97,1,0,2
817,97,1,0,2
818,97,1,0,2
819,97,1,0,2
820,97,1,0,2
821,97,1,0,2
822,97,1,0,2
823,97,1,0,2
824,97,1,0,2
825,97,1,0,2
826,97,1,0,2
827,97,1,0,2
828,97,1,0,2
829,97,1,0,2
830,97,1,0,2
831,97,1,0,2
832,97,0,1,2
833,97,0,1,2
834,97,0,1,2
835,97,0,1,2
836,97,0,1,2
837,97,0,1,2
838,97,0,1,2
839,97,0,1,2
840,97,0,1,2
841,97,0,1,2
842,97,0,1,2
843,97,0,1,2
844,97,0,1,2
845,97,0,1,2
846,97,0,1,2
847,97,0,1,2
848,97,0,1,2
849,97,0,1,2
850,97,0,1,2
851,97,0,1,2
852,97,0,1,2
853,97,0,1,2
854,97,0,1,2
855,97,0,1,2
856,97,0,1,2
857,97,0,1,2
858,97,0,1,2
859,97,0,1,2
860,97,0,1,2
861,97,0,1,2
862,97,0,1,2
863,97,0,1,2
864,97,0,1,2
865,97,0,1,2
866,97,0,1,2
867,97,0,1,2
868,97,0,1,2
869,97,0,1,2
870,97,0,1,2
871,97,0,1,2
872,97,0,1,2
873,97,0,1,2
874,97,0,1,2
875,97,0,1,2
876,97,0,1,2
877,97,0,1,2
878,97,0,1,2
879,97,0,1,2
880,97,0,1,2
881,97,0,1,2
882,97,0,1,2
883,97,0,1,2
884,97,0,1,2
885,97,0,1,2
886,97,0,1,2
887,97,0,1,2
888,97,0,1,2
889,97,0,1,2
890,97,0,1,2
891,97,0,1,2
892,97,0,1,2
893,97,0,1,2
894,97,0,1,2
895,97,0,1,2
896,97,0,1,2
897,97,0,1,2
898,97,0,1,2
899,97,0,1,2
900,97,0,1,2
901,97,0,1,2
902,97,0,1,2
903,97,0,1,2
904,97,0,1,2
905,97,0,1,2
906,97,0,1,2
907,97,0,1,2
908,97,0,1,2
909,97,0,1,2
910,97,0,1,2
911,97,0,1,2
912,97,0,1,2
913,97,0,1,2
914,97,0,1,2
915,97,0,1,2
916,97,0,1,2
917,97,0,1,2
918,97,0,1,2
919,97,0,1,2
920,97,0,1,2
921,97,0,1,2
922,97,0,1,2
923,97,0,1,2
924,97,0,1,2
925,97,0,1,2
926,97,0,1,2
927,97,0,1,2
928,97,0,1,2
929,97,0,1,2
930,97,0,1,2
931,97,0,1,2
932,97,0,1,2
933,97,0,1,2
934,97,0,1,2
935,97,0,1,2
936,97,0,1,2
937,97,0,1,2
938,97,0,1,2
939,97,0,1,2
940,97,0,1,2
941,97,0,1,2
942,97,0,1,2
943,97,0,1,2
944,97,0,1,2
945,97,0,1,2
946,97,0,1,2
947,97,0,1,2
948,97,0,1,2
949,97,0,1,2
950,97,0,1,2
951,97,0,1,2
952,97,0,1,2
953,97,0,1,2
954,97,0,1,2
955,97,0,1,2
956,97,0,1,2
957,97,0,1,2
958,97,0,1,2
959,97,0,1,2
960,97,0,1,2
961,97,0,1,2
962,97,0,1,2
963,97,0,1,2
964,97,0,1,2
965,97,0,1,2
966,97,0,1,2
967,97,0,1,2
968,97,0,1,2
969,97,0,1,2
970,97,0,1,2
971,97,0,1,2
972,97,0,1,2
973,97,0,1,2
974,97,0,1,2
975,97,0,1,2
976,97,0,1,2
977,97,0,1,2
978,97,0,1,2
979,97,0,1,2
980,97,0,1,2
981,97,0,1,2
982,97,0,1,2
983,97,0,1,2
984,97,0,1,2
985,97,0,1,2
986,97,0,1,2
987,97,0,1,2
988,97,0,1,2
989,97,0,1,2
990,97,0,1,2
991,97,0,1,2
992,97,0,1,2
993,97,0,1,2
994,97,0,1,2
995,97,0,1,2
996,97,0,1,2
997,97,0,1,2
998,97,0,1,2
999,97,0,1,2
1000,97,0,1,2
1001,97,0,1,2
1002,97,0,1,2
1003,97,0,1,2
1004,97,0,1,2
1005,97,0,1,2
1006,97,0,1,2
1007,97,0,1,2
1008,97,0,1,2
1009,97,0,1,2
1010,97,0,1,2
1011,97,0,1,2
1012,97,0,1,2
1013,97,0,1,2
1014,97,0,1,2
1015,97,0,1,2
1016,97,0,1,2
1017,97,0,1,2
1018,97,0,1,2
1019,97,0,1,2
1020,97,0,1,2
1021,97,0,1,2
1022,97,0,1,2
1023,97,0,1,2
1024,97,0,1,2
1025,97,0,1,2
1026,97,0,1,2
1027,97,0,1,2
1028,97,0,1,2
1029,97,0,1,2
1030,97,0,1,2
1031,97,0,1,2
1032,97,0,1,2
1033,97,0,0,3
1034,97,0,0,3
1035,97,0,0,3
1036,97,0,0,3
1037,97,0,0,3
1038,97,0,0,3
1039,97,0,0,3
1040,97,0,0,3
1041,97,0,0,3
1042,97,0,0,3
1043,97,0,0,3
1044,97,0,0,3
1045,97,0,0,3
1046,97,0,0,3
1047,97,0,0,3
1048,97,0,0,3
1049,97,0,0,3
1050,97,0,0,3
1051,97,0,0,3
1052,97,0,0,3
1053,97,0,0,3
1054,97,0,0,3
1055,97,0,0,3
1056,97,0,0,3
1057,97,0,0,3
1058,97,0,0,3
1059,97,0,0,3
1060,97,0,0,3
1061,97,0,0,3
1062,97,0,0,3
1063,97,0,0,3
1064,97,0,0,3
1065,97,0,0,3
1066,97,0,0,3
1067,97,0,0,3
1068,97,0,0,3
1069,97,0,0,3
1070,97,0,0,3
1071,97,0,0,3
1072,97,0,0,3
1073,97,0,0,3
1074,97,0,0,3
1075,97,0,0,3
1076,97,0,0,3
1077,97,0,0,3
1078,97,0,0,3
1079,97,0,0,3
1080,97,0,0,3
1081,97,0,0,3
1082,97,0,0,3
1083,97,0,0,3
1084,97,0,0,3
1085,97,0,0,3
1086,97,0,0,3
1087,97,0,0,3
1088,97,0,0,3
1089,97,0,0,3
1090,97,0,0,3
1091,97,0,0,3
1092,97,0,0,3
1093,97,0,0,3
1094,97,0,0,3
1095,97,0,0,3
1096,97,0,0,3
1097,97,0,0,3
1098,97,0,0,3
1099,97,0,0,3
1100,97,0,0,3
1101,97,0,0,3
1102,97,0,0,3
1103,97,0,0,3
1104,97,0,0,3
1105,97,0,0,3
1106,97,0,0,3
1107,97,0,0,3
1108,97,0,0,3
1109,97,0,0,3
1110,97,0,0,3
1111,97,0,0,3
1112,97,0,0,3
1113,97,0,0,3
1114,97,0,0,3
1115,97,0,0,3
1116,97,0,0,3
1117,97,0,0,3
1118,97,0,0,3
1119,97,0,0,3
1120,97,0,0,3
1121,97,0,0,3
1122,97,0,0,3
1123,97,0,0,3
1124,97,0,0,3
1125,97,0,0,3
1126,97,0,0,3
1127,97,0,0,3
1128,97,0,0,3
1129,97,0,0,3
1130,97,0,0,3
1131,97,0,0,3
1132,97,0,0,3
1133,97,0,0,3
1134,97,0,0,3
1135,97,0,0,3
1136,97,0,0,3
1137,97,0,0,3
1138,97,0,0,3
1139,97,0,0,3
1140,97,0,0,3
1141,97,0,0,3
1142,97,0,0,3
1143,97,0,0,3
1144,97,0,0,3
1145,97,0,0,3
1146,97,0,0,3
1147,97,0,0,3
1148,97,0,0,3
1149,97,0,0,3
1150,97,0,0,3
1151,97,0,0,3
1152,97,0,0,3
1153,97,0,0,3
1154,97,0,0,3
1155,97,0,0,3
1156,97,0,0,3
1157,97,0,0,3
1158,97,0,0,3
1159,97,0,0,3
1160,97,0,0,3
1161,97,0,0,3
1162,97,0,0,3
1163,97,0,0,3
1164,97,0,0,3
1165,97,0,0,3
1166,97,0,0,3
1167,97,0,0,3
1168,97,0,0,3
1169,97,0,0,3
1170,97,0,0,3
1171,97,0,0,3
1172,97,0,0,3
1173,97,0,0,3
1174,97,0,0,3
1175,97,0,0,3
1176,97,0,0,3
1177,97,0,0,3
1178,97,0,0,3
1179,97,0,0,3
1180,97,0,0,3
1181,97,0,0,3
1182,97,0,0,3
1183,97,0,0,3
1184,97,0,0,3
1185,97,0,0,3
1186,97,0,0,3
1187,97,0,0,3
1188,97,0,0,3
1189,97,0,0,3
1190,97,0,0,3
1191,97,0,0,3
1192,97,0,0,3
1193,97,0,0,3
1194,97,0,0,3
1195,97,0,0,3
1196,97,0,0,3
1197,97,0,0,3
1198,97,0,0,3
1199,97,0,0,3
1200,97,0,0,3
1201,97,0,0,3
1202,97,0,0,3
1203,97,0,0,3
1204,97,0,0,3
1205,97,0,0,3
1206,97,0,0,3
1207,97,0,0,3
1208,97,0,0,3
1209,97,0,0,3
1210,97,0,0,3
1211,97,0,0,3
1212,97,0,0,3
1213,97,0,0,3
1214,97,0,0,3
1215,97,0,0,3
1216,97,0,0,3
1217,97,0,0,3
1218,97,0,0,3
1219,97,0,0,3
1220,97,0,0,3
1221,97,0,0,3
1222,97,0,0,3
1223,97,0,0,3
1224,97,0,0,3
1225,97,0,0,3
1226,97,0,0,3
1227,97,0,0,3
1228,97,0,0,3
1229,97,0,0,3
1230,97,0,0,3
1231,97,0,0,3
1232,97,0,0,3
1233,97,0,0,3
1234,97,0,0,3
1235,97,0,0,3
1236,97,0,0,3
1237,97,0,0,3
1238,97,0,0,3
1239,97,0,0,3
1240,97,0,0,3
1241,97,0,0,3
1242,97,0,0,3
1243,97,0,0,3
1244,97,0,0,3
1245,97,0,0,3
1246,97,0,0,3
1247,97,0,0,3
1248,97,0,0,3
1249,97,0,0,3
1250,97,0,0,3
1251,97,0,0,3
1252,97,0,0,3
1253,97,0,0,3
1254,97,0,0,3
1255,97,0,0,3
1256,97,0,0,3
1257,97,0,0,3
1258,97,0,0,3
1259,97,0,0,3
1260,97,0,0,3
1261,97,0,0,3
1262,97,0,0,3
1263,97,0,0,3
1264,97,0,0,3
1265,97,0,0,3
1266,97,0,0,3
1267,97,0,0,3
1268,97,0,0,3
1269,97,0,0,3
1270,97,0,0,3
1271,97,0,0,3
1272,97,0,0,3
1273,97,0,0,3
1274,97,0,0,3
1275,97,0,0,3
1276,97,0,0,3
1277,97,0,0,3
1278,97,0,0,3
1279,97,0,0,3
1280,97,0,0,3
1281,97,0,0,3
1282,97,0,0,3
1283,97,0,0,3
1284,97,0,0,3
1285,97,0,0,3
1286,97,0,0,3
1287,97,0,0,3
1288,97,0,0,3
1289,97,0,0,3
1290,97,0,0,3
1291,97,0,0,3
1292,97,0,0,3
1293,97,0,0,3
1294,97,0,0,3
1295,97,0,0,3
1296,97,0,0,3
1297,97,0,0,3
1298,97,0,0,3
1299,97,0,0,3
1300,97,0,0,3
1301,97,0,0,3
1302,97,0,0,3
1303,97,0,0,3
1304,97,0,0,3
1305,97,0,0,3
1306,97,0,0,3
1307,97,0,0,3
1308,97,0,0,3
1309,97,0,0,3
1310,97,0,0,3
1311,97,0,0,3
1312,97,0,0,3
1313,97,0,0,3
1314,97,0,0,3
1315,97,0,0,3
1316,97,0,0,3
1317,97,0,0,3
1318,97,0,0,3
1319,97,0,0,3
1320,97,0,0,3
1321,97,0,0,3
1322,97,0,0,3
1323,97,0,0,3
1324,97,0,0,3
1325,97,0,0,3
1326,97,0,0,3
1327,97,0,0,3
1328,97,0,0,3
1329,97,0,0,3
1330,97,0,0,3
1331,97,0,0,3
1332,97,0,0,3
1333,97,0,0,3
1334,97,0,0,3
1335,97,0,0,3
1336,97,0,0,3
1337,97,0,0,3
1338,97,0,0,3
1339,97,0,0,3
1340,97,0,0,3
1341,97,0,0,3
1342,97,0,0,3
1343,97,0,0,3
1344,97,0,0,3
1345,97,0,0,3
1346,97,0,0,3
1347,97,0,0,3
1348,97,0,0,3
1349,97,0,0,3
1350,97,0,0,3
1351,97,0,0,3
1352,97,0,0,3
1353,97,0,0,3
1354,97,0,0,3
1355,97,0,0,3
1356,97,0,0,3
1357,97,0,0,3
1358,97,0,0,3
1359,97,0,0,3
1360,97,0,0,3
1361,97,0,0,3
1362,97,0,0,3
1363,97,0,0,3
1364,97,0,0,3
1365,97,0,0,3
1366,97,0,0,3
1367,97,0,0,3
1368,97,0,0,3
1369,97,0,0,3
1370,97,0,0,3
1371,97,0,0,3
1372,97,0,0,3
1373,97,0,0,3
1374,97,0,0,3
1375,97,0,0,3
1376,97,0,0,3
1377,97,0,0,3
1378,97,0,0,3
1379,97,0,0,3
1380,97,0,0,3
1381,97,0,0,3
1382,97,0,0,3
1383,97,0,0,3
1384,97,0,0,3
1385,97,0,0,3
1386,97,0,0,3
1387,97,0,0,3
1388,97,0,0,3
1389,97,0,0,3
1390,97,0,0,3
1391,97,0,0,3
1392,97,0,0,3
1393,97,0,0,3
1394,97,0,0,3
1395,97,0,0,3
1396,97,0,0,3
1397,97,0,0,3
1398,97,0,0,3
1399,97,0,0,3
1400,97,0,0,3
1401,97,0,0,3
1402,97,0,0,3
1403,97,0,0,3
1404,97,0,0,3
1405,97,0,0,3
1406,97,0,0,3
1407,97,0,0,3
1408,97,0,0,3
1409,97,0,0,3
1410,97,0,0,3
1411,97,0,0,3
1412,97,0,0,3
1413,97,0,0,3
1414,97,0,0,3
1415,97,0,0,3
1416,97,0,0,3
1417,97,0,0,3
1418,97,0,0,3
1419,97,0,0,3
1420,97,0,0,3
1421,97,0,0,3
1422,97,0,0,3
1423,97,0,0,3
1424,97,0,0,3
1425,97,0,0,3
1426,97,0,0,3
1427,97,0,0,3
1428,97,0,0,3
1429,97,0,0,3
1430,97,0,0,3
1431,97,0,0,3
1432,97,0,0,3
1433,97,0,0,3
1434,97,0,0,3
1435,97,0,0,3
1436,97,0,0,3
1437,97,0,0,3
1438,97,0,0,3
1439,97,0,0,3
1440,97,0,0,3
1441,97,0,0,3
1442,97,0,0,3
1443,97,0,0,3
1444,97,0,0,3
1445,97,0,0,3
1446,97,0,0,3
1447,97,0,0,3
1448,97,0,0,3
1449,97,0,0,3
1450,97,0,0,3
1451,97,0,0,3
1452,97,0,0,3
1453,97,0,0,3
1454,97,0,0,3
1455,97,0,0,3
1456,97,0,0,3
1457,97,0,0,3
1458,97,0,0,3
1459,97,0,0,3
1460,97,0,0,3
1461,97,0,0,3
1462,97,0,0,3
1463,97,0,0,3
1464,97,0,0,3
1465,97,0,0,3
1466,97,0,0,3
1467,97,0,0,3
1468,97,0,0,3
1469,97,0,0,3
1470,97,0,0,3
1471,97,0,0,3
1472,97,0,0,3
1473,97,0,0,3
1474,97,0,0,3
1475,97,0,0,3
1476,97,0,0,3
1477,97,0,0,3
1478,97,0,0,3
1479,97,0,0,3
1480,97,0,0,3
1481,97,0,0,3
1482,97,0,0,3
1483,97,0,0,3
1484,97,0,0,3
1485,97,0,0,3
1486,97,0,0,3
1487,97,0,0,3
1488,97,0,0,3
1489,97,0,0,3
1490,97,0,0,3
1491,97,0,0,3
1492,97,0,0,3
1493,97,0,0,3
1494,97,0,0,3
1495,97,0,0,3
1496,97,0,0,3
1497,97,0,0,3
1498,97,0,0,3
1499,97,0,0,3
1500,97,0,0,3
1501,97,0,0,3
1502,97,0,0,3
1503,97,0,0,3
1504,97,0,0,3
1505,97,0,0,3
1506,97,0,0,3
1507,97,0,0,3
1508,97,0,0,3
1509,97,0,0,3
1510,97,0,0,3
1511,97,0,0,3
1512,97,0,0,3
1513,97,0,0,3
1514,97,0,0,3
1515,97,0,0,3
1516,97,0,0,3
1517,97,0,0,3
1518,97,0,0,3
1519,97,0,0,3
1520,97,0,0,3
1521,97,0,0,3
1522,97,0,0,3
1523,97,0,0,3
1524,97,0,0,3
1525,97,0,0,3
1526,97,0,0,3
1527,97,0,0,3
1528,97,0,0,3
1529,97,0,0,3
1530,97,0,0,3
1531,97,0,0,3
1532,97,0,0,3
1533,97,0,0,3
1534,97,0,0,3
1535,97,0,0,3
1536,97,0,0,3
1537,97,0,0,3
1538,97,0,0,3
1539,97,0,0,3
1540,97,0,0,3
1541,97,0,0,3
1542,97,0,0,3
1543,97,0,0,3
1544,97,0,0,3
1545,97,0,0,3
1546,97,0,0,3
1547,97,0,0,3
1548,97,0,0,3
1549,97,0,0,3
1550,97,0,0,3
1551,97,0,0,3
1552,97,0,0,3
1553,97,0,0,3
1554,97,0,0,3
1555,97,0,0,3
1556,97,0,0,3
1557,97,0,0,3
1558,97,0,0,3
1559,97,0,0,3
1560,97,0,0,3
1561,97,0,0,3
1562,97,0,0,3
1563,97,0,0,3
1564,97,0,0,3
1565,97,0,0,3
1566,97,0,0,3
1567,97,0,0,3
1568,97,0,0,3
1569,97,0,0,3
1570,97,0,0,3
1571,97,0,0,3
1572,97,0,0,3
1573,97,0,0,3
1574,97,0,0,3
1575,97,0,0,3
1576,97,0,0,3
1577,97,0,0,3
1578,97,0,0,3
1579,97,0,0,3
1580,97,0,0,3
1581,97,0,0,3
1582,97,0,0,3
1583,97,0,0,3
1584,97,0,0,3
1585,97,0,0,3
1586,97,0,0,3
1587,97,0,0,3
1588,97,0,0,3
1589,97,0,0,3
1590,97,0,0,3
1591,97,0,0,3
1592,97,0,0,3
1593,97,0,0,3
1594,97,0,0,3
1595,97,0,0,3
1596,97,0,0,3
1597,97,0,0,3
1598,97,0,0,3
1599,97,0,0,3
1600,97,0,0,3
1601,97,0,0,3
1602,97,0,0,3
1603,97,0,0,3
1604,97,0,0,3
1605,97,0,0,3
1606,97,0,0,3
1607,97,0,0,3
1608,97,0,0,3
1609,97,0,0,3
1610,97,0,0,3
1611,97,0,0,3
1612,97,0,0,3
1613,97,0,0,3
1614,97,0,0,3
1615,97,0,0,3
1616,97,0,0,3
1617,97,0,0,3
1618,97,0,0,3
1619,97,0,0,3
1620,97,0,0,3
1621,97,0,0,3
1622,97,0,0,3
1623,97,0,0,3
1624,97,0,0,3
1625,97,0,0,3
1626,97,0,0,3
1627,97,0,0,3
1628,97,0,0,3
1629,97,0,0,3
1630,97,0,0,3
1631,97,0,0,3
1632,97,0,0,3
1633,97,0,0,3
1634,97,0,0,3
1635,97,0,0,3
1636,97,0,0,3
1637,97,0,0,3
1638,97,0,0,3
1639,97,0,0,3
1640,97,0,0,3
1641,97,0,0,3
1642,97,0,0,3
1643,97,0,0,3
1644,97,0,0,3
1645,97,0,0,3
1646,97,0,0,3
1647,97,0,0,3
1648,97,0,0,3
1649,97,0,0,3
1650,97,0,0,3
1651,97,0,0,3
1652,97,0,0,3
1653,97,0,0,3
1654,97,0,0,3
1655,97,0,0,3
1656,97,0,0,3
1657,97,0,0,3
1658,97,0,0,3
1659,97,0,0,3
1660,97,0,0,3
1661,97,0,0,3
1662,97,0,0,3
1663,97,0,0,3
1664,97,0,0,3
1665,97,0,0,3
1666,97,0,0,3
1667,97,0,0,3
1668,97,0,0,3
1669,97,0,0,3
1670,97,0,0,3
1671,97,0,0,3
1672,97,0,0,3
1673,97,0,0,3
1674,97,0,0,3
1675,97,0,0,3
1676,97,0,0,3
1677,97,0,0,3
1678,97,0,0,3
1679,97,0,0,3
1680,97,0,0,3
1681,97,0,0,3
1682,97,0,0,3
1683,97,0,0,3
1684,97,0,0,3
1685,97,0,0,3
1686,97,0,0,3
1687,97,0,0,3
1688,97,0,0,3
1689,97,0,0,3
1690,97,0,0,3
1691,97,0,0,3
1692,97,0,0,3
1693,97,0,0,3
1694,97,0,0,3
1695,97,0,0,3
1696,97,0,0,3
1697,97,0,0,3
1698,97,0,0,3
1699,97,0,0,3
1700,97,0,0,3
1701,97,0,0,3
1702,97,0,0,3
1703,97,0,0,3
1704,97,0,0,3
1705,97,0,0,3
1706,97,0,0,3
1707,97,0,0,3
1708,97,0,0,3
1709,97,0,0,3
1710,97,0,0,3
1711,97,0,0,3
1712,97,0,0,3
1713,97,0,0,3
1714,97,0,0,3
1715,97,0,0,3
1716,97,0,0,3
1717,97,0,0,3
1718,97,0,0,3
1719,97,0,0,3
1720,97,0,0,3
1721,97,0,0,3
1722,97,0,0,3
1723,97,0,0,3
1724,97,0,0,3
1725,97,0,0,3
1726,97,0,0,3
1727,97,0,0,3
1728,97,0,0,3
1729,97,0,0,3
1730,97,0,0,3
1731,97,0,0,3
1732,97,0,0,3
1733,97,0,0,3
1734,97,0,0,3
1735,97,0,0,3
1736,97,0,0,3
1737,97,0,0,3
1738,97,0,0,3
1739,97,0,0,3
1740,97,0,0,3
1741,97,0,0,3
1742,97,0,0,3
1743,97,0,0,3
1744,97,0,0,3
1745,97,0,0,3
1746,97,0,0,3
1747,97,0,0,3
1748,97,0,0,3
1749,97,0,0,3
1750,97,0,0,3
1751,97,0,0,3
1752,97,0,0,3
1753,97,0,0,3
1754,97,0,0,3
1755,97,0,0,3
1756,97,0,0,3
1757,97,0,0,3
1758,97,0,0,3
1759,97,0,0,3
1760,97,0,0,3
1761,97,0,0,3
1762,97,0,0,3
1763,97,0,0,3
1764,97,0,0,3
1765,97,0,0,3
1766,97,0,0,3
1767,97,0,0,3
1768,97,0,0,3
1769,97,0,0,3
1770,97,0,0,3
1771,97,0,0,3
1772,97,0,0,3
1773,97,0,0,3
1774,97,0,0,3
1775,97,0,0,3
1776,97,0,0,3
1777,97,0,0,3
1778,97,0,0,3
1779,97,0,0,3
1780,97,0,0,3
1781,97,0,0,3
1782,97,0,0,3
1783,97,0,0,3
1784,97,0,0,3
1785,97,0,0,3
1786,97,0,0,3
1787,97,0,0,3
1788,97,0,0,3
1789,97,0,0,3
1790,97,0,0,3
1791,97,0,0,3
1792,97,0,0,3
1793,97,0,0,3
1794,97,0,0,3
1795,97,0,0,3
1796,97,0,0,3
1797,97,0,0,3
1798,97,0,0,3
1799,97,0,0,3
1800,97,0,0,3
1801,97,0,0,3
1802,97,0,0,3
1803,97,0,0,3
1804,97,0,0,3
1805,97,0,0,3
1806,97,0,0,3
1807,97,0,0,3
1808,97,0,0,3
1809,97,0,0,3
1810,97,0,0,3
1811,97,0,0,3
1812,97,0,0,3
1813,97,0,0,3
1814,97,0,0,3
1815,97,0,0,3
1816,97,0,0,3
1817,97,0,0,3
1818,97,0,0,3
1819,97,0,0,3
1820,97,0,0,3
1821,97,0,0,3
1822,97,0,0,3
1823,97,0,0,3
1824,97,0,0,3
1825,97,0,0,3
1826,97,0,0,3
1827,97,0,0,3
1828,97,0,0,3
1829,97,0,0,3
1830,97,0,0,3
1831,97,0,0,3
1832,97,0,0,3
1833,97,0,0,3
1834,97,0,0,3
1835,97,0,0,3
1836,97,0,0,3
1837,97,0,0,3
1838,97,0,0,3
1839,97,0,0,3
1840,97,0,0,3
1841,97,0,0,3
1842,97,0,0,3
1843,97,0,0,3
1844,97,0,0,3
1845,97,0,0,3
1846,97,0,0,3
1847,97,0,0,3
1848,97,0,0,3
1849,97,0,0,3
1850,97,0,0,3
1851,97,0,0,3
1852,97,0,0,3
1853,97,0,0,3
1854,97,0,0,3
1855,97,0,0,3
1856,97,0,0,3
1857,97,0,0,3
1858,97,0,0,3
1859,97,0,0,3
1860,97,0,0,3
1861,97,0,0,3
1862,97,0,0,3
1863,97,0,0,3
1864,97,0,0,3
1865,97,0,0,3
1866,97,0,0,3
1867,97,0,0,3
1868,97,0,0,3
1869,97,0,0,3
1870,97,0,0,3
1871,97,0,0,3
1872,97,0,0,3
1873,97,0,0,3
1874,97,0,0,3
1875,97,0,0,3
1876,97,0,0,3
1877,97,0,0,3
1878,97,0,0,3
1879,97,0,0,3
1880,97,0,0,3
1881,97,0,0,3
1882,97,0,0,3
1883,97,0,0,3
1884,97,0,0,3
1885,97,0,0,3
1886,97,0,0,3
1887,97,0,0,3
1888,97,0,0,3
1889,97,0,0,3
1890,97,0,0,3
1891,97,0,0,3
1892,97,0,0,3
1893,97,0,0,3
1894,97,0,0,3
1895,97,0,0,3
1896,97,0,0,3
1897,97,0,0,3
1898,97,0,0,3
1899,97,0,0,3
1900,97,0,0,3
1901,97,0,0,3
1902,97,0,0,3
1903,97,0,0,3
1904,97,0,0,3
1905,97,0,0,3
1906,97,0,0,3
1907,97,0,0,3
1908,97,0,0,3
1909,97,0,0,3
1910,97,0,0,3
1911,97,0,0,3
1912,97,0,0,3
1913,97,0,0,3
1914,97,0,0,3
1915,97,0,0,3
1916,97,0,0,3
1917,97,0,0,3
1918,97,0,0,3
1919,97,0,0,3
1920,97,0,0,3
1921,97,0,0,3
1922,97,0,0,3
1923,97,0,0,3
1924,97,0,0,3
1925,97,0,0,3
1926,97,0,0,3
1927,97,0,0,3
1928,97,0,0,3
1929,97,0,0,3
1930,97,0,0,3
1931,97,0,0,3
1932,97,0,0,3
1933,97,0,0,3
1934,97,0,0,3
1935,97,0,0,3
1936,97,0,0,3
1937,97,0,0,3
1938,97,0,0,3
1939,97,0,0,3
1940,97,0,0,3
1941,97,0,0,3
1942,97,0,0,3
1943,97,0,0,3
1944,97,0,0,3
1945,97,0,0,3
1946,97,0,0,3
1947,97,0,0,3
1948,97,0,0,3
1949,97,0,0,3
1950,97,0,0,3
1951,97,0,0,3
1952,97,0,0,3
1953,97,0,0,3
1954,97,0,0,3
1955,97,0,0,3
1956,97,0,0,3
1957,97,0,0,3
1958,97,0,0,3
1959,97,0,0,3
1960,97,0,0,3
1961,97,0,0,3
1962,97,0,0,3
1963,97,0,0,3
1964,97,0,0,3
1965,97,0,0,3
1966,97,0,0,3
1967,97,0,0,3
1968,97,0,0,3
1969,97,0,0,3
1970,97,0,0,3
1971,97,0,0,3
1972,97,0,0,3
1973,97,0,0,3
1974,97,0,0,3
1975,97,0,0,3
1976,97,0,0,3
1977,97,0,0,3
1978,97,0,0,3
1979,97,0,0,3
1980,97,0,0,3
1981,97,0,0,3
1982,97,0,0,3
1983,97,0,0,3
1984,97,0,0,3
1985,97,0,0,3
1986,97,0,0,3
1987,97,0,0,3
1988,97,0,0,3
1989,97,0,0,3
1990,97,0,0,3
1991,97,0,0,3
1992,97,0,0,3
1993,97,0,0,3
1994,97,0,0,3
1995,97,0,0,3
1996,97,0,0,3
1997,97,0,0,3
1998,97,0,0,3
1999,97,0,0,3
2000,97,0,0,3
