"tick","total"
0,0
1,0
2,2
3,2
4,2
5,2
6,3
7,3
8,3
9,4
10,4
11,4
12,4
13,4
14,6
15,6
16,6
17,6
18,6
19,6
20,7
21,7
22,7
23,7
24,7
25,7
26,8
27,8
28,8
29,8
30,8
31,8
32,8
33,8
34,8
35,8
36,8
37,8
38,8
39,8
40,8
41,8
42,8
43,8
44,8
45,8
46,8
47,8
48,8
49,8
50,8
51,8
52,8
53,8
54,8
55,9
56,9
57,9
58,9
59,9
60,9
61,9
62,9
63,10
64,10
65,10
66,10
67,10
68,10
69,10
70,10
71,10
72,11
73,12
74,12
75,12
76,12
77,12
78,12
79,12
80,12
81,12
82,12
83,12
84,13
85,13
86,14
87,14
88,14
89,14
90,14
91,14
92,14
93,14
94,14
95,15
96,15
97,15
98,15
99,15
100,15
101,15
102,15
103,15
104,15
105,15
106,15
107,15
108,15
109,15
110,15
111,15
112,16
113,16
114,16
115,16
116,16
117,17
118,17
119,17
120,17
121,17
122,18
123,18
124,18
125,18
126,18
127,18
128,19
129,19
130,19
131,19
132,19
133,19
134,19
135,20
136,20
137,20
138,20
139,20
140,20
141,21
142,21
143,22
144,22
145,22
146,22
147,22
148,23
149,23
150,23
151,23
152,23
153,23
154,24
155,24
156,24
157,24
158,24
159,24
160,24
161,25
162,25
163,25
164,25
165,25
166,25
167,25
168,25
169,25
170,26
171,27
172,27
173,27
174,28
175,28
176,28
177,28
178,28
179,28
180,28
181,28
182,28
183,28
184,28
185,28
186,28
187,28
188,29
189,29
190,29
191,29
192,29
193,29
194,30
195,31
196,31
197,31
198,31
199,31
200,32
201,32
202,32
203,32
204,32
205,32
206,32
207,33
208,33
209,33
210,33
211,33
212,33
213,34
214,34
215,34
216,34
217,35
218,35
219,35
220,36
221,36
222,36
223,36
224,36
225,36
226,36
227,36
228,36
229,36
230,36
231,36
232,36
233,36
234,36
235,36
236,36
237,36
238,36
239,36
240,36
241,36
242,36
243,37
244,37
245,37
246,37
247,38
248,38
249,38
250,39
251,39
252,39
253,39
254,40
255,40
256,40
257,40
258,40
259,40
260,40
261,40
262,41
263,41
264,41
265,41
266,41
267,42
268,42
269,42
270,42
271,42
272,43
273,43
274,43
275,43
276,43
277,43
278,43
279,43
280,43
281,44
282,44
283,44
284,44
285,44
286,44
287,44
288,44
289,44
290,44
291,44
292,44
293,44
294,44
295,45
296,46
297,46
298,46
299,46
300,46
301,46
302,46
303,46
304,46
305,46
306,46
307,46
308,46
309,46
310,46
311,46
312,46
313,46
314,46
315,46
316,46
317,46
318,46
319,46
320,46
321,46
322,46
323,46
324,46
325,46
326,46
327,47
328,47
329,47
330,47
331,47
332,47
333,48
334,48
335,48
336,48
337,48
338,48
339,48
340,48
341,48
342,48
343,48
344,48
345,48
346,49
347,49
348,49
349,49
350,49
351,49
352,49
353,49
354,49
355,49
356,49
357,49
358,49
359,49
360,49
361,49
362,49
363,49
364,49
365,49
366,49
367,49
368,49
369,49
370,49
371,49
372,49
373,49
374,50
375,50
376,50
377,50
378,50
379,50
380,50
381,50
382,52
383,52
384,52
385,52
386,52
387,52
388,52
389,52
390,53
391,53
392,53
393,53
394,53
395,53
396,54
397,54
398,54
399,54
400,54
401,54
402,54
403,55
404,55
405,55
406,55
407,55
408,55
409,55
410,55
411,55
412,55
413,56
414,56
415,56
416,56
417,56
418,56
419,56
420,56
421,56
422,56
423,57
424,57
425,57
426,57
427,57
428,57
429,57
430,57
431,57
432,58
433,58
434,58
435,58
436,58
437,58
438,58
439,58
440,58
441,58
442,58
443,58
444,58
445,58
446,58
447,58
448,58
449,59
450,59
451,59
452,59
453,59
454,59
455,59
456,59
457,59
458,59
459,59
460,59
461,59
462,59
463,59
464,59
465,59
466,59
467,59
468,59
469,59
470,60
471,60
472,60
473,60
474,60
475,60
476,60
477,60
478,60
479,60
480,61
481,61
482,61
483,61
484,61
485,61
486,61
487,61
488,61
489,61
490,61
491,61
492,61
493,61
494,61
495,61
496,62
497,62
498,62
499,62
500,62
501,62
502,62
503,62
504,62
505,62
506,62
507,62
508,62
509,63
510,63
511,63
512,63
513,63
514,63
515,63
516,64
517,64
518,64
519,64
520,64
521,64
522,64
523,64
524,64
525,64
526,64
527,64
528,64
529,64
530,64
531,64
532,65
533,65
534,65
535,65
536,65
537,65
538,65
539,65
540,65
541,65
542,65
543,65
544,65
545,65
546,65
547,65
548,65
549,65
550,65
551,65
552,65
553,65
554,65
555,66
556,66
557,67
558,67
559,67
560,67
561,68
562,68
563,68
564,69
565,69
566,69
567,69
568,69
569,69
570,69
571,69
572,69
573,69
574,69
575,69
576,69
577,70
578,70
579,70
580,70
581,70
582,70
583,70
584,70
585,70
586,70
587,70
588,70
589,70
590,70
591,70
592,70
593,70
594,70
595,70
596,70
597,70
598,70
599,71
600,71
601,71
602,71
603,71
604,71
605,71
606,71
607,71
608,71
609,71
610,71
611,71
612,71
613,71
614,71
615,71
616,71
617,71
618,72
619,72
620,72
621,72
622,72
623,72
624,72
625,73
626,73
627,73
628,73
629,73
630,73
631,73
632,73
633,74
634,74
635,74
636,74
637,74
638,74
639,74
640,74
641,74
642,74
643,74
644,74
645,74
646,74
647,74
648,74
649,74
650,75
651,75
652,75
653,75
654,75
655,75
656,75
657,75
658,75
659,75
660,75
661,75
662,75
663,75
664,75
665,76
666,76
667,76
668,76
669,76
670,76
671,76
672,76
673,76
674,76
675,76
676,76
677,76
678,76
679,76
680,76
681,76
682,76
683,76
684,76
685,76
686,76
687,76
688,77
689,77
690,77
691,77
692,77
693,77
694,77
695,77
696,77
697,77
698,77
699,77
700,77
701,77
702,77
703,77
704,77
705,77
706,77
707,77
708,77
709,77
710,77
711,77
712,77
713,77
714,77
715,77
716,77
717,77
718,77
719,77
720,77
721,77
722,77
723,77
724,77
725,77
726,77
727,78
728,78
729,78
730,78
731,79
732,79
733,79
734,79
735,79
736,79
737,79
738,79
739,79
740,79
741,79
742,79
743,79
744,79
745,80
746,81
747,81
748,81
749,81
750,81
751,81
752,81
753,82
754,82
755,82
756,82
757,82
758,82
759,82
760,82
761,82
762,82
763,82
764,82
765,82
766,83
767,83
768,83
769,83
770,83
771,83
772,83
773,84
774,84
775,84
776,84
777,84
778,84
779,85
780,85
781,85
782,85
783,85
784,85
785,85
786,85
787,85
788,86
789,86
790,86
791,86
792,86
793,86
794,86
795,86
796,86
797,86
798,86
799,86
800,86
801,86
802,86
803,86
804,87
805,87
806,87
807,87
808,87
809,87
810,87
811,87
812,87
813,87
814,87
815,87
816,87
817,88
818,88
819,88
820,88
821,88
822,88
823,88
824,88
825,88
826,88
827,88
828,88
829,88
830,88
831,88
832,88
833,88
834,88
835,88
836,88
837,88
838,89
839,89
840,89
841,89
842,89
843,89
844,90
845,90
846,90
847,90
848,90
849,90
850,90
851,90
852,90
853,90
854,90
855,90
856,91
857,91
858,91
859,92
860,92
861,92
862,92
863,92
864,92
865,93
866,93
867,93
868,93
869,93
870,93
871,94
872,94
873,94
874,94
875,94
876,94
877,94
878,95
879,95
880,95
881,95
882,96
883,96
884,96
885,96
886,96
887,96
888,96
889,96
890,96
891,96
892,96
893,96
894,96
895,96
896,96
897,96
898,96
899,96
900,96
901,96
902,96
903,96
904,96
905,96
906,96
907,96
908,96
909,96
910,96
911,96
912,96
913,96
914,96
915,96
916,96
917,96
918,96
919,96
920,96
921,96
922,96
923,97
924,97
925,97
926,97
927,97
928,97
929,97
930,97
931,97
932,97
933,97
934,97
935,97
936,97
937,97
938,97
939,97
940,97
941,97
942,97
943,97
944,97
945,97
946,97
947,97
948,97
949,97
950,97
951,97
952,97
953,97
954,97
955,97
956,97
957,97
958,98
959,98
960,98
961,98
962,98
963,98
964,98
965,98
966,98
967,99
968,99
969,99
970,99
971,99
972,99
973,99
974,99
975,99
976,99
977,99
978,99
979,99
980,99
981,99
982,99
983,99
984,100
985,100
986,100
987,100
988,100
989,100
990,100
991,100
992,100
993,100
994,100
995,100
996,100
997,100
998,100
999,100
1000,100
1001,100
1002,100
1003,100
1004,100
1005,100
1006,100
1007,100
1008,100
1009,100
1010,100
1011,100
1012,100
1013,100
1014,100
1015,100
1016,100
1017,100
1018,100
1019,100
1020,100
1021,100
1022,101
1023,101
1024,101
1025,101
1026,101
1027,101
1028,101
1029,101
1030,101
1031,101
1032,101
1033,101
1034,101
1035,101
1036,101
1037,101
1038,101
1039,102
1040,102
1041,102
1042,102
1043,102
1044,102
1045,102
1046,102
1047,102
1048,102
1049,102
1050,102
1051,102
1052,102
1053,102
1054,102
1055,103
1056,103
1057,103
1058,103
1059,103
1060,103
1061,103
1062,103
1063,103
1064,103
1065,103
1066,103
1067,103
1068,104
1069,105
1070,105
1071,105
1072,105
1073,105
1074,106
1075,106
1076,106
1077,106
1078,106
1079,106
1080,106
1081,106
1082,106
1083,106
1084,106
1085,106
1086,106
1087,106
1088,106
1089,106
1090,107
1091,107
1092,107
1093,107
1094,107
1095,107
1096,107
1097,107
1098,107
1099,108
1100,108
1101,108
1102,108
1103,108
1104,108
1105,108
1106,108
1107,108
1108,108
1109,108
1110,108
1111,108
1112,108
1113,108
1114,108
1115,108
1116,108
1117,108
1118,108
1119,108
1120,108
1121,108
1122,108
1123,108
1124,108
1125,108
1126,108
1127,108
1128,108
1129,108
1130,108
1131,108
1132,108
1133,108
1134,108
1135,108
1136,108
1137,108
1138,108
1139,108
1140,108
1141,108
1142,108
1143,108
1144,108
1145,108
1146,108
1147,108
1148,108
1149,108
1150,108
1151,108
1152,108
1153,108
1154,108
1155,108
1156,108
1157,108
1158,108
1159,108
1160,108
1161,108
1162,108
1163,108
1164,108
1165,108
1166,108
1167,108
1168,109
1169,109
1170,109
1171,109
1172,110
1173,110
1174,110
1175,110
1176,110
1177,110
1178,110
1179,111
1180,111
1181,111
1182,111
1183,111
1184,111
1185,111
1186,111
1187,111
1188,111
1189,111
1190,111
1191,111
1192,111
1193,111
1194,111
1195,111
1196,112
1197,112
1198,112
1199,112
1200,112
1201,112
1202,112
1203,112
1204,112
1205,113
1206,113
1207,113
1208,113
1209,113
1210,113
1211,113
1212,113
1213,113
1214,113
1215,113
1216,114
1217,114
1218,114
1219,114
1220,114
1221,114
1222,114
1223,114
1224,114
1225,114
1226,114
1227,114
1228,114
1229,114
1230,114
1231,114
1232,114
1233,115
1234,115
1235,115
1236,115
1237,115
1238,115
1239,115
1240,115
1241,115
1242,116
1243,116
1244,116
1245,116
1246,116
1247,116
1248,116
1249,116
1250,116
1251,116
1252,116
1253,116
1254,116
1255,116
1256,116
1257,116
1258,116
1259,116
1260,117
1261,117
1262,118
1263,118
1264,118
1265,118
1266,118
1267,118
1268,118
1269,118
1270,118
1271,118
1272,118
1273,118
1274,118
1275,118
1276,119
1277,119
1278,119
1279,119
1280,119
1281,119
1282,119
1283,119
1284,119
1285,119
1286,119
1287,119
1288,119
1289,119
1290,119
1291,119
1292,119
1293,119
1294,119
1295,119
1296,119
1297,119
1298,119
1299,119
1300,119
1301,119
1302,119
1303,119
1304,119
1305,119
1306,119
1307,119
1308,119
1309,119
1310,119
1311,120
1312,120
1313,120
1314,120
1315,120
1316,120
1317,120
1318,120
1319,120
1320,120
1321,120
1322,120
1323,120
1324,120
1325,120
1326,120
1327,120
1328,120
1329,120
1330,120
1331,120
1332,121
1333,121
1334,121
1335,121
1336,121
1337,122
1338,122
1339,122
1340,122
1341,122
1342,122
1343,123
1344,123
1345,123
1346,123
1347,123
1348,123
1349,123
1350,123
1351,123
1352,123
1353,123
1354,123
1355,123
1356,123
1357,123
1358,123
1359,123
1360,124
1361,124
1362,124
1363,124
1364,124
1365,124
1366,124
1367,124
1368,124
1369,124
1370,124
1371,124
1372,125
1373,125
1374,125
1375,125
1376,125
1377,125
1378,125
1379,125
1380,125
1381,125
1382,125
1383,125
1384,126
1385,126
1386,126
1387,126
1388,126
1389,126
1390,127
1391,127
1392,127
1393,127
1394,127
1395,127
1396,127
1397,127
1398,127
1399,127
1400,127
1401,127
1402,127
1403,127
1404,127
1405,127
1406,127
1407,127
1408,127
1409,127
1410,127
1411,127
1412,127
1413,127
1414,127
1415,127
1416,127
1417,127
1418,127
1419,127
1420,127
1421,127
1422,127
1423,128
1424,128
1425,128
1426,128
1427,128
1428,128
1429,128
1430,128
1431,128
1432,128
1433,128
1434,128
1435,128
1436,128
1437,128
1438,128
1439,128
1440,128
1441,128
1442,128
1443,128
1444,128
1445,129
1446,129
1447,129
1448,129
1449,129
1450,129
1451,129
1452,129
1453,129
1454,129
1455,130
1456,130
1457,130
1458,130
1459,130
1460,130
1461,130
1462,130
1463,131
1464,131
1465,131
1466,131
1467,131
1468,131
1469,131
1470,131
1471,132
1472,132
1473,132
1474,132
1475,132
1476,132
1477,132
1478,133
1479,133
1480,133
1481,133
1482,133
1483,133
1484,134
1485,134
1486,134
1487,134
1488,134
1489,134
1490,134
1491,134
1492,134
1493,134
1494,134
1495,135
1496,135
1497,135
1498,135
1499,135
1500,135
1501,135
1502,135
1503,135
1504,135
1505,136
1506,136
1507,137
1508,139
1509,139
1510,139
1511,139
1512,139
1513,140
1514,140
1515,140
1516,140
1517,140
1518,140
1519,140
1520,140
1521,140
1522,140
1523,140
1524,140
1525,140
1526,140
1527,140
1528,141
1529,141
1530,141
1531,141
1532,141
1533,141
1534,141
1535,141
1536,141
1537,141
1538,141
1539,141
1540,141
1541,141
1542,142
1543,142
1544,142
1545,142
1546,142
1547,142
1548,142
1549,143
1550,143
1551,143
1552,143
1553,143
1554,143
1555,143
1556,143
1557,143
1558,143
1559,143
1560,143
1561,143
1562,143
1563,144
1564,144
1565,144
1566,144
1567,144
1568,144
1569,144
1570,146
1571,146
1572,146
1573,146
1574,146
1575,146
1576,146
1577,146
1578,146
1579,146
1580,146
1581,146
1582,146
1583,146
1584,146
1585,146
1586,146
1587,146
1588,146
1589,146
1590,146
1591,146
1592,146
1593,146
1594,146
1595,146
1596,146
1597,147
1598,147
1599,148
1600,148
1601,148
1602,148
1603,148
1604,149
1605,150
1606,150
1607,151
1608,151
1609,151
1610,152
1611,152
1612,152
1613,152
1614,152
1615,152
1616,153
1617,153
1618,153
1619,153
1620,153
1621,153
1622,153
1623,153
1624,153
1625,153
1626,153
1627,153
1628,153
1629,153
1630,153
1631,153
1632,153
1633,153
1634,153
1635,153
1636,153
1637,153
1638,153
1639,153
1640,153
1641,153
1642,153
1643,153
1644,153
1645,153
1646,153
1647,153
1648,153
1649,153
1650,153
1651,153
1652,153
1653,153
1654,153
1655,153
1656,153
1657,153
1658,153
1659,153
1660,153
1661,153
1662,153
1663,153
1664,153
1665,153
1666,153
1667,153
1668,153
1669,153
1670,153
1671,153
1672,153
1673,153
1674,153
1675,153
1676,153
1677,153
1678,153
1679,153
1680,153
1681,153
1682,153
1683,153
1684,153
1685,153
1686,153
1687,153
1688,154
1689,154
1690,154
1691,154
1692,154
1693,155
1694,155
1695,155
1696,155
1697,155
1698,155
1699,156
1700,156
1701,156
1702,156
1703,156
1704,156
1705,156
1706,156
1707,156
1708,156
1709,156
1710,156
1711,156
1712,156
1713,156
1714,156
1715,156
1716,156
1717,156
1718,156
1719,156
1720,156
1721,156
1722,156
1723,156
1724,156
1725,156
1726,156
1727,156
1728,156
1729,156
1730,156
1731,157
1732,157
1733,157
1734,157
1735,157
1736,158
1737,158
1738,158
1739,158
1740,158
1741,158
1742,159
1743,159
1744,159
1745,159
1746,159
1747,159
1748,159
1749,159
1750,159
1751,159
1752,159
1753,159
1754,159
1755,159
1756,159
1757,159
1758,159
1759,159
1760,159
1761,159
1762,159
1763,159
1764,159
1765,159
1766,159
1767,159
1768,159
1769,159
1770,159
1771,159
1772,159
1773,159
1774,159
1775,159
1776,159
1777,159
1778,159
1779,159
1780,159
1781,159
1782,159
1783,159
1784,159
1785,159
1786,159
1787,159
1788,159
1789,160
1790,161
1791,162
1792,163
1793,164
1794,164
1795,164
1796,164
1797,164
1798,164
1799,164
1800,164
1801,164
1802,164
1803,164
1804,164
1805,164
1806,164
1807,164
1808,164
1809,164
1810,164
1811,164
1812,164
1813,164
1814,165
1815,166
1816,167
1817,167
1818,167
1819,167
1820,167
1821,167
1822,167
1823,167
1824,167
1825,167
1826,167
1827,167
1828,167
1829,167
1830,167
1831,167
1832,167
1833,167
1834,167
1835,167
1836,167
1837,167
1838,167
1839,167
1840,167
1841,167
1842,167
1843,167
1844,167
1845,167
1846,167
1847,167
1848,167
1849,167
1850,167
1851,167
1852,168
1853,168
1854,168
1855,168
1856,168
1857,168
1858,168
1859,168
1860,168
1861,168
1862,168
1863,168
1864,168
1865,168
1866,168
1867,168
1868,168
1869,168
1870,168
1871,168
1872,168
1873,168
1874,168
1875,168
1876,168
1877,168
1878,168
1879,169
1880,169
1881,169
1882,169
1883,169
1884,169
1885,169
1886,169
1887,169
1888,170
1889,170
1890,170
1891,170
1892,170
1893,170
1894,170
1895,170
1896,170
1897,170
1898,170
1899,170
1900,170
1901,170
1902,170
1903,170
1904,170
1905,170
1906,170
1907,170
1908,170
1909,170
1910,170
1911,170
1912,170
1913,170
1914,170
1915,170
1916,170
1917,170
1918,170
1919,170
1920,170
1921,170
1922,170
1923,170
1924,170
1925,170
1926,170
1927,170
1928,170
1929,170
1930,170
1931,170
1932,170
1933,170
1934,170
1935,170
1936,170
1937,170
1938,170
1939,170
1940,170
1941,170
1942,170
1943,170
1944,170
1945,170
1946,170
1947,170
1948,170
1949,170
1950,170
1951,170
1952,171
1953,171
1954,171
1955,171
1956,171
1957,171
1958,171
1959,171
1960,171
1961,171
1962,171
1963,171
1964,171
1965,171
1966,171
1967,171
1968,171
1969,171
1970,171
1971,171
1972,171
1973,171
1974,171
1975,171
1976,171
1977,171
1978,171
1979,171
1980,171
1981,171
1982,171
1983,171
1984,171
1985,171
1986,171
1987,171
1988,171
1989,171
1990,171
1991,171
1992,171
1993,171
1994,171
1995,171
1996,171
1997,171
1998,171
1999,171
2000,171
