"tick","total"
0,0
1,0
2,0
3,0
4,0
5,0
6,0
7,0
8,0
9,0
10,0
11,0
12,0
13,0
14,0
15,0
16,0
17,0
18,0
19,0
20,0
21,0
22,0
23,0
24,0
25,0
26,0
27,0
28,0
29,0
30,0
31,0
32,0
33,0
34,0
35,0
36,0
37,0
38,0
39,0
40,0
41,0
42,0
43,0
44,0
45,0
46,0
47,0
48,0
49,0
50,0
51,0
52,0
53,0
54,0
55,0
56,0
57,0
58,0
59,0
60,0
61,0
62,0
63,0
64,0
65,0
66,0
67,0
68,0
69,0
70,0
71,0
72,0
73,0
74,0
75,0
76,0
77,0
78,0
79,0
80,0
81,0
82,0
83,0
84,0
85,0
86,0
87,0
88,0
89,0
90,0
91,0
92,0
93,0
94,0
95,0
96,0
97,0
98,0
99,0
100,0
101,0
102,0
103,0
104,0
105,0
106,0
107,0
108,0
109,0
110,0
111,0
112,0
113,0
114,0
115,0
116,0
117,0
118,0
119,0
120,0
121,0
122,0
123,0
124,0
125,0
126,0
127,0
128,0
129,0
130,0
131,0
132,0
133,0
134,0
135,0
136,0
137,0
138,0
139,0
140,0
141,0
142,0
143,0
144,0
145,0
146,0
147,0
148,0
149,0
150,0
151,0
152,0
153,0
154,0
155,0
156,0
157,0
158,0
159,0
160,0
161,0
162,0
163,0
164,0
165,0
166,0
167,0
168,0
169,0
170,0
171,0
172,0
173,0
174,0
175,0
176,0
177,0
178,0
179,0
180,0
181,0
182,0
183,0
184,0
185,0
186,0
187,0
188,0
189,0
190,0
191,0
192,0
193,0
194,0
195,0
196,0
197,0
198,0
199,0
200,0
201,0
202,0
203,0
204,0
205,0
206,0
207,0
208,0
209,0
210,0
211,0
212,0
213,0
214,0
215,0
216,0
217,0
218,0
219,0
220,0
221,0
222,0
223,0
224,0
225,0
226,0
227,0
228,0
229,0
230,0
231,0
232,0
233,0
234,0
235,0
236,0
237,0
238,0
239,0
240,1
241,1
242,1
243,1
244,1
245,1
246,2
247,2
248,2
249,2
250,2
251,2
252,2
253,2
254,2
255,2
256,2
257,2
258,2
259,2
260,2
261,2
262,2
263,2
264,2
265,2
266,2
267,2
268,2
269,2
270,2
271,2
272,2
273,2
274,2
275,2
276,2
277,2
278,2
279,2
280,2
281,2
282,3
283,3
284,4
285,5
286,6
287,6
288,6
289,6
290,6
291,7
292,7
293,7
294,7
295,7
296,7
297,7
298,7
299,7
300,8
301,8
302,8
303,8
304,8
305,8
306,8
307,8
308,8
309,9
310,9
311,9
312,9
313,10
314,10
315,10
316,10
317,10
318,10
319,10
320,10
321,10
322,11
323,11
324,12
325,12
326,13
327,13
328,13
329,13
330,13
331,13
332,14
333,15
334,15
335,15
336,15
337,15
338,15
339,15
340,16
341,16
342,16
343,16
344,16
345,16
346,16
347,16
348,16
349,16
350,16
351,16
352,16
353,16
354,17
355,17
356,17
357,17
358,17
359,17
360,17
361,17
362,17
363,17
364,17
365,17
366,17
367,17
368,18
369,19
370,19
371,19
372,19
373,19
374,19
375,19
376,19
377,19
378,19
379,19
380,19
381,19
382,19
383,19
384,20
385,20
386,20
387,21
388,21
389,21
390,21
391,21
392,21
393,21
394,21
395,21
396,22
397,22
398,22
399,22
400,22
401,22
402,22
403,22
404,22
405,22
406,22
407,23
408,23
409,23
410,23
411,23
412,23
413,23
414,23
415,23
416,23
417,23
418,23
419,23
420,23
421,23
422,23
423,23
424,23
425,23
426,23
427,23
428,23
429,23
430,23
431,23
432,24
433,24
434,24
435,24
436,24
437,24
438,24
439,25
440,25
441,25
442,25
443,25
444,25
445,25
446,25
447,25
448,25
449,25
450,25
451,25
452,25
453,25
454,25
455,25
456,25
457,25
458,25
459,25
460,25
461,25
462,25
463,25
464,25
465,25
466,25
467,26
468,26
469,26
470,26
471,26
472,26
473,26
474,26
475,26
476,26
477,26
478,26
479,26
480,26
481,26
482,26
483,26
484,26
485,26
486,26
487,26
488,26
489,26
490,26
491,26
492,26
493,26
494,27
495,27
496,27
497,27
498,27
499,27
500,28
501,28
502,28
503,28
504,28
505,28
506,29
507,29
508,29
509,29
510,29
511,29
512,29
513,29
514,29
515,29
516,29
517,29
518,29
519,29
520,29
521,29
522,29
523,29
524,29
525,29
526,30
527,30
528,30
529,30
530,30
531,30
532,30
533,30
534,30
535,30
536,30
537,30
538,30
539,30
540,30
541,30
542,30
543,30
544,30
545,30
546,30
547,30
548,30
549,30
550,30
551,30
552,30
553,30
554,30
555,30
556,30
557,30
558,30
559,30
560,30
561,31
562,32
563,33
564,34
565,35
566,36
567,37
568,38
569,39
570,40
571,40
572,40
573,40
574,40
575,40
576,40
577,40
578,40
579,40
580,40
581,40
582,40
583,40
584,40
585,40
586,40
587,40
588,40
589,40
590,40
591,40
592,40
593,40
594,40
595,40
596,40
597,40
598,40
599,40
600,40
601,40
602,40
603,40
604,40
605,40
606,40
607,40
608,40
609,40
610,40
611,40
612,40
613,40
614,40
615,40
616,40
617,40
618,40
619,40
620,40
621,40
622,40
623,40
624,40
625,40
626,40
627,40
628,40
629,40
630,40
631,40
632,40
633,40
634,40
635,40
636,40
637,40
638,40
639,40
640,40
641,40
642,40
643,40
644,40
645,40
646,40
647,40
648,40
649,40
650,40
651,40
652,40
653,40
654,40
655,40
656,40
657,40
658,40
659,40
660,40
661,40
662,40
663,40
664,40
665,40
666,40
667,40
668,40
669,40
670,40
671,40
672,40
673,40
674,40
675,40
676,40
677,40
678,40
679,40
680,40
681,40
682,40
683,40
684,40
685,40
686,40
687,40
688,40
689,40
690,40
691,40
692,40
693,40
694,40
695,40
696,40
697,40
698,40
699,40
700,40
701,40
702,40
703,40
704,40
705,40
706,40
707,40
708,40
709,40
710,40
711,40
712,40
713,40
714,40
715,40
716,40
717,40
718,40
719,40
720,40
721,40
722,40
723,40
724,40
725,40
726,40
727,40
728,40
729,40
730,40
731,40
732,41
733,41
734,41
735,41
736,42
737,42
738,42
739,42
740,42
741,42
742,42
743,42
744,42
745,42
746,42
747,42
748,42
749,42
750,42
751,42
752,42
753,42
754,42
755,42
756,42
757,42
758,42
759,42
760,42
761,42
762,42
763,42
764,42
765,42
766,42
767,42
768,43
769,43
770,43
771,43
772,43
773,43
774,43
775,43
776,43
777,43
778,43
779,43
780,43
781,43
782,43
783,43
784,43
785,43
786,43
787,43
788,43
789,43
790,43
791,43
792,43
793,43
794,43
795,43
796,43
797,43
798,43
799,43
800,43
801,43
802,43
803,43
804,43
805,43
806,43
807,43
808,44
809,44
810,44
811,45
812,45
813,45
814,45
815,45
816,45
817,45
818,45
819,45
820,45
821,45
822,45
823,45
824,45
825,45
826,46
827,46
828,46
829,46
830,46
831,46
832,46
833,46
834,46
835,46
836,46
837,46
838,46
839,46
840,46
841,46
842,46
843,46
844,46
845,46
846,46
847,46
848,46
849,46
850,46
851,47
852,47
853,47
854,47
855,47
856,47
857,47
858,47
859,47
860,47
861,48
862,48
863,48
864,48
865,48
866,48
867,48
868,48
869,48
870,48
871,48
872,48
873,48
874,48
875,48
876,48
877,48
878,48
879,48
880,48
881,48
882,48
883,48
884,48
885,48
886,48
887,48
888,48
889,48
890,48
891,48
892,48
893,48
894,48
895,48
896,48
897,49
898,49
899,49
900,49
901,49
902,49
903,49
904,49
905,49
906,49
907,49
908,49
909,49
910,50
911,50
912,50
913,50
914,50
915,50
916,50
917,50
918,50
919,50
920,50
921,50
922,50
923,50
924,50
925,50
926,51
927,51
928,51
929,51
930,51
931,51
932,51
933,51
934,51
935,51
936,51
937,51
938,51
939,51
940,51
941,51
942,51
943,51
944,51
945,51
946,51
947,51
948,51
949,51
950,51
951,51
952,51
953,51
954,51
955,51
956,51
957,51
958,51
959,51
960,51
961,51
962,51
963,51
964,51
965,51
966,51
967,51
968,51
969,51
970,51
971,51
972,51
973,51
974,51
975,51
976,51
977,51
978,51
979,51
980,51
981,51
982,51
983,51
984,51
985,52
986,52
987,52
988,52
989,52
990,52
991,52
992,52
993,52
994,52
995,52
996,52
997,52
998,52
999,52
1000,52
1001,52
1002,52
1003,52
1004,53
1005,53
1006,53
1007,53
1008,53
1009,53
1010,53
1011,53
1012,53
1013,53
1014,53
1015,53
1016,53
1017,53
1018,53
1019,53
1020,53
1021,53
1022,53
1023,53
1024,53
1025,53
1026,53
1027,53
1028,53
1029,53
1030,53
1031,53
1032,53
1033,53
1034,53
1035,53
1036,53
1037,53
1038,53
1039,53
1040,53
1041,53
1042,53
1043,53
1044,53
1045,53
1046,53
1047,53
1048,53
1049,53
1050,53
1051,54
1052,55
1053,55
1054,55
1055,55
1056,55
1057,55
1058,55
1059,55
1060,55
1061,55
1062,55
1063,55
1064,55
1065,55
1066,55
1067,55
1068,55
1069,55
1070,55
1071,55
1072,55
1073,55
1074,55
1075,55
1076,55
1077,55
1078,55
1079,55
1080,55
1081,55
1082,55
1083,55
1084,55
1085,55
1086,55
1087,55
1088,55
1089,55
1090,55
1091,55
1092,55
1093,55
1094,55
1095,55
1096,55
1097,55
1098,55
1099,55
1100,55
1101,56
1102,56
1103,56
1104,56
1105,56
1106,56
1107,56
1108,57
1109,57
1110,57
1111,57
1112,57
1113,58
1114,58
1115,58
1116,58
1117,58
1118,58
1119,58
1120,58
1121,58
1122,58
1123,58
1124,59
1125,59
1126,59
1127,59
1128,59
1129,59
1130,59
1131,59
1132,59
1133,59
1134,59
1135,59
1136,59
1137,59
1138,59
1139,59
1140,59
1141,59
1142,59
1143,59
1144,59
1145,59
1146,59
1147,59
1148,59
1149,59
1150,59
1151,59
1152,59
1153,59
1154,60
1155,60
1156,60
1157,60
1158,60
1159,60
1160,61
1161,61
1162,61
1163,61
1164,61
1165,61
1166,61
1167,61
1168,61
1169,61
1170,61
1171,61
1172,61
1173,61
1174,61
1175,61
1176,61
1177,61
1178,61
1179,61
1180,61
1181,61
1182,61
1183,62
1184,62
1185,62
1186,62
1187,62
1188,62
1189,62
1190,62
1191,62
1192,62
1193,62
1194,62
1195,62
1196,62
1197,62
1198,62
1199,62
1200,62
1201,62
1202,62
1203,63
1204,63
1205,63
1206,63
1207,63
1208,63
1209,63
1210,63
1211,63
1212,63
1213,63
1214,63
1215,63
1216,63
1217,63
1218,63
1219,63
1220,63
1221,63
1222,63
1223,63
1224,63
1225,63
1226,63
1227,63
1228,64
1229,64
1230,64
1231,64
1232,64
1233,64
1234,64
1235,64
1236,64
1237,64
1238,64
1239,64
1240,64
1241,64
1242,64
1243,64
1244,64
1245,64
1246,64
1247,64
1248,64
1249,64
1250,64
1251,64
1252,64
1253,64
1254,64
1255,64
1256,64
1257,64
1258,64
1259,64
1260,64
1261,64
1262,64
1263,64
1264,64
1265,64
1266,64
1267,64
1268,64
1269,64
1270,64
1271,64
1272,65
1273,65
1274,65
1275,65
1276,65
1277,65
1278,65
1279,65
1280,65
1281,65
1282,65
1283,65
1284,65
1285,66
1286,66
1287,66
1288,66
1289,66
1290,66
1291,66
1292,67
1293,68
1294,69
1295,70
1296,70
1297,70
1298,70
1299,70
1300,71
1301,71
1302,71
1303,71
1304,71
1305,71
1306,71
1307,71
1308,71
1309,71
1310,71
1311,71
1312,71
1313,71
1314,71
1315,71
1316,71
1317,71
1318,71
1319,71
1320,71
1321,71
1322,71
1323,71
1324,71
1325,71
1326,71
1327,71
1328,71
1329,71
1330,71
1331,71
1332,71
1333,71
1334,71
1335,71
1336,71
1337,71
1338,71
1339,71
1340,71
1341,71
1342,71
1343,71
1344,71
1345,71
1346,71
1347,71
1348,71
1349,71
1350,71
1351,71
1352,71
1353,71
1354,71
1355,71
1356,71
1357,71
1358,71
1359,71
1360,71
1361,71
1362,71
1363,71
1364,71
1365,71
1366,71
1367,71
1368,71
1369,71
1370,71
1371,71
1372,71
1373,71
1374,71
1375,71
1376,71
1377,71
1378,71
1379,71
1380,71
1381,71
1382,71
1383,71
1384,71
1385,71
1386,71
1387,71
1388,71
1389,71
1390,71
1391,71
1392,71
1393,71
1394,71
1395,71
1396,71
1397,71
1398,71
1399,71
1400,71
1401,71
1402,71
1403,71
1404,71
1405,71
1406,71
1407,71
1408,71
1409,72
1410,72
1411,72
1412,72
1413,72
1414,72
1415,72
1416,72
1417,72
1418,72
1419,72
1420,72
1421,72
1422,72
1423,72
1424,72
1425,72
1426,72
1427,72
1428,72
1429,72
1430,72
1431,72
1432,72
1433,72
1434,72
1435,72
1436,72
1437,72
1438,72
1439,72
1440,72
1441,72
1442,72
1443,72
1444,72
1445,72
1446,72
1447,72
1448,72
1449,72
1450,72
1451,72
1452,72
1453,72
1454,73
1455,73
1456,73
1457,73
1458,73
1459,74
1460,74
1461,74
1462,74
1463,74
1464,74
1465,74
1466,74
1467,74
1468,75
1469,75
1470,75
1471,75
1472,75
1473,75
1474,75
1475,75
1476,75
1477,75
1478,75
1479,75
1480,75
1481,75
1482,75
1483,75
1484,75
1485,75
1486,75
1487,75
1488,75
1489,75
1490,75
1491,75
1492,75
1493,75
1494,75
1495,75
1496,75
1497,75
1498,75
1499,75
1500,75
1501,75
1502,75
1503,75
1504,75
1505,75
1506,76
1507,76
1508,76
1509,76
1510,76
1511,76
1512,76
1513,76
1514,76
1515,76
1516,76
1517,77
1518,77
1519,77
1520,77
1521,77
1522,78
1523,78
1524,78
1525,78
1526,78
1527,78
1528,78
1529,78
1530,78
1531,78
1532,78
1533,78
1534,78
1535,78
1536,78
1537,78
1538,78
1539,78
1540,79
1541,79
1542,80
1543,80
1544,80
1545,81
1546,81
1547,81
1548,81
1549,81
1550,81
1551,81
1552,81
1553,81
1554,81
1555,82
1556,82
1557,82
1558,82
1559,82
1560,82
1561,82
1562,82
1563,82
1564,82
1565,82
1566,82
1567,82
1568,82
1569,83
1570,83
1571,83
1572,83
1573,83
1574,83
1575,83
1576,83
1577,83
1578,83
1579,83
1580,83
1581,83
1582,83
1583,83
1584,83
1585,83
1586,83
1587,84
1588,84
1589,84
1590,84
1591,84
1592,84
1593,84
1594,84
1595,84
1596,84
1597,84
1598,84
1599,84
1600,85
1601,85
1602,85
1603,85
1604,85
1605,85
1606,85
1607,85
1608,85
1609,85
1610,85
1611,85
1612,85
1613,85
1614,85
1615,86
1616,86
1617,86
1618,87
1619,87
1620,87
1621,87
1622,87
1623,87
1624,87
1625,87
1626,87
1627,87
1628,87
1629,87
1630,87
1631,87
1632,87
1633,87
1634,87
1635,87
1636,87
1637,87
1638,87
1639,87
1640,87
1641,87
1642,87
1643,87
1644,87
1645,87
1646,87
1647,87
1648,87
1649,88
1650,88
1651,88
1652,88
1653,89
1654,90
1655,90
1656,91
1657,91
1658,91
1659,91
1660,91
1661,91
1662,91
1663,91
1664,91
1665,91
1666,91
1667,92
1668,92
1669,92
1670,92
1671,92
1672,92
1673,92
1674,92
1675,92
1676,92
1677,92
1678,92
1679,92
1680,92
1681,92
1682,92
1683,92
1684,92
1685,92
1686,92
1687,92
1688,92
1689,92
1690,92
1691,92
1692,92
1693,92
1694,92
1695,92
1696,92
1697,92
1698,92
1699,92
1700,92
1701,92
1702,92
1703,92
1704,92
1705,92
1706,92
1707,92
1708,93
1709,93
1710,93
1711,93
1712,93
1713,93
1714,93
1715,93
1716,93
1717,93
1718,93
1719,93
1720,93
1721,93
1722,93
1723,93
1724,93
1725,93
1726,93
1727,93
1728,93
1729,93
1730,93
1731,93
1732,93
1733,93
1734,93
1735,93
1736,94
1737,94
1738,94
1739,94
1740,94
1741,94
1742,94
1743,94
1744,94
1745,94
1746,94
1747,94
1748,94
1749,94
1750,94
1751,94
1752,94
1753,95
1754,95
1755,95
1756,95
1757,95
1758,95
1759,95
1760,95
1761,95
1762,95
1763,95
1764,95
1765,95
1766,95
1767,95
1768,95
1769,95
1770,95
1771,95
1772,95
1773,95
1774,95
1775,95
1776,95
1777,95
1778,95
1779,95
1780,95
1781,95
1782,95
1783,95
1784,95
1785,95
1786,95
1787,95
1788,95
1789,95
1790,95
1791,95
1792,95
1793,95
1794,95
1795,95
1796,96
1797,96
1798,96
1799,96
1800,96
1801,96
1802,96
1803,96
1804,96
1805,96
1806,96
1807,96
1808,96
1809,96
1810,96
1811,96
1812,96
1813,96
1814,96
1815,96
1816,96
1817,96
1818,96
1819,96
1820,96
1821,96
1822,96
1823,96
1824,96
1825,96
1826,96
1827,96
1828,96
1829,96
1830,96
1831,96
1832,96
1833,96
1834,96
1835,96
1836,96
1837,96
1838,96
1839,96
1840,96
1841,96
1842,96
1843,96
1844,96
1845,96
1846,96
1847,96
1848,96
1849,96
1850,97
1851,97
1852,97
1853,97
1854,97
1855,98
1856,98
1857,98
1858,98
1859,98
1860,98
1861,98
1862,98
1863,98
1864,98
1865,98
1866,98
1867,99
1868,99
1869,99
1870,99
1871,99
1872,99
1873,99
1874,99
1875,99
1876,99
1877,99
1878,99
1879,99
1880,99
1881,99
1882,99
1883,100
1884,100
1885,100
1886,100
1887,100
1888,100
1889,100
1890,100
1891,100
1892,100
1893,100
1894,100
1895,100
1896,100
1897,101
1898,101
1899,101
1900,101
1901,101
1902,101
1903,101
1904,101
1905,101
1906,101
1907,101
1908,101
1909,102
1910,102
1911,102
1912,102
1913,102
1914,103
1915,103
1916,103
1917,103
1918,103
1919,103
1920,103
1921,103
1922,103
1923,103
1924,103
1925,103
1926,103
1927,103
1928,103
1929,103
1930,103
1931,103
1932,103
1933,103
1934,103
1935,103
1936,103
1937,104
1938,104
1939,104
1940,104
1941,104
1942,104
1943,104
1944,104
1945,104
1946,104
1947,104
1948,105
1949,105
1950,105
1951,105
1952,105
1953,105
1954,105
1955,105
1956,105
1957,106
1958,106
1959,106
1960,106
1961,106
1962,106
1963,106
1964,106
1965,106
1966,106
1967,106
1968,106
1969,106
1970,106
1971,106
1972,106
1973,106
1974,106
1975,107
1976,107
1977,107
1978,107
1979,107
1980,107
1981,107
1982,107
1983,107
1984,107
1985,107
1986,107
1987,107
1988,107
1989,107
1990,108
1991,108
1992,108
1993,108
1994,108
1995,108
1996,108
1997,108
1998,108
1999,108
2000,108
