"tick","susceptible","exposed","infectious","recovered"
0,99,1,0,0
1,99,1,0,0
2,99,1,0,0
3,99,1,0,0
4,99,1,0,0
5,99,1,0,0
6,99,1,0,0
7,99,1,0,0
8,99,1,0,0
9,99,1,0,0
10,99,1,0,0
11,99,1,0,0
12,99,1,0,0
13,99,1,0,0
14,99,1,0,0
15,99,1,0,0
16,99,1,0,0
17,99,1,0,0
18,99,1,0,0
19,99,1,0,0
20,99,1,0,0
21,99,1,0,0
22,99,1,0,0
23,99,1,0,0
24,99,1,0,0
25,99,1,0,0
26,99,1,0,0
27,99,1,0,0
28,99,1,0,0
29,99,1,0,0
30,99,1,0,0
31,99,1,0,0
32,99,1,0,0
33,99,1,0,0
34,99,1,0,0
35,99,1,0,0
36,99,1,0,0
37,99,1,0,0
38,99,1,0,0
39,99,1,0,0
40,99,1,0,0
41,99,1,0,0
42,99,1,0,0
43,99,1,0,0
44,99,1,0,0
45,99,1,0,0
46,99,1,0,0
47,99,1,0,0
48,99,1,0,0
49,99,1,0,0
50,99,1,0,0
51,99,1,0,0
52,99,1,0,0
53,99,1,0,0
54,99,1,0,0
55,99,1,0,0
56,99,1,0,0
57,99,1,0,0
58,99,1,0,0
59,99,1,0,0
60,99,1,0,0
61,99,1,0,0
62,99,1,0,0
63,99,1,0,0
64,99,1,0,0
65,99,1,0,0
66,99,1,0,0
67,99,1,0,0
68,99,1,0,0
69,99,1,0,0
70,99,1,0,0
71,99,1,0,0
72,99,1,0,0
73,99,1,0,0
74,99,1,0,0
75,99,1,0,0
76,99,1,0,0
77,99,1,0,0
78,99,1,0,0
79,99,1,0,0
80,99,1,0,0
81,99,1,0,0
82,99,1,0,0
83,99,1,0,0
84,99,1,0,0
85,99,1,0,0
86,99,1,0,0
87,99,1,0,0
88,99,1,0,0
89,99,1,0,0
90,99,1,0,0
91,99,1,0,0
92,99,1,0,0
93,99,1,0,0
94,99,1,0,0
95,99,1,0,0
96,99,1,0,0
97,99,1,0,0
98,99,1,0,0
99,99,1,0,0
100,99,1,0,0
101,99,1,0,0
102,99,1,0,0
103,99,1,0,0
104,99,1,0,0
105,99,1,0,0
106,99,1,0,0
107,99,1,0,0
108,99,1,0,0
109,99,1,0,0
110,99,1,0,0
111,99,1,0,0
112,99,1,0,0
113,99,1,0,0
114,99,1,0,0
115,99,1,0,0
116,99,1,0,0
117,99,1,0,0
118,99,1,0,0
119,99,1,0,0
120,99,1,0,0
121,99,1,0,0
122,99,1,0,0
123,99,1,0,0
124,99,1,0,0
125,99,1,0,0
126,99,1,0,0
127,99,1,0,0
128,99,1,0,0
129,99,1,0,0
130,99,1,0,0
131,99,1,0,0
132,99,1,0,0
133,99,1,0,0
134,99,1,0,0
135,99,1,0,0
136,99,1,0,0
137,99,1,0,0
138,99,1,0,0
139,99,1,0,0
140,99,1,0,0
141,99,1,0,0
142,99,1,0,0
143,99,1,0,0
144,99,1,0,0
145,99,1,0,0
146,99,1,0,0
147,99,1,0,0
148,99,1,0,0
149,99,1,0,0
150,99,1,0,0
151,99,1,0,0
152,99,1,0,0
153,99,1,0,0
154,99,1,0,0
155,99,1,0,0
156,99,1,0,0
157,99,1,0,0
158,99,1,0,0
159,99,1,0,0
160,99,1,0,0
161,99,1,0,0
162,99,1,0,0
163,99,1,0,0
164,99,1,0,0
165,99,1,0,0
166,99,1,0,0
167,99,1,0,0
168,99,1,0,0
169,99,1,0,0
170,99,1,0,0
171,99,1,0,0
172,99,1,0,0
173,99,1,0,0
174,99,1,0,0
175,99,1,0,0
176,99,1,0,0
177,99,1,0,0
178,99,1,0,0
179,99,1,0,0
180,99,1,0,0
181,99,1,0,0
182,99,1,0,0
183,99,1,0,0
184,99,1,0,0
185,99,1,0,0
186,99,1,0,0
187,99,1,0,0
188,99,1,0,0
189,99,1,0,0
190,99,1,0,0
191,99,1,0,0
192,99,1,0,0
193,99,1,0,0
194,99,1,0,0
195,99,1,0,0
196,99,1,0,0
197,99,1,0,0
198,99,1,0,0
199,99,1,0,0
200,99,1,0,0
201,99,0,1,0
202,98,1,1,0
203,98,1,1,0
204,98,1,1,0
205,98,1,1,0
206,98,1,1,0
207,98,1,1,0
208,98,1,1,0
209,98,1,1,0
210,98,1,1,0
211,98,1,1,0
212,98,1,1,0
213,98,1,1,0
214,98,1,1,0
215,98,1,1,0
216,98,1,1,0
217,98,1,1,0
218,98,1,1,0
219,98,1,1,0
220,98,1,1,0
221,98,1,1,0
222,98,1,1,0
223,98,1,1,0
224,98,1,1,0
225,98,1,1,0
226,98,1,1,0
227,98,1,1,0
228,98,1,1,0
229,98,1,1,0
230,98,1,1,0
231,98,1,1,0
232,98,1,1,0
233,98,1,1,0
234,98,1,1,0
235,98,1,1,0
236,98,1,1,0
237,98,1,1,0
238,98,1,1,0
239,98,1,1,0
240,98,1,1,0
241,98,1,1,0
242,98,1,1,0
243,98,1,1,0
244,98,1,1,0
245,98,1,1,0
246,98,1,1,0
247,98,1,1,0
248,98,1,1,0
249,98,1,1,0
250,98,1,1,0
251,98,1,1,0
252,98,1,1,0
253,98,1,1,0
254,98,1,1,0
255,98,1,1,0
256,98,1,1,0
257,98,1,1,0
258,98,1,1,0
259,98,1,1,0
260,98,1,1,0
261,98,1,1,0
262,98,1,1,0
263,98,1,1,0
264,98,1,1,0
265,98,1,1,0
266,98,1,1,0
267,98,1,1,0
268,98,1,1,0
269,98,1,1,0
270,98,1,1,0
271,98,1,1,0
272,98,1,1,0
273,98,1,1,0
274,98,1,1,0
275,98,1,1,0
276,98,1,1,0
277,98,1,1,0
278,98,1,1,0
279,98,1,1,0
280,98,1,1,0
281,98,1,1,0
282,98,1,1,0
283,98,1,1,0
284,98,1,1,0
285,98,1,1,0
286,98,1,1,0
287,98,1,1,0
288,98,1,1,0
289,98,1,1,0
290,98,1,1,0
291,98,1,1,0
292,98,1,1,0
293,98,1,1,0
294,98,1,1,0
295,98,1,1,0
296,98,1,1,0
297,98,1,1,0
298,98,1,1,0
299,98,1,1,0
300,98,1,1,0
301,98,1,1,0
302,98,1,1,0
303,98,1,1,0
304,98,1,1,0
305,98,1,1,0
306,98,1,1,0
307,98,1,1,0
308,98,1,1,0
309,98,1,1,0
310,98,1,1,0
311,98,1,1,0
312,98,1,1,0
313,98,1,1,0
314,98,1,1,0
315,98,1,1,0
316,98,1,1,0
317,98,1,1,0
318,98,1,1,0
319,98,1,1,0
320,98,1,1,0
321,98,1,1,0
322,98,1,1,0
323,98,1,1,0
324,98,1,1,0
325,98,1,1,0
326,98,1,1,0
327,98,1,1,0
328,98,1,1,0
329,98,1,1,0
330,98,1,1,0
331,98,1,1,0
332,98,1,1,0
333,98,1,1,0
334,98,1,1,0
335,98,1,1,0
336,98,1,1,0
337,98,1,1,0
338,98,1,1,0
339,98,1,1,0
340,98,1,1,0
341,98,1,1,0
342,98,1,1,0
343,98,1,1,0
344,98,1,1,0
345,98,1,1,0
346,98,1,1,0
347,98,1,1,0
348,98,1,1,0
349,98,1,1,0
350,98,1,1,0
351,98,1,1,0
352,98,1,1,0
353,98,1,1,0
354,98,1,1,0
355,98,1,1,0
356,98,1,1,0
357,98,1,1,0
358,98,1,1,0
359,98,1,1,0
360,98,1,1,0
361,98,1,1,0
362,98,1,1,0
363,98,1,1,0
364,98,1,1,0
365,98,1,1,0
366,98,1,1,0
367,98,1,1,0
368,98,1,1,0
369,98,1,1,0
370,98,1,1,0
371,98,1,1,0
372,98,1,1,0
373,98,1,1,0
374,98,1,1,0
375,98,1,1,0
376,98,1,1,0
377,98,1,1,0
378,98,1,1,0
379,98,1,1,0
380,98,1,1,0
381,98,1,1,0
382,98,1,1,0
383,98,1,1,0
384,98,1,1,0
385,98,1,1,0
386,98,1,1,0
387,98,1,1,0
388,98,1,1,0
389,98,1,1,0
390,98,1,1,0
391,98,1,1,0
392,98,1,1,0
393,98,1,1,0
394,98,1,1,0
395,98,1,1,0
396,98,1,1,0
397,98,1,1,0
398,98,1,1,0
399,98,1,1,0
400,98,1,1,0
401,98,1,1,0
402,98,1,0,1
403,98,0,1,1
404,98,0,1,1
405,98,0,1,1
406,98,0,1,1
407,98,0,1,1
408,98,0,1,1
409,98,0,1,1
410,98,0,1,1
411,98,0,1,1
412,98,0,1,1
413,98,0,1,1
414,98,0,1,1
415,98,0,1,1
416,98,0,1,1
417,98,0,1,1
418,98,0,1,1
419,98,0,1,1
420,98,0,1,1
421,98,0,1,1
422,98,0,1,1
423,98,0,1,1
424,98,0,1,1
425,98,0,1,1
426,98,0,1,1
427,98,0,1,1
428,98,0,1,1
429,98,0,1,1
430,98,0,1,1
431,98,0,1,1
432,98,0,1,1
433,98,0,1,1
434,98,0,1,1
435,98,0,1,1
436,98,0,1,1
437,98,0,1,1
438,98,0,1,1
439,98,0,1,1
440,98,0,1,1
441,98,0,1,1
442,98,0,1,1
443,98,0,1,1
444,98,0,1,1
445,98,0,1,1
446,98,0,1,1
447,98,0,1,1
448,98,0,1,1
449,98,0,1,1
450,98,0,1,1
451,98,0,1,1
452,98,0,1,1
453,98,0,1,1
454,98,0,1,1
455,98,0,1,1
456,98,0,1,1
457,98,0,1,1
458,98,0,1,1
459,98,0,1,1
460,98,0,1,1
461,98,0,1,1
462,98,0,1,1
463,98,0,1,1
464,98,0,1,1
465,98,0,1,1
466,98,0,1,1
467,98,0,1,1
468,98,0,1,1
469,98,0,1,1
470,98,0,1,1
471,98,0,1,1
472,98,0,1,1
473,98,0,1,1
474,98,0,1,1
475,98,0,1,1
476,98,0,1,1
477,98,0,1,1
478,98,0,1,1
479,98,0,1,1
480,98,0,1,1
481,98,0,1,1
482,98,0,1,1
483,98,0,1,1
484,98,0,1,1
485,98,0,1,1
486,98,0,1,1
487,98,0,1,1
488,98,0,1,1
489,98,0,1,1
490,98,0,1,1
491,98,0,1,1
492,98,0,1,1
493,98,0,1,1
494,98,0,1,1
495,98,0,1,1
496,98,0,1,1
497,98,0,1,1
498,98,0,1,1
499,98,0,1,1
500,98,0,1,1
501,98,0,1,1
502,98,0,1,1
503,98,0,1,1
504,98,0,1,1
505,97,1,1,1
506,97,1,1,1
507,97,1,1,1
508,97,1,1,1
509,97,1,1,1
510,97,1,1,1
511,97,1,1,1
512,97,1,1,1
513,97,1,1,1
514,97,1,1,1
515,97,1,1,1
516,97,1,1,1
517,97,1,1,1
518,97,1,1,1
519,97,1,1,1
520,97,1,1,1
521,97,1,1,1
522,97,1,1,1
523,97,1,1,1
524,97,1,1,1
525,97,1,1,1
526,97,1,1,1
527,97,1,1,1
528,97,1,1,1
529,97,1,1,1
530,97,1,1,1
531,97,1,1,1
532,97,1,1,1
533,97,1,1,1
534,97,1,1,1
535,97,1,1,1
536,97,1,1,1
537,97,1,1,1
538,97,1,1,1
539,97,1,1,1
540,97,1,1,1
541,97,1,1,1
542,97,1,1,1
543,97,1,1,1
544,97,1,1,1
545,97,1,1,1
546,97,1,1,1
547,97,1,1,1
548,97,1,1,1
549,97,1,1,1
550,97,1,1,1
551,97,1,1,1
552,96,2,1,1
553,96,2,1,1
554,96,2,1,1
555,96,2,1,1
556,96,2,1,1
557,96,2,1,1
558,96,2,1,1
559,96,2,1,1
560,96,2,1,1
561,96,2,1,1
562,96,2,1,1
563,96,2,1,1
564,96,2,1,1
565,96,2,1,1
566,96,2,1,1
567,96,2,1,1
568,96,2,1,1
569,96,2,1,1
570,96,2,1,1
571,96,2,1,1
572,96,2,1,1
573,96,2,1,1
574,96,2,1,1
575,96,2,1,1
576,96,2,1,1
577,96,2,1,1
578,96,2,1,1
579,96,2,1,1
580,96,2,1,1
581,96,2,1,1
582,96,2,1,1
583,96,2,1,1
584,96,2,1,1
585,96,2,1,1
586,96,2,1,1
587,96,2,1,1
588,96,2,1,1
589,96,2,1,1
590,96,2,1,1
591,96,2,1,1
592,96,2,1,1
593,96,2,1,1
594,96,2,1,1
595,96,2,1,1
596,96,2,1,1
597,96,2,1,1
598,96,2,1,1
599,96,2,1,1
600,96,2,1,1
601,96,2,1,1
602,96,2,1,1
603,96,2,1,1
604,96,2,0,2
605,96,2,0,2
606,96,2,0,2
607,96,2,0,2
608,96,2,0,2
609,96,2,0,2
610,96,2,0,2
611,96,2,0,2
612,96,2,0,2
613,96,2,0,2
614,96,2,0,2
615,96,2,0,2
616,96,2,0,2
617,96,2,0,2
618,96,2,0,2
619,96,2,0,2
620,96,2,0,2
621,96,2,0,2
622,96,2,0,2
623,96,2,0,2
624,96,2,0,2
625,96,2,0,2
626,96,2,0,2
627,96,2,0,2
628,96,2,0,2
629,96,2,0,2
630,96,2,0,2
631,96,2,0,2
632,96,2,0,2
633,96,2,0,2
634,96,2,0,2
635,96,2,0,2
636,96,2,0,2
637,96,2,0,2
638,96,2,0,2
639,96,2,0,2
640,96,2,0,2
641,96,2,0,2
642,96,2,0,2
643,96,2,0,2
644,96,2,0,2
645,96,2,0,2
646,96,2,0,2
647,96,2,0,2
648,96,2,0,2
649,96,2,0,2
650,96,2,0,2
651,96,2,0,2
652,96,2,0,2
653,96,2,0,2
654,96,2,0,2
655,96,2,0,2
656,96,2,0,2
657,96,2,0,2
658,96,2,0,2
659,96,2,0,2
660,96,2,0,2
661,96,2,0,2
662,96,2,0,2
663,96,2,0,2
664,96,2,0,2
665,96,2,0,2
666,96,2,0,2
667,96,2,0,2
668,96,2,0,2
669,96,2,0,2
670,96,2,0,2
671,96,2,0,2
672,96,2,0,2
673,96,2,0,2
674,96,2,0,2
675,96,2,0,2
676,96,2,0,2
677,96,2,0,2
678,96,2,0,2
679,96,2,0,2
680,96,2,0,2
681,96,2,0,2
682,96,2,0,2
683,96,2,0,2
684,96,2,0,2
685,96,2,0,2
686,96,2,0,2
687,96,2,0,2
688,96,2,0,2
689,96,2,0,2
690,96,2,0,2
691,96,2,0,2
692,96,2,0,2
693,96,2,0,2
694,96,2,0,2
695,96,2,0,2
696,96,2,0,2
697,96,2,0,2
698,96,2,0,2
699,96,2,0,2
700,96,2,0,2
701,96,2,0,2
702,96,2,0,2
703,96,2,0,2
704,96,2,0,2
705,96,2,0,2
706,96,1,1,2
707,96,1,1,2
708,96,1,1,2
709,96,1,1,2
710,96,1,1,2
711,96,1,1,2
712,96,1,1,2
713,96,1,1,2
714,96,1,1,2
715,96,1,1,2
716,96,1,1,2
717,96,1,1,2
718,96,1,1,2
719,96,1,1,2
720,96,1,1,2
721,96,1,1,2
722,96,1,1,2
723,96,1,1,2
724,96,1,1,2
725,96,1,1,2
726,96,1,1,2
727,96,1,1,2
728,96,1,1,2
729,96,1,1,2
730,96,1,1,2
731,96,1,1,2
732,96,1,1,2
733,96,1,1,2
734,96,1,1,2
735,96,1,1,2
736,96,1,1,2
737,96,1,1,2
738,96,1,1,2
739,96,1,1,2
740,96,1,1,2
741,96,1,1,2
742,96,1,1,2
743,96,1,1,2
744,96,1,1,2
745,96,1,1,2
746,96,1,1,2
747,96,1,1,2
748,96,1,1,2
749,96,1,1,2
750,96,1,1,2
751,96,1,1,2
752,96,1,1,2
753,96,0,2,2
754,96,0,2,2
755,96,0,2,2
756,95,1,2,2
757,95,1,2,2
758,95,1,2,2
759,95,1,2,2
760,95,1,2,2
761,95,1,2,2
762,95,1,2,2
763,95,1,2,2
764,95,1,2,2
765,95,1,2,2
766,95,1,2,2
767,95,1,2,2
768,95,1,2,2
769,95,1,2,2
770,95,1,2,2
771,95,1,2,2
772,95,1,2,2
773,95,1,2,2
774,95,1,2,2
775,95,1,2,2
776,95,1,2,2
777,95,1,2,2
778,95,1,2,2
779,95,1,2,2
780,95,1,2,2
781,95,1,2,2
782,95,1,2,2
783,95,1,2,2
784,95,1,2,2
785,95,1,2,2
786,95,1,2,2
787,95,1,2,2
788,95,1,2,2
789,95,1,2,2
790,95,1,2,2
791,95,1,2,2
792,95,1,2,2
793,95,1,2,2
794,95,1,2,2
795,95,1,2,2
796,95,1,2,2
797,95,1,2,2
798,95,1,2,2
799,95,1,2,2
800,95,1,2,2
801,95,1,2,2
802,94,2,2,2
803,94,2,2,2
804,94,2,2,2
805,94,2,2,2
806,94,2,2,2
807,94,2,2,2
808,94,2,2,2
809,94,2,2,2
810,94,2,2,2
811,94,2,2,2
812,94,2,2,2
813,94,2,2,2
814,94,2,2,2
815,94,2,2,2
816,94,2,2,2
817,94,2,2,2
818,94,2,2,2
819,94,2,2,2
820,94,2,2,2
821,94,2,2,2
822,94,2,2,2
823,94,2,2,2
824,94,2,2,2
825,94,2,2,2
826,94,2,2,2
827,94,2,2,2
828,94,2,2,2
829,94,2,2,2
830,94,2,2,2
831,94,2,2,2
832,94,2,2,2
833,94,2,2,2
834,94,2,2,2
835,94,2,2,2
836,94,2,2,2
837,94,2,2,2
838,94,2,2,2
839,94,2,2,2
840,94,2,2,2
841,94,2,2,2
842,94,2,2,2
843,94,2,2,2
844,94,2,2,2
845,94,2,2,2
846,94,2,2,2
847,94,2,2,2
848,94,2,2,2
849,94,2,2,2
850,94,2,2,2
851,94,2,2,2
852,94,2,2,2
853,94,2,2,2
854,94,2,2,2
855,94,2,2,2
856,94,2,2,2
857,94,2,2,2
858,94,2,2,2
859,94,2,2,2
860,94,2,2,2
861,94,2,2,2
862,94,2,2,2
863,94,2,2,2
864,94,2,2,2
865,94,2,2,2
866,94,2,2,2
867,94,2,2,2
868,94,2,2,2
869,94,2,2,2
870,94,2,2,2
871,94,2,2,2
872,94,2,2,2
873,94,2,2,2
874,94,2,2,2
875,94,2,2,2
876,94,2,2,2
877,94,2,2,2
878,94,2,2,2
879,94,2,2,2
880,94,2,2,2
881,94,2,2,2
882,94,2,2,2
883,94,2,2,2
884,94,2,2,2
885,94,2,2,2
886,94,2,2,2
887,94,2,2,2
888,94,2,2,2
889,94,2,2,2
890,94,2,2,2
891,94,2,2,2
892,94,2,2,2
893,94,2,2,2
894,94,2,2,2
895,94,2,2,2
896,94,2,2,2
897,94,2,2,2
898,94,2,2,2
899,94,2,2,2
900,94,2,2,2
901,94,2,2,2
902,94,2,2,2
903,94,2,2,2
904,94,2,2,2
905,94,2,2,2
906,94,2,2,2
907,94,2,1,3
908,94,2,1,3
909,94,2,1,3
910,94,2,1,3
911,94,2,1,3
912,94,2,1,3
913,94,2,1,3
914,94,2,1,3
915,94,2,1,3
916,94,2,1,3
917,94,2,1,3
918,94,2,1,3
919,94,2,1,3
920,94,2,1,3
921,94,2,1,3
922,94,2,1,3
923,94,2,1,3
924,94,2,1,3
925,94,2,1,3
926,94,2,1,3
927,94,2,1,3
928,94,2,1,3
929,94,2,1,3
930,94,2,1,3
931,94,2,1,3
932,94,2,1,3
933,94,2,1,3
934,94,2,1,3
935,94,2,1,3
936,94,2,1,3
937,94,2,1,3
938,94,2,1,3
939,94,2,1,3
940,94,2,1,3
941,94,2,1,3
942,94,2,1,3
943,94,2,1,3
944,94,2,1,3
945,94,2,1,3
946,94,2,1,3
947,94,2,1,3
948,94,2,1,3
949,94,2,1,3
950,94,2,1,3
951,94,2,1,3
952,94,2,1,3
953,94,2,1,3
954,94,2,0,4
955,94,2,0,4
956,94,2,0,4
957,94,1,1,4
958,94,1,1,4
959,94,1,1,4
960,94,1,1,4
961,94,1,1,4
962,94,1,1,4
963,94,1,1,4
964,94,1,1,4
965,94,1,1,4
966,94,1,1,4
967,94,1,1,4
968,94,1,1,4
969,94,1,1,4
970,94,1,1,4
971,94,1,1,4
972,94,1,1,4
973,94,1,1,4
974,94,1,1,4
975,94,1,1,4
976,94,1,1,4
977,94,1,1,4
978,94,1,1,4
979,94,1,1,4
980,94,1,1,4
981,94,1,1,4
982,94,1,1,4
983,94,1,1,4
984,94,1,1,4
985,94,1,1,4
986,94,1,1,4
987,94,1,1,4
988,94,1,1,4
989,94,1,1,4
990,94,1,1,4
991,94,1,1,4
992,94,1,1,4
993,94,1,1,4
994,94,1,1,4
995,94,1,1,4
996,94,1,1,4
997,94,1,1,4
998,94,1,1,4
999,94,1,1,4
1000,94,1,1,4
1001,94,1,1,4
1002,94,1,1,4
1003,94,0,2,4
1004,94,0,2,4
1005,94,0,2,4
1006,94,0,2,4
1007,94,0,2,4
1008,94,0,2,4
1009,94,0,2,4
1010,94,0,2,4
1011,94,0,2,4
1012,94,0,2,4
1013,94,0,2,4
1014,94,0,2,4
1015,94,0,2,4
1016,94,0,2,4
1017,94,0,2,4
1018,94,0,2,4
1019,94,0,2,4
1020,94,0,2,4
1021,94,0,2,4
1022,94,0,2,4
1023,94,0,2,4
1024,94,0,2,4
1025,94,0,2,4
1026,94,0,2,4
1027,94,0,2,4
1028,94,0,2,4
1029,94,0,2,4
1030,94,0,2,4
1031,94,0,2,4
1032,94,0,2,4
1033,94,0,2,4
1034,94,0,2,4
1035,94,0,2,4
1036,94,0,2,4
1037,94,0,2,4
1038,94,0,2,4
1039,94,0,2,4
1040,94,0,2,4
1041,94,0,2,4
1042,94,0,2,4
1043,94,0,2,4
1044,94,0,2,4
1045,94,0,2,4
1046,94,0,2,4
1047,94,0,2,4
1048,94,0,2,4
1049,94,0,2,4
1050,94,0,2,4
1051,94,0,2,4
1052,94,0,2,4
1053,94,0,2,4
1054,94,0,2,4
1055,94,0,2,4
1056,94,0,2,4
1057,94,0,2,4
1058,94,0,2,4
1059,94,0,2,4
1060,94,0,2,4
1061,94,0,2,4
1062,94,0,2,4
1063,94,0,2,4
1064,94,0,2,4
1065,94,0,2,4
1066,94,0,2,4
1067,94,0,2,4
1068,94,0,2,4
1069,94,0,2,4
1070,94,0,2,4
1071,94,0,2,4
1072,94,0,2,4
1073,94,0,2,4
1074,94,0,2,4
1075,94,0,2,4
1076,94,0,2,4
1077,94,0,2,4
1078,94,0,2,4
1079,94,0,2,4
1080,94,0,2,4
1081,94,0,2,4
1082,94,0,2,4
1083,94,0,2,4
1084,94,0,2,4
1085,94,0,2,4
1086,94,0,2,4
1087,94,0,2,4
1088,94,0,2,4
1089,94,0,2,4
1090,94,0,2,4
1091,94,0,2,4
1092,94,0,2,4
1093,94,0,2,4
1094,94,0,2,4
1095,94,0,2,4
1096,94,0,2,4
1097,94,0,2,4
1098,94,0,2,4
1099,94,0,2,4
1100,94,0,2,4
1101,94,0,2,4
1102,94,0,2,4
1103,94,0,2,4
1104,94,0,2,4
1105,94,0,2,4
1106,94,0,2,4
1107,94,0,2,4
1108,94,0,2,4
1109,94,0,2,4
1110,94,0,2,4
1111,94,0,2,4
1112,94,0,2,4
1113,94,0,2,4
1114,94,0,2,4
1115,94,0,2,4
1116,94,0,2,4
1117,94,0,2,4
1118,94,0,2,4
1119,94,0,2,4
1120,94,0,2,4
1121,94,0,2,4
1122,94,0,2,4
1123,94,0,2,4
1124,94,0,2,4
1125,94,0,2,4
1126,94,0,2,4
1127,94,0,2,4
1128,94,0,2,4
1129,94,0,2,4
1130,94,0,2,4
1131,94,0,2,4
1132,94,0,2,4
1133,94,0,2,4
1134,94,0,2,4
1135,94,0,2,4
1136,94,0,2,4
1137,94,0,2,4
1138,94,0,2,4
1139,94,0,2,4
1140,94,0,2,4
1141,94,0,2,4
1142,94,0,2,4
1143,94,0,2,4
1144,94,0,2,4
1145,93,1,2,4
1146,93,1,2,4
1147,93,1,2,4
1148,93,1,2,4
1149,93,1,2,4
1150,93,1,2,4
1151,93,1,2,4
1152,93,1,2,4
1153,93,1,2,4
1154,93,1,2,4
1155,93,1,2,4
1156,93,1,2,4
1157,93,1,2,4
1158,93,1,1,5
1159,93,1,1,5
1160,93,1,1,5
1161,93,1,1,5
1162,93,1,1,5
1163,93,1,1,5
1164,93,1,1,5
1165,93,1,1,5
1166,93,1,1,5
1167,93,1,1,5
1168,93,1,1,5
1169,93,1,1,5
1170,93,1,1,5
1171,93,1,1,5
1172,93,1,1,5
1173,93,1,1,5
1174,93,1,1,5
1175,93,1,1,5
1176,93,1,1,5
1177,93,1,1,5
1178,93,1,1,5
1179,93,1,1,5
1180,93,1,1,5
1181,93,1,1,5
1182,93,1,1,5
1183,93,1,1,5
1184,93,1,1,5
1185,93,1,1,5
1186,93,1,1,5
1187,93,1,1,5
1188,93,1,1,5
1189,93,1,1,5
1190,93,1,1,5
1191,93,1,1,5
1192,93,1,1,5
1193,93,1,1,5
1194,93,1,1,5
1195,93,1,1,5
1196,93,1,1,5
1197,93,1,1,5
1198,93,1,1,5
1199,93,1,1,5
1200,93,1,1,5
1201,93,1,1,5
1202,93,1,1,5
1203,93,1,1,5
1204,93,1,0,6
1205,93,1,0,6
1206,93,1,0,6
1207,93,1,0,6
1208,93,1,0,6
1209,93,1,0,6
1210,93,1,0,6
1211,93,1,0,6
1212,93,1,0,6
1213,93,1,0,6
1214,93,1,0,6
1215,93,1,0,6
1216,93,1,0,6
1217,93,1,0,6
1218,93,1,0,6
1219,93,1,0,6
1220,93,1,0,6
1221,93,1,0,6
1222,93,1,0,6
1223,93,1,0,6
1224,93,1,0,6
1225,93,1,0,6
1226,93,1,0,6
1227,93,1,0,6
1228,93,1,0,6
1229,93,1,0,6
1230,93,1,0,6
1231,93,1,0,6
1232,93,1,0,6
1233,93,1,0,6
1234,93,1,0,6
1235,93,1,0,6
1236,93,1,0,6
1237,93,1,0,6
1238,93,1,0,6
1239,93,1,0,6
1240,93,1,0,6
1241,93,1,0,6
1242,93,1,0,6
1243,93,1,0,6
1244,93,1,0,6
1245,93,1,0,6
1246,93,1,0,6
1247,93,1,0,6
1248,93,1,0,6
1249,93,1,0,6
1250,93,1,0,6
1251,93,1,0,6
1252,93,1,0,6
1253,93,1,0,6
1254,93,1,0,6
1255,93,1,0,6
1256,93,1,0,6
1257,93,1,0,6
1258,93,1,0,6
1259,93,1,0,6
1260,93,1,0,6
1261,93,1,0,6
1262,93,1,0,6
1263,93,1,0,6
1264,93,1,0,6
1265,93,1,0,6
1266,93,1,0,6
1267,93,1,0,6
1268,93,1,0,6
1269,93,1,0,6
1270,93,1,0,6
1271,93,1,0,6
1272,93,1,0,6
1273,93,1,0,6
1274,93,1,0,6
1275,93,1,0,6
1276,93,1,0,6
1277,93,1,0,6
1278,93,1,0,6
1279,93,1,0,6
1280,93,1,0,6
1281,93,1,0,6
1282,93,1,0,6
1283,93,1,0,6
1284,93,1,0,6
1285,93,1,0,6
1286,93,1,0,6
1287,93,1,0,6
1288,93,1,0,6
1289,93,1,0,6
1290,93,1,0,6
1291,93,1,0,6
1292,93,1,0,6
1293,93,1,0,6
1294,93,1,0,6
1295,93,1,0,6
1296,93,1,0,6
1297,93,1,0,6
1298,93,1,0,6
1299,93,1,0,6
1300,93,1,0,6
1301,93,1,0,6
1302,93,1,0,6
1303,93,1,0,6
1304,93,1,0,6
1305,93,1,0,6
1306,93,1,0,6
1307,93,1,0,6
1308,93,1,0,6
1309,93,1,0,6
1310,93,1,0,6
1311,93,1,0,6
1312,93,1,0,6
1313,93,1,0,6
1314,93,1,0,6
1315,93,1,0,6
1316,93,1,0,6
1317,93,1,0,6
1318,93,1,0,6
1319,93,1,0,6
1320,93,1,0,6
1321,93,1,0,6
1322,93,1,0,6
1323,93,1,0,6
1324,93,1,0,6
1325,93,1,0,6
1326,93,1,0,6
1327,93,1,0,6
1328,93,1,0,6
1329,93,1,0,6
1330,93,1,0,6
1331,93,1,0,6
1332,93,1,0,6
1333,93,1,0,6
1334,93,1,0,6
1335,93,1,0,6
1336,93,1,0,6
1337,93,1,0,6
1338,93,1,0,6
1339,93,1,0,6
1340,93,1,0,6
1341,93,1,0,6
1342,93,1,0,6
1343,93,1,0,6
1344,93,1,0,6
1345,93,1,0,6
1346,93,0,1,6
1347,93,0,1,6
1348,93,0,1,6
1349,93,0,1,6
1350,93,0,1,6
1351,93,0,1,6
1352,93,0,1,6
1353,93,0,1,6
1354,93,0,1,6
1355,93,0,1,6
1356,93,0,1,6
1357,92,1,1,6
1358,92,1,1,6
1359,92,1,1,6
1360,90,3,1,6
1361,90,3,1,6
1362,90,3,1,6
1363,90,3,1,6
1364,90,3,1,6
1365,90,3,1,6
1366,90,3,1,6
1367,90,3,1,6
1368,90,3,1,6
1369,90,3,1,6
1370,90,3,1,6
1371,89,4,1,6
1372,89,4,1,6
1373,89,4,1,6
1374,89,4,1,6
1375,89,4,1,6
1376,89,4,1,6
1377,89,4,1,6
1378,89,4,1,6
1379,89,4,1,6
1380,89,4,1,6
1381,89,4,1,6
1382,89,4,1,6
1383,89,4,1,6
1384,89,4,1,6
1385,89,4,1,6
1386,89,4,1,6
1387,89,4,1,6
1388,89,4,1,6
1389,89,4,1,6
1390,89,4,1,6
1391,89,4,1,6
1392,89,4,1,6
1393,89,4,1,6
1394,89,4,1,6
1395,89,4,1,6
1396,89,4,1,6
1397,89,4,1,6
1398,89,4,1,6
1399,89,4,1,6
1400,89,4,1,6
1401,89,4,1,6
1402,89,4,1,6
1403,89,4,1,6
1404,89,4,1,6
1405,89,4,1,6
1406,89,4,1,6
1407,89,4,1,6
1408,89,4,1,6
1409,89,4,1,6
1410,89,4,1,6
1411,89,4,1,6
1412,89,4,1,6
1413,89,4,1,6
1414,89,4,1,6
1415,89,4,1,6
1416,89,4,1,6
1417,89,4,1,6
1418,89,4,1,6
1419,89,4,1,6
1420,89,4,1,6
1421,89,4,1,6
1422,89,4,1,6
1423,89,4,1,6
1424,89,4,1,6
1425,89,4,1,6
1426,89,4,1,6
1427,89,4,1,6
1428,89,4,1,6
1429,89,4,1,6
1430,89,4,1,6
1431,89,4,1,6
1432,89,4,1,6
1433,89,4,1,6
1434,89,4,1,6
1435,89,4,1,6
1436,89,4,1,6
1437,89,4,1,6
1438,89,4,1,6
1439,89,4,1,6
1440,89,4,1,6
1441,89,4,1,6
1442,89,4,1,6
1443,89,4,1,6
1444,89,4,1,6
1445,89,4,1,6
1446,89,4,1,6
1447,89,4,1,6
1448,89,4,1,6
1449,89,4,1,6
1450,89,4,1,6
1451,89,4,1,6
1452,89,4,1,6
1453,89,4,1,6
1454,89,4,1,6
1455,89,4,1,6
1456,89,4,1,6
1457,89,4,1,6
1458,89,4,1,6
1459,89,4,1,6
1460,89,4,1,6
1461,89,4,1,6
1462,89,4,1,6
1463,89,4,1,6
1464,89,4,1,6
1465,89,4,1,6
1466,89,4,1,6
1467,89,4,1,6
1468,89,4,1,6
1469,89,4,1,6
1470,89,4,1,6
1471,89,4,1,6
1472,89,4,1,6
1473,89,4,1,6
1474,89,4,1,6
1475,89,4,1,6
1476,89,4,1,6
1477,89,4,1,6
1478,89,4,1,6
1479,89,4,1,6
1480,89,4,1,6
1481,89,4,1,6
1482,89,4,1,6
1483,89,4,1,6
1484,89,4,1,6
1485,89,4,1,6
1486,89,4,1,6
1487,89,4,1,6
1488,89,4,1,6
1489,89,4,1,6
1490,89,4,1,6
1491,89,4,1,6
1492,89,4,1,6
1493,89,4,1,6
1494,89,4,1,6
1495,89,4,1,6
1496,89,4,1,6
1497,89,4,1,6
1498,89,4,1,6
1499,89,4,1,6
1500,89,4,1,6
1501,89,4,1,6
1502,89,4,1,6
1503,89,4,1,6
1504,89,4,1,6
1505,89,4,1,6
1506,89,4,1,6
1507,89,4,1,6
1508,89,4,1,6
1509,89,4,1,6
1510,89,4,1,6
1511,89,4,1,6
1512,89,4,1,6
1513,89,4,1,6
1514,89,4,1,6
1515,89,4,1,6
1516,89,4,1,6
1517,89,4,1,6
1518,89,4,1,6
1519,89,4,1,6
1520,89,4,1,6
1521,89,4,1,6
1522,89,4,1,6
1523,89,4,1,6
1524,89,4,1,6
1525,89,4,1,6
1526,89,4,1,6
1527,89,4,1,6
1528,89,4,1,6
1529,89,4,1,6
1530,89,4,1,6
1531,89,4,1,6
1532,89,4,1,6
1533,89,4,1,6
1534,89,4,1,6
1535,89,4,1,6
1536,89,4,1,6
1537,89,4,1,6
1538,89,4,1,6
1539,89,4,1,6
1540,89,4,1,6
1541,89,4,1,6
1542,89,4,1,6
1543,89,4,1,6
1544,89,4,1,6
1545,89,4,1,6
1546,89,4,1,6
1547,89,4,0,7
1548,89,4,0,7
1549,89,4,0,7
1550,89,4,0,7
1551,89,4,0,7
1552,89,4,0,7
1553,89,4,0,7
1554,89,4,0,7
1555,89,4,0,7
1556,89,4,0,7
1557,89,4,0,7
1558,89,3,1,7
1559,89,3,1,7
1560,89,3,1,7
1561,89,1,3,7
1562,89,1,3,7
1563,89,1,3,7
1564,89,1,3,7
1565,89,1,3,7
1566,89,1,3,7
1567,89,1,3,7
1568,89,1,3,7
1569,89,1,3,7
1570,89,1,3,7
1571,89,1,3,7
1572,89,0,4,7
1573,89,0,4,7
1574,89,0,4,7
1575,89,0,4,7
1576,89,0,4,7
1577,88,1,4,7
1578,88,1,4,7
1579,88,1,4,7
1580,88,1,4,7
1581,88,1,4,7
1582,88,1,4,7
1583,88,1,4,7
1584,88,1,4,7
1585,88,1,4,7
1586,88,1,4,7
1587,88,1,4,7
1588,88,1,4,7
1589,88,1,4,7
1590,88,1,4,7
1591,88,1,4,7
1592,88,1,4,7
1593,88,1,4,7
1594,88,1,4,7
1595,88,1,4,7
1596,88,1,4,7
1597,88,1,4,7
1598,88,1,4,7
1599,88,1,4,7
1600,88,1,4,7
1601,88,1,4,7
1602,88,1,4,7
1603,88,1,4,7
1604,88,1,4,7
1605,88,1,4,7
1606,88,1,4,7
1607,88,1,4,7
1608,88,1,4,7
1609,88,1,4,7
1610,88,1,4,7
1611,88,1,4,7
1612,88,1,4,7
1613,88,1,4,7
1614,88,1,4,7
1615,88,1,4,7
1616,88,1,4,7
1617,88,1,4,7
1618,88,1,4,7
1619,88,1,4,7
1620,88,1,4,7
1621,88,1,4,7
1622,88,1,4,7
1623,88,1,4,7
1624,88,1,4,7
1625,88,1,4,7
1626,88,1,4,7
1627,88,1,4,7
1628,88,1,4,7
1629,88,1,4,7
1630,88,1,4,7
1631,88,1,4,7
1632,88,1,4,7
1633,88,1,4,7
1634,88,1,4,7
1635,87,2,4,7
1636,87,2,4,7
1637,87,2,4,7
1638,87,2,4,7
1639,86,3,4,7
1640,86,3,4,7
1641,86,3,4,7
1642,86,3,4,7
1643,86,3,4,7
1644,86,3,4,7
1645,86,3,4,7
1646,85,4,4,7
1647,85,4,4,7
1648,85,4,4,7
1649,85,4,4,7
1650,85,4,4,7
1651,85,4,4,7
1652,85,4,4,7
1653,85,4,4,7
1654,85,4,4,7
1655,85,4,4,7
1656,85,4,4,7
1657,85,4,4,7
1658,85,4,4,7
1659,85,4,4,7
1660,85,4,4,7
1661,85,4,4,7
1662,85,4,4,7
1663,85,4,4,7
1664,85,4,4,7
1665,85,4,4,7
1666,85,4,4,7
1667,85,4,4,7
1668,85,4,4,7
1669,85,4,4,7
1670,85,4,4,7
1671,85,4,4,7
1672,85,4,4,7
1673,85,4,4,7
1674,85,4,4,7
1675,85,4,4,7
1676,85,4,4,7
1677,85,4,4,7
1678,85,4,4,7
1679,85,4,4,7
1680,85,4,4,7
1681,85,4,4,7
1682,85,4,4,7
1683,85,4,4,7
1684,85,4,4,7
1685,85,4,4,7
1686,85,4,4,7
1687,85,4,4,7
1688,85,4,4,7
1689,85,4,4,7
1690,85,4,4,7
1691,85,4,4,7
1692,85,4,4,7
1693,85,4,4,7
1694,85,4,4,7
1695,85,4,4,7
1696,85,4,4,7
1697,85,4,4,7
1698,85,4,4,7
1699,85,4,4,7
1700,85,4,4,7
1701,85,4,4,7
1702,85,4,4,7
1703,85,4,4,7
1704,85,4,4,7
1705,85,4,4,7
1706,85,4,4,7
1707,85,4,4,7
1708,85,4,4,7
1709,85,4,4,7
1710,84,5,4,7
1711,84,5,4,7
1712,84,5,4,7
1713,84,5,4,7
1714,84,5,4,7
1715,84,5,4,7
1716,84,5,4,7
1717,84,5,4,7
1718,84,5,4,7
1719,84,5,4,7
1720,84,5,4,7
1721,84,5,4,7
1722,84,5,4,7
1723,84,5,4,7
1724,84,5,4,7
1725,84,5,4,7
1726,84,5,4,7
1727,84,5,4,7
1728,84,5,4,7
1729,84,5,4,7
1730,84,5,4,7
1731,84,5,4,7
1732,84,5,4,7
1733,84,5,4,7
1734,84,5,4,7
1735,84,5,4,7
1736,84,5,4,7
1737,84,5,4,7
1738,84,5,4,7
1739,84,5,4,7
1740,84,5,4,7
1741,84,5,4,7
1742,84,5,4,7
1743,84,5,4,7
1744,84,5,4,7
1745,84,5,4,7
1746,84,5,4,7
1747,84,5,4,7
1748,84,5,4,7
1749,84,5,4,7
1750,84,5,4,7
1751,84,5,4,7
1752,84,5,4,7
1753,84,5,4,7
1754,84,5,4,7
1755,84,5,4,7
1756,84,5,4,7
1757,84,5,4,7
1758,84,5,4,7
1759,84,5,3,8
1760,84,5,3,8
1761,84,5,3,8
1762,84,5,1,10
1763,84,5,1,10
1764,84,5,1,10
1765,84,5,1,10
1766,84,5,1,10
1767,84,5,1,10
1768,84,5,1,10
1769,84,5,1,10
1770,84,5,1,10
1771,84,5,1,10
1772,84,5,1,10
1773,84,5,0,11
1774,84,5,0,11
1775,84,5,0,11
1776,84,5,0,11
1777,84,5,0,11
1778,84,4,1,11
1779,84,4,1,11
1780,83,5,1,11
1781,83,5,1,11
1782,83,5,1,11
1783,83,5,1,11
1784,83,5,1,11
1785,83,5,1,11
1786,83,5,1,11
1787,83,5,1,11
1788,83,5,1,11
1789,83,5,1,11
1790,83,5,1,11
1791,83,5,1,11
1792,83,5,1,11
1793,83,5,1,11
1794,83,5,1,11
1795,83,5,1,11
1796,83,5,1,11
1797,83,5,1,11
1798,82,6,1,11
1799,82,6,1,11
1800,82,6,1,11
1801,82,6,1,11
1802,82,6,1,11
1803,82,6,1,11
1804,82,6,1,11
1805,82,6,1,11
1806,82,6,1,11
1807,82,6,1,11
1808,82,6,1,11
1809,82,6,1,11
1810,82,6,1,11
1811,82,6,1,11
1812,82,6,1,11
1813,82,6,1,11
1814,82,6,1,11
1815,82,6,1,11
1816,82,6,1,11
1817,82,6,1,11
1818,82,6,1,11
1819,82,6,1,11
1820,82,6,1,11
1821,82,6,1,11
1822,82,6,1,11
1823,82,6,1,11
1824,82,6,1,11
1825,82,6,1,11
1826,82,6,1,11
1827,82,6,1,11
1828,82,6,1,11
1829,82,6,1,11
1830,82,6,1,11
1831,82,6,1,11
1832,82,6,1,11
1833,82,6,1,11
1834,82,6,1,11
1835,82,6,1,11
1836,82,5,2,11
1837,82,5,2,11
1838,82,5,2,11
1839,82,5,2,11
1840,81,5,3,11
1841,81,5,3,11
1842,81,5,3,11
1843,81,5,3,11
1844,81,5,3,11
1845,81,5,3,11
1846,81,5,3,11
1847,81,4,4,11
1848,81,4,4,11
1849,81,4,4,11
1850,81,4,4,11
1851,81,4,4,11
1852,81,4,4,11
1853,81,4,4,11
1854,81,4,4,11
1855,81,4,4,11
1856,81,4,4,11
1857,81,4,4,11
1858,81,4,4,11
1859,81,4,4,11
1860,81,4,4,11
1861,81,4,4,11
1862,81,4,4,11
1863,81,4,4,11
1864,81,4,4,11
1865,81,4,4,11
1866,81,4,4,11
1867,81,4,4,11
1868,81,4,4,11
1869,81,4,4,11
1870,81,4,4,11
1871,81,4,4,11
1872,81,4,4,11
1873,81,4,4,11
1874,81,4,4,11
1875,81,4,4,11
1876,81,4,4,11
1877,81,4,4,11
1878,81,4,4,11
1879,81,4,4,11
1880,81,4,4,11
1881,81,4,4,11
1882,81,4,4,11
1883,81,4,4,11
1884,81,4,4,11
1885,81,4,4,11
1886,81,4,4,11
1887,81,4,4,11
1888,81,4,4,11
1889,81,4,4,11
1890,81,4,4,11
1891,80,5,4,11
1892,80,5,4,11
1893,80,5,4,11
1894,80,5,4,11
1895,79,6,4,11
1896,79,6,4,11
1897,79,6,4,11
1898,79,6,4,11
1899,79,6,4,11
1900,79,6,4,11
1901,79,6,4,11
1902,79,6,4,11
1903,79,6,4,11
1904,79,6,4,11
1905,79,6,4,11
1906,79,6,4,11
1907,79,6,4,11
1908,79,6,4,11
1909,79,6,4,11
1910,79,6,4,11
1911,79,5,5,11
1912,78,6,5,11
1913,78,6,5,11
1914,78,6,5,11
1915,78,6,5,11
1916,78,6,5,11
1917,78,6,5,11
1918,78,6,5,11
1919,78,6,5,11
1920,78,6,5,11
1921,78,6,5,11
1922,77,7,5,11
1923,77,7,5,11
1924,77,7,5,11
1925,77,7,5,11
1926,77,7,5,11
1927,77,7,5,11
1928,77,7,5,11
1929,77,7,5,11
1930,77,7,5,11
1931,77,7,5,11
1932,77,7,5,11
1933,77,7,5,11
1934,77,7,5,11
1935,77,7,5,11
1936,77,7,5,11
1937,77,7,5,11
1938,77,7,5,11
1939,77,7,5,11
1940,77,7,5,11
1941,77,7,5,11
1942,77,7,5,11
1943,77,7,5,11
1944,77,7,5,11
1945,77,7,5,11
1946,77,7,5,11
1947,77,7,5,11
1948,77,7,5,11
1949,77,7,5,11
1950,77,7,5,11
1951,77,7,5,11
1952,77,7,5,11
1953,77,7,5,11
1954,77,7,5,11
1955,77,7,5,11
1956,77,7,5,11
1957,77,7,5,11
1958,76,8,5,11
1959,75,9,5,11
1960,75,9,5,11
1961,75,9,5,11
1962,75,9,5,11
1963,75,9,5,11
1964,75,9,5,11
1965,75,9,5,11
1966,74,10,5,11
1967,74,10,5,11
1968,74,10,5,11
1969,74,10,5,11
1970,74,10,5,11
1971,74,10,5,11
1972,74,10,5,11
1973,74,10,5,11
1974,74,10,5,11
1975,74,10,5,11
1976,74,10,5,11
1977,74,10,5,11
1978,74,10,5,11
1979,74,10,4,12
1980,74,10,4,12
1981,74,9,5,12
1982,74,9,5,12
1983,74,9,5,12
1984,74,9,5,12
1985,74,9,5,12
1986,74,9,5,12
1987,74,9,5,12
1988,74,9,5,12
1989,74,9,5,12
1990,74,9,5,12
1991,74,9,5,12
1992,74,9,5,12
1993,74,9,5,12
1994,73,10,5,12
1995,73,10,5,12
1996,73,10,5,12
1997,73,10,5,12
1998,73,10,5,12
1999,73,9,6,12
2000,73,9,6,12
