"tick","susceptible","exposed","infectious","recovered"
0,99,1,0,0
1,99,1,0,0
2,99,1,0,0
3,99,1,0,0
4,99,1,0,0
5,99,1,0,0
6,99,1,0,0
7,99,1,0,0
8,99,1,0,0
9,99,1,0,0
10,99,1,0,0
11,99,1,0,0
12,99,1,0,0
13,99,1,0,0
14,99,1,0,0
15,99,1,0,0
16,99,1,0,0
17,99,1,0,0
18,99,1,0,0
19,99,1,0,0
20,99,1,0,0
21,99,1,0,0
22,99,1,0,0
23,99,1,0,0
24,99,1,0,0
25,99,1,0,0
26,99,1,0,0
27,99,1,0,0
28,99,1,0,0
29,99,1,0,0
30,99,1,0,0
31,99,1,0,0
32,99,1,0,0
33,99,1,0,0
34,99,1,0,0
35,99,1,0,0
36,99,1,0,0
37,99,1,0,0
38,99,1,0,0
39,99,1,0,0
40,99,1,0,0
41,99,1,0,0
42,99,1,0,0
43,99,1,0,0
44,99,1,0,0
45,99,1,0,0
46,99,1,0,0
47,99,1,0,0
48,99,1,0,0
49,99,1,0,0
50,99,1,0,0
51,99,1,0,0
52,99,1,0,0
53,99,1,0,0
54,99,1,0,0
55,99,1,0,0
56,99,1,0,0
57,99,1,0,0
58,99,1,0,0
59,99,1,0,0
60,99,1,0,0
61,99,1,0,0
62,99,1,0,0
63,99,1,0,0
64,99,1,0,0
65,99,1,0,0
66,99,1,0,0
67,99,1,0,0
68,99,1,0,0
69,99,1,0,0
70,99,1,0,0
71,99,1,0,0
72,99,1,0,0
73,99,1,0,0
74,99,1,0,0
75,99,1,0,0
76,99,1,0,0
77,99,1,0,0
78,99,1,0,0
79,99,1,0,0
80,99,1,0,0
81,99,1,0,0
82,99,1,0,0
83,99,1,0,0
84,99,1,0,0
85,99,1,0,0
86,99,1,0,0
87,99,1,0,0
88,99,1,0,0
89,99,1,0,0
90,99,1,0,0
91,99,1,0,0
92,99,1,0,0
93,99,1,0,0
94,99,1,0,0
95,99,1,0,0
96,99,1,0,0
97,99,1,0,0
98,99,1,0,0
99,99,1,0,0
100,99,1,0,0
101,99,1,0,0
102,99,1,0,0
103,99,1,0,0
104,99,1,0,0
105,99,1,0,0
106,99,1,0,0
107,99,1,0,0
108,99,1,0,0
109,99,1,0,0
110,99,1,0,0
111,99,1,0,0
112,99,1,0,0
113,99,1,0,0
114,99,1,0,0
115,99,1,0,0
116,99,1,0,0
117,99,1,0,0
118,99,1,0,0
119,99,1,0,0
120,99,1,0,0
121,99,1,0,0
122,99,1,0,0
123,99,1,0,0
124,99,1,0,0
125,99,1,0,0
126,99,1,0,0
127,99,1,0,0
128,99,1,0,0
129,99,1,0,0
130,99,1,0,0
131,99,1,0,0
132,99,1,0,0
133,99,1,0,0
134,99,1,0,0
135,99,1,0,0
136,99,1,0,0
137,99,1,0,0
138,99,1,0,0
139,99,1,0,0
140,99,1,0,0
141,99,1,0,0
142,99,1,0,0
143,99,1,0,0
144,99,1,0,0
145,99,1,0,0
146,99,1,0,0
147,99,1,0,0
148,99,1,0,0
149,99,1,0,0
150,99,1,0,0
151,99,1,0,0
152,99,1,0,0
153,99,1,0,0
154,99,1,0,0
155,99,1,0,0
156,99,1,0,0
157,99,1,0,0
158,99,1,0,0
159,99,1,0,0
160,99,1,0,0
161,99,1,0,0
162,99,1,0,0
163,99,1,0,0
164,99,1,0,0
165,99,1,0,0
166,99,1,0,0
167,99,1,0,0
168,99,1,0,0
169,99,1,0,0
170,99,1,0,0
171,99,1,0,0
172,99,1,0,0
173,99,1,0,0
174,99,1,0,0
175,99,1,0,0
176,99,1,0,0
177,99,1,0,0
178,99,1,0,0
179,99,1,0,0
180,99,1,0,0
181,99,1,0,0
182,99,1,0,0
183,99,1,0,0
184,99,1,0,0
185,99,1,0,0
186,99,1,0,0
187,99,1,0,0
188,99,1,0,0
189,99,1,0,0
190,99,1,0,0
191,99,1,0,0
192,99,1,0,0
193,99,1,0,0
194,99,1,0,0
195,99,1,0,0
196,99,1,0,0
197,99,1,0,0
198,99,1,0,0
199,99,1,0,0
200,99,1,0,0
201,99,0,1,0
202,99,0,1,0
203,99,0,1,0
204,99,0,1,0
205,99,0,1,0
206,99,0,1,0
207,99,0,1,0
208,99,0,1,0
209,99,0,1,0
210,99,0,1,0
211,99,0,1,0
212,99,0,1,0
213,99,0,1,0
214,99,0,1,0
215,99,0,1,0
216,99,0,1,0
217,99,0,1,0
218,99,0,1,0
219,99,0,1,0
220,99,0,1,0
221,99,0,1,0
222,99,0,1,0
223,99,0,1,0
224,99,0,1,0
225,99,0,1,0
226,99,0,1,0
227,99,0,1,0
228,99,0,1,0
229,99,0,1,0
230,99,0,1,0
231,99,0,1,0
232,99,0,1,0
233,99,0,1,0
234,99,0,1,0
235,99,0,1,0
236,99,0,1,0
237,99,0,1,0
238,99,0,1,0
239,99,0,1,0
240,99,0,1,0
241,99,0,1,0
242,99,0,1,0
243,99,0,1,0
244,99,0,1,0
245,99,0,1,0
246,99,0,1,0
247,99,0,1,0
248,98,1,1,0
249,98,1,1,0
250,98,1,1,0
251,98,1,1,0
252,98,1,1,0
253,98,1,1,0
254,98,1,1,0
255,98,1,1,0
256,98,1,1,0
257,98,1,1,0
258,98,1,1,0
259,98,1,1,0
260,98,1,1,0
261,98,1,1,0
262,98,1,1,0
263,98,1,1,0
264,98,1,1,0
265,98,1,1,0
266,98,1,1,0
267,98,1,1,0
268,98,1,1,0
269,98,1,1,0
270,98,1,1,0
271,98,1,1,0
272,98,1,1,0
273,98,1,1,0
274,98,1,1,0
275,98,1,1,0
276,98,1,1,0
277,98,1,1,0
278,98,1,1,0
279,98,1,1,0
280,98,1,1,0
281,98,1,1,0
282,98,1,1,0
283,98,1,1,0
284,98,1,1,0
285,98,1,1,0
286,98,1,1,0
287,98,1,1,0
288,98,1,1,0
289,98,1,1,0
290,98,1,1,0
291,98,1,1,0
292,98,1,1,0
293,98,1,1,0
294,98,1,1,0
295,98,1,1,0
296,98,1,1,0
297,98,1,1,0
298,98,1,1,0
299,98,1,1,0
300,98,1,1,0
301,98,1,1,0
302,97,2,1,0
303,96,3,1,0
304,96,3,1,0
305,96,3,1,0
306,96,3,1,0
307,96,3,1,0
308,96,3,1,0
309,96,3,1,0
310,96,3,1,0
311,96,3,1,0
312,96,3,1,0
313,96,3,1,0
314,96,3,1,0
315,96,3,1,0
316,96,3,1,0
317,96,3,1,0
318,96,3,1,0
319,96,3,1,0
320,96,3,1,0
321,96,3,1,0
322,96,3,1,0
323,96,3,1,0
324,96,3,1,0
325,96,3,1,0
326,96,3,1,0
327,96,3,1,0
328,96,3,1,0
329,96,3,1,0
330,96,3,1,0
331,96,3,1,0
332,96,3,1,0
333,96,3,1,0
334,96,3,1,0
335,96,3,1,0
336,96,3,1,0
337,96,3,1,0
338,96,3,1,0
339,96,3,1,0
340,96,3,1,0
341,96,3,1,0
342,96,3,1,0
343,96,3,1,0
344,96,3,1,0
345,96,3,1,0
346,96,3,1,0
347,96,3,1,0
348,96,3,1,0
349,96,3,1,0
350,96,3,1,0
351,96,3,1,0
352,96,3,1,0
353,96,3,1,0
354,96,3,1,0
355,96,3,1,0
356,96,3,1,0
357,96,3,1,0
358,96,3,1,0
359,96,3,1,0
360,96,3,1,0
361,96,3,1,0
362,96,3,1,0
363,96,3,1,0
364,96,3,1,0
365,96,3,1,0
366,96,3,1,0
367,96,3,1,0
368,96,3,1,0
369,96,3,1,0
370,95,4,1,0
371,95,4,1,0
372,95,4,1,0
373,95,4,1,0
374,95,4,1,0
375,95,4,1,0
376,95,4,1,0
377,95,4,1,0
378,95,4,1,0
379,95,4,1,0
380,95,4,1,0
381,95,4,1,0
382,95,4,1,0
383,95,4,1,0
384,95,4,1,0
385,95,4,1,0
386,95,4,1,0
387,95,4,1,0
388,95,4,1,0
389,95,4,1,0
390,95,4,1,0
391,95,4,1,0
392,95,4,1,0
393,95,4,1,0
394,95,4,1,0
395,95,4,1,0
396,95,4,1,0
397,95,4,1,0
398,95,4,1,0
399,95,4,1,0
400,95,4,1,0
401,95,4,1,0
402,95,4,0,1
403,95,4,0,1
404,95,4,0,1
405,95,4,0,1
406,95,4,0,1
407,95,4,0,1
408,95,4,0,1
409,95,4,0,1
410,95,4,0,1
411,95,4,0,1
412,95,4,0,1
413,95,4,0,1
414,95,4,0,1
415,95,4,0,1
416,95,4,0,1
417,95,4,0,1
418,95,4,0,1
419,95,4,0,1
420,95,4,0,1
421,95,4,0,1
422,95,4,0,1
423,95,4,0,1
424,95,4,0,1
425,95,4,0,1
426,95,4,0,1
427,95,4,0,1
428,95,4,0,1
429,95,4,0,1
430,95,4,0,1
431,95,4,0,1
432,95,4,0,1
433,95,4,0,1
434,95,4,0,1
435,95,4,0,1
436,95,4,0,1
437,95,4,0,1
438,95,4,0,1
439,95,4,0,1
440,95,4,0,1
441,95,4,0,1
442,95,4,0,1
443,95,4,0,1
444,95,4,0,1
445,95,4,0,1
446,95,4,0,1
447,95,4,0,1
448,95,4,0,1
449,95,3,1,1
450,95,3,1,1
451,94,4,1,1
452,94,4,1,1
453,94,4,1,1
454,94,4,1,1
455,94,4,1,1
456,94,4,1,1
457,94,4,1,1
458,94,4,1,1
459,94,4,1,1
460,94,4,1,1
461,94,4,1,1
462,94,4,1,1
463,94,4,1,1
464,94,4,1,1
465,94,4,1,1
466,94,4,1,1
467,94,4,1,1
468,94,4,1,1
469,94,4,1,1
470,94,4,1,1
471,94,4,1,1
472,94,4,1,1
473,94,4,1,1
474,94,4,1,1
475,94,4,1,1
476,94,4,1,1
477,94,4,1,1
478,94,4,1,1
479,94,4,1,1
480,94,4,1,1
481,94,4,1,1
482,94,4,1,1
483,94,4,1,1
484,94,4,1,1
485,94,4,1,1
486,94,4,1,1
487,94,4,1,1
488,94,4,1,1
489,94,4,1,1
490,94,4,1,1
491,94,4,1,1
492,94,4,1,1
493,94,4,1,1
494,94,4,1,1
495,94,4,1,1
496,94,4,1,1
497,94,4,1,1
498,94,4,1,1
499,94,4,1,1
500,94,4,1,1
501,94,4,1,1
502,94,4,1,1
503,93,4,2,1
504,93,3,3,1
505,92,4,3,1
506,92,4,3,1
507,92,4,3,1
508,92,4,3,1
509,92,4,3,1
510,92,4,3,1
511,92,4,3,1
512,92,4,3,1
513,92,4,3,1
514,92,4,3,1
515,92,4,3,1
516,92,4,3,1
517,92,4,3,1
518,91,5,3,1
519,91,5,3,1
520,91,5,3,1
521,91,5,3,1
522,91,5,3,1
523,90,6,3,1
524,89,7,3,1
525,89,7,3,1
526,89,7,3,1
527,89,7,3,1
528,89,7,3,1
529,89,7,3,1
530,89,7,3,1
531,89,7,3,1
532,89,7,3,1
533,89,7,3,1
534,89,7,3,1
535,89,7,3,1
536,89,7,3,1
537,89,7,3,1
538,89,7,3,1
539,89,7,3,1
540,89,7,3,1
541,89,7,3,1
542,89,7,3,1
543,89,7,3,1
544,89,7,3,1
545,89,7,3,1
546,89,7,3,1
547,89,7,3,1
548,89,7,3,1
549,89,7,3,1
550,89,7,3,1
551,89,7,3,1
552,89,7,3,1
553,89,7,3,1
554,89,7,3,1
555,89,7,3,1
556,89,7,3,1
557,89,7,3,1
558,89,7,3,1
559,89,7,3,1
560,89,7,3,1
561,89,7,3,1
562,89,7,3,1
563,89,7,3,1
564,89,7,3,1
565,89,7,3,1
566,89,7,3,1
567,89,7,3,1
568,89,7,3,1
569,89,7,3,1
570,89,7,3,1
571,89,6,4,1
572,89,6,4,1
573,89,6,4,1
574,89,6,4,1
575,89,6,4,1
576,89,6,4,1
577,89,6,4,1
578,89,6,4,1
579,89,6,4,1
580,89,6,4,1
581,89,6,4,1
582,89,6,4,1
583,89,6,4,1
584,89,6,4,1
585,89,6,4,1
586,89,6,4,1
587,89,6,4,1
588,89,6,4,1
589,88,7,4,1
590,86,9,4,1
591,86,9,4,1
592,86,9,4,1
593,86,9,4,1
594,84,11,4,1
595,84,11,4,1
596,84,11,4,1
597,84,11,4,1
598,84,11,4,1
599,84,11,4,1
600,84,11,4,1
601,84,11,4,1
602,84,11,4,1
603,84,11,4,1
604,84,11,4,1
605,84,11,4,1
606,84,11,4,1
607,84,11,4,1
608,84,11,4,1
609,84,11,4,1
610,84,11,4,1
611,84,11,4,1
612,84,11,4,1
613,84,11,4,1
614,83,12,4,1
615,83,12,4,1
616,83,12,4,1
617,83,12,4,1
618,83,12,4,1
619,83,12,4,1
620,83,12,4,1
621,82,13,4,1
622,82,13,4,1
623,81,14,4,1
624,81,14,4,1
625,81,14,4,1
626,81,14,4,1
627,81,14,4,1
628,81,14,4,1
629,81,14,4,1
630,81,14,4,1
631,80,15,4,1
632,80,15,4,1
633,80,15,4,1
634,80,15,4,1
635,80,15,4,1
636,80,15,4,1
637,80,15,4,1
638,80,15,4,1
639,78,17,4,1
640,78,17,4,1
641,78,17,4,1
642,78,17,4,1
643,78,17,4,1
644,78,17,4,1
645,78,17,4,1
646,78,17,4,1
647,78,17,4,1
648,77,18,4,1
649,77,18,4,1
650,77,18,3,2
651,76,19,3,2
652,75,19,4,2
653,75,19,4,2
654,75,19,4,2
655,74,20,4,2
656,72,22,4,2
657,72,22,4,2
658,72,22,4,2
659,71,23,4,2
660,71,23,4,2
661,71,23,4,2
662,71,23,4,2
663,71,23,4,2
664,70,24,4,2
665,70,24,4,2
666,70,24,4,2
667,70,24,4,2
668,70,24,4,2
669,70,24,4,2
670,70,24,4,2
671,70,24,4,2
672,70,24,4,2
673,70,24,4,2
674,70,24,4,2
675,70,24,4,2
676,70,24,4,2
677,70,24,4,2
678,70,24,4,2
679,70,24,4,2
680,70,24,4,2
681,70,24,4,2
682,70,24,4,2
683,70,24,4,2
684,69,25,4,2
685,69,25,4,2
686,69,25,4,2
687,69,25,4,2
688,69,25,4,2
689,69,25,4,2
690,69,25,4,2
691,69,25,4,2
692,68,26,4,2
693,68,26,4,2
694,68,26,4,2
695,68,26,4,2
696,68,26,4,2
697,68,26,4,2
698,68,26,4,2
699,68,26,4,2
700,68,26,4,2
701,68,26,4,2
702,68,26,4,2
703,68,26,4,2
704,67,26,4,3
705,67,26,3,4
706,66,26,4,4
707,65,27,4,4
708,64,28,4,4
709,63,29,4,4
710,63,29,4,4
711,63,29,4,4
712,62,30,4,4
713,62,30,4,4
714,61,31,4,4
715,60,32,4,4
716,60,32,4,4
717,60,32,4,4
718,60,32,4,4
719,60,31,5,4
720,59,32,5,4
721,58,33,5,4
722,58,33,5,4
723,58,33,5,4
724,57,33,6,4
725,57,32,7,4
726,56,33,7,4
727,56,33,7,4
728,55,34,7,4
729,55,34,7,4
730,55,34,7,4
731,55,34,7,4
732,53,36,7,4
733,52,37,7,4
734,52,37,7,4
735,51,38,7,4
736,51,38,7,4
737,51,38,7,4
738,51,38,7,4
739,51,38,7,4
740,51,38,7,4
741,51,38,7,4
742,51,38,7,4
743,51,38,7,4
744,51,38,7,4
745,51,38,7,4
746,51,38,7,4
747,51,38,7,4
748,51,38,7,4
749,51,38,7,4
750,51,38,7,4
751,51,38,7,4
752,51,38,7,4
753,51,38,7,4
754,50,39,7,4
755,50,39,7,4
756,50,39,7,4
757,50,39,7,4
758,50,39,7,4
759,50,39,7,4
760,50,39,7,4
761,50,39,7,4
762,50,39,7,4
763,50,39,7,4
764,50,39,7,4
765,50,39,7,4
766,50,39,7,4
767,50,39,7,4
768,50,39,7,4
769,50,39,7,4
770,50,39,7,4
771,50,39,7,4
772,50,39,6,5
773,50,39,6,5
774,50,39,6,5
775,50,39,6,5
776,50,39,6,5
777,49,40,6,5
778,49,40,6,5
779,49,40,6,5
780,49,40,6,5
781,49,40,6,5
782,49,40,6,5
783,49,40,6,5
784,49,40,6,5
785,49,40,6,5
786,49,40,6,5
787,49,40,6,5
788,49,40,6,5
789,49,40,6,5
790,49,39,7,5
791,49,37,9,5
792,49,37,9,5
793,49,37,9,5
794,49,37,9,5
795,49,35,11,5
796,49,35,11,5
797,48,36,11,5
798,48,36,11,5
799,48,36,11,5
800,48,36,11,5
801,48,36,11,5
802,48,36,11,5
803,48,36,11,5
804,48,36,11,5
805,48,36,11,5
806,48,36,11,5
807,47,37,11,5
808,47,37,11,5
809,47,37,11,5
810,47,37,11,5
811,47,37,11,5
812,47,37,11,5
813,47,37,11,5
814,47,37,11,5
815,47,36,12,5
816,47,36,12,5
817,47,36,12,5
818,47,36,12,5
819,47,36,12,5
820,47,36,12,5
821,47,36,12,5
822,47,35,13,5
823,47,35,13,5
824,47,34,14,5
825,47,34,14,5
826,47,34,14,5
827,47,34,14,5
828,46,35,14,5
829,46,35,14,5
830,46,35,14,5
831,46,35,14,5
832,46,34,15,5
833,46,34,15,5
834,45,35,15,5
835,45,35,15,5
836,44,36,15,5
837,44,36,15,5
838,43,37,15,5
839,43,37,15,5
840,43,35,17,5
841,43,35,17,5
842,43,35,17,5
843,43,35,17,5
844,43,35,17,5
845,42,36,17,5
846,41,37,17,5
847,41,37,17,5
848,41,37,17,5
849,41,36,18,5
850,41,36,18,5
851,41,36,18,5
852,41,35,19,5
853,41,34,19,6
854,41,34,19,6
855,41,34,19,6
856,41,33,20,6
857,41,31,22,6
858,41,31,22,6
859,41,31,22,6
860,41,30,23,6
861,41,30,23,6
862,41,30,23,6
863,41,30,23,6
864,41,30,23,6
865,41,29,24,6
866,41,29,24,6
867,41,29,24,6
868,41,29,24,6
869,41,29,24,6
870,41,29,24,6
871,41,29,24,6
872,41,29,24,6
873,40,30,24,6
874,40,30,24,6
875,39,31,24,6
876,38,32,24,6
877,38,32,24,6
878,38,32,24,6
879,38,32,24,6
880,38,32,24,6
881,38,32,24,6
882,38,32,24,6
883,37,33,24,6
884,36,34,24,6
885,36,33,25,6
886,36,33,25,6
887,36,33,25,6
888,36,33,25,6
889,36,33,25,6
890,36,33,25,6
891,36,33,25,6
892,35,34,25,6
893,35,33,26,6
894,35,33,26,6
895,34,34,26,6
896,34,34,26,6
897,33,35,26,6
898,33,35,26,6
899,33,35,26,6
900,33,35,26,6
901,33,35,26,6
902,33,35,26,6
903,33,35,26,6
904,33,35,26,6
905,31,36,26,7
906,31,36,26,7
907,31,35,26,8
908,31,34,27,8
909,31,33,28,8
910,30,33,29,8
911,30,33,29,8
912,30,33,29,8
913,30,32,30,8
914,30,32,30,8
915,30,31,31,8
916,30,30,32,8
917,30,30,32,8
918,30,30,32,8
919,29,31,32,8
920,29,31,31,9
921,29,30,32,9
922,29,29,33,9
923,29,29,33,9
924,29,29,33,9
925,29,28,33,10
926,29,28,32,11
927,29,27,33,11
928,29,27,33,11
929,28,27,34,11
930,28,27,34,11
931,28,27,34,11
932,28,27,34,11
933,28,25,36,11
934,28,24,37,11
935,28,24,37,11
936,28,23,38,11
937,28,23,38,11
938,27,24,38,11
939,27,24,38,11
940,27,24,38,11
941,27,24,38,11
942,27,24,38,11
943,27,24,38,11
944,27,24,38,11
945,27,24,38,11
946,26,25,38,11
947,26,25,38,11
948,26,25,38,11
949,26,25,38,11
950,26,25,38,11
951,26,25,38,11
952,26,25,38,11
953,26,25,38,11
954,25,26,38,11
955,25,25,39,11
956,24,26,39,11
957,24,26,39,11
958,23,27,39,11
959,23,27,39,11
960,23,27,39,11
961,22,28,39,11
962,22,28,39,11
963,22,28,39,11
964,22,28,39,11
965,22,28,39,11
966,21,29,39,11
967,21,29,39,11
968,20,30,39,11
969,20,30,39,11
970,20,30,39,11
971,20,30,39,11
972,20,30,39,11
973,20,30,39,11
974,20,30,39,11
975,20,30,39,11
976,20,30,39,11
977,20,30,39,11
978,20,29,40,11
979,20,29,40,11
980,20,29,40,11
981,20,29,40,11
982,19,30,40,11
983,19,30,40,11
984,19,30,40,11
985,19,30,40,11
986,19,30,40,11
987,19,30,40,11
988,19,30,40,11
989,19,30,40,11
990,19,30,40,11
991,19,30,39,12
992,19,30,37,14
993,19,30,37,14
994,19,30,37,14
995,18,31,37,14
996,17,32,35,16
997,16,33,35,16
998,16,32,36,16
999,16,32,36,16
1000,16,32,36,16
1001,16,32,36,16
1002,16,32,36,16
1003,16,32,36,16
1004,16,32,36,16
1005,16,32,36,16
1006,16,32,36,16
1007,16,32,36,16
1008,16,31,37,16
1009,16,31,37,16
1010,16,31,37,16
1011,16,31,37,16
1012,16,31,37,16
1013,16,31,37,16
1014,16,31,37,16
1015,16,31,37,16
1016,16,31,36,17
1017,16,31,36,17
1018,16,31,36,17
1019,16,31,36,17
1020,15,32,36,17
1021,15,32,36,17
1022,15,32,36,17
1023,15,32,35,18
1024,15,32,35,18
1025,15,32,34,19
1026,15,32,34,19
1027,15,32,34,19
1028,15,32,34,19
1029,15,31,35,19
1030,15,31,35,19
1031,15,31,35,19
1032,14,32,35,19
1033,14,32,34,20
1034,14,32,34,20
1035,14,31,35,20
1036,14,31,35,20
1037,13,31,36,20
1038,13,31,36,20
1039,13,30,37,20
1040,13,30,37,20
1041,13,30,35,22
1042,12,31,35,22
1043,12,31,35,22
1044,12,31,35,22
1045,12,31,35,22
1046,12,30,36,22
1047,12,29,37,22
1048,12,29,37,22
1049,12,29,37,22
1050,12,29,36,23
1051,12,29,36,23
1052,12,29,36,23
1053,11,30,35,24
1054,11,30,34,25
1055,11,30,34,25
1056,11,30,34,25
1057,11,30,33,26
1058,10,31,31,28
1059,10,31,31,28
1060,10,31,31,28
1061,10,31,30,29
1062,10,31,30,29
1063,9,32,30,29
1064,9,32,30,29
1065,9,32,30,29
1066,9,32,29,30
1067,9,32,29,30
1068,9,32,29,30
1069,9,32,29,30
1070,9,32,29,30
1071,9,32,29,30
1072,9,32,29,30
1073,9,32,29,30
1074,9,31,30,30
1075,9,31,30,30
1076,8,31,31,30
1077,8,30,32,30
1078,8,30,32,30
1079,8,30,32,30
1080,8,30,32,30
1081,8,30,32,30
1082,8,30,32,30
1083,8,30,32,30
1084,8,29,33,30
1085,8,28,34,30
1086,8,28,33,31
1087,8,28,33,31
1088,8,28,33,31
1089,8,28,33,31
1090,8,28,33,31
1091,8,28,33,31
1092,8,28,33,31
1093,8,27,34,31
1094,8,27,33,32
1095,8,27,33,32
1096,8,26,34,32
1097,8,26,34,32
1098,8,25,35,32
1099,8,25,35,32
1100,8,25,35,32
1101,8,25,35,32
1102,8,25,35,32
1103,8,25,35,32
1104,8,25,35,32
1105,8,25,35,32
1106,8,23,36,33
1107,8,23,36,33
1108,8,23,35,34
1109,8,23,34,35
1110,8,23,33,36
1111,8,22,33,37
1112,8,22,33,37
1113,8,22,33,37
1114,8,22,32,38
1115,7,23,32,38
1116,7,23,31,39
1117,7,23,30,40
1118,7,23,30,40
1119,7,23,30,40
1120,7,22,31,40
1121,7,22,31,40
1122,7,22,30,41
1123,7,22,29,42
1124,7,22,29,42
1125,7,22,29,42
1126,7,22,28,43
1127,7,22,28,43
1128,7,22,27,44
1129,7,22,27,44
1130,7,21,27,45
1131,7,21,27,45
1132,7,21,27,45
1133,7,21,27,45
1134,7,21,25,47
1135,7,21,24,48
1136,7,21,24,48
1137,7,21,23,49
1138,7,21,23,49
1139,7,20,24,49
1140,7,20,24,49
1141,7,20,24,49
1142,7,20,24,49
1143,7,20,24,49
1144,6,21,24,49
1145,6,21,24,49
1146,6,21,24,49
1147,6,20,25,49
1148,6,20,25,49
1149,6,20,25,49
1150,6,20,25,49
1151,6,20,25,49
1152,6,20,25,49
1153,6,20,25,49
1154,6,20,25,49
1155,6,19,26,49
1156,6,19,25,50
1157,6,18,26,50
1158,6,18,26,50
1159,6,17,27,50
1160,6,17,27,50
1161,6,17,27,50
1162,6,16,28,50
1163,6,16,28,50
1164,6,16,28,50
1165,6,16,28,50
1166,6,16,28,50
1167,6,15,29,50
1168,6,15,29,50
1169,6,14,30,50
1170,6,14,30,50
1171,6,14,30,50
1172,6,14,30,50
1173,6,14,30,50
1174,6,14,30,50
1175,6,14,30,50
1176,6,14,30,50
1177,6,14,30,50
1178,6,14,30,50
1179,6,14,29,51
1180,6,14,29,51
1181,6,14,29,51
1182,6,14,29,51
1183,6,13,30,51
1184,6,13,30,51
1185,6,13,30,51
1186,6,13,30,51
1187,6,13,30,51
1188,6,13,30,51
1189,6,13,30,51
1190,6,13,30,51
1191,5,14,30,51
1192,5,14,30,51
1193,5,14,30,51
1194,5,14,30,51
1195,5,14,30,51
1196,5,13,31,51
1197,5,12,32,51
1198,5,11,33,51
1199,5,11,32,52
1200,5,11,32,52
1201,5,11,32,52
1202,5,11,32,52
1203,5,11,32,52
1204,5,11,32,52
1205,5,11,32,52
1206,5,11,32,52
1207,5,11,32,52
1208,5,11,32,52
1209,5,11,31,53
1210,5,11,31,53
1211,5,11,31,53
1212,5,11,31,53
1213,5,11,31,53
1214,5,11,31,53
1215,5,11,31,53
1216,5,11,31,53
1217,5,11,31,53
1218,5,11,31,53
1219,5,11,31,53
1220,5,11,31,53
1221,5,10,32,53
1222,5,10,32,53
1223,5,10,32,53
1224,5,10,32,53
1225,5,10,32,53
1226,5,10,32,53
1227,5,10,32,53
1228,5,10,32,53
1229,4,11,32,53
1230,4,11,31,54
1231,4,11,31,54
1232,4,11,31,54
1233,4,10,32,54
1234,4,10,32,54
1235,4,10,32,54
1236,4,10,31,55
1237,4,10,31,55
1238,4,9,31,56
1239,4,9,31,56
1240,4,9,30,57
1241,4,9,30,57
1242,4,9,30,57
1243,4,8,31,57
1244,4,8,31,57
1245,4,8,31,57
1246,4,8,31,57
1247,4,8,30,58
1248,4,8,29,59
1249,4,8,29,59
1250,4,8,29,59
1251,4,8,29,59
1252,4,8,29,59
1253,4,8,29,59
1254,4,7,30,59
1255,4,7,30,59
1256,4,7,30,59
1257,4,7,30,59
1258,4,7,30,59
1259,4,6,31,59
1260,4,6,31,59
1261,4,6,31,59
1262,4,6,31,59
1263,4,6,31,59
1264,4,5,32,59
1265,4,5,32,59
1266,4,5,32,59
1267,4,5,32,59
1268,4,5,32,59
1269,4,5,32,59
1270,4,5,32,59
1271,4,5,32,59
1272,4,5,32,59
1273,4,5,32,59
1274,4,5,32,59
1275,4,5,31,60
1276,4,5,31,60
1277,4,4,31,61
1278,4,4,30,62
1279,4,4,30,62
1280,4,4,30,62
1281,4,4,30,62
1282,4,4,30,62
1283,4,4,30,62
1284,4,4,30,62
1285,4,4,29,63
1286,4,4,28,64
1287,4,4,28,64
1288,4,4,28,64
1289,4,4,28,64
1290,4,4,28,64
1291,4,4,28,64
1292,4,4,28,64
1293,4,4,28,64
1294,4,4,27,65
1295,4,4,27,65
1296,4,4,27,65
1297,4,4,26,66
1298,4,4,26,66
1299,4,4,25,67
1300,4,4,25,67
1301,4,4,25,67
1302,4,4,25,67
1303,4,4,25,67
1304,4,4,25,67
1305,4,4,25,67
1306,4,4,25,67
1307,4,4,23,69
1308,4,4,23,69
1309,4,4,23,69
1310,4,4,23,69
1311,4,4,23,69
1312,4,4,22,70
1313,4,4,22,70
1314,4,4,22,70
1315,4,4,22,70
1316,4,3,23,70
1317,4,3,23,70
1318,4,3,23,70
1319,4,3,23,70
1320,4,3,23,70
1321,4,3,22,71
1322,4,3,22,71
1323,4,3,22,71
1324,4,3,22,71
1325,4,3,22,71
1326,4,3,22,71
1327,4,3,22,71
1328,4,3,22,71
1329,4,3,22,71
1330,4,3,22,71
1331,4,3,21,72
1332,4,3,21,72
1333,4,3,21,72
1334,4,3,21,72
1335,4,3,21,72
1336,4,3,21,72
1337,4,3,21,72
1338,4,3,21,72
1339,4,3,21,72
1340,4,3,20,73
1341,4,3,20,73
1342,4,3,20,73
1343,4,3,20,73
1344,4,3,20,73
1345,4,2,21,73
1346,4,2,21,73
1347,4,2,21,73
1348,4,2,20,74
1349,4,2,20,74
1350,4,2,20,74
1351,4,2,20,74
1352,4,2,20,74
1353,4,2,20,74
1354,4,2,20,74
1355,4,2,20,74
1356,4,2,19,75
1357,4,2,19,75
1358,4,2,18,76
1359,4,2,18,76
1360,4,2,17,77
1361,4,2,17,77
1362,4,2,17,77
1363,4,2,16,78
1364,4,2,16,78
1365,4,2,16,78
1366,4,2,16,78
1367,4,2,16,78
1368,4,2,15,79
1369,4,2,15,79
1370,4,2,14,80
1371,4,2,14,80
1372,4,2,14,80
1373,4,2,14,80
1374,4,2,14,80
1375,4,2,14,80
1376,4,2,14,80
1377,4,2,14,80
1378,4,2,14,80
1379,4,2,14,80
1380,4,2,14,80
1381,4,2,14,80
1382,4,2,14,80
1383,4,2,14,80
1384,4,2,13,81
1385,4,2,13,81
1386,4,2,13,81
1387,4,2,13,81
1388,4,2,13,81
1389,4,2,13,81
1390,4,2,13,81
1391,4,2,13,81
1392,4,1,14,81
1393,4,1,14,81
1394,4,1,14,81
1395,4,1,14,81
1396,4,1,14,81
1397,4,1,13,82
1398,4,1,12,83
1399,4,1,11,84
1400,4,1,11,84
1401,3,2,11,84
1402,3,2,11,84
1403,3,2,11,84
1404,3,2,11,84
1405,3,2,11,84
1406,3,2,11,84
1407,3,2,11,84
1408,3,2,11,84
1409,3,2,11,84
1410,3,2,11,84
1411,3,2,11,84
1412,3,2,11,84
1413,3,2,11,84
1414,3,2,11,84
1415,3,2,11,84
1416,3,2,11,84
1417,3,2,11,84
1418,3,2,11,84
1419,3,2,11,84
1420,3,2,11,84
1421,3,2,11,84
1422,3,2,10,85
1423,3,2,10,85
1424,3,2,10,85
1425,3,2,10,85
1426,3,2,10,85
1427,3,2,10,85
1428,3,2,10,85
1429,3,2,10,85
1430,3,1,11,85
1431,3,1,11,85
1432,3,1,11,85
1433,3,1,11,85
1434,3,1,10,86
1435,3,1,10,86
1436,3,1,10,86
1437,3,1,10,86
1438,3,1,10,86
1439,3,1,9,87
1440,3,1,9,87
1441,3,1,9,87
1442,3,1,9,87
1443,3,1,9,87
1444,3,1,8,88
1445,3,1,8,88
1446,3,1,8,88
1447,3,1,8,88
1448,3,1,8,88
1449,3,1,8,88
1450,3,1,8,88
1451,3,1,8,88
1452,3,1,8,88
1453,3,1,8,88
1454,3,1,8,88
1455,3,1,7,89
1456,3,1,7,89
1457,3,1,7,89
1458,3,1,7,89
1459,3,1,7,89
1460,3,1,6,90
1461,3,1,6,90
1462,3,1,6,90
1463,3,1,6,90
1464,3,1,6,90
1465,3,1,5,91
1466,3,1,5,91
1467,3,1,5,91
1468,3,1,5,91
1469,3,1,5,91
1470,3,1,5,91
1471,3,1,5,91
1472,3,1,5,91
1473,3,1,5,91
1474,3,1,5,91
1475,3,1,5,91
1476,3,1,5,91
1477,3,1,5,91
1478,3,1,4,92
1479,3,1,4,92
1480,3,1,4,92
1481,3,1,4,92
1482,3,1,4,92
1483,3,1,4,92
1484,3,1,4,92
1485,3,1,4,92
1486,3,1,4,92
1487,3,1,4,92
1488,3,1,4,92
1489,3,1,4,92
1490,3,1,4,92
1491,3,1,4,92
1492,3,1,4,92
1493,3,1,4,92
1494,3,1,4,92
1495,3,1,4,92
1496,3,1,4,92
1497,3,1,4,92
1498,3,1,4,92
1499,3,1,4,92
1500,3,1,4,92
1501,3,1,4,92
1502,3,1,4,92
1503,3,1,4,92
1504,3,1,4,92
1505,3,1,4,92
1506,3,1,4,92
1507,3,1,4,92
1508,3,1,4,92
1509,3,1,4,92
1510,3,1,4,92
1511,3,1,4,92
1512,3,1,4,92
1513,3,1,4,92
1514,3,1,4,92
1515,3,1,4,92
1516,3,1,4,92
1517,3,1,3,93
1518,3,1,3,93
1519,3,1,3,93
1520,3,1,3,93
1521,3,1,3,93
1522,3,1,3,93
1523,3,1,3,93
1524,3,1,3,93
1525,3,1,3,93
1526,3,1,3,93
1527,3,1,3,93
1528,3,1,3,93
1529,3,1,3,93
1530,3,1,3,93
1531,3,1,3,93
1532,3,1,3,93
1533,3,1,3,93
1534,3,1,3,93
1535,3,1,3,93
1536,3,1,3,93
1537,3,1,3,93
1538,3,1,3,93
1539,3,1,3,93
1540,3,1,3,93
1541,3,1,3,93
1542,3,1,3,93
1543,3,1,3,93
1544,3,1,3,93
1545,3,1,3,93
1546,3,1,2,94
1547,3,1,2,94
1548,3,1,2,94
1549,3,1,2,94
1550,3,1,2,94
1551,3,1,2,94
1552,3,1,2,94
1553,3,1,2,94
1554,3,1,2,94
1555,3,1,2,94
1556,3,1,2,94
1557,3,1,2,94
1558,3,1,2,94
1559,3,1,2,94
1560,3,1,2,94
1561,3,1,2,94
1562,3,1,2,94
1563,3,1,2,94
1564,3,1,2,94
1565,3,1,2,94
1566,3,1,2,94
1567,3,1,2,94
1568,3,1,2,94
1569,3,1,2,94
1570,3,1,2,94
1571,3,1,2,94
1572,3,1,2,94
1573,3,1,2,94
1574,3,1,2,94
1575,3,1,2,94
1576,3,1,2,94
1577,3,1,2,94
1578,3,1,2,94
1579,3,1,2,94
1580,3,1,2,94
1581,3,1,2,94
1582,3,1,2,94
1583,3,1,2,94
1584,3,1,2,94
1585,3,1,2,94
1586,3,1,2,94
1587,3,1,2,94
1588,3,1,2,94
1589,3,1,2,94
1590,3,1,2,94
1591,3,1,2,94
1592,3,1,2,94
1593,3,1,1,95
1594,3,1,1,95
1595,3,1,1,95
1596,3,1,1,95
1597,3,1,1,95
1598,3,1,1,95
1599,3,1,1,95
1600,3,1,1,95
1601,3,1,1,95
1602,3,0,2,95
1603,3,0,2,95
1604,3,0,2,95
1605,3,0,2,95
1606,3,0,2,95
1607,3,0,2,95
1608,3,0,2,95
1609,3,0,2,95
1610,3,0,2,95
1611,3,0,2,95
1612,3,0,2,95
1613,3,0,2,95
1614,3,0,2,95
1615,3,0,2,95
1616,3,0,2,95
1617,3,0,2,95
1618,3,0,2,95
1619,3,0,2,95
1620,3,0,2,95
1621,3,0,2,95
1622,3,0,2,95
1623,3,0,2,95
1624,3,0,2,95
1625,3,0,2,95
1626,3,0,2,95
1627,3,0,2,95
1628,3,0,2,95
1629,3,0,2,95
1630,3,0,2,95
1631,3,0,1,96
1632,3,0,1,96
1633,3,0,1,96
1634,3,0,1,96
1635,3,0,1,96
1636,3,0,1,96
1637,3,0,1,96
1638,3,0,1,96
1639,3,0,1,96
1640,3,0,1,96
1641,3,0,1,96
1642,3,0,1,96
1643,3,0,1,96
1644,3,0,1,96
1645,3,0,1,96
1646,3,0,1,96
1647,3,0,1,96
1648,3,0,1,96
1649,3,0,1,96
1650,3,0,1,96
1651,3,0,1,96
1652,3,0,1,96
1653,3,0,1,96
1654,3,0,1,96
1655,3,0,1,96
1656,3,0,1,96
1657,3,0,1,96
1658,3,0,1,96
1659,3,0,1,96
1660,3,0,1,96
1661,3,0,1,96
1662,3,0,1,96
1663,3,0,1,96
1664,3,0,1,96
1665,3,0,1,96
1666,3,0,1,96
1667,3,0,1,96
1668,3,0,1,96
1669,3,0,1,96
1670,3,0,1,96
1671,3,0,1,96
1672,3,0,1,96
1673,3,0,1,96
1674,3,0,1,96
1675,3,0,1,96
1676,3,0,1,96
1677,3,0,1,96
1678,3,0,1,96
1679,3,0,1,96
1680,3,0,1,96
1681,3,0,1,96
1682,3,0,1,96
1683,3,0,1,96
1684,3,0,1,96
1685,3,0,1,96
1686,3,0,1,96
1687,3,0,1,96
1688,3,0,1,96
1689,3,0,1,96
1690,3,0,1,96
1691,3,0,1,96
1692,3,0,1,96
1693,3,0,1,96
1694,3,0,1,96
1695,3,0,1,96
1696,3,0,1,96
1697,3,0,1,96
1698,3,0,1,96
1699,3,0,1,96
1700,3,0,1,96
1701,3,0,1,96
1702,3,0,1,96
1703,3,0,1,96
1704,3,0,1,96
1705,3,0,1,96
1706,3,0,1,96
1707,3,0,1,96
1708,3,0,1,96
1709,3,0,1,96
1710,3,0,1,96
1711,3,0,1,96
1712,3,0,1,96
1713,3,0,1,96
1714,3,0,1,96
1715,3,0,1,96
1716,3,0,1,96
1717,3,0,1,96
1718,3,0,1,96
1719,3,0,1,96
1720,3,0,1,96
1721,3,0,1,96
1722,3,0,1,96
1723,3,0,1,96
1724,3,0,1,96
1725,3,0,1,96
1726,3,0,1,96
1727,3,0,1,96
1728,3,0,1,96
1729,3,0,1,96
1730,3,0,1,96
1731,3,0,1,96
1732,3,0,1,96
1733,3,0,1,96
1734,3,0,1,96
1735,3,0,1,96
1736,3,0,1,96
1737,3,0,1,96
1738,3,0,1,96
1739,3,0,1,96
1740,3,0,1,96
1741,3,0,1,96
1742,3,0,1,96
1743,3,0,1,96
1744,3,0,1,96
1745,3,0,1,96
1746,3,0,1,96
1747,3,0,1,96
1748,3,0,1,96
1749,3,0,1,96
1750,3,0,1,96
1751,3,0,1,96
1752,3,0,1,96
1753,3,0,1,96
1754,3,0,1,96
1755,3,0,1,96
1756,3,0,1,96
1757,3,0,1,96
1758,3,0,1,96
1759,3,0,1,96
1760,3,0,1,96
1761,3,0,1,96
1762,3,0,1,96
1763,3,0,1,96
1764,3,0,1,96
1765,3,0,1,96
1766,3,0,1,96
1767,3,0,1,96
1768,3,0,1,96
1769,3,0,1,96
1770,3,0,1,96
1771,3,0,1,96
1772,3,0,1,96
1773,3,0,1,96
1774,3,0,1,96
1775,3,0,1,96
1776,3,0,1,96
1777,3,0,1,96
1778,3,0,1,96
1779,3,0,1,96
1780,3,0,1,96
1781,3,0,1,96
1782,3,0,1,96
1783,3,0,1,96
1784,3,0,1,96
1785,3,0,1,96
1786,3,0,1,96
1787,3,0,1,96
1788,3,0,1,96
1789,3,0,1,96
1790,3,0,1,96
1791,3,0,1,96
1792,3,0,1,96
1793,3,0,1,96
1794,3,0,1,96
1795,3,0,1,96
1796,3,0,1,96
1797,3,0,1,96
1798,3,0,1,96
1799,3,0,1,96
1800,3,0,1,96
1801,3,0,1,96
1802,3,0,1,96
1803,3,0,0,97
1804,3,0,0,97
1805,3,0,0,97
1806,3,0,0,97
1807,3,0,0,97
1808,3,0,0,97
1809,3,0,0,97
1810,3,0,0,97
1811,3,0,0,97
1812,3,0,0,97
1813,3,0,0,97
1814,3,0,0,97
1815,3,0,0,97
1816,3,0,0,97
1817,3,0,0,97
1818,3,0,0,97
1819,3,0,0,97
1820,3,0,0,97
1821,3,0,0,97
1822,3,0,0,97
1823,3,0,0,97
1824,3,0,0,97
1825,3,0,0,97
1826,3,0,0,97
1827,3,0,0,97
1828,3,0,0,97
1829,3,0,0,97
1830,3,0,0,97
1831,3,0,0,97
1832,3,0,0,97
1833,3,0,0,97
1834,3,0,0,97
1835,3,0,0,97
1836,3,0,0,97
1837,3,0,0,97
1838,3,0,0,97
1839,3,0,0,97
1840,3,0,0,97
1841,3,0,0,97
1842,3,0,0,97
1843,3,0,0,97
1844,3,0,0,97
1845,3,0,0,97
1846,3,0,0,97
1847,3,0,0,97
1848,3,0,0,97
1849,3,0,0,97
1850,3,0,0,97
1851,3,0,0,97
1852,3,0,0,97
1853,3,0,0,97
1854,3,0,0,97
1855,3,0,0,97
1856,3,0,0,97
1857,3,0,0,97
1858,3,0,0,97
1859,3,0,0,97
1860,3,0,0,97
1861,3,0,0,97
1862,3,0,0,97
1863,3,0,0,97
1864,3,0,0,97
1865,3,0,0,97
1866,3,0,0,97
1867,3,0,0,97
1868,3,0,0,97
1869,3,0,0,97
1870,3,0,0,97
1871,3,0,0,97
1872,3,0,0,97
1873,3,0,0,97
1874,3,0,0,97
1875,3,0,0,97
1876,3,0,0,97
1877,3,0,0,97
1878,3,0,0,97
1879,3,0,0,97
1880,3,0,0,97
1881,3,0,0,97
1882,3,0,0,97
1883,3,0,0,97
1884,3,0,0,97
1885,3,0,0,97
1886,3,0,0,97
1887,3,0,0,97
1888,3,0,0,97
1889,3,0,0,97
1890,3,0,0,97
1891,3,0,0,97
1892,3,0,0,97
1893,3,0,0,97
1894,3,0,0,97
1895,3,0,0,97
1896,3,0,0,97
1897,3,0,0,97
1898,3,0,0,97
1899,3,0,0,97
1900,3,0,0,97
1901,3,0,0,97
1902,3,0,0,97
1903,3,0,0,97
1904,3,0,0,97
1905,3,0,0,97
1906,3,0,0,97
1907,3,0,0,97
1908,3,0,0,97
1909,3,0,0,97
1910,3,0,0,97
1911,3,0,0,97
1912,3,0,0,97
1913,3,0,0,97
1914,3,0,0,97
1915,3,0,0,97
1916,3,0,0,97
1917,3,0,0,97
1918,3,0,0,97
1919,3,0,0,97
1920,3,0,0,97
1921,3,0,0,97
1922,3,0,0,97
1923,3,0,0,97
1924,3,0,0,97
1925,3,0,0,97
1926,3,0,0,97
1927,3,0,0,97
1928,3,0,0,97
1929,3,0,0,97
1930,3,0,0,97
1931,3,0,0,97
1932,3,0,0,97
1933,3,0,0,97
1934,3,0,0,97
1935,3,0,0,97
1936,3,0,0,97
1937,3,0,0,97
1938,3,0,0,97
1939,3,0,0,97
1940,3,0,0,97
1941,3,0,0,97
1942,3,0,0,97
1943,3,0,0,97
1944,3,0,0,97
1945,3,0,0,97
1946,3,0,0,97
1947,3,0,0,97
1948,3,0,0,97
1949,3,0,0,97
1950,3,0,0,97
1951,3,0,0,97
1952,3,0,0,97
1953,3,0,0,97
1954,3,0,0,97
1955,3,0,0,97
1956,3,0,0,97
1957,3,0,0,97
1958,3,0,0,97
1959,3,0,0,97
1960,3,0,0,97
1961,3,0,0,97
1962,3,0,0,97
1963,3,0,0,97
1964,3,0,0,97
1965,3,0,0,97
1966,3,0,0,97
1967,3,0,0,97
1968,3,0,0,97
1969,3,0,0,97
1970,3,0,0,97
1971,3,0,0,97
1972,3,0,0,97
1973,3,0,0,97
1974,3,0,0,97
1975,3,0,0,97
1976,3,0,0,97
1977,3,0,0,97
1978,3,0,0,97
1979,3,0,0,97
1980,3,0,0,97
1981,3,0,0,97
1982,3,0,0,97
1983,3,0,0,97
1984,3,0,0,97
1985,3,0,0,97
1986,3,0,0,97
1987,3,0,0,97
1988,3,0,0,97
1989,3,0,0,97
1990,3,0,0,97
1991,3,0,0,97
1992,3,0,0,97
1993,3,0,0,97
1994,3,0,0,97
1995,3,0,0,97
1996,3,0,0,97
1997,3,0,0,97
1998,3,0,0,97
1999,3,0,0,97
2000,3,0,0,97
