"tick","total"
0,0
1,0
2,0
3,0
4,0
5,0
6,0
7,0
8,0
9,0
10,0
11,0
12,0
13,0
14,0
15,0
16,0
17,0
18,0
19,0
20,0
21,0
22,0
23,0
24,0
25,0
26,0
27,0
28,0
29,0
30,0
31,0
32,0
33,0
34,0
35,0
36,0
37,0
38,0
39,0
40,0
41,0
42,0
43,0
44,0
45,0
46,0
47,0
48,0
49,0
50,0
51,0
52,0
53,0
54,0
55,0
56,0
57,0
58,0
59,0
60,0
61,0
62,0
63,0
64,0
65,0
66,0
67,0
68,0
69,0
70,0
71,0
72,0
73,0
74,0
75,0
76,0
77,0
78,0
79,0
80,0
81,0
82,0
83,0
84,0
85,0
86,0
87,0
88,0
89,0
90,0
91,0
92,0
93,0
94,0
95,0
96,0
97,0
98,0
99,0
100,0
101,0
102,0
103,0
104,0
105,0
106,0
107,0
108,0
109,0
110,0
111,0
112,0
113,0
114,0
115,0
116,0
117,0
118,0
119,0
120,0
121,0
122,0
123,0
124,0
125,0
126,0
127,0
128,0
129,0
130,0
131,0
132,0
133,0
134,0
135,0
136,0
137,0
138,0
139,0
140,0
141,0
142,0
143,0
144,0
145,0
146,0
147,0
148,0
149,0
150,0
151,0
152,0
153,0
154,0
155,0
156,0
157,0
158,0
159,0
160,0
161,0
162,0
163,0
164,0
165,0
166,0
167,0
168,0
169,0
170,0
171,0
172,0
173,0
174,0
175,0
176,0
177,0
178,0
179,0
180,0
181,0
182,0
183,0
184,0
185,0
186,0
187,0
188,0
189,0
190,0
191,0
192,0
193,0
194,0
195,0
196,0
197,0
198,0
199,0
200,0
201,0
202,0
203,0
204,0
205,0
206,1
207,1
208,1
209,1
210,1
211,1
212,1
213,1
214,1
215,1
216,1
217,1
218,1
219,1
220,1
221,1
222,1
223,1
224,1
225,1
226,1
227,1
228,1
229,1
230,1
231,1
232,1
233,1
234,1
235,1
236,1
237,1
238,1
239,1
240,1
241,1
242,1
243,1
244,1
245,1
246,1
247,1
248,1
249,1
250,2
251,2
252,2
253,2
254,2
255,2
256,2
257,2
258,2
259,2
260,2
261,2
262,2
263,2
264,2
265,3
266,3
267,3
268,3
269,3
270,3
271,3
272,3
273,3
274,3
275,3
276,3
277,3
278,3
279,3
280,3
281,3
282,3
283,3
284,3
285,3
286,4
287,4
288,4
289,4
290,4
291,4
292,4
293,4
294,4
295,4
296,4
297,4
298,4
299,4
300,4
301,5
302,6
303,6
304,6
305,6
306,6
307,6
308,6
309,6
310,6
311,6
312,6
313,6
314,6
315,6
316,6
317,6
318,6
319,6
320,7
321,7
322,7
323,7
324,7
325,7
326,7
327,8
328,8
329,8
330,8
331,8
332,8
333,9
334,9
335,9
336,9
337,9
338,9
339,10
340,10
341,10
342,10
343,10
344,10
345,11
346,11
347,11
348,11
349,12
350,13
351,13
352,13
353,13
354,13
355,13
356,13
357,13
358,13
359,13
360,14
361,14
362,14
363,14
364,14
365,14
366,14
367,14
368,14
369,14
370,14
371,14
372,14
373,14
374,14
375,14
376,14
377,14
378,14
379,14
380,15
381,15
382,15
383,15
384,16
385,16
386,16
387,16
388,16
389,16
390,16
391,16
392,16
393,17
394,17
395,17
396,17
397,17
398,17
399,18
400,18
401,18
402,18
403,18
404,18
405,18
406,18
407,18
408,18
409,18
410,18
411,18
412,18
413,18
414,18
415,18
416,18
417,18
418,18
419,18
420,18
421,18
422,18
423,18
424,18
425,18
426,18
427,18
428,18
429,18
430,18
431,18
432,18
433,18
434,18
435,18
436,19
437,19
438,19
439,19
440,19
441,19
442,19
443,19
444,19
445,19
446,20
447,20
448,20
449,20
450,20
451,20
452,20
453,20
454,20
455,20
456,20
457,20
458,20
459,20
460,20
461,20
462,20
463,20
464,20
465,20
466,20
467,20
468,20
469,20
470,20
471,21
472,21
473,21
474,21
475,21
476,21
477,22
478,22
479,22
480,22
481,22
482,22
483,22
484,22
485,22
486,22
487,22
488,22
489,22
490,23
491,23
492,23
493,23
494,23
495,23
496,24
497,24
498,24
499,24
500,24
501,24
502,24
503,24
504,24
505,24
506,24
507,24
508,24
509,24
510,24
511,24
512,24
513,24
514,24
515,24
516,25
517,25
518,25
519,25
520,25
521,25
522,25
523,25
524,25
525,26
526,26
527,26
528,26
529,26
530,26
531,26
532,26
533,26
534,26
535,26
536,26
537,26
538,26
539,26
540,27
541,27
542,27
543,27
544,27
545,27
546,27
547,27
548,27
549,27
550,27
551,27
552,27
553,27
554,27
555,27
556,27
557,27
558,27
559,27
560,27
561,27
562,27
563,27
564,27
565,27
566,27
567,27
568,27
569,27
570,27
571,27
572,27
573,27
574,27
575,27
576,27
577,27
578,28
579,28
580,28
581,28
582,28
583,28
584,28
585,28
586,28
587,28
588,28
589,28
590,28
591,28
592,28
593,28
594,28
595,28
596,28
597,28
598,28
599,28
600,28
601,28
602,28
603,28
604,28
605,28
606,28
607,28
608,28
609,28
610,28
611,28
612,28
613,28
614,28
615,28
616,28
617,28
618,28
619,28
620,28
621,28
622,28
623,28
624,28
625,28
626,28
627,28
628,28
629,28
630,29
631,29
632,29
633,29
634,29
635,29
636,29
637,29
638,29
639,29
640,29
641,29
642,29
643,29
644,29
645,29
646,29
647,29
648,29
649,29
650,29
651,29
652,29
653,29
654,29
655,29
656,29
657,29
658,29
659,29
660,29
661,29
662,29
663,29
664,29
665,29
666,29
667,29
668,29
669,29
670,29
671,29
672,29
673,29
674,30
675,30
676,30
677,30
678,30
679,30
680,30
681,30
682,30
683,30
684,30
685,30
686,30
687,31
688,31
689,31
690,31
691,31
692,31
693,31
694,32
695,32
696,32
697,32
698,32
699,32
700,32
701,32
702,32
703,33
704,33
705,33
706,34
707,34
708,34
709,34
710,34
711,34
712,34
713,34
714,34
715,34
716,34
717,34
718,34
719,34
720,34
721,34
722,34
723,34
724,34
725,34
726,34
727,34
728,34
729,34
730,34
731,34
732,34
733,34
734,34
735,34
736,34
737,34
738,34
739,34
740,34
741,34
742,34
743,34
744,34
745,34
746,34
747,34
748,34
749,34
750,34
751,34
752,34
753,34
754,34
755,34
756,34
757,35
758,35
759,35
760,35
761,35
762,35
763,35
764,35
765,35
766,35
767,35
768,35
769,35
770,35
771,35
772,35
773,35
774,35
775,35
776,35
777,35
778,35
779,35
780,35
781,35
782,35
783,35
784,35
785,35
786,35
787,35
788,35
789,35
790,35
791,35
792,35
793,35
794,35
795,35
796,35
797,35
798,35
799,35
800,36
801,36
802,36
803,36
804,36
805,36
806,36
807,36
808,36
809,36
810,36
811,36
812,36
813,36
814,36
815,36
816,36
817,36
818,36
819,36
820,36
821,36
822,36
823,36
824,36
825,37
826,37
827,37
828,37
829,37
830,37
831,37
832,37
833,37
834,37
835,37
836,37
837,37
838,37
839,37
840,37
841,37
842,37
843,37
844,37
845,37
846,37
847,37
848,37
849,37
850,37
851,37
852,37
853,37
854,37
855,37
856,37
857,37
858,37
859,37
860,37
861,37
862,37
863,37
864,37
865,37
866,37
867,37
868,37
869,37
870,37
871,37
872,37
873,37
874,37
875,37
876,37
877,37
878,37
879,37
880,37
881,37
882,37
883,37
884,37
885,37
886,37
887,37
888,37
889,37
890,37
891,37
892,37
893,37
894,37
895,37
896,37
897,37
898,37
899,37
900,37
901,37
902,37
903,37
904,37
905,37
906,37
907,37
908,37
909,37
910,37
911,37
912,37
913,37
914,37
915,37
916,37
917,37
918,37
919,37
920,37
921,37
922,37
923,37
924,37
925,37
926,37
927,37
928,37
929,37
930,37
931,37
932,37
933,37
934,37
935,37
936,37
937,37
938,37
939,37
940,37
941,37
942,37
943,37
944,37
945,37
946,37
947,37
948,37
949,37
950,37
951,37
952,37
953,37
954,37
955,37
956,37
957,37
958,37
959,37
960,37
961,37
962,37
963,37
964,37
965,37
966,37
967,37
968,37
969,37
970,37
971,37
972,37
973,37
974,37
975,37
976,37
977,37
978,37
979,37
980,37
981,37
982,37
983,37
984,37
985,37
986,37
987,37
988,37
989,37
990,37
991,37
992,37
993,37
994,37
995,37
996,37
997,37
998,37
999,37
1000,37
1001,37
1002,37
1003,37
1004,37
1005,37
1006,37
1007,37
1008,37
1009,37
1010,37
1011,37
1012,37
1013,37
1014,37
1015,37
1016,37
1017,37
1018,37
1019,37
1020,37
1021,37
1022,37
1023,37
1024,37
1025,37
1026,37
1027,37
1028,37
1029,37
1030,37
1031,37
1032,37
1033,37
1034,37
1035,37
1036,37
1037,37
1038,37
1039,37
1040,37
1041,37
1042,37
1043,38
1044,38
1045,38
1046,38
1047,38
1048,38
1049,38
1050,38
1051,38
1052,38
1053,38
1054,38
1055,38
1056,38
1057,38
1058,38
1059,38
1060,38
1061,38
1062,38
1063,38
1064,38
1065,38
1066,38
1067,39
1068,39
1069,41
1070,41
1071,41
1072,41
1073,42
1074,42
1075,42
1076,42
1077,42
1078,42
1079,42
1080,42
1081,42
1082,42
1083,42
1084,42
1085,42
1086,42
1087,42
1088,42
1089,42
1090,42
1091,42
1092,42
1093,42
1094,42
1095,42
1096,42
1097,42
1098,42
1099,42
1100,42
1101,42
1102,42
1103,42
1104,42
1105,42
1106,43
1107,43
1108,43
1109,43
1110,43
1111,43
1112,43
1113,43
1114,43
1115,43
1116,44
1117,44
1118,44
1119,44
1120,44
1121,44
1122,44
1123,44
1124,44
1125,44
1126,44
1127,44
1128,44
1129,44
1130,44
1131,45
1132,45
1133,45
1134,46
1135,46
1136,46
1137,46
1138,46
1139,46
1140,46
1141,46
1142,46
1143,46
1144,46
1145,46
1146,46
1147,46
1148,46
1149,46
1150,46
1151,46
1152,46
1153,46
1154,46
1155,46
1156,46
1157,46
1158,46
1159,46
1160,46
1161,46
1162,46
1163,46
1164,46
1165,47
1166,47
1167,47
1168,47
1169,48
1170,48
1171,48
1172,48
1173,48
1174,48
1175,48
1176,48
1177,48
1178,48
1179,48
1180,48
1181,48
1182,48
1183,48
1184,48
1185,48
1186,48
1187,48
1188,49
1189,49
1190,49
1191,49
1192,49
1193,49
1194,49
1195,50
1196,50
1197,51
1198,51
1199,51
1200,52
1201,52
1202,52
1203,52
1204,52
1205,52
1206,52
1207,52
1208,52
1209,52
1210,53
1211,53
1212,53
1213,53
1214,53
1215,53
1216,53
1217,53
1218,53
1219,53
1220,53
1221,53
1222,53
1223,54
1224,54
1225,54
1226,54
1227,54
1228,54
1229,54
1230,54
1231,54
1232,54
1233,54
1234,54
1235,54
1236,55
1237,56
1238,56
1239,56
1240,56
1241,56
1242,56
1243,56
1244,56
1245,56
1246,56
1247,56
1248,56
1249,56
1250,56
1251,56
1252,56
1253,56
1254,56
1255,56
1256,56
1257,56
1258,56
1259,56
1260,56
1261,57
1262,57
1263,57
1264,57
1265,57
1266,57
1267,57
1268,57
1269,57
1270,57
1271,57
1272,57
1273,57
1274,57
1275,57
1276,57
1277,57
1278,57
1279,57
1280,57
1281,57
1282,57
1283,57
1284,57
1285,57
1286,57
1287,57
1288,57
1289,57
1290,57
1291,57
1292,57
1293,57
1294,57
1295,57
1296,57
1297,57
1298,57
1299,57
1300,57
1301,57
1302,57
1303,57
1304,57
1305,57
1306,57
1307,57
1308,57
1309,57
1310,57
1311,57
1312,57
1313,57
1314,58
1315,58
1316,58
1317,58
1318,58
1319,58
1320,58
1321,58
1322,58
1323,58
1324,58
1325,58
1326,58
1327,58
1328,58
1329,58
1330,58
1331,58
1332,58
1333,58
1334,58
1335,58
1336,58
1337,58
1338,58
1339,58
1340,58
1341,58
1342,58
1343,58
1344,58
1345,58
1346,58
1347,58
1348,58
1349,58
1350,58
1351,58
1352,58
1353,58
1354,58
1355,58
1356,58
1357,58
1358,58
1359,58
1360,58
1361,58
1362,58
1363,58
1364,58
1365,58
1366,58
1367,58
1368,58
1369,58
1370,58
1371,58
1372,58
1373,58
1374,58
1375,58
1376,59
1377,59
1378,59
1379,59
1380,59
1381,59
1382,59
1383,59
1384,59
1385,59
1386,59
1387,59
1388,59
1389,59
1390,59
1391,59
1392,59
1393,59
1394,59
1395,59
1396,59
1397,59
1398,59
1399,59
1400,59
1401,59
1402,59
1403,59
1404,59
1405,59
1406,59
1407,59
1408,59
1409,59
1410,59
1411,59
1412,59
1413,59
1414,60
1415,60
1416,60
1417,60
1418,60
1419,60
1420,60
1421,60
1422,60
1423,60
1424,60
1425,60
1426,60
1427,60
1428,60
1429,60
1430,60
1431,60
1432,60
1433,60
1434,60
1435,60
1436,60
1437,60
1438,60
1439,60
1440,60
1441,60
1442,60
1443,60
1444,60
1445,60
1446,60
1447,60
1448,60
1449,60
1450,60
1451,60
1452,60
1453,60
1454,60
1455,60
1456,60
1457,60
1458,60
1459,60
1460,60
1461,60
1462,60
1463,60
1464,60
1465,60
1466,60
1467,60
1468,60
1469,60
1470,60
1471,60
1472,60
1473,60
1474,60
1475,60
1476,60
1477,60
1478,60
1479,60
1480,60
1481,60
1482,60
1483,61
1484,61
1485,61
1486,61
1487,61
1488,61
1489,61
1490,61
1491,61
1492,61
1493,61
1494,61
1495,61
1496,61
1497,61
1498,61
1499,61
1500,61
1501,61
1502,61
1503,61
1504,61
1505,61
1506,61
1507,61
1508,61
1509,61
1510,61
1511,61
1512,61
1513,61
1514,61
1515,61
1516,61
1517,61
1518,61
1519,61
1520,61
1521,61
1522,61
1523,61
1524,61
1525,61
1526,61
1527,61
1528,61
1529,61
1530,61
1531,61
1532,61
1533,61
1534,61
1535,61
1536,61
1537,61
1538,61
1539,61
1540,61
1541,61
1542,61
1543,61
1544,61
1545,61
1546,61
1547,61
1548,61
1549,61
1550,61
1551,61
1552,61
1553,61
1554,62
1555,62
1556,62
1557,62
1558,62
1559,62
1560,62
1561,62
1562,62
1563,62
1564,62
1565,62
1566,62
1567,62
1568,62
1569,62
1570,62
1571,62
1572,62
1573,62
1574,62
1575,62
1576,62
1577,62
1578,62
1579,62
1580,62
1581,62
1582,62
1583,62
1584,62
1585,62
1586,62
1587,62
1588,62
1589,62
1590,62
1591,62
1592,62
1593,62
1594,62
1595,62
1596,62
1597,62
1598,62
1599,62
1600,62
1601,62
1602,62
1603,62
1604,62
1605,62
1606,62
1607,62
1608,62
1609,62
1610,62
1611,62
1612,62
1613,63
1614,63
1615,63
1616,63
1617,63
1618,63
1619,63
1620,63
1621,63
1622,63
1623,63
1624,63
1625,63
1626,63
1627,63
1628,63
1629,63
1630,63
1631,63
1632,64
1633,65
1634,65
1635,65
1636,65
1637,65
1638,65
1639,65
1640,65
1641,65
1642,65
1643,65
1644,65
1645,65
1646,65
1647,65
1648,65
1649,65
1650,65
1651,65
1652,65
1653,65
1654,65
1655,65
1656,65
1657,65
1658,65
1659,65
1660,65
1661,65
1662,65
1663,65
1664,65
1665,65
1666,65
1667,65
1668,65
1669,65
1670,65
1671,65
1672,65
1673,65
1674,65
1675,65
1676,65
1677,65
1678,66
1679,67
1680,67
1681,67
1682,67
1683,67
1684,67
1685,68
1686,68
1687,68
1688,68
1689,68
1690,68
1691,68
1692,68
1693,68
1694,68
1695,68
1696,68
1697,68
1698,68
1699,68
1700,68
1701,68
1702,68
1703,68
1704,68
1705,68
1706,68
1707,68
1708,68
1709,68
1710,68
1711,68
1712,68
1713,68
1714,68
1715,68
1716,68
1717,68
1718,68
1719,68
1720,68
1721,68
1722,68
1723,68
1724,69
1725,69
1726,69
1727,69
1728,70
1729,70
1730,70
1731,70
1732,70
1733,70
1734,70
1735,70
1736,70
1737,70
1738,70
1739,70
1740,70
1741,70
1742,70
1743,70
1744,70
1745,70
1746,70
1747,70
1748,70
1749,70
1750,70
1751,70
1752,70
1753,70
1754,70
1755,70
1756,70
1757,70
1758,70
1759,70
1760,70
1761,70
1762,70
1763,70
1764,70
1765,70
1766,71
1767,71
1768,71
1769,71
1770,71
1771,71
1772,71
1773,71
1774,71
1775,71
1776,71
1777,71
1778,71
1779,71
1780,71
1781,72
1782,73
1783,73
1784,73
1785,73
1786,73
1787,73
1788,73
1789,73
1790,73
1791,73
1792,73
1793,73
1794,74
1795,74
1796,74
1797,74
1798,74
1799,75
1800,75
1801,75
1802,76
1803,77
1804,77
1805,77
1806,77
1807,77
1808,77
1809,77
1810,77
1811,77
1812,77
1813,79
1814,79
1815,79
1816,80
1817,80
1818,80
1819,80
1820,80
1821,80
1822,80
1823,80
1824,80
1825,80
1826,80
1827,80
1828,80
1829,80
1830,80
1831,80
1832,81
1833,81
1834,81
1835,81
1836,81
1837,81
1838,81
1839,81
1840,81
1841,81
1842,81
1843,81
1844,81
1845,81
1846,81
1847,81
1848,81
1849,81
1850,82
1851,82
1852,82
1853,83
1854,83
1855,83
1856,83
1857,83
1858,83
1859,83
1860,83
1861,83
1862,83
1863,83
1864,83
1865,83
1866,83
1867,83
1868,83
1869,83
1870,83
1871,83
1872,83
1873,83
1874,83
1875,83
1876,83
1877,83
1878,83
1879,83
1880,83
1881,83
1882,83
1883,83
1884,83
1885,83
1886,83
1887,83
1888,83
1889,83
1890,83
1891,83
1892,83
1893,83
1894,83
1895,83
1896,83
1897,83
1898,83
1899,83
1900,83
1901,83
1902,83
1903,83
1904,83
1905,83
1906,83
1907,83
1908,84
1909,84
1910,84
1911,84
1912,84
1913,84
1914,85
1915,85
1916,85
1917,85
1918,85
1919,85
1920,85
1921,85
1922,85
1923,85
1924,85
1925,86
1926,86
1927,86
1928,86
1929,86
1930,86
1931,86
1932,86
1933,86
1934,86
1935,86
1936,86
1937,86
1938,86
1939,86
1940,86
1941,86
1942,86
1943,86
1944,86
1945,86
1946,86
1947,86
1948,86
1949,86
1950,86
1951,86
1952,86
1953,86
1954,86
1955,86
1956,86
1957,86
1958,86
1959,86
1960,86
1961,86
1962,86
1963,86
1964,86
1965,86
1966,86
1967,86
1968,86
1969,86
1970,86
1971,86
1972,86
1973,86
1974,86
1975,86
1976,86
1977,86
1978,86
1979,86
1980,86
1981,86
1982,86
1983,86
1984,86
1985,86
1986,86
1987,86
1988,86
1989,86
1990,86
1991,86
1992,86
1993,86
1994,86
1995,86
1996,86
1997,86
1998,86
1999,86
2000,86
