"tick","susceptible","exposed","infectious","recovered"
0,99,1,0,0
1,99,1,0,0
2,99,1,0,0
3,99,1,0,0
4,99,1,0,0
5,99,1,0,0
6,99,1,0,0
7,99,1,0,0
8,99,1,0,0
9,99,1,0,0
10,99,1,0,0
11,99,1,0,0
12,99,1,0,0
13,99,1,0,0
14,99,1,0,0
15,99,1,0,0
16,99,1,0,0
17,99,1,0,0
18,99,1,0,0
19,99,1,0,0
20,99,1,0,0
21,99,1,0,0
22,99,1,0,0
23,99,1,0,0
24,99,1,0,0
25,99,1,0,0
26,99,1,0,0
27,99,1,0,0
28,99,1,0,0
29,99,1,0,0
30,99,1,0,0
31,99,1,0,0
32,99,1,0,0
33,99,1,0,0
34,99,1,0,0
35,99,1,0,0
36,99,1,0,0
37,99,1,0,0
38,99,1,0,0
39,99,1,0,0
40,99,1,0,0
41,99,1,0,0
42,99,1,0,0
43,99,1,0,0
44,99,1,0,0
45,99,1,0,0
46,99,1,0,0
47,99,1,0,0
48,99,1,0,0
49,99,1,0,0
50,99,1,0,0
51,99,1,0,0
52,99,1,0,0
53,99,1,0,0
54,99,1,0,0
55,99,1,0,0
56,99,1,0,0
57,99,1,0,0
58,99,1,0,0
59,99,1,0,0
60,99,1,0,0
61,99,1,0,0
62,99,1,0,0
63,99,1,0,0
64,99,1,0,0
65,99,1,0,0
66,99,1,0,0
67,99,1,0,0
68,99,1,0,0
69,99,1,0,0
70,99,1,0,0
71,99,1,0,0
72,99,1,0,0
73,99,1,0,0
74,99,1,0,0
75,99,1,0,0
76,99,1,0,0
77,99,1,0,0
78,99,1,0,0
79,99,1,0,0
80,99,1,0,0
81,99,1,0,0
82,99,1,0,0
83,99,1,0,0
84,99,1,0,0
85,99,1,0,0
86,99,1,0,0
87,99,1,0,0
88,99,1,0,0
89,99,1,0,0
90,99,1,0,0
91,99,1,0,0
92,99,1,0,0
93,99,1,0,0
94,99,1,0,0
95,99,1,0,0
96,99,1,0,0
97,99,1,0,0
98,99,1,0,0
99,99,1,0,0
100,99,1,0,0
101,99,1,0,0
102,99,1,0,0
103,99,1,0,0
104,99,1,0,0
105,99,1,0,0
106,99,1,0,0
107,99,1,0,0
108,99,1,0,0
109,99,1,0,0
110,99,1,0,0
111,99,1,0,0
112,99,1,0,0
113,99,1,0,0
114,99,1,0,0
115,99,1,0,0
116,99,1,0,0
117,99,1,0,0
118,99,1,0,0
119,99,1,0,0
120,99,1,0,0
121,99,1,0,0
122,99,1,0,0
123,99,1,0,0
124,99,1,0,0
125,99,1,0,0
126,99,1,0,0
127,99,1,0,0
128,99,1,0,0
129,99,1,0,0
130,99,1,0,0
131,99,1,0,0
132,99,1,0,0
133,99,1,0,0
134,99,1,0,0
135,99,1,0,0
136,99,1,0,0
137,99,1,0,0
138,99,1,0,0
139,99,1,0,0
140,99,1,0,0
141,99,1,0,0
142,99,1,0,0
143,99,1,0,0
144,99,1,0,0
145,99,1,0,0
146,99,1,0,0
147,99,1,0,0
148,99,1,0,0
149,99,1,0,0
150,99,1,0,0
151,99,1,0,0
152,99,1,0,0
153,99,1,0,0
154,99,1,0,0
155,99,1,0,0
156,99,1,0,0
157,99,1,0,0
158,99,1,0,0
159,99,1,0,0
160,99,1,0,0
161,99,1,0,0
162,99,1,0,0
163,99,1,0,0
164,99,1,0,0
165,99,1,0,0
166,99,1,0,0
167,99,1,0,0
168,99,1,0,0
169,99,1,0,0
170,99,1,0,0
171,99,1,0,0
172,99,1,0,0
173,99,1,0,0
174,99,1,0,0
175,99,1,0,0
176,99,1,0,0
177,99,1,0,0
178,99,1,0,0
179,99,1,0,0
180,99,1,0,0
181,99,1,0,0
182,99,1,0,0
183,99,1,0,0
184,99,1,0,0
185,99,1,0,0
186,99,1,0,0
187,99,1,0,0
188,99,1,0,0
189,99,1,0,0
190,99,1,0,0
191,99,1,0,0
192,99,1,0,0
193,99,1,0,0
194,99,1,0,0
195,99,1,0,0
196,99,1,0,0
197,99,1,0,0
198,99,1,0,0
199,99,1,0,0
200,99,1,0,0
201,99,0,1,0
202,99,0,1,0
203,99,0,1,0
204,99,0,1,0
205,99,0,1,0
206,99,0,1,0
207,99,0,1,0
208,99,0,1,0
209,99,0,1,0
210,99,0,1,0
211,99,0,1,0
212,99,0,1,0
213,99,0,1,0
214,99,0,1,0
215,99,0,1,0
216,99,0,1,0
217,99,0,1,0
218,99,0,1,0
219,99,0,1,0
220,99,0,1,0
221,99,0,1,0
222,99,0,1,0
223,99,0,1,0
224,99,0,1,0
225,99,0,1,0
226,99,0,1,0
227,99,0,1,0
228,99,0,1,0
229,99,0,1,0
230,99,0,1,0
231,99,0,1,0
232,99,0,1,0
233,99,0,1,0
234,99,0,1,0
235,99,0,1,0
236,99,0,1,0
237,99,0,1,0
238,99,0,1,0
239,99,0,1,0
240,99,0,1,0
241,99,0,1,0
242,99,0,1,0
243,99,0,1,0
244,99,0,1,0
245,99,0,1,0
246,99,0,1,0
247,99,0,1,0
248,99,0,1,0
249,99,0,1,0
250,99,0,1,0
251,99,0,1,0
252,99,0,1,0
253,99,0,1,0
254,99,0,1,0
255,99,0,1,0
256,99,0,1,0
257,98,1,1,0
258,98,1,1,0
259,98,1,1,0
260,98,1,1,0
261,98,1,1,0
262,98,1,1,0
263,98,1,1,0
264,98,1,1,0
265,98,1,1,0
266,98,1,1,0
267,98,1,1,0
268,98,1,1,0
269,98,1,1,0
270,98,1,1,0
271,98,1,1,0
272,98,1,1,0
273,98,1,1,0
274,98,1,1,0
275,98,1,1,0
276,98,1,1,0
277,98,1,1,0
278,98,1,1,0
279,98,1,1,0
280,98,1,1,0
281,98,1,1,0
282,98,1,1,0
283,98,1,1,0
284,98,1,1,0
285,98,1,1,0
286,98,1,1,0
287,98,1,1,0
288,98,1,1,0
289,98,1,1,0
290,98,1,1,0
291,98,1,1,0
292,98,1,1,0
293,98,1,1,0
294,98,1,1,0
295,98,1,1,0
296,98,1,1,0
297,98,1,1,0
298,98,1,1,0
299,97,2,1,0
300,97,2,1,0
301,97,2,1,0
302,97,2,1,0
303,97,2,1,0
304,97,2,1,0
305,97,2,1,0
306,97,2,1,0
307,97,2,1,0
308,97,2,1,0
309,97,2,1,0
310,97,2,1,0
311,97,2,1,0
312,97,2,1,0
313,97,2,1,0
314,97,2,1,0
315,97,2,1,0
316,97,2,1,0
317,97,2,1,0
318,97,2,1,0
319,97,2,1,0
320,97,2,1,0
321,97,2,1,0
322,97,2,1,0
323,97,2,1,0
324,97,2,1,0
325,97,2,1,0
326,97,2,1,0
327,97,2,1,0
328,97,2,1,0
329,97,2,1,0
330,97,2,1,0
331,97,2,1,0
332,97,2,1,0
333,97,2,1,0
334,97,2,1,0
335,97,2,1,0
336,97,2,1,0
337,97,2,1,0
338,97,2,1,0
339,97,2,1,0
340,97,2,1,0
341,97,2,1,0
342,97,2,1,0
343,97,2,1,0
344,97,2,1,0
345,97,2,1,0
346,97,2,1,0
347,97,2,1,0
348,97,2,1,0
349,97,2,1,0
350,97,2,1,0
351,97,2,1,0
352,97,2,1,0
353,97,2,1,0
354,97,2,1,0
355,97,2,1,0
356,97,2,1,0
357,97,2,1,0
358,97,2,1,0
359,97,2,1,0
360,97,2,1,0
361,97,2,1,0
362,97,2,1,0
363,97,2,1,0
364,97,2,1,0
365,97,2,1,0
366,97,2,1,0
367,97,2,1,0
368,97,2,1,0
369,97,2,1,0
370,97,2,1,0
371,97,2,1,0
372,96,3,1,0
373,96,3,1,0
374,96,3,1,0
375,96,3,1,0
376,96,3,1,0
377,96,3,1,0
378,96,3,1,0
379,96,3,1,0
380,96,3,1,0
381,96,3,1,0
382,96,3,1,0
383,96,3,1,0
384,96,3,1,0
385,96,3,1,0
386,96,3,1,0
387,96,3,1,0
388,96,3,1,0
389,96,3,1,0
390,96,3,1,0
391,96,3,1,0
392,96,3,1,0
393,96,3,1,0
394,96,3,1,0
395,96,3,1,0
396,96,3,1,0
397,96,3,1,0
398,96,3,1,0
399,96,3,1,0
400,96,3,1,0
401,96,3,1,0
402,96,3,0,1
403,96,3,0,1
404,96,3,0,1
405,96,3,0,1
406,96,3,0,1
407,96,3,0,1
408,96,3,0,1
409,96,3,0,1
410,96,3,0,1
411,96,3,0,1
412,96,3,0,1
413,96,3,0,1
414,96,3,0,1
415,96,3,0,1
416,96,3,0,1
417,96,3,0,1
418,96,3,0,1
419,96,3,0,1
420,96,3,0,1
421,96,3,0,1
422,96,3,0,1
423,96,3,0,1
424,96,3,0,1
425,96,3,0,1
426,96,3,0,1
427,96,3,0,1
428,96,3,0,1
429,96,3,0,1
430,96,3,0,1
431,96,3,0,1
432,96,3,0,1
433,96,3,0,1
434,96,3,0,1
435,96,3,0,1
436,96,3,0,1
437,96,3,0,1
438,96,3,0,1
439,96,3,0,1
440,96,3,0,1
441,96,3,0,1
442,96,3,0,1
443,96,3,0,1
444,96,3,0,1
445,96,3,0,1
446,96,3,0,1
447,96,3,0,1
448,96,3,0,1
449,96,3,0,1
450,96,3,0,1
451,96,3,0,1
452,96,3,0,1
453,96,3,0,1
454,96,3,0,1
455,96,3,0,1
456,96,3,0,1
457,96,3,0,1
458,96,2,1,1
459,96,2,1,1
460,96,2,1,1
461,96,2,1,1
462,96,2,1,1
463,96,2,1,1
464,96,2,1,1
465,96,2,1,1
466,96,2,1,1
467,96,2,1,1
468,96,2,1,1
469,96,2,1,1
470,95,3,1,1
471,95,3,1,1
472,95,3,1,1
473,95,3,1,1
474,95,3,1,1
475,95,3,1,1
476,95,3,1,1
477,95,3,1,1
478,95,3,1,1
479,95,3,1,1
480,95,3,1,1
481,95,3,1,1
482,95,3,1,1
483,95,3,1,1
484,95,3,1,1
485,95,3,1,1
486,95,3,1,1
487,95,3,1,1
488,95,3,1,1
489,95,3,1,1
490,95,3,1,1
491,95,3,1,1
492,95,3,1,1
493,95,3,1,1
494,95,3,1,1
495,95,3,1,1
496,95,3,1,1
497,95,3,1,1
498,95,3,1,1
499,95,3,1,1
500,95,2,2,1
501,95,2,2,1
502,95,2,2,1
503,95,2,2,1
504,95,2,2,1
505,95,2,2,1
506,95,2,2,1
507,95,2,2,1
508,94,3,2,1
509,94,3,2,1
510,93,4,2,1
511,92,5,2,1
512,91,6,2,1
513,91,6,2,1
514,90,7,2,1
515,89,8,2,1
516,89,8,2,1
517,89,8,2,1
518,88,9,2,1
519,88,9,2,1
520,88,9,2,1
521,88,9,2,1
522,88,9,2,1
523,88,9,2,1
524,88,9,2,1
525,88,9,2,1
526,88,9,2,1
527,88,9,2,1
528,88,9,2,1
529,88,9,2,1
530,88,9,2,1
531,88,9,2,1
532,88,9,2,1
533,88,9,2,1
534,88,9,2,1
535,88,9,2,1
536,88,9,2,1
537,88,9,2,1
538,88,9,2,1
539,88,9,2,1
540,88,9,2,1
541,88,9,2,1
542,88,9,2,1
543,87,10,2,1
544,87,10,2,1
545,87,10,2,1
546,87,10,2,1
547,87,10,2,1
548,87,10,2,1
549,87,10,2,1
550,87,10,2,1
551,86,11,2,1
552,86,11,2,1
553,86,11,2,1
554,86,11,2,1
555,86,11,2,1
556,86,11,2,1
557,86,11,2,1
558,86,11,2,1
559,86,11,2,1
560,86,11,2,1
561,86,11,2,1
562,86,11,2,1
563,86,11,2,1
564,86,11,2,1
565,86,11,2,1
566,86,11,2,1
567,86,11,2,1
568,86,11,2,1
569,86,11,2,1
570,86,11,2,1
571,86,11,2,1
572,86,11,2,1
573,86,10,3,1
574,86,10,3,1
575,86,10,3,1
576,86,10,3,1
577,86,10,3,1
578,86,10,3,1
579,86,10,3,1
580,86,10,3,1
581,86,10,3,1
582,86,10,3,1
583,86,10,3,1
584,86,10,3,1
585,86,10,3,1
586,86,10,3,1
587,86,10,3,1
588,86,10,3,1
589,86,10,3,1
590,86,10,3,1
591,86,10,3,1
592,86,10,3,1
593,86,10,3,1
594,86,10,3,1
595,86,10,3,1
596,86,10,3,1
597,86,10,3,1
598,86,10,3,1
599,86,10,3,1
600,86,10,3,1
601,86,10,3,1
602,86,10,3,1
603,86,10,3,1
604,86,10,3,1
605,86,10,3,1
606,86,10,3,1
607,86,10,3,1
608,86,10,3,1
609,86,10,3,1
610,86,10,3,1
611,86,10,3,1
612,86,10,3,1
613,86,10,3,1
614,86,10,3,1
615,86,10,3,1
616,86,10,3,1
617,86,10,3,1
618,86,10,3,1
619,85,11,3,1
620,85,11,3,1
621,85,11,3,1
622,85,11,3,1
623,85,11,3,1
624,85,11,3,1
625,85,11,3,1
626,85,11,3,1
627,85,11,3,1
628,85,11,3,1
629,85,11,3,1
630,85,11,3,1
631,85,11,3,1
632,85,11,3,1
633,85,11,3,1
634,85,11,3,1
635,85,11,3,1
636,85,11,3,1
637,85,11,3,1
638,84,12,3,1
639,84,12,3,1
640,84,12,3,1
641,84,12,3,1
642,84,12,3,1
643,84,12,3,1
644,84,12,3,1
645,84,12,3,1
646,84,12,3,1
647,84,12,3,1
648,84,12,3,1
649,84,12,3,1
650,84,12,3,1
651,84,12,3,1
652,84,12,3,1
653,84,12,3,1
654,84,12,3,1
655,84,12,3,1
656,84,12,3,1
657,84,12,3,1
658,84,12,3,1
659,84,12,2,2
660,84,12,2,2
661,84,12,2,2
662,84,12,2,2
663,84,12,2,2
664,84,12,2,2
665,84,12,2,2
666,84,12,2,2
667,84,12,2,2
668,84,12,2,2
669,84,12,2,2
670,84,12,2,2
671,84,11,3,2
672,84,11,3,2
673,84,11,3,2
674,84,11,3,2
675,84,11,3,2
676,84,11,3,2
677,84,11,3,2
678,84,11,3,2
679,84,11,3,2
680,84,11,3,2
681,84,11,3,2
682,84,11,3,2
683,84,11,3,2
684,84,11,3,2
685,84,11,3,2
686,84,11,3,2
687,84,11,3,2
688,84,11,3,2
689,84,11,3,2
690,84,11,3,2
691,84,11,3,2
692,84,11,3,2
693,84,11,3,2
694,84,11,3,2
695,84,11,3,2
696,84,11,3,2
697,84,11,3,2
698,84,11,3,2
699,84,11,3,2
700,84,11,3,2
701,83,12,2,3
702,83,12,2,3
703,83,12,2,3
704,83,12,2,3
705,83,12,2,3
706,83,12,2,3
707,83,12,2,3
708,83,12,2,3
709,83,11,3,3
710,83,11,3,3
711,81,12,4,3
712,81,11,5,3
713,81,10,6,3
714,80,11,6,3
715,80,10,7,3
716,79,10,8,3
717,79,10,8,3
718,77,12,8,3
719,77,11,9,3
720,75,13,9,3
721,75,13,9,3
722,72,16,9,3
723,72,16,9,3
724,72,16,9,3
725,71,17,9,3
726,71,17,9,3
727,71,17,9,3
728,71,17,9,3
729,71,17,9,3
730,71,17,9,3
731,71,17,9,3
732,71,17,9,3
733,71,17,9,3
734,71,17,9,3
735,71,17,9,3
736,71,17,9,3
737,70,18,9,3
738,69,19,9,3
739,69,19,9,3
740,68,20,9,3
741,68,20,9,3
742,68,20,9,3
743,68,20,9,3
744,68,19,10,3
745,68,19,10,3
746,68,19,10,3
747,68,19,10,3
748,68,19,10,3
749,68,19,10,3
750,68,19,10,3
751,68,19,10,3
752,68,18,11,3
753,68,18,11,3
754,68,18,11,3
755,68,18,11,3
756,68,18,11,3
757,68,18,11,3
758,68,18,11,3
759,68,18,11,3
760,67,19,11,3
761,67,19,11,3
762,67,19,11,3
763,67,19,11,3
764,67,19,11,3
765,67,19,11,3
766,67,19,11,3
767,67,19,11,3
768,67,19,11,3
769,67,19,11,3
770,67,19,11,3
771,67,19,11,3
772,67,19,11,3
773,67,19,11,3
774,67,19,10,4
775,67,19,10,4
776,67,19,10,4
777,67,19,10,4
778,67,19,10,4
779,67,19,10,4
780,67,19,10,4
781,67,19,10,4
782,66,20,10,4
783,66,20,10,4
784,66,20,10,4
785,66,20,10,4
786,66,20,10,4
787,66,20,10,4
788,66,20,10,4
789,66,20,10,4
790,66,20,10,4
791,66,20,10,4
792,66,20,10,4
793,66,20,10,4
794,66,20,10,4
795,66,20,10,4
796,66,20,10,4
797,66,20,10,4
798,66,20,10,4
799,66,20,10,4
800,66,20,10,4
801,66,20,10,4
802,66,20,10,4
803,65,21,10,4
804,65,21,10,4
805,65,21,10,4
806,65,21,10,4
807,65,21,10,4
808,65,21,10,4
809,65,21,10,4
810,65,21,10,4
811,65,21,10,4
812,65,21,10,4
813,65,21,10,4
814,65,21,10,4
815,65,21,10,4
816,65,21,10,4
817,65,21,10,4
818,65,21,10,4
819,65,21,10,4
820,65,20,11,4
821,65,20,11,4
822,64,21,11,4
823,64,21,11,4
824,64,21,11,4
825,64,21,11,4
826,64,21,11,4
827,63,22,11,4
828,63,22,11,4
829,63,22,11,4
830,63,22,11,4
831,63,22,11,4
832,63,22,11,4
833,63,22,11,4
834,63,22,11,4
835,63,22,11,4
836,63,22,11,4
837,63,22,11,4
838,63,22,11,4
839,63,21,12,4
840,63,21,12,4
841,62,22,12,4
842,62,22,12,4
843,62,22,12,4
844,62,22,12,4
845,62,22,12,4
846,62,22,12,4
847,62,22,12,4
848,62,22,12,4
849,62,22,12,4
850,62,22,12,4
851,62,22,12,4
852,62,22,12,4
853,62,22,12,4
854,62,22,12,4
855,62,22,12,4
856,62,22,12,4
857,62,22,12,4
858,62,22,12,4
859,62,22,12,4
860,61,23,12,4
861,61,23,12,4
862,61,23,12,4
863,61,23,12,4
864,61,23,12,4
865,61,23,12,4
866,61,23,12,4
867,61,23,12,4
868,61,23,12,4
869,61,23,12,4
870,61,23,12,4
871,61,23,12,4
872,61,23,11,5
873,61,23,11,5
874,60,24,11,5
875,60,24,11,5
876,60,24,11,5
877,60,24,11,5
878,60,24,11,5
879,60,24,11,5
880,60,24,11,5
881,60,24,11,5
882,60,24,11,5
883,60,24,11,5
884,60,24,11,5
885,60,24,11,5
886,60,24,11,5
887,60,24,11,5
888,60,24,11,5
889,60,24,11,5
890,60,24,11,5
891,60,24,11,5
892,60,24,11,5
893,60,24,11,5
894,60,24,11,5
895,59,25,11,5
896,58,26,11,5
897,58,26,11,5
898,58,26,11,5
899,58,26,11,5
900,58,26,11,5
901,58,26,11,5
902,57,26,12,5
903,57,26,12,5
904,57,26,12,5
905,57,26,12,5
906,57,26,12,5
907,57,26,12,5
908,57,26,12,5
909,57,26,12,5
910,57,26,11,6
911,57,26,11,6
912,57,24,12,7
913,57,24,11,8
914,57,24,10,9
915,56,24,11,9
916,56,24,10,10
917,56,23,10,11
918,55,24,10,11
919,55,22,12,11
920,55,22,11,12
921,54,21,13,12
922,54,21,13,12
923,54,18,16,12
924,54,18,16,12
925,54,18,16,12
926,54,17,17,12
927,54,17,17,12
928,54,17,17,12
929,54,17,17,12
930,54,17,17,12
931,54,17,17,12
932,54,17,17,12
933,54,17,17,12
934,54,17,17,12
935,54,17,17,12
936,54,17,17,12
937,54,17,17,12
938,54,16,18,12
939,54,15,19,12
940,54,15,19,12
941,54,14,20,12
942,54,14,20,12
943,54,14,20,12
944,54,14,20,12
945,54,14,19,13
946,54,14,19,13
947,54,14,19,13
948,54,14,19,13
949,54,14,19,13
950,54,14,19,13
951,54,14,19,13
952,53,15,19,13
953,53,15,18,14
954,53,15,18,14
955,53,15,18,14
956,53,15,18,14
957,53,15,18,14
958,53,15,18,14
959,52,16,18,14
960,52,16,18,14
961,52,15,19,14
962,51,16,19,14
963,50,17,19,14
964,50,17,19,14
965,50,17,19,14
966,50,17,19,14
967,50,17,19,14
968,50,17,19,14
969,50,17,19,14
970,50,17,19,14
971,50,17,19,14
972,50,17,19,14
973,49,18,19,14
974,49,18,19,14
975,49,18,19,14
976,49,18,19,14
977,49,18,19,14
978,49,18,19,14
979,49,18,19,14
980,49,18,19,14
981,49,18,19,14
982,49,18,19,14
983,49,17,20,14
984,49,17,20,14
985,49,17,20,14
986,49,17,20,14
987,48,18,20,14
988,48,18,20,14
989,48,18,20,14
990,48,18,20,14
991,48,18,20,14
992,48,18,20,14
993,48,18,20,14
994,48,18,20,14
995,48,18,20,14
996,48,18,20,14
997,48,18,20,14
998,48,18,20,14
999,48,18,20,14
1000,48,18,20,14
1001,48,18,20,14
1002,48,18,20,14
1003,48,18,20,14
1004,48,17,21,14
1005,48,17,21,14
1006,48,17,21,14
1007,48,17,21,14
1008,48,17,21,14
1009,47,18,21,14
1010,47,18,21,14
1011,47,18,21,14
1012,47,18,21,14
1013,47,18,21,14
1014,47,18,21,14
1015,47,18,21,14
1016,47,18,21,14
1017,47,18,21,14
1018,47,18,21,14
1019,47,18,21,14
1020,47,18,21,14
1021,47,18,20,15
1022,47,18,20,15
1023,47,17,21,15
1024,47,17,21,15
1025,46,18,21,15
1026,46,18,21,15
1027,46,18,21,15
1028,46,17,22,15
1029,46,17,22,15
1030,46,17,22,15
1031,46,17,22,15
1032,46,17,22,15
1033,45,18,22,15
1034,45,18,22,15
1035,44,19,22,15
1036,44,19,22,15
1037,44,19,22,15
1038,44,19,22,15
1039,43,20,22,15
1040,43,20,21,16
1041,43,20,21,16
1042,43,19,22,16
1043,43,19,22,16
1044,43,19,22,16
1045,43,19,22,16
1046,43,19,22,16
1047,43,19,22,16
1048,43,19,22,16
1049,43,19,22,16
1050,43,19,22,16
1051,43,19,22,16
1052,43,19,22,16
1053,43,19,22,16
1054,43,19,22,16
1055,43,19,22,16
1056,43,19,22,16
1057,43,19,22,16
1058,43,19,22,16
1059,43,19,22,16
1060,43,19,22,16
1061,43,18,23,16
1062,43,18,23,16
1063,43,18,23,16
1064,43,18,23,16
1065,43,18,23,16
1066,43,18,23,16
1067,43,18,23,16
1068,43,18,23,16
1069,43,18,23,16
1070,43,18,23,16
1071,43,18,23,16
1072,42,19,23,16
1073,42,19,23,16
1074,42,19,23,16
1075,41,19,24,16
1076,41,19,24,16
1077,41,19,24,16
1078,41,19,24,16
1079,41,19,24,16
1080,41,19,24,16
1081,41,19,24,16
1082,41,19,24,16
1083,41,19,24,16
1084,41,19,24,16
1085,41,19,24,16
1086,41,19,24,16
1087,41,19,24,16
1088,41,19,24,16
1089,41,19,24,16
1090,41,19,24,16
1091,41,19,24,16
1092,41,19,24,16
1093,41,19,24,16
1094,41,19,24,16
1095,41,19,24,16
1096,41,18,25,16
1097,41,17,26,16
1098,41,17,26,16
1099,41,17,26,16
1100,41,17,26,16
1101,40,18,26,16
1102,40,18,26,16
1103,40,17,26,17
1104,40,17,26,17
1105,40,17,26,17
1106,40,17,26,17
1107,39,18,26,17
1108,39,18,26,17
1109,39,18,26,17
1110,39,18,26,17
1111,39,18,26,17
1112,39,18,26,17
1113,39,18,24,19
1114,39,18,24,19
1115,39,18,24,19
1116,39,17,24,20
1117,39,17,24,20
1118,39,17,23,21
1119,39,16,24,21
1120,39,16,22,23
1121,39,16,22,23
1122,39,15,21,25
1123,39,15,21,25
1124,39,15,18,28
1125,39,15,18,28
1126,39,15,18,28
1127,38,16,17,29
1128,38,16,17,29
1129,38,16,17,29
1130,38,16,17,29
1131,38,16,17,29
1132,38,16,17,29
1133,38,16,17,29
1134,38,16,17,29
1135,38,16,17,29
1136,38,16,17,29
1137,38,16,17,29
1138,38,16,17,29
1139,38,16,16,30
1140,38,16,15,31
1141,38,16,15,31
1142,38,16,14,32
1143,38,16,14,32
1144,38,16,14,32
1145,38,16,14,32
1146,38,16,14,32
1147,38,16,14,32
1148,38,16,14,32
1149,38,16,14,32
1150,38,16,14,32
1151,38,16,14,32
1152,38,16,14,32
1153,38,15,15,32
1154,38,15,15,32
1155,38,15,15,32
1156,38,15,15,32
1157,38,15,15,32
1158,38,15,15,32
1159,38,15,15,32
1160,38,14,16,32
1161,37,15,16,32
1162,37,15,15,33
1163,37,14,16,33
1164,37,13,17,33
1165,37,13,17,33
1166,37,13,17,33
1167,37,13,17,33
1168,37,13,17,33
1169,37,13,17,33
1170,37,13,17,33
1171,37,13,17,33
1172,37,13,17,33
1173,37,13,17,33
1174,37,12,18,33
1175,37,12,18,33
1176,37,12,18,33
1177,37,12,18,33
1178,37,12,18,33
1179,37,12,18,33
1180,37,12,18,33
1181,37,12,18,33
1182,37,12,18,33
1183,37,12,18,33
1184,37,12,17,34
1185,37,12,17,34
1186,37,12,17,34
1187,37,12,17,34
1188,37,11,18,34
1189,37,11,18,34
1190,37,11,18,34
1191,37,11,18,34
1192,37,11,18,34
1193,37,11,18,34
1194,37,11,18,34
1195,37,11,18,34
1196,37,11,18,34
1197,37,11,18,34
1198,37,11,18,34
1199,37,11,18,34
1200,37,11,18,34
1201,37,11,18,34
1202,37,11,18,34
1203,36,12,18,34
1204,36,12,18,34
1205,36,12,17,35
1206,36,12,17,35
1207,36,12,17,35
1208,36,12,17,35
1209,36,12,17,35
1210,36,11,18,35
1211,36,11,18,35
1212,36,11,18,35
1213,36,11,18,35
1214,36,11,18,35
1215,36,11,18,35
1216,36,11,18,35
1217,36,11,18,35
1218,36,11,18,35
1219,36,11,18,35
1220,36,11,18,35
1221,36,11,18,35
1222,36,11,18,35
1223,36,11,18,35
1224,36,11,17,36
1225,36,11,17,36
1226,36,10,18,36
1227,35,11,18,36
1228,35,11,18,36
1229,35,11,17,37
1230,35,11,17,37
1231,35,11,17,37
1232,35,11,17,37
1233,34,12,17,37
1234,34,11,18,37
1235,34,11,18,37
1236,34,10,19,37
1237,34,10,19,37
1238,34,10,19,37
1239,34,10,19,37
1240,34,9,20,37
1241,34,9,20,37
1242,33,10,20,37
1243,33,10,19,38
1244,33,10,19,38
1245,33,10,19,38
1246,33,10,19,38
1247,33,10,19,38
1248,33,10,19,38
1249,33,10,19,38
1250,33,10,19,38
1251,33,10,19,38
1252,33,10,19,38
1253,33,10,19,38
1254,33,10,19,38
1255,33,10,19,38
1256,33,10,19,38
1257,33,10,19,38
1258,32,11,19,38
1259,32,11,19,38
1260,32,11,19,38
1261,32,11,19,38
1262,32,11,18,39
1263,31,12,18,39
1264,31,12,18,39
1265,31,12,18,39
1266,31,12,18,39
1267,31,12,18,39
1268,31,12,18,39
1269,31,12,18,39
1270,31,12,18,39
1271,31,12,18,39
1272,31,12,18,39
1273,31,11,19,39
1274,31,11,19,39
1275,31,11,19,39
1276,31,10,19,40
1277,31,10,19,40
1278,31,10,19,40
1279,31,10,19,40
1280,31,10,19,40
1281,31,10,19,40
1282,31,10,19,40
1283,30,11,19,40
1284,30,11,19,40
1285,30,11,19,40
1286,30,11,19,40
1287,30,11,19,40
1288,30,11,19,40
1289,30,11,19,40
1290,30,11,19,40
1291,30,11,19,40
1292,30,11,19,40
1293,30,11,19,40
1294,30,11,19,40
1295,30,11,19,40
1296,30,11,19,40
1297,30,11,18,41
1298,30,11,17,42
1299,30,11,17,42
1300,30,11,17,42
1301,30,11,17,42
1302,30,10,18,42
1303,30,10,18,42
1304,30,10,17,43
1305,30,10,17,43
1306,30,10,17,43
1307,30,10,17,43
1308,30,9,18,43
1309,30,9,18,43
1310,30,9,18,43
1311,30,9,18,43
1312,30,9,18,43
1313,30,9,18,43
1314,30,9,18,43
1315,30,9,18,43
1316,30,9,18,43
1317,30,9,17,44
1318,30,9,17,44
1319,30,9,17,44
1320,30,9,16,45
1321,30,9,16,45
1322,30,9,16,45
1323,30,9,15,46
1324,30,9,15,46
1325,30,9,15,46
1326,30,9,15,46
1327,30,9,15,46
1328,30,8,16,46
1329,30,8,16,46
1330,30,8,16,46
1331,30,8,16,46
1332,30,8,16,46
1333,30,8,16,46
1334,30,8,16,46
1335,30,8,16,46
1336,30,8,16,46
1337,30,8,16,46
1338,30,8,16,46
1339,30,8,16,46
1340,30,8,16,46
1341,30,8,16,46
1342,30,8,16,46
1343,30,8,16,46
1344,30,8,16,46
1345,30,8,16,46
1346,30,8,16,46
1347,30,8,16,46
1348,30,8,16,46
1349,30,8,16,46
1350,30,8,16,46
1351,30,8,16,46
1352,30,8,16,46
1353,30,8,16,46
1354,30,8,15,47
1355,30,8,15,47
1356,30,8,15,47
1357,30,8,15,47
1358,30,8,15,47
1359,30,8,15,47
1360,30,8,15,47
1361,30,8,14,48
1362,30,7,15,48
1363,30,7,15,48
1364,30,7,14,49
1365,30,7,13,50
1366,30,7,13,50
1367,30,7,13,50
1368,30,7,13,50
1369,30,7,13,50
1370,30,7,13,50
1371,30,7,13,50
1372,30,7,13,50
1373,29,8,13,50
1374,29,8,13,50
1375,29,8,12,51
1376,29,8,12,51
1377,29,8,12,51
1378,29,8,12,51
1379,29,8,12,51
1380,29,8,12,51
1381,29,8,12,51
1382,29,8,12,51
1383,29,8,12,51
1384,29,8,12,51
1385,29,8,12,51
1386,29,8,12,51
1387,29,8,12,51
1388,28,9,12,51
1389,28,9,11,52
1390,28,9,11,52
1391,28,9,11,52
1392,27,10,11,52
1393,27,10,11,52
1394,27,10,11,52
1395,27,10,11,52
1396,27,10,11,52
1397,27,10,11,52
1398,27,10,11,52
1399,27,10,11,52
1400,27,10,11,52
1401,27,10,11,52
1402,27,10,11,52
1403,27,10,11,52
1404,27,9,12,52
1405,27,9,12,52
1406,27,9,12,52
1407,27,9,12,52
1408,27,9,12,52
1409,26,10,12,52
1410,26,10,12,52
1411,26,10,11,53
1412,26,10,11,53
1413,26,10,11,53
1414,26,10,11,53
1415,26,10,11,53
1416,26,10,11,53
1417,26,10,11,53
1418,26,10,11,53
1419,26,10,11,53
1420,26,10,11,53
1421,26,10,11,53
1422,26,10,11,53
1423,26,10,11,53
1424,26,10,11,53
1425,26,10,11,53
1426,26,10,11,53
1427,26,10,10,54
1428,26,9,11,54
1429,26,9,11,54
1430,26,9,11,54
1431,26,9,11,54
1432,26,9,11,54
1433,26,9,11,54
1434,26,8,12,54
1435,26,8,11,55
1436,26,8,11,55
1437,26,8,10,56
1438,26,8,10,56
1439,26,8,10,56
1440,26,8,10,56
1441,26,8,9,57
1442,26,8,9,57
1443,26,7,10,57
1444,26,7,10,57
1445,26,7,10,57
1446,26,7,10,57
1447,26,7,10,57
1448,26,7,10,57
1449,26,7,10,57
1450,26,7,10,57
1451,26,7,10,57
1452,26,7,10,57
1453,26,7,10,57
1454,26,7,10,57
1455,26,7,10,57
1456,26,7,10,57
1457,25,8,10,57
1458,25,8,10,57
1459,25,7,11,57
1460,25,7,11,57
1461,25,7,11,57
1462,25,7,11,57
1463,25,7,11,57
1464,25,6,12,57
1465,25,6,12,57
1466,25,6,12,57
1467,25,6,12,57
1468,25,6,12,57
1469,25,6,12,57
1470,25,6,12,57
1471,25,6,12,57
1472,25,6,12,57
1473,25,6,12,57
1474,25,6,11,58
1475,25,6,11,58
1476,25,6,11,58
1477,25,6,10,59
1478,25,6,10,59
1479,25,6,10,59
1480,25,6,10,59
1481,25,6,10,59
1482,25,6,10,59
1483,25,6,10,59
1484,24,6,11,59
1485,24,6,11,59
1486,24,6,11,59
1487,24,6,11,59
1488,24,6,11,59
1489,24,6,11,59
1490,24,6,11,59
1491,24,6,11,59
1492,24,6,11,59
1493,24,6,11,59
1494,24,6,11,59
1495,24,6,11,59
1496,24,6,11,59
1497,24,6,11,59
1498,24,6,11,59
1499,24,6,11,59
1500,23,7,11,59
1501,23,7,11,59
1502,23,7,11,59
1503,23,7,10,60
1504,23,7,10,60
1505,23,7,10,60
1506,23,7,10,60
1507,23,7,10,60
1508,23,7,10,60
1509,23,7,9,61
1510,23,7,9,61
1511,23,7,9,61
1512,23,7,9,61
1513,23,7,9,61
1514,23,7,9,61
1515,23,7,9,61
1516,23,7,9,61
1517,23,7,9,61
1518,23,7,9,61
1519,23,7,9,61
1520,23,7,9,61
1521,23,7,9,61
1522,23,7,9,61
1523,23,7,9,61
1524,23,7,9,61
1525,23,7,9,61
1526,23,7,9,61
1527,23,7,9,61
1528,23,7,9,61
1529,23,7,8,62
1530,23,7,8,62
1531,23,7,8,62
1532,23,7,8,62
1533,23,7,8,62
1534,23,7,8,62
1535,23,7,8,62
1536,23,7,8,62
1537,23,7,8,62
1538,23,7,8,62
1539,23,7,8,62
1540,23,7,8,62
1541,23,7,8,62
1542,23,7,8,62
1543,23,7,8,62
1544,23,7,8,62
1545,23,7,8,62
1546,23,7,8,62
1547,23,7,8,62
1548,23,7,8,62
1549,23,7,8,62
1550,23,7,8,62
1551,23,7,8,62
1552,23,7,8,62
1553,23,7,8,62
1554,23,7,8,62
1555,23,7,8,62
1556,23,7,8,62
1557,23,7,8,62
1558,22,8,8,62
1559,22,8,8,62
1560,22,8,8,62
1561,22,8,8,62
1562,22,8,8,62
1563,22,8,7,63
1564,22,8,7,63
1565,22,8,7,63
1566,22,8,7,63
1567,22,8,7,63
1568,22,8,7,63
1569,22,8,7,63
1570,22,8,7,63
1571,22,8,7,63
1572,22,8,7,63
1573,22,8,7,63
1574,22,7,8,63
1575,22,7,8,63
1576,22,7,8,63
1577,22,7,8,63
1578,22,7,8,63
1579,22,7,8,63
1580,22,7,8,63
1581,22,7,8,63
1582,22,7,8,63
1583,22,7,8,63
1584,22,7,8,63
1585,22,7,8,63
1586,22,7,8,63
1587,22,7,8,63
1588,22,7,8,63
1589,22,6,9,63
1590,22,6,9,63
1591,22,6,9,63
1592,22,6,9,63
1593,22,5,10,63
1594,22,5,10,63
1595,22,5,10,63
1596,22,5,10,63
1597,22,5,10,63
1598,22,5,10,63
1599,22,5,10,63
1600,22,5,10,63
1601,22,5,10,63
1602,22,5,10,63
1603,22,5,10,63
1604,22,5,10,63
1605,21,6,9,64
1606,21,6,9,64
1607,21,6,9,64
1608,21,6,9,64
1609,20,7,9,64
1610,20,6,10,64
1611,20,6,10,64
1612,20,6,10,64
1613,20,6,10,64
1614,20,6,10,64
1615,20,6,10,64
1616,20,6,10,64
1617,20,6,10,64
1618,20,6,10,64
1619,20,6,10,64
1620,20,6,10,64
1621,20,6,10,64
1622,20,6,10,64
1623,20,6,10,64
1624,20,6,10,64
1625,20,6,10,64
1626,20,6,10,64
1627,20,6,10,64
1628,20,6,10,64
1629,20,6,9,65
1630,20,6,9,65
1631,20,6,9,65
1632,20,6,9,65
1633,20,6,9,65
1634,19,7,9,65
1635,19,7,8,66
1636,19,7,8,66
1637,19,7,8,66
1638,19,7,8,66
1639,19,7,8,66
1640,19,7,8,66
1641,19,7,8,66
1642,19,7,8,66
1643,19,7,8,66
1644,19,7,7,67
1645,19,7,7,67
1646,19,7,7,67
1647,19,7,7,67
1648,19,7,7,67
1649,19,7,7,67
1650,19,7,7,67
1651,19,7,7,67
1652,19,7,7,67
1653,19,7,7,67
1654,19,7,7,67
1655,19,7,7,67
1656,19,7,7,67
1657,19,7,7,67
1658,19,6,8,67
1659,19,6,8,67
1660,19,6,7,68
1661,19,6,7,68
1662,19,6,7,68
1663,19,6,7,68
1664,19,6,7,68
1665,19,6,6,69
1666,19,6,6,69
1667,19,6,6,69
1668,19,6,6,69
1669,19,6,6,69
1670,19,6,6,69
1671,19,6,6,69
1672,19,6,6,69
1673,19,6,6,69
1674,19,6,6,69
1675,19,6,6,69
1676,19,6,6,69
1677,19,6,6,69
1678,19,6,6,69
1679,19,6,6,69
1680,19,6,6,69
1681,19,6,6,69
1682,19,6,6,69
1683,19,6,6,69
1684,19,6,6,69
1685,19,5,6,70
1686,19,5,6,70
1687,19,5,6,70
1688,19,5,6,70
1689,19,5,6,70
1690,19,5,6,70
1691,19,5,6,70
1692,19,5,6,70
1693,19,5,6,70
1694,19,5,6,70
1695,19,5,6,70
1696,19,5,6,70
1697,19,5,6,70
1698,19,5,6,70
1699,19,5,6,70
1700,19,5,6,70
1701,19,4,7,70
1702,19,4,7,70
1703,19,4,7,70
1704,19,4,7,70
1705,19,4,7,70
1706,19,4,7,70
1707,19,4,7,70
1708,19,4,7,70
1709,19,4,7,70
1710,19,4,7,70
1711,19,4,7,70
1712,19,4,7,70
1713,19,4,7,70
1714,19,4,7,70
1715,19,4,7,70
1716,19,4,7,70
1717,19,4,7,70
1718,19,4,7,70
1719,19,4,7,70
1720,19,4,7,70
1721,19,4,7,70
1722,19,4,7,70
1723,19,4,7,70
1724,19,4,7,70
1725,19,4,7,70
1726,19,4,7,70
1727,19,4,7,70
1728,19,4,7,70
1729,19,4,7,70
1730,19,4,7,70
1731,19,4,7,70
1732,19,4,7,70
1733,19,4,7,70
1734,19,4,7,70
1735,19,4,7,70
1736,18,5,7,70
1737,18,5,7,70
1738,18,5,7,70
1739,18,5,7,70
1740,18,5,7,70
1741,18,5,7,70
1742,18,5,7,70
1743,18,5,7,70
1744,18,5,7,70
1745,18,5,7,70
1746,18,5,7,70
1747,18,5,7,70
1748,18,5,7,70
1749,18,5,7,70
1750,18,5,7,70
1751,18,5,7,70
1752,18,5,7,70
1753,18,5,7,70
1754,18,5,7,70
1755,18,5,7,70
1756,18,5,7,70
1757,18,5,7,70
1758,18,5,7,70
1759,18,4,8,70
1760,18,4,8,70
1761,18,4,8,70
1762,18,4,8,70
1763,18,4,8,70
1764,18,4,8,70
1765,18,4,8,70
1766,18,4,8,70
1767,18,4,8,70
1768,18,4,8,70
1769,18,4,8,70
1770,17,5,8,70
1771,17,5,8,70
1772,17,5,8,70
1773,17,5,8,70
1774,17,5,8,70
1775,17,5,7,71
1776,17,5,7,71
1777,17,5,7,71
1778,17,5,7,71
1779,17,5,7,71
1780,17,5,7,71
1781,17,5,7,71
1782,17,5,7,71
1783,17,5,7,71
1784,17,5,7,71
1785,17,5,7,71
1786,17,5,7,71
1787,17,5,7,71
1788,17,5,7,71
1789,17,5,7,71
1790,17,5,6,72
1791,17,5,6,72
1792,17,5,6,72
1793,17,5,6,72
1794,17,5,5,73
1795,17,5,5,73
1796,17,5,5,73
1797,17,5,5,73
1798,17,5,5,73
1799,17,5,5,73
1800,17,5,5,73
1801,17,5,5,73
1802,17,5,5,73
1803,17,5,5,73
1804,17,5,5,73
1805,17,5,5,73
1806,17,4,6,73
1807,17,4,6,73
1808,17,4,6,73
1809,17,4,6,73
1810,17,3,7,73
1811,17,3,6,74
1812,17,3,6,74
1813,17,3,6,74
1814,17,3,6,74
1815,17,3,6,74
1816,17,3,6,74
1817,17,3,6,74
1818,17,3,6,74
1819,17,3,6,74
1820,17,3,6,74
1821,17,3,6,74
1822,17,3,6,74
1823,17,3,6,74
1824,17,3,6,74
1825,17,3,6,74
1826,17,3,6,74
1827,17,3,6,74
1828,17,3,6,74
1829,17,3,6,74
1830,17,3,6,74
1831,17,3,6,74
1832,17,3,6,74
1833,17,3,6,74
1834,17,3,6,74
1835,17,2,7,74
1836,17,2,7,74
1837,17,2,7,74
1838,17,2,7,74
1839,17,2,7,74
1840,15,4,7,74
1841,15,4,7,74
1842,14,5,7,74
1843,14,5,7,74
1844,13,6,7,74
1845,13,6,7,74
1846,13,6,7,74
1847,13,6,7,74
1848,13,6,7,74
1849,13,6,7,74
1850,13,6,7,74
1851,13,6,7,74
1852,13,6,7,74
1853,13,6,7,74
1854,13,6,7,74
1855,13,6,7,74
1856,13,6,7,74
1857,13,6,7,74
1858,13,6,7,74
1859,13,6,6,75
1860,13,6,6,75
1861,13,6,6,75
1862,13,6,6,75
1863,13,6,6,75
1864,12,7,6,75
1865,12,7,6,75
1866,12,7,6,75
1867,12,7,6,75
1868,12,7,6,75
1869,12,7,6,75
1870,12,7,6,75
1871,12,7,6,75
1872,12,7,6,75
1873,12,7,6,75
1874,12,7,6,75
1875,12,7,6,75
1876,12,7,6,75
1877,12,7,6,75
1878,12,7,6,75
1879,12,7,6,75
1880,12,7,6,75
1881,12,7,6,75
1882,12,7,6,75
1883,12,7,6,75
1884,12,7,6,75
1885,12,7,6,75
1886,12,7,5,76
1887,12,7,5,76
1888,12,7,5,76
1889,12,7,5,76
1890,12,7,5,76
1891,12,7,5,76
1892,12,7,5,76
1893,12,7,5,76
1894,12,7,5,76
1895,12,7,5,76
1896,12,7,5,76
1897,12,7,5,76
1898,12,7,5,76
1899,12,7,5,76
1900,12,7,5,76
1901,12,7,5,76
1902,12,7,4,77
1903,12,7,4,77
1904,12,7,4,77
1905,12,7,4,77
1906,12,7,4,77
1907,12,7,4,77
1908,12,7,4,77
1909,12,7,4,77
1910,12,7,4,77
1911,12,7,4,77
1912,12,7,4,77
1913,12,7,4,77
1914,12,7,4,77
1915,12,7,4,77
1916,12,7,4,77
1917,12,7,4,77
1918,12,7,4,77
1919,12,7,4,77
1920,12,7,4,77
1921,12,7,4,77
1922,12,7,4,77
1923,12,7,4,77
1924,12,7,4,77
1925,12,7,4,77
1926,12,7,4,77
1927,12,7,4,77
1928,12,7,4,77
1929,12,7,4,77
1930,12,7,4,77
1931,12,7,4,77
1932,12,7,4,77
1933,12,7,4,77
1934,12,7,4,77
1935,12,7,4,77
1936,11,8,4,77
1937,11,7,5,77
1938,11,7,5,77
1939,11,7,5,77
1940,11,7,5,77
1941,11,7,5,77
1942,11,7,5,77
1943,11,7,5,77
1944,11,7,5,77
1945,11,7,5,77
1946,11,7,5,77
1947,11,7,5,77
1948,11,7,5,77
1949,11,7,5,77
1950,11,7,5,77
1951,11,7,5,77
1952,11,7,5,77
1953,11,7,5,77
1954,11,7,5,77
1955,11,7,5,77
1956,11,7,5,77
1957,11,7,5,77
1958,11,7,5,77
1959,11,7,5,77
1960,11,7,4,78
1961,11,7,4,78
1962,11,7,4,78
1963,11,7,4,78
1964,11,7,4,78
1965,11,7,4,78
1966,11,7,4,78
1967,11,7,4,78
1968,11,7,4,78
1969,11,7,4,78
1970,11,7,4,78
1971,11,6,5,78
1972,11,6,5,78
1973,11,6,5,78
1974,11,6,5,78
1975,11,6,5,78
1976,11,6,5,78
1977,11,6,5,78
1978,11,6,5,78
1979,11,6,5,78
1980,11,6,5,78
1981,11,6,5,78
1982,11,6,5,78
1983,11,6,5,78
1984,11,6,5,78
1985,11,6,5,78
1986,11,6,5,78
1987,11,6,5,78
1988,11,6,5,78
1989,11,6,5,78
1990,11,6,5,78
1991,11,6,5,78
1992,11,6,5,78
1993,11,6,5,78
1994,11,6,5,78
1995,11,6,5,78
1996,11,6,5,78
1997,11,6,5,78
1998,11,6,5,78
1999,11,6,5,78
2000,11,6,5,78
