"tick","total"
0,0
1,1
2,1
3,1
4,1
5,1
6,1
7,1
8,1
9,1
10,1
11,1
12,1
13,1
14,1
15,1
16,1
17,1
18,1
19,1
20,1
21,1
22,1
23,1
24,1
25,1
26,1
27,1
28,1
29,1
30,1
31,1
32,1
33,1
34,1
35,1
36,1
37,1
38,1
39,1
40,1
41,1
42,1
43,1
44,1
45,1
46,1
47,1
48,1
49,1
50,1
51,1
52,1
53,1
54,1
55,1
56,1
57,1
58,1
59,1
60,1
61,1
62,1
63,1
64,1
65,1
66,1
67,1
68,1
69,1
70,1
71,1
72,1
73,1
74,1
75,1
76,1
77,1
78,1
79,1
80,1
81,1
82,1
83,1
84,1
85,1
86,1
87,1
88,1
89,1
90,1
91,1
92,1
93,1
94,1
95,1
96,1
97,1
98,1
99,1
100,1
101,1
102,1
103,1
104,1
105,1
106,1
107,1
108,1
109,1
110,1
111,1
112,1
113,1
114,1
115,1
116,1
117,1
118,1
119,1
120,1
121,1
122,1
123,1
124,1
125,1
126,1
127,1
128,1
129,1
130,1
131,1
132,1
133,1
134,1
135,1
136,1
137,1
138,1
139,1
140,1
141,1
142,1
143,1
144,1
145,1
146,1
147,1
148,1
149,1
150,1
151,1
152,1
153,1
154,1
155,1
156,1
157,1
158,1
159,1
160,1
161,1
162,1
163,1
164,1
165,1
166,1
167,1
168,1
169,1
170,1
171,1
172,1
173,1
174,1
175,1
176,1
177,1
178,1
179,1
180,1
181,1
182,1
183,1
184,1
185,1
186,1
187,1
188,1
189,1
190,1
191,1
192,1
193,1
194,1
195,1
196,1
197,1
198,1
199,1
200,1
201,1
202,1
203,1
204,1
205,1
206,1
207,1
208,1
209,1
210,1
211,1
212,1
213,1
214,1
215,1
216,1
217,1
218,1
219,1
220,1
221,2
222,2
223,2
224,2
225,2
226,2
227,2
228,2
229,2
230,2
231,3
232,3
233,3
234,3
235,3
236,3
237,3
238,3
239,3
240,3
241,3
242,3
243,3
244,4
245,4
246,5
247,5
248,5
249,5
250,5
251,5
252,6
253,6
254,6
255,6
256,6
257,6
258,6
259,6
260,6
261,6
262,6
263,7
264,7
265,7
266,7
267,7
268,8
269,9
270,9
271,9
272,9
273,9
274,9
275,9
276,9
277,9
278,9
279,9
280,9
281,9
282,9
283,9
284,9
285,9
286,9
287,9
288,9
289,10
290,10
291,10
292,10
293,10
294,10
295,10
296,10
297,10
298,10
299,10
300,10
301,10
302,10
303,11
304,11
305,11
306,11
307,12
308,13
309,13
310,13
311,13
312,13
313,14
314,14
315,14
316,14
317,14
318,14
319,14
320,14
321,15
322,15
323,15
324,15
325,15
326,15
327,15
328,15
329,15
330,15
331,15
332,15
333,15
334,15
335,15
336,16
337,16
338,16
339,16
340,16
341,16
342,16
343,16
344,17
345,17
346,18
347,18
348,18
349,18
350,18
351,19
352,19
353,19
354,19
355,19
356,19
357,19
358,19
359,20
360,21
361,21
362,21
363,21
364,21
365,21
366,21
367,21
368,21
369,21
370,21
371,21
372,22
373,23
374,23
375,24
376,24
377,24
378,24
379,24
380,25
381,25
382,25
383,25
384,26
385,26
386,26
387,26
388,26
389,26
390,26
391,26
392,26
393,26
394,26
395,26
396,26
397,26
398,26
399,27
400,27
401,27
402,27
403,27
404,27
405,27
406,27
407,27
408,27
409,28
410,28
411,28
412,28
413,28
414,28
415,29
416,30
417,30
418,30
419,30
420,30
421,30
422,30
423,30
424,30
425,30
426,30
427,30
428,30
429,30
430,30
431,30
432,31
433,31
434,31
435,31
436,31
437,31
438,31
439,31
440,31
441,31
442,31
443,31
444,31
445,31
446,31
447,31
448,31
449,31
450,31
451,31
452,31
453,31
454,31
455,31
456,31
457,31
458,31
459,31
460,31
461,31
462,31
463,31
464,31
465,31
466,31
467,31
468,31
469,31
470,31
471,31
472,31
473,31
474,31
475,31
476,31
477,31
478,32
479,32
480,32
481,32
482,32
483,32
484,32
485,32
486,32
487,32
488,32
489,32
490,32
491,33
492,33
493,33
494,33
495,33
496,33
497,33
498,33
499,33
500,33
501,33
502,33
503,33
504,33
505,33
506,33
507,33
508,33
509,33
510,33
511,33
512,33
513,33
514,33
515,33
516,33
517,33
518,33
519,33
520,33
521,33
522,33
523,33
524,33
525,33
526,33
527,33
528,33
529,33
530,33
531,33
532,33
533,33
534,33
535,33
536,33
537,33
538,33
539,33
540,33
541,33
542,33
543,33
544,33
545,33
546,33
547,33
548,33
549,33
550,33
551,33
552,33
553,33
554,33
555,34
556,34
557,34
558,34
559,34
560,34
561,34
562,34
563,34
564,34
565,34
566,34
567,35
568,36
569,36
570,36
571,36
572,36
573,36
574,36
575,36
576,36
577,36
578,36
579,36
580,36
581,36
582,36
583,36
584,37
585,37
586,37
587,37
588,37
589,37
590,37
591,37
592,37
593,37
594,37
595,37
596,38
597,38
598,38
599,38
600,38
601,38
602,38
603,38
604,38
605,39
606,40
607,40
608,40
609,40
610,40
611,40
612,40
613,40
614,40
615,40
616,40
617,40
618,41
619,41
620,41
621,41
622,41
623,41
624,41
625,41
626,41
627,41
628,42
629,42
630,42
631,42
632,42
633,42
634,42
635,42
636,42
637,42
638,42
639,42
640,42
641,42
642,42
643,42
644,42
645,42
646,42
647,42
648,42
649,42
650,42
651,42
652,42
653,42
654,42
655,42
656,42
657,42
658,42
659,42
660,42
661,43
662,43
663,43
664,43
665,43
666,44
667,44
668,44
669,44
670,44
671,44
672,45
673,45
674,45
675,46
676,46
677,46
678,46
679,46
680,46
681,46
682,46
683,46
684,47
685,47
686,47
687,47
688,47
689,47
690,47
691,47
692,47
693,47
694,47
695,47
696,47
697,47
698,47
699,47
700,47
701,47
702,47
703,47
704,48
705,48
706,48
707,49
708,49
709,49
710,49
711,49
712,49
713,49
714,49
715,49
716,49
717,49
718,49
719,49
720,49
721,49
722,49
723,49
724,49
725,49
726,49
727,49
728,49
729,49
730,49
731,49
732,49
733,49
734,49
735,49
736,49
737,49
738,50
739,50
740,50
741,50
742,50
743,50
744,51
745,51
746,51
747,51
748,52
749,52
750,52
751,52
752,52
753,52
754,52
755,52
756,52
757,52
758,52
759,52
760,52
761,52
762,52
763,52
764,52
765,52
766,52
767,52
768,52
769,52
770,52
771,52
772,52
773,52
774,52
775,52
776,52
777,52
778,52
779,52
780,52
781,52
782,52
783,52
784,52
785,52
786,52
787,52
788,52
789,52
790,52
791,52
792,52
793,52
794,52
795,52
796,52
797,53
798,53
799,53
800,53
801,53
802,53
803,53
804,53
805,53
806,53
807,53
808,53
809,53
810,53
811,53
812,53
813,53
814,53
815,53
816,53
817,53
818,53
819,53
820,53
821,53
822,53
823,53
824,53
825,53
826,53
827,53
828,53
829,53
830,53
831,54
832,54
833,54
834,54
835,54
836,54
837,54
838,54
839,54
840,54
841,54
842,54
843,54
844,54
845,54
846,54
847,54
848,54
849,54
850,54
851,54
852,54
853,54
854,54
855,54
856,54
857,54
858,55
859,55
860,55
861,55
862,55
863,55
864,55
865,55
866,55
867,55
868,55
869,55
870,55
871,55
872,55
873,55
874,55
875,55
876,55
877,55
878,55
879,55
880,55
881,55
882,55
883,55
884,55
885,55
886,55
887,55
888,55
889,55
890,55
891,55
892,55
893,55
894,55
895,55
896,55
897,55
898,55
899,55
900,55
901,55
902,55
903,55
904,55
905,55
906,55
907,55
908,55
909,55
910,55
911,55
912,55
913,55
914,55
915,55
916,55
917,55
918,55
919,55
920,55
921,55
922,55
923,56
924,56
925,56
926,56
927,56
928,56
929,56
930,56
931,56
932,56
933,56
934,56
935,56
936,56
937,56
938,56
939,56
940,56
941,56
942,56
943,56
944,56
945,56
946,56
947,57
948,57
949,57
950,57
951,57
952,57
953,57
954,57
955,57
956,57
957,57
958,57
959,57
960,57
961,57
962,57
963,57
964,57
965,57
966,57
967,57
968,57
969,57
970,57
971,57
972,57
973,57
974,57
975,57
976,57
977,57
978,57
979,57
980,57
981,57
982,57
983,57
984,57
985,57
986,57
987,57
988,57
989,57
990,57
991,57
992,57
993,57
994,57
995,57
996,57
997,57
998,57
999,57
1000,57
1001,57
1002,57
1003,57
1004,58
1005,58
1006,58
1007,58
1008,58
1009,58
1010,58
1011,58
1012,58
1013,58
1014,58
1015,58
1016,58
1017,58
1018,58
1019,58
1020,58
1021,58
1022,58
1023,58
1024,58
1025,58
1026,58
1027,58
1028,58
1029,58
1030,58
1031,58
1032,58
1033,58
1034,58
1035,58
1036,58
1037,58
1038,58
1039,58
1040,58
1041,58
1042,58
1043,58
1044,58
1045,58
1046,58
1047,58
1048,58
1049,58
1050,58
1051,58
1052,59
1053,59
1054,59
1055,59
1056,59
1057,59
1058,59
1059,59
1060,60
1061,60
1062,60
1063,60
1064,60
1065,60
1066,60
1067,60
1068,60
1069,60
1070,60
1071,60
1072,60
1073,61
1074,61
1075,61
1076,61
1077,61
1078,61
1079,61
1080,61
1081,61
1082,61
1083,61
1084,61
1085,61
1086,61
1087,61
1088,61
1089,61
1090,61
1091,61
1092,61
1093,61
1094,61
1095,61
1096,62
1097,62
1098,62
1099,62
1100,62
1101,62
1102,62
1103,62
1104,62
1105,62
1106,62
1107,62
1108,62
1109,62
1110,62
1111,62
1112,62
1113,62
1114,62
1115,62
1116,62
1117,62
1118,62
1119,62
1120,62
1121,62
1122,62
1123,62
1124,62
1125,62
1126,62
1127,62
1128,62
1129,62
1130,62
1131,62
1132,62
1133,62
1134,62
1135,62
1136,62
1137,62
1138,62
1139,62
1140,62
1141,62
1142,62
1143,62
1144,62
1145,62
1146,63
1147,63
1148,63
1149,63
1150,63
1151,63
1152,63
1153,63
1154,63
1155,63
1156,63
1157,63
1158,63
1159,63
1160,63
1161,63
1162,63
1163,63
1164,63
1165,63
1166,63
1167,63
1168,63
1169,63
1170,63
1171,63
1172,63
1173,63
1174,64
1175,64
1176,64
1177,64
1178,64
1179,64
1180,65
1181,65
1182,65
1183,65
1184,65
1185,65
1186,65
1187,65
1188,65
1189,65
1190,65
1191,65
1192,65
1193,66
1194,66
1195,66
1196,66
1197,66
1198,66
1199,66
1200,66
1201,66
1202,66
1203,66
1204,66
1205,67
1206,67
1207,67
1208,67
1209,67
1210,67
1211,67
1212,67
1213,67
1214,67
1215,67
1216,67
1217,67
1218,67
1219,67
1220,67
1221,67
1222,67
1223,67
1224,67
1225,67
1226,67
1227,67
1228,67
1229,68
1230,69
1231,70
1232,71
1233,72
1234,72
1235,72
1236,72
1237,72
1238,72
1239,72
1240,72
1241,72
1242,72
1243,72
1244,72
1245,72
1246,72
1247,72
1248,72
1249,72
1250,72
1251,72
1252,72
1253,72
1254,72
1255,72
1256,72
1257,72
1258,72
1259,72
1260,72
1261,72
1262,72
1263,72
1264,72
1265,72
1266,72
1267,72
1268,72
1269,72
1270,72
1271,72
1272,72
1273,72
1274,72
1275,72
1276,72
1277,72
1278,72
1279,72
1280,72
1281,72
1282,72
1283,72
1284,72
1285,72
1286,72
1287,72
1288,72
1289,72
1290,72
1291,72
1292,72
1293,72
1294,72
1295,72
1296,72
1297,72
1298,72
1299,72
1300,72
1301,72
1302,72
1303,72
1304,72
1305,72
1306,72
1307,72
1308,72
1309,72
1310,72
1311,72
1312,72
1313,72
1314,72
1315,73
1316,73
1317,73
1318,73
1319,73
1320,73
1321,73
1322,73
1323,73
1324,73
1325,73
1326,73
1327,73
1328,73
1329,73
1330,73
1331,73
1332,73
1333,73
1334,73
1335,73
1336,73
1337,73
1338,73
1339,73
1340,73
1341,73
1342,73
1343,73
1344,73
1345,74
1346,74
1347,74
1348,74
1349,74
1350,74
1351,74
1352,74
1353,74
1354,74
1355,74
1356,74
1357,74
1358,74
1359,74
1360,74
1361,74
1362,74
1363,74
1364,74
1365,74
1366,74
1367,74
1368,74
1369,75
1370,75
1371,75
1372,75
1373,75
1374,75
1375,75
1376,75
1377,75
1378,76
1379,76
1380,78
1381,78
1382,78
1383,78
1384,78
1385,78
1386,78
1387,78
1388,78
1389,78
1390,78
1391,78
1392,78
1393,79
1394,79
1395,79
1396,79
1397,79
1398,79
1399,79
1400,79
1401,79
1402,79
1403,79
1404,79
1405,79
1406,79
1407,79
1408,79
1409,79
1410,79
1411,79
1412,79
1413,79
1414,79
1415,79
1416,79
1417,79
1418,79
1419,79
1420,79
1421,79
1422,79
1423,79
1424,79
1425,79
1426,79
1427,79
1428,79
1429,79
1430,79
1431,79
1432,79
1433,79
1434,79
1435,79
1436,79
1437,79
1438,79
1439,79
1440,79
1441,79
1442,79
1443,79
1444,79
1445,79
1446,80
1447,80
1448,80
1449,80
1450,80
1451,80
1452,80
1453,81
1454,81
1455,81
1456,81
1457,81
1458,81
1459,81
1460,81
1461,81
1462,81
1463,81
1464,81
1465,81
1466,81
1467,81
1468,81
1469,82
1470,82
1471,82
1472,82
1473,82
1474,82
1475,82
1476,82
1477,82
1478,82
1479,82
1480,82
1481,82
1482,82
1483,82
1484,82
1485,82
1486,82
1487,82
1488,82
1489,82
1490,82
1491,82
1492,82
1493,82
1494,82
1495,82
1496,82
1497,82
1498,82
1499,82
1500,82
1501,82
1502,82
1503,82
1504,82
1505,82
1506,82
1507,82
1508,82
1509,82
1510,82
1511,82
1512,82
1513,82
1514,82
1515,82
1516,82
1517,82
1518,82
1519,82
1520,82
1521,82
1522,82
1523,82
1524,82
1525,82
1526,82
1527,82
1528,82
1529,82
1530,82
1531,82
1532,82
1533,82
1534,82
1535,82
1536,82
1537,82
1538,82
1539,82
1540,82
1541,82
1542,82
1543,82
1544,82
1545,82
1546,82
1547,82
1548,82
1549,82
1550,82
1551,82
1552,82
1553,82
1554,82
1555,82
1556,82
1557,82
1558,82
1559,82
1560,82
1561,82
1562,82
1563,83
1564,83
1565,83
1566,83
1567,83
1568,83
1569,83
1570,83
1571,83
1572,83
1573,83
1574,83
1575,83
1576,83
1577,83
1578,83
1579,84
1580,84
1581,84
1582,84
1583,84
1584,84
1585,84
1586,84
1587,84
1588,84
1589,84
1590,84
1591,84
1592,85
1593,85
1594,85
1595,85
1596,85
1597,85
1598,85
1599,85
1600,85
1601,85
1602,85
1603,85
1604,85
1605,85
1606,85
1607,85
1608,85
1609,85
1610,85
1611,85
1612,85
1613,85
1614,85
1615,85
1616,85
1617,85
1618,85
1619,85
1620,85
1621,85
1622,85
1623,85
1624,85
1625,85
1626,85
1627,86
1628,86
1629,86
1630,86
1631,86
1632,86
1633,86
1634,86
1635,86
1636,86
1637,86
1638,86
1639,86
1640,86
1641,86
1642,86
1643,86
1644,86
1645,87
1646,88
1647,88
1648,88
1649,88
1650,88
1651,88
1652,88
1653,88
1654,88
1655,88
1656,88
1657,88
1658,88
1659,88
1660,88
1661,88
1662,88
1663,88
1664,88
1665,88
1666,88
1667,89
1668,89
1669,89
1670,89
1671,89
1672,89
1673,89
1674,89
1675,89
1676,89
1677,90
1678,90
1679,90
1680,90
1681,90
1682,90
1683,90
1684,90
1685,91
1686,91
1687,91
1688,91
1689,91
1690,91
1691,91
1692,91
1693,91
1694,91
1695,91
1696,91
1697,91
1698,91
1699,91
1700,91
1701,91
1702,91
1703,91
1704,91
1705,91
1706,91
1707,91
1708,91
1709,91
1710,92
1711,92
1712,92
1713,92
1714,92
1715,92
1716,92
1717,92
1718,93
1719,93
1720,93
1721,93
1722,93
1723,93
1724,93
1725,93
1726,93
1727,93
1728,93
1729,93
1730,93
1731,93
1732,93
1733,93
1734,93
1735,93
1736,93
1737,93
1738,93
1739,93
1740,93
1741,93
1742,93
1743,93
1744,93
1745,93
1746,93
1747,93
1748,93
1749,94
1750,94
1751,94
1752,94
1753,94
1754,94
1755,94
1756,94
1757,95
1758,96
1759,96
1760,96
1761,96
1762,96
1763,96
1764,96
1765,96
1766,96
1767,96
1768,96
1769,96
1770,96
1771,96
1772,96
1773,96
1774,96
1775,96
1776,96
1777,97
1778,97
1779,97
1780,97
1781,97
1782,97
1783,97
1784,97
1785,97
1786,97
1787,97
1788,97
1789,97
1790,97
1791,97
1792,97
1793,98
1794,98
1795,98
1796,98
1797,99
1798,99
1799,99
1800,99
1801,99
1802,99
1803,99
1804,99
1805,99
1806,99
1807,100
1808,100
1809,100
1810,100
1811,101
1812,101
1813,101
1814,101
1815,101
1816,101
1817,101
1818,101
1819,101
1820,101
1821,102
1822,102
1823,102
1824,102
1825,102
1826,102
1827,102
1828,102
1829,102
1830,102
1831,102
1832,102
1833,102
1834,102
1835,102
1836,102
1837,102
1838,102
1839,102
1840,102
1841,102
1842,103
1843,103
1844,103
1845,103
1846,103
1847,103
1848,103
1849,103
1850,103
1851,103
1852,103
1853,103
1854,103
1855,103
1856,103
1857,103
1858,103
1859,103
1860,103
1861,103
1862,103
1863,103
1864,103
1865,103
1866,103
1867,103
1868,103
1869,103
1870,103
1871,103
1872,105
1873,105
1874,105
1875,105
1876,105
1877,105
1878,105
1879,105
1880,105
1881,105
1882,105
1883,105
1884,105
1885,105
1886,106
1887,106
1888,106
1889,106
1890,106
1891,106
1892,106
1893,106
1894,106
1895,106
1896,106
1897,106
1898,106
1899,106
1900,106
1901,106
1902,106
1903,106
1904,106
1905,106
1906,106
1907,106
1908,106
1909,106
1910,106
1911,106
1912,106
1913,106
1914,106
1915,106
1916,107
1917,107
1918,107
1919,107
1920,107
1921,107
1922,107
1923,107
1924,108
1925,108
1926,108
1927,108
1928,108
1929,108
1930,108
1931,108
1932,108
1933,108
1934,108
1935,108
1936,108
1937,109
1938,109
1939,109
1940,109
1941,109
1942,109
1943,109
1944,109
1945,109
1946,109
1947,109
1948,109
1949,109
1950,109
1951,109
1952,109
1953,109
1954,109
1955,109
1956,109
1957,109
1958,109
1959,109
1960,109
1961,110
1962,110
1963,110
1964,110
1965,110
1966,110
1967,112
1968,112
1969,112
1970,112
1971,112
1972,112
1973,112
1974,112
1975,112
1976,112
1977,112
1978,112
1979,112
1980,112
1981,112
1982,112
1983,112
1984,112
1985,112
1986,112
1987,112
1988,112
1989,112
1990,112
1991,112
1992,112
1993,112
1994,112
1995,112
1996,112
1997,112
1998,112
1999,112
2000,112
