"tick","total"
0,0
1,0
2,0
3,0
4,0
5,0
6,0
7,0
8,0
9,0
10,0
11,0
12,0
13,0
14,0
15,0
16,0
17,0
18,0
19,0
20,0
21,0
22,0
23,0
24,0
25,0
26,0
27,0
28,0
29,0
30,0
31,0
32,0
33,0
34,0
35,0
36,0
37,0
38,0
39,0
40,0
41,0
42,0
43,0
44,0
45,0
46,0
47,0
48,0
49,0
50,0
51,0
52,0
53,0
54,0
55,0
56,0
57,0
58,0
59,0
60,0
61,0
62,0
63,0
64,0
65,0
66,0
67,0
68,0
69,0
70,0
71,0
72,0
73,0
74,0
75,0
76,0
77,0
78,0
79,0
80,0
81,0
82,0
83,0
84,0
85,0
86,0
87,0
88,0
89,0
90,0
91,0
92,0
93,0
94,0
95,0
96,0
97,0
98,0
99,0
100,0
101,0
102,0
103,0
104,0
105,0
106,0
107,0
108,0
109,0
110,0
111,0
112,0
113,0
114,0
115,0
116,0
117,0
118,0
119,0
120,0
121,0
122,0
123,0
124,0
125,0
126,0
127,0
128,0
129,0
130,0
131,0
132,0
133,0
134,0
135,0
136,0
137,0
138,0
139,0
140,0
141,0
142,0
143,0
144,0
145,0
146,0
147,0
148,0
149,0
150,0
151,0
152,0
153,0
154,0
155,0
156,0
157,0
158,0
159,0
160,0
161,0
162,0
163,0
164,0
165,0
166,0
167,0
168,0
169,0
170,0
171,0
172,0
173,0
174,0
175,0
176,0
177,0
178,0
179,0
180,0
181,0
182,0
183,0
184,0
185,0
186,0
187,0
188,0
189,0
190,0
191,0
192,0
193,0
194,0
195,0
196,0
197,0
198,0
199,0
200,0
201,0
202,0
203,0
204,0
205,0
206,0
207,0
208,0
209,0
210,0
211,0
212,0
213,0
214,0
215,0
216,0
217,0
218,0
219,0
220,0
221,0
222,0
223,0
224,0
225,0
226,0
227,0
228,0
229,0
230,0
231,0
232,0
233,0
234,0
235,0
236,0
237,0
238,0
239,0
240,0
241,0
242,0
243,0
244,0
245,0
246,0
247,0
248,0
249,0
250,0
251,0
252,0
253,0
254,0
255,0
256,0
257,0
258,0
259,0
260,0
261,1
262,2
263,2
264,3
265,3
266,3
267,4
268,4
269,4
270,4
271,5
272,5
273,5
274,5
275,5
276,5
277,5
278,5
279,5
280,5
281,6
282,6
283,6
284,6
285,7
286,7
287,7
288,7
289,8
290,8
291,8
292,8
293,8
294,8
295,9
296,9
297,9
298,9
299,9
300,9
301,9
302,9
303,9
304,9
305,9
306,9
307,9
308,9
309,11
310,11
311,11
312,11
313,11
314,11
315,11
316,11
317,11
318,11
319,11
320,11
321,11
322,11
323,11
324,11
325,11
326,12
327,12
328,12
329,12
330,12
331,12
332,12
333,13
334,13
335,13
336,13
337,13
338,13
339,13
340,13
341,13
342,13
343,13
344,13
345,13
346,13
347,13
348,14
349,14
350,14
351,14
352,14
353,14
354,14
355,14
356,14
357,14
358,14
359,14
360,15
361,15
362,15
363,15
364,15
365,15
366,15
367,15
368,15
369,15
370,15
371,15
372,15
373,16
374,16
375,16
376,16
377,16
378,16
379,16
380,16
381,16
382,16
383,16
384,17
385,17
386,17
387,17
388,18
389,18
390,18
391,18
392,18
393,18
394,18
395,18
396,18
397,18
398,18
399,18
400,18
401,18
402,19
403,19
404,19
405,19
406,19
407,20
408,20
409,20
410,20
411,20
412,20
413,20
414,21
415,21
416,21
417,21
418,21
419,21
420,21
421,22
422,22
423,22
424,22
425,22
426,22
427,22
428,22
429,22
430,22
431,22
432,22
433,22
434,22
435,22
436,22
437,22
438,22
439,22
440,22
441,22
442,22
443,22
444,22
445,23
446,23
447,23
448,23
449,23
450,23
451,23
452,23
453,23
454,23
455,23
456,23
457,23
458,23
459,23
460,23
461,23
462,23
463,23
464,23
465,24
466,24
467,24
468,24
469,25
470,25
471,25
472,25
473,25
474,25
475,25
476,25
477,25
478,25
479,25
480,25
481,25
482,25
483,25
484,25
485,25
486,25
487,25
488,25
489,25
490,25
491,25
492,25
493,25
494,25
495,25
496,25
497,25
498,25
499,25
500,25
501,25
502,25
503,25
504,25
505,25
506,25
507,25
508,25
509,25
510,25
511,25
512,25
513,25
514,25
515,25
516,25
517,25
518,25
519,25
520,25
521,25
522,25
523,25
524,25
525,25
526,25
527,25
528,25
529,25
530,25
531,25
532,25
533,25
534,25
535,25
536,25
537,25
538,25
539,25
540,25
541,25
542,25
543,25
544,25
545,25
546,25
547,25
548,25
549,25
550,25
551,25
552,25
553,25
554,25
555,25
556,25
557,25
558,25
559,25
560,25
561,25
562,25
563,25
564,25
565,25
566,25
567,25
568,25
569,25
570,25
571,25
572,25
573,25
574,25
575,25
576,25
577,25
578,25
579,25
580,25
581,25
582,25
583,25
584,25
585,25
586,25
587,26
588,26
589,26
590,26
591,26
592,26
593,26
594,26
595,26
596,26
597,26
598,26
599,26
600,26
601,26
602,26
603,27
604,27
605,27
606,27
607,27
608,27
609,27
610,27
611,27
612,27
613,27
614,27
615,27
616,27
617,29
618,29
619,30
620,30
621,30
622,30
623,30
624,30
625,30
626,30
627,30
628,30
629,30
630,30
631,30
632,30
633,30
634,30
635,30
636,30
637,30
638,30
639,30
640,30
641,30
642,30
643,30
644,31
645,31
646,31
647,31
648,31
649,31
650,31
651,31
652,31
653,31
654,31
655,31
656,31
657,31
658,31
659,32
660,32
661,32
662,32
663,33
664,33
665,33
666,33
667,33
668,34
669,34
670,34
671,34
672,34
673,34
674,34
675,34
676,35
677,35
678,35
679,35
680,35
681,35
682,35
683,35
684,36
685,36
686,36
687,36
688,36
689,36
690,36
691,36
692,36
693,36
694,36
695,36
696,36
697,36
698,36
699,36
700,36
701,36
702,36
703,36
704,36
705,36
706,36
707,36
708,36
709,36
710,36
711,36
712,36
713,36
714,36
715,36
716,36
717,36
718,37
719,37
720,37
721,37
722,37
723,37
724,37
725,37
726,37
727,37
728,37
729,37
730,37
731,37
732,37
733,37
734,37
735,37
736,37
737,37
738,37
739,37
740,37
741,37
742,37
743,37
744,37
745,37
746,37
747,37
748,37
749,37
750,37
751,37
752,37
753,37
754,37
755,37
756,37
757,37
758,37
759,37
760,37
761,37
762,37
763,37
764,37
765,37
766,37
767,37
768,37
769,37
770,37
771,37
772,37
773,37
774,37
775,37
776,37
777,37
778,37
779,37
780,37
781,37
782,38
783,38
784,38
785,38
786,38
787,38
788,38
789,39
790,39
791,39
792,39
793,39
794,40
795,41
796,41
797,41
798,42
799,42
800,43
801,43
802,43
803,43
804,43
805,43
806,43
807,44
808,44
809,44
810,44
811,44
812,44
813,44
814,44
815,44
816,44
817,44
818,44
819,44
820,44
821,44
822,44
823,44
824,44
825,44
826,44
827,44
828,44
829,44
830,44
831,44
832,44
833,44
834,44
835,44
836,44
837,44
838,44
839,44
840,44
841,44
842,44
843,44
844,44
845,44
846,44
847,44
848,44
849,44
850,44
851,44
852,44
853,44
854,44
855,44
856,44
857,44
858,44
859,44
860,44
861,44
862,44
863,44
864,44
865,44
866,44
867,44
868,44
869,44
870,44
871,44
872,44
873,44
874,44
875,44
876,44
877,44
878,44
879,44
880,44
881,44
882,44
883,44
884,44
885,44
886,44
887,44
888,44
889,44
890,44
891,44
892,44
893,44
894,44
895,44
896,44
897,44
898,44
899,44
900,44
901,44
902,44
903,44
904,44
905,44
906,44
907,44
908,44
909,44
910,44
911,44
912,44
913,44
914,44
915,44
916,44
917,44
918,44
919,44
920,44
921,44
922,44
923,45
924,45
925,45
926,45
927,45
928,45
929,46
930,46
931,46
932,46
933,46
934,46
935,46
936,46
937,46
938,46
939,46
940,46
941,46
942,46
943,46
944,46
945,46
946,46
947,46
948,46
949,47
950,47
951,47
952,47
953,47
954,47
955,47
956,47
957,48
958,48
959,48
960,48
961,48
962,48
963,48
964,48
965,48
966,48
967,48
968,48
969,48
970,48
971,48
972,48
973,48
974,48
975,48
976,48
977,48
978,49
979,49
980,49
981,49
982,50
983,50
984,50
985,50
986,50
987,50
988,50
989,50
990,50
991,50
992,50
993,50
994,50
995,50
996,50
997,50
998,50
999,50
1000,50
1001,50
1002,50
1003,50
1004,51
1005,51
1006,51
1007,51
1008,51
1009,51
1010,51
1011,51
1012,51
1013,51
1014,51
1015,51
1016,51
1017,51
1018,51
1019,51
1020,51
1021,51
1022,52
1023,52
1024,52
1025,52
1026,52
1027,52
1028,52
1029,52
1030,53
1031,53
1032,53
1033,53
1034,54
1035,54
1036,54
1037,54
1038,54
1039,54
1040,54
1041,54
1042,54
1043,54
1044,54
1045,54
1046,54
1047,54
1048,54
1049,54
1050,54
1051,54
1052,54
1053,54
1054,54
1055,54
1056,54
1057,54
1058,54
1059,54
1060,55
1061,55
1062,55
1063,56
1064,56
1065,56
1066,56
1067,56
1068,56
1069,56
1070,56
1071,56
1072,56
1073,56
1074,56
1075,56
1076,56
1077,56
1078,56
1079,56
1080,56
1081,56
1082,56
1083,56
1084,56
1085,56
1086,56
1087,56
1088,56
1089,56
1090,56
1091,56
1092,56
1093,56
1094,56
1095,56
1096,56
1097,56
1098,56
1099,56
1100,56
1101,56
1102,56
1103,56
1104,56
1105,56
1106,56
1107,56
1108,56
1109,56
1110,56
1111,56
1112,56
1113,57
1114,57
1115,57
1116,57
1117,57
1118,57
1119,57
1120,57
1121,57
1122,57
1123,57
1124,57
1125,57
1126,57
1127,57
1128,57
1129,57
1130,57
1131,57
1132,57
1133,57
1134,57
1135,57
1136,57
1137,57
1138,57
1139,57
1140,57
1141,57
1142,57
1143,57
1144,57
1145,57
1146,57
1147,57
1148,57
1149,57
1150,57
1151,57
1152,57
1153,57
1154,57
1155,57
1156,58
1157,58
1158,58
1159,58
1160,58
1161,58
1162,58
1163,58
1164,58
1165,58
1166,58
1167,58
1168,58
1169,58
1170,58
1171,58
1172,58
1173,58
1174,58
1175,58
1176,58
1177,58
1178,58
1179,58
1180,58
1181,58
1182,58
1183,58
1184,58
1185,58
1186,58
1187,58
1188,58
1189,58
1190,58
1191,58
1192,59
1193,59
1194,59
1195,59
1196,59
1197,59
1198,59
1199,59
1200,59
1201,59
1202,59
1203,59
1204,59
1205,59
1206,59
1207,59
1208,59
1209,59
1210,59
1211,59
1212,59
1213,59
1214,59
1215,59
1216,59
1217,59
1218,59
1219,59
1220,59
1221,59
1222,59
1223,59
1224,59
1225,59
1226,59
1227,59
1228,59
1229,59
1230,59
1231,59
1232,59
1233,59
1234,59
1235,59
1236,59
1237,59
1238,59
1239,59
1240,59
1241,59
1242,59
1243,59
1244,59
1245,59
1246,59
1247,59
1248,59
1249,59
1250,59
1251,59
1252,59
1253,59
1254,59
1255,59
1256,59
1257,59
1258,60
1259,60
1260,60
1261,60
1262,60
1263,60
1264,60
1265,60
1266,60
1267,60
1268,60
1269,60
1270,60
1271,61
1272,61
1273,61
1274,61
1275,61
1276,61
1277,61
1278,61
1279,61
1280,61
1281,61
1282,61
1283,61
1284,61
1285,61
1286,62
1287,62
1288,62
1289,62
1290,62
1291,62
1292,62
1293,62
1294,62
1295,62
1296,62
1297,62
1298,62
1299,62
1300,62
1301,62
1302,62
1303,62
1304,62
1305,62
1306,62
1307,62
1308,62
1309,62
1310,62
1311,62
1312,62
1313,62
1314,62
1315,62
1316,62
1317,62
1318,62
1319,62
1320,62
1321,62
1322,62
1323,62
1324,62
1325,62
1326,62
1327,62
1328,62
1329,62
1330,62
1331,62
1332,62
1333,62
1334,62
1335,62
1336,62
1337,63
1338,63
1339,63
1340,63
1341,63
1342,63
1343,63
1344,63
1345,64
1346,64
1347,64
1348,64
1349,64
1350,64
1351,64
1352,64
1353,65
1354,65
1355,65
1356,65
1357,65
1358,65
1359,65
1360,65
1361,65
1362,65
1363,65
1364,65
1365,65
1366,65
1367,65
1368,65
1369,65
1370,65
1371,65
1372,65
1373,65
1374,65
1375,65
1376,65
1377,65
1378,65
1379,65
1380,65
1381,65
1382,65
1383,65
1384,65
1385,65
1386,65
1387,65
1388,65
1389,65
1390,65
1391,65
1392,66
1393,66
1394,66
1395,66
1396,66
1397,66
1398,66
1399,66
1400,66
1401,66
1402,66
1403,66
1404,66
1405,66
1406,66
1407,66
1408,66
1409,66
1410,66
1411,66
1412,66
1413,66
1414,66
1415,66
1416,66
1417,66
1418,66
1419,66
1420,66
1421,67
1422,68
1423,68
1424,68
1425,68
1426,68
1427,68
1428,68
1429,68
1430,68
1431,68
1432,68
1433,68
1434,68
1435,68
1436,68
1437,68
1438,68
1439,68
1440,68
1441,68
1442,69
1443,69
1444,69
1445,69
1446,69
1447,70
1448,70
1449,70
1450,70
1451,70
1452,70
1453,70
1454,70
1455,70
1456,70
1457,70
1458,70
1459,70
1460,70
1461,70
1462,70
1463,70
1464,70
1465,70
1466,70
1467,70
1468,70
1469,70
1470,70
1471,70
1472,70
1473,70
1474,70
1475,70
1476,70
1477,70
1478,70
1479,70
1480,70
1481,70
1482,71
1483,71
1484,71
1485,71
1486,71
1487,71
1488,71
1489,71
1490,71
1491,71
1492,71
1493,71
1494,71
1495,71
1496,71
1497,71
1498,71
1499,71
1500,71
1501,71
1502,71
1503,71
1504,71
1505,71
1506,71
1507,71
1508,71
1509,71
1510,71
1511,71
1512,71
1513,71
1514,71
1515,71
1516,71
1517,71
1518,71
1519,71
1520,71
1521,71
1522,71
1523,71
1524,71
1525,71
1526,71
1527,71
1528,71
1529,71
1530,71
1531,71
1532,71
1533,71
1534,71
1535,71
1536,72
1537,72
1538,72
1539,72
1540,72
1541,72
1542,72
1543,72
1544,72
1545,72
1546,72
1547,72
1548,73
1549,73
1550,73
1551,73
1552,73
1553,73
1554,73
1555,74
1556,74
1557,74
1558,74
1559,74
1560,74
1561,74
1562,74
1563,74
1564,74
1565,74
1566,74
1567,74
1568,74
1569,74
1570,74
1571,74
1572,74
1573,74
1574,74
1575,74
1576,74
1577,74
1578,74
1579,74
1580,74
1581,74
1582,74
1583,74
1584,74
1585,74
1586,74
1587,74
1588,74
1589,74
1590,74
1591,74
1592,74
1593,74
1594,74
1595,74
1596,74
1597,74
1598,74
1599,74
1600,74
1601,74
1602,74
1603,74
1604,74
1605,74
1606,74
1607,74
1608,74
1609,74
1610,74
1611,74
1612,74
1613,74
1614,74
1615,74
1616,75
1617,75
1618,75
1619,75
1620,75
1621,75
1622,75
1623,75
1624,75
1625,75
1626,75
1627,75
1628,75
1629,75
1630,75
1631,75
1632,75
1633,75
1634,75
1635,75
1636,75
1637,75
1638,75
1639,75
1640,75
1641,75
1642,75
1643,75
1644,75
1645,75
1646,75
1647,75
1648,75
1649,75
1650,75
1651,75
1652,75
1653,75
1654,75
1655,75
1656,75
1657,75
1658,75
1659,75
1660,75
1661,75
1662,75
1663,75
1664,75
1665,75
1666,75
1667,75
1668,75
1669,75
1670,75
1671,75
1672,75
1673,75
1674,75
1675,75
1676,75
1677,76
1678,76
1679,76
1680,76
1681,76
1682,76
1683,76
1684,76
1685,76
1686,76
1687,76
1688,76
1689,77
1690,77
1691,77
1692,77
1693,77
1694,77
1695,77
1696,77
1697,77
1698,77
1699,77
1700,77
1701,77
1702,77
1703,77
1704,77
1705,77
1706,77
1707,77
1708,77
1709,77
1710,77
1711,77
1712,77
1713,77
1714,77
1715,77
1716,77
1717,77
1718,77
1719,77
1720,77
1721,77
1722,77
1723,77
1724,77
1725,77
1726,77
1727,77
1728,77
1729,77
1730,77
1731,77
1732,77
1733,77
1734,77
1735,77
1736,78
1737,78
1738,79
1739,79
1740,79
1741,79
1742,79
1743,79
1744,79
1745,79
1746,79
1747,79
1748,79
1749,79
1750,79
1751,79
1752,79
1753,79
1754,79
1755,79
1756,79
1757,79
1758,79
1759,79
1760,79
1761,79
1762,79
1763,79
1764,79
1765,79
1766,79
1767,79
1768,79
1769,79
1770,79
1771,79
1772,79
1773,79
1774,80
1775,80
1776,80
1777,80
1778,80
1779,80
1780,80
1781,80
1782,80
1783,80
1784,80
1785,80
1786,80
1787,80
1788,80
1789,80
1790,80
1791,80
1792,80
1793,80
1794,80
1795,80
1796,80
1797,80
1798,80
1799,80
1800,80
1801,80
1802,80
1803,80
1804,80
1805,80
1806,80
1807,80
1808,80
1809,80
1810,80
1811,80
1812,80
1813,80
1814,80
1815,80
1816,80
1817,80
1818,80
1819,80
1820,80
1821,81
1822,81
1823,81
1824,81
1825,81
1826,81
1827,81
1828,82
1829,82
1830,82
1831,82
1832,82
1833,82
1834,82
1835,82
1836,82
1837,82
1838,82
1839,82
1840,82
1841,82
1842,82
1843,82
1844,82
1845,82
1846,82
1847,82
1848,82
1849,82
1850,82
1851,82
1852,82
1853,82
1854,82
1855,82
1856,82
1857,82
1858,82
1859,82
1860,82
1861,82
1862,82
1863,83
1864,83
1865,83
1866,83
1867,83
1868,83
1869,83
1870,83
1871,83
1872,83
1873,83
1874,83
1875,83
1876,83
1877,83
1878,83
1879,83
1880,83
1881,83
1882,83
1883,83
1884,83
1885,83
1886,83
1887,83
1888,83
1889,83
1890,83
1891,83
1892,83
1893,83
1894,83
1895,83
1896,83
1897,83
1898,83
1899,83
1900,83
1901,83
1902,83
1903,83
1904,83
1905,83
1906,83
1907,83
1908,83
1909,83
1910,83
1911,83
1912,83
1913,83
1914,83
1915,83
1916,83
1917,83
1918,83
1919,83
1920,84
1921,84
1922,84
1923,84
1924,84
1925,84
1926,84
1927,84
1928,84
1929,84
1930,84
1931,84
1932,84
1933,84
1934,84
1935,84
1936,84
1937,84
1938,84
1939,84
1940,84
1941,84
1942,84
1943,84
1944,84
1945,84
1946,84
1947,84
1948,84
1949,84
1950,84
1951,84
1952,84
1953,84
1954,84
1955,84
1956,84
1957,86
1958,86
1959,86
1960,86
1961,86
1962,86
1963,86
1964,86
1965,86
1966,86
1967,86
1968,86
1969,86
1970,86
1971,86
1972,86
1973,86
1974,86
1975,86
1976,86
1977,86
1978,86
1979,86
1980,86
1981,86
1982,86
1983,86
1984,86
1985,86
1986,86
1987,86
1988,86
1989,86
1990,86
1991,86
1992,86
1993,86
1994,86
1995,86
1996,86
1997,86
1998,86
1999,86
2000,86
