"tick","total"
0,0
1,0
2,0
3,0
4,0
5,0
6,0
7,0
8,0
9,0
10,0
11,0
12,0
13,0
14,0
15,0
16,0
17,0
18,0
19,0
20,0
21,0
22,0
23,0
24,0
25,0
26,0
27,0
28,0
29,0
30,0
31,0
32,0
33,0
34,0
35,0
36,0
37,0
38,0
39,0
40,0
41,0
42,0
43,0
44,0
45,0
46,0
47,0
48,0
49,0
50,0
51,0
52,1
53,1
54,1
55,1
56,1
57,1
58,1
59,1
60,1
61,1
62,1
63,1
64,1
65,1
66,1
67,1
68,1
69,1
70,1
71,1
72,1
73,1
74,1
75,2
76,2
77,2
78,3
79,3
80,3
81,3
82,3
83,3
84,3
85,3
86,3
87,3
88,3
89,3
90,3
91,3
92,3
93,3
94,3
95,3
96,3
97,3
98,3
99,4
100,4
101,4
102,4
103,4
104,4
105,4
106,4
107,4
108,4
109,4
110,4
111,4
112,4
113,4
114,4
115,4
116,4
117,4
118,4
119,4
120,4
121,4
122,4
123,4
124,4
125,4
126,4
127,4
128,4
129,4
130,4
131,4
132,4
133,4
134,4
135,4
136,4
137,4
138,4
139,4
140,4
141,4
142,4
143,4
144,4
145,4
146,4
147,4
148,4
149,4
150,4
151,4
152,6
153,6
154,6
155,6
156,6
157,6
158,6
159,6
160,6
161,6
162,6
163,7
164,7
165,8
166,8
167,8
168,8
169,8
170,8
171,8
172,8
173,8
174,8
175,8
176,8
177,8
178,9
179,9
180,9
181,9
182,9
183,9
184,9
185,9
186,9
187,9
188,9
189,9
190,10
191,12
192,12
193,12
194,12
195,12
196,12
197,12
198,13
199,13
200,13
201,13
202,13
203,13
204,13
205,13
206,13
207,13
208,13
209,13
210,13
211,13
212,13
213,13
214,13
215,13
216,14
217,14
218,14
219,14
220,14
221,14
222,14
223,14
224,14
225,14
226,16
227,16
228,16
229,16
230,16
231,17
232,17
233,17
234,17
235,18
236,18
237,18
238,18
239,18
240,18
241,19
242,19
243,19
244,19
245,19
246,19
247,19
248,19
249,19
250,19
251,19
252,19
253,19
254,19
255,19
256,19
257,19
258,19
259,19
260,19
261,19
262,19
263,19
264,19
265,19
266,19
267,19
268,19
269,19
270,19
271,19
272,19
273,19
274,19
275,19
276,19
277,19
278,19
279,19
280,19
281,19
282,19
283,19
284,19
285,19
286,19
287,20
288,20
289,20
290,20
291,20
292,21
293,21
294,21
295,21
296,21
297,21
298,21
299,21
300,21
301,21
302,21
303,21
304,21
305,21
306,21
307,21
308,21
309,21
310,21
311,21
312,21
313,21
314,21
315,21
316,21
317,21
318,21
319,21
320,21
321,21
322,21
323,21
324,21
325,21
326,21
327,21
328,21
329,21
330,21
331,21
332,21
333,21
334,21
335,21
336,21
337,21
338,21
339,22
340,22
341,22
342,23
343,23
344,24
345,24
346,24
347,24
348,24
349,24
350,24
351,24
352,24
353,25
354,25
355,26
356,26
357,26
358,26
359,27
360,27
361,27
362,27
363,27
364,27
365,27
366,27
367,27
368,27
369,27
370,27
371,27
372,27
373,27
374,27
375,27
376,27
377,27
378,27
379,27
380,27
381,27
382,27
383,27
384,27
385,27
386,27
387,27
388,27
389,28
390,28
391,28
392,28
393,28
394,28
395,28
396,28
397,28
398,28
399,28
400,28
401,28
402,28
403,28
404,28
405,28
406,28
407,28
408,28
409,28
410,28
411,28
412,28
413,28
414,28
415,28
416,28
417,29
418,29
419,29
420,29
421,29
422,29
423,29
424,29
425,29
426,29
427,29
428,29
429,29
430,30
431,30
432,31
433,31
434,31
435,31
436,31
437,31
438,32
439,32
440,32
441,32
442,32
443,32
444,32
445,32
446,32
447,32
448,32
449,32
450,33
451,34
452,34
453,34
454,34
455,34
456,34
457,34
458,34
459,34
460,34
461,34
462,35
463,35
464,35
465,35
466,35
467,35
468,35
469,35
470,35
471,36
472,36
473,37
474,37
475,37
476,37
477,37
478,37
479,37
480,37
481,38
482,38
483,38
484,39
485,39
486,39
487,39
488,39
489,39
490,39
491,39
492,39
493,39
494,39
495,39
496,39
497,39
498,39
499,39
500,40
501,40
502,40
503,40
504,40
505,40
506,40
507,40
508,40
509,40
510,40
511,40
512,40
513,40
514,40
515,41
516,41
517,41
518,41
519,41
520,42
521,42
522,42
523,42
524,42
525,42
526,42
527,42
528,42
529,42
530,42
531,42
532,42
533,42
534,42
535,42
536,42
537,42
538,42
539,42
540,43
541,43
542,43
543,43
544,43
545,43
546,43
547,43
548,43
549,43
550,43
551,43
552,43
553,43
554,43
555,43
556,43
557,44
558,44
559,44
560,44
561,44
562,44
563,44
564,44
565,44
566,44
567,44
568,44
569,46
570,46
571,46
572,46
573,46
574,46
575,46
576,46
577,46
578,46
579,46
580,46
581,47
582,47
583,48
584,48
585,48
586,48
587,48
588,48
589,48
590,48
591,48
592,48
593,48
594,48
595,48
596,48
597,48
598,48
599,48
600,50
601,50
602,51
603,52
604,52
605,52
606,52
607,52
608,52
609,52
610,52
611,52
612,52
613,52
614,52
615,52
616,53
617,53
618,53
619,53
620,53
621,53
622,53
623,53
624,53
625,53
626,53
627,54
628,54
629,54
630,54
631,54
632,54
633,54
634,54
635,54
636,54
637,54
638,54
639,54
640,54
641,54
642,54
643,54
644,54
645,54
646,54
647,54
648,55
649,55
650,55
651,55
652,55
653,55
654,55
655,55
656,55
657,55
658,55
659,55
660,55
661,55
662,55
663,56
664,56
665,56
666,56
667,56
668,56
669,56
670,56
671,57
672,57
673,57
674,58
675,59
676,59
677,60
678,60
679,60
680,60
681,60
682,60
683,60
684,60
685,60
686,60
687,60
688,60
689,60
690,60
691,60
692,61
693,61
694,61
695,61
696,61
697,61
698,61
699,61
700,61
701,62
702,62
703,62
704,62
705,62
706,62
707,62
708,62
709,62
710,62
711,62
712,62
713,62
714,62
715,62
716,62
717,62
718,62
719,62
720,62
721,62
722,62
723,62
724,62
725,62
726,62
727,62
728,62
729,62
730,63
731,63
732,63
733,63
734,63
735,63
736,63
737,63
738,63
739,63
740,63
741,63
742,63
743,63
744,63
745,63
746,63
747,63
748,63
749,64
750,64
751,64
752,64
753,64
754,64
755,64
756,64
757,64
758,64
759,64
760,64
761,64
762,64
763,64
764,64
765,64
766,64
767,64
768,64
769,64
770,64
771,64
772,64
773,64
774,64
775,64
776,66
777,66
778,67
779,67
780,67
781,67
782,67
783,67
784,67
785,67
786,67
787,67
788,67
789,67
790,67
791,68
792,68
793,68
794,68
795,68
796,69
797,69
798,69
799,69
800,69
801,69
802,69
803,71
804,71
805,71
806,71
807,71
808,71
809,71
810,71
811,71
812,71
813,71
814,71
815,71
816,71
817,71
818,71
819,71
820,71
821,71
822,71
823,71
824,71
825,71
826,71
827,71
828,71
829,71
830,72
831,72
832,72
833,72
834,73
835,73
836,73
837,73
838,73
839,73
840,73
841,73
842,73
843,73
844,73
845,73
846,73
847,73
848,73
849,73
850,73
851,73
852,73
853,73
854,73
855,73
856,73
857,73
858,73
859,74
860,74
861,74
862,74
863,74
864,74
865,74
866,74
867,74
868,74
869,74
870,74
871,74
872,74
873,74
874,74
875,75
876,75
877,75
878,75
879,75
880,75
881,75
882,75
883,75
884,75
885,75
886,75
887,75
888,75
889,75
890,75
891,75
892,75
893,75
894,75
895,75
896,75
897,75
898,75
899,75
900,75
901,75
902,75
903,76
904,76
905,76
906,76
907,76
908,76
909,76
910,76
911,76
912,77
913,77
914,77
915,77
916,77
917,77
918,77
919,77
920,77
921,77
922,77
923,77
924,77
925,77
926,77
927,77
928,77
929,77
930,77
931,77
932,77
933,77
934,77
935,77
936,77
937,77
938,77
939,77
940,77
941,77
942,77
943,77
944,77
945,77
946,77
947,77
948,77
949,78
950,78
951,78
952,78
953,78
954,78
955,78
956,78
957,78
958,78
959,78
960,78
961,79
962,79
963,79
964,79
965,79
966,79
967,79
968,79
969,79
970,79
971,79
972,79
973,79
974,79
975,79
976,79
977,79
978,79
979,79
980,79
981,79
982,79
983,79
984,79
985,79
986,79
987,80
988,80
989,80
990,80
991,80
992,80
993,80
994,80
995,80
996,80
997,80
998,80
999,80
1000,80
1001,80
1002,80
1003,80
1004,80
1005,80
1006,80
1007,80
1008,80
1009,80
1010,80
1011,80
1012,81
1013,81
1014,82
1015,82
1016,82
1017,82
1018,82
1019,82
1020,82
1021,82
1022,82
1023,82
1024,82
1025,82
1026,82
1027,82
1028,82
1029,82
1030,83
1031,83
1032,83
1033,84
1034,84
1035,84
1036,84
1037,84
1038,85
1039,85
1040,86
1041,86
1042,86
1043,86
1044,86
1045,86
1046,86
1047,86
1048,86
1049,86
1050,87
1051,87
1052,87
1053,87
1054,87
1055,87
1056,88
1057,88
1058,88
1059,88
1060,89
1061,90
1062,90
1063,90
1064,90
1065,90
1066,90
1067,90
1068,90
1069,90
1070,90
1071,91
1072,91
1073,92
1074,92
1075,92
1076,92
1077,92
1078,92
1079,92
1080,92
1081,92
1082,92
1083,92
1084,92
1085,92
1086,92
1087,92
1088,92
1089,92
1090,92
1091,92
1092,92
1093,93
1094,93
1095,93
1096,93
1097,94
1098,94
1099,94
1100,94
1101,94
1102,94
1103,94
1104,94
1105,94
1106,94
1107,94
1108,94
1109,94
1110,94
1111,94
1112,94
1113,94
1114,94
1115,94
1116,94
1117,94
1118,94
1119,94
1120,94
1121,94
1122,94
1123,94
1124,94
1125,94
1126,94
1127,94
1128,94
1129,94
1130,94
1131,94
1132,95
1133,95
1134,95
1135,95
1136,95
1137,95
1138,95
1139,95
1140,95
1141,95
1142,96
1143,96
1144,96
1145,96
1146,96
1147,96
1148,96
1149,96
1150,96
1151,96
1152,96
1153,97
1154,97
1155,98
1156,99
1157,99
1158,99
1159,99
1160,99
1161,99
1162,99
1163,99
1164,99
1165,99
1166,99
1167,99
1168,99
1169,99
1170,99
1171,99
1172,99
1173,99
1174,99
1175,99
1176,99
1177,100
1178,100
1179,100
1180,100
1181,100
1182,100
1183,101
1184,101
1185,101
1186,101
1187,101
1188,102
1189,103
1190,103
1191,103
1192,103
1193,103
1194,103
1195,103
1196,103
1197,103
1198,104
1199,104
1200,104
1201,105
1202,105
1203,105
1204,105
1205,105
1206,105
1207,105
1208,105
1209,105
1210,105
1211,105
1212,105
1213,105
1214,105
1215,105
1216,105
1217,105
1218,105
1219,105
1220,105
1221,105
1222,105
1223,105
1224,105
1225,105
1226,105
1227,105
1228,105
1229,105
1230,105
1231,105
1232,105
1233,106
1234,106
1235,106
1236,106
1237,106
1238,106
1239,106
1240,106
1241,106
1242,106
1243,106
1244,106
1245,106
1246,106
1247,106
1248,106
1249,106
1250,106
1251,106
1252,106
1253,106
1254,106
1255,106
1256,106
1257,106
1258,106
1259,106
1260,106
1261,106
1262,106
1263,106
1264,106
1265,106
1266,106
1267,106
1268,106
1269,107
1270,107
1271,107
1272,107
1273,107
1274,107
1275,107
1276,108
1277,108
1278,108
1279,108
1280,108
1281,108
1282,108
1283,108
1284,108
1285,108
1286,108
1287,109
1288,109
1289,109
1290,109
1291,109
1292,109
1293,109
1294,109
1295,109
1296,109
1297,109
1298,109
1299,109
1300,109
1301,110
1302,110
1303,111
1304,111
1305,111
1306,111
1307,111
1308,111
1309,111
1310,111
1311,111
1312,111
1313,111
1314,111
1315,111
1316,111
1317,111
1318,111
1319,111
1320,111
1321,111
1322,111
1323,112
1324,112
1325,112
1326,112
1327,112
1328,112
1329,113
1330,113
1331,113
1332,113
1333,113
1334,113
1335,113
1336,113
1337,113
1338,113
1339,114
1340,114
1341,114
1342,115
1343,115
1344,115
1345,116
1346,116
1347,116
1348,116
1349,116
1350,116
1351,116
1352,116
1353,117
1354,117
1355,117
1356,117
1357,117
1358,117
1359,117
1360,117
1361,117
1362,117
1363,117
1364,117
1365,117
1366,117
1367,117
1368,117
1369,117
1370,117
1371,117
1372,117
1373,117
1374,118
1375,118
1376,118
1377,118
1378,119
1379,120
1380,120
1381,120
1382,120
1383,120
1384,120
1385,120
1386,120
1387,121
1388,121
1389,121
1390,121
1391,121
1392,121
1393,121
1394,121
1395,121
1396,121
1397,121
1398,121
1399,121
1400,121
1401,121
1402,121
1403,121
1404,121
1405,122
1406,122
1407,122
1408,122
1409,122
1410,123
1411,123
1412,123
1413,123
1414,123
1415,123
1416,123
1417,123
1418,123
1419,123
1420,123
1421,123
1422,123
1423,123
1424,123
1425,123
1426,123
1427,123
1428,123
1429,123
1430,123
1431,123
1432,123
1433,123
1434,123
1435,123
1436,123
1437,123
1438,123
1439,123
1440,123
1441,123
1442,123
1443,123
1444,123
1445,123
1446,123
1447,123
1448,123
1449,123
1450,123
1451,123
1452,123
1453,124
1454,124
1455,124
1456,124
1457,124
1458,124
1459,124
1460,124
1461,124
1462,124
1463,124
1464,124
1465,124
1466,124
1467,124
1468,124
1469,125
1470,125
1471,125
1472,125
1473,125
1474,125
1475,125
1476,125
1477,125
1478,126
1479,126
1480,126
1481,126
1482,126
1483,126
1484,126
1485,126
1486,126
1487,126
1488,126
1489,126
1490,126
1491,126
1492,126
1493,126
1494,126
1495,126
1496,126
1497,126
1498,126
1499,126
1500,126
1501,127
1502,127
1503,127
1504,127
1505,127
1506,127
1507,127
1508,127
1509,127
1510,127
1511,127
1512,127
1513,127
1514,127
1515,127
1516,127
1517,127
1518,127
1519,127
1520,127
1521,127
1522,127
1523,127
1524,127
1525,127
1526,127
1527,127
1528,127
1529,127
1530,128
1531,128
1532,128
1533,128
1534,128
1535,128
1536,128
1537,128
1538,128
1539,128
1540,128
1541,128
1542,128
1543,128
1544,128
1545,128
1546,128
1547,128
1548,128
1549,128
1550,128
1551,128
1552,128
1553,128
1554,128
1555,128
1556,128
1557,128
1558,128
1559,128
1560,128
1561,128
1562,128
1563,128
1564,128
1565,128
1566,129
1567,129
1568,129
1569,129
1570,129
1571,129
1572,129
1573,129
1574,129
1575,129
1576,129
1577,129
1578,129
1579,129
1580,129
1581,129
1582,129
1583,129
1584,129
1585,129
1586,129
1587,129
1588,129
1589,130
1590,130
1591,130
1592,130
1593,130
1594,130
1595,130
1596,130
1597,130
1598,130
1599,130
1600,130
1601,130
1602,131
1603,131
1604,131
1605,131
1606,131
1607,131
1608,131
1609,131
1610,131
1611,132
1612,132
1613,132
1614,132
1615,132
1616,132
1617,133
1618,133
1619,133
1620,133
1621,133
1622,133
1623,133
1624,133
1625,133
1626,133
1627,133
1628,133
1629,133
1630,133
1631,133
1632,133
1633,133
1634,133
1635,133
1636,133
1637,133
1638,133
1639,133
1640,133
1641,133
1642,133
1643,133
1644,133
1645,133
1646,133
1647,133
1648,133
1649,133
1650,133
1651,133
1652,133
1653,134
1654,134
1655,134
1656,134
1657,134
1658,134
1659,134
1660,134
1661,135
1662,135
1663,135
1664,135
1665,135
1666,135
1667,135
1668,135
1669,136
1670,136
1671,136
1672,136
1673,136
1674,136
1675,136
1676,136
1677,136
1678,136
1679,136
1680,136
1681,136
1682,136
1683,136
1684,136
1685,136
1686,136
1687,136
1688,136
1689,136
1690,136
1691,136
1692,136
1693,136
1694,136
1695,136
1696,136
1697,136
1698,136
1699,136
1700,137
1701,138
1702,138
1703,138
1704,138
1705,138
1706,138
1707,138
1708,138
1709,138
1710,139
1711,139
1712,139
1713,139
1714,139
1715,139
1716,139
1717,139
1718,140
1719,140
1720,140
1721,140
1722,140
1723,140
1724,140
1725,140
1726,140
1727,140
1728,140
1729,140
1730,141
1731,141
1732,141
1733,141
1734,141
1735,141
1736,141
1737,141
1738,141
1739,141
1740,141
1741,141
1742,141
1743,141
1744,141
1745,142
1746,142
1747,142
1748,142
1749,142
1750,142
1751,142
1752,142
1753,142
1754,142
1755,142
1756,142
1757,142
1758,142
1759,142
1760,142
1761,142
1762,142
1763,142
1764,142
1765,142
1766,142
1767,142
1768,142
1769,142
1770,142
1771,142
1772,142
1773,142
1774,142
1775,142
1776,143
1777,143
1778,143
1779,143
1780,143
1781,143
1782,143
1783,143
1784,143
1785,143
1786,143
1787,143
1788,143
1789,143
1790,143
1791,143
1792,143
1793,143
1794,143
1795,144
1796,144
1797,144
1798,144
1799,144
1800,144
1801,144
1802,144
1803,144
1804,144
1805,144
1806,144
1807,144
1808,144
1809,145
1810,145
1811,145
1812,145
1813,145
1814,145
1815,145
1816,145
1817,145
1818,145
1819,145
1820,145
1821,145
1822,145
1823,146
1824,146
1825,146
1826,146
1827,146
1828,146
1829,146
1830,146
1831,146
1832,146
1833,146
1834,146
1835,146
1836,146
1837,146
1838,146
1839,146
1840,147
1841,147
1842,147
1843,147
1844,147
1845,147
1846,147
1847,147
1848,147
1849,148
1850,148
1851,148
1852,148
1853,148
1854,148
1855,148
1856,148
1857,148
1858,149
1859,149
1860,149
1861,149
1862,149
1863,149
1864,149
1865,149
1866,149
1867,149
1868,149
1869,149
1870,149
1871,149
1872,149
1873,149
1874,149
1875,149
1876,149
1877,149
1878,149
1879,149
1880,149
1881,149
1882,149
1883,149
1884,149
1885,149
1886,149
1887,149
1888,149
1889,149
1890,149
1891,149
1892,149
1893,150
1894,150
1895,150
1896,150
1897,150
1898,150
1899,150
1900,150
1901,150
1902,150
1903,150
1904,150
1905,150
1906,150
1907,150
1908,150
1909,150
1910,150
1911,150
1912,150
1913,150
1914,150
1915,150
1916,150
1917,150
1918,150
1919,150
1920,150
1921,150
1922,151
1923,151
1924,151
1925,151
1926,151
1927,151
1928,151
1929,151
1930,151
1931,151
1932,151
1933,151
1934,151
1935,151
1936,151
1937,151
1938,151
1939,151
1940,151
1941,151
1942,151
1943,151
1944,152
1945,152
1946,152
1947,152
1948,152
1949,152
1950,152
1951,152
1952,152
1953,152
1954,152
1955,153
1956,153
1957,153
1958,153
1959,153
1960,153
1961,153
1962,153
1963,153
1964,153
1965,153
1966,153
1967,153
1968,153
1969,153
1970,153
1971,153
1972,153
1973,153
1974,153
1975,153
1976,153
1977,153
1978,153
1979,153
1980,153
1981,153
1982,153
1983,153
1984,153
1985,153
1986,153
1987,153
1988,153
1989,153
1990,153
1991,153
1992,153
1993,153
1994,153
1995,153
1996,153
1997,154
1998,154
1999,154
2000,154
