"tick","total"
0,0
1,0
2,0
3,0
4,0
5,0
6,0
7,0
8,0
9,0
10,0
11,0
12,0
13,0
14,0
15,0
16,0
17,0
18,0
19,0
20,0
21,0
22,0
23,0
24,0
25,0
26,0
27,0
28,0
29,0
30,0
31,0
32,0
33,0
34,0
35,0
36,0
37,0
38,0
39,0
40,0
41,0
42,0
43,0
44,0
45,0
46,0
47,0
48,0
49,0
50,0
51,0
52,0
53,0
54,0
55,0
56,0
57,0
58,0
59,0
60,0
61,0
62,0
63,0
64,0
65,0
66,0
67,0
68,0
69,0
70,0
71,0
72,0
73,0
74,0
75,0
76,0
77,0
78,0
79,0
80,0
81,0
82,0
83,0
84,0
85,0
86,0
87,0
88,0
89,0
90,0
91,0
92,0
93,0
94,0
95,0
96,0
97,0
98,0
99,0
100,0
101,0
102,0
103,0
104,0
105,0
106,0
107,0
108,0
109,0
110,0
111,0
112,0
113,0
114,0
115,0
116,0
117,0
118,0
119,0
120,0
121,0
122,0
123,0
124,0
125,0
126,0
127,0
128,0
129,0
130,0
131,0
132,0
133,0
134,0
135,1
136,1
137,1
138,1
139,1
140,1
141,1
142,1
143,1
144,1
145,1
146,1
147,1
148,1
149,1
150,1
151,1
152,1
153,1
154,1
155,1
156,1
157,1
158,1
159,1
160,1
161,1
162,1
163,1
164,1
165,1
166,2
167,2
168,2
169,2
170,2
171,2
172,2
173,2
174,2
175,2
176,2
177,2
178,2
179,2
180,2
181,2
182,2
183,2
184,2
185,2
186,2
187,2
188,2
189,2
190,2
191,2
192,2
193,2
194,2
195,2
196,2
197,2
198,2
199,2
200,2
201,2
202,2
203,2
204,2
205,2
206,2
207,2
208,2
209,2
210,2
211,2
212,2
213,2
214,2
215,2
216,2
217,2
218,2
219,2
220,2
221,2
222,2
223,2
224,2
225,2
226,2
227,2
228,2
229,2
230,2
231,2
232,2
233,2
234,2
235,2
236,3
237,4
238,4
239,4
240,5
241,5
242,5
243,5
244,5
245,5
246,5
247,5
248,5
249,5
250,5
251,6
252,6
253,6
254,6
255,6
256,6
257,6
258,6
259,6
260,6
261,6
262,6
263,6
264,6
265,6
266,7
267,7
268,7
269,8
270,8
271,8
272,8
273,8
274,8
275,8
276,8
277,9
278,9
279,9
280,10
281,10
282,10
283,10
284,10
285,10
286,10
287,10
288,11
289,11
290,11
291,11
292,12
293,12
294,12
295,12
296,12
297,12
298,12
299,12
300,12
301,12
302,12
303,13
304,13
305,13
306,13
307,13
308,13
309,13
310,13
311,13
312,13
313,13
314,13
315,13
316,13
317,13
318,13
319,13
320,13
321,13
322,13
323,13
324,13
325,13
326,13
327,13
328,13
329,14
330,15
331,15
332,15
333,15
334,15
335,15
336,15
337,15
338,15
339,15
340,16
341,17
342,19
343,19
344,19
345,19
346,19
347,19
348,19
349,19
350,19
351,19
352,19
353,19
354,19
355,19
356,19
357,19
358,19
359,19
360,19
361,19
362,19
363,19
364,19
365,19
366,19
367,19
368,19
369,19
370,19
371,19
372,19
373,19
374,19
375,19
376,19
377,19
378,19
379,19
380,19
381,19
382,20
383,20
384,20
385,20
386,20
387,20
388,20
389,20
390,20
391,20
392,20
393,20
394,20
395,20
396,20
397,20
398,20
399,20
400,20
401,20
402,20
403,20
404,20
405,20
406,20
407,20
408,20
409,20
410,21
411,21
412,21
413,22
414,23
415,23
416,23
417,23
418,23
419,23
420,23
421,23
422,23
423,23
424,23
425,23
426,23
427,23
428,23
429,24
430,24
431,24
432,24
433,24
434,24
435,24
436,25
437,25
438,25
439,25
440,25
441,25
442,25
443,25
444,25
445,25
446,25
447,25
448,25
449,25
450,25
451,25
452,25
453,25
454,25
455,25
456,25
457,25
458,25
459,25
460,25
461,25
462,25
463,25
464,25
465,25
466,25
467,25
468,25
469,25
470,25
471,25
472,26
473,26
474,26
475,26
476,26
477,26
478,26
479,26
480,26
481,26
482,26
483,26
484,26
485,27
486,27
487,27
488,27
489,27
490,27
491,27
492,27
493,27
494,27
495,27
496,27
497,27
498,27
499,27
500,27
501,27
502,27
503,27
504,27
505,27
506,27
507,27
508,27
509,27
510,27
511,27
512,27
513,27
514,28
515,28
516,28
517,28
518,28
519,28
520,29
521,29
522,29
523,29
524,29
525,29
526,29
527,30
528,30
529,30
530,30
531,30
532,30
533,30
534,30
535,30
536,30
537,31
538,31
539,31
540,31
541,31
542,31
543,31
544,31
545,31
546,31
547,31
548,31
549,31
550,31
551,31
552,31
553,31
554,31
555,31
556,31
557,31
558,31
559,31
560,31
561,31
562,31
563,31
564,31
565,31
566,31
567,31
568,31
569,31
570,31
571,31
572,31
573,31
574,31
575,31
576,31
577,31
578,31
579,31
580,31
581,31
582,31
583,31
584,31
585,31
586,31
587,31
588,31
589,31
590,31
591,31
592,31
593,31
594,31
595,31
596,31
597,31
598,31
599,31
600,31
601,31
602,31
603,31
604,31
605,31
606,31
607,31
608,31
609,31
610,31
611,31
612,31
613,31
614,31
615,31
616,31
617,31
618,31
619,31
620,31
621,31
622,31
623,31
624,31
625,31
626,31
627,31
628,31
629,31
630,31
631,31
632,31
633,31
634,31
635,31
636,31
637,31
638,31
639,31
640,31
641,31
642,31
643,31
644,31
645,31
646,31
647,31
648,31
649,31
650,31
651,32
652,32
653,32
654,32
655,32
656,32
657,32
658,32
659,32
660,33
661,33
662,33
663,33
664,33
665,33
666,33
667,33
668,33
669,33
670,33
671,33
672,33
673,33
674,33
675,33
676,33
677,33
678,33
679,33
680,33
681,33
682,33
683,33
684,33
685,33
686,33
687,33
688,33
689,33
690,33
691,33
692,33
693,33
694,33
695,33
696,33
697,33
698,33
699,33
700,33
701,33
702,33
703,33
704,33
705,33
706,33
707,33
708,33
709,33
710,33
711,33
712,33
713,33
714,33
715,33
716,33
717,33
718,33
719,33
720,33
721,33
722,33
723,33
724,33
725,33
726,33
727,33
728,33
729,33
730,33
731,34
732,34
733,34
734,34
735,34
736,34
737,34
738,34
739,34
740,34
741,34
742,34
743,34
744,34
745,34
746,36
747,36
748,36
749,36
750,36
751,36
752,36
753,36
754,36
755,36
756,36
757,36
758,36
759,36
760,36
761,36
762,36
763,36
764,36
765,36
766,36
767,36
768,36
769,36
770,36
771,36
772,36
773,36
774,36
775,36
776,36
777,36
778,37
779,37
780,37
781,37
782,37
783,37
784,37
785,37
786,37
787,37
788,38
789,38
790,38
791,39
792,39
793,39
794,39
795,39
796,39
797,39
798,39
799,39
800,39
801,40
802,40
803,40
804,40
805,40
806,41
807,41
808,41
809,41
810,41
811,41
812,41
813,41
814,41
815,41
816,41
817,41
818,41
819,41
820,41
821,41
822,41
823,41
824,41
825,41
826,41
827,41
828,41
829,41
830,41
831,41
832,41
833,41
834,42
835,42
836,42
837,42
838,42
839,42
840,42
841,42
842,42
843,42
844,42
845,42
846,42
847,42
848,42
849,42
850,42
851,42
852,42
853,42
854,42
855,42
856,42
857,42
858,42
859,42
860,42
861,42
862,42
863,42
864,42
865,42
866,42
867,42
868,42
869,42
870,42
871,42
872,42
873,42
874,43
875,43
876,44
877,44
878,44
879,44
880,44
881,44
882,44
883,44
884,44
885,44
886,44
887,44
888,44
889,45
890,45
891,45
892,45
893,45
894,45
895,45
896,45
897,45
898,45
899,45
900,45
901,45
902,45
903,45
904,45
905,45
906,45
907,45
908,45
909,45
910,45
911,45
912,45
913,45
914,45
915,45
916,45
917,45
918,45
919,45
920,45
921,45
922,45
923,45
924,45
925,45
926,45
927,45
928,45
929,45
930,45
931,45
932,45
933,45
934,45
935,45
936,45
937,45
938,45
939,45
940,45
941,45
942,45
943,45
944,45
945,45
946,45
947,45
948,45
949,45
950,45
951,45
952,45
953,45
954,45
955,46
956,46
957,46
958,46
959,46
960,46
961,46
962,46
963,46
964,46
965,46
966,46
967,46
968,46
969,46
970,46
971,46
972,46
973,46
974,46
975,46
976,46
977,46
978,46
979,46
980,46
981,46
982,46
983,46
984,46
985,46
986,46
987,46
988,46
989,47
990,47
991,47
992,47
993,47
994,47
995,47
996,47
997,47
998,47
999,47
1000,47
1001,47
1002,47
1003,47
1004,47
1005,47
1006,47
1007,47
1008,47
1009,47
1010,47
1011,47
1012,47
1013,47
1014,47
1015,47
1016,47
1017,48
1018,48
1019,48
1020,48
1021,48
1022,48
1023,48
1024,48
1025,48
1026,48
1027,48
1028,48
1029,48
1030,48
1031,48
1032,48
1033,48
1034,48
1035,48
1036,48
1037,48
1038,48
1039,48
1040,48
1041,48
1042,48
1043,48
1044,49
1045,49
1046,49
1047,49
1048,49
1049,49
1050,49
1051,49
1052,49
1053,49
1054,49
1055,50
1056,50
1057,50
1058,50
1059,50
1060,50
1061,50
1062,50
1063,50
1064,50
1065,50
1066,50
1067,50
1068,50
1069,50
1070,50
1071,50
1072,51
1073,51
1074,51
1075,51
1076,51
1077,51
1078,51
1079,51
1080,51
1081,51
1082,51
1083,51
1084,51
1085,51
1086,51
1087,52
1088,52
1089,52
1090,52
1091,52
1092,52
1093,52
1094,53
1095,53
1096,53
1097,53
1098,53
1099,53
1100,53
1101,53
1102,53
1103,53
1104,53
1105,53
1106,53
1107,53
1108,53
1109,53
1110,53
1111,53
1112,53
1113,53
1114,53
1115,53
1116,53
1117,53
1118,53
1119,53
1120,53
1121,53
1122,53
1123,54
1124,54
1125,55
1126,55
1127,55
1128,55
1129,56
1130,56
1131,56
1132,56
1133,56
1134,56
1135,56
1136,56
1137,56
1138,57
1139,57
1140,57
1141,57
1142,57
1143,58
1144,58
1145,58
1146,58
1147,58
1148,58
1149,58
1150,58
1151,58
1152,58
1153,58
1154,58
1155,58
1156,58
1157,58
1158,58
1159,59
1160,59
1161,59
1162,59
1163,59
1164,59
1165,59
1166,59
1167,59
1168,59
1169,59
1170,59
1171,59
1172,59
1173,59
1174,59
1175,59
1176,59
1177,59
1178,59
1179,59
1180,59
1181,59
1182,59
1183,59
1184,59
1185,59
1186,59
1187,59
1188,59
1189,59
1190,59
1191,59
1192,59
1193,59
1194,59
1195,60
1196,60
1197,60
1198,60
1199,60
1200,60
1201,60
1202,60
1203,60
1204,60
1205,60
1206,60
1207,60
1208,60
1209,60
1210,60
1211,60
1212,60
1213,60
1214,60
1215,60
1216,60
1217,60
1218,60
1219,60
1220,60
1221,60
1222,60
1223,60
1224,60
1225,60
1226,60
1227,60
1228,60
1229,60
1230,60
1231,60
1232,60
1233,60
1234,60
1235,60
1236,60
1237,60
1238,60
1239,60
1240,60
1241,60
1242,60
1243,60
1244,60
1245,60
1246,60
1247,60
1248,60
1249,60
1250,60
1251,60
1252,60
1253,60
1254,60
1255,60
1256,60
1257,60
1258,60
1259,60
1260,60
1261,60
1262,60
1263,60
1264,60
1265,60
1266,60
1267,60
1268,60
1269,60
1270,60
1271,60
1272,60
1273,60
1274,60
1275,60
1276,60
1277,60
1278,60
1279,60
1280,60
1281,60
1282,60
1283,60
1284,60
1285,60
1286,60
1287,60
1288,60
1289,60
1290,60
1291,60
1292,60
1293,60
1294,60
1295,60
1296,60
1297,60
1298,60
1299,60
1300,60
1301,60
1302,60
1303,60
1304,61
1305,61
1306,62
1307,62
1308,62
1309,62
1310,62
1311,64
1312,67
1313,67
1314,67
1315,67
1316,67
1317,67
1318,68
1319,68
1320,68
1321,68
1322,68
1323,68
1324,68
1325,68
1326,68
1327,68
1328,68
1329,68
1330,68
1331,68
1332,68
1333,68
1334,68
1335,68
1336,68
1337,68
1338,68
1339,68
1340,68
1341,68
1342,68
1343,68
1344,68
1345,68
1346,68
1347,68
1348,68
1349,68
1350,68
1351,68
1352,68
1353,68
1354,68
1355,68
1356,68
1357,68
1358,68
1359,68
1360,68
1361,68
1362,68
1363,68
1364,68
1365,68
1366,68
1367,68
1368,68
1369,68
1370,68
1371,68
1372,68
1373,68
1374,68
1375,69
1376,69
1377,69
1378,69
1379,69
1380,69
1381,69
1382,69
1383,70
1384,70
1385,70
1386,70
1387,70
1388,70
1389,70
1390,70
1391,70
1392,70
1393,70
1394,70
1395,72
1396,72
1397,72
1398,72
1399,72
1400,72
1401,72
1402,72
1403,72
1404,72
1405,72
1406,72
1407,72
1408,72
1409,72
1410,72
1411,72
1412,74
1413,74
1414,74
1415,74
1416,74
1417,75
1418,75
1419,75
1420,75
1421,75
1422,75
1423,75
1424,75
1425,75
1426,75
1427,76
1428,76
1429,76
1430,76
1431,76
1432,76
1433,76
1434,76
1435,76
1436,76
1437,76
1438,76
1439,76
1440,76
1441,76
1442,76
1443,76
1444,76
1445,76
1446,76
1447,76
1448,76
1449,76
1450,76
1451,76
1452,76
1453,76
1454,76
1455,76
1456,77
1457,77
1458,77
1459,78
1460,78
1461,78
1462,78
1463,78
1464,79
1465,79
1466,79
1467,79
1468,79
1469,79
1470,79
1471,79
1472,79
1473,79
1474,79
1475,79
1476,79
1477,79
1478,79
1479,79
1480,79
1481,79
1482,79
1483,79
1484,79
1485,79
1486,80
1487,80
1488,80
1489,80
1490,80
1491,80
1492,80
1493,80
1494,80
1495,80
1496,80
1497,80
1498,80
1499,80
1500,80
1501,80
1502,80
1503,80
1504,80
1505,80
1506,80
1507,80
1508,80
1509,80
1510,80
1511,80
1512,80
1513,80
1514,80
1515,80
1516,80
1517,80
1518,80
1519,81
1520,81
1521,81
1522,81
1523,81
1524,81
1525,81
1526,81
1527,81
1528,81
1529,81
1530,82
1531,82
1532,82
1533,83
1534,83
1535,83
1536,83
1537,83
1538,83
1539,83
1540,83
1541,83
1542,84
1543,84
1544,85
1545,85
1546,85
1547,85
1548,86
1549,86
1550,86
1551,86
1552,87
1553,87
1554,87
1555,87
1556,87
1557,87
1558,87
1559,87
1560,87
1561,87
1562,87
1563,87
1564,87
1565,87
1566,87
1567,87
1568,87
1569,87
1570,87
1571,87
1572,87
1573,87
1574,87
1575,87
1576,87
1577,87
1578,87
1579,87
1580,87
1581,87
1582,87
1583,87
1584,87
1585,87
1586,87
1587,87
1588,87
1589,87
1590,87
1591,87
1592,87
1593,87
1594,87
1595,87
1596,87
1597,87
1598,87
1599,87
1600,87
1601,87
1602,87
1603,87
1604,87
1605,87
1606,87
1607,88
1608,88
1609,88
1610,88
1611,88
1612,88
1613,88
1614,88
1615,88
1616,88
1617,88
1618,88
1619,88
1620,88
1621,88
1622,88
1623,88
1624,88
1625,88
1626,88
1627,88
1628,88
1629,88
1630,88
1631,88
1632,88
1633,88
1634,88
1635,88
1636,88
1637,88
1638,88
1639,88
1640,88
1641,88
1642,88
1643,88
1644,88
1645,88
1646,88
1647,88
1648,88
1649,88
1650,88
1651,88
1652,88
1653,88
1654,88
1655,88
1656,88
1657,88
1658,88
1659,88
1660,88
1661,89
1662,89
1663,89
1664,89
1665,89
1666,89
1667,89
1668,89
1669,89
1670,89
1671,89
1672,89
1673,89
1674,90
1675,90
1676,90
1677,90
1678,90
1679,90
1680,90
1681,90
1682,90
1683,90
1684,90
1685,90
1686,90
1687,90
1688,90
1689,90
1690,90
1691,90
1692,90
1693,90
1694,90
1695,90
1696,90
1697,90
1698,90
1699,90
1700,90
1701,90
1702,90
1703,90
1704,90
1705,90
1706,91
1707,91
1708,91
1709,91
1710,91
1711,91
1712,91
1713,91
1714,91
1715,91
1716,91
1717,91
1718,91
1719,91
1720,91
1721,91
1722,91
1723,91
1724,91
1725,91
1726,91
1727,91
1728,91
1729,91
1730,91
1731,91
1732,91
1733,91
1734,91
1735,91
1736,91
1737,91
1738,91
1739,91
1740,91
1741,91
1742,91
1743,91
1744,91
1745,91
1746,91
1747,91
1748,91
1749,91
1750,91
1751,91
1752,91
1753,91
1754,91
1755,91
1756,91
1757,91
1758,91
1759,91
1760,91
1761,91
1762,91
1763,91
1764,91
1765,91
1766,91
1767,91
1768,91
1769,91
1770,91
1771,91
1772,91
1773,91
1774,91
1775,91
1776,92
1777,92
1778,92
1779,92
1780,92
1781,92
1782,92
1783,92
1784,92
1785,92
1786,92
1787,92
1788,92
1789,92
1790,92
1791,92
1792,92
1793,92
1794,92
1795,92
1796,92
1797,92
1798,92
1799,92
1800,92
1801,92
1802,92
1803,92
1804,92
1805,92
1806,92
1807,92
1808,92
1809,92
1810,92
1811,92
1812,92
1813,92
1814,92
1815,92
1816,92
1817,92
1818,92
1819,92
1820,92
1821,92
1822,92
1823,92
1824,92
1825,92
1826,92
1827,92
1828,92
1829,92
1830,92
1831,92
1832,92
1833,92
1834,92
1835,92
1836,92
1837,92
1838,92
1839,92
1840,92
1841,92
1842,92
1843,92
1844,92
1845,92
1846,92
1847,92
1848,92
1849,92
1850,92
1851,92
1852,92
1853,92
1854,92
1855,92
1856,92
1857,92
1858,92
1859,92
1860,92
1861,92
1862,92
1863,92
1864,92
1865,92
1866,92
1867,92
1868,92
1869,92
1870,92
1871,92
1872,92
1873,93
1874,93
1875,93
1876,93
1877,93
1878,93
1879,93
1880,93
1881,93
1882,93
1883,93
1884,93
1885,93
1886,93
1887,93
1888,93
1889,93
1890,93
1891,93
1892,93
1893,93
1894,93
1895,93
1896,93
1897,93
1898,93
1899,93
1900,93
1901,93
1902,93
1903,93
1904,93
1905,93
1906,93
1907,93
1908,93
1909,93
1910,93
1911,93
1912,93
1913,93
1914,93
1915,93
1916,93
1917,93
1918,93
1919,93
1920,93
1921,93
1922,93
1923,93
1924,93
1925,93
1926,93
1927,93
1928,93
1929,93
1930,93
1931,93
1932,93
1933,93
1934,93
1935,93
1936,93
1937,93
1938,93
1939,93
1940,93
1941,93
1942,93
1943,93
1944,93
1945,93
1946,94
1947,95
1948,95
1949,95
1950,95
1951,95
1952,95
1953,95
1954,95
1955,95
1956,95
1957,95
1958,95
1959,95
1960,95
1961,95
1962,95
1963,95
1964,95
1965,95
1966,95
1967,95
1968,95
1969,95
1970,95
1971,95
1972,95
1973,96
1974,96
1975,96
1976,96
1977,96
1978,96
1979,96
1980,96
1981,96
1982,96
1983,96
1984,96
1985,96
1986,96
1987,96
1988,96
1989,96
1990,97
1991,97
1992,97
1993,97
1994,97
1995,97
1996,97
1997,97
1998,98
1999,98
2000,98
