"tick","total"
0,0
1,0
2,0
3,0
4,0
5,0
6,0
7,0
8,0
9,0
10,0
11,0
12,0
13,0
14,0
15,0
16,0
17,0
18,0
19,0
20,0
21,0
22,0
23,0
24,0
25,0
26,0
27,0
28,0
29,0
30,0
31,0
32,0
33,0
34,0
35,0
36,0
37,0
38,0
39,0
40,0
41,0
42,0
43,0
44,0
45,0
46,0
47,0
48,0
49,0
50,0
51,0
52,0
53,0
54,0
55,0
56,0
57,0
58,0
59,0
60,0
61,0
62,0
63,0
64,0
65,0
66,0
67,0
68,0
69,0
70,0
71,0
72,0
73,0
74,0
75,0
76,0
77,0
78,0
79,0
80,0
81,0
82,0
83,0
84,0
85,0
86,0
87,0
88,0
89,0
90,0
91,0
92,0
93,0
94,0
95,0
96,0
97,0
98,0
99,0
100,0
101,0
102,0
103,0
104,0
105,0
106,0
107,0
108,0
109,0
110,0
111,0
112,0
113,0
114,0
115,0
116,0
117,0
118,0
119,0
120,0
121,0
122,0
123,0
124,0
125,0
126,0
127,0
128,0
129,0
130,0
131,0
132,0
133,0
134,0
135,0
136,0
137,0
138,0
139,0
140,0
141,0
142,0
143,0
144,0
145,0
146,0
147,0
148,0
149,0
150,0
151,0
152,0
153,0
154,0
155,0
156,0
157,0
158,0
159,0
160,0
161,0
162,0
163,0
164,0
165,0
166,0
167,0
168,0
169,0
170,0
171,0
172,0
173,0
174,0
175,0
176,0
177,0
178,0
179,0
180,0
181,0
182,0
183,0
184,0
185,0
186,0
187,0
188,0
189,0
190,0
191,0
192,0
193,0
194,0
195,0
196,0
197,0
198,0
199,0
200,0
201,0
202,0
203,0
204,0
205,0
206,0
207,0
208,0
209,0
210,0
211,0
212,0
213,0
214,0
215,0
216,0
217,0
218,0
219,0
220,0
221,0
222,0
223,0
224,0
225,0
226,0
227,0
228,0
229,0
230,0
231,0
232,0
233,0
234,0
235,0
236,0
237,0
238,0
239,0
240,0
241,0
242,0
243,0
244,0
245,0
246,0
247,0
248,0
249,0
250,0
251,0
252,0
253,0
254,0
255,1
256,1
257,1
258,1
259,2
260,2
261,2
262,2
263,2
264,2
265,2
266,2
267,3
268,3
269,3
270,3
271,3
272,3
273,3
274,3
275,3
276,3
277,3
278,3
279,5
280,5
281,5
282,5
283,6
284,6
285,6
286,6
287,7
288,7
289,7
290,7
291,8
292,8
293,8
294,8
295,8
296,8
297,8
298,8
299,8
300,8
301,8
302,8
303,8
304,8
305,8
306,8
307,8
308,8
309,8
310,8
311,8
312,8
313,8
314,8
315,8
316,8
317,9
318,9
319,10
320,10
321,11
322,11
323,11
324,11
325,11
326,11
327,11
328,11
329,12
330,12
331,12
332,12
333,12
334,14
335,14
336,14
337,14
338,14
339,14
340,14
341,14
342,14
343,14
344,14
345,14
346,14
347,14
348,14
349,14
350,14
351,14
352,15
353,15
354,16
355,16
356,16
357,16
358,17
359,17
360,17
361,17
362,18
363,18
364,18
365,18
366,18
367,18
368,18
369,18
370,18
371,18
372,18
373,18
374,18
375,18
376,18
377,18
378,18
379,18
380,18
381,18
382,20
383,20
384,20
385,20
386,20
387,21
388,21
389,22
390,23
391,23
392,23
393,23
394,23
395,23
396,23
397,23
398,23
399,23
400,23
401,23
402,25
403,25
404,25
405,25
406,25
407,25
408,25
409,25
410,25
411,25
412,25
413,25
414,25
415,25
416,26
417,26
418,26
419,26
420,26
421,26
422,26
423,26
424,26
425,26
426,27
427,27
428,27
429,27
430,27
431,27
432,27
433,27
434,27
435,28
436,28
437,28
438,28
439,28
440,28
441,28
442,28
443,28
444,28
445,28
446,28
447,28
448,28
449,28
450,28
451,28
452,28
453,28
454,28
455,28
456,28
457,28
458,28
459,28
460,29
461,29
462,29
463,29
464,29
465,29
466,29
467,29
468,29
469,29
470,29
471,29
472,29
473,29
474,29
475,29
476,29
477,29
478,29
479,29
480,29
481,29
482,29
483,29
484,29
485,29
486,29
487,29
488,29
489,30
490,30
491,31
492,31
493,31
494,31
495,31
496,31
497,31
498,31
499,31
500,31
501,31
502,31
503,31
504,31
505,31
506,31
507,31
508,31
509,31
510,31
511,31
512,31
513,31
514,31
515,31
516,31
517,31
518,31
519,31
520,31
521,31
522,31
523,31
524,31
525,31
526,31
527,32
528,32
529,32
530,32
531,32
532,32
533,32
534,32
535,32
536,32
537,32
538,32
539,32
540,32
541,32
542,32
543,32
544,32
545,32
546,32
547,32
548,32
549,32
550,32
551,32
552,32
553,32
554,32
555,32
556,32
557,32
558,32
559,32
560,32
561,32
562,32
563,32
564,32
565,32
566,32
567,32
568,32
569,32
570,32
571,32
572,32
573,32
574,32
575,32
576,32
577,32
578,32
579,32
580,32
581,32
582,32
583,32
584,32
585,32
586,32
587,32
588,32
589,32
590,32
591,32
592,32
593,32
594,32
595,32
596,32
597,32
598,32
599,32
600,32
601,32
602,32
603,32
604,32
605,32
606,32
607,32
608,32
609,32
610,32
611,32
612,32
613,32
614,32
615,32
616,32
617,32
618,32
619,32
620,32
621,32
622,32
623,32
624,32
625,32
626,32
627,32
628,32
629,32
630,32
631,32
632,32
633,32
634,32
635,32
636,32
637,32
638,32
639,33
640,33
641,33
642,33
643,33
644,33
645,33
646,33
647,33
648,33
649,33
650,33
651,33
652,33
653,33
654,33
655,33
656,33
657,33
658,33
659,33
660,33
661,33
662,33
663,33
664,33
665,33
666,33
667,33
668,33
669,33
670,33
671,33
672,33
673,33
674,33
675,33
676,33
677,33
678,33
679,33
680,33
681,33
682,33
683,33
684,33
685,33
686,33
687,33
688,33
689,33
690,33
691,33
692,33
693,33
694,33
695,33
696,33
697,33
698,33
699,33
700,33
701,33
702,33
703,33
704,33
705,33
706,33
707,33
708,33
709,33
710,33
711,33
712,33
713,33
714,33
715,33
716,33
717,33
718,33
719,33
720,33
721,33
722,33
723,33
724,33
725,33
726,33
727,33
728,33
729,33
730,33
731,33
732,33
733,33
734,33
735,33
736,33
737,33
738,33
739,33
740,33
741,33
742,33
743,33
744,33
745,33
746,33
747,33
748,33
749,33
750,33
751,33
752,34
753,34
754,34
755,34
756,34
757,34
758,35
759,35
760,36
761,36
762,36
763,36
764,36
765,36
766,36
767,36
768,36
769,36
770,36
771,36
772,36
773,36
774,36
775,36
776,36
777,36
778,36
779,36
780,36
781,37
782,37
783,37
784,37
785,37
786,37
787,37
788,37
789,37
790,37
791,37
792,37
793,37
794,37
795,37
796,37
797,37
798,37
799,37
800,37
801,37
802,37
803,37
804,37
805,37
806,37
807,37
808,37
809,37
810,37
811,37
812,37
813,37
814,37
815,38
816,38
817,38
818,38
819,38
820,38
821,38
822,38
823,38
824,38
825,38
826,38
827,38
828,38
829,38
830,38
831,38
832,38
833,38
834,38
835,39
836,39
837,39
838,39
839,39
840,39
841,39
842,39
843,40
844,40
845,40
846,40
847,41
848,41
849,41
850,41
851,41
852,41
853,41
854,41
855,42
856,42
857,43
858,43
859,43
860,43
861,43
862,43
863,43
864,43
865,43
866,43
867,43
868,43
869,43
870,44
871,44
872,44
873,44
874,44
875,44
876,45
877,45
878,46
879,46
880,46
881,47
882,47
883,47
884,47
885,47
886,47
887,47
888,47
889,47
890,47
891,47
892,47
893,47
894,47
895,47
896,47
897,47
898,49
899,50
900,50
901,50
902,51
903,51
904,51
905,51
906,51
907,52
908,53
909,53
910,53
911,53
912,53
913,53
914,54
915,54
916,54
917,54
918,54
919,54
920,54
921,54
922,54
923,54
924,54
925,54
926,54
927,54
928,54
929,54
930,54
931,54
932,54
933,54
934,54
935,54
936,54
937,54
938,54
939,54
940,54
941,54
942,54
943,54
944,54
945,54
946,54
947,54
948,54
949,54
950,54
951,54
952,54
953,54
954,54
955,54
956,55
957,55
958,55
959,55
960,55
961,55
962,55
963,55
964,55
965,55
966,55
967,55
968,55
969,55
970,55
971,55
972,55
973,55
974,55
975,55
976,55
977,55
978,55
979,55
980,55
981,55
982,55
983,55
984,55
985,55
986,55
987,55
988,55
989,55
990,55
991,55
992,55
993,55
994,55
995,55
996,55
997,55
998,55
999,55
1000,55
1001,55
1002,55
1003,55
1004,55
1005,55
1006,55
1007,55
1008,55
1009,55
1010,55
1011,55
1012,55
1013,55
1014,55
1015,55
1016,55
1017,55
1018,55
1019,55
1020,55
1021,55
1022,55
1023,55
1024,55
1025,55
1026,55
1027,55
1028,55
1029,55
1030,55
1031,55
1032,55
1033,55
1034,55
1035,55
1036,55
1037,55
1038,55
1039,55
1040,56
1041,56
1042,57
1043,57
1044,57
1045,57
1046,57
1047,57
1048,57
1049,57
1050,57
1051,57
1052,57
1053,57
1054,57
1055,57
1056,57
1057,57
1058,57
1059,57
1060,57
1061,57
1062,57
1063,57
1064,57
1065,57
1066,57
1067,57
1068,57
1069,57
1070,57
1071,57
1072,57
1073,57
1074,57
1075,58
1076,59
1077,59
1078,59
1079,59
1080,59
1081,59
1082,59
1083,59
1084,59
1085,59
1086,59
1087,59
1088,59
1089,59
1090,59
1091,59
1092,59
1093,59
1094,59
1095,59
1096,59
1097,59
1098,59
1099,59
1100,60
1101,60
1102,60
1103,60
1104,60
1105,60
1106,60
1107,60
1108,60
1109,60
1110,60
1111,60
1112,60
1113,60
1114,60
1115,60
1116,60
1117,60
1118,60
1119,60
1120,60
1121,60
1122,60
1123,60
1124,60
1125,60
1126,60
1127,60
1128,60
1129,60
1130,60
1131,60
1132,60
1133,60
1134,60
1135,60
1136,60
1137,60
1138,60
1139,60
1140,60
1141,60
1142,60
1143,60
1144,60
1145,60
1146,60
1147,60
1148,60
1149,60
1150,60
1151,60
1152,60
1153,60
1154,60
1155,60
1156,60
1157,60
1158,60
1159,60
1160,60
1161,60
1162,60
1163,60
1164,60
1165,60
1166,60
1167,60
1168,60
1169,60
1170,60
1171,60
1172,60
1173,60
1174,60
1175,60
1176,60
1177,60
1178,60
1179,60
1180,60
1181,60
1182,60
1183,60
1184,60
1185,60
1186,60
1187,60
1188,60
1189,60
1190,60
1191,60
1192,60
1193,60
1194,60
1195,60
1196,60
1197,60
1198,60
1199,60
1200,60
1201,60
1202,60
1203,60
1204,60
1205,60
1206,60
1207,60
1208,60
1209,60
1210,60
1211,60
1212,60
1213,60
1214,60
1215,60
1216,60
1217,60
1218,60
1219,60
1220,61
1221,61
1222,61
1223,61
1224,61
1225,61
1226,61
1227,61
1228,61
1229,61
1230,61
1231,61
1232,61
1233,61
1234,61
1235,61
1236,61
1237,61
1238,61
1239,61
1240,61
1241,61
1242,61
1243,61
1244,61
1245,61
1246,61
1247,61
1248,61
1249,61
1250,61
1251,61
1252,61
1253,61
1254,61
1255,61
1256,61
1257,61
1258,61
1259,61
1260,61
1261,62
1262,62
1263,62
1264,62
1265,62
1266,62
1267,63
1268,63
1269,63
1270,63
1271,63
1272,63
1273,63
1274,63
1275,63
1276,63
1277,63
1278,63
1279,63
1280,63
1281,63
1282,63
1283,64
1284,64
1285,64
1286,64
1287,65
1288,65
1289,66
1290,66
1291,66
1292,66
1293,66
1294,66
1295,66
1296,66
1297,66
1298,66
1299,66
1300,67
1301,67
1302,67
1303,67
1304,67
1305,67
1306,67
1307,67
1308,67
1309,67
1310,67
1311,67
1312,67
1313,67
1314,67
1315,67
1316,67
1317,67
1318,67
1319,67
1320,67
1321,67
1322,67
1323,67
1324,67
1325,67
1326,67
1327,67
1328,67
1329,67
1330,67
1331,68
1332,68
1333,68
1334,68
1335,68
1336,68
1337,68
1338,68
1339,68
1340,68
1341,68
1342,68
1343,68
1344,68
1345,68
1346,69
1347,70
1348,70
1349,70
1350,70
1351,70
1352,70
1353,70
1354,70
1355,70
1356,70
1357,70
1358,70
1359,70
1360,70
1361,70
1362,70
1363,70
1364,70
1365,70
1366,70
1367,70
1368,70
1369,71
1370,71
1371,71
1372,71
1373,71
1374,71
1375,71
1376,71
1377,71
1378,71
1379,71
1380,71
1381,71
1382,71
1383,71
1384,71
1385,71
1386,71
1387,71
1388,71
1389,71
1390,71
1391,71
1392,71
1393,71
1394,72
1395,72
1396,72
1397,72
1398,72
1399,72
1400,72
1401,72
1402,72
1403,72
1404,72
1405,72
1406,72
1407,72
1408,72
1409,72
1410,72
1411,72
1412,72
1413,72
1414,72
1415,73
1416,73
1417,73
1418,73
1419,73
1420,73
1421,73
1422,73
1423,73
1424,74
1425,74
1426,74
1427,74
1428,74
1429,75
1430,75
1431,75
1432,75
1433,75
1434,75
1435,75
1436,75
1437,76
1438,76
1439,77
1440,77
1441,77
1442,77
1443,77
1444,77
1445,77
1446,77
1447,78
1448,78
1449,78
1450,78
1451,78
1452,78
1453,79
1454,79
1455,80
1456,80
1457,80
1458,80
1459,80
1460,80
1461,80
1462,80
1463,80
1464,80
1465,80
1466,80
1467,80
1468,80
1469,80
1470,80
1471,81
1472,81
1473,81
1474,81
1475,81
1476,81
1477,81
1478,81
1479,81
1480,81
1481,81
1482,81
1483,81
1484,81
1485,81
1486,81
1487,81
1488,81
1489,81
1490,81
1491,81
1492,81
1493,81
1494,81
1495,81
1496,81
1497,81
1498,82
1499,82
1500,82
1501,82
1502,82
1503,82
1504,82
1505,82
1506,82
1507,82
1508,82
1509,82
1510,82
1511,82
1512,82
1513,82
1514,82
1515,82
1516,82
1517,82
1518,82
1519,82
1520,82
1521,82
1522,82
1523,82
1524,82
1525,82
1526,82
1527,82
1528,82
1529,82
1530,82
1531,82
1532,82
1533,82
1534,82
1535,82
1536,82
1537,82
1538,82
1539,82
1540,82
1541,82
1542,82
1543,82
1544,82
1545,82
1546,82
1547,82
1548,82
1549,82
1550,82
1551,82
1552,82
1553,82
1554,82
1555,82
1556,82
1557,82
1558,82
1559,82
1560,82
1561,82
1562,82
1563,82
1564,82
1565,82
1566,82
1567,82
1568,82
1569,82
1570,82
1571,82
1572,82
1573,82
1574,82
1575,82
1576,82
1577,82
1578,82
1579,82
1580,82
1581,82
1582,82
1583,82
1584,82
1585,82
1586,82
1587,82
1588,82
1589,82
1590,82
1591,82
1592,82
1593,82
1594,82
1595,82
1596,82
1597,82
1598,82
1599,82
1600,82
1601,82
1602,82
1603,82
1604,82
1605,82
1606,82
1607,82
1608,82
1609,82
1610,82
1611,82
1612,82
1613,82
1614,82
1615,82
1616,82
1617,82
1618,82
1619,82
1620,82
1621,82
1622,82
1623,82
1624,82
1625,82
1626,82
1627,82
1628,82
1629,82
1630,82
1631,82
1632,82
1633,82
1634,82
1635,82
1636,82
1637,82
1638,82
1639,82
1640,82
1641,82
1642,82
1643,82
1644,82
1645,82
1646,82
1647,82
1648,82
1649,82
1650,82
1651,82
1652,82
1653,82
1654,82
1655,82
1656,82
1657,82
1658,82
1659,82
1660,82
1661,82
1662,82
1663,82
1664,82
1665,82
1666,82
1667,82
1668,82
1669,82
1670,82
1671,82
1672,82
1673,83
1674,83
1675,83
1676,83
1677,83
1678,83
1679,83
1680,83
1681,83
1682,83
1683,83
1684,83
1685,83
1686,84
1687,84
1688,84
1689,84
1690,84
1691,84
1692,84
1693,84
1694,84
1695,84
1696,84
1697,84
1698,84
1699,84
1700,84
1701,85
1702,85
1703,85
1704,85
1705,85
1706,85
1707,85
1708,85
1709,85
1710,85
1711,85
1712,85
1713,85
1714,85
1715,85
1716,85
1717,85
1718,85
1719,85
1720,85
1721,85
1722,85
1723,85
1724,85
1725,85
1726,85
1727,85
1728,85
1729,85
1730,85
1731,85
1732,85
1733,85
1734,85
1735,85
1736,86
1737,86
1738,86
1739,86
1740,86
1741,86
1742,86
1743,86
1744,86
1745,86
1746,86
1747,86
1748,86
1749,86
1750,86
1751,86
1752,86
1753,86
1754,86
1755,86
1756,86
1757,86
1758,86
1759,86
1760,86
1761,86
1762,86
1763,86
1764,86
1765,86
1766,86
1767,86
1768,86
1769,86
1770,87
1771,87
1772,87
1773,87
1774,87
1775,87
1776,88
1777,89
1778,89
1779,89
1780,89
1781,89
1782,89
1783,89
1784,90
1785,90
1786,90
1787,90
1788,90
1789,90
1790,90
1791,90
1792,90
1793,90
1794,90
1795,90
1796,90
1797,90
1798,92
1799,93
1800,93
1801,93
1802,93
1803,93
1804,93
1805,93
1806,95
1807,95
1808,95
1809,95
1810,95
1811,95
1812,95
1813,95
1814,95
1815,95
1816,96
1817,96
1818,96
1819,96
1820,96
1821,96
1822,96
1823,96
1824,96
1825,96
1826,96
1827,96
1828,96
1829,96
1830,96
1831,96
1832,96
1833,96
1834,96
1835,96
1836,96
1837,96
1838,96
1839,96
1840,96
1841,96
1842,96
1843,96
1844,96
1845,96
1846,96
1847,96
1848,96
1849,96
1850,96
1851,96
1852,96
1853,96
1854,96
1855,96
1856,96
1857,96
1858,97
1859,97
1860,97
1861,97
1862,97
1863,97
1864,97
1865,97
1866,98
1867,98
1868,98
1869,99
1870,99
1871,99
1872,99
1873,99
1874,99
1875,99
1876,99
1877,99
1878,99
1879,99
1880,99
1881,99
1882,99
1883,99
1884,99
1885,99
1886,99
1887,99
1888,99
1889,99
1890,99
1891,99
1892,100
1893,100
1894,100
1895,100
1896,100
1897,100
1898,100
1899,101
1900,101
1901,102
1902,102
1903,103
1904,103
1905,103
1906,103
1907,104
1908,104
1909,104
1910,104
1911,105
1912,106
1913,106
1914,106
1915,106
1916,106
1917,106
1918,106
1919,106
1920,106
1921,106
1922,106
1923,106
1924,106
1925,106
1926,106
1927,106
1928,106
1929,106
1930,106
1931,106
1932,106
1933,106
1934,106
1935,106
1936,106
1937,106
1938,106
1939,106
1940,106
1941,106
1942,106
1943,106
1944,106
1945,106
1946,106
1947,106
1948,106
1949,106
1950,106
1951,106
1952,106
1953,106
1954,106
1955,106
1956,106
1957,106
1958,106
1959,106
1960,106
1961,106
1962,106
1963,106
1964,106
1965,106
1966,106
1967,106
1968,106
1969,106
1970,106
1971,106
1972,106
1973,106
1974,106
1975,106
1976,106
1977,106
1978,106
1979,106
1980,106
1981,106
1982,106
1983,106
1984,106
1985,106
1986,106
1987,106
1988,106
1989,106
1990,107
1991,107
1992,107
1993,107
1994,107
1995,107
1996,107
1997,107
1998,107
1999,107
2000,107
