"tick","susceptible","exposed","infectious","recovered"
0,99,1,0,0
1,99,1,0,0
2,99,1,0,0
3,99,1,0,0
4,99,1,0,0
5,99,1,0,0
6,99,1,0,0
7,99,1,0,0
8,99,1,0,0
9,99,1,0,0
10,99,1,0,0
11,99,1,0,0
12,99,1,0,0
13,99,1,0,0
14,99,1,0,0
15,99,1,0,0
16,99,1,0,0
17,99,1,0,0
18,99,1,0,0
19,99,1,0,0
20,99,1,0,0
21,99,1,0,0
22,99,1,0,0
23,99,1,0,0
24,99,1,0,0
25,99,1,0,0
26,99,1,0,0
27,99,1,0,0
28,99,1,0,0
29,99,1,0,0
30,99,1,0,0
31,99,1,0,0
32,99,1,0,0
33,99,1,0,0
34,99,1,0,0
35,99,1,0,0
36,99,1,0,0
37,99,1,0,0
38,99,1,0,0
39,99,1,0,0
40,99,1,0,0
41,99,1,0,0
42,99,1,0,0
43,99,1,0,0
44,99,1,0,0
45,99,1,0,0
46,99,1,0,0
47,99,1,0,0
48,99,1,0,0
49,99,1,0,0
50,99,1,0,0
51,99,1,0,0
52,99,1,0,0
53,99,1,0,0
54,99,1,0,0
55,99,1,0,0
56,99,1,0,0
57,99,1,0,0
58,99,1,0,0
59,99,1,0,0
60,99,1,0,0
61,99,1,0,0
62,99,1,0,0
63,99,1,0,0
64,99,1,0,0
65,99,1,0,0
66,99,1,0,0
67,99,1,0,0
68,99,1,0,0
69,99,1,0,0
70,99,1,0,0
71,99,1,0,0
72,99,1,0,0
73,99,1,0,0
74,99,1,0,0
75,99,1,0,0
76,99,1,0,0
77,99,1,0,0
78,99,1,0,0
79,99,1,0,0
80,99,1,0,0
81,99,1,0,0
82,99,1,0,0
83,99,1,0,0
84,99,1,0,0
85,99,1,0,0
86,99,1,0,0
87,99,1,0,0
88,99,1,0,0
89,99,1,0,0
90,99,1,0,0
91,99,1,0,0
92,99,1,0,0
93,99,1,0,0
94,99,1,0,0
95,99,1,0,0
96,99,1,0,0
97,99,1,0,0
98,99,1,0,0
99,99,1,0,0
100,99,1,0,0
101,99,1,0,0
102,99,1,0,0
103,99,1,0,0
104,99,1,0,0
105,99,1,0,0
106,99,1,0,0
107,99,1,0,0
108,99,1,0,0
109,99,1,0,0
110,99,1,0,0
111,99,1,0,0
112,99,1,0,0
113,99,1,0,0
114,99,1,0,0
115,99,1,0,0
116,99,1,0,0
117,99,1,0,0
118,99,1,0,0
119,99,1,0,0
120,99,1,0,0
121,99,1,0,0
122,99,1,0,0
123,99,1,0,0
124,99,1,0,0
125,99,1,0,0
126,99,1,0,0
127,99,1,0,0
128,99,1,0,0
129,99,1,0,0
130,99,1,0,0
131,99,1,0,0
132,99,1,0,0
133,99,1,0,0
134,99,1,0,0
135,99,1,0,0
136,99,1,0,0
137,99,1,0,0
138,99,1,0,0
139,99,1,0,0
140,99,1,0,0
141,99,1,0,0
142,99,1,0,0
143,99,1,0,0
144,99,1,0,0
145,99,1,0,0
146,99,1,0,0
147,99,1,0,0
148,99,1,0,0
149,99,1,0,0
150,99,1,0,0
151,99,1,0,0
152,99,1,0,0
153,99,1,0,0
154,99,1,0,0
155,99,1,0,0
156,99,1,0,0
157,99,1,0,0
158,99,1,0,0
159,99,1,0,0
160,99,1,0,0
161,99,1,0,0
162,99,1,0,0
163,99,1,0,0
164,99,1,0,0
165,99,1,0,0
166,99,1,0,0
167,99,1,0,0
168,99,1,0,0
169,99,1,0,0
170,99,1,0,0
171,99,1,0,0
172,99,1,0,0
173,99,1,0,0
174,99,1,0,0
175,99,1,0,0
176,99,1,0,0
177,99,1,0,0
178,99,1,0,0
179,99,1,0,0
180,99,1,0,0
181,99,1,0,0
182,99,1,0,0
183,99,1,0,0
184,99,1,0,0
185,99,1,0,0
186,99,1,0,0
187,99,1,0,0
188,99,1,0,0
189,99,1,0,0
190,99,1,0,0
191,99,1,0,0
192,99,1,0,0
193,99,1,0,0
194,99,1,0,0
195,99,1,0,0
196,99,1,0,0
197,99,1,0,0
198,99,1,0,0
199,99,1,0,0
200,99,1,0,0
201,99,0,1,0
202,98,1,1,0
203,98,1,1,0
204,98,1,1,0
205,98,1,1,0
206,98,1,1,0
207,98,1,1,0
208,98,1,1,0
209,98,1,1,0
210,98,1,1,0
211,98,1,1,0
212,98,1,1,0
213,98,1,1,0
214,98,1,1,0
215,98,1,1,0
216,98,1,1,0
217,98,1,1,0
218,98,1,1,0
219,98,1,1,0
220,98,1,1,0
221,98,1,1,0
222,98,1,1,0
223,98,1,1,0
224,98,1,1,0
225,98,1,1,0
226,98,1,1,0
227,98,1,1,0
228,98,1,1,0
229,98,1,1,0
230,98,1,1,0
231,98,1,1,0
232,98,1,1,0
233,98,1,1,0
234,98,1,1,0
235,98,1,1,0
236,98,1,1,0
237,98,1,1,0
238,98,1,1,0
239,98,1,1,0
240,98,1,1,0
241,98,1,1,0
242,98,1,1,0
243,98,1,1,0
244,98,1,1,0
245,98,1,1,0
246,98,1,1,0
247,98,1,1,0
248,98,1,1,0
249,98,1,1,0
250,98,1,1,0
251,98,1,1,0
252,98,1,1,0
253,98,1,1,0
254,98,1,1,0
255,98,1,1,0
256,98,1,1,0
257,98,1,1,0
258,98,1,1,0
259,98,1,1,0
260,98,1,1,0
261,98,1,1,0
262,98,1,1,0
263,98,1,1,0
264,98,1,1,0
265,98,1,1,0
266,98,1,1,0
267,98,1,1,0
268,98,1,1,0
269,98,1,1,0
270,98,1,1,0
271,98,1,1,0
272,98,1,1,0
273,98,1,1,0
274,98,1,1,0
275,98,1,1,0
276,98,1,1,0
277,98,1,1,0
278,98,1,1,0
279,98,1,1,0
280,98,1,1,0
281,98,1,1,0
282,98,1,1,0
283,98,1,1,0
284,98,1,1,0
285,98,1,1,0
286,98,1,1,0
287,98,1,1,0
288,98,1,1,0
289,98,1,1,0
290,98,1,1,0
291,98,1,1,0
292,98,1,1,0
293,98,1,1,0
294,98,1,1,0
295,98,1,1,0
296,98,1,1,0
297,98,1,1,0
298,98,1,1,0
299,98,1,1,0
300,98,1,1,0
301,98,1,1,0
302,98,1,1,0
303,98,1,1,0
304,98,1,1,0
305,98,1,1,0
306,98,1,1,0
307,98,1,1,0
308,98,1,1,0
309,98,1,1,0
310,98,1,1,0
311,98,1,1,0
312,98,1,1,0
313,98,1,1,0
314,98,1,1,0
315,98,1,1,0
316,98,1,1,0
317,98,1,1,0
318,98,1,1,0
319,98,1,1,0
320,98,1,1,0
321,98,1,1,0
322,98,1,1,0
323,98,1,1,0
324,98,1,1,0
325,98,1,1,0
326,98,1,1,0
327,98,1,1,0
328,98,1,1,0
329,98,1,1,0
330,98,1,1,0
331,98,1,1,0
332,98,1,1,0
333,98,1,1,0
334,98,1,1,0
335,98,1,1,0
336,98,1,1,0
337,98,1,1,0
338,98,1,1,0
339,98,1,1,0
340,98,1,1,0
341,98,1,1,0
342,97,2,1,0
343,97,2,1,0
344,97,2,1,0
345,97,2,1,0
346,97,2,1,0
347,97,2,1,0
348,97,2,1,0
349,97,2,1,0
350,97,2,1,0
351,97,2,1,0
352,97,2,1,0
353,97,2,1,0
354,97,2,1,0
355,97,2,1,0
356,97,2,1,0
357,97,2,1,0
358,97,2,1,0
359,97,2,1,0
360,97,2,1,0
361,97,2,1,0
362,97,2,1,0
363,97,2,1,0
364,97,2,1,0
365,97,2,1,0
366,96,3,1,0
367,96,3,1,0
368,96,3,1,0
369,96,3,1,0
370,96,3,1,0
371,96,3,1,0
372,96,3,1,0
373,96,3,1,0
374,96,3,1,0
375,96,3,1,0
376,96,3,1,0
377,96,3,1,0
378,96,3,1,0
379,96,3,1,0
380,96,3,1,0
381,96,3,1,0
382,96,3,1,0
383,96,3,1,0
384,96,3,1,0
385,96,3,1,0
386,96,3,1,0
387,96,3,1,0
388,96,3,1,0
389,96,3,1,0
390,96,3,1,0
391,96,3,1,0
392,96,3,1,0
393,96,3,1,0
394,96,3,1,0
395,96,3,1,0
396,96,3,1,0
397,96,3,1,0
398,96,3,1,0
399,96,3,1,0
400,96,3,1,0
401,96,3,1,0
402,96,3,0,1
403,96,2,1,1
404,96,2,1,1
405,96,2,1,1
406,96,2,1,1
407,96,2,1,1
408,96,2,1,1
409,96,2,1,1
410,96,2,1,1
411,96,2,1,1
412,96,2,1,1
413,96,2,1,1
414,96,2,1,1
415,96,2,1,1
416,96,2,1,1
417,96,2,1,1
418,96,2,1,1
419,96,2,1,1
420,96,2,1,1
421,96,2,1,1
422,96,2,1,1
423,96,2,1,1
424,96,2,1,1
425,96,2,1,1
426,96,2,1,1
427,96,2,1,1
428,96,2,1,1
429,96,2,1,1
430,96,2,1,1
431,96,2,1,1
432,96,2,1,1
433,96,2,1,1
434,96,2,1,1
435,96,2,1,1
436,96,2,1,1
437,96,2,1,1
438,96,2,1,1
439,96,2,1,1
440,96,2,1,1
441,96,2,1,1
442,96,2,1,1
443,96,2,1,1
444,96,2,1,1
445,96,2,1,1
446,96,2,1,1
447,96,2,1,1
448,96,2,1,1
449,96,2,1,1
450,96,2,1,1
451,96,2,1,1
452,96,2,1,1
453,96,2,1,1
454,96,2,1,1
455,96,2,1,1
456,96,2,1,1
457,96,2,1,1
458,96,2,1,1
459,96,2,1,1
460,96,2,1,1
461,96,2,1,1
462,96,2,1,1
463,96,2,1,1
464,96,2,1,1
465,96,2,1,1
466,96,2,1,1
467,96,2,1,1
468,96,2,1,1
469,96,2,1,1
470,96,2,1,1
471,95,3,1,1
472,95,3,1,1
473,95,3,1,1
474,95,3,1,1
475,95,3,1,1
476,95,3,1,1
477,95,3,1,1
478,95,3,1,1
479,95,3,1,1
480,95,3,1,1
481,95,3,1,1
482,95,3,1,1
483,95,3,1,1
484,95,3,1,1
485,95,3,1,1
486,95,3,1,1
487,95,3,1,1
488,95,3,1,1
489,95,3,1,1
490,95,3,1,1
491,95,3,1,1
492,95,3,1,1
493,95,3,1,1
494,95,3,1,1
495,95,3,1,1
496,95,3,1,1
497,95,3,1,1
498,95,3,1,1
499,95,3,1,1
500,95,3,1,1
501,95,3,1,1
502,95,3,1,1
503,95,3,1,1
504,95,3,1,1
505,95,3,1,1
506,95,3,1,1
507,95,3,1,1
508,95,3,1,1
509,95,3,1,1
510,95,3,1,1
511,95,3,1,1
512,95,3,1,1
513,95,3,1,1
514,95,3,1,1
515,95,3,1,1
516,95,3,1,1
517,95,3,1,1
518,95,3,1,1
519,95,3,1,1
520,95,3,1,1
521,95,3,1,1
522,95,3,1,1
523,95,3,1,1
524,95,3,1,1
525,95,3,1,1
526,95,3,1,1
527,95,3,1,1
528,95,3,1,1
529,95,3,1,1
530,95,3,1,1
531,95,3,1,1
532,95,3,1,1
533,95,3,1,1
534,95,3,1,1
535,95,3,1,1
536,95,3,1,1
537,95,3,1,1
538,95,3,1,1
539,95,3,1,1
540,95,3,1,1
541,95,3,1,1
542,95,3,1,1
543,95,2,2,1
544,95,2,2,1
545,95,2,2,1
546,95,2,2,1
547,95,2,2,1
548,95,2,2,1
549,95,2,2,1
550,95,2,2,1
551,95,2,2,1
552,95,2,2,1
553,95,2,2,1
554,95,2,2,1
555,95,2,2,1
556,95,2,2,1
557,95,2,2,1
558,95,2,2,1
559,95,2,2,1
560,95,2,2,1
561,95,2,2,1
562,95,2,2,1
563,95,2,2,1
564,95,2,2,1
565,95,2,2,1
566,95,2,2,1
567,95,1,3,1
568,95,1,3,1
569,95,1,3,1
570,94,2,3,1
571,94,2,3,1
572,94,2,3,1
573,94,2,3,1
574,94,2,3,1
575,94,2,3,1
576,94,2,3,1
577,94,2,3,1
578,93,3,3,1
579,93,3,3,1
580,93,3,3,1
581,93,3,3,1
582,93,3,3,1
583,93,3,3,1
584,93,3,3,1
585,93,3,3,1
586,93,3,3,1
587,93,3,3,1
588,93,3,3,1
589,93,3,3,1
590,93,3,3,1
591,93,3,3,1
592,93,3,3,1
593,93,3,3,1
594,93,3,3,1
595,93,3,3,1
596,93,3,3,1
597,93,3,3,1
598,93,3,3,1
599,93,3,3,1
600,93,3,3,1
601,93,3,3,1
602,93,3,3,1
603,93,3,3,1
604,93,3,2,2
605,93,3,2,2
606,93,3,2,2
607,93,3,2,2
608,92,4,2,2
609,92,4,2,2
610,92,4,2,2
611,92,4,2,2
612,92,4,2,2
613,92,4,2,2
614,92,4,2,2
615,92,4,2,2
616,92,4,2,2
617,92,4,2,2
618,92,4,2,2
619,92,4,2,2
620,92,4,2,2
621,92,4,2,2
622,92,4,2,2
623,92,4,2,2
624,92,4,2,2
625,92,4,2,2
626,92,4,2,2
627,92,4,2,2
628,92,4,2,2
629,92,4,2,2
630,92,4,2,2
631,92,4,2,2
632,92,4,2,2
633,92,4,2,2
634,92,4,2,2
635,92,4,2,2
636,92,4,2,2
637,92,4,2,2
638,92,4,2,2
639,92,4,2,2
640,92,4,2,2
641,92,4,2,2
642,92,4,2,2
643,92,4,2,2
644,92,4,2,2
645,92,4,2,2
646,92,4,2,2
647,92,4,2,2
648,92,4,2,2
649,92,4,2,2
650,92,4,2,2
651,92,4,2,2
652,92,4,2,2
653,92,4,2,2
654,92,4,2,2
655,92,4,2,2
656,92,4,2,2
657,92,4,2,2
658,92,4,2,2
659,92,4,2,2
660,92,4,2,2
661,92,4,2,2
662,92,4,2,2
663,92,4,2,2
664,92,4,2,2
665,92,4,2,2
666,92,4,2,2
667,92,4,2,2
668,92,4,2,2
669,92,4,2,2
670,92,4,2,2
671,92,4,2,2
672,92,3,3,2
673,92,3,3,2
674,92,3,3,2
675,92,3,3,2
676,92,3,3,2
677,92,3,3,2
678,91,4,3,2
679,91,4,3,2
680,91,4,3,2
681,91,4,3,2
682,91,4,3,2
683,91,4,3,2
684,91,4,3,2
685,91,4,3,2
686,91,4,3,2
687,91,4,3,2
688,91,4,3,2
689,91,4,3,2
690,91,4,3,2
691,91,4,3,2
692,91,4,3,2
693,91,4,3,2
694,91,4,3,2
695,91,4,3,2
696,91,4,3,2
697,91,4,3,2
698,91,4,3,2
699,91,4,3,2
700,91,4,3,2
701,91,4,3,2
702,91,4,3,2
703,91,4,3,2
704,91,4,3,2
705,91,4,3,2
706,91,4,3,2
707,91,4,3,2
708,91,4,3,2
709,91,4,3,2
710,91,4,3,2
711,91,4,3,2
712,91,4,3,2
713,91,4,3,2
714,91,4,3,2
715,91,4,3,2
716,91,4,3,2
717,91,4,3,2
718,91,4,3,2
719,91,4,3,2
720,91,4,3,2
721,91,4,3,2
722,91,4,3,2
723,91,4,3,2
724,91,4,3,2
725,91,4,3,2
726,91,4,3,2
727,91,4,3,2
728,91,4,3,2
729,91,4,3,2
730,91,4,3,2
731,91,4,3,2
732,91,4,3,2
733,91,4,3,2
734,91,4,3,2
735,91,4,3,2
736,91,4,3,2
737,91,4,3,2
738,91,4,3,2
739,91,4,3,2
740,91,4,3,2
741,91,4,3,2
742,91,4,3,2
743,91,4,3,2
744,91,4,2,3
745,91,4,2,3
746,91,4,2,3
747,91,4,2,3
748,91,4,2,3
749,91,4,2,3
750,91,4,2,3
751,91,4,2,3
752,91,4,2,3
753,91,4,2,3
754,91,4,2,3
755,91,4,2,3
756,91,4,2,3
757,91,4,2,3
758,91,4,2,3
759,91,4,2,3
760,91,4,2,3
761,91,4,2,3
762,91,4,2,3
763,91,4,2,3
764,91,4,2,3
765,91,4,2,3
766,91,4,2,3
767,91,4,2,3
768,91,4,1,4
769,91,4,1,4
770,91,4,1,4
771,91,3,2,4
772,91,3,2,4
773,91,3,2,4
774,91,3,2,4
775,91,3,2,4
776,91,3,2,4
777,91,3,2,4
778,91,3,2,4
779,91,2,3,4
780,91,2,3,4
781,91,2,3,4
782,91,2,3,4
783,91,2,3,4
784,91,2,3,4
785,91,2,3,4
786,91,2,3,4
787,91,2,3,4
788,91,2,3,4
789,91,2,3,4
790,91,2,3,4
791,91,2,3,4
792,91,2,3,4
793,91,2,3,4
794,91,2,3,4
795,91,2,3,4
796,91,2,3,4
797,91,2,3,4
798,91,2,3,4
799,91,2,3,4
800,91,2,3,4
801,91,2,3,4
802,91,2,3,4
803,91,2,3,4
804,91,2,3,4
805,91,2,3,4
806,91,2,3,4
807,91,2,3,4
808,91,2,3,4
809,91,1,4,4
810,91,1,4,4
811,91,1,4,4
812,91,1,4,4
813,91,1,4,4
814,91,1,4,4
815,91,1,4,4
816,91,1,4,4
817,91,1,4,4
818,91,1,4,4
819,91,1,4,4
820,91,1,4,4
821,91,1,4,4
822,91,1,4,4
823,91,1,4,4
824,91,1,4,4
825,91,1,4,4
826,91,1,4,4
827,91,1,4,4
828,91,1,4,4
829,91,1,4,4
830,91,1,4,4
831,91,1,4,4
832,91,1,4,4
833,91,1,4,4
834,91,1,4,4
835,91,1,4,4
836,91,1,4,4
837,91,1,4,4
838,90,2,4,4
839,90,2,4,4
840,90,2,4,4
841,90,2,4,4
842,90,2,4,4
843,90,2,4,4
844,90,2,4,4
845,90,2,4,4
846,90,2,4,4
847,90,2,4,4
848,90,2,4,4
849,90,2,4,4
850,90,2,4,4
851,90,2,4,4
852,90,2,4,4
853,90,2,4,4
854,90,2,4,4
855,90,2,4,4
856,90,2,4,4
857,90,2,4,4
858,90,2,4,4
859,90,2,4,4
860,90,2,4,4
861,90,2,4,4
862,90,2,4,4
863,90,2,4,4
864,90,2,4,4
865,90,2,4,4
866,90,2,4,4
867,90,2,4,4
868,90,2,4,4
869,90,2,4,4
870,89,3,4,4
871,89,3,4,4
872,89,3,4,4
873,89,3,3,5
874,89,3,3,5
875,89,3,3,5
876,89,3,3,5
877,89,3,3,5
878,89,3,3,5
879,88,3,4,5
880,88,3,4,5
881,87,4,4,5
882,87,4,4,5
883,87,4,4,5
884,86,5,4,5
885,85,6,4,5
886,85,6,4,5
887,85,6,4,5
888,85,6,4,5
889,84,7,4,5
890,84,7,4,5
891,84,7,4,5
892,84,7,4,5
893,84,7,4,5
894,84,7,4,5
895,84,7,4,5
896,84,7,4,5
897,83,8,4,5
898,83,8,4,5
899,83,8,4,5
900,83,8,4,5
901,83,8,4,5
902,83,8,4,5
903,83,8,4,5
904,83,8,4,5
905,83,8,4,5
906,83,8,4,5
907,83,8,4,5
908,83,8,4,5
909,83,8,4,5
910,83,8,4,5
911,83,8,4,5
912,83,8,4,5
913,83,8,4,5
914,83,8,4,5
915,83,8,4,5
916,83,8,4,5
917,83,8,4,5
918,83,8,4,5
919,81,10,4,5
920,81,10,4,5
921,81,10,4,5
922,81,10,4,5
923,81,10,4,5
924,81,10,4,5
925,81,10,4,5
926,81,10,4,5
927,81,10,4,5
928,81,10,4,5
929,81,10,4,5
930,81,10,4,5
931,81,10,4,5
932,81,10,4,5
933,81,10,4,5
934,81,10,4,5
935,81,10,4,5
936,81,10,4,5
937,81,10,4,5
938,81,10,4,5
939,81,10,4,5
940,81,10,4,5
941,81,10,4,5
942,81,10,4,5
943,81,10,4,5
944,81,10,4,5
945,81,10,4,5
946,81,10,4,5
947,81,10,4,5
948,81,10,4,5
949,81,10,4,5
950,81,10,4,5
951,81,10,4,5
952,81,10,4,5
953,81,10,4,5
954,81,10,4,5
955,81,10,4,5
956,81,10,4,5
957,81,10,4,5
958,81,10,4,5
959,81,10,4,5
960,81,10,4,5
961,81,10,4,5
962,81,10,4,5
963,81,10,4,5
964,81,10,4,5
965,81,10,4,5
966,81,10,4,5
967,81,10,4,5
968,81,10,4,5
969,81,10,4,5
970,81,10,4,5
971,81,10,4,5
972,81,10,3,6
973,81,10,3,6
974,81,10,3,6
975,81,10,3,6
976,81,10,3,6
977,81,10,3,6
978,81,10,3,6
979,81,10,3,6
980,81,10,2,7
981,81,10,2,7
982,81,10,2,7
983,81,10,2,7
984,81,10,2,7
985,81,10,2,7
986,81,10,2,7
987,81,10,2,7
988,81,10,2,7
989,81,10,2,7
990,81,10,2,7
991,81,10,2,7
992,81,10,2,7
993,81,10,2,7
994,81,10,2,7
995,81,10,2,7
996,81,10,2,7
997,81,10,2,7
998,81,10,2,7
999,81,10,2,7
1000,81,10,2,7
1001,81,10,2,7
1002,81,10,2,7
1003,81,10,2,7
1004,81,10,2,7
1005,81,10,2,7
1006,81,10,2,7
1007,81,10,2,7
1008,81,10,2,7
1009,81,10,2,7
1010,81,10,1,8
1011,81,10,1,8
1012,81,10,1,8
1013,81,10,1,8
1014,81,10,1,8
1015,81,10,1,8
1016,81,10,1,8
1017,81,10,1,8
1018,81,10,1,8
1019,81,10,1,8
1020,81,10,1,8
1021,81,10,1,8
1022,81,10,1,8
1023,81,10,1,8
1024,81,10,1,8
1025,81,10,1,8
1026,81,10,1,8
1027,81,10,1,8
1028,81,10,1,8
1029,81,10,1,8
1030,81,10,1,8
1031,81,10,1,8
1032,81,10,1,8
1033,81,10,1,8
1034,81,10,1,8
1035,81,10,1,8
1036,81,10,1,8
1037,81,10,1,8
1038,81,10,1,8
1039,81,9,2,8
1040,81,9,2,8
1041,81,9,2,8
1042,81,9,2,8
1043,81,9,2,8
1044,81,9,2,8
1045,81,9,2,8
1046,81,9,2,8
1047,81,9,2,8
1048,81,9,2,8
1049,81,9,2,8
1050,81,9,2,8
1051,81,9,2,8
1052,81,9,2,8
1053,81,9,2,8
1054,81,9,2,8
1055,81,9,2,8
1056,81,9,2,8
1057,81,9,2,8
1058,81,9,2,8
1059,81,9,2,8
1060,81,9,2,8
1061,81,9,2,8
1062,81,9,2,8
1063,81,9,2,8
1064,81,9,2,8
1065,81,9,2,8
1066,81,9,2,8
1067,80,10,2,8
1068,80,10,2,8
1069,80,10,2,8
1070,80,10,2,8
1071,80,9,3,8
1072,80,9,3,8
1073,80,9,3,8
1074,80,9,3,8
1075,80,9,3,8
1076,80,9,3,8
1077,80,9,3,8
1078,80,9,3,8
1079,80,9,3,8
1080,80,8,3,9
1081,80,8,3,9
1082,80,7,4,9
1083,80,7,4,9
1084,80,7,4,9
1085,80,6,5,9
1086,79,6,6,9
1087,79,6,6,9
1088,78,7,6,9
1089,78,7,6,9
1090,78,6,7,9
1091,78,6,7,9
1092,77,7,7,9
1093,77,7,7,9
1094,75,9,7,9
1095,75,9,7,9
1096,75,9,7,9
1097,75,9,7,9
1098,75,8,8,9
1099,75,8,8,9
1100,75,8,8,9
1101,75,8,8,9
1102,75,8,8,9
1103,75,8,8,9
1104,75,8,8,9
1105,75,8,8,9
1106,75,8,8,9
1107,75,8,8,9
1108,75,8,8,9
1109,75,8,8,9
1110,75,8,8,9
1111,75,8,8,9
1112,75,8,8,9
1113,75,8,8,9
1114,75,8,8,9
1115,75,8,8,9
1116,75,8,8,9
1117,75,8,8,9
1118,75,8,8,9
1119,75,8,8,9
1120,75,6,10,9
1121,75,6,10,9
1122,75,6,10,9
1123,75,6,10,9
1124,75,6,10,9
1125,75,6,10,9
1126,75,6,10,9
1127,75,6,10,9
1128,75,6,10,9
1129,75,6,10,9
1130,75,6,10,9
1131,75,6,10,9
1132,75,6,10,9
1133,75,6,10,9
1134,75,6,10,9
1135,75,6,10,9
1136,74,7,10,9
1137,74,7,10,9
1138,74,7,10,9
1139,74,7,10,9
1140,74,7,10,9
1141,74,7,10,9
1142,74,7,10,9
1143,74,7,10,9
1144,74,7,10,9
1145,74,7,10,9
1146,74,7,10,9
1147,74,7,10,9
1148,74,7,10,9
1149,74,7,10,9
1150,74,7,10,9
1151,74,7,10,9
1152,74,7,10,9
1153,74,7,10,9
1154,74,7,10,9
1155,74,7,10,9
1156,74,7,10,9
1157,74,7,10,9
1158,74,7,10,9
1159,74,7,10,9
1160,74,7,10,9
1161,74,7,10,9
1162,74,7,10,9
1163,74,7,10,9
1164,74,7,10,9
1165,74,7,10,9
1166,74,7,10,9
1167,74,7,10,9
1168,74,7,10,9
1169,74,7,10,9
1170,74,7,10,9
1171,74,7,10,9
1172,74,7,10,9
1173,74,7,10,9
1174,74,7,10,9
1175,74,7,10,9
1176,74,7,10,9
1177,74,7,10,9
1178,74,7,10,9
1179,74,7,10,9
1180,74,7,10,9
1181,74,7,10,9
1182,74,7,10,9
1183,74,7,10,9
1184,74,7,10,9
1185,73,8,10,9
1186,73,8,10,9
1187,73,8,10,9
1188,73,8,10,9
1189,73,8,10,9
1190,73,8,10,9
1191,73,8,10,9
1192,73,8,10,9
1193,72,9,10,9
1194,72,9,10,9
1195,72,9,10,9
1196,72,9,10,9
1197,72,9,10,9
1198,72,9,10,9
1199,72,9,10,9
1200,71,10,10,9
1201,71,10,10,9
1202,71,10,10,9
1203,71,10,10,9
1204,71,10,10,9
1205,71,10,10,9
1206,71,10,10,9
1207,71,10,10,9
1208,71,10,10,9
1209,71,10,10,9
1210,71,10,10,9
1211,71,10,10,9
1212,71,10,10,9
1213,71,10,10,9
1214,71,10,10,9
1215,70,11,10,9
1216,70,11,10,9
1217,70,11,10,9
1218,70,11,10,9
1219,70,11,10,9
1220,70,11,10,9
1221,69,12,10,9
1222,69,12,10,9
1223,69,12,10,9
1224,68,13,10,9
1225,68,13,10,9
1226,68,13,10,9
1227,68,13,10,9
1228,68,13,10,9
1229,68,13,10,9
1230,68,13,10,9
1231,68,13,10,9
1232,68,13,10,9
1233,68,13,10,9
1234,68,13,10,9
1235,67,14,10,9
1236,67,14,10,9
1237,67,14,10,9
1238,67,14,10,9
1239,67,14,10,9
1240,67,14,9,10
1241,67,14,9,10
1242,67,14,9,10
1243,67,14,9,10
1244,67,14,9,10
1245,67,14,9,10
1246,67,14,9,10
1247,67,14,9,10
1248,67,14,9,10
1249,67,14,9,10
1250,67,14,9,10
1251,67,14,9,10
1252,67,14,9,10
1253,67,14,9,10
1254,67,14,9,10
1255,67,14,9,10
1256,67,14,9,10
1257,67,14,9,10
1258,67,14,9,10
1259,67,14,9,10
1260,67,14,9,10
1261,67,14,9,10
1262,67,14,9,10
1263,67,14,9,10
1264,67,14,9,10
1265,67,14,9,10
1266,67,14,9,10
1267,67,14,9,10
1268,67,13,10,10
1269,67,13,10,10
1270,67,13,10,10
1271,67,13,10,10
1272,67,13,9,11
1273,67,13,9,11
1274,67,13,9,11
1275,67,13,9,11
1276,66,14,9,11
1277,66,14,9,11
1278,66,14,9,11
1279,66,14,9,11
1280,66,14,9,11
1281,66,14,8,12
1282,66,14,8,12
1283,66,14,7,13
1284,66,14,7,13
1285,66,14,7,13
1286,66,14,6,14
1287,66,13,6,15
1288,65,14,6,15
1289,65,13,7,15
1290,65,13,7,15
1291,65,13,6,16
1292,65,13,6,16
1293,65,12,7,16
1294,65,12,7,16
1295,65,10,9,16
1296,65,10,9,16
1297,65,10,9,16
1298,64,11,9,16
1299,64,11,8,17
1300,64,11,8,17
1301,64,11,8,17
1302,64,11,8,17
1303,64,11,8,17
1304,64,11,8,17
1305,63,12,8,17
1306,62,13,8,17
1307,62,13,8,17
1308,62,13,8,17
1309,62,13,8,17
1310,62,13,8,17
1311,61,14,8,17
1312,61,14,8,17
1313,61,14,8,17
1314,61,14,8,17
1315,61,14,8,17
1316,61,14,8,17
1317,61,14,8,17
1318,60,15,8,17
1319,60,15,8,17
1320,60,15,8,17
1321,60,15,6,19
1322,60,15,6,19
1323,60,15,6,19
1324,60,15,6,19
1325,60,15,6,19
1326,60,15,6,19
1327,60,15,6,19
1328,60,15,6,19
1329,60,15,6,19
1330,60,15,6,19
1331,60,15,6,19
1332,60,15,6,19
1333,60,15,6,19
1334,60,15,6,19
1335,60,15,6,19
1336,59,16,6,19
1337,59,15,7,19
1338,59,15,7,19
1339,59,15,7,19
1340,59,15,7,19
1341,59,15,7,19
1342,59,15,7,19
1343,59,15,7,19
1344,59,15,7,19
1345,59,15,7,19
1346,59,15,7,19
1347,59,15,7,19
1348,59,15,7,19
1349,59,15,7,19
1350,59,15,7,19
1351,59,15,7,19
1352,59,15,7,19
1353,59,15,7,19
1354,59,15,7,19
1355,59,15,7,19
1356,59,15,7,19
1357,59,15,7,19
1358,59,15,7,19
1359,59,15,7,19
1360,59,15,7,19
1361,59,15,7,19
1362,59,15,7,19
1363,59,15,7,19
1364,59,15,7,19
1365,59,15,7,19
1366,59,15,7,19
1367,59,15,7,19
1368,58,16,7,19
1369,58,16,7,19
1370,58,16,7,19
1371,58,16,7,19
1372,57,17,7,19
1373,57,17,7,19
1374,57,17,7,19
1375,57,17,7,19
1376,57,17,7,19
1377,57,17,7,19
1378,57,17,7,19
1379,57,17,7,19
1380,57,17,7,19
1381,56,18,7,19
1382,56,18,7,19
1383,56,18,7,19
1384,56,18,7,19
1385,56,18,7,19
1386,56,17,8,19
1387,56,17,8,19
1388,56,17,8,19
1389,56,17,8,19
1390,56,17,8,19
1391,56,17,8,19
1392,56,17,8,19
1393,56,17,8,19
1394,56,16,9,19
1395,56,16,9,19
1396,55,17,9,19
1397,55,17,9,19
1398,55,17,9,19
1399,55,17,9,19
1400,55,17,9,19
1401,55,16,10,19
1402,55,16,10,19
1403,55,16,10,19
1404,55,16,10,19
1405,55,16,10,19
1406,55,16,10,19
1407,55,16,10,19
1408,55,16,10,19
1409,55,16,10,19
1410,55,16,10,19
1411,55,16,10,19
1412,55,16,10,19
1413,55,16,10,19
1414,54,17,10,19
1415,54,17,10,19
1416,54,16,11,19
1417,54,16,11,19
1418,54,16,11,19
1419,54,16,11,19
1420,54,16,11,19
1421,54,16,11,19
1422,54,15,12,19
1423,54,15,12,19
1424,54,15,12,19
1425,54,14,13,19
1426,54,14,13,19
1427,54,14,13,19
1428,54,14,13,19
1429,54,14,13,19
1430,54,14,13,19
1431,54,14,13,19
1432,54,14,13,19
1433,54,14,13,19
1434,54,14,13,19
1435,54,14,13,19
1436,54,13,14,19
1437,54,13,14,19
1438,54,13,14,19
1439,53,14,14,19
1440,53,14,14,19
1441,53,14,14,19
1442,53,14,14,19
1443,53,14,14,19
1444,53,14,14,19
1445,53,14,14,19
1446,53,14,14,19
1447,53,14,14,19
1448,53,14,14,19
1449,53,14,14,19
1450,53,14,14,19
1451,53,14,14,19
1452,53,14,14,19
1453,53,14,14,19
1454,53,14,14,19
1455,53,14,14,19
1456,53,14,14,19
1457,53,14,14,19
1458,53,14,14,19
1459,53,14,14,19
1460,53,14,14,19
1461,53,14,14,19
1462,53,14,14,19
1463,53,14,14,19
1464,53,14,14,19
1465,53,14,14,19
1466,53,14,14,19
1467,53,14,14,19
1468,53,14,14,19
1469,53,14,13,20
1470,53,14,13,20
1471,53,14,13,20
1472,53,14,13,20
1473,53,14,13,20
1474,53,14,13,20
1475,53,14,13,20
1476,53,14,13,20
1477,53,13,14,20
1478,53,13,14,20
1479,52,14,14,20
1480,52,14,14,20
1481,52,14,14,20
1482,52,14,14,20
1483,51,15,14,20
1484,51,15,14,20
1485,50,16,14,20
1486,50,16,14,20
1487,50,16,14,20
1488,50,16,13,21
1489,50,15,14,21
1490,50,15,13,22
1491,50,15,13,22
1492,50,15,13,22
1493,50,15,13,22
1494,50,15,12,23
1495,50,15,12,23
1496,50,15,10,25
1497,49,16,10,25
1498,49,16,10,25
1499,49,15,11,25
1500,49,15,11,25
1501,49,15,11,25
1502,49,15,11,25
1503,49,15,11,25
1504,49,15,11,25
1505,49,15,11,25
1506,49,14,12,25
1507,48,14,13,25
1508,48,14,13,25
1509,48,14,13,25
1510,48,14,13,25
1511,48,14,13,25
1512,48,13,14,25
1513,48,13,14,25
1514,48,13,14,25
1515,48,13,14,25
1516,48,13,14,25
1517,47,14,14,25
1518,47,14,14,25
1519,47,13,15,25
1520,47,13,15,25
1521,47,13,15,25
1522,47,13,15,25
1523,47,13,15,25
1524,47,13,15,25
1525,47,13,15,25
1526,47,13,15,25
1527,47,13,15,25
1528,47,13,15,25
1529,47,13,15,25
1530,47,13,15,25
1531,46,14,15,25
1532,46,14,15,25
1533,45,15,15,25
1534,45,15,15,25
1535,45,15,15,25
1536,45,15,15,25
1537,45,14,16,25
1538,45,14,15,26
1539,45,14,15,26
1540,45,14,15,26
1541,44,15,15,26
1542,44,15,15,26
1543,44,15,15,26
1544,44,15,15,26
1545,44,15,15,26
1546,44,15,15,26
1547,44,15,15,26
1548,44,15,15,26
1549,44,15,15,26
1550,44,15,15,26
1551,44,15,15,26
1552,44,15,15,26
1553,44,15,15,26
1554,44,15,15,26
1555,44,15,15,26
1556,44,15,15,26
1557,44,15,15,26
1558,43,16,15,26
1559,43,16,15,26
1560,43,16,15,26
1561,43,16,15,26
1562,43,16,15,26
1563,43,16,15,26
1564,43,16,15,26
1565,43,16,15,26
1566,43,16,15,26
1567,43,16,15,26
1568,43,16,15,26
1569,43,15,16,26
1570,43,15,16,26
1571,43,15,16,26
1572,43,15,16,26
1573,43,14,17,26
1574,43,14,17,26
1575,43,14,17,26
1576,43,14,17,26
1577,43,14,17,26
1578,43,14,17,26
1579,43,14,17,26
1580,43,14,17,26
1581,43,14,17,26
1582,43,13,18,26
1583,43,13,18,26
1584,43,13,18,26
1585,43,13,18,26
1586,43,13,18,26
1587,43,13,17,27
1588,43,13,17,27
1589,43,13,17,27
1590,43,13,17,27
1591,43,13,17,27
1592,43,13,17,27
1593,43,13,17,27
1594,43,13,17,27
1595,42,14,16,28
1596,42,14,16,28
1597,42,13,17,28
1598,42,13,17,28
1599,42,13,17,28
1600,42,13,17,28
1601,42,13,17,28
1602,42,13,16,29
1603,41,14,16,29
1604,41,14,16,29
1605,41,14,16,29
1606,41,14,16,29
1607,41,14,16,29
1608,41,14,16,29
1609,41,14,16,29
1610,41,14,16,29
1611,41,14,16,29
1612,41,14,16,29
1613,40,15,16,29
1614,40,15,16,29
1615,40,14,17,29
1616,40,14,17,29
1617,40,14,16,30
1618,40,14,16,30
1619,40,14,16,30
1620,40,14,16,30
1621,40,14,16,30
1622,40,14,16,30
1623,40,14,15,31
1624,40,14,15,31
1625,40,14,15,31
1626,40,14,14,32
1627,40,14,14,32
1628,40,14,14,32
1629,40,14,14,32
1630,40,14,14,32
1631,40,14,14,32
1632,40,14,14,32
1633,40,14,14,32
1634,40,14,14,32
1635,40,14,14,32
1636,40,14,14,32
1637,40,14,13,33
1638,40,14,13,33
1639,40,14,13,33
1640,40,13,14,33
1641,40,13,14,33
1642,40,13,14,33
1643,40,13,14,33
1644,40,13,14,33
1645,40,13,14,33
1646,40,13,14,33
1647,40,13,14,33
1648,40,13,14,33
1649,40,13,14,33
1650,40,13,14,33
1651,40,13,14,33
1652,40,13,14,33
1653,40,13,14,33
1654,40,13,14,33
1655,40,13,14,33
1656,40,13,14,33
1657,40,13,14,33
1658,40,13,14,33
1659,40,13,14,33
1660,40,13,14,33
1661,40,13,14,33
1662,40,13,14,33
1663,40,13,14,33
1664,40,13,14,33
1665,40,13,14,33
1666,40,13,14,33
1667,40,13,14,33
1668,40,13,14,33
1669,40,13,14,33
1670,40,13,14,33
1671,40,13,14,33
1672,40,13,14,33
1673,40,13,14,33
1674,40,13,14,33
1675,40,13,14,33
1676,40,13,14,33
1677,40,13,14,33
1678,40,13,13,34
1679,40,13,13,34
1680,40,12,14,34
1681,40,12,14,34
1682,40,12,14,34
1683,40,12,14,34
1684,40,11,15,34
1685,40,11,15,34
1686,40,10,16,34
1687,40,10,16,34
1688,40,10,16,34
1689,40,10,16,34
1690,40,10,15,35
1691,40,10,15,35
1692,40,10,15,35
1693,40,10,15,35
1694,40,10,15,35
1695,40,10,15,35
1696,40,10,15,35
1697,40,10,15,35
1698,40,9,16,35
1699,39,10,16,35
1700,39,10,15,36
1701,39,10,15,36
1702,39,10,15,36
1703,39,10,15,36
1704,39,10,15,36
1705,39,10,15,36
1706,39,10,15,36
1707,39,10,14,37
1708,39,9,14,38
1709,39,9,14,38
1710,38,10,14,38
1711,38,10,14,38
1712,38,10,14,38
1713,38,10,13,39
1714,38,10,13,39
1715,38,10,13,39
1716,38,10,13,39
1717,38,10,13,39
1718,38,9,14,39
1719,38,9,14,39
1720,38,9,13,40
1721,38,9,13,40
1722,38,9,13,40
1723,38,9,13,40
1724,38,9,13,40
1725,38,9,13,40
1726,38,9,13,40
1727,38,9,13,40
1728,38,9,13,40
1729,38,9,13,40
1730,38,9,13,40
1731,38,9,13,40
1732,37,9,14,40
1733,37,9,14,40
1734,37,8,15,40
1735,37,8,15,40
1736,37,8,15,40
1737,36,9,15,40
1738,36,9,14,41
1739,36,9,14,41
1740,36,9,14,41
1741,36,9,14,41
1742,36,8,15,41
1743,36,8,15,41
1744,36,8,15,41
1745,36,8,15,41
1746,36,8,15,41
1747,36,8,15,41
1748,36,8,15,41
1749,36,8,15,41
1750,36,8,15,41
1751,36,8,15,41
1752,36,8,15,41
1753,36,8,15,41
1754,36,8,15,41
1755,36,8,15,41
1756,36,8,15,41
1757,35,9,15,41
1758,35,9,15,41
1759,35,8,16,41
1760,35,8,16,41
1761,35,8,16,41
1762,35,8,16,41
1763,35,8,16,41
1764,35,8,16,41
1765,35,8,16,41
1766,35,8,16,41
1767,35,8,16,41
1768,35,8,16,41
1769,34,9,16,41
1770,34,9,15,42
1771,34,9,15,42
1772,34,9,15,42
1773,34,9,15,42
1774,34,9,14,43
1775,34,9,14,43
1776,34,9,14,43
1777,34,9,14,43
1778,34,9,14,43
1779,34,9,14,43
1780,34,9,14,43
1781,34,9,14,43
1782,34,9,14,43
1783,34,9,13,44
1784,34,9,13,44
1785,34,9,13,44
1786,34,9,13,44
1787,34,9,13,44
1788,33,10,13,44
1789,33,10,13,44
1790,33,10,13,44
1791,33,10,13,44
1792,33,10,13,44
1793,33,10,13,44
1794,33,10,13,44
1795,33,10,13,44
1796,33,9,14,44
1797,33,9,14,44
1798,33,9,13,45
1799,33,9,13,45
1800,33,9,13,45
1801,33,9,13,45
1802,33,9,13,45
1803,33,9,13,45
1804,33,8,14,45
1805,33,8,14,45
1806,33,8,14,45
1807,33,8,14,45
1808,33,8,14,45
1809,33,8,14,45
1810,33,8,14,45
1811,33,8,14,45
1812,33,8,14,45
1813,33,8,14,45
1814,33,7,15,45
1815,32,8,15,45
1816,32,8,14,46
1817,32,8,14,46
1818,32,8,14,46
1819,32,8,14,46
1820,32,8,14,46
1821,32,8,14,46
1822,32,8,14,46
1823,32,8,14,46
1824,32,8,14,46
1825,32,8,14,46
1826,32,8,14,46
1827,32,8,14,46
1828,32,8,14,46
1829,32,8,14,46
1830,32,8,14,46
1831,32,8,14,46
1832,32,8,14,46
1833,32,8,14,46
1834,32,8,14,46
1835,32,8,14,46
1836,32,8,14,46
1837,32,8,14,46
1838,32,8,14,46
1839,32,8,14,46
1840,32,8,14,46
1841,32,8,13,47
1842,32,8,13,47
1843,32,8,13,47
1844,32,8,13,47
1845,32,8,13,47
1846,32,8,13,47
1847,32,8,13,47
1848,32,8,13,47
1849,32,8,13,47
1850,32,8,13,47
1851,32,8,13,47
1852,32,8,13,47
1853,32,8,13,47
1854,32,8,13,47
1855,32,8,13,47
1856,32,8,13,47
1857,31,9,13,47
1858,31,9,13,47
1859,31,9,13,47
1860,31,9,13,47
1861,31,9,13,47
1862,31,9,13,47
1863,30,10,13,47
1864,30,10,13,47
1865,30,10,13,47
1866,30,10,13,47
1867,30,10,13,47
1868,30,10,13,47
1869,30,10,13,47
1870,30,10,13,47
1871,30,10,13,47
1872,30,10,13,47
1873,30,10,13,47
1874,30,10,13,47
1875,30,10,13,47
1876,30,10,13,47
1877,30,10,13,47
1878,30,10,13,47
1879,30,10,13,47
1880,30,10,13,47
1881,30,10,12,48
1882,30,10,12,48
1883,30,10,12,48
1884,30,10,12,48
1885,30,10,11,49
1886,30,10,11,49
1887,30,10,10,50
1888,30,10,10,50
1889,30,10,10,50
1890,30,10,10,50
1891,30,10,10,50
1892,30,10,10,50
1893,30,10,10,50
1894,30,10,10,50
1895,30,10,10,50
1896,30,10,10,50
1897,29,11,10,50
1898,29,11,10,50
1899,29,11,9,51
1900,29,10,10,51
1901,29,10,10,51
1902,29,10,10,51
1903,29,10,10,51
1904,29,10,10,51
1905,29,10,10,51
1906,29,10,10,51
1907,29,10,10,51
1908,29,10,10,51
1909,29,10,9,52
1910,29,10,9,52
1911,29,9,10,52
1912,29,9,10,52
1913,29,9,10,52
1914,29,9,10,52
1915,29,9,10,52
1916,29,9,10,52
1917,29,9,10,52
1918,29,9,10,52
1919,29,9,9,53
1920,29,9,9,53
1921,28,10,9,53
1922,28,10,9,53
1923,28,10,9,53
1924,28,10,9,53
1925,28,10,9,53
1926,28,10,9,53
1927,28,10,9,53
1928,28,10,9,53
1929,28,10,9,53
1930,27,11,9,53
1931,27,11,9,53
1932,27,11,9,53
1933,27,10,9,54
1934,27,10,9,54
1935,27,10,8,55
1936,27,10,8,55
1937,27,10,8,55
1938,27,9,9,55
1939,26,10,9,55
1940,25,11,9,55
1941,25,11,9,55
1942,25,11,9,55
1943,25,11,8,56
1944,25,11,8,56
1945,25,11,8,56
1946,25,11,8,56
1947,25,11,8,56
1948,25,11,8,56
1949,25,11,8,56
1950,25,11,8,56
1951,25,11,8,56
1952,25,11,8,56
1953,25,11,8,56
1954,25,11,8,56
1955,25,11,8,56
1956,25,11,8,56
1957,25,11,8,56
1958,25,10,9,56
1959,25,10,9,56
1960,25,10,8,57
1961,25,10,8,57
1962,25,10,8,57
1963,25,10,8,57
1964,25,10,8,57
1965,25,10,8,57
1966,25,10,8,57
1967,25,10,8,57
1968,25,10,8,57
1969,25,10,8,57
1970,25,9,9,57
1971,25,9,9,57
1972,25,9,9,57
1973,25,9,9,57
1974,25,9,9,57
1975,25,9,9,57
1976,25,9,9,57
1977,25,9,9,57
1978,25,9,9,57
1979,25,9,9,57
1980,25,9,9,57
1981,25,9,9,57
1982,25,9,9,57
1983,25,9,9,57
1984,25,9,9,57
1985,25,9,9,57
1986,25,9,9,57
1987,25,9,9,57
1988,25,9,9,57
1989,25,8,10,57
1990,25,8,10,57
1991,25,8,10,57
1992,25,8,10,57
1993,25,8,10,57
1994,25,8,10,57
1995,25,8,10,57
1996,25,8,10,57
1997,25,8,9,58
1998,25,8,9,58
1999,25,8,9,58
2000,25,8,9,58
