"tick","total"
0,0
1,0
2,0
3,0
4,0
5,0
6,0
7,0
8,0
9,0
10,0
11,0
12,0
13,0
14,0
15,0
16,0
17,0
18,0
19,0
20,0
21,0
22,0
23,0
24,0
25,0
26,0
27,0
28,0
29,0
30,0
31,0
32,0
33,0
34,0
35,0
36,0
37,0
38,0
39,0
40,0
41,0
42,0
43,0
44,0
45,0
46,0
47,0
48,0
49,0
50,0
51,0
52,0
53,0
54,0
55,0
56,0
57,0
58,0
59,0
60,0
61,0
62,0
63,0
64,0
65,0
66,0
67,0
68,0
69,0
70,0
71,0
72,0
73,0
74,0
75,0
76,0
77,0
78,0
79,0
80,0
81,0
82,0
83,0
84,0
85,0
86,0
87,0
88,0
89,0
90,0
91,0
92,0
93,0
94,0
95,0
96,0
97,0
98,0
99,0
100,0
101,0
102,0
103,0
104,0
105,0
106,0
107,0
108,0
109,0
110,0
111,0
112,0
113,0
114,0
115,0
116,0
117,0
118,0
119,0
120,0
121,0
122,0
123,0
124,0
125,0
126,0
127,0
128,0
129,0
130,0
131,0
132,0
133,0
134,0
135,0
136,0
137,0
138,0
139,0
140,0
141,0
142,0
143,0
144,0
145,0
146,0
147,0
148,0
149,0
150,0
151,0
152,0
153,0
154,0
155,0
156,0
157,0
158,0
159,0
160,0
161,0
162,0
163,0
164,0
165,0
166,0
167,0
168,0
169,2
170,3
171,4
172,4
173,4
174,4
175,4
176,4
177,4
178,4
179,4
180,4
181,4
182,4
183,4
184,4
185,4
186,4
187,5
188,5
189,6
190,6
191,6
192,6
193,6
194,6
195,7
196,7
197,7
198,7
199,7
200,7
201,8
202,8
203,8
204,8
205,8
206,8
207,8
208,8
209,8
210,8
211,8
212,8
213,8
214,9
215,10
216,10
217,10
218,10
219,10
220,11
221,12
222,12
223,12
224,12
225,12
226,12
227,13
228,14
229,15
230,16
231,16
232,16
233,16
234,17
235,17
236,17
237,17
238,17
239,17
240,17
241,17
242,17
243,17
244,17
245,18
246,18
247,19
248,19
249,19
250,19
251,19
252,20
253,20
254,20
255,20
256,20
257,20
258,21
259,21
260,21
261,21
262,21
263,21
264,21
265,22
266,23
267,23
268,23
269,23
270,23
271,23
272,24
273,24
274,24
275,24
276,24
277,25
278,25
279,25
280,25
281,26
282,26
283,26
284,26
285,26
286,26
287,26
288,26
289,26
290,26
291,26
292,27
293,27
294,27
295,27
296,27
297,27
298,27
299,27
300,27
301,27
302,27
303,27
304,27
305,27
306,27
307,27
308,27
309,27
310,27
311,28
312,28
313,28
314,28
315,28
316,28
317,28
318,28
319,28
320,28
321,28
322,28
323,28
324,28
325,28
326,28
327,28
328,28
329,28
330,28
331,28
332,28
333,28
334,28
335,28
336,28
337,28
338,28
339,28
340,28
341,28
342,28
343,28
344,28
345,28
346,28
347,28
348,28
349,28
350,28
351,28
352,28
353,28
354,28
355,28
356,28
357,28
358,28
359,28
360,28
361,28
362,28
363,28
364,28
365,28
366,28
367,28
368,28
369,28
370,28
371,28
372,28
373,28
374,28
375,28
376,28
377,28
378,28
379,28
380,28
381,28
382,28
383,28
384,28
385,28
386,28
387,28
388,28
389,28
390,28
391,28
392,28
393,28
394,28
395,28
396,28
397,28
398,28
399,28
400,28
401,28
402,28
403,28
404,28
405,28
406,28
407,28
408,29
409,29
410,29
411,29
412,29
413,29
414,30
415,30
416,30
417,30
418,30
419,30
420,30
421,30
422,30
423,30
424,30
425,30
426,30
427,30
428,30
429,30
430,30
431,30
432,31
433,31
434,31
435,31
436,31
437,31
438,31
439,31
440,31
441,32
442,32
443,32
444,32
445,32
446,32
447,32
448,32
449,32
450,32
451,32
452,32
453,32
454,32
455,32
456,32
457,32
458,33
459,33
460,33
461,33
462,33
463,33
464,33
465,33
466,33
467,33
468,33
469,33
470,33
471,33
472,33
473,34
474,35
475,36
476,36
477,36
478,36
479,36
480,36
481,36
482,36
483,37
484,37
485,37
486,37
487,37
488,37
489,37
490,37
491,37
492,38
493,38
494,38
495,38
496,38
497,38
498,38
499,38
500,38
501,38
502,39
503,39
504,39
505,39
506,39
507,39
508,39
509,39
510,39
511,39
512,39
513,39
514,39
515,39
516,39
517,39
518,39
519,39
520,39
521,39
522,39
523,39
524,39
525,39
526,39
527,39
528,39
529,39
530,39
531,39
532,39
533,39
534,39
535,39
536,39
537,39
538,40
539,40
540,40
541,40
542,40
543,40
544,40
545,40
546,40
547,40
548,40
549,40
550,40
551,40
552,40
553,40
554,40
555,41
556,41
557,41
558,41
559,41
560,42
561,42
562,42
563,42
564,42
565,42
566,42
567,42
568,42
569,42
570,42
571,42
572,42
573,42
574,42
575,42
576,42
577,42
578,42
579,42
580,42
581,42
582,43
583,43
584,43
585,43
586,43
587,43
588,43
589,43
590,43
591,43
592,43
593,43
594,43
595,43
596,43
597,43
598,43
599,43
600,43
601,43
602,43
603,43
604,43
605,43
606,43
607,43
608,43
609,43
610,44
611,44
612,44
613,44
614,44
615,44
616,44
617,44
618,45
619,45
620,45
621,45
622,45
623,45
624,45
625,45
626,45
627,45
628,45
629,45
630,45
631,45
632,45
633,45
634,45
635,45
636,45
637,45
638,45
639,45
640,45
641,45
642,45
643,46
644,46
645,46
646,46
647,46
648,46
649,46
650,46
651,46
652,46
653,46
654,46
655,46
656,46
657,46
658,46
659,46
660,46
661,46
662,46
663,46
664,46
665,46
666,46
667,46
668,46
669,46
670,46
671,46
672,46
673,47
674,47
675,47
676,47
677,47
678,47
679,47
680,47
681,48
682,48
683,48
684,48
685,48
686,48
687,49
688,49
689,49
690,49
691,49
692,49
693,49
694,49
695,49
696,49
697,49
698,49
699,49
700,49
701,49
702,49
703,49
704,49
705,49
706,49
707,50
708,50
709,50
710,50
711,50
712,51
713,51
714,52
715,52
716,52
717,53
718,53
719,53
720,53
721,53
722,53
723,54
724,54
725,54
726,54
727,54
728,54
729,54
730,54
731,54
732,55
733,55
734,55
735,55
736,55
737,55
738,55
739,55
740,55
741,55
742,55
743,56
744,56
745,56
746,56
747,56
748,56
749,56
750,58
751,58
752,58
753,58
754,58
755,58
756,58
757,58
758,58
759,59
760,59
761,59
762,59
763,59
764,59
765,59
766,60
767,60
768,60
769,61
770,61
771,61
772,61
773,61
774,61
775,61
776,61
777,61
778,61
779,61
780,61
781,62
782,62
783,62
784,62
785,62
786,62
787,62
788,62
789,62
790,62
791,62
792,62
793,62
794,62
795,62
796,62
797,62
798,62
799,62
800,62
801,62
802,62
803,62
804,62
805,62
806,62
807,62
808,62
809,62
810,62
811,62
812,62
813,62
814,62
815,62
816,62
817,63
818,63
819,63
820,63
821,63
822,63
823,63
824,63
825,63
826,63
827,63
828,63
829,63
830,63
831,63
832,63
833,63
834,63
835,63
836,63
837,64
838,64
839,64
840,64
841,64
842,65
843,65
844,65
845,65
846,65
847,66
848,66
849,66
850,66
851,66
852,66
853,66
854,66
855,66
856,67
857,68
858,68
859,68
860,68
861,68
862,68
863,68
864,68
865,68
866,68
867,68
868,68
869,68
870,68
871,68
872,68
873,68
874,68
875,68
876,68
877,68
878,68
879,68
880,68
881,68
882,68
883,68
884,68
885,68
886,68
887,68
888,68
889,68
890,68
891,68
892,68
893,68
894,69
895,69
896,69
897,69
898,69
899,69
900,69
901,69
902,69
903,69
904,69
905,69
906,69
907,69
908,69
909,69
910,69
911,70
912,70
913,70
914,70
915,71
916,71
917,71
918,71
919,71
920,71
921,71
922,71
923,71
924,71
925,72
926,72
927,72
928,72
929,72
930,73
931,73
932,73
933,73
934,73
935,73
936,73
937,73
938,73
939,73
940,74
941,74
942,74
943,74
944,74
945,74
946,74
947,74
948,74
949,74
950,74
951,74
952,74
953,74
954,74
955,74
956,74
957,74
958,74
959,74
960,74
961,74
962,74
963,74
964,74
965,74
966,74
967,74
968,74
969,74
970,74
971,74
972,74
973,74
974,74
975,74
976,74
977,74
978,74
979,74
980,74
981,74
982,74
983,74
984,74
985,74
986,74
987,74
988,74
989,74
990,74
991,74
992,74
993,74
994,75
995,75
996,75
997,75
998,75
999,75
1000,75
1001,75
1002,75
1003,75
1004,75
1005,75
1006,75
1007,75
1008,75
1009,75
1010,75
1011,75
1012,75
1013,76
1014,76
1015,76
1016,76
1017,76
1018,76
1019,76
1020,76
1021,76
1022,76
1023,76
1024,76
1025,76
1026,76
1027,76
1028,76
1029,76
1030,76
1031,77
1032,77
1033,77
1034,77
1035,77
1036,77
1037,78
1038,78
1039,78
1040,78
1041,78
1042,78
1043,78
1044,79
1045,79
1046,79
1047,79
1048,79
1049,79
1050,79
1051,79
1052,80
1053,80
1054,80
1055,80
1056,80
1057,80
1058,81
1059,81
1060,81
1061,81
1062,81
1063,81
1064,81
1065,81
1066,81
1067,81
1068,82
1069,82
1070,82
1071,82
1072,82
1073,82
1074,82
1075,83
1076,83
1077,84
1078,84
1079,84
1080,84
1081,84
1082,84
1083,84
1084,84
1085,84
1086,84
1087,84
1088,84
1089,84
1090,84
1091,84
1092,84
1093,84
1094,84
1095,84
1096,85
1097,85
1098,85
1099,86
1100,86
1101,86
1102,86
1103,86
1104,86
1105,86
1106,86
1107,86
1108,86
1109,86
1110,86
1111,86
1112,86
1113,86
1114,86
1115,87
1116,87
1117,87
1118,88
1119,88
1120,88
1121,88
1122,89
1123,89
1124,89
1125,89
1126,89
1127,89
1128,89
1129,89
1130,89
1131,89
1132,89
1133,89
1134,89
1135,89
1136,89
1137,89
1138,89
1139,89
1140,89
1141,89
1142,89
1143,89
1144,89
1145,89
1146,89
1147,89
1148,89
1149,89
1150,89
1151,89
1152,89
1153,89
1154,90
1155,90
1156,90
1157,90
1158,90
1159,90
1160,91
1161,91
1162,91
1163,92
1164,92
1165,92
1166,92
1167,92
1168,92
1169,93
1170,93
1171,94
1172,94
1173,95
1174,95
1175,95
1176,95
1177,95
1178,95
1179,95
1180,95
1181,95
1182,95
1183,95
1184,95
1185,95
1186,95
1187,95
1188,95
1189,95
1190,95
1191,95
1192,95
1193,95
1194,95
1195,95
1196,95
1197,95
1198,95
1199,95
1200,95
1201,95
1202,95
1203,95
1204,95
1205,95
1206,95
1207,95
1208,95
1209,95
1210,95
1211,95
1212,95
1213,95
1214,95
1215,95
1216,95
1217,95
1218,95
1219,95
1220,95
1221,95
1222,95
1223,95
1224,95
1225,95
1226,95
1227,95
1228,96
1229,96
1230,97
1231,98
1232,98
1233,99
1234,99
1235,99
1236,99
1237,99
1238,99
1239,99
1240,99
1241,99
1242,99
1243,99
1244,99
1245,100
1246,100
1247,100
1248,100
1249,100
1250,100
1251,100
1252,100
1253,100
1254,100
1255,100
1256,100
1257,100
1258,100
1259,100
1260,100
1261,100
1262,100
1263,100
1264,100
1265,100
1266,100
1267,100
1268,100
1269,100
1270,100
1271,100
1272,100
1273,100
1274,100
1275,100
1276,100
1277,100
1278,100
1279,100
1280,100
1281,100
1282,100
1283,100
1284,100
1285,100
1286,100
1287,100
1288,100
1289,100
1290,100
1291,100
1292,100
1293,100
1294,100
1295,100
1296,100
1297,100
1298,100
1299,100
1300,100
1301,100
1302,100
1303,100
1304,100
1305,100
1306,100
1307,100
1308,100
1309,100
1310,100
1311,100
1312,100
1313,100
1314,100
1315,101
1316,101
1317,101
1318,101
1319,101
1320,101
1321,101
1322,101
1323,101
1324,101
1325,101
1326,101
1327,101
1328,101
1329,101
1330,101
1331,101
1332,101
1333,101
1334,101
1335,101
1336,102
1337,102
1338,102
1339,102
1340,102
1341,102
1342,102
1343,102
1344,102
1345,102
1346,102
1347,102
1348,102
1349,102
1350,102
1351,102
1352,103
1353,103
1354,103
1355,103
1356,103
1357,103
1358,103
1359,103
1360,103
1361,103
1362,103
1363,103
1364,104
1365,105
1366,105
1367,105
1368,105
1369,105
1370,105
1371,105
1372,106
1373,106
1374,106
1375,107
1376,107
1377,107
1378,107
1379,107
1380,107
1381,108
1382,108
1383,108
1384,108
1385,109
1386,109
1387,109
1388,109
1389,109
1390,109
1391,109
1392,109
1393,109
1394,109
1395,109
1396,109
1397,110
1398,110
1399,111
1400,111
1401,111
1402,111
1403,111
1404,111
1405,111
1406,112
1407,112
1408,112
1409,112
1410,112
1411,112
1412,113
1413,113
1414,114
1415,114
1416,115
1417,115
1418,115
1419,115
1420,115
1421,115
1422,115
1423,116
1424,116
1425,116
1426,116
1427,116
1428,116
1429,116
1430,116
1431,116
1432,116
1433,116
1434,116
1435,116
1436,116
1437,116
1438,116
1439,116
1440,117
1441,117
1442,117
1443,117
1444,117
1445,117
1446,117
1447,117
1448,117
1449,117
1450,117
1451,117
1452,117
1453,117
1454,117
1455,117
1456,117
1457,117
1458,117
1459,117
1460,117
1461,117
1462,117
1463,117
1464,117
1465,117
1466,117
1467,117
1468,117
1469,117
1470,117
1471,117
1472,117
1473,117
1474,117
1475,117
1476,117
1477,117
1478,117
1479,117
1480,117
1481,117
1482,118
1483,118
1484,118
1485,119
1486,119
1487,119
1488,119
1489,119
1490,119
1491,119
1492,119
1493,119
1494,119
1495,119
1496,119
1497,120
1498,120
1499,120
1500,120
1501,120
1502,120
1503,120
1504,120
1505,120
1506,120
1507,120
1508,120
1509,120
1510,120
1511,121
1512,121
1513,121
1514,121
1515,121
1516,121
1517,121
1518,121
1519,121
1520,121
1521,121
1522,121
1523,121
1524,121
1525,121
1526,121
1527,121
1528,121
1529,121
1530,121
1531,121
1532,121
1533,121
1534,121
1535,121
1536,121
1537,121
1538,121
1539,121
1540,121
1541,121
1542,121
1543,121
1544,121
1545,121
1546,121
1547,121
1548,121
1549,121
1550,121
1551,121
1552,121
1553,121
1554,121
1555,121
1556,121
1557,121
1558,121
1559,121
1560,122
1561,122
1562,122
1563,122
1564,122
1565,122
1566,122
1567,122
1568,122
1569,122
1570,122
1571,122
1572,122
1573,122
1574,122
1575,122
1576,123
1577,123
1578,123
1579,123
1580,123
1581,123
1582,123
1583,123
1584,123
1585,123
1586,123
1587,123
1588,123
1589,123
1590,123
1591,123
1592,123
1593,123
1594,123
1595,123
1596,123
1597,123
1598,123
1599,123
1600,123
1601,123
1602,123
1603,123
1604,123
1605,123
1606,123
1607,123
1608,123
1609,123
1610,123
1611,123
1612,123
1613,123
1614,123
1615,123
1616,123
1617,123
1618,123
1619,123
1620,123
1621,123
1622,123
1623,123
1624,123
1625,123
1626,123
1627,123
1628,123
1629,123
1630,123
1631,123
1632,123
1633,123
1634,123
1635,123
1636,123
1637,123
1638,123
1639,123
1640,123
1641,123
1642,123
1643,123
1644,123
1645,123
1646,123
1647,123
1648,123
1649,123
1650,123
1651,123
1652,123
1653,123
1654,123
1655,123
1656,124
1657,124
1658,124
1659,124
1660,124
1661,124
1662,124
1663,124
1664,124
1665,124
1666,124
1667,124
1668,124
1669,124
1670,124
1671,124
1672,124
1673,124
1674,124
1675,124
1676,124
1677,124
1678,124
1679,124
1680,125
1681,125
1682,125
1683,125
1684,125
1685,126
1686,126
1687,126
1688,126
1689,126
1690,126
1691,126
1692,126
1693,126
1694,126
1695,126
1696,126
1697,126
1698,126
1699,126
1700,126
1701,126
1702,126
1703,126
1704,126
1705,126
1706,126
1707,126
1708,126
1709,126
1710,126
1711,126
1712,126
1713,127
1714,127
1715,127
1716,127
1717,127
1718,127
1719,127
1720,127
1721,127
1722,127
1723,127
1724,127
1725,127
1726,127
1727,127
1728,127
1729,127
1730,127
1731,127
1732,127
1733,127
1734,127
1735,127
1736,127
1737,127
1738,127
1739,127
1740,127
1741,127
1742,127
1743,127
1744,127
1745,128
1746,128
1747,128
1748,128
1749,128
1750,128
1751,128
1752,128
1753,128
1754,128
1755,128
1756,128
1757,128
1758,128
1759,128
1760,128
1761,128
1762,128
1763,128
1764,128
1765,128
1766,128
1767,128
1768,128
1769,128
1770,128
1771,128
1772,128
1773,128
1774,128
1775,128
1776,128
1777,128
1778,128
1779,128
1780,128
1781,128
1782,128
1783,128
1784,128
1785,128
1786,128
1787,128
1788,128
1789,128
1790,128
1791,128
1792,128
1793,128
1794,128
1795,128
1796,128
1797,128
1798,128
1799,128
1800,128
1801,128
1802,128
1803,128
1804,128
1805,128
1806,128
1807,128
1808,128
1809,128
1810,128
1811,128
1812,128
1813,128
1814,128
1815,128
1816,128
1817,128
1818,128
1819,128
1820,128
1821,128
1822,128
1823,128
1824,128
1825,128
1826,128
1827,128
1828,128
1829,128
1830,129
1831,129
1832,129
1833,129
1834,129
1835,129
1836,129
1837,129
1838,129
1839,129
1840,129
1841,129
1842,129
1843,129
1844,129
1845,129
1846,129
1847,129
1848,129
1849,129
1850,129
1851,129
1852,129
1853,129
1854,129
1855,129
1856,129
1857,129
1858,129
1859,129
1860,129
1861,129
1862,129
1863,129
1864,129
1865,129
1866,129
1867,129
1868,129
1869,129
1870,129
1871,129
1872,129
1873,129
1874,129
1875,129
1876,129
1877,129
1878,129
1879,129
1880,129
1881,129
1882,129
1883,129
1884,129
1885,129
1886,129
1887,129
1888,129
1889,129
1890,129
1891,129
1892,129
1893,129
1894,129
1895,129
1896,129
1897,129
1898,129
1899,129
1900,130
1901,130
1902,130
1903,131
1904,131
1905,131
1906,131
1907,131
1908,131
1909,131
1910,131
1911,131
1912,131
1913,131
1914,131
1915,131
1916,131
1917,131
1918,131
1919,132
1920,132
1921,133
1922,133
1923,133
1924,133
1925,133
1926,133
1927,133
1928,133
1929,133
1930,133
1931,133
1932,133
1933,133
1934,133
1935,133
1936,134
1937,134
1938,134
1939,134
1940,134
1941,134
1942,134
1943,134
1944,134
1945,134
1946,134
1947,135
1948,135
1949,135
1950,135
1951,135
1952,135
1953,135
1954,135
1955,135
1956,135
1957,135
1958,135
1959,135
1960,135
1961,135
1962,135
1963,135
1964,135
1965,135
1966,135
1967,135
1968,135
1969,135
1970,135
1971,135
1972,135
1973,135
1974,135
1975,135
1976,135
1977,135
1978,135
1979,135
1980,135
1981,135
1982,135
1983,135
1984,135
1985,135
1986,135
1987,135
1988,135
1989,135
1990,135
1991,135
1992,135
1993,135
1994,135
1995,135
1996,135
1997,135
1998,135
1999,135
2000,135
