"tick","total"
0,0
1,0
2,0
3,0
4,0
5,0
6,0
7,0
8,0
9,0
10,0
11,0
12,0
13,0
14,0
15,0
16,0
17,0
18,0
19,0
20,0
21,0
22,0
23,0
24,0
25,0
26,0
27,0
28,0
29,0
30,0
31,0
32,0
33,0
34,0
35,0
36,0
37,0
38,0
39,0
40,0
41,0
42,0
43,0
44,0
45,0
46,0
47,0
48,0
49,0
50,0
51,0
52,0
53,0
54,0
55,0
56,0
57,0
58,0
59,0
60,0
61,0
62,0
63,0
64,0
65,0
66,0
67,0
68,0
69,0
70,0
71,0
72,0
73,0
74,0
75,0
76,0
77,0
78,0
79,0
80,0
81,0
82,0
83,0
84,0
85,0
86,0
87,0
88,0
89,0
90,0
91,0
92,0
93,0
94,0
95,0
96,0
97,0
98,0
99,0
100,0
101,0
102,0
103,0
104,0
105,0
106,0
107,0
108,0
109,0
110,0
111,0
112,0
113,0
114,0
115,0
116,0
117,0
118,0
119,0
120,0
121,0
122,0
123,0
124,0
125,0
126,0
127,0
128,0
129,0
130,0
131,0
132,0
133,0
134,0
135,0
136,0
137,0
138,0
139,0
140,0
141,0
142,0
143,0
144,0
145,0
146,0
147,0
148,0
149,0
150,0
151,0
152,0
153,0
154,0
155,0
156,0
157,0
158,0
159,0
160,0
161,0
162,0
163,0
164,0
165,0
166,0
167,0
168,0
169,0
170,0
171,0
172,0
173,0
174,0
175,0
176,0
177,0
178,0
179,0
180,0
181,0
182,0
183,0
184,0
185,0
186,0
187,0
188,0
189,0
190,0
191,0
192,0
193,0
194,0
195,0
196,0
197,0
198,0
199,0
200,0
201,0
202,0
203,0
204,0
205,0
206,0
207,0
208,0
209,0
210,0
211,0
212,0
213,0
214,0
215,0
216,0
217,0
218,0
219,0
220,0
221,0
222,0
223,0
224,1
225,1
226,1
227,1
228,1
229,1
230,1
231,1
232,1
233,1
234,1
235,1
236,1
237,1
238,1
239,1
240,2
241,3
242,3
243,4
244,5
245,6
246,6
247,6
248,6
249,6
250,7
251,8
252,8
253,8
254,9
255,9
256,9
257,9
258,9
259,9
260,9
261,9
262,9
263,9
264,9
265,9
266,9
267,9
268,9
269,9
270,10
271,10
272,10
273,10
274,11
275,11
276,11
277,11
278,11
279,11
280,11
281,11
282,11
283,11
284,12
285,12
286,12
287,12
288,12
289,12
290,13
291,13
292,13
293,13
294,13
295,13
296,13
297,13
298,13
299,13
300,13
301,13
302,14
303,14
304,14
305,14
306,14
307,14
308,14
309,14
310,15
311,15
312,15
313,15
314,16
315,16
316,16
317,17
318,17
319,17
320,17
321,18
322,18
323,18
324,18
325,18
326,18
327,18
328,18
329,18
330,18
331,18
332,18
333,18
334,18
335,18
336,19
337,19
338,19
339,19
340,19
341,19
342,19
343,19
344,19
345,19
346,19
347,19
348,19
349,19
350,19
351,19
352,19
353,19
354,19
355,19
356,19
357,19
358,19
359,20
360,20
361,20
362,20
363,20
364,20
365,20
366,20
367,20
368,20
369,20
370,20
371,20
372,20
373,20
374,20
375,20
376,20
377,20
378,20
379,20
380,20
381,21
382,21
383,21
384,23
385,23
386,23
387,23
388,23
389,23
390,23
391,23
392,23
393,24
394,24
395,24
396,24
397,24
398,24
399,24
400,24
401,24
402,24
403,24
404,24
405,24
406,24
407,25
408,25
409,25
410,25
411,25
412,25
413,25
414,25
415,25
416,25
417,25
418,25
419,25
420,25
421,25
422,25
423,25
424,25
425,25
426,25
427,25
428,25
429,25
430,26
431,26
432,26
433,26
434,26
435,26
436,26
437,26
438,26
439,26
440,26
441,26
442,27
443,27
444,27
445,27
446,27
447,27
448,27
449,27
450,27
451,27
452,27
453,27
454,27
455,27
456,27
457,27
458,27
459,27
460,27
461,27
462,27
463,27
464,27
465,27
466,27
467,27
468,27
469,27
470,27
471,27
472,27
473,27
474,27
475,27
476,27
477,27
478,27
479,27
480,27
481,27
482,27
483,27
484,27
485,27
486,27
487,27
488,27
489,27
490,27
491,27
492,27
493,27
494,27
495,27
496,27
497,27
498,27
499,27
500,27
501,27
502,27
503,27
504,28
505,28
506,28
507,28
508,28
509,28
510,28
511,28
512,28
513,28
514,28
515,28
516,28
517,28
518,28
519,28
520,28
521,28
522,28
523,28
524,28
525,28
526,28
527,28
528,28
529,28
530,28
531,28
532,28
533,28
534,28
535,28
536,28
537,28
538,28
539,28
540,28
541,28
542,28
543,28
544,28
545,28
546,28
547,28
548,28
549,28
550,28
551,28
552,28
553,28
554,28
555,28
556,28
557,28
558,28
559,28
560,28
561,28
562,28
563,28
564,28
565,28
566,28
567,28
568,28
569,28
570,28
571,28
572,28
573,28
574,28
575,28
576,28
577,28
578,28
579,29
580,29
581,29
582,29
583,29
584,29
585,29
586,29
587,29
588,29
589,29
590,30
591,30
592,30
593,30
594,30
595,30
596,30
597,30
598,30
599,30
600,30
601,30
602,30
603,30
604,30
605,30
606,30
607,30
608,30
609,30
610,30
611,30
612,31
613,31
614,31
615,31
616,31
617,31
618,31
619,31
620,33
621,33
622,33
623,33
624,33
625,33
626,33
627,33
628,33
629,33
630,33
631,33
632,33
633,33
634,33
635,34
636,34
637,34
638,34
639,34
640,34
641,34
642,35
643,35
644,35
645,35
646,36
647,36
648,36
649,36
650,36
651,36
652,36
653,36
654,36
655,37
656,37
657,37
658,37
659,37
660,37
661,37
662,37
663,37
664,37
665,37
666,38
667,38
668,39
669,39
670,39
671,39
672,39
673,39
674,39
675,39
676,39
677,39
678,39
679,39
680,39
681,39
682,39
683,40
684,40
685,40
686,40
687,40
688,40
689,40
690,41
691,42
692,42
693,42
694,42
695,42
696,42
697,42
698,42
699,42
700,42
701,42
702,42
703,42
704,42
705,42
706,42
707,42
708,42
709,42
710,42
711,42
712,43
713,43
714,43
715,43
716,43
717,43
718,43
719,43
720,44
721,44
722,44
723,44
724,44
725,44
726,44
727,44
728,44
729,44
730,44
731,44
732,44
733,44
734,44
735,44
736,44
737,44
738,44
739,44
740,44
741,44
742,44
743,44
744,44
745,44
746,44
747,44
748,44
749,44
750,44
751,44
752,44
753,44
754,44
755,44
756,44
757,44
758,44
759,44
760,44
761,44
762,44
763,44
764,44
765,44
766,44
767,44
768,44
769,44
770,44
771,44
772,44
773,44
774,44
775,44
776,44
777,44
778,44
779,44
780,44
781,44
782,44
783,44
784,44
785,44
786,44
787,44
788,44
789,44
790,44
791,44
792,44
793,44
794,44
795,44
796,44
797,44
798,44
799,44
800,44
801,44
802,44
803,44
804,44
805,44
806,44
807,44
808,44
809,44
810,44
811,44
812,44
813,44
814,44
815,44
816,44
817,44
818,44
819,45
820,45
821,45
822,45
823,45
824,46
825,46
826,46
827,46
828,46
829,46
830,46
831,46
832,46
833,46
834,46
835,46
836,47
837,47
838,47
839,47
840,47
841,47
842,47
843,47
844,47
845,47
846,47
847,47
848,47
849,47
850,47
851,47
852,47
853,47
854,47
855,47
856,47
857,47
858,47
859,47
860,47
861,47
862,47
863,47
864,47
865,47
866,47
867,47
868,47
869,47
870,47
871,47
872,47
873,47
874,47
875,47
876,47
877,47
878,47
879,47
880,48
881,48
882,48
883,48
884,48
885,48
886,48
887,48
888,48
889,48
890,48
891,48
892,48
893,48
894,48
895,48
896,48
897,48
898,48
899,48
900,48
901,48
902,48
903,48
904,48
905,48
906,48
907,48
908,48
909,48
910,48
911,48
912,48
913,48
914,48
915,48
916,48
917,48
918,48
919,48
920,48
921,48
922,48
923,48
924,48
925,48
926,48
927,48
928,48
929,48
930,48
931,48
932,48
933,48
934,48
935,48
936,48
937,48
938,48
939,48
940,48
941,48
942,48
943,48
944,48
945,48
946,48
947,48
948,48
949,48
950,48
951,48
952,48
953,48
954,48
955,48
956,48
957,48
958,48
959,48
960,49
961,49
962,49
963,49
964,49
965,49
966,49
967,49
968,49
969,49
970,49
971,49
972,49
973,49
974,49
975,49
976,49
977,49
978,49
979,49
980,49
981,49
982,49
983,49
984,49
985,49
986,49
987,49
988,49
989,49
990,49
991,49
992,49
993,49
994,49
995,49
996,49
997,49
998,49
999,49
1000,49
1001,49
1002,49
1003,49
1004,49
1005,49
1006,49
1007,49
1008,49
1009,49
1010,49
1011,49
1012,49
1013,49
1014,49
1015,49
1016,50
1017,50
1018,50
1019,50
1020,50
1021,50
1022,50
1023,51
1024,51
1025,51
1026,51
1027,52
1028,52
1029,52
1030,52
1031,52
1032,53
1033,53
1034,53
1035,53
1036,53
1037,53
1038,53
1039,53
1040,53
1041,53
1042,53
1043,53
1044,53
1045,53
1046,53
1047,53
1048,53
1049,53
1050,53
1051,54
1052,54
1053,54
1054,54
1055,54
1056,54
1057,54
1058,54
1059,54
1060,54
1061,54
1062,54
1063,54
1064,54
1065,54
1066,54
1067,54
1068,54
1069,54
1070,54
1071,54
1072,54
1073,54
1074,54
1075,54
1076,54
1077,54
1078,54
1079,54
1080,54
1081,54
1082,54
1083,54
1084,54
1085,54
1086,54
1087,54
1088,54
1089,54
1090,54
1091,55
1092,55
1093,55
1094,55
1095,55
1096,55
1097,55
1098,55
1099,55
1100,55
1101,55
1102,55
1103,55
1104,55
1105,55
1106,55
1107,55
1108,55
1109,55
1110,55
1111,55
1112,55
1113,55
1114,55
1115,55
1116,55
1117,55
1118,55
1119,55
1120,55
1121,55
1122,55
1123,55
1124,55
1125,55
1126,55
1127,55
1128,55
1129,55
1130,55
1131,55
1132,55
1133,55
1134,56
1135,56
1136,56
1137,56
1138,56
1139,56
1140,56
1141,56
1142,56
1143,56
1144,56
1145,56
1146,56
1147,56
1148,56
1149,56
1150,56
1151,56
1152,56
1153,56
1154,56
1155,56
1156,56
1157,56
1158,56
1159,56
1160,56
1161,56
1162,56
1163,56
1164,56
1165,56
1166,56
1167,56
1168,56
1169,56
1170,56
1171,56
1172,56
1173,56
1174,56
1175,56
1176,56
1177,56
1178,56
1179,56
1180,56
1181,56
1182,56
1183,56
1184,56
1185,56
1186,56
1187,56
1188,56
1189,56
1190,56
1191,56
1192,56
1193,56
1194,56
1195,56
1196,56
1197,56
1198,56
1199,56
1200,56
1201,56
1202,56
1203,56
1204,56
1205,56
1206,56
1207,56
1208,56
1209,56
1210,56
1211,56
1212,56
1213,57
1214,57
1215,57
1216,57
1217,57
1218,57
1219,57
1220,57
1221,57
1222,57
1223,57
1224,57
1225,57
1226,57
1227,57
1228,58
1229,58
1230,58
1231,58
1232,58
1233,58
1234,58
1235,58
1236,58
1237,58
1238,58
1239,58
1240,58
1241,58
1242,58
1243,58
1244,58
1245,58
1246,58
1247,58
1248,58
1249,58
1250,58
1251,58
1252,58
1253,58
1254,58
1255,58
1256,58
1257,58
1258,58
1259,58
1260,58
1261,58
1262,58
1263,58
1264,58
1265,58
1266,59
1267,59
1268,59
1269,59
1270,59
1271,59
1272,59
1273,59
1274,59
1275,59
1276,59
1277,59
1278,59
1279,59
1280,59
1281,59
1282,59
1283,59
1284,59
1285,59
1286,59
1287,59
1288,59
1289,59
1290,59
1291,59
1292,59
1293,59
1294,59
1295,59
1296,59
1297,59
1298,59
1299,59
1300,59
1301,59
1302,59
1303,59
1304,60
1305,60
1306,60
1307,60
1308,60
1309,60
1310,60
1311,60
1312,60
1313,60
1314,60
1315,60
1316,60
1317,60
1318,60
1319,60
1320,60
1321,60
1322,60
1323,60
1324,60
1325,60
1326,60
1327,60
1328,60
1329,60
1330,60
1331,60
1332,60
1333,60
1334,60
1335,60
1336,60
1337,60
1338,60
1339,60
1340,60
1341,60
1342,60
1343,60
1344,60
1345,60
1346,60
1347,61
1348,61
1349,61
1350,61
1351,61
1352,61
1353,61
1354,61
1355,61
1356,61
1357,61
1358,61
1359,61
1360,61
1361,61
1362,61
1363,61
1364,61
1365,61
1366,61
1367,61
1368,61
1369,61
1370,61
1371,61
1372,61
1373,61
1374,61
1375,61
1376,62
1377,62
1378,62
1379,62
1380,62
1381,62
1382,62
1383,62
1384,62
1385,62
1386,62
1387,62
1388,62
1389,62
1390,62
1391,62
1392,62
1393,62
1394,62
1395,62
1396,62
1397,62
1398,62
1399,62
1400,62
1401,62
1402,62
1403,62
1404,62
1405,62
1406,62
1407,62
1408,63
1409,63
1410,63
1411,63
1412,63
1413,63
1414,63
1415,63
1416,63
1417,63
1418,64
1419,64
1420,64
1421,64
1422,64
1423,64
1424,64
1425,64
1426,64
1427,64
1428,64
1429,64
1430,64
1431,64
1432,64
1433,64
1434,64
1435,64
1436,64
1437,64
1438,64
1439,64
1440,64
1441,64
1442,64
1443,64
1444,64
1445,64
1446,64
1447,64
1448,64
1449,64
1450,64
1451,64
1452,64
1453,64
1454,64
1455,64
1456,64
1457,64
1458,64
1459,64
1460,64
1461,64
1462,65
1463,65
1464,65
1465,65
1466,65
1467,65
1468,65
1469,65
1470,65
1471,65
1472,65
1473,65
1474,65
1475,65
1476,65
1477,65
1478,65
1479,65
1480,65
1481,65
1482,66
1483,66
1484,66
1485,66
1486,66
1487,66
1488,66
1489,66
1490,66
1491,66
1492,66
1493,66
1494,66
1495,66
1496,66
1497,66
1498,66
1499,66
1500,66
1501,66
1502,66
1503,66
1504,66
1505,66
1506,66
1507,66
1508,66
1509,66
1510,66
1511,66
1512,66
1513,67
1514,67
1515,67
1516,67
1517,67
1518,67
1519,67
1520,67
1521,67
1522,67
1523,67
1524,68
1525,68
1526,68
1527,69
1528,69
1529,70
1530,70
1531,70
1532,70
1533,71
1534,71
1535,71
1536,71
1537,71
1538,71
1539,71
1540,71
1541,71
1542,71
1543,71
1544,71
1545,71
1546,71
1547,71
1548,71
1549,71
1550,71
1551,71
1552,71
1553,71
1554,71
1555,71
1556,71
1557,72
1558,72
1559,72
1560,72
1561,72
1562,72
1563,72
1564,72
1565,72
1566,72
1567,72
1568,72
1569,72
1570,72
1571,72
1572,72
1573,72
1574,72
1575,72
1576,72
1577,72
1578,72
1579,72
1580,72
1581,72
1582,72
1583,72
1584,72
1585,72
1586,72
1587,72
1588,72
1589,72
1590,72
1591,72
1592,72
1593,72
1594,72
1595,72
1596,72
1597,72
1598,72
1599,72
1600,72
1601,72
1602,72
1603,72
1604,72
1605,72
1606,72
1607,72
1608,72
1609,72
1610,72
1611,73
1612,73
1613,73
1614,73
1615,74
1616,74
1617,74
1618,74
1619,74
1620,74
1621,74
1622,74
1623,74
1624,74
1625,74
1626,74
1627,74
1628,74
1629,74
1630,74
1631,74
1632,74
1633,74
1634,75
1635,75
1636,75
1637,75
1638,75
1639,75
1640,75
1641,75
1642,75
1643,75
1644,75
1645,75
1646,76
1647,76
1648,76
1649,76
1650,76
1651,76
1652,76
1653,76
1654,76
1655,76
1656,76
1657,76
1658,76
1659,76
1660,76
1661,76
1662,76
1663,76
1664,76
1665,76
1666,76
1667,76
1668,76
1669,76
1670,77
1671,78
1672,78
1673,78
1674,78
1675,78
1676,78
1677,78
1678,78
1679,78
1680,78
1681,78
1682,78
1683,78
1684,78
1685,78
1686,78
1687,78
1688,78
1689,78
1690,78
1691,78
1692,78
1693,78
1694,78
1695,78
1696,78
1697,78
1698,78
1699,78
1700,78
1701,78
1702,78
1703,78
1704,78
1705,78
1706,78
1707,78
1708,78
1709,78
1710,78
1711,78
1712,78
1713,78
1714,78
1715,78
1716,78
1717,78
1718,78
1719,78
1720,78
1721,78
1722,78
1723,78
1724,78
1725,78
1726,78
1727,78
1728,78
1729,78
1730,78
1731,78
1732,78
1733,78
1734,78
1735,78
1736,78
1737,78
1738,78
1739,78
1740,78
1741,78
1742,78
1743,78
1744,78
1745,78
1746,78
1747,78
1748,78
1749,78
1750,78
1751,78
1752,78
1753,78
1754,78
1755,78
1756,78
1757,78
1758,78
1759,78
1760,78
1761,78
1762,78
1763,78
1764,78
1765,78
1766,78
1767,78
1768,78
1769,78
1770,78
1771,78
1772,78
1773,78
1774,78
1775,78
1776,78
1777,78
1778,78
1779,78
1780,78
1781,78
1782,78
1783,78
1784,78
1785,78
1786,78
1787,78
1788,78
1789,78
1790,78
1791,79
1792,79
1793,79
1794,79
1795,79
1796,79
1797,79
1798,79
1799,79
1800,79
1801,79
1802,79
1803,79
1804,79
1805,79
1806,79
1807,79
1808,79
1809,79
1810,79
1811,79
1812,79
1813,79
1814,79
1815,79
1816,79
1817,79
1818,79
1819,79
1820,79
1821,79
1822,79
1823,79
1824,79
1825,79
1826,79
1827,79
1828,79
1829,79
1830,79
1831,79
1832,79
1833,79
1834,79
1835,79
1836,79
1837,79
1838,79
1839,79
1840,79
1841,79
1842,79
1843,79
1844,79
1845,79
1846,79
1847,79
1848,79
1849,79
1850,79
1851,79
1852,79
1853,79
1854,79
1855,79
1856,79
1857,79
1858,79
1859,79
1860,79
1861,79
1862,79
1863,79
1864,79
1865,79
1866,79
1867,79
1868,79
1869,79
1870,79
1871,79
1872,79
1873,79
1874,79
1875,79
1876,79
1877,79
1878,79
1879,79
1880,79
1881,79
1882,79
1883,79
1884,79
1885,79
1886,79
1887,79
1888,79
1889,79
1890,79
1891,79
1892,79
1893,79
1894,79
1895,79
1896,79
1897,79
1898,79
1899,79
1900,79
1901,79
1902,79
1903,79
1904,79
1905,79
1906,79
1907,79
1908,80
1909,80
1910,80
1911,80
1912,80
1913,80
1914,80
1915,80
1916,80
1917,80
1918,80
1919,80
1920,80
1921,80
1922,80
1923,80
1924,80
1925,80
1926,80
1927,80
1928,80
1929,80
1930,80
1931,80
1932,80
1933,80
1934,80
1935,80
1936,80
1937,80
1938,81
1939,81
1940,81
1941,81
1942,81
1943,81
1944,81
1945,81
1946,81
1947,81
1948,81
1949,81
1950,81
1951,81
1952,81
1953,81
1954,81
1955,81
1956,82
1957,82
1958,82
1959,82
1960,82
1961,82
1962,82
1963,82
1964,82
1965,82
1966,82
1967,82
1968,82
1969,82
1970,82
1971,82
1972,82
1973,82
1974,82
1975,82
1976,82
1977,82
1978,82
1979,82
1980,82
1981,82
1982,82
1983,82
1984,82
1985,82
1986,83
1987,83
1988,83
1989,83
1990,83
1991,83
1992,83
1993,83
1994,84
1995,84
1996,84
1997,84
1998,84
1999,85
2000,86
