"tick","total"
0,0
1,0
2,0
3,0
4,0
5,0
6,0
7,0
8,0
9,0
10,0
11,0
12,0
13,0
14,0
15,0
16,0
17,0
18,0
19,0
20,0
21,0
22,0
23,0
24,0
25,0
26,0
27,0
28,0
29,0
30,0
31,0
32,0
33,0
34,0
35,0
36,0
37,0
38,0
39,0
40,0
41,0
42,0
43,0
44,0
45,0
46,0
47,0
48,0
49,0
50,0
51,0
52,0
53,0
54,0
55,0
56,0
57,0
58,0
59,0
60,0
61,0
62,0
63,0
64,0
65,0
66,0
67,0
68,0
69,0
70,0
71,0
72,0
73,0
74,0
75,0
76,0
77,0
78,0
79,0
80,0
81,0
82,0
83,0
84,0
85,0
86,0
87,0
88,0
89,0
90,0
91,0
92,0
93,0
94,0
95,0
96,0
97,0
98,0
99,0
100,0
101,0
102,0
103,0
104,0
105,0
106,0
107,0
108,0
109,0
110,0
111,0
112,0
113,0
114,0
115,0
116,0
117,0
118,0
119,0
120,0
121,0
122,0
123,0
124,0
125,0
126,0
127,0
128,0
129,0
130,0
131,0
132,0
133,0
134,0
135,0
136,0
137,0
138,0
139,0
140,0
141,0
142,0
143,0
144,0
145,0
146,0
147,0
148,0
149,0
150,0
151,0
152,0
153,0
154,0
155,0
156,0
157,0
158,0
159,0
160,0
161,0
162,0
163,0
164,0
165,0
166,0
167,0
168,0
169,0
170,0
171,0
172,0
173,0
174,0
175,0
176,0
177,0
178,0
179,0
180,0
181,0
182,0
183,0
184,0
185,0
186,0
187,0
188,0
189,0
190,0
191,0
192,0
193,0
194,0
195,0
196,0
197,0
198,0
199,0
200,0
201,0
202,0
203,0
204,0
205,0
206,0
207,0
208,0
209,0
210,0
211,0
212,0
213,0
214,0
215,0
216,0
217,0
218,0
219,0
220,0
221,0
222,0
223,0
224,0
225,0
226,0
227,0
228,0
229,0
230,0
231,0
232,0
233,0
234,0
235,1
236,1
237,1
238,1
239,1
240,1
241,1
242,1
243,1
244,1
245,1
246,1
247,1
248,1
249,1
250,1
251,1
252,1
253,1
254,1
255,1
256,1
257,1
258,1
259,1
260,1
261,1
262,1
263,1
264,1
265,1
266,1
267,1
268,1
269,1
270,1
271,1
272,1
273,2
274,2
275,2
276,2
277,2
278,2
279,3
280,3
281,3
282,3
283,3
284,3
285,3
286,3
287,3
288,3
289,5
290,5
291,5
292,5
293,5
294,5
295,5
296,5
297,5
298,5
299,5
300,6
301,6
302,6
303,6
304,6
305,6
306,6
307,7
308,7
309,7
310,7
311,7
312,7
313,7
314,8
315,9
316,9
317,9
318,9
319,9
320,9
321,9
322,9
323,9
324,10
325,11
326,11
327,11
328,11
329,11
330,11
331,11
332,12
333,12
334,12
335,12
336,12
337,12
338,13
339,14
340,14
341,14
342,15
343,15
344,15
345,15
346,15
347,15
348,15
349,15
350,15
351,15
352,15
353,15
354,15
355,16
356,16
357,16
358,17
359,17
360,17
361,17
362,17
363,18
364,18
365,18
366,18
367,18
368,18
369,18
370,18
371,19
372,19
373,19
374,19
375,19
376,19
377,19
378,19
379,19
380,19
381,19
382,20
383,20
384,20
385,20
386,21
387,21
388,21
389,21
390,21
391,21
392,21
393,21
394,21
395,21
396,21
397,21
398,21
399,22
400,22
401,22
402,22
403,22
404,22
405,22
406,22
407,22
408,22
409,22
410,22
411,22
412,22
413,22
414,22
415,22
416,22
417,22
418,22
419,22
420,22
421,22
422,22
423,23
424,23
425,24
426,24
427,24
428,24
429,24
430,24
431,24
432,24
433,24
434,24
435,24
436,24
437,24
438,24
439,24
440,24
441,24
442,24
443,24
444,24
445,24
446,24
447,24
448,24
449,24
450,24
451,24
452,24
453,24
454,24
455,24
456,24
457,24
458,24
459,24
460,24
461,24
462,24
463,24
464,25
465,25
466,25
467,25
468,25
469,25
470,25
471,26
472,27
473,27
474,27
475,27
476,27
477,27
478,27
479,27
480,27
481,27
482,27
483,27
484,27
485,27
486,27
487,27
488,27
489,27
490,27
491,27
492,27
493,28
494,28
495,28
496,28
497,29
498,29
499,29
500,29
501,29
502,29
503,29
504,29
505,29
506,29
507,29
508,29
509,29
510,29
511,29
512,29
513,29
514,29
515,29
516,29
517,29
518,30
519,30
520,30
521,30
522,30
523,31
524,31
525,31
526,31
527,33
528,33
529,33
530,33
531,33
532,33
533,33
534,33
535,33
536,33
537,33
538,33
539,33
540,33
541,33
542,33
543,33
544,33
545,33
546,33
547,33
548,33
549,33
550,33
551,33
552,34
553,34
554,34
555,34
556,34
557,34
558,34
559,34
560,34
561,34
562,34
563,34
564,34
565,34
566,34
567,34
568,34
569,34
570,34
571,34
572,34
573,34
574,34
575,34
576,34
577,34
578,34
579,34
580,34
581,34
582,34
583,34
584,34
585,34
586,34
587,34
588,35
589,35
590,35
591,35
592,35
593,35
594,35
595,35
596,35
597,35
598,35
599,35
600,35
601,35
602,35
603,35
604,35
605,35
606,35
607,35
608,35
609,35
610,35
611,35
612,35
613,35
614,35
615,35
616,35
617,35
618,35
619,35
620,35
621,35
622,35
623,35
624,35
625,35
626,35
627,35
628,35
629,35
630,35
631,35
632,35
633,35
634,35
635,36
636,36
637,36
638,36
639,36
640,36
641,36
642,36
643,36
644,36
645,36
646,36
647,36
648,36
649,36
650,36
651,36
652,36
653,36
654,36
655,36
656,36
657,36
658,36
659,36
660,36
661,36
662,36
663,36
664,36
665,36
666,36
667,36
668,36
669,36
670,36
671,36
672,36
673,36
674,36
675,37
676,37
677,37
678,37
679,37
680,37
681,37
682,37
683,37
684,37
685,37
686,37
687,37
688,37
689,37
690,37
691,37
692,37
693,37
694,37
695,37
696,37
697,37
698,37
699,37
700,37
701,37
702,37
703,37
704,37
705,37
706,38
707,38
708,38
709,38
710,38
711,38
712,38
713,39
714,39
715,39
716,39
717,39
718,39
719,39
720,39
721,39
722,39
723,39
724,39
725,39
726,39
727,39
728,39
729,39
730,39
731,39
732,39
733,39
734,39
735,39
736,39
737,39
738,39
739,39
740,39
741,39
742,39
743,39
744,39
745,39
746,39
747,39
748,39
749,39
750,39
751,39
752,40
753,40
754,40
755,40
756,40
757,40
758,40
759,40
760,40
761,40
762,41
763,41
764,41
765,42
766,42
767,42
768,42
769,42
770,42
771,42
772,42
773,42
774,42
775,42
776,42
777,42
778,42
779,42
780,42
781,43
782,43
783,43
784,43
785,43
786,43
787,43
788,43
789,43
790,43
791,43
792,43
793,43
794,43
795,43
796,43
797,43
798,43
799,43
800,43
801,44
802,44
803,44
804,44
805,44
806,44
807,44
808,44
809,44
810,44
811,44
812,45
813,45
814,45
815,45
816,45
817,45
818,46
819,46
820,46
821,46
822,46
823,46
824,46
825,46
826,46
827,46
828,46
829,46
830,46
831,46
832,46
833,46
834,46
835,47
836,47
837,47
838,48
839,48
840,48
841,48
842,48
843,48
844,48
845,48
846,48
847,48
848,48
849,48
850,48
851,48
852,48
853,48
854,48
855,48
856,48
857,48
858,48
859,48
860,49
861,49
862,49
863,49
864,49
865,49
866,49
867,49
868,49
869,49
870,49
871,49
872,49
873,49
874,50
875,50
876,50
877,50
878,50
879,50
880,50
881,50
882,50
883,50
884,50
885,50
886,51
887,51
888,51
889,51
890,51
891,51
892,51
893,51
894,51
895,51
896,51
897,51
898,51
899,51
900,51
901,51
902,51
903,51
904,51
905,52
906,52
907,52
908,52
909,52
910,52
911,52
912,52
913,52
914,52
915,52
916,52
917,52
918,52
919,52
920,52
921,52
922,52
923,52
924,53
925,53
926,53
927,53
928,53
929,53
930,53
931,53
932,53
933,53
934,53
935,53
936,53
937,53
938,53
939,53
940,53
941,53
942,53
943,53
944,53
945,53
946,53
947,53
948,53
949,53
950,53
951,53
952,53
953,53
954,53
955,53
956,53
957,53
958,53
959,53
960,53
961,53
962,53
963,53
964,53
965,53
966,53
967,53
968,53
969,53
970,53
971,53
972,53
973,53
974,53
975,53
976,53
977,53
978,53
979,53
980,53
981,53
982,53
983,53
984,53
985,53
986,53
987,53
988,53
989,53
990,53
991,53
992,54
993,54
994,54
995,54
996,54
997,54
998,54
999,54
1000,54
1001,54
1002,54
1003,54
1004,54
1005,54
1006,54
1007,54
1008,54
1009,54
1010,54
1011,54
1012,54
1013,54
1014,54
1015,54
1016,54
1017,54
1018,54
1019,54
1020,54
1021,54
1022,54
1023,54
1024,54
1025,54
1026,54
1027,54
1028,54
1029,54
1030,54
1031,54
1032,54
1033,54
1034,54
1035,54
1036,54
1037,54
1038,54
1039,54
1040,54
1041,54
1042,54
1043,54
1044,54
1045,54
1046,54
1047,54
1048,54
1049,54
1050,54
1051,54
1052,54
1053,54
1054,54
1055,54
1056,54
1057,54
1058,54
1059,54
1060,54
1061,54
1062,54
1063,54
1064,55
1065,55
1066,55
1067,55
1068,55
1069,55
1070,55
1071,55
1072,55
1073,55
1074,55
1075,55
1076,55
1077,55
1078,55
1079,55
1080,55
1081,55
1082,55
1083,55
1084,55
1085,55
1086,55
1087,55
1088,55
1089,55
1090,55
1091,55
1092,55
1093,55
1094,55
1095,55
1096,55
1097,55
1098,55
1099,55
1100,55
1101,55
1102,55
1103,55
1104,55
1105,55
1106,55
1107,55
1108,55
1109,55
1110,55
1111,55
1112,55
1113,55
1114,55
1115,55
1116,55
1117,55
1118,55
1119,55
1120,55
1121,55
1122,55
1123,55
1124,55
1125,55
1126,55
1127,55
1128,55
1129,55
1130,55
1131,55
1132,55
1133,55
1134,55
1135,55
1136,55
1137,55
1138,55
1139,55
1140,55
1141,55
1142,55
1143,55
1144,55
1145,55
1146,55
1147,55
1148,55
1149,55
1150,55
1151,55
1152,55
1153,55
1154,55
1155,55
1156,55
1157,55
1158,55
1159,56
1160,56
1161,56
1162,57
1163,57
1164,57
1165,57
1166,57
1167,57
1168,57
1169,57
1170,57
1171,57
1172,57
1173,57
1174,57
1175,57
1176,57
1177,57
1178,57
1179,57
1180,57
1181,57
1182,57
1183,57
1184,57
1185,57
1186,57
1187,57
1188,57
1189,57
1190,57
1191,57
1192,57
1193,57
1194,57
1195,57
1196,57
1197,57
1198,57
1199,57
1200,57
1201,57
1202,57
1203,57
1204,57
1205,57
1206,57
1207,57
1208,57
1209,58
1210,58
1211,58
1212,58
1213,58
1214,58
1215,58
1216,58
1217,58
1218,58
1219,58
1220,58
1221,58
1222,58
1223,58
1224,58
1225,58
1226,58
1227,58
1228,58
1229,58
1230,58
1231,58
1232,58
1233,58
1234,58
1235,58
1236,58
1237,58
1238,58
1239,58
1240,58
1241,58
1242,58
1243,58
1244,58
1245,58
1246,58
1247,58
1248,58
1249,58
1250,58
1251,58
1252,58
1253,58
1254,58
1255,58
1256,58
1257,58
1258,58
1259,58
1260,58
1261,58
1262,58
1263,58
1264,58
1265,58
1266,58
1267,58
1268,58
1269,58
1270,58
1271,58
1272,58
1273,58
1274,58
1275,58
1276,58
1277,58
1278,58
1279,58
1280,58
1281,58
1282,58
1283,58
1284,58
1285,58
1286,58
1287,58
1288,58
1289,58
1290,58
1291,58
1292,58
1293,58
1294,58
1295,58
1296,58
1297,58
1298,58
1299,58
1300,58
1301,58
1302,58
1303,58
1304,58
1305,58
1306,59
1307,59
1308,59
1309,59
1310,59
1311,59
1312,59
1313,59
1314,59
1315,59
1316,59
1317,59
1318,59
1319,59
1320,59
1321,59
1322,59
1323,59
1324,60
1325,60
1326,60
1327,60
1328,60
1329,60
1330,60
1331,60
1332,60
1333,60
1334,60
1335,60
1336,60
1337,60
1338,60
1339,60
1340,60
1341,60
1342,60
1343,60
1344,61
1345,61
1346,61
1347,61
1348,61
1349,61
1350,61
1351,61
1352,61
1353,61
1354,61
1355,61
1356,61
1357,62
1358,62
1359,63
1360,63
1361,63
1362,63
1363,63
1364,63
1365,63
1366,63
1367,63
1368,63
1369,63
1370,63
1371,63
1372,63
1373,63
1374,63
1375,63
1376,63
1377,63
1378,63
1379,64
1380,64
1381,65
1382,65
1383,65
1384,65
1385,65
1386,65
1387,65
1388,65
1389,65
1390,65
1391,65
1392,65
1393,65
1394,65
1395,65
1396,65
1397,65
1398,65
1399,65
1400,65
1401,65
1402,65
1403,65
1404,65
1405,65
1406,65
1407,65
1408,65
1409,65
1410,65
1411,65
1412,65
1413,65
1414,65
1415,65
1416,65
1417,65
1418,65
1419,65
1420,65
1421,65
1422,65
1423,65
1424,66
1425,67
1426,67
1427,67
1428,67
1429,67
1430,67
1431,67
1432,67
1433,67
1434,68
1435,68
1436,68
1437,68
1438,68
1439,68
1440,68
1441,68
1442,68
1443,69
1444,69
1445,69
1446,69
1447,69
1448,70
1449,70
1450,70
1451,70
1452,70
1453,70
1454,70
1455,70
1456,70
1457,70
1458,70
1459,70
1460,70
1461,70
1462,70
1463,70
1464,70
1465,70
1466,71
1467,71
1468,71
1469,71
1470,71
1471,71
1472,71
1473,71
1474,71
1475,71
1476,71
1477,71
1478,71
1479,71
1480,71
1481,71
1482,71
1483,71
1484,71
1485,71
1486,71
1487,71
1488,71
1489,71
1490,71
1491,71
1492,71
1493,71
1494,71
1495,71
1496,71
1497,71
1498,72
1499,72
1500,72
1501,72
1502,72
1503,72
1504,72
1505,72
1506,73
1507,73
1508,73
1509,73
1510,73
1511,73
1512,73
1513,73
1514,73
1515,73
1516,73
1517,73
1518,73
1519,74
1520,74
1521,74
1522,74
1523,75
1524,75
1525,75
1526,75
1527,75
1528,75
1529,75
1530,75
1531,75
1532,75
1533,75
1534,75
1535,75
1536,75
1537,76
1538,76
1539,76
1540,76
1541,76
1542,77
1543,78
1544,78
1545,78
1546,78
1547,78
1548,78
1549,78
1550,78
1551,78
1552,78
1553,78
1554,78
1555,78
1556,78
1557,78
1558,78
1559,78
1560,78
1561,78
1562,78
1563,78
1564,79
1565,79
1566,79
1567,79
1568,79
1569,79
1570,79
1571,79
1572,79
1573,79
1574,79
1575,79
1576,79
1577,79
1578,79
1579,79
1580,79
1581,79
1582,79
1583,79
1584,79
1585,79
1586,79
1587,79
1588,79
1589,79
1590,79
1591,79
1592,79
1593,79
1594,79
1595,79
1596,79
1597,79
1598,79
1599,79
1600,79
1601,79
1602,79
1603,79
1604,79
1605,79
1606,79
1607,79
1608,79
1609,79
1610,79
1611,79
1612,79
1613,79
1614,79
1615,79
1616,79
1617,79
1618,79
1619,79
1620,79
1621,79
1622,79
1623,79
1624,79
1625,79
1626,79
1627,79
1628,79
1629,79
1630,79
1631,79
1632,79
1633,79
1634,79
1635,79
1636,79
1637,79
1638,79
1639,79
1640,79
1641,79
1642,79
1643,79
1644,79
1645,79
1646,79
1647,79
1648,79
1649,79
1650,79
1651,79
1652,79
1653,79
1654,79
1655,79
1656,79
1657,79
1658,79
1659,79
1660,80
1661,80
1662,80
1663,80
1664,80
1665,80
1666,80
1667,80
1668,80
1669,80
1670,80
1671,80
1672,80
1673,80
1674,80
1675,80
1676,80
1677,80
1678,80
1679,80
1680,80
1681,80
1682,80
1683,80
1684,80
1685,80
1686,80
1687,80
1688,80
1689,80
1690,80
1691,80
1692,80
1693,80
1694,80
1695,80
1696,80
1697,80
1698,80
1699,80
1700,80
1701,80
1702,80
1703,80
1704,80
1705,80
1706,80
1707,80
1708,80
1709,80
1710,80
1711,80
1712,80
1713,80
1714,80
1715,80
1716,80
1717,80
1718,80
1719,80
1720,80
1721,80
1722,80
1723,80
1724,80
1725,80
1726,80
1727,80
1728,80
1729,80
1730,80
1731,81
1732,81
1733,81
1734,82
1735,82
1736,82
1737,82
1738,82
1739,82
1740,82
1741,82
1742,82
1743,82
1744,82
1745,82
1746,82
1747,82
1748,82
1749,82
1750,82
1751,82
1752,82
1753,82
1754,82
1755,82
1756,82
1757,82
1758,82
1759,82
1760,82
1761,82
1762,82
1763,82
1764,82
1765,82
1766,82
1767,82
1768,82
1769,82
1770,82
1771,82
1772,82
1773,83
1774,83
1775,83
1776,83
1777,83
1778,83
1779,83
1780,83
1781,83
1782,83
1783,83
1784,83
1785,83
1786,83
1787,83
1788,83
1789,83
1790,83
1791,83
1792,83
1793,83
1794,83
1795,83
1796,83
1797,83
1798,84
1799,84
1800,85
1801,85
1802,85
1803,85
1804,85
1805,85
1806,85
1807,85
1808,85
1809,85
1810,85
1811,85
1812,85
1813,85
1814,85
1815,85
1816,85
1817,85
1818,85
1819,85
1820,85
1821,85
1822,85
1823,85
1824,85
1825,85
1826,85
1827,85
1828,85
1829,85
1830,86
1831,86
1832,86
1833,86
1834,86
1835,86
1836,86
1837,86
1838,86
1839,86
1840,86
1841,86
1842,86
1843,86
1844,87
1845,87
1846,88
1847,88
1848,88
1849,88
1850,88
1851,88
1852,88
1853,88
1854,89
1855,89
1856,89
1857,89
1858,89
1859,89
1860,89
1861,89
1862,89
1863,89
1864,89
1865,89
1866,89
1867,89
1868,89
1869,90
1870,90
1871,90
1872,90
1873,90
1874,90
1875,90
1876,90
1877,90
1878,90
1879,90
1880,90
1881,90
1882,91
1883,91
1884,92
1885,92
1886,92
1887,92
1888,92
1889,92
1890,92
1891,93
1892,93
1893,93
1894,93
1895,94
1896,94
1897,94
1898,94
1899,94
1900,94
1901,94
1902,94
1903,94
1904,94
1905,94
1906,94
1907,94
1908,94
1909,94
1910,94
1911,94
1912,94
1913,94
1914,94
1915,94
1916,94
1917,94
1918,94
1919,94
1920,94
1921,94
1922,94
1923,94
1924,94
1925,94
1926,94
1927,94
1928,94
1929,94
1930,94
1931,94
1932,94
1933,94
1934,94
1935,94
1936,94
1937,94
1938,94
1939,94
1940,95
1941,95
1942,95
1943,95
1944,95
1945,95
1946,95
1947,95
1948,95
1949,95
1950,95
1951,95
1952,95
1953,95
1954,95
1955,96
1956,96
1957,96
1958,96
1959,97
1960,97
1961,97
1962,97
1963,97
1964,97
1965,97
1966,97
1967,97
1968,97
1969,97
1970,97
1971,97
1972,97
1973,97
1974,97
1975,97
1976,97
1977,97
1978,97
1979,97
1980,97
1981,97
1982,97
1983,97
1984,97
1985,97
1986,97
1987,97
1988,98
1989,98
1990,98
1991,98
1992,98
1993,98
1994,98
1995,99
1996,99
1997,99
1998,99
1999,99
2000,99
