"tick","total"
0,0
1,0
2,0
3,0
4,0
5,0
6,0
7,0
8,0
9,0
10,0
11,0
12,0
13,0
14,0
15,0
16,0
17,0
18,0
19,0
20,0
21,0
22,0
23,0
24,0
25,0
26,0
27,0
28,0
29,0
30,0
31,0
32,0
33,0
34,0
35,0
36,0
37,0
38,0
39,0
40,0
41,0
42,0
43,0
44,0
45,0
46,0
47,0
48,0
49,0
50,0
51,0
52,0
53,0
54,0
55,0
56,0
57,0
58,0
59,0
60,0
61,0
62,0
63,0
64,0
65,0
66,0
67,0
68,0
69,0
70,0
71,0
72,0
73,0
74,0
75,0
76,0
77,0
78,0
79,0
80,0
81,0
82,0
83,0
84,0
85,0
86,0
87,0
88,0
89,0
90,0
91,0
92,0
93,0
94,0
95,0
96,0
97,0
98,0
99,0
100,0
101,0
102,0
103,0
104,0
105,0
106,0
107,0
108,0
109,0
110,0
111,0
112,0
113,0
114,0
115,0
116,0
117,0
118,0
119,0
120,0
121,0
122,0
123,0
124,0
125,0
126,0
127,0
128,0
129,0
130,0
131,0
132,0
133,0
134,0
135,0
136,0
137,0
138,0
139,0
140,0
141,0
142,0
143,0
144,0
145,0
146,0
147,0
148,0
149,0
150,0
151,0
152,0
153,0
154,0
155,0
156,0
157,0
158,0
159,0
160,0
161,0
162,0
163,0
164,0
165,0
166,1
167,1
168,1
169,1
170,1
171,1
172,1
173,1
174,1
175,1
176,1
177,1
178,1
179,1
180,1
181,1
182,1
183,1
184,1
185,1
186,1
187,1
188,1
189,1
190,1
191,1
192,1
193,1
194,1
195,1
196,1
197,1
198,1
199,1
200,1
201,1
202,1
203,1
204,1
205,1
206,1
207,1
208,1
209,1
210,1
211,1
212,1
213,1
214,1
215,1
216,1
217,1
218,1
219,2
220,2
221,2
222,2
223,2
224,2
225,2
226,2
227,2
228,2
229,2
230,2
231,3
232,3
233,3
234,3
235,3
236,3
237,3
238,3
239,3
240,3
241,3
242,3
243,3
244,3
245,3
246,3
247,3
248,3
249,3
250,3
251,4
252,4
253,4
254,4
255,4
256,4
257,5
258,5
259,5
260,5
261,5
262,5
263,5
264,5
265,5
266,5
267,5
268,5
269,5
270,5
271,5
272,5
273,5
274,5
275,5
276,5
277,5
278,5
279,5
280,5
281,5
282,5
283,5
284,5
285,5
286,5
287,5
288,5
289,5
290,5
291,5
292,5
293,6
294,6
295,6
296,6
297,6
298,7
299,7
300,7
301,7
302,7
303,8
304,8
305,8
306,9
307,9
308,10
309,10
310,10
311,11
312,11
313,12
314,13
315,13
316,13
317,13
318,13
319,13
320,13
321,13
322,13
323,13
324,13
325,13
326,13
327,13
328,13
329,13
330,14
331,16
332,16
333,16
334,16
335,16
336,16
337,16
338,16
339,16
340,16
341,16
342,16
343,16
344,16
345,16
346,17
347,17
348,17
349,17
350,17
351,17
352,17
353,17
354,17
355,17
356,17
357,17
358,18
359,18
360,18
361,18
362,18
363,18
364,18
365,18
366,18
367,18
368,18
369,18
370,18
371,18
372,18
373,18
374,18
375,18
376,18
377,18
378,18
379,18
380,18
381,18
382,18
383,18
384,18
385,18
386,18
387,18
388,18
389,18
390,18
391,18
392,18
393,18
394,19
395,19
396,19
397,19
398,19
399,19
400,19
401,19
402,19
403,19
404,19
405,19
406,19
407,19
408,19
409,19
410,19
411,19
412,19
413,19
414,19
415,19
416,19
417,19
418,19
419,19
420,19
421,19
422,19
423,19
424,19
425,19
426,19
427,19
428,19
429,19
430,19
431,19
432,19
433,19
434,19
435,19
436,19
437,19
438,19
439,19
440,19
441,19
442,19
443,19
444,19
445,19
446,19
447,19
448,19
449,19
450,19
451,19
452,19
453,19
454,19
455,19
456,19
457,19
458,19
459,19
460,19
461,19
462,19
463,19
464,19
465,20
466,20
467,20
468,20
469,20
470,20
471,20
472,20
473,20
474,20
475,20
476,20
477,20
478,20
479,20
480,20
481,20
482,20
483,20
484,20
485,20
486,20
487,20
488,20
489,20
490,20
491,20
492,20
493,20
494,21
495,21
496,21
497,21
498,21
499,21
500,21
501,21
502,21
503,22
504,22
505,22
506,22
507,22
508,22
509,22
510,22
511,22
512,22
513,22
514,22
515,22
516,22
517,22
518,22
519,22
520,22
521,22
522,22
523,22
524,22
525,22
526,22
527,22
528,22
529,22
530,22
531,22
532,22
533,22
534,22
535,22
536,22
537,22
538,22
539,22
540,22
541,22
542,22
543,22
544,22
545,22
546,22
547,22
548,22
549,22
550,22
551,22
552,22
553,22
554,22
555,22
556,22
557,22
558,22
559,22
560,22
561,22
562,22
563,22
564,22
565,22
566,22
567,22
568,22
569,22
570,22
571,22
572,23
573,24
574,24
575,24
576,24
577,24
578,24
579,24
580,24
581,24
582,24
583,24
584,24
585,24
586,24
587,24
588,24
589,24
590,24
591,25
592,25
593,25
594,26
595,26
596,26
597,26
598,26
599,26
600,26
601,26
602,26
603,26
604,26
605,26
606,26
607,26
608,26
609,26
610,26
611,26
612,26
613,27
614,27
615,27
616,27
617,27
618,27
619,27
620,27
621,27
622,27
623,27
624,27
625,27
626,27
627,27
628,27
629,27
630,27
631,27
632,27
633,27
634,27
635,27
636,27
637,27
638,27
639,27
640,27
641,27
642,27
643,27
644,27
645,28
646,28
647,29
648,29
649,29
650,29
651,30
652,30
653,30
654,30
655,30
656,30
657,30
658,30
659,30
660,30
661,30
662,30
663,30
664,30
665,30
666,30
667,30
668,30
669,30
670,30
671,30
672,30
673,30
674,30
675,30
676,30
677,30
678,30
679,30
680,30
681,30
682,30
683,30
684,30
685,30
686,30
687,30
688,30
689,30
690,30
691,30
692,30
693,30
694,30
695,30
696,30
697,30
698,30
699,30
700,30
701,30
702,30
703,30
704,31
705,31
706,31
707,31
708,31
709,31
710,31
711,31
712,31
713,31
714,31
715,31
716,31
717,31
718,31
719,31
720,31
721,31
722,31
723,31
724,31
725,31
726,31
727,31
728,31
729,31
730,31
731,31
732,31
733,31
734,31
735,31
736,31
737,31
738,31
739,31
740,32
741,32
742,32
743,32
744,32
745,32
746,32
747,32
748,32
749,32
750,32
751,32
752,32
753,32
754,32
755,32
756,32
757,32
758,32
759,32
760,32
761,32
762,32
763,32
764,32
765,32
766,32
767,32
768,32
769,32
770,32
771,32
772,32
773,32
774,32
775,32
776,32
777,32
778,32
779,32
780,32
781,32
782,32
783,32
784,32
785,32
786,32
787,32
788,32
789,32
790,32
791,32
792,32
793,32
794,32
795,32
796,32
797,32
798,32
799,32
800,32
801,32
802,32
803,32
804,32
805,32
806,32
807,32
808,32
809,32
810,33
811,34
812,34
813,34
814,34
815,34
816,34
817,34
818,34
819,34
820,34
821,34
822,34
823,34
824,35
825,35
826,35
827,36
828,36
829,36
830,36
831,36
832,36
833,36
834,36
835,36
836,36
837,36
838,36
839,36
840,36
841,36
842,36
843,36
844,36
845,36
846,36
847,36
848,36
849,36
850,36
851,36
852,36
853,36
854,36
855,36
856,36
857,36
858,36
859,37
860,37
861,37
862,37
863,37
864,37
865,37
866,37
867,37
868,37
869,37
870,37
871,37
872,37
873,37
874,37
875,37
876,37
877,37
878,37
879,37
880,37
881,37
882,37
883,37
884,37
885,37
886,37
887,37
888,37
889,37
890,37
891,37
892,37
893,37
894,37
895,37
896,37
897,37
898,37
899,37
900,37
901,37
902,37
903,37
904,37
905,37
906,37
907,37
908,37
909,37
910,37
911,37
912,37
913,37
914,37
915,37
916,37
917,37
918,37
919,37
920,37
921,37
922,37
923,37
924,37
925,37
926,37
927,37
928,37
929,37
930,37
931,37
932,37
933,37
934,37
935,37
936,37
937,38
938,38
939,38
940,38
941,38
942,38
943,38
944,38
945,38
946,38
947,38
948,38
949,38
950,38
951,38
952,38
953,38
954,38
955,38
956,38
957,38
958,38
959,38
960,38
961,38
962,38
963,38
964,38
965,38
966,38
967,38
968,38
969,38
970,38
971,38
972,38
973,38
974,38
975,38
976,38
977,38
978,38
979,38
980,38
981,38
982,38
983,38
984,38
985,38
986,38
987,38
988,38
989,38
990,38
991,38
992,38
993,38
994,38
995,38
996,38
997,38
998,38
999,38
1000,38
1001,38
1002,38
1003,38
1004,38
1005,38
1006,38
1007,38
1008,38
1009,38
1010,38
1011,38
1012,38
1013,38
1014,38
1015,38
1016,38
1017,38
1018,38
1019,38
1020,38
1021,38
1022,38
1023,38
1024,38
1025,38
1026,38
1027,38
1028,38
1029,38
1030,38
1031,38
1032,38
1033,38
1034,38
1035,39
1036,39
1037,39
1038,39
1039,39
1040,39
1041,39
1042,39
1043,39
1044,39
1045,39
1046,39
1047,39
1048,39
1049,39
1050,39
1051,39
1052,39
1053,39
1054,39
1055,39
1056,39
1057,39
1058,39
1059,39
1060,39
1061,39
1062,39
1063,39
1064,39
1065,40
1066,40
1067,40
1068,40
1069,41
1070,41
1071,41
1072,41
1073,41
1074,41
1075,42
1076,42
1077,42
1078,42
1079,42
1080,42
1081,42
1082,42
1083,42
1084,42
1085,42
1086,42
1087,42
1088,42
1089,42
1090,42
1091,42
1092,42
1093,42
1094,42
1095,42
1096,42
1097,42
1098,42
1099,42
1100,42
1101,42
1102,42
1103,42
1104,42
1105,43
1106,43
1107,43
1108,43
1109,43
1110,43
1111,43
1112,43
1113,43
1114,44
1115,44
1116,44
1117,45
1118,45
1119,45
1120,45
1121,46
1122,46
1123,46
1124,46
1125,46
1126,47
1127,47
1128,47
1129,47
1130,47
1131,47
1132,47
1133,47
1134,47
1135,47
1136,47
1137,47
1138,47
1139,48
1140,48
1141,48
1142,48
1143,48
1144,48
1145,48
1146,48
1147,48
1148,48
1149,48
1150,48
1151,48
1152,48
1153,48
1154,48
1155,49
1156,49
1157,49
1158,49
1159,49
1160,49
1161,49
1162,50
1163,50
1164,50
1165,50
1166,50
1167,50
1168,50
1169,50
1170,50
1171,50
1172,50
1173,50
1174,50
1175,50
1176,50
1177,50
1178,50
1179,50
1180,50
1181,50
1182,51
1183,51
1184,51
1185,51
1186,51
1187,51
1188,51
1189,51
1190,51
1191,51
1192,52
1193,52
1194,53
1195,53
1196,53
1197,53
1198,53
1199,53
1200,53
1201,53
1202,53
1203,53
1204,53
1205,53
1206,53
1207,53
1208,53
1209,53
1210,53
1211,53
1212,53
1213,53
1214,53
1215,53
1216,53
1217,53
1218,53
1219,53
1220,53
1221,53
1222,54
1223,54
1224,54
1225,54
1226,54
1227,54
1228,54
1229,54
1230,56
1231,56
1232,56
1233,56
1234,56
1235,56
1236,56
1237,56
1238,56
1239,56
1240,56
1241,56
1242,56
1243,56
1244,56
1245,57
1246,57
1247,57
1248,58
1249,58
1250,58
1251,58
1252,58
1253,58
1254,58
1255,58
1256,58
1257,58
1258,58
1259,58
1260,58
1261,59
1262,59
1263,59
1264,59
1265,59
1266,59
1267,59
1268,59
1269,59
1270,59
1271,59
1272,59
1273,59
1274,59
1275,59
1276,59
1277,59
1278,59
1279,59
1280,59
1281,59
1282,59
1283,60
1284,61
1285,61
1286,61
1287,61
1288,61
1289,61
1290,61
1291,61
1292,61
1293,61
1294,61
1295,61
1296,61
1297,61
1298,61
1299,61
1300,61
1301,61
1302,61
1303,61
1304,61
1305,61
1306,61
1307,61
1308,61
1309,61
1310,61
1311,61
1312,61
1313,61
1314,61
1315,61
1316,61
1317,61
1318,61
1319,61
1320,61
1321,61
1322,61
1323,61
1324,61
1325,61
1326,61
1327,61
1328,61
1329,61
1330,61
1331,61
1332,61
1333,61
1334,61
1335,61
1336,61
1337,61
1338,61
1339,61
1340,61
1341,61
1342,61
1343,61
1344,61
1345,61
1346,61
1347,61
1348,61
1349,61
1350,61
1351,61
1352,61
1353,61
1354,61
1355,61
1356,61
1357,61
1358,61
1359,61
1360,61
1361,61
1362,61
1363,61
1364,61
1365,61
1366,61
1367,61
1368,61
1369,61
1370,61
1371,61
1372,61
1373,61
1374,61
1375,61
1376,61
1377,61
1378,61
1379,61
1380,61
1381,61
1382,61
1383,61
1384,61
1385,61
1386,61
1387,61
1388,61
1389,61
1390,61
1391,61
1392,61
1393,61
1394,61
1395,61
1396,61
1397,61
1398,61
1399,61
1400,61
1401,61
1402,61
1403,61
1404,61
1405,61
1406,61
1407,61
1408,61
1409,61
1410,61
1411,61
1412,61
1413,61
1414,61
1415,61
1416,61
1417,61
1418,61
1419,61
1420,61
1421,61
1422,61
1423,61
1424,61
1425,61
1426,61
1427,61
1428,61
1429,61
1430,61
1431,61
1432,61
1433,61
1434,61
1435,61
1436,61
1437,61
1438,61
1439,61
1440,61
1441,61
1442,61
1443,61
1444,61
1445,61
1446,61
1447,61
1448,61
1449,61
1450,61
1451,61
1452,61
1453,61
1454,61
1455,61
1456,61
1457,61
1458,61
1459,61
1460,61
1461,61
1462,61
1463,61
1464,61
1465,61
1466,61
1467,61
1468,61
1469,61
1470,61
1471,61
1472,61
1473,61
1474,61
1475,61
1476,61
1477,61
1478,61
1479,61
1480,61
1481,61
1482,61
1483,61
1484,61
1485,61
1486,61
1487,61
1488,62
1489,62
1490,62
1491,63
1492,63
1493,63
1494,63
1495,63
1496,63
1497,63
1498,63
1499,63
1500,63
1501,63
1502,63
1503,63
1504,63
1505,63
1506,63
1507,63
1508,63
1509,63
1510,63
1511,63
1512,63
1513,63
1514,63
1515,63
1516,63
1517,63
1518,64
1519,64
1520,64
1521,64
1522,64
1523,64
1524,65
1525,65
1526,65
1527,65
1528,65
1529,65
1530,65
1531,65
1532,65
1533,65
1534,65
1535,66
1536,66
1537,66
1538,66
1539,67
1540,67
1541,67
1542,67
1543,67
1544,67
1545,67
1546,67
1547,67
1548,67
1549,67
1550,67
1551,67
1552,67
1553,67
1554,67
1555,67
1556,67
1557,67
1558,68
1559,68
1560,68
1561,68
1562,68
1563,68
1564,68
1565,68
1566,68
1567,68
1568,68
1569,68
1570,68
1571,68
1572,68
1573,68
1574,68
1575,68
1576,68
1577,68
1578,68
1579,68
1580,68
1581,68
1582,68
1583,68
1584,69
1585,70
1586,70
1587,70
1588,70
1589,70
1590,70
1591,70
1592,70
1593,70
1594,70
1595,71
1596,71
1597,71
1598,71
1599,71
1600,71
1601,71
1602,71
1603,71
1604,71
1605,71
1606,71
1607,71
1608,71
1609,71
1610,71
1611,71
1612,71
1613,71
1614,71
1615,71
1616,71
1617,71
1618,71
1619,71
1620,71
1621,71
1622,72
1623,72
1624,73
1625,73
1626,73
1627,73
1628,73
1629,73
1630,73
1631,73
1632,73
1633,73
1634,73
1635,73
1636,74
1637,74
1638,74
1639,74
1640,74
1641,74
1642,74
1643,74
1644,74
1645,74
1646,74
1647,74
1648,75
1649,75
1650,75
1651,75
1652,76
1653,76
1654,76
1655,76
1656,76
1657,76
1658,76
1659,76
1660,76
1661,76
1662,76
1663,76
1664,76
1665,76
1666,76
1667,76
1668,77
1669,77
1670,77
1671,77
1672,77
1673,78
1674,78
1675,78
1676,78
1677,78
1678,78
1679,78
1680,78
1681,79
1682,79
1683,79
1684,79
1685,79
1686,79
1687,80
1688,81
1689,81
1690,81
1691,81
1692,81
1693,81
1694,81
1695,81
1696,81
1697,81
1698,81
1699,82
1700,82
1701,82
1702,82
1703,83
1704,83
1705,83
1706,83
1707,83
1708,83
1709,83
1710,83
1711,83
1712,83
1713,83
1714,83
1715,83
1716,83
1717,83
1718,83
1719,83
1720,83
1721,83
1722,83
1723,83
1724,83
1725,83
1726,83
1727,83
1728,83
1729,83
1730,83
1731,83
1732,83
1733,83
1734,83
1735,83
1736,83
1737,83
1738,83
1739,83
1740,84
1741,84
1742,84
1743,84
1744,84
1745,84
1746,84
1747,84
1748,84
1749,84
1750,84
1751,84
1752,84
1753,84
1754,84
1755,85
1756,85
1757,85
1758,85
1759,85
1760,85
1761,85
1762,85
1763,85
1764,85
1765,86
1766,86
1767,86
1768,86
1769,86
1770,86
1771,86
1772,86
1773,86
1774,86
1775,86
1776,86
1777,86
1778,86
1779,86
1780,86
1781,86
1782,86
1783,87
1784,88
1785,88
1786,88
1787,88
1788,88
1789,88
1790,88
1791,88
1792,88
1793,89
1794,89
1795,89
1796,89
1797,89
1798,89
1799,89
1800,89
1801,89
1802,89
1803,89
1804,89
1805,89
1806,89
1807,89
1808,89
1809,89
1810,89
1811,89
1812,89
1813,89
1814,89
1815,89
1816,89
1817,89
1818,89
1819,89
1820,89
1821,89
1822,89
1823,89
1824,89
1825,89
1826,90
1827,90
1828,90
1829,90
1830,90
1831,90
1832,90
1833,90
1834,90
1835,90
1836,90
1837,90
1838,90
1839,90
1840,90
1841,90
1842,90
1843,90
1844,90
1845,90
1846,90
1847,90
1848,90
1849,90
1850,90
1851,90
1852,90
1853,90
1854,90
1855,90
1856,90
1857,90
1858,90
1859,90
1860,90
1861,90
1862,90
1863,90
1864,90
1865,90
1866,90
1867,90
1868,90
1869,90
1870,90
1871,90
1872,90
1873,90
1874,90
1875,90
1876,90
1877,90
1878,90
1879,90
1880,90
1881,90
1882,90
1883,90
1884,90
1885,90
1886,90
1887,90
1888,90
1889,90
1890,90
1891,90
1892,90
1893,90
1894,90
1895,90
1896,90
1897,90
1898,90
1899,90
1900,90
1901,90
1902,90
1903,90
1904,90
1905,90
1906,90
1907,90
1908,90
1909,90
1910,90
1911,90
1912,90
1913,90
1914,90
1915,90
1916,90
1917,90
1918,90
1919,90
1920,90
1921,90
1922,90
1923,90
1924,90
1925,90
1926,90
1927,90
1928,90
1929,90
1930,90
1931,90
1932,90
1933,90
1934,90
1935,90
1936,90
1937,90
1938,90
1939,90
1940,90
1941,90
1942,90
1943,90
1944,90
1945,90
1946,90
1947,90
1948,90
1949,90
1950,90
1951,90
1952,90
1953,90
1954,90
1955,90
1956,90
1957,90
1958,90
1959,90
1960,90
1961,90
1962,90
1963,90
1964,90
1965,90
1966,90
1967,90
1968,90
1969,90
1970,90
1971,90
1972,90
1973,90
1974,90
1975,90
1976,90
1977,90
1978,90
1979,90
1980,90
1981,90
1982,90
1983,90
1984,90
1985,90
1986,90
1987,90
1988,90
1989,90
1990,90
1991,90
1992,90
1993,90
1994,90
1995,90
1996,90
1997,90
1998,90
1999,90
2000,90
