"tick","total"
0,0
1,0
2,0
3,0
4,0
5,0
6,0
7,0
8,0
9,0
10,0
11,0
12,0
13,0
14,0
15,0
16,0
17,0
18,0
19,0
20,0
21,0
22,0
23,0
24,0
25,0
26,0
27,0
28,0
29,0
30,0
31,0
32,0
33,0
34,0
35,0
36,0
37,0
38,0
39,0
40,0
41,0
42,0
43,0
44,0
45,0
46,0
47,0
48,0
49,0
50,0
51,0
52,0
53,0
54,0
55,0
56,0
57,0
58,0
59,0
60,0
61,0
62,0
63,0
64,0
65,0
66,0
67,0
68,0
69,0
70,0
71,0
72,0
73,0
74,0
75,0
76,0
77,0
78,0
79,0
80,0
81,0
82,0
83,0
84,0
85,0
86,0
87,0
88,0
89,0
90,0
91,0
92,0
93,0
94,0
95,0
96,0
97,0
98,0
99,0
100,0
101,0
102,0
103,0
104,0
105,0
106,0
107,0
108,0
109,0
110,0
111,0
112,0
113,0
114,0
115,0
116,0
117,0
118,0
119,0
120,0
121,0
122,0
123,0
124,0
125,0
126,0
127,0
128,0
129,0
130,0
131,0
132,0
133,0
134,0
135,0
136,0
137,0
138,0
139,0
140,0
141,0
142,0
143,0
144,0
145,0
146,0
147,0
148,0
149,0
150,0
151,0
152,0
153,0
154,0
155,0
156,0
157,0
158,0
159,0
160,0
161,0
162,0
163,0
164,0
165,0
166,0
167,0
168,0
169,0
170,0
171,0
172,0
173,0
174,0
175,0
176,0
177,0
178,0
179,0
180,0
181,0
182,0
183,0
184,0
185,0
186,0
187,0
188,0
189,0
190,0
191,0
192,0
193,0
194,0
195,0
196,0
197,0
198,0
199,0
200,0
201,0
202,0
203,0
204,0
205,0
206,0
207,0
208,0
209,0
210,0
211,0
212,0
213,0
214,0
215,0
216,0
217,0
218,0
219,0
220,0
221,0
222,0
223,0
224,0
225,0
226,0
227,0
228,0
229,0
230,0
231,0
232,0
233,0
234,0
235,0
236,0
237,0
238,0
239,0
240,0
241,0
242,0
243,0
244,0
245,0
246,0
247,0
248,0
249,0
250,0
251,0
252,0
253,0
254,0
255,0
256,0
257,0
258,1
259,1
260,1
261,1
262,1
263,1
264,1
265,1
266,1
267,1
268,1
269,1
270,2
271,2
272,2
273,2
274,2
275,2
276,2
277,2
278,3
279,3
280,3
281,3
282,4
283,4
284,4
285,4
286,4
287,4
288,4
289,4
290,4
291,4
292,4
293,4
294,4
295,4
296,4
297,4
298,5
299,5
300,5
301,5
302,5
303,5
304,5
305,6
306,6
307,6
308,6
309,6
310,6
311,6
312,6
313,6
314,6
315,6
316,6
317,6
318,6
319,7
320,8
321,8
322,8
323,8
324,8
325,9
326,9
327,9
328,9
329,9
330,9
331,9
332,9
333,9
334,10
335,10
336,11
337,11
338,11
339,11
340,11
341,11
342,11
343,11
344,11
345,11
346,11
347,11
348,11
349,11
350,11
351,11
352,11
353,11
354,11
355,11
356,11
357,11
358,11
359,11
360,11
361,11
362,11
363,11
364,11
365,11
366,11
367,11
368,11
369,11
370,11
371,11
372,11
373,11
374,11
375,11
376,12
377,13
378,13
379,13
380,13
381,13
382,13
383,13
384,13
385,13
386,13
387,13
388,13
389,13
390,14
391,15
392,15
393,15
394,15
395,15
396,15
397,15
398,15
399,15
400,15
401,15
402,15
403,15
404,15
405,15
406,15
407,15
408,15
409,15
410,15
411,15
412,15
413,15
414,16
415,16
416,16
417,16
418,16
419,17
420,17
421,17
422,17
423,17
424,17
425,17
426,17
427,17
428,17
429,17
430,17
431,17
432,17
433,17
434,17
435,17
436,17
437,17
438,17
439,17
440,17
441,17
442,17
443,18
444,18
445,18
446,18
447,18
448,18
449,18
450,18
451,19
452,19
453,19
454,19
455,19
456,19
457,19
458,19
459,19
460,19
461,19
462,19
463,20
464,20
465,20
466,20
467,20
468,20
469,20
470,20
471,20
472,20
473,20
474,20
475,20
476,20
477,20
478,20
479,20
480,20
481,20
482,20
483,20
484,20
485,20
486,21
487,21
488,21
489,21
490,21
491,21
492,21
493,21
494,21
495,21
496,22
497,22
498,22
499,22
500,22
501,23
502,23
503,23
504,23
505,23
506,23
507,23
508,23
509,23
510,23
511,23
512,23
513,23
514,23
515,23
516,24
517,24
518,24
519,24
520,24
521,25
522,25
523,25
524,25
525,25
526,25
527,25
528,25
529,25
530,27
531,27
532,28
533,28
534,28
535,28
536,29
537,29
538,29
539,30
540,30
541,30
542,30
543,31
544,33
545,33
546,33
547,33
548,33
549,33
550,33
551,33
552,33
553,33
554,34
555,34
556,34
557,34
558,34
559,34
560,34
561,34
562,34
563,34
564,34
565,34
566,34
567,34
568,34
569,34
570,34
571,34
572,36
573,36
574,36
575,36
576,36
577,36
578,37
579,37
580,37
581,37
582,37
583,37
584,37
585,37
586,37
587,37
588,37
589,37
590,37
591,37
592,37
593,37
594,37
595,37
596,37
597,37
598,37
599,37
600,38
601,38
602,39
603,39
604,39
605,39
606,39
607,39
608,39
609,39
610,39
611,39
612,39
613,39
614,39
615,39
616,39
617,39
618,39
619,39
620,39
621,39
622,39
623,39
624,39
625,39
626,39
627,39
628,39
629,39
630,39
631,39
632,39
633,39
634,39
635,39
636,39
637,39
638,39
639,39
640,39
641,39
642,39
643,39
644,39
645,40
646,40
647,40
648,40
649,40
650,40
651,40
652,40
653,40
654,40
655,40
656,40
657,40
658,40
659,40
660,40
661,40
662,40
663,40
664,40
665,40
666,41
667,41
668,41
669,41
670,41
671,41
672,41
673,41
674,41
675,41
676,41
677,41
678,41
679,41
680,41
681,41
682,41
683,41
684,41
685,41
686,41
687,41
688,41
689,41
690,41
691,41
692,41
693,41
694,41
695,41
696,41
697,41
698,41
699,41
700,41
701,41
702,41
703,41
704,41
705,41
706,41
707,41
708,41
709,41
710,41
711,41
712,41
713,41
714,41
715,41
716,41
717,41
718,41
719,41
720,41
721,41
722,41
723,41
724,41
725,41
726,41
727,41
728,41
729,41
730,41
731,41
732,41
733,41
734,41
735,41
736,41
737,41
738,41
739,41
740,41
741,41
742,41
743,41
744,41
745,41
746,41
747,41
748,41
749,41
750,41
751,41
752,41
753,41
754,41
755,41
756,41
757,41
758,41
759,41
760,41
761,41
762,41
763,41
764,41
765,41
766,41
767,41
768,41
769,41
770,41
771,41
772,41
773,41
774,41
775,41
776,41
777,41
778,41
779,41
780,41
781,41
782,41
783,41
784,41
785,42
786,42
787,42
788,42
789,42
790,42
791,42
792,42
793,42
794,42
795,43
796,43
797,43
798,43
799,44
800,44
801,44
802,44
803,44
804,44
805,44
806,44
807,44
808,44
809,44
810,45
811,45
812,45
813,45
814,45
815,45
816,45
817,45
818,45
819,45
820,45
821,45
822,45
823,46
824,46
825,46
826,46
827,46
828,46
829,46
830,46
831,46
832,46
833,46
834,46
835,46
836,46
837,46
838,46
839,46
840,46
841,46
842,46
843,46
844,46
845,46
846,46
847,46
848,46
849,46
850,46
851,46
852,46
853,46
854,46
855,46
856,46
857,46
858,46
859,46
860,46
861,47
862,47
863,47
864,47
865,47
866,47
867,47
868,47
869,47
870,47
871,47
872,47
873,47
874,47
875,47
876,48
877,49
878,49
879,49
880,50
881,50
882,50
883,50
884,51
885,51
886,51
887,51
888,51
889,51
890,51
891,52
892,52
893,53
894,53
895,53
896,53
897,53
898,53
899,53
900,53
901,53
902,53
903,53
904,53
905,53
906,53
907,54
908,54
909,54
910,54
911,54
912,54
913,55
914,55
915,55
916,56
917,56
918,56
919,56
920,56
921,56
922,56
923,56
924,56
925,56
926,56
927,56
928,56
929,56
930,56
931,56
932,56
933,56
934,56
935,57
936,57
937,57
938,57
939,57
940,57
941,57
942,57
943,57
944,57
945,57
946,57
947,57
948,57
949,57
950,57
951,57
952,57
953,57
954,57
955,57
956,57
957,57
958,57
959,57
960,57
961,57
962,57
963,57
964,57
965,57
966,57
967,57
968,57
969,57
970,57
971,57
972,57
973,57
974,57
975,57
976,57
977,57
978,57
979,57
980,57
981,57
982,57
983,57
984,57
985,57
986,57
987,57
988,57
989,57
990,59
991,59
992,59
993,59
994,59
995,59
996,59
997,59
998,59
999,59
1000,59
1001,60
1002,60
1003,60
1004,60
1005,60
1006,60
1007,60
1008,60
1009,61
1010,62
1011,62
1012,62
1013,62
1014,62
1015,62
1016,62
1017,62
1018,63
1019,63
1020,63
1021,63
1022,63
1023,63
1024,63
1025,65
1026,65
1027,65
1028,65
1029,65
1030,65
1031,65
1032,65
1033,65
1034,65
1035,65
1036,65
1037,65
1038,65
1039,65
1040,65
1041,65
1042,65
1043,65
1044,66
1045,66
1046,66
1047,66
1048,66
1049,66
1050,66
1051,66
1052,66
1053,66
1054,66
1055,66
1056,66
1057,66
1058,66
1059,66
1060,66
1061,66
1062,66
1063,66
1064,66
1065,66
1066,66
1067,66
1068,66
1069,66
1070,66
1071,66
1072,66
1073,66
1074,66
1075,66
1076,66
1077,66
1078,66
1079,66
1080,66
1081,66
1082,67
1083,67
1084,67
1085,67
1086,67
1087,67
1088,67
1089,67
1090,67
1091,67
1092,67
1093,67
1094,67
1095,67
1096,67
1097,67
1098,67
1099,67
1100,67
1101,67
1102,67
1103,67
1104,67
1105,68
1106,68
1107,68
1108,68
1109,68
1110,68
1111,68
1112,68
1113,68
1114,68
1115,68
1116,68
1117,68
1118,68
1119,68
1120,68
1121,68
1122,68
1123,68
1124,68
1125,68
1126,68
1127,68
1128,68
1129,68
1130,68
1131,68
1132,68
1133,68
1134,68
1135,68
1136,68
1137,68
1138,68
1139,68
1140,68
1141,68
1142,68
1143,68
1144,68
1145,68
1146,68
1147,68
1148,68
1149,68
1150,69
1151,69
1152,69
1153,69
1154,69
1155,69
1156,69
1157,69
1158,69
1159,69
1160,69
1161,69
1162,69
1163,70
1164,70
1165,70
1166,70
1167,70
1168,70
1169,70
1170,70
1171,70
1172,70
1173,70
1174,70
1175,70
1176,70
1177,70
1178,70
1179,70
1180,70
1181,70
1182,70
1183,70
1184,70
1185,70
1186,70
1187,70
1188,70
1189,70
1190,70
1191,70
1192,70
1193,71
1194,71
1195,71
1196,71
1197,71
1198,71
1199,71
1200,71
1201,71
1202,72
1203,73
1204,73
1205,73
1206,73
1207,73
1208,73
1209,73
1210,73
1211,73
1212,73
1213,73
1214,73
1215,73
1216,73
1217,73
1218,73
1219,73
1220,73
1221,73
1222,74
1223,74
1224,74
1225,74
1226,74
1227,74
1228,74
1229,74
1230,74
1231,74
1232,74
1233,75
1234,75
1235,75
1236,75
1237,75
1238,75
1239,75
1240,75
1241,75
1242,75
1243,75
1244,75
1245,75
1246,75
1247,75
1248,75
1249,75
1250,75
1251,75
1252,75
1253,75
1254,75
1255,75
1256,75
1257,76
1258,76
1259,76
1260,76
1261,76
1262,76
1263,76
1264,76
1265,76
1266,76
1267,76
1268,76
1269,76
1270,76
1271,76
1272,76
1273,76
1274,76
1275,76
1276,76
1277,76
1278,76
1279,77
1280,77
1281,77
1282,77
1283,77
1284,77
1285,77
1286,77
1287,78
1288,78
1289,78
1290,78
1291,78
1292,78
1293,78
1294,78
1295,78
1296,78
1297,78
1298,78
1299,78
1300,79
1301,79
1302,79
1303,79
1304,79
1305,79
1306,79
1307,79
1308,79
1309,79
1310,79
1311,79
1312,79
1313,79
1314,79
1315,79
1316,79
1317,79
1318,79
1319,80
1320,80
1321,80
1322,80
1323,80
1324,80
1325,80
1326,80
1327,80
1328,80
1329,80
1330,80
1331,80
1332,80
1333,80
1334,80
1335,80
1336,80
1337,80
1338,81
1339,81
1340,81
1341,81
1342,81
1343,81
1344,81
1345,81
1346,81
1347,81
1348,81
1349,82
1350,82
1351,82
1352,82
1353,82
1354,82
1355,82
1356,82
1357,82
1358,83
1359,83
1360,83
1361,83
1362,83
1363,83
1364,83
1365,83
1366,83
1367,83
1368,83
1369,83
1370,83
1371,83
1372,83
1373,83
1374,83
1375,83
1376,83
1377,83
1378,83
1379,83
1380,83
1381,83
1382,83
1383,83
1384,83
1385,83
1386,83
1387,83
1388,83
1389,83
1390,83
1391,83
1392,83
1393,83
1394,83
1395,83
1396,83
1397,83
1398,83
1399,83
1400,83
1401,83
1402,83
1403,83
1404,83
1405,83
1406,83
1407,83
1408,83
1409,83
1410,83
1411,84
1412,84
1413,84
1414,84
1415,84
1416,84
1417,84
1418,84
1419,84
1420,84
1421,85
1422,85
1423,85
1424,85
1425,85
1426,85
1427,85
1428,86
1429,86
1430,86
1431,86
1432,86
1433,86
1434,86
1435,86
1436,86
1437,86
1438,86
1439,86
1440,86
1441,86
1442,86
1443,86
1444,86
1445,86
1446,86
1447,87
1448,87
1449,87
1450,87
1451,87
1452,87
1453,87
1454,87
1455,87
1456,87
1457,87
1458,87
1459,87
1460,87
1461,87
1462,87
1463,87
1464,87
1465,87
1466,87
1467,87
1468,88
1469,88
1470,88
1471,88
1472,88
1473,88
1474,88
1475,88
1476,88
1477,88
1478,88
1479,88
1480,88
1481,88
1482,88
1483,88
1484,88
1485,89
1486,90
1487,90
1488,90
1489,90
1490,90
1491,90
1492,90
1493,90
1494,90
1495,90
1496,90
1497,90
1498,90
1499,90
1500,90
1501,90
1502,90
1503,90
1504,90
1505,90
1506,90
1507,90
1508,90
1509,91
1510,91
1511,91
1512,91
1513,91
1514,91
1515,91
1516,91
1517,92
1518,92
1519,93
1520,93
1521,93
1522,93
1523,93
1524,93
1525,93
1526,93
1527,93
1528,93
1529,93
1530,93
1531,93
1532,93
1533,93
1534,93
1535,93
1536,93
1537,94
1538,94
1539,94
1540,94
1541,94
1542,94
1543,95
1544,95
1545,95
1546,95
1547,95
1548,95
1549,95
1550,95
1551,96
1552,96
1553,96
1554,96
1555,96
1556,96
1557,96
1558,96
1559,96
1560,96
1561,97
1562,98
1563,98
1564,98
1565,98
1566,98
1567,98
1568,98
1569,98
1570,98
1571,98
1572,98
1573,98
1574,98
1575,98
1576,98
1577,98
1578,98
1579,98
1580,98
1581,98
1582,98
1583,98
1584,98
1585,98
1586,98
1587,98
1588,98
1589,98
1590,98
1591,98
1592,98
1593,98
1594,98
1595,98
1596,98
1597,98
1598,98
1599,98
1600,98
1601,98
1602,98
1603,98
1604,98
1605,98
1606,99
1607,99
1608,99
1609,99
1610,99
1611,100
1612,100
1613,100
1614,101
1615,101
1616,101
1617,101
1618,101
1619,101
1620,101
1621,101
1622,101
1623,101
1624,101
1625,101
1626,101
1627,101
1628,101
1629,101
1630,101
1631,101
1632,101
1633,101
1634,102
1635,102
1636,102
1637,102
1638,102
1639,102
1640,102
1641,102
1642,102
1643,102
1644,102
1645,102
1646,102
1647,102
1648,102
1649,102
1650,102
1651,102
1652,102
1653,102
1654,102
1655,102
1656,102
1657,102
1658,102
1659,102
1660,102
1661,102
1662,102
1663,102
1664,102
1665,102
1666,102
1667,102
1668,102
1669,102
1670,102
1671,102
1672,102
1673,102
1674,102
1675,103
1676,103
1677,103
1678,103
1679,103
1680,103
1681,103
1682,103
1683,103
1684,103
1685,103
1686,103
1687,103
1688,103
1689,103
1690,103
1691,103
1692,103
1693,103
1694,103
1695,103
1696,103
1697,103
1698,103
1699,103
1700,103
1701,103
1702,103
1703,103
1704,103
1705,103
1706,103
1707,103
1708,103
1709,103
1710,103
1711,103
1712,103
1713,103
1714,103
1715,103
1716,103
1717,103
1718,103
1719,103
1720,103
1721,103
1722,103
1723,103
1724,104
1725,104
1726,104
1727,104
1728,104
1729,104
1730,105
1731,105
1732,105
1733,105
1734,105
1735,105
1736,105
1737,105
1738,105
1739,105
1740,105
1741,106
1742,106
1743,106
1744,106
1745,106
1746,106
1747,106
1748,106
1749,106
1750,106
1751,106
1752,106
1753,106
1754,106
1755,106
1756,106
1757,106
1758,106
1759,106
1760,106
1761,106
1762,106
1763,106
1764,106
1765,106
1766,106
1767,106
1768,106
1769,106
1770,106
1771,106
1772,106
1773,106
1774,106
1775,107
1776,107
1777,107
1778,107
1779,107
1780,107
1781,107
1782,107
1783,107
1784,107
1785,107
1786,107
1787,107
1788,107
1789,107
1790,107
1791,107
1792,107
1793,107
1794,107
1795,107
1796,107
1797,107
1798,107
1799,107
1800,107
1801,107
1802,107
1803,107
1804,107
1805,107
1806,107
1807,107
1808,107
1809,107
1810,107
1811,107
1812,107
1813,107
1814,107
1815,107
1816,107
1817,107
1818,107
1819,107
1820,107
1821,107
1822,107
1823,107
1824,107
1825,107
1826,107
1827,107
1828,107
1829,107
1830,107
1831,107
1832,107
1833,107
1834,107
1835,107
1836,107
1837,108
1838,108
1839,108
1840,108
1841,108
1842,108
1843,108
1844,108
1845,108
1846,108
1847,108
1848,108
1849,108
1850,108
1851,108
1852,108
1853,108
1854,108
1855,108
1856,108
1857,108
1858,108
1859,108
1860,108
1861,109
1862,109
1863,110
1864,110
1865,110
1866,110
1867,110
1868,110
1869,110
1870,110
1871,110
1872,110
1873,110
1874,110
1875,110
1876,110
1877,110
1878,111
1879,111
1880,111
1881,112
1882,112
1883,112
1884,112
1885,112
1886,112
1887,112
1888,112
1889,112
1890,112
1891,112
1892,112
1893,112
1894,113
1895,113
1896,113
1897,113
1898,113
1899,113
1900,113
1901,113
1902,113
1903,113
1904,113
1905,113
1906,113
1907,113
1908,113
1909,113
1910,113
1911,113
1912,113
1913,113
1914,113
1915,113
1916,113
1917,113
1918,113
1919,113
1920,113
1921,113
1922,113
1923,113
1924,113
1925,113
1926,113
1927,113
1928,113
1929,113
1930,113
1931,113
1932,113
1933,113
1934,113
1935,114
1936,114
1937,114
1938,114
1939,114
1940,114
1941,114
1942,114
1943,114
1944,114
1945,114
1946,114
1947,114
1948,114
1949,114
1950,114
1951,114
1952,114
1953,114
1954,114
1955,114
1956,114
1957,115
1958,115
1959,115
1960,115
1961,115
1962,115
1963,115
1964,116
1965,116
1966,116
1967,116
1968,116
1969,116
1970,116
1971,116
1972,116
1973,116
1974,116
1975,116
1976,116
1977,116
1978,116
1979,116
1980,116
1981,116
1982,116
1983,116
1984,117
1985,117
1986,118
1987,118
1988,118
1989,118
1990,118
1991,118
1992,118
1993,118
1994,118
1995,118
1996,118
1997,118
1998,118
1999,118
2000,118
