"tick","total"
0,0
1,0
2,0
3,0
4,0
5,0
6,0
7,0
8,0
9,0
10,0
11,0
12,0
13,0
14,0
15,0
16,0
17,0
18,0
19,0
20,0
21,0
22,0
23,0
24,0
25,0
26,0
27,0
28,0
29,0
30,0
31,0
32,0
33,0
34,0
35,0
36,0
37,0
38,0
39,0
40,0
41,0
42,0
43,0
44,0
45,0
46,0
47,0
48,0
49,0
50,0
51,0
52,0
53,0
54,0
55,0
56,0
57,0
58,0
59,0
60,0
61,0
62,0
63,0
64,0
65,0
66,0
67,0
68,0
69,0
70,0
71,0
72,0
73,0
74,0
75,0
76,0
77,0
78,0
79,0
80,0
81,0
82,0
83,0
84,0
85,0
86,0
87,0
88,0
89,0
90,0
91,0
92,0
93,0
94,0
95,0
96,0
97,0
98,0
99,0
100,0
101,0
102,0
103,0
104,0
105,0
106,0
107,0
108,0
109,0
110,0
111,0
112,0
113,0
114,0
115,0
116,0
117,0
118,0
119,0
120,0
121,0
122,0
123,0
124,0
125,0
126,0
127,0
128,0
129,0
130,0
131,0
132,0
133,0
134,0
135,0
136,0
137,0
138,0
139,0
140,0
141,0
142,0
143,0
144,0
145,0
146,0
147,0
148,0
149,0
150,0
151,0
152,0
153,0
154,0
155,0
156,0
157,0
158,0
159,0
160,0
161,0
162,0
163,0
164,0
165,0
166,0
167,0
168,0
169,0
170,0
171,0
172,0
173,0
174,0
175,0
176,0
177,0
178,0
179,0
180,0
181,0
182,0
183,0
184,0
185,0
186,0
187,0
188,0
189,0
190,0
191,0
192,0
193,0
194,0
195,0
196,0
197,0
198,0
199,0
200,0
201,0
202,0
203,0
204,0
205,0
206,0
207,0
208,0
209,1
210,1
211,1
212,1
213,1
214,1
215,1
216,1
217,1
218,1
219,1
220,1
221,1
222,1
223,1
224,1
225,1
226,1
227,1
228,1
229,1
230,1
231,1
232,1
233,1
234,1
235,1
236,1
237,1
238,2
239,2
240,2
241,2
242,2
243,2
244,2
245,2
246,2
247,2
248,2
249,2
250,2
251,2
252,3
253,4
254,5
255,6
256,7
257,8
258,9
259,10
260,10
261,10
262,10
263,10
264,10
265,10
266,10
267,10
268,10
269,10
270,10
271,10
272,10
273,10
274,10
275,10
276,10
277,10
278,10
279,10
280,10
281,10
282,10
283,10
284,10
285,10
286,11
287,11
288,11
289,11
290,11
291,12
292,12
293,12
294,12
295,12
296,12
297,13
298,13
299,13
300,13
301,13
302,13
303,13
304,14
305,14
306,14
307,14
308,14
309,14
310,14
311,15
312,15
313,15
314,15
315,15
316,15
317,15
318,15
319,15
320,16
321,16
322,16
323,16
324,16
325,16
326,16
327,16
328,16
329,16
330,16
331,16
332,16
333,16
334,17
335,17
336,17
337,17
338,17
339,17
340,17
341,17
342,17
343,17
344,17
345,17
346,17
347,18
348,18
349,18
350,18
351,18
352,18
353,18
354,18
355,18
356,18
357,18
358,18
359,18
360,19
361,19
362,19
363,19
364,19
365,19
366,19
367,19
368,19
369,19
370,20
371,20
372,20
373,20
374,20
375,20
376,20
377,20
378,20
379,20
380,20
381,20
382,20
383,20
384,20
385,20
386,20
387,20
388,20
389,20
390,20
391,20
392,20
393,20
394,20
395,20
396,20
397,20
398,21
399,21
400,21
401,21
402,21
403,21
404,21
405,21
406,21
407,21
408,21
409,21
410,21
411,21
412,21
413,21
414,21
415,21
416,21
417,21
418,21
419,21
420,21
421,21
422,22
423,22
424,22
425,22
426,22
427,22
428,22
429,22
430,22
431,22
432,22
433,22
434,22
435,22
436,22
437,22
438,22
439,22
440,22
441,22
442,22
443,22
444,22
445,22
446,22
447,22
448,22
449,22
450,22
451,22
452,22
453,22
454,22
455,22
456,22
457,22
458,22
459,22
460,22
461,22
462,22
463,22
464,22
465,22
466,22
467,22
468,22
469,22
470,22
471,22
472,22
473,22
474,22
475,22
476,22
477,22
478,22
479,22
480,22
481,22
482,22
483,22
484,22
485,22
486,22
487,22
488,22
489,22
490,22
491,23
492,23
493,23
494,23
495,23
496,23
497,23
498,23
499,23
500,23
501,23
502,23
503,23
504,23
505,23
506,23
507,23
508,23
509,23
510,23
511,23
512,23
513,23
514,23
515,23
516,23
517,23
518,23
519,23
520,23
521,23
522,23
523,23
524,23
525,23
526,23
527,23
528,23
529,23
530,23
531,23
532,23
533,23
534,23
535,23
536,23
537,23
538,23
539,23
540,23
541,23
542,23
543,23
544,23
545,23
546,23
547,23
548,23
549,23
550,23
551,23
552,23
553,23
554,23
555,23
556,23
557,23
558,23
559,23
560,23
561,23
562,23
563,23
564,23
565,23
566,23
567,23
568,23
569,23
570,23
571,23
572,23
573,23
574,23
575,23
576,23
577,23
578,23
579,23
580,23
581,23
582,23
583,24
584,24
585,24
586,24
587,24
588,24
589,24
590,25
591,25
592,25
593,25
594,25
595,25
596,25
597,25
598,25
599,25
600,25
601,25
602,25
603,25
604,25
605,25
606,25
607,25
608,25
609,25
610,25
611,25
612,25
613,25
614,25
615,25
616,25
617,25
618,25
619,25
620,25
621,25
622,25
623,25
624,25
625,25
626,25
627,25
628,25
629,26
630,26
631,26
632,26
633,26
634,26
635,26
636,26
637,26
638,26
639,26
640,26
641,26
642,26
643,26
644,26
645,26
646,26
647,26
648,26
649,26
650,26
651,26
652,26
653,26
654,26
655,26
656,26
657,26
658,26
659,26
660,26
661,26
662,26
663,26
664,26
665,26
666,26
667,26
668,26
669,26
670,26
671,26
672,26
673,26
674,26
675,26
676,26
677,26
678,26
679,26
680,26
681,26
682,26
683,26
684,26
685,27
686,27
687,27
688,27
689,27
690,27
691,27
692,27
693,27
694,27
695,27
696,27
697,27
698,27
699,27
700,27
701,27
702,27
703,27
704,27
705,27
706,27
707,27
708,27
709,27
710,27
711,27
712,27
713,27
714,27
715,27
716,27
717,27
718,27
719,27
720,27
721,27
722,27
723,28
724,28
725,28
726,28
727,28
728,28
729,28
730,28
731,28
732,28
733,28
734,29
735,29
736,29
737,29
738,29
739,29
740,29
741,29
742,29
743,29
744,29
745,29
746,29
747,29
748,29
749,29
750,29
751,29
752,29
753,29
754,29
755,29
756,29
757,29
758,29
759,29
760,29
761,29
762,29
763,29
764,29
765,29
766,29
767,29
768,29
769,29
770,29
771,29
772,29
773,29
774,29
775,29
776,29
777,29
778,29
779,29
780,29
781,29
782,29
783,29
784,29
785,29
786,29
787,29
788,29
789,29
790,29
791,29
792,29
793,29
794,29
795,29
796,29
797,29
798,29
799,29
800,29
801,29
802,29
803,29
804,29
805,29
806,29
807,29
808,29
809,29
810,29
811,29
812,29
813,29
814,29
815,29
816,29
817,29
818,29
819,29
820,29
821,29
822,29
823,29
824,29
825,29
826,29
827,29
828,29
829,29
830,29
831,29
832,29
833,29
834,29
835,29
836,29
837,29
838,29
839,29
840,30
841,30
842,30
843,30
844,30
845,30
846,30
847,31
848,31
849,31
850,31
851,32
852,32
853,33
854,33
855,33
856,33
857,33
858,34
859,34
860,35
861,35
862,35
863,35
864,35
865,35
866,35
867,35
868,35
869,35
870,35
871,35
872,35
873,35
874,35
875,35
876,35
877,35
878,35
879,35
880,35
881,35
882,35
883,35
884,35
885,35
886,35
887,35
888,35
889,35
890,35
891,35
892,35
893,35
894,35
895,35
896,35
897,35
898,35
899,35
900,35
901,35
902,35
903,35
904,35
905,35
906,35
907,35
908,35
909,35
910,35
911,35
912,35
913,35
914,35
915,35
916,35
917,35
918,35
919,35
920,35
921,35
922,35
923,35
924,35
925,35
926,36
927,36
928,36
929,36
930,36
931,36
932,36
933,36
934,36
935,36
936,36
937,36
938,37
939,37
940,37
941,37
942,37
943,37
944,37
945,37
946,37
947,37
948,37
949,37
950,37
951,37
952,37
953,37
954,37
955,37
956,37
957,37
958,37
959,37
960,37
961,37
962,37
963,37
964,37
965,37
966,37
967,37
968,37
969,37
970,37
971,37
972,37
973,37
974,37
975,37
976,37
977,37
978,37
979,37
980,37
981,37
982,37
983,37
984,37
985,37
986,37
987,37
988,37
989,37
990,37
991,37
992,37
993,37
994,38
995,38
996,38
997,38
998,38
999,38
1000,38
1001,38
1002,38
1003,38
1004,38
1005,38
1006,38
1007,39
1008,39
1009,39
1010,39
1011,39
1012,39
1013,39
1014,39
1015,39
1016,39
1017,39
1018,39
1019,39
1020,39
1021,39
1022,39
1023,39
1024,39
1025,39
1026,39
1027,40
1028,40
1029,40
1030,40
1031,40
1032,40
1033,40
1034,40
1035,40
1036,40
1037,40
1038,40
1039,40
1040,40
1041,40
1042,40
1043,40
1044,40
1045,41
1046,41
1047,41
1048,41
1049,41
1050,41
1051,41
1052,41
1053,41
1054,41
1055,41
1056,41
1057,41
1058,41
1059,41
1060,41
1061,41
1062,41
1063,41
1064,41
1065,41
1066,41
1067,41
1068,41
1069,41
1070,41
1071,41
1072,41
1073,41
1074,41
1075,41
1076,41
1077,41
1078,41
1079,41
1080,41
1081,41
1082,41
1083,41
1084,41
1085,41
1086,41
1087,41
1088,41
1089,41
1090,41
1091,41
1092,41
1093,41
1094,41
1095,41
1096,41
1097,41
1098,41
1099,41
1100,41
1101,41
1102,41
1103,41
1104,41
1105,41
1106,41
1107,41
1108,41
1109,41
1110,41
1111,41
1112,41
1113,41
1114,42
1115,42
1116,43
1117,43
1118,43
1119,43
1120,43
1121,43
1122,43
1123,43
1124,43
1125,44
1126,44
1127,44
1128,44
1129,44
1130,44
1131,44
1132,44
1133,44
1134,44
1135,44
1136,44
1137,44
1138,44
1139,44
1140,44
1141,44
1142,44
1143,44
1144,44
1145,44
1146,44
1147,44
1148,44
1149,44
1150,44
1151,44
1152,44
1153,44
1154,44
1155,44
1156,44
1157,44
1158,44
1159,44
1160,44
1161,44
1162,44
1163,44
1164,44
1165,44
1166,44
1167,44
1168,44
1169,44
1170,44
1171,44
1172,44
1173,44
1174,44
1175,45
1176,46
1177,46
1178,46
1179,46
1180,46
1181,46
1182,47
1183,47
1184,47
1185,47
1186,47
1187,48
1188,48
1189,48
1190,49
1191,49
1192,49
1193,49
1194,49
1195,49
1196,49
1197,49
1198,49
1199,49
1200,49
1201,49
1202,49
1203,49
1204,49
1205,49
1206,50
1207,50
1208,50
1209,50
1210,50
1211,50
1212,50
1213,51
1214,51
1215,51
1216,51
1217,51
1218,51
1219,51
1220,52
1221,52
1222,52
1223,52
1224,52
1225,52
1226,52
1227,52
1228,52
1229,52
1230,52
1231,52
1232,52
1233,52
1234,52
1235,52
1236,52
1237,52
1238,52
1239,52
1240,52
1241,52
1242,52
1243,52
1244,52
1245,52
1246,52
1247,52
1248,52
1249,52
1250,52
1251,52
1252,52
1253,52
1254,52
1255,52
1256,52
1257,52
1258,52
1259,52
1260,52
1261,52
1262,52
1263,52
1264,52
1265,52
1266,52
1267,52
1268,52
1269,52
1270,52
1271,52
1272,52
1273,52
1274,52
1275,52
1276,52
1277,52
1278,52
1279,52
1280,52
1281,52
1282,52
1283,52
1284,52
1285,52
1286,52
1287,52
1288,52
1289,52
1290,52
1291,52
1292,52
1293,52
1294,52
1295,52
1296,52
1297,52
1298,52
1299,52
1300,52
1301,52
1302,52
1303,52
1304,52
1305,52
1306,52
1307,52
1308,52
1309,52
1310,52
1311,52
1312,52
1313,52
1314,52
1315,52
1316,52
1317,52
1318,52
1319,52
1320,52
1321,52
1322,52
1323,52
1324,52
1325,52
1326,52
1327,52
1328,52
1329,52
1330,52
1331,52
1332,52
1333,52
1334,52
1335,52
1336,52
1337,52
1338,52
1339,52
1340,52
1341,52
1342,52
1343,52
1344,52
1345,52
1346,52
1347,52
1348,52
1349,52
1350,52
1351,52
1352,52
1353,52
1354,53
1355,53
1356,53
1357,53
1358,53
1359,53
1360,53
1361,53
1362,53
1363,53
1364,53
1365,53
1366,53
1367,53
1368,53
1369,53
1370,53
1371,53
1372,53
1373,53
1374,53
1375,53
1376,53
1377,53
1378,53
1379,53
1380,53
1381,53
1382,53
1383,53
1384,53
1385,53
1386,53
1387,53
1388,53
1389,53
1390,53
1391,53
1392,53
1393,53
1394,53
1395,53
1396,53
1397,53
1398,53
1399,53
1400,53
1401,53
1402,53
1403,53
1404,53
1405,54
1406,54
1407,54
1408,54
1409,54
1410,54
1411,54
1412,54
1413,54
1414,55
1415,55
1416,55
1417,55
1418,55
1419,55
1420,55
1421,55
1422,55
1423,55
1424,55
1425,55
1426,55
1427,55
1428,55
1429,55
1430,55
1431,55
1432,55
1433,55
1434,55
1435,55
1436,55
1437,55
1438,55
1439,55
1440,55
1441,55
1442,55
1443,55
1444,55
1445,55
1446,55
1447,56
1448,56
1449,56
1450,56
1451,56
1452,57
1453,57
1454,57
1455,57
1456,58
1457,58
1458,58
1459,58
1460,58
1461,58
1462,58
1463,58
1464,58
1465,58
1466,58
1467,59
1468,59
1469,60
1470,60
1471,60
1472,60
1473,60
1474,61
1475,61
1476,62
1477,62
1478,62
1479,62
1480,62
1481,62
1482,62
1483,62
1484,62
1485,62
1486,63
1487,63
1488,63
1489,63
1490,63
1491,64
1492,64
1493,64
1494,64
1495,64
1496,64
1497,64
1498,65
1499,65
1500,65
1501,65
1502,65
1503,65
1504,65
1505,65
1506,65
1507,65
1508,65
1509,65
1510,65
1511,65
1512,65
1513,65
1514,65
1515,65
1516,67
1517,67
1518,67
1519,68
1520,68
1521,68
1522,68
1523,68
1524,68
1525,68
1526,69
1527,69
1528,69
1529,69
1530,69
1531,69
1532,69
1533,70
1534,70
1535,70
1536,70
1537,70
1538,70
1539,70
1540,70
1541,70
1542,70
1543,70
1544,70
1545,70
1546,70
1547,70
1548,70
1549,70
1550,70
1551,70
1552,70
1553,71
1554,71
1555,71
1556,71
1557,71
1558,71
1559,72
1560,73
1561,73
1562,73
1563,73
1564,73
1565,73
1566,73
1567,74
1568,74
1569,74
1570,74
1571,74
1572,74
1573,74
1574,74
1575,74
1576,74
1577,74
1578,74
1579,74
1580,74
1581,74
1582,74
1583,74
1584,74
1585,74
1586,74
1587,74
1588,74
1589,74
1590,74
1591,74
1592,74
1593,74
1594,74
1595,74
1596,74
1597,74
1598,74
1599,74
1600,74
1601,74
1602,74
1603,74
1604,74
1605,74
1606,74
1607,74
1608,74
1609,74
1610,75
1611,75
1612,76
1613,76
1614,76
1615,76
1616,77
1617,77
1618,77
1619,77
1620,77
1621,77
1622,77
1623,77
1624,77
1625,77
1626,77
1627,77
1628,77
1629,77
1630,78
1631,78
1632,78
1633,78
1634,78
1635,78
1636,78
1637,78
1638,78
1639,78
1640,78
1641,78
1642,78
1643,79
1644,79
1645,79
1646,79
1647,79
1648,79
1649,79
1650,79
1651,79
1652,79
1653,79
1654,79
1655,79
1656,79
1657,79
1658,79
1659,80
1660,80
1661,80
1662,80
1663,80
1664,80
1665,80
1666,80
1667,80
1668,80
1669,80
1670,80
1671,81
1672,81
1673,81
1674,81
1675,81
1676,81
1677,81
1678,81
1679,81
1680,82
1681,82
1682,82
1683,82
1684,82
1685,82
1686,82
1687,82
1688,82
1689,82
1690,82
1691,82
1692,82
1693,82
1694,82
1695,82
1696,82
1697,82
1698,82
1699,82
1700,83
1701,83
1702,83
1703,83
1704,83
1705,83
1706,83
1707,83
1708,83
1709,83
1710,83
1711,83
1712,83
1713,83
1714,83
1715,83
1716,83
1717,83
1718,83
1719,83
1720,83
1721,83
1722,83
1723,83
1724,83
1725,83
1726,83
1727,83
1728,83
1729,83
1730,83
1731,83
1732,83
1733,83
1734,83
1735,84
1736,84
1737,84
1738,84
1739,84
1740,84
1741,84
1742,84
1743,84
1744,84
1745,84
1746,84
1747,84
1748,84
1749,84
1750,84
1751,84
1752,84
1753,85
1754,85
1755,85
1756,85
1757,85
1758,85
1759,85
1760,85
1761,85
1762,85
1763,85
1764,85
1765,85
1766,85
1767,85
1768,85
1769,85
1770,85
1771,85
1772,85
1773,85
1774,85
1775,85
1776,85
1777,85
1778,85
1779,85
1780,85
1781,85
1782,86
1783,86
1784,86
1785,86
1786,86
1787,86
1788,86
1789,86
1790,86
1791,86
1792,86
1793,87
1794,87
1795,87
1796,87
1797,87
1798,87
1799,87
1800,87
1801,87
1802,87
1803,87
1804,87
1805,87
1806,87
1807,87
1808,87
1809,87
1810,87
1811,87
1812,87
1813,87
1814,87
1815,87
1816,87
1817,87
1818,87
1819,87
1820,87
1821,87
1822,87
1823,87
1824,87
1825,87
1826,87
1827,87
1828,87
1829,87
1830,87
1831,87
1832,87
1833,87
1834,87
1835,87
1836,87
1837,87
1838,87
1839,87
1840,87
1841,87
1842,87
1843,87
1844,87
1845,87
1846,87
1847,87
1848,87
1849,87
1850,87
1851,87
1852,87
1853,87
1854,87
1855,87
1856,87
1857,87
1858,87
1859,87
1860,87
1861,87
1862,87
1863,87
1864,87
1865,87
1866,87
1867,87
1868,87
1869,88
1870,88
1871,88
1872,88
1873,88
1874,88
1875,88
1876,88
1877,88
1878,88
1879,88
1880,88
1881,88
1882,88
1883,88
1884,88
1885,88
1886,88
1887,88
1888,88
1889,88
1890,88
1891,88
1892,88
1893,88
1894,88
1895,88
1896,88
1897,88
1898,88
1899,88
1900,88
1901,88
1902,88
1903,88
1904,88
1905,88
1906,88
1907,88
1908,88
1909,88
1910,88
1911,88
1912,88
1913,88
1914,88
1915,88
1916,88
1917,89
1918,89
1919,89
1920,89
1921,89
1922,89
1923,89
1924,89
1925,89
1926,89
1927,89
1928,89
1929,89
1930,89
1931,89
1932,89
1933,89
1934,90
1935,90
1936,90
1937,90
1938,90
1939,90
1940,90
1941,90
1942,90
1943,90
1944,90
1945,90
1946,90
1947,90
1948,90
1949,90
1950,90
1951,90
1952,90
1953,90
1954,90
1955,90
1956,90
1957,90
1958,90
1959,90
1960,90
1961,90
1962,90
1963,90
1964,90
1965,90
1966,91
1967,91
1968,91
1969,91
1970,91
1971,91
1972,91
1973,92
1974,92
1975,92
1976,92
1977,92
1978,92
1979,92
1980,92
1981,92
1982,92
1983,92
1984,92
1985,92
1986,92
1987,92
1988,93
1989,93
1990,93
1991,93
1992,93
1993,93
1994,93
1995,94
1996,94
1997,94
1998,94
1999,94
2000,95
