"tick","total"
0,0
1,0
2,0
3,0
4,0
5,0
6,0
7,0
8,0
9,0
10,0
11,0
12,0
13,0
14,0
15,0
16,0
17,0
18,0
19,0
20,0
21,0
22,0
23,0
24,0
25,0
26,0
27,0
28,0
29,0
30,0
31,0
32,0
33,0
34,0
35,0
36,0
37,0
38,0
39,0
40,0
41,0
42,0
43,0
44,0
45,0
46,0
47,0
48,0
49,0
50,0
51,0
52,0
53,0
54,0
55,0
56,0
57,0
58,0
59,0
60,0
61,0
62,0
63,0
64,0
65,0
66,0
67,0
68,0
69,0
70,0
71,0
72,0
73,0
74,0
75,0
76,0
77,0
78,0
79,0
80,0
81,0
82,0
83,0
84,0
85,0
86,0
87,0
88,0
89,0
90,0
91,0
92,0
93,0
94,0
95,0
96,0
97,0
98,0
99,0
100,0
101,0
102,0
103,0
104,0
105,0
106,0
107,0
108,0
109,0
110,0
111,0
112,0
113,0
114,0
115,0
116,0
117,0
118,0
119,0
120,0
121,0
122,0
123,0
124,0
125,0
126,0
127,0
128,0
129,0
130,0
131,0
132,0
133,1
134,1
135,1
136,1
137,1
138,1
139,1
140,1
141,1
142,1
143,1
144,1
145,1
146,1
147,1
148,1
149,1
150,1
151,1
152,1
153,1
154,1
155,1
156,1
157,1
158,1
159,1
160,1
161,1
162,1
163,1
164,1
165,1
166,1
167,1
168,1
169,1
170,1
171,1
172,1
173,1
174,1
175,1
176,1
177,1
178,1
179,1
180,1
181,1
182,1
183,1
184,1
185,1
186,1
187,1
188,1
189,1
190,1
191,1
192,1
193,1
194,1
195,1
196,1
197,1
198,1
199,1
200,1
201,1
202,1
203,1
204,1
205,1
206,1
207,1
208,1
209,1
210,1
211,1
212,1
213,1
214,1
215,1
216,1
217,1
218,1
219,1
220,1
221,1
222,1
223,1
224,1
225,2
226,2
227,2
228,2
229,2
230,2
231,2
232,3
233,3
234,3
235,3
236,3
237,3
238,3
239,3
240,3
241,3
242,3
243,3
244,3
245,3
246,3
247,3
248,3
249,3
250,3
251,3
252,3
253,3
254,3
255,3
256,3
257,3
258,3
259,3
260,3
261,3
262,3
263,3
264,3
265,3
266,3
267,3
268,3
269,3
270,3
271,3
272,6
273,6
274,6
275,6
276,7
277,7
278,8
279,8
280,8
281,8
282,8
283,8
284,8
285,8
286,8
287,8
288,8
289,8
290,8
291,8
292,8
293,8
294,8
295,8
296,9
297,10
298,10
299,10
300,11
301,11
302,11
303,11
304,11
305,12
306,12
307,12
308,12
309,12
310,12
311,12
312,12
313,13
314,13
315,13
316,13
317,13
318,13
319,13
320,13
321,13
322,13
323,13
324,13
325,13
326,13
327,13
328,13
329,13
330,13
331,14
332,16
333,16
334,16
335,16
336,16
337,16
338,16
339,16
340,16
341,16
342,16
343,16
344,16
345,16
346,16
347,16
348,16
349,16
350,16
351,18
352,18
353,18
354,18
355,18
356,18
357,18
358,18
359,18
360,18
361,18
362,18
363,18
364,18
365,18
366,18
367,18
368,18
369,18
370,18
371,18
372,18
373,18
374,18
375,18
376,18
377,18
378,18
379,18
380,18
381,18
382,18
383,18
384,18
385,18
386,18
387,18
388,18
389,18
390,18
391,18
392,18
393,18
394,18
395,18
396,18
397,18
398,18
399,18
400,18
401,18
402,18
403,18
404,18
405,18
406,18
407,18
408,18
409,18
410,18
411,18
412,18
413,18
414,18
415,18
416,18
417,18
418,18
419,18
420,18
421,18
422,18
423,18
424,18
425,18
426,18
427,19
428,19
429,19
430,19
431,19
432,19
433,19
434,19
435,19
436,19
437,19
438,19
439,19
440,19
441,20
442,20
443,20
444,20
445,20
446,20
447,20
448,20
449,20
450,20
451,20
452,20
453,21
454,21
455,21
456,21
457,21
458,21
459,21
460,21
461,21
462,21
463,21
464,21
465,21
466,21
467,21
468,21
469,21
470,21
471,21
472,21
473,21
474,21
475,21
476,21
477,21
478,21
479,21
480,21
481,21
482,21
483,21
484,21
485,21
486,21
487,21
488,21
489,21
490,21
491,21
492,21
493,21
494,21
495,21
496,21
497,21
498,21
499,21
500,21
501,21
502,21
503,21
504,21
505,21
506,21
507,21
508,21
509,21
510,21
511,21
512,21
513,21
514,21
515,21
516,21
517,21
518,21
519,21
520,21
521,21
522,21
523,21
524,21
525,21
526,21
527,21
528,21
529,21
530,21
531,21
532,21
533,21
534,21
535,21
536,21
537,21
538,21
539,21
540,21
541,21
542,21
543,21
544,21
545,21
546,21
547,21
548,21
549,21
550,21
551,21
552,21
553,21
554,21
555,21
556,21
557,21
558,21
559,21
560,21
561,21
562,21
563,21
564,21
565,21
566,21
567,21
568,21
569,21
570,21
571,21
572,21
573,21
574,21
575,21
576,21
577,21
578,21
579,21
580,21
581,21
582,21
583,21
584,21
585,21
586,21
587,21
588,21
589,21
590,21
591,21
592,21
593,21
594,21
595,21
596,21
597,21
598,21
599,21
600,21
601,21
602,21
603,21
604,21
605,21
606,21
607,21
608,21
609,21
610,21
611,21
612,21
613,21
614,21
615,21
616,21
617,21
618,21
619,21
620,21
621,21
622,21
623,21
624,21
625,21
626,21
627,21
628,21
629,21
630,21
631,21
632,21
633,21
634,22
635,22
636,22
637,22
638,22
639,22
640,22
641,22
642,22
643,22
644,22
645,22
646,22
647,22
648,22
649,22
650,22
651,22
652,22
653,22
654,22
655,22
656,22
657,22
658,22
659,22
660,22
661,22
662,22
663,22
664,22
665,22
666,22
667,22
668,22
669,22
670,22
671,22
672,22
673,22
674,22
675,22
676,22
677,22
678,22
679,22
680,22
681,22
682,22
683,22
684,22
685,23
686,23
687,23
688,23
689,23
690,23
691,23
692,23
693,23
694,23
695,23
696,23
697,23
698,23
699,23
700,23
701,23
702,23
703,23
704,23
705,23
706,23
707,23
708,23
709,23
710,23
711,23
712,23
713,23
714,23
715,23
716,23
717,23
718,23
719,23
720,23
721,23
722,23
723,24
724,24
725,24
726,24
727,24
728,24
729,24
730,24
731,24
732,24
733,24
734,24
735,24
736,24
737,25
738,26
739,26
740,27
741,27
742,27
743,27
744,27
745,27
746,27
747,28
748,28
749,29
750,29
751,29
752,29
753,29
754,29
755,29
756,29
757,29
758,29
759,29
760,29
761,29
762,29
763,29
764,29
765,29
766,29
767,29
768,29
769,29
770,29
771,29
772,29
773,29
774,29
775,29
776,29
777,29
778,29
779,29
780,29
781,29
782,29
783,29
784,29
785,29
786,29
787,30
788,30
789,30
790,31
791,31
792,32
793,32
794,32
795,32
796,32
797,32
798,32
799,32
800,32
801,32
802,32
803,32
804,32
805,32
806,32
807,32
808,32
809,32
810,32
811,32
812,32
813,32
814,32
815,32
816,32
817,32
818,32
819,32
820,32
821,32
822,32
823,32
824,32
825,32
826,32
827,32
828,32
829,32
830,32
831,32
832,32
833,32
834,32
835,32
836,32
837,32
838,32
839,32
840,32
841,32
842,32
843,32
844,32
845,32
846,32
847,33
848,33
849,33
850,33
851,33
852,33
853,34
854,35
855,35
856,35
857,35
858,35
859,35
860,35
861,35
862,35
863,35
864,35
865,35
866,35
867,36
868,37
869,38
870,38
871,38
872,38
873,38
874,38
875,38
876,38
877,38
878,38
879,38
880,38
881,38
882,38
883,38
884,38
885,38
886,38
887,38
888,38
889,38
890,39
891,39
892,39
893,39
894,39
895,40
896,41
897,41
898,41
899,41
900,41
901,41
902,41
903,41
904,41
905,41
906,41
907,41
908,41
909,41
910,41
911,41
912,41
913,41
914,41
915,41
916,41
917,41
918,41
919,41
920,41
921,41
922,41
923,41
924,41
925,41
926,41
927,41
928,41
929,41
930,41
931,41
932,41
933,41
934,41
935,41
936,41
937,41
938,41
939,41
940,41
941,41
942,41
943,41
944,41
945,41
946,41
947,41
948,42
949,42
950,42
951,42
952,42
953,42
954,42
955,42
956,42
957,42
958,42
959,42
960,42
961,42
962,42
963,42
964,42
965,42
966,42
967,42
968,42
969,42
970,43
971,43
972,43
973,43
974,43
975,43
976,43
977,43
978,43
979,43
980,43
981,43
982,43
983,43
984,43
985,43
986,43
987,43
988,43
989,43
990,43
991,43
992,43
993,43
994,43
995,43
996,43
997,43
998,43
999,43
1000,43
1001,43
1002,43
1003,43
1004,43
1005,43
1006,43
1007,43
1008,43
1009,43
1010,43
1011,43
1012,43
1013,43
1014,43
1015,43
1016,43
1017,43
1018,43
1019,43
1020,43
1021,43
1022,43
1023,43
1024,43
1025,43
1026,43
1027,43
1028,43
1029,43
1030,43
1031,43
1032,43
1033,43
1034,43
1035,43
1036,43
1037,43
1038,43
1039,43
1040,43
1041,43
1042,43
1043,43
1044,43
1045,43
1046,43
1047,43
1048,44
1049,44
1050,44
1051,44
1052,44
1053,44
1054,44
1055,44
1056,45
1057,45
1058,45
1059,45
1060,45
1061,46
1062,46
1063,46
1064,46
1065,46
1066,46
1067,46
1068,47
1069,47
1070,48
1071,48
1072,48
1073,48
1074,48
1075,48
1076,48
1077,48
1078,48
1079,48
1080,48
1081,48
1082,48
1083,48
1084,48
1085,48
1086,48
1087,49
1088,49
1089,49
1090,49
1091,49
1092,49
1093,49
1094,49
1095,49
1096,49
1097,49
1098,49
1099,49
1100,49
1101,49
1102,49
1103,49
1104,49
1105,49
1106,49
1107,49
1108,49
1109,49
1110,49
1111,49
1112,49
1113,49
1114,49
1115,49
1116,49
1117,49
1118,49
1119,49
1120,49
1121,49
1122,49
1123,49
1124,49
1125,49
1126,49
1127,49
1128,49
1129,49
1130,50
1131,50
1132,50
1133,50
1134,50
1135,50
1136,50
1137,50
1138,50
1139,50
1140,50
1141,50
1142,50
1143,50
1144,50
1145,50
1146,50
1147,50
1148,50
1149,50
1150,50
1151,50
1152,50
1153,50
1154,50
1155,50
1156,50
1157,50
1158,50
1159,50
1160,50
1161,50
1162,50
1163,50
1164,50
1165,50
1166,50
1167,50
1168,50
1169,50
1170,50
1171,50
1172,50
1173,50
1174,50
1175,50
1176,50
1177,50
1178,50
1179,50
1180,50
1181,50
1182,50
1183,50
1184,50
1185,50
1186,50
1187,50
1188,50
1189,50
1190,50
1191,50
1192,50
1193,50
1194,50
1195,50
1196,50
1197,50
1198,50
1199,50
1200,50
1201,50
1202,50
1203,50
1204,50
1205,50
1206,50
1207,50
1208,50
1209,50
1210,50
1211,50
1212,50
1213,50
1214,50
1215,50
1216,50
1217,50
1218,50
1219,50
1220,50
1221,51
1222,51
1223,51
1224,51
1225,51
1226,51
1227,51
1228,51
1229,51
1230,51
1231,51
1232,51
1233,51
1234,51
1235,51
1236,51
1237,51
1238,51
1239,51
1240,51
1241,51
1242,51
1243,51
1244,51
1245,51
1246,51
1247,51
1248,51
1249,51
1250,51
1251,51
1252,51
1253,51
1254,51
1255,51
1256,51
1257,51
1258,51
1259,51
1260,51
1261,51
1262,51
1263,51
1264,51
1265,51
1266,51
1267,51
1268,51
1269,51
1270,51
1271,51
1272,51
1273,51
1274,51
1275,51
1276,51
1277,51
1278,51
1279,51
1280,51
1281,51
1282,51
1283,51
1284,51
1285,52
1286,52
1287,52
1288,52
1289,52
1290,52
1291,52
1292,52
1293,52
1294,52
1295,52
1296,52
1297,52
1298,52
1299,52
1300,52
1301,52
1302,52
1303,52
1304,52
1305,52
1306,52
1307,52
1308,52
1309,52
1310,52
1311,52
1312,52
1313,52
1314,52
1315,52
1316,52
1317,52
1318,52
1319,52
1320,52
1321,52
1322,52
1323,52
1324,52
1325,52
1326,52
1327,52
1328,52
1329,52
1330,52
1331,53
1332,53
1333,53
1334,53
1335,53
1336,53
1337,53
1338,53
1339,53
1340,53
1341,53
1342,53
1343,53
1344,53
1345,53
1346,53
1347,53
1348,53
1349,53
1350,53
1351,53
1352,53
1353,53
1354,53
1355,53
1356,53
1357,53
1358,53
1359,53
1360,53
1361,53
1362,53
1363,53
1364,54
1365,54
1366,54
1367,54
1368,54
1369,54
1370,54
1371,54
1372,54
1373,54
1374,54
1375,55
1376,55
1377,55
1378,55
1379,55
1380,55
1381,55
1382,55
1383,55
1384,55
1385,55
1386,55
1387,55
1388,56
1389,56
1390,57
1391,57
1392,57
1393,57
1394,57
1395,57
1396,57
1397,57
1398,57
1399,58
1400,58
1401,58
1402,58
1403,58
1404,58
1405,58
1406,58
1407,58
1408,58
1409,58
1410,58
1411,58
1412,58
1413,58
1414,59
1415,59
1416,59
1417,59
1418,59
1419,59
1420,59
1421,59
1422,59
1423,59
1424,59
1425,59
1426,59
1427,60
1428,60
1429,60
1430,60
1431,60
1432,60
1433,60
1434,60
1435,60
1436,60
1437,60
1438,60
1439,60
1440,61
1441,61
1442,61
1443,61
1444,61
1445,61
1446,62
1447,62
1448,62
1449,62
1450,62
1451,62
1452,62
1453,62
1454,62
1455,62
1456,62
1457,62
1458,62
1459,62
1460,62
1461,62
1462,62
1463,62
1464,62
1465,62
1466,62
1467,62
1468,62
1469,62
1470,62
1471,62
1472,62
1473,62
1474,62
1475,62
1476,62
1477,63
1478,63
1479,63
1480,63
1481,63
1482,63
1483,63
1484,63
1485,63
1486,63
1487,63
1488,63
1489,63
1490,63
1491,63
1492,63
1493,63
1494,63
1495,63
1496,63
1497,63
1498,63
1499,63
1500,63
1501,63
1502,63
1503,63
1504,63
1505,63
1506,63
1507,63
1508,63
1509,63
1510,63
1511,63
1512,63
1513,63
1514,63
1515,63
1516,63
1517,63
1518,63
1519,66
1520,66
1521,66
1522,66
1523,66
1524,66
1525,66
1526,66
1527,66
1528,66
1529,66
1530,66
1531,66
1532,66
1533,66
1534,66
1535,66
1536,67
1537,67
1538,67
1539,67
1540,67
1541,67
1542,67
1543,67
1544,67
1545,67
1546,67
1547,67
1548,67
1549,67
1550,67
1551,67
1552,67
1553,67
1554,67
1555,67
1556,67
1557,67
1558,67
1559,68
1560,68
1561,68
1562,68
1563,68
1564,68
1565,68
1566,68
1567,68
1568,68
1569,68
1570,68
1571,68
1572,68
1573,68
1574,68
1575,68
1576,68
1577,68
1578,69
1579,69
1580,69
1581,69
1582,69
1583,69
1584,69
1585,69
1586,69
1587,69
1588,69
1589,69
1590,69
1591,69
1592,69
1593,69
1594,69
1595,69
1596,69
1597,69
1598,69
1599,69
1600,69
1601,69
1602,69
1603,69
1604,69
1605,69
1606,69
1607,69
1608,69
1609,69
1610,69
1611,69
1612,69
1613,69
1614,69
1615,69
1616,69
1617,69
1618,69
1619,69
1620,69
1621,69
1622,69
1623,69
1624,69
1625,69
1626,69
1627,69
1628,69
1629,69
1630,70
1631,70
1632,71
1633,71
1634,71
1635,72
1636,72
1637,72
1638,72
1639,72
1640,72
1641,72
1642,72
1643,72
1644,72
1645,72
1646,72
1647,72
1648,72
1649,72
1650,72
1651,73
1652,73
1653,73
1654,73
1655,73
1656,74
1657,74
1658,74
1659,74
1660,74
1661,74
1662,74
1663,74
1664,74
1665,74
1666,74
1667,74
1668,75
1669,75
1670,75
1671,75
1672,75
1673,75
1674,75
1675,75
1676,75
1677,75
1678,75
1679,75
1680,75
1681,75
1682,76
1683,76
1684,76
1685,76
1686,76
1687,76
1688,76
1689,76
1690,76
1691,76
1692,76
1693,76
1694,76
1695,76
1696,76
1697,77
1698,77
1699,77
1700,77
1701,77
1702,77
1703,77
1704,77
1705,77
1706,77
1707,77
1708,77
1709,77
1710,77
1711,77
1712,77
1713,77
1714,78
1715,78
1716,78
1717,78
1718,78
1719,78
1720,78
1721,78
1722,78
1723,78
1724,78
1725,78
1726,78
1727,78
1728,78
1729,78
1730,78
1731,78
1732,78
1733,78
1734,78
1735,78
1736,78
1737,78
1738,78
1739,78
1740,78
1741,78
1742,78
1743,78
1744,78
1745,78
1746,78
1747,78
1748,78
1749,78
1750,78
1751,78
1752,78
1753,78
1754,78
1755,78
1756,78
1757,78
1758,78
1759,79
1760,79
1761,79
1762,79
1763,79
1764,79
1765,79
1766,79
1767,79
1768,79
1769,79
1770,79
1771,79
1772,79
1773,79
1774,79
1775,79
1776,79
1777,79
1778,79
1779,79
1780,79
1781,79
1782,79
1783,79
1784,79
1785,79
1786,79
1787,79
1788,79
1789,79
1790,79
1791,79
1792,79
1793,79
1794,79
1795,79
1796,79
1797,79
1798,79
1799,79
1800,79
1801,79
1802,79
1803,79
1804,79
1805,79
1806,79
1807,80
1808,80
1809,80
1810,80
1811,80
1812,80
1813,80
1814,80
1815,80
1816,80
1817,80
1818,80
1819,80
1820,80
1821,80
1822,80
1823,80
1824,80
1825,80
1826,80
1827,80
1828,80
1829,80
1830,80
1831,80
1832,80
1833,80
1834,80
1835,80
1836,80
1837,80
1838,80
1839,80
1840,80
1841,80
1842,80
1843,80
1844,80
1845,80
1846,80
1847,80
1848,80
1849,80
1850,80
1851,80
1852,80
1853,80
1854,80
1855,80
1856,80
1857,80
1858,80
1859,80
1860,80
1861,80
1862,80
1863,80
1864,80
1865,80
1866,80
1867,80
1868,80
1869,80
1870,80
1871,80
1872,80
1873,80
1874,80
1875,80
1876,80
1877,80
1878,80
1879,80
1880,80
1881,80
1882,80
1883,80
1884,80
1885,80
1886,80
1887,80
1888,80
1889,80
1890,80
1891,80
1892,80
1893,80
1894,80
1895,80
1896,80
1897,80
1898,80
1899,80
1900,80
1901,80
1902,80
1903,80
1904,80
1905,80
1906,80
1907,80
1908,80
1909,80
1910,80
1911,80
1912,80
1913,80
1914,80
1915,80
1916,80
1917,80
1918,80
1919,80
1920,80
1921,81
1922,81
1923,81
1924,81
1925,81
1926,81
1927,81
1928,81
1929,82
1930,82
1931,82
1932,82
1933,82
1934,82
1935,82
1936,82
1937,82
1938,82
1939,82
1940,83
1941,83
1942,83
1943,83
1944,83
1945,83
1946,83
1947,83
1948,83
1949,83
1950,83
1951,83
1952,83
1953,83
1954,83
1955,83
1956,83
1957,83
1958,83
1959,83
1960,83
1961,83
1962,83
1963,83
1964,83
1965,83
1966,83
1967,83
1968,84
1969,85
1970,85
1971,85
1972,85
1973,85
1974,85
1975,85
1976,85
1977,86
1978,86
1979,86
1980,86
1981,86
1982,86
1983,86
1984,86
1985,86
1986,86
1987,86
1988,86
1989,86
1990,86
1991,86
1992,86
1993,86
1994,86
1995,86
1996,86
1997,86
1998,86
1999,86
2000,86
