"tick","total"
0,0
1,0
2,0
3,0
4,0
5,0
6,0
7,0
8,0
9,0
10,0
11,0
12,0
13,0
14,0
15,0
16,0
17,0
18,0
19,0
20,0
21,0
22,0
23,0
24,0
25,0
26,0
27,0
28,0
29,0
30,0
31,0
32,0
33,0
34,0
35,0
36,0
37,0
38,0
39,0
40,0
41,0
42,0
43,0
44,0
45,0
46,0
47,0
48,0
49,0
50,0
51,0
52,0
53,0
54,0
55,0
56,0
57,0
58,0
59,0
60,0
61,0
62,0
63,0
64,0
65,0
66,0
67,0
68,0
69,0
70,0
71,0
72,0
73,0
74,0
75,0
76,0
77,0
78,0
79,0
80,0
81,0
82,0
83,0
84,0
85,0
86,0
87,0
88,0
89,0
90,0
91,0
92,0
93,0
94,0
95,0
96,0
97,0
98,0
99,0
100,0
101,0
102,0
103,0
104,0
105,0
106,0
107,0
108,0
109,0
110,0
111,0
112,0
113,0
114,0
115,0
116,0
117,0
118,0
119,0
120,0
121,0
122,0
123,0
124,0
125,0
126,0
127,0
128,0
129,0
130,0
131,0
132,0
133,0
134,0
135,0
136,0
137,0
138,0
139,0
140,0
141,0
142,0
143,0
144,0
145,0
146,0
147,0
148,0
149,0
150,0
151,0
152,0
153,0
154,0
155,0
156,0
157,0
158,0
159,0
160,0
161,0
162,0
163,0
164,0
165,0
166,0
167,0
168,0
169,0
170,0
171,0
172,0
173,0
174,0
175,0
176,0
177,0
178,0
179,0
180,0
181,0
182,0
183,0
184,0
185,0
186,0
187,0
188,0
189,0
190,0
191,0
192,0
193,0
194,0
195,0
196,0
197,0
198,0
199,0
200,0
201,0
202,0
203,0
204,0
205,0
206,0
207,0
208,0
209,0
210,0
211,0
212,0
213,0
214,0
215,0
216,0
217,0
218,0
219,0
220,0
221,0
222,0
223,1
224,1
225,1
226,1
227,1
228,2
229,2
230,2
231,2
232,2
233,3
234,3
235,3
236,3
237,3
238,3
239,3
240,3
241,3
242,3
243,3
244,3
245,3
246,4
247,5
248,5
249,5
250,5
251,5
252,5
253,5
254,5
255,5
256,5
257,5
258,5
259,5
260,5
261,5
262,5
263,5
264,7
265,7
266,7
267,7
268,7
269,8
270,8
271,8
272,8
273,8
274,8
275,8
276,8
277,8
278,8
279,8
280,8
281,8
282,8
283,8
284,8
285,8
286,8
287,9
288,9
289,9
290,9
291,9
292,9
293,9
294,9
295,9
296,9
297,9
298,9
299,9
300,9
301,9
302,9
303,9
304,9
305,9
306,9
307,9
308,10
309,10
310,10
311,10
312,10
313,10
314,10
315,10
316,10
317,12
318,12
319,13
320,13
321,13
322,13
323,13
324,14
325,14
326,14
327,14
328,14
329,14
330,15
331,15
332,15
333,16
334,16
335,18
336,18
337,19
338,19
339,19
340,19
341,19
342,19
343,19
344,19
345,19
346,20
347,20
348,20
349,20
350,20
351,20
352,20
353,20
354,20
355,20
356,20
357,20
358,20
359,20
360,20
361,20
362,21
363,21
364,21
365,22
366,22
367,22
368,22
369,22
370,22
371,22
372,22
373,22
374,22
375,22
376,22
377,22
378,22
379,22
380,22
381,22
382,22
383,22
384,22
385,22
386,22
387,22
388,22
389,22
390,22
391,23
392,23
393,23
394,23
395,23
396,23
397,23
398,23
399,23
400,23
401,23
402,23
403,23
404,23
405,23
406,23
407,23
408,23
409,23
410,23
411,23
412,23
413,23
414,23
415,23
416,23
417,23
418,23
419,23
420,24
421,24
422,24
423,24
424,24
425,24
426,24
427,24
428,24
429,25
430,25
431,25
432,25
433,25
434,25
435,25
436,25
437,25
438,25
439,25
440,25
441,25
442,25
443,25
444,25
445,25
446,25
447,25
448,25
449,25
450,26
451,26
452,26
453,26
454,26
455,26
456,26
457,26
458,26
459,26
460,26
461,26
462,26
463,26
464,26
465,26
466,26
467,26
468,26
469,26
470,26
471,26
472,26
473,26
474,26
475,26
476,26
477,27
478,27
479,27
480,27
481,27
482,27
483,27
484,27
485,27
486,27
487,27
488,27
489,27
490,27
491,28
492,28
493,29
494,29
495,29
496,29
497,29
498,30
499,30
500,31
501,31
502,31
503,31
504,32
505,32
506,32
507,32
508,32
509,32
510,32
511,32
512,32
513,32
514,32
515,32
516,32
517,32
518,32
519,32
520,32
521,33
522,33
523,33
524,33
525,33
526,33
527,34
528,34
529,34
530,34
531,34
532,34
533,34
534,34
535,34
536,34
537,34
538,34
539,34
540,34
541,34
542,34
543,34
544,34
545,35
546,35
547,35
548,35
549,35
550,35
551,35
552,35
553,35
554,35
555,36
556,36
557,36
558,36
559,36
560,36
561,36
562,36
563,36
564,36
565,36
566,36
567,36
568,36
569,36
570,36
571,36
572,36
573,36
574,36
575,36
576,36
577,36
578,36
579,36
580,36
581,36
582,36
583,36
584,36
585,36
586,36
587,36
588,37
589,37
590,37
591,37
592,37
593,37
594,37
595,37
596,38
597,38
598,38
599,38
600,38
601,38
602,39
603,39
604,39
605,39
606,39
607,39
608,39
609,39
610,39
611,39
612,39
613,39
614,39
615,39
616,39
617,39
618,39
619,39
620,39
621,40
622,41
623,41
624,41
625,41
626,41
627,41
628,41
629,41
630,41
631,41
632,41
633,41
634,41
635,41
636,41
637,41
638,41
639,41
640,41
641,41
642,43
643,43
644,43
645,43
646,43
647,43
648,43
649,43
650,43
651,43
652,43
653,43
654,43
655,43
656,43
657,43
658,44
659,44
660,44
661,44
662,44
663,44
664,44
665,44
666,44
667,44
668,44
669,44
670,44
671,44
672,44
673,44
674,44
675,44
676,44
677,44
678,44
679,44
680,44
681,44
682,44
683,44
684,44
685,44
686,44
687,44
688,44
689,44
690,44
691,44
692,44
693,44
694,44
695,44
696,44
697,44
698,44
699,44
700,44
701,44
702,44
703,44
704,44
705,44
706,44
707,44
708,44
709,44
710,44
711,44
712,44
713,44
714,44
715,44
716,44
717,44
718,44
719,44
720,44
721,44
722,44
723,44
724,45
725,45
726,45
727,45
728,45
729,45
730,45
731,45
732,45
733,45
734,45
735,45
736,45
737,45
738,45
739,45
740,45
741,45
742,45
743,45
744,45
745,45
746,45
747,45
748,45
749,46
750,46
751,46
752,46
753,46
754,47
755,48
756,48
757,48
758,48
759,48
760,48
761,48
762,48
763,48
764,48
765,48
766,48
767,48
768,48
769,48
770,48
771,49
772,49
773,49
774,49
775,49
776,50
777,50
778,51
779,51
780,51
781,51
782,52
783,52
784,52
785,52
786,52
787,52
788,52
789,52
790,52
791,52
792,52
793,52
794,52
795,52
796,52
797,52
798,52
799,52
800,52
801,52
802,52
803,52
804,52
805,52
806,52
807,52
808,52
809,52
810,52
811,52
812,52
813,52
814,52
815,52
816,52
817,52
818,52
819,52
820,52
821,52
822,52
823,52
824,52
825,52
826,52
827,52
828,52
829,52
830,52
831,52
832,52
833,52
834,52
835,52
836,52
837,52
838,52
839,52
840,52
841,52
842,52
843,53
844,53
845,53
846,53
847,53
848,53
849,53
850,53
851,53
852,53
853,53
854,53
855,53
856,53
857,53
858,53
859,53
860,53
861,53
862,53
863,54
864,54
865,54
866,54
867,54
868,54
869,54
870,54
871,54
872,54
873,54
874,54
875,54
876,54
877,54
878,54
879,55
880,55
881,55
882,55
883,55
884,55
885,55
886,55
887,55
888,55
889,55
890,55
891,55
892,55
893,56
894,56
895,56
896,56
897,56
898,57
899,57
900,57
901,58
902,58
903,58
904,58
905,58
906,58
907,58
908,58
909,58
910,58
911,58
912,58
913,58
914,58
915,58
916,58
917,58
918,58
919,58
920,58
921,58
922,58
923,58
924,58
925,59
926,59
927,59
928,59
929,59
930,59
931,59
932,59
933,59
934,59
935,59
936,59
937,59
938,59
939,59
940,59
941,59
942,59
943,59
944,59
945,59
946,59
947,59
948,59
949,59
950,59
951,59
952,59
953,59
954,59
955,59
956,59
957,59
958,59
959,59
960,59
961,59
962,59
963,59
964,59
965,59
966,59
967,59
968,59
969,59
970,59
971,59
972,60
973,60
974,60
975,60
976,61
977,61
978,61
979,61
980,61
981,61
982,61
983,61
984,61
985,61
986,61
987,61
988,61
989,61
990,61
991,61
992,61
993,61
994,61
995,61
996,61
997,61
998,61
999,61
1000,61
1001,62
1002,62
1003,62
1004,62
1005,62
1006,62
1007,62
1008,63
1009,63
1010,63
1011,63
1012,63
1013,63
1014,63
1015,63
1016,63
1017,64
1018,64
1019,64
1020,64
1021,64
1022,64
1023,64
1024,64
1025,64
1026,64
1027,64
1028,64
1029,64
1030,64
1031,64
1032,64
1033,64
1034,64
1035,64
1036,64
1037,64
1038,65
1039,65
1040,65
1041,65
1042,65
1043,65
1044,65
1045,65
1046,65
1047,65
1048,65
1049,65
1050,65
1051,65
1052,65
1053,65
1054,65
1055,65
1056,65
1057,65
1058,65
1059,65
1060,65
1061,65
1062,65
1063,65
1064,65
1065,65
1066,65
1067,65
1068,65
1069,65
1070,65
1071,65
1072,65
1073,65
1074,65
1075,65
1076,65
1077,65
1078,65
1079,65
1080,65
1081,65
1082,65
1083,65
1084,65
1085,65
1086,65
1087,65
1088,65
1089,65
1090,65
1091,65
1092,65
1093,65
1094,65
1095,65
1096,65
1097,65
1098,65
1099,65
1100,65
1101,65
1102,65
1103,65
1104,65
1105,65
1106,65
1107,65
1108,65
1109,65
1110,65
1111,65
1112,65
1113,65
1114,65
1115,65
1116,65
1117,65
1118,65
1119,65
1120,65
1121,65
1122,65
1123,65
1124,65
1125,65
1126,65
1127,65
1128,65
1129,65
1130,65
1131,65
1132,65
1133,65
1134,65
1135,65
1136,65
1137,65
1138,65
1139,65
1140,65
1141,65
1142,65
1143,65
1144,65
1145,65
1146,65
1147,65
1148,65
1149,65
1150,65
1151,65
1152,65
1153,65
1154,65
1155,65
1156,65
1157,65
1158,65
1159,65
1160,65
1161,65
1162,66
1163,66
1164,66
1165,66
1166,66
1167,66
1168,66
1169,66
1170,66
1171,66
1172,66
1173,66
1174,66
1175,66
1176,66
1177,66
1178,66
1179,66
1180,66
1181,66
1182,66
1183,66
1184,66
1185,66
1186,66
1187,66
1188,66
1189,66
1190,66
1191,67
1192,67
1193,67
1194,67
1195,67
1196,67
1197,67
1198,67
1199,67
1200,67
1201,67
1202,67
1203,67
1204,67
1205,67
1206,67
1207,67
1208,67
1209,67
1210,67
1211,67
1212,67
1213,67
1214,67
1215,67
1216,67
1217,67
1218,67
1219,67
1220,67
1221,67
1222,67
1223,67
1224,67
1225,67
1226,67
1227,67
1228,67
1229,67
1230,67
1231,67
1232,67
1233,67
1234,67
1235,67
1236,67
1237,67
1238,67
1239,67
1240,67
1241,67
1242,67
1243,67
1244,67
1245,67
1246,67
1247,67
1248,68
1249,68
1250,69
1251,69
1252,69
1253,69
1254,69
1255,69
1256,69
1257,69
1258,69
1259,69
1260,69
1261,69
1262,69
1263,69
1264,69
1265,69
1266,69
1267,69
1268,69
1269,69
1270,69
1271,69
1272,69
1273,69
1274,69
1275,69
1276,69
1277,69
1278,69
1279,69
1280,69
1281,69
1282,69
1283,69
1284,69
1285,69
1286,69
1287,69
1288,69
1289,69
1290,69
1291,69
1292,69
1293,69
1294,69
1295,69
1296,69
1297,69
1298,69
1299,69
1300,69
1301,69
1302,69
1303,69
1304,69
1305,69
1306,69
1307,69
1308,69
1309,69
1310,69
1311,69
1312,69
1313,69
1314,69
1315,69
1316,69
1317,69
1318,69
1319,69
1320,69
1321,69
1322,69
1323,69
1324,69
1325,70
1326,71
1327,72
1328,73
1329,74
1330,75
1331,76
1332,77
1333,78
1334,79
1335,79
1336,79
1337,79
1338,79
1339,79
1340,79
1341,79
1342,79
1343,79
1344,79
1345,79
1346,79
1347,79
1348,79
1349,79
1350,79
1351,79
1352,79
1353,79
1354,79
1355,79
1356,79
1357,79
1358,79
1359,79
1360,79
1361,79
1362,79
1363,79
1364,79
1365,79
1366,79
1367,79
1368,79
1369,79
1370,79
1371,79
1372,79
1373,79
1374,79
1375,79
1376,79
1377,79
1378,79
1379,79
1380,79
1381,79
1382,79
1383,79
1384,79
1385,79
1386,79
1387,79
1388,79
1389,79
1390,79
1391,79
1392,79
1393,79
1394,79
1395,79
1396,79
1397,79
1398,79
1399,79
1400,79
1401,79
1402,79
1403,80
1404,80
1405,80
1406,80
1407,80
1408,80
1409,80
1410,80
1411,80
1412,80
1413,80
1414,80
1415,80
1416,80
1417,80
1418,80
1419,80
1420,80
1421,80
1422,80
1423,80
1424,80
1425,80
1426,80
1427,80
1428,80
1429,80
1430,80
1431,80
1432,80
1433,80
1434,80
1435,80
1436,81
1437,81
1438,81
1439,81
1440,81
1441,81
1442,81
1443,81
1444,81
1445,81
1446,81
1447,81
1448,81
1449,81
1450,81
1451,81
1452,81
1453,81
1454,81
1455,82
1456,82
1457,82
1458,82
1459,82
1460,82
1461,82
1462,82
1463,82
1464,82
1465,82
1466,82
1467,82
1468,82
1469,82
1470,82
1471,82
1472,82
1473,82
1474,82
1475,82
1476,82
1477,82
1478,82
1479,82
1480,82
1481,83
1482,83
1483,83
1484,83
1485,83
1486,83
1487,83
1488,83
1489,83
1490,83
1491,83
1492,83
1493,83
1494,83
1495,84
1496,84
1497,84
1498,84
1499,84
1500,84
1501,84
1502,84
1503,84
1504,84
1505,84
1506,84
1507,84
1508,84
1509,84
1510,84
1511,84
1512,84
1513,84
1514,84
1515,84
1516,84
1517,84
1518,84
1519,84
1520,84
1521,84
1522,84
1523,84
1524,84
1525,84
1526,84
1527,84
1528,84
1529,84
1530,84
1531,84
1532,84
1533,84
1534,84
1535,84
1536,84
1537,84
1538,84
1539,84
1540,84
1541,84
1542,84
1543,84
1544,84
1545,84
1546,84
1547,84
1548,85
1549,85
1550,85
1551,85
1552,86
1553,86
1554,86
1555,86
1556,86
1557,87
1558,87
1559,87
1560,87
1561,87
1562,87
1563,87
1564,87
1565,87
1566,88
1567,88
1568,88
1569,88
1570,88
1571,88
1572,88
1573,88
1574,88
1575,88
1576,88
1577,88
1578,88
1579,88
1580,88
1581,88
1582,88
1583,88
1584,88
1585,88
1586,88
1587,88
1588,88
1589,88
1590,88
1591,88
1592,88
1593,88
1594,89
1595,89
1596,89
1597,89
1598,89
1599,89
1600,89
1601,89
1602,89
1603,89
1604,89
1605,89
1606,89
1607,89
1608,89
1609,89
1610,89
1611,90
1612,90
1613,90
1614,91
1615,91
1616,91
1617,91
1618,91
1619,91
1620,91
1621,91
1622,91
1623,91
1624,91
1625,91
1626,91
1627,91
1628,91
1629,91
1630,91
1631,91
1632,91
1633,91
1634,91
1635,91
1636,91
1637,91
1638,91
1639,91
1640,91
1641,92
1642,92
1643,92
1644,92
1645,92
1646,92
1647,92
1648,92
1649,92
1650,92
1651,92
1652,92
1653,92
1654,92
1655,92
1656,92
1657,92
1658,93
1659,93
1660,93
1661,93
1662,93
1663,93
1664,93
1665,93
1666,93
1667,93
1668,93
1669,93
1670,93
1671,93
1672,94
1673,94
1674,94
1675,94
1676,94
1677,94
1678,94
1679,94
1680,94
1681,94
1682,94
1683,94
1684,94
1685,94
1686,94
1687,94
1688,94
1689,94
1690,94
1691,94
1692,94
1693,94
1694,94
1695,94
1696,94
1697,94
1698,94
1699,94
1700,94
1701,94
1702,94
1703,94
1704,94
1705,94
1706,95
1707,95
1708,95
1709,95
1710,95
1711,95
1712,95
1713,95
1714,95
1715,95
1716,95
1717,95
1718,95
1719,95
1720,95
1721,95
1722,95
1723,95
1724,95
1725,95
1726,95
1727,95
1728,95
1729,95
1730,95
1731,95
1732,95
1733,95
1734,95
1735,95
1736,95
1737,95
1738,95
1739,95
1740,95
1741,95
1742,95
1743,96
1744,97
1745,97
1746,97
1747,97
1748,97
1749,97
1750,97
1751,97
1752,97
1753,97
1754,97
1755,97
1756,97
1757,97
1758,97
1759,97
1760,97
1761,97
1762,97
1763,97
1764,97
1765,97
1766,97
1767,97
1768,97
1769,98
1770,98
1771,98
1772,98
1773,98
1774,98
1775,98
1776,99
1777,99
1778,99
1779,99
1780,99
1781,99
1782,99
1783,99
1784,99
1785,99
1786,99
1787,99
1788,99
1789,99
1790,99
1791,99
1792,99
1793,99
1794,100
1795,100
1796,100
1797,100
1798,100
1799,101
1800,101
1801,101
1802,101
1803,101
1804,101
1805,101
1806,101
1807,101
1808,101
1809,101
1810,101
1811,101
1812,101
1813,101
1814,101
1815,101
1816,101
1817,102
1818,102
1819,102
1820,102
1821,102
1822,102
1823,102
1824,102
1825,102
1826,102
1827,102
1828,102
1829,102
1830,103
1831,103
1832,103
1833,103
1834,103
1835,103
1836,103
1837,103
1838,103
1839,103
1840,103
1841,103
1842,103
1843,103
1844,103
1845,103
1846,103
1847,103
1848,103
1849,103
1850,103
1851,103
1852,103
1853,103
1854,103
1855,103
1856,103
1857,103
1858,103
1859,103
1860,103
1861,103
1862,103
1863,103
1864,104
1865,104
1866,104
1867,104
1868,104
1869,104
1870,104
1871,104
1872,104
1873,104
1874,104
1875,104
1876,104
1877,104
1878,104
1879,104
1880,104
1881,104
1882,104
1883,104
1884,104
1885,104
1886,104
1887,104
1888,104
1889,104
1890,104
1891,104
1892,104
1893,104
1894,105
1895,105
1896,105
1897,105
1898,105
1899,105
1900,105
1901,105
1902,105
1903,105
1904,105
1905,105
1906,105
1907,105
1908,105
1909,105
1910,105
1911,106
1912,106
1913,106
1914,106
1915,106
1916,106
1917,107
1918,107
1919,107
1920,107
1921,107
1922,107
1923,107
1924,107
1925,107
1926,107
1927,107
1928,107
1929,107
1930,108
1931,108
1932,108
1933,108
1934,108
1935,108
1936,108
1937,108
1938,108
1939,108
1940,108
1941,108
1942,108
1943,109
1944,109
1945,109
1946,109
1947,109
1948,109
1949,109
1950,109
1951,109
1952,109
1953,110
1954,110
1955,111
1956,111
1957,111
1958,111
1959,112
1960,112
1961,112
1962,112
1963,112
1964,112
1965,112
1966,112
1967,112
1968,113
1969,113
1970,113
1971,113
1972,113
1973,113
1974,114
1975,114
1976,114
1977,114
1978,114
1979,114
1980,114
1981,114
1982,114
1983,114
1984,114
1985,114
1986,114
1987,114
1988,115
1989,115
1990,115
1991,115
1992,115
1993,115
1994,115
1995,115
1996,115
1997,115
1998,115
1999,115
2000,116
