"tick","total"
0,0
1,0
2,0
3,0
4,0
5,0
6,0
7,0
8,0
9,0
10,0
11,0
12,0
13,0
14,0
15,0
16,0
17,0
18,0
19,0
20,0
21,0
22,0
23,0
24,0
25,0
26,0
27,0
28,0
29,0
30,0
31,0
32,0
33,0
34,0
35,0
36,0
37,0
38,0
39,0
40,0
41,0
42,0
43,0
44,0
45,0
46,0
47,0
48,0
49,0
50,0
51,0
52,0
53,0
54,0
55,0
56,0
57,0
58,0
59,0
60,0
61,0
62,0
63,0
64,0
65,0
66,0
67,0
68,0
69,0
70,0
71,0
72,0
73,0
74,0
75,0
76,0
77,0
78,0
79,0
80,0
81,0
82,0
83,0
84,0
85,0
86,0
87,0
88,0
89,0
90,0
91,0
92,0
93,0
94,0
95,0
96,0
97,0
98,0
99,0
100,0
101,0
102,0
103,0
104,0
105,0
106,0
107,0
108,0
109,0
110,0
111,0
112,0
113,0
114,0
115,0
116,0
117,0
118,0
119,0
120,0
121,0
122,0
123,0
124,0
125,0
126,0
127,0
128,0
129,0
130,0
131,0
132,0
133,0
134,0
135,0
136,0
137,0
138,0
139,0
140,0
141,0
142,0
143,0
144,0
145,0
146,0
147,0
148,1
149,1
150,1
151,1
152,1
153,1
154,1
155,1
156,1
157,1
158,1
159,2
160,2
161,2
162,2
163,2
164,2
165,2
166,2
167,2
168,2
169,2
170,2
171,2
172,2
173,2
174,2
175,2
176,2
177,2
178,2
179,3
180,3
181,3
182,3
183,3
184,3
185,3
186,3
187,3
188,4
189,4
190,4
191,4
192,4
193,4
194,4
195,4
196,4
197,4
198,4
199,4
200,4
201,4
202,4
203,4
204,4
205,5
206,5
207,5
208,5
209,5
210,5
211,6
212,6
213,6
214,6
215,6
216,6
217,6
218,6
219,6
220,7
221,7
222,7
223,7
224,7
225,7
226,7
227,7
228,7
229,7
230,7
231,7
232,7
233,7
234,7
235,7
236,7
237,7
238,7
239,8
240,8
241,8
242,8
243,8
244,8
245,8
246,8
247,8
248,8
249,8
250,9
251,9
252,9
253,10
254,10
255,10
256,10
257,10
258,10
259,10
260,10
261,10
262,11
263,11
264,11
265,11
266,11
267,11
268,11
269,11
270,11
271,11
272,11
273,11
274,11
275,12
276,12
277,12
278,12
279,12
280,13
281,13
282,13
283,13
284,13
285,14
286,14
287,14
288,14
289,15
290,16
291,16
292,16
293,16
294,16
295,16
296,16
297,16
298,16
299,17
300,17
301,19
302,19
303,19
304,19
305,19
306,19
307,19
308,19
309,19
310,19
311,19
312,19
313,19
314,19
315,19
316,19
317,19
318,19
319,19
320,19
321,19
322,19
323,19
324,19
325,20
326,20
327,21
328,21
329,21
330,21
331,21
332,21
333,21
334,21
335,21
336,21
337,21
338,21
339,21
340,21
341,21
342,21
343,21
344,21
345,21
346,21
347,21
348,21
349,21
350,21
351,21
352,21
353,21
354,22
355,22
356,22
357,22
358,22
359,22
360,22
361,22
362,22
363,22
364,22
365,23
366,24
367,24
368,24
369,24
370,24
371,24
372,24
373,24
374,24
375,25
376,25
377,25
378,25
379,26
380,26
381,26
382,26
383,26
384,26
385,26
386,26
387,26
388,26
389,26
390,26
391,26
392,26
393,26
394,26
395,26
396,26
397,26
398,26
399,26
400,27
401,27
402,27
403,27
404,27
405,27
406,27
407,27
408,27
409,27
410,27
411,27
412,27
413,27
414,27
415,27
416,27
417,27
418,27
419,27
420,27
421,27
422,27
423,27
424,27
425,27
426,27
427,27
428,27
429,27
430,27
431,27
432,27
433,27
434,27
435,27
436,27
437,27
438,27
439,28
440,28
441,28
442,28
443,28
444,28
445,28
446,29
447,29
448,29
449,29
450,29
451,29
452,29
453,29
454,29
455,29
456,29
457,29
458,29
459,29
460,29
461,29
462,29
463,29
464,29
465,29
466,29
467,29
468,29
469,29
470,29
471,29
472,29
473,29
474,29
475,29
476,29
477,29
478,29
479,29
480,29
481,29
482,30
483,30
484,30
485,30
486,30
487,30
488,30
489,30
490,30
491,31
492,31
493,31
494,31
495,31
496,31
497,31
498,31
499,31
500,31
501,31
502,31
503,31
504,31
505,31
506,31
507,31
508,31
509,31
510,31
511,31
512,31
513,31
514,31
515,31
516,31
517,31
518,31
519,31
520,31
521,31
522,31
523,31
524,31
525,31
526,31
527,31
528,31
529,31
530,31
531,31
532,32
533,32
534,32
535,32
536,32
537,32
538,33
539,33
540,33
541,33
542,33
543,33
544,33
545,33
546,33
547,33
548,33
549,33
550,33
551,33
552,33
553,33
554,33
555,33
556,33
557,33
558,33
559,33
560,33
561,33
562,33
563,33
564,33
565,33
566,33
567,33
568,33
569,33
570,33
571,34
572,35
573,35
574,35
575,35
576,35
577,35
578,35
579,35
580,35
581,35
582,35
583,35
584,35
585,35
586,35
587,35
588,35
589,35
590,35
591,35
592,35
593,35
594,35
595,35
596,35
597,35
598,35
599,35
600,35
601,35
602,35
603,35
604,35
605,36
606,36
607,36
608,37
609,37
610,37
611,37
612,37
613,37
614,37
615,37
616,37
617,37
618,37
619,37
620,37
621,37
622,37
623,37
624,37
625,37
626,37
627,37
628,37
629,37
630,37
631,37
632,37
633,37
634,37
635,37
636,37
637,37
638,37
639,37
640,38
641,38
642,38
643,38
644,38
645,38
646,39
647,39
648,39
649,39
650,39
651,39
652,39
653,39
654,39
655,39
656,39
657,39
658,39
659,39
660,39
661,39
662,39
663,39
664,39
665,39
666,39
667,39
668,39
669,39
670,39
671,39
672,39
673,40
674,40
675,40
676,40
677,40
678,40
679,40
680,40
681,40
682,41
683,41
684,41
685,41
686,41
687,41
688,41
689,41
690,41
691,41
692,41
693,41
694,41
695,41
696,41
697,42
698,42
699,42
700,42
701,42
702,42
703,42
704,42
705,42
706,42
707,42
708,42
709,42
710,42
711,42
712,42
713,42
714,42
715,42
716,42
717,42
718,42
719,42
720,42
721,42
722,42
723,42
724,42
725,42
726,42
727,42
728,42
729,42
730,42
731,42
732,43
733,43
734,43
735,43
736,43
737,43
738,43
739,43
740,44
741,44
742,44
743,44
744,44
745,44
746,44
747,44
748,44
749,44
750,44
751,44
752,44
753,44
754,44
755,44
756,44
757,44
758,44
759,45
760,45
761,45
762,45
763,45
764,46
765,46
766,46
767,46
768,46
769,46
770,46
771,46
772,46
773,46
774,46
775,46
776,46
777,46
778,46
779,46
780,46
781,46
782,46
783,46
784,46
785,46
786,46
787,46
788,46
789,46
790,46
791,46
792,46
793,47
794,47
795,47
796,47
797,47
798,47
799,47
800,47
801,47
802,47
803,47
804,47
805,47
806,47
807,47
808,47
809,47
810,47
811,47
812,47
813,47
814,47
815,48
816,48
817,48
818,48
819,48
820,48
821,48
822,48
823,49
824,49
825,50
826,50
827,50
828,50
829,50
830,50
831,50
832,50
833,50
834,50
835,50
836,50
837,50
838,50
839,51
840,51
841,52
842,52
843,52
844,52
845,52
846,52
847,52
848,53
849,53
850,53
851,53
852,53
853,53
854,53
855,53
856,53
857,53
858,53
859,53
860,54
861,54
862,54
863,54
864,55
865,55
866,55
867,55
868,56
869,56
870,56
871,56
872,56
873,56
874,56
875,56
876,56
877,56
878,56
879,56
880,56
881,56
882,56
883,56
884,56
885,56
886,56
887,56
888,56
889,56
890,56
891,56
892,56
893,56
894,56
895,56
896,56
897,56
898,56
899,56
900,56
901,56
902,56
903,56
904,56
905,56
906,56
907,56
908,56
909,56
910,56
911,56
912,56
913,57
914,57
915,57
916,57
917,57
918,57
919,57
920,57
921,57
922,57
923,57
924,57
925,57
926,57
927,58
928,58
929,58
930,58
931,58
932,58
933,58
934,58
935,58
936,58
937,58
938,58
939,58
940,58
941,58
942,58
943,58
944,58
945,58
946,58
947,58
948,58
949,58
950,58
951,58
952,58
953,58
954,58
955,58
956,59
957,59
958,59
959,59
960,60
961,60
962,60
963,60
964,60
965,60
966,60
967,60
968,61
969,61
970,61
971,62
972,62
973,62
974,62
975,62
976,62
977,62
978,62
979,62
980,62
981,62
982,62
983,63
984,63
985,63
986,63
987,63
988,63
989,63
990,63
991,63
992,64
993,64
994,64
995,64
996,65
997,65
998,65
999,65
1000,65
1001,65
1002,65
1003,65
1004,65
1005,65
1006,65
1007,65
1008,65
1009,65
1010,65
1011,66
1012,67
1013,67
1014,67
1015,67
1016,67
1017,67
1018,67
1019,67
1020,67
1021,67
1022,67
1023,67
1024,67
1025,67
1026,67
1027,67
1028,67
1029,67
1030,67
1031,67
1032,67
1033,67
1034,67
1035,67
1036,67
1037,68
1038,68
1039,68
1040,68
1041,68
1042,68
1043,68
1044,68
1045,68
1046,68
1047,68
1048,68
1049,68
1050,68
1051,68
1052,68
1053,69
1054,69
1055,69
1056,69
1057,69
1058,69
1059,70
1060,70
1061,70
1062,70
1063,71
1064,71
1065,71
1066,71
1067,71
1068,71
1069,71
1070,71
1071,71
1072,71
1073,71
1074,71
1075,71
1076,71
1077,71
1078,71
1079,71
1080,71
1081,71
1082,71
1083,71
1084,71
1085,71
1086,71
1087,72
1088,72
1089,72
1090,72
1091,72
1092,72
1093,72
1094,72
1095,72
1096,72
1097,72
1098,72
1099,72
1100,72
1101,72
1102,72
1103,72
1104,72
1105,72
1106,72
1107,72
1108,72
1109,72
1110,72
1111,72
1112,72
1113,72
1114,72
1115,72
1116,72
1117,72
1118,72
1119,72
1120,72
1121,72
1122,72
1123,72
1124,72
1125,72
1126,72
1127,72
1128,72
1129,72
1130,72
1131,72
1132,72
1133,72
1134,72
1135,72
1136,72
1137,73
1138,73
1139,73
1140,73
1141,73
1142,73
1143,73
1144,73
1145,73
1146,73
1147,73
1148,73
1149,73
1150,74
1151,74
1152,74
1153,74
1154,74
1155,75
1156,75
1157,75
1158,75
1159,75
1160,75
1161,75
1162,75
1163,75
1164,75
1165,75
1166,75
1167,75
1168,75
1169,75
1170,75
1171,75
1172,75
1173,75
1174,75
1175,75
1176,75
1177,75
1178,75
1179,75
1180,75
1181,75
1182,75
1183,75
1184,75
1185,75
1186,75
1187,75
1188,75
1189,76
1190,76
1191,76
1192,76
1193,76
1194,76
1195,76
1196,76
1197,76
1198,77
1199,77
1200,77
1201,77
1202,77
1203,78
1204,78
1205,78
1206,78
1207,78
1208,78
1209,78
1210,78
1211,78
1212,78
1213,78
1214,78
1215,78
1216,78
1217,78
1218,78
1219,78
1220,78
1221,78
1222,78
1223,78
1224,78
1225,78
1226,78
1227,78
1228,78
1229,78
1230,78
1231,78
1232,78
1233,78
1234,78
1235,79
1236,79
1237,79
1238,79
1239,79
1240,79
1241,79
1242,79
1243,79
1244,79
1245,79
1246,79
1247,79
1248,79
1249,79
1250,79
1251,79
1252,79
1253,79
1254,80
1255,80
1256,80
1257,81
1258,81
1259,81
1260,81
1261,81
1262,81
1263,81
1264,81
1265,81
1266,81
1267,81
1268,81
1269,81
1270,81
1271,81
1272,81
1273,81
1274,81
1275,81
1276,81
1277,81
1278,81
1279,81
1280,81
1281,81
1282,81
1283,81
1284,81
1285,81
1286,81
1287,81
1288,81
1289,81
1290,81
1291,81
1292,81
1293,81
1294,81
1295,81
1296,81
1297,81
1298,81
1299,82
1300,82
1301,82
1302,82
1303,82
1304,83
1305,83
1306,84
1307,84
1308,84
1309,84
1310,84
1311,84
1312,84
1313,84
1314,84
1315,84
1316,84
1317,84
1318,84
1319,84
1320,84
1321,84
1322,84
1323,85
1324,85
1325,85
1326,85
1327,85
1328,85
1329,85
1330,86
1331,86
1332,86
1333,86
1334,86
1335,86
1336,86
1337,86
1338,86
1339,87
1340,87
1341,87
1342,87
1343,87
1344,87
1345,87
1346,87
1347,87
1348,88
1349,89
1350,89
1351,89
1352,89
1353,90
1354,90
1355,90
1356,90
1357,91
1358,91
1359,91
1360,91
1361,91
1362,91
1363,91
1364,91
1365,91
1366,91
1367,91
1368,91
1369,91
1370,91
1371,91
1372,91
1373,91
1374,91
1375,91
1376,91
1377,91
1378,91
1379,91
1380,91
1381,91
1382,91
1383,91
1384,91
1385,91
1386,91
1387,91
1388,91
1389,91
1390,91
1391,91
1392,91
1393,91
1394,91
1395,91
1396,91
1397,91
1398,91
1399,91
1400,91
1401,92
1402,92
1403,93
1404,93
1405,93
1406,93
1407,93
1408,93
1409,93
1410,93
1411,93
1412,93
1413,94
1414,94
1415,95
1416,96
1417,97
1418,97
1419,97
1420,97
1421,97
1422,97
1423,97
1424,97
1425,97
1426,97
1427,97
1428,97
1429,97
1430,97
1431,97
1432,97
1433,97
1434,97
1435,97
1436,97
1437,97
1438,97
1439,97
1440,97
1441,97
1442,97
1443,97
1444,97
1445,97
1446,98
1447,98
1448,98
1449,98
1450,98
1451,98
1452,98
1453,98
1454,98
1455,98
1456,98
1457,98
1458,98
1459,99
1460,99
1461,99
1462,100
1463,100
1464,100
1465,100
1466,100
1467,100
1468,101
1469,101
1470,101
1471,102
1472,102
1473,102
1474,102
1475,102
1476,102
1477,102
1478,102
1479,102
1480,102
1481,102
1482,102
1483,102
1484,102
1485,102
1486,102
1487,102
1488,102
1489,102
1490,102
1491,103
1492,103
1493,103
1494,104
1495,104
1496,105
1497,105
1498,105
1499,105
1500,105
1501,105
1502,105
1503,105
1504,106
1505,106
1506,106
1507,106
1508,106
1509,106
1510,106
1511,106
1512,106
1513,106
1514,106
1515,106
1516,106
1517,106
1518,106
1519,106
1520,106
1521,106
1522,106
1523,106
1524,106
1525,106
1526,106
1527,106
1528,106
1529,106
1530,106
1531,106
1532,106
1533,106
1534,106
1535,106
1536,106
1537,106
1538,106
1539,106
1540,106
1541,106
1542,106
1543,106
1544,106
1545,106
1546,106
1547,106
1548,106
1549,106
1550,106
1551,106
1552,106
1553,106
1554,107
1555,107
1556,107
1557,107
1558,107
1559,107
1560,107
1561,107
1562,107
1563,107
1564,107
1565,107
1566,107
1567,107
1568,107
1569,108
1570,108
1571,108
1572,108
1573,108
1574,108
1575,108
1576,108
1577,108
1578,108
1579,108
1580,108
1581,108
1582,108
1583,108
1584,108
1585,108
1586,108
1587,108
1588,108
1589,108
1590,108
1591,108
1592,108
1593,108
1594,108
1595,108
1596,109
1597,109
1598,109
1599,109
1600,109
1601,110
1602,110
1603,110
1604,110
1605,110
1606,110
1607,110
1608,110
1609,110
1610,110
1611,110
1612,110
1613,110
1614,110
1615,110
1616,110
1617,110
1618,110
1619,110
1620,110
1621,110
1622,110
1623,110
1624,110
1625,110
1626,111
1627,111
1628,111
1629,111
1630,111
1631,111
1632,111
1633,111
1634,111
1635,111
1636,111
1637,111
1638,111
1639,111
1640,111
1641,111
1642,111
1643,111
1644,111
1645,111
1646,111
1647,111
1648,111
1649,111
1650,111
1651,111
1652,111
1653,111
1654,111
1655,111
1656,111
1657,111
1658,111
1659,111
1660,111
1661,111
1662,111
1663,111
1664,112
1665,112
1666,112
1667,112
1668,112
1669,112
1670,112
1671,112
1672,112
1673,112
1674,113
1675,113
1676,113
1677,113
1678,113
1679,113
1680,113
1681,113
1682,113
1683,113
1684,113
1685,113
1686,113
1687,113
1688,113
1689,114
1690,114
1691,114
1692,114
1693,114
1694,114
1695,114
1696,114
1697,114
1698,114
1699,114
1700,115
1701,115
1702,115
1703,115
1704,115
1705,115
1706,115
1707,115
1708,115
1709,115
1710,115
1711,115
1712,115
1713,115
1714,115
1715,115
1716,115
1717,115
1718,115
1719,115
1720,115
1721,115
1722,115
1723,115
1724,115
1725,115
1726,115
1727,115
1728,115
1729,115
1730,115
1731,115
1732,115
1733,115
1734,115
1735,115
1736,115
1737,115
1738,115
1739,115
1740,115
1741,115
1742,115
1743,115
1744,115
1745,115
1746,115
1747,115
1748,115
1749,115
1750,115
1751,115
1752,117
1753,117
1754,117
1755,117
1756,117
1757,117
1758,117
1759,117
1760,117
1761,117
1762,117
1763,117
1764,118
1765,118
1766,118
1767,118
1768,118
1769,118
1770,118
1771,118
1772,118
1773,118
1774,118
1775,118
1776,118
1777,118
1778,119
1779,119
1780,119
1781,119
1782,119
1783,119
1784,119
1785,119
1786,119
1787,119
1788,119
1789,119
1790,119
1791,119
1792,119
1793,119
1794,119
1795,119
1796,119
1797,119
1798,119
1799,119
1800,119
1801,119
1802,119
1803,119
1804,119
1805,119
1806,119
1807,119
1808,119
1809,119
1810,119
1811,119
1812,119
1813,119
1814,119
1815,119
1816,119
1817,119
1818,119
1819,119
1820,119
1821,120
1822,120
1823,120
1824,120
1825,120
1826,120
1827,120
1828,120
1829,120
1830,120
1831,120
1832,120
1833,120
1834,120
1835,120
1836,120
1837,120
1838,120
1839,120
1840,120
1841,120
1842,120
1843,120
1844,120
1845,120
1846,120
1847,120
1848,120
1849,120
1850,120
1851,120
1852,120
1853,120
1854,120
1855,120
1856,120
1857,120
1858,120
1859,120
1860,121
1861,121
1862,121
1863,121
1864,121
1865,121
1866,121
1867,121
1868,121
1869,121
1870,121
1871,121
1872,121
1873,121
1874,121
1875,121
1876,121
1877,122
1878,122
1879,122
1880,122
1881,122
1882,122
1883,122
1884,122
1885,122
1886,123
1887,123
1888,123
1889,123
1890,123
1891,123
1892,123
1893,123
1894,123
1895,123
1896,123
1897,123
1898,123
1899,123
1900,123
1901,123
1902,123
1903,123
1904,124
1905,125
1906,125
1907,125
1908,125
1909,125
1910,125
1911,125
1912,125
1913,126
1914,126
1915,126
1916,126
1917,126
1918,126
1919,126
1920,126
1921,126
1922,126
1923,126
1924,126
1925,126
1926,127
1927,127
1928,127
1929,127
1930,127
1931,127
1932,127
1933,127
1934,127
1935,127
1936,127
1937,127
1938,127
1939,127
1940,127
1941,127
1942,127
1943,127
1944,127
1945,127
1946,127
1947,127
1948,127
1949,128
1950,128
1951,128
1952,128
1953,128
1954,128
1955,128
1956,128
1957,128
1958,128
1959,128
1960,128
1961,128
1962,128
1963,128
1964,128
1965,128
1966,128
1967,129
1968,130
1969,130
1970,130
1971,130
1972,130
1973,130
1974,130
1975,130
1976,130
1977,130
1978,130
1979,130
1980,130
1981,130
1982,130
1983,130
1984,130
1985,130
1986,130
1987,130
1988,130
1989,130
1990,130
1991,130
1992,130
1993,130
1994,130
1995,130
1996,130
1997,130
1998,130
1999,130
2000,130
