"tick","total"
0,0
1,1
2,1
3,2
4,2
5,2
6,2
7,2
8,2
9,2
10,3
11,3
12,4
13,5
14,5
15,5
16,5
17,5
18,5
19,6
20,6
21,6
22,6
23,6
24,6
25,6
26,6
27,6
28,6
29,6
30,7
31,7
32,7
33,7
34,7
35,8
36,8
37,8
38,8
39,8
40,8
41,8
42,8
43,8
44,8
45,8
46,9
47,9
48,10
49,10
50,10
51,10
52,11
53,11
54,11
55,12
56,12
57,12
58,13
59,13
60,13
61,14
62,15
63,16
64,17
65,18
66,19
67,20
68,20
69,21
70,21
71,21
72,21
73,21
74,21
75,21
76,21
77,21
78,21
79,21
80,21
81,21
82,21
83,21
84,21
85,21
86,21
87,22
88,22
89,23
90,23
91,23
92,24
93,24
94,24
95,24
96,24
97,24
98,25
99,25
100,25
101,25
102,25
103,25
104,25
105,25
106,25
107,25
108,25
109,25
110,25
111,25
112,25
113,25
114,26
115,26
116,26
117,26
118,26
119,26
120,26
121,26
122,27
123,27
124,28
125,28
126,28
127,28
128,28
129,28
130,28
131,28
132,28
133,28
134,28
135,28
136,29
137,29
138,29
139,29
140,29
141,29
142,30
143,30
144,30
145,30
146,30
147,30
148,31
149,31
150,31
151,31
152,32
153,33
154,33
155,33
156,33
157,33
158,33
159,33
160,33
161,33
162,34
163,34
164,34
165,34
166,35
167,35
168,35
169,35
170,35
171,36
172,36
173,36
174,37
175,37
176,37
177,37
178,37
179,37
180,37
181,37
182,37
183,37
184,37
185,37
186,37
187,38
188,38
189,38
190,38
191,38
192,38
193,38
194,38
195,38
196,38
197,38
198,38
199,38
200,38
201,38
202,38
203,38
204,38
205,38
206,38
207,38
208,38
209,38
210,38
211,39
212,39
213,39
214,39
215,39
216,40
217,40
218,40
219,40
220,40
221,40
222,40
223,40
224,40
225,41
226,41
227,41
228,41
229,41
230,41
231,41
232,41
233,41
234,41
235,41
236,41
237,41
238,41
239,41
240,41
241,41
242,41
243,41
244,41
245,41
246,41
247,41
248,41
249,41
250,41
251,41
252,42
253,42
254,43
255,43
256,43
257,43
258,44
259,44
260,44
261,44
262,44
263,44
264,44
265,44
266,44
267,46
268,46
269,47
270,47
271,47
272,47
273,47
274,47
275,47
276,47
277,47
278,47
279,47
280,47
281,47
282,47
283,47
284,47
285,47
286,47
287,47
288,47
289,47
290,47
291,47
292,47
293,47
294,47
295,47
296,47
297,47
298,47
299,47
300,47
301,47
302,47
303,47
304,48
305,48
306,48
307,48
308,48
309,48
310,48
311,48
312,50
313,50
314,50
315,51
316,51
317,51
318,51
319,51
320,51
321,51
322,52
323,52
324,52
325,52
326,52
327,53
328,53
329,53
330,53
331,53
332,53
333,53
334,53
335,53
336,53
337,53
338,53
339,53
340,55
341,55
342,55
343,55
344,55
345,55
346,55
347,55
348,55
349,55
350,55
351,55
352,55
353,57
354,57
355,57
356,57
357,57
358,58
359,58
360,59
361,59
362,59
363,59
364,60
365,60
366,60
367,60
368,60
369,60
370,60
371,60
372,60
373,60
374,60
375,60
376,60
377,60
378,60
379,60
380,60
381,60
382,60
383,60
384,60
385,60
386,60
387,60
388,60
389,60
390,61
391,61
392,61
393,62
394,62
395,62
396,62
397,62
398,62
399,62
400,62
401,62
402,62
403,62
404,62
405,62
406,62
407,62
408,62
409,62
410,62
411,62
412,62
413,62
414,62
415,62
416,62
417,63
418,63
419,64
420,64
421,64
422,64
423,64
424,64
425,64
426,64
427,64
428,64
429,64
430,64
431,64
432,65
433,65
434,65
435,65
436,65
437,65
438,65
439,65
440,65
441,65
442,65
443,65
444,65
445,65
446,65
447,65
448,65
449,65
450,65
451,65
452,65
453,65
454,65
455,66
456,66
457,66
458,66
459,66
460,66
461,66
462,66
463,66
464,66
465,66
466,66
467,66
468,66
469,66
470,66
471,66
472,67
473,67
474,67
475,67
476,67
477,67
478,67
479,67
480,67
481,67
482,68
483,68
484,68
485,68
486,68
487,69
488,69
489,69
490,69
491,69
492,69
493,69
494,70
495,70
496,70
497,70
498,70
499,70
500,70
501,70
502,70
503,70
504,70
505,70
506,70
507,70
508,70
509,70
510,71
511,71
512,71
513,71
514,71
515,71
516,71
517,71
518,71
519,71
520,72
521,72
522,73
523,74
524,74
525,74
526,74
527,75
528,75
529,75
530,75
531,75
532,75
533,75
534,75
535,75
536,75
537,75
538,75
539,75
540,75
541,75
542,75
543,75
544,75
545,75
546,76
547,76
548,76
549,76
550,76
551,76
552,76
553,77
554,77
555,78
556,79
557,80
558,80
559,81
560,82
561,82
562,82
563,82
564,82
565,82
566,83
567,83
568,84
569,84
570,84
571,84
572,85
573,85
574,85
575,86
576,86
577,86
578,86
579,86
580,86
581,86
582,86
583,86
584,86
585,86
586,86
587,86
588,86
589,86
590,86
591,86
592,86
593,86
594,86
595,86
596,86
597,86
598,86
599,86
600,86
601,86
602,86
603,86
604,86
605,86
606,86
607,86
608,86
609,86
610,87
611,87
612,87
613,87
614,87
615,87
616,87
617,87
618,87
619,88
620,88
621,88
622,88
623,88
624,88
625,88
626,88
627,88
628,88
629,88
630,88
631,88
632,88
633,88
634,88
635,88
636,88
637,88
638,89
639,89
640,89
641,89
642,89
643,89
644,89
645,89
646,89
647,89
648,90
649,90
650,90
651,90
652,90
653,90
654,90
655,90
656,90
657,90
658,90
659,91
660,91
661,91
662,91
663,91
664,91
665,91
666,91
667,91
668,91
669,91
670,91
671,91
672,91
673,91
674,91
675,91
676,91
677,91
678,91
679,91
680,91
681,91
682,91
683,91
684,91
685,91
686,91
687,91
688,91
689,91
690,91
691,91
692,91
693,91
694,91
695,91
696,91
697,91
698,91
699,91
700,91
701,92
702,92
703,92
704,92
705,92
706,92
707,92
708,92
709,92
710,92
711,93
712,93
713,93
714,93
715,93
716,93
717,93
718,93
719,93
720,93
721,93
722,93
723,93
724,93
725,93
726,93
727,93
728,93
729,93
730,93
731,93
732,93
733,93
734,93
735,93
736,93
737,94
738,94
739,94
740,94
741,94
742,94
743,94
744,94
745,94
746,94
747,94
748,94
749,94
750,94
751,94
752,94
753,94
754,94
755,94
756,95
757,95
758,95
759,95
760,95
761,95
762,95
763,95
764,96
765,96
766,96
767,97
768,97
769,97
770,97
771,97
772,97
773,97
774,97
775,97
776,97
777,97
778,97
779,97
780,97
781,97
782,97
783,98
784,98
785,98
786,98
787,98
788,98
789,98
790,98
791,98
792,98
793,98
794,98
795,98
796,98
797,98
798,98
799,98
800,98
801,98
802,99
803,99
804,99
805,99
806,99
807,99
808,99
809,99
810,99
811,99
812,99
813,99
814,99
815,99
816,99
817,99
818,99
819,99
820,99
821,99
822,99
823,99
824,99
825,99
826,99
827,100
828,100
829,101
830,101
831,101
832,101
833,101
834,101
835,101
836,101
837,101
838,101
839,102
840,102
841,102
842,102
843,102
844,102
845,102
846,103
847,103
848,103
849,103
850,103
851,103
852,103
853,103
854,103
855,103
856,103
857,103
858,103
859,104
860,104
861,104
862,104
863,104
864,104
865,104
866,104
867,104
868,104
869,104
870,105
871,105
872,105
873,105
874,105
875,105
876,105
877,105
878,105
879,105
880,105
881,105
882,106
883,106
884,106
885,106
886,106
887,106
888,106
889,106
890,106
891,106
892,106
893,106
894,106
895,107
896,107
897,107
898,107
899,107
900,107
901,107
902,107
903,107
904,107
905,107
906,107
907,107
908,107
909,107
910,107
911,107
912,108
913,108
914,108
915,109
916,109
917,109
918,109
919,110
920,110
921,110
922,111
923,111
924,111
925,111
926,112
927,112
928,112
929,112
930,112
931,112
932,112
933,112
934,112
935,112
936,112
937,112
938,112
939,112
940,112
941,112
942,113
943,113
944,113
945,113
946,113
947,113
948,113
949,113
950,113
951,113
952,113
953,113
954,113
955,113
956,114
957,114
958,115
959,115
960,115
961,115
962,115
963,116
964,116
965,116
966,116
967,116
968,116
969,116
970,116
971,116
972,116
973,116
974,116
975,116
976,116
977,116
978,116
979,116
980,116
981,116
982,116
983,116
984,116
985,116
986,116
987,116
988,116
989,116
990,116
991,116
992,116
993,116
994,116
995,116
996,116
997,116
998,116
999,116
1000,116
1001,116
1002,116
1003,116
1004,116
1005,116
1006,116
1007,116
1008,116
1009,116
1010,116
1011,116
1012,116
1013,116
1014,116
1015,116
1016,116
1017,116
1018,116
1019,116
1020,116
1021,116
1022,116
1023,116
1024,116
1025,116
1026,116
1027,116
1028,116
1029,116
1030,116
1031,116
1032,116
1033,116
1034,116
1035,116
1036,118
1037,118
1038,118
1039,118
1040,118
1041,118
1042,118
1043,118
1044,118
1045,118
1046,118
1047,118
1048,118
1049,118
1050,118
1051,119
1052,119
1053,119
1054,119
1055,119
1056,119
1057,119
1058,119
1059,119
1060,119
1061,119
1062,119
1063,119
1064,119
1065,119
1066,120
1067,120
1068,120
1069,120
1070,120
1071,120
1072,120
1073,120
1074,120
1075,120
1076,120
1077,120
1078,120
1079,120
1080,120
1081,120
1082,120
1083,120
1084,120
1085,120
1086,120
1087,120
1088,120
1089,120
1090,120
1091,120
1092,120
1093,120
1094,120
1095,120
1096,120
1097,120
1098,120
1099,120
1100,120
1101,120
1102,120
1103,120
1104,120
1105,121
1106,121
1107,121
1108,122
1109,122
1110,122
1111,122
1112,123
1113,123
1114,123
1115,123
1116,124
1117,124
1118,124
1119,124
1120,124
1121,124
1122,124
1123,124
1124,124
1125,124
1126,124
1127,124
1128,124
1129,124
1130,124
1131,124
1132,124
1133,124
1134,124
1135,125
1136,125
1137,125
1138,125
1139,125
1140,125
1141,125
1142,125
1143,125
1144,125
1145,125
1146,125
1147,125
1148,125
1149,125
1150,125
1151,125
1152,125
1153,125
1154,125
1155,125
1156,125
1157,125
1158,125
1159,125
1160,125
1161,125
1162,125
1163,125
1164,125
1165,125
1166,125
1167,125
1168,125
1169,125
1170,125
1171,125
1172,125
1173,125
1174,125
1175,125
1176,125
1177,126
1178,126
1179,126
1180,126
1181,127
1182,127
1183,127
1184,127
1185,127
1186,127
1187,127
1188,127
1189,127
1190,127
1191,127
1192,127
1193,127
1194,127
1195,127
1196,127
1197,127
1198,127
1199,127
1200,127
1201,127
1202,127
1203,127
1204,127
1205,127
1206,127
1207,127
1208,127
1209,127
1210,127
1211,127
1212,127
1213,127
1214,127
1215,127
1216,127
1217,127
1218,127
1219,128
1220,128
1221,128
1222,128
1223,128
1224,128
1225,128
1226,128
1227,128
1228,128
1229,128
1230,128
1231,128
1232,129
1233,129
1234,129
1235,129
1236,129
1237,129
1238,129
1239,129
1240,129
1241,129
1242,129
1243,129
1244,129
1245,129
1246,129
1247,129
1248,129
1249,129
1250,129
1251,129
1252,129
1253,129
1254,129
1255,129
1256,129
1257,129
1258,129
1259,130
1260,130
1261,130
1262,130
1263,131
1264,131
1265,131
1266,131
1267,131
1268,131
1269,131
1270,131
1271,131
1272,131
1273,131
1274,131
1275,131
1276,132
1277,132
1278,132
1279,132
1280,132
1281,132
1282,132
1283,132
1284,132
1285,132
1286,132
1287,132
1288,132
1289,132
1290,133
1291,133
1292,133
1293,133
1294,133
1295,133
1296,133
1297,133
1298,133
1299,133
1300,133
1301,133
1302,134
1303,134
1304,134
1305,134
1306,134
1307,134
1308,134
1309,134
1310,134
1311,134
1312,134
1313,134
1314,134
1315,134
1316,134
1317,134
1318,134
1319,134
1320,134
1321,134
1322,134
1323,134
1324,134
1325,134
1326,134
1327,134
1328,134
1329,134
1330,134
1331,134
1332,134
1333,134
1334,134
1335,134
1336,134
1337,134
1338,134
1339,134
1340,134
1341,134
1342,134
1343,134
1344,134
1345,134
1346,134
1347,134
1348,134
1349,135
1350,135
1351,135
1352,135
1353,135
1354,135
1355,135
1356,135
1357,135
1358,135
1359,135
1360,135
1361,135
1362,135
1363,135
1364,135
1365,135
1366,135
1367,135
1368,135
1369,136
1370,137
1371,137
1372,137
1373,137
1374,137
1375,137
1376,137
1377,137
1378,137
1379,137
1380,137
1381,137
1382,137
1383,137
1384,137
1385,137
1386,137
1387,137
1388,137
1389,137
1390,137
1391,137
1392,137
1393,137
1394,137
1395,137
1396,137
1397,137
1398,137
1399,137
1400,137
1401,137
1402,137
1403,137
1404,137
1405,137
1406,137
1407,137
1408,137
1409,137
1410,137
1411,137
1412,137
1413,137
1414,137
1415,137
1416,137
1417,137
1418,137
1419,137
1420,137
1421,137
1422,137
1423,137
1424,137
1425,137
1426,137
1427,137
1428,137
1429,137
1430,137
1431,137
1432,137
1433,137
1434,138
1435,138
1436,138
1437,138
1438,138
1439,138
1440,138
1441,138
1442,138
1443,138
1444,138
1445,138
1446,138
1447,138
1448,138
1449,138
1450,138
1451,138
1452,138
1453,138
1454,138
1455,138
1456,139
1457,139
1458,139
1459,139
1460,140
1461,140
1462,140
1463,140
1464,140
1465,140
1466,140
1467,141
1468,141
1469,141
1470,141
1471,141
1472,141
1473,141
1474,141
1475,141
1476,141
1477,141
1478,141
1479,141
1480,141
1481,141
1482,141
1483,142
1484,143
1485,143
1486,143
1487,143
1488,143
1489,143
1490,143
1491,143
1492,143
1493,143
1494,143
1495,143
1496,144
1497,144
1498,144
1499,145
1500,145
1501,145
1502,145
1503,145
1504,145
1505,145
1506,145
1507,145
1508,145
1509,145
1510,145
1511,145
1512,145
1513,145
1514,145
1515,145
1516,145
1517,145
1518,145
1519,145
1520,145
1521,145
1522,145
1523,145
1524,145
1525,145
1526,145
1527,145
1528,145
1529,145
1530,145
1531,145
1532,145
1533,145
1534,146
1535,146
1536,146
1537,146
1538,146
1539,146
1540,146
1541,146
1542,146
1543,146
1544,146
1545,146
1546,146
1547,146
1548,146
1549,146
1550,146
1551,146
1552,146
1553,146
1554,146
1555,146
1556,146
1557,146
1558,146
1559,146
1560,146
1561,146
1562,146
1563,146
1564,146
1565,146
1566,146
1567,147
1568,147
1569,147
1570,147
1571,147
1572,147
1573,147
1574,147
1575,147
1576,147
1577,147
1578,147
1579,147
1580,147
1581,147
1582,147
1583,147
1584,147
1585,147
1586,147
1587,147
1588,148
1589,149
1590,149
1591,149
1592,149
1593,149
1594,149
1595,149
1596,149
1597,149
1598,149
1599,149
1600,149
1601,149
1602,149
1603,149
1604,149
1605,149
1606,149
1607,149
1608,149
1609,149
1610,149
1611,149
1612,149
1613,149
1614,149
1615,149
1616,150
1617,150
1618,150
1619,150
1620,151
1621,151
1622,152
1623,152
1624,152
1625,152
1626,152
1627,152
1628,152
1629,152
1630,153
1631,153
1632,153
1633,153
1634,153
1635,153
1636,153
1637,153
1638,153
1639,153
1640,153
1641,153
1642,153
1643,153
1644,153
1645,153
1646,153
1647,153
1648,153
1649,153
1650,153
1651,153
1652,153
1653,154
1654,154
1655,154
1656,154
1657,154
1658,154
1659,154
1660,154
1661,154
1662,154
1663,154
1664,154
1665,154
1666,154
1667,154
1668,154
1669,154
1670,154
1671,154
1672,154
1673,154
1674,154
1675,154
1676,154
1677,154
1678,154
1679,154
1680,154
1681,154
1682,154
1683,154
1684,154
1685,155
1686,155
1687,155
1688,155
1689,155
1690,155
1691,155
1692,155
1693,155
1694,155
1695,155
1696,155
1697,155
1698,155
1699,155
1700,155
1701,155
1702,155
1703,155
1704,155
1705,155
1706,155
1707,155
1708,155
1709,155
1710,155
1711,156
1712,156
1713,156
1714,156
1715,156
1716,156
1717,156
1718,156
1719,156
1720,156
1721,156
1722,156
1723,156
1724,156
1725,156
1726,156
1727,156
1728,156
1729,156
1730,156
1731,156
1732,156
1733,156
1734,156
1735,156
1736,157
1737,157
1738,157
1739,157
1740,157
1741,157
1742,157
1743,157
1744,157
1745,158
1746,158
1747,158
1748,159
1749,159
1750,159
1751,159
1752,159
1753,159
1754,159
1755,159
1756,159
1757,159
1758,159
1759,159
1760,159
1761,159
1762,159
1763,159
1764,159
1765,160
1766,160
1767,160
1768,160
1769,160
1770,160
1771,160
1772,160
1773,160
1774,160
1775,160
1776,160
1777,160
1778,160
1779,160
1780,160
1781,160
1782,160
1783,160
1784,160
1785,160
1786,160
1787,160
1788,160
1789,160
1790,160
1791,160
1792,160
1793,160
1794,160
1795,160
1796,160
1797,160
1798,160
1799,160
1800,160
1801,160
1802,160
1803,160
1804,160
1805,161
1806,161
1807,161
1808,161
1809,161
1810,161
1811,161
1812,161
1813,161
1814,161
1815,161
1816,161
1817,161
1818,161
1819,161
1820,161
1821,161
1822,161
1823,161
1824,161
1825,162
1826,162
1827,162
1828,162
1829,162
1830,162
1831,162
1832,162
1833,162
1834,162
1835,162
1836,162
1837,162
1838,162
1839,162
1840,163
1841,163
1842,163
1843,163
1844,163
1845,163
1846,163
1847,163
1848,163
1849,163
1850,163
1851,163
1852,164
1853,164
1854,164
1855,164
1856,164
1857,164
1858,164
1859,164
1860,164
1861,164
1862,164
1863,165
1864,165
1865,165
1866,165
1867,165
1868,165
1869,165
1870,165
1871,165
1872,165
1873,165
1874,165
1875,165
1876,165
1877,165
1878,165
1879,165
1880,165
1881,165
1882,165
1883,165
1884,165
1885,165
1886,165
1887,165
1888,165
1889,165
1890,165
1891,165
1892,165
1893,165
1894,165
1895,165
1896,165
1897,165
1898,165
1899,165
1900,165
1901,165
1902,165
1903,165
1904,165
1905,165
1906,165
1907,165
1908,165
1909,165
1910,165
1911,165
1912,165
1913,165
1914,165
1915,165
1916,165
1917,165
1918,165
1919,165
1920,165
1921,165
1922,165
1923,165
1924,165
1925,165
1926,165
1927,165
1928,165
1929,165
1930,165
1931,166
1932,166
1933,166
1934,166
1935,166
1936,166
1937,166
1938,166
1939,166
1940,166
1941,166
1942,166
1943,166
1944,166
1945,166
1946,167
1947,167
1948,167
1949,168
1950,168
1951,168
1952,168
1953,168
1954,168
1955,168
1956,168
1957,168
1958,168
1959,168
1960,168
1961,168
1962,168
1963,168
1964,168
1965,169
1966,169
1967,169
1968,169
1969,169
1970,169
1971,169
1972,169
1973,169
1974,169
1975,169
1976,169
1977,170
1978,170
1979,170
1980,170
1981,170
1982,170
1983,170
1984,170
1985,170
1986,170
1987,170
1988,170
1989,170
1990,170
1991,170
1992,170
1993,170
1994,170
1995,170
1996,170
1997,170
1998,170
1999,170
2000,170
