"tick","total"
0,0
1,0
2,0
3,0
4,0
5,0
6,0
7,0
8,0
9,0
10,0
11,0
12,0
13,0
14,0
15,0
16,0
17,0
18,0
19,0
20,0
21,0
22,0
23,0
24,0
25,0
26,0
27,0
28,0
29,0
30,0
31,0
32,0
33,0
34,0
35,0
36,0
37,0
38,0
39,0
40,0
41,0
42,0
43,0
44,0
45,0
46,0
47,0
48,0
49,0
50,0
51,0
52,0
53,0
54,0
55,0
56,0
57,0
58,0
59,0
60,0
61,0
62,0
63,0
64,0
65,0
66,0
67,0
68,0
69,0
70,0
71,0
72,0
73,0
74,0
75,0
76,0
77,0
78,0
79,0
80,0
81,0
82,0
83,0
84,0
85,0
86,0
87,0
88,0
89,0
90,0
91,0
92,0
93,0
94,0
95,0
96,0
97,0
98,0
99,0
100,0
101,0
102,0
103,0
104,0
105,0
106,0
107,0
108,0
109,0
110,0
111,0
112,0
113,0
114,0
115,0
116,0
117,0
118,0
119,0
120,0
121,0
122,0
123,0
124,0
125,0
126,0
127,0
128,0
129,0
130,0
131,0
132,0
133,0
134,0
135,0
136,0
137,0
138,0
139,0
140,0
141,0
142,0
143,0
144,0
145,0
146,0
147,0
148,0
149,0
150,0
151,0
152,0
153,0
154,0
155,0
156,0
157,0
158,0
159,0
160,0
161,0
162,0
163,0
164,0
165,0
166,0
167,0
168,0
169,0
170,0
171,0
172,0
173,0
174,0
175,0
176,0
177,0
178,0
179,0
180,0
181,0
182,0
183,0
184,0
185,0
186,0
187,0
188,0
189,0
190,0
191,0
192,0
193,0
194,0
195,0
196,0
197,0
198,0
199,0
200,0
201,0
202,0
203,0
204,0
205,0
206,0
207,0
208,0
209,0
210,0
211,0
212,0
213,0
214,0
215,0
216,0
217,0
218,0
219,0
220,0
221,0
222,0
223,0
224,0
225,0
226,0
227,0
228,0
229,0
230,0
231,0
232,0
233,1
234,1
235,1
236,1
237,1
238,1
239,1
240,1
241,1
242,1
243,1
244,1
245,1
246,1
247,1
248,1
249,1
250,1
251,1
252,1
253,2
254,2
255,2
256,2
257,2
258,3
259,3
260,3
261,3
262,3
263,3
264,3
265,3
266,3
267,3
268,3
269,3
270,3
271,3
272,3
273,3
274,3
275,3
276,3
277,3
278,3
279,3
280,4
281,4
282,4
283,4
284,5
285,5
286,5
287,5
288,5
289,5
290,5
291,5
292,5
293,5
294,5
295,6
296,6
297,7
298,7
299,7
300,7
301,8
302,8
303,8
304,8
305,10
306,10
307,11
308,11
309,11
310,11
311,12
312,12
313,12
314,12
315,12
316,12
317,12
318,12
319,12
320,13
321,13
322,13
323,13
324,13
325,13
326,13
327,13
328,13
329,13
330,13
331,13
332,14
333,14
334,15
335,15
336,15
337,15
338,15
339,15
340,15
341,16
342,16
343,16
344,17
345,17
346,17
347,19
348,20
349,20
350,20
351,20
352,20
353,20
354,20
355,20
356,20
357,20
358,20
359,20
360,20
361,20
362,20
363,20
364,20
365,20
366,21
367,21
368,21
369,21
370,21
371,22
372,23
373,24
374,24
375,24
376,25
377,25
378,25
379,25
380,25
381,26
382,26
383,26
384,26
385,26
386,26
387,26
388,26
389,26
390,26
391,26
392,26
393,26
394,26
395,26
396,26
397,26
398,26
399,26
400,26
401,26
402,26
403,26
404,26
405,26
406,26
407,26
408,26
409,26
410,26
411,26
412,26
413,26
414,26
415,26
416,26
417,26
418,26
419,27
420,28
421,28
422,28
423,28
424,28
425,28
426,29
427,29
428,29
429,29
430,29
431,29
432,29
433,29
434,29
435,29
436,29
437,29
438,29
439,29
440,29
441,29
442,29
443,29
444,29
445,29
446,29
447,29
448,30
449,30
450,31
451,31
452,31
453,31
454,31
455,31
456,31
457,31
458,31
459,31
460,31
461,31
462,31
463,31
464,31
465,31
466,31
467,31
468,31
469,31
470,31
471,31
472,32
473,32
474,32
475,32
476,32
477,32
478,32
479,32
480,32
481,32
482,32
483,32
484,32
485,32
486,32
487,32
488,32
489,32
490,32
491,32
492,32
493,32
494,32
495,32
496,32
497,32
498,32
499,32
500,32
501,32
502,32
503,33
504,33
505,33
506,33
507,33
508,33
509,33
510,33
511,33
512,33
513,33
514,33
515,33
516,33
517,33
518,33
519,33
520,33
521,33
522,33
523,33
524,33
525,33
526,33
527,34
528,34
529,35
530,35
531,36
532,36
533,36
534,36
535,36
536,37
537,37
538,37
539,37
540,37
541,37
542,37
543,37
544,37
545,37
546,37
547,37
548,37
549,37
550,37
551,37
552,37
553,37
554,37
555,37
556,37
557,37
558,37
559,37
560,37
561,37
562,37
563,37
564,37
565,37
566,37
567,38
568,38
569,38
570,38
571,38
572,38
573,38
574,38
575,38
576,39
577,39
578,39
579,39
580,39
581,39
582,39
583,39
584,39
585,39
586,39
587,39
588,39
589,39
590,39
591,39
592,39
593,39
594,39
595,39
596,39
597,39
598,39
599,39
600,39
601,39
602,39
603,39
604,39
605,39
606,39
607,39
608,39
609,39
610,39
611,39
612,39
613,39
614,39
615,39
616,39
617,39
618,39
619,39
620,39
621,39
622,39
623,39
624,39
625,40
626,40
627,40
628,40
629,40
630,40
631,40
632,40
633,40
634,40
635,40
636,40
637,40
638,40
639,40
640,40
641,40
642,40
643,40
644,40
645,40
646,40
647,40
648,40
649,40
650,40
651,40
652,40
653,40
654,40
655,40
656,40
657,40
658,40
659,40
660,40
661,40
662,40
663,40
664,40
665,40
666,40
667,40
668,40
669,40
670,41
671,41
672,41
673,41
674,41
675,41
676,41
677,41
678,41
679,41
680,41
681,41
682,41
683,41
684,41
685,41
686,41
687,43
688,44
689,44
690,44
691,44
692,44
693,44
694,44
695,44
696,44
697,44
698,44
699,44
700,44
701,44
702,44
703,44
704,44
705,44
706,44
707,44
708,44
709,44
710,44
711,44
712,44
713,44
714,44
715,44
716,44
717,45
718,45
719,45
720,45
721,45
722,45
723,45
724,45
725,46
726,47
727,47
728,47
729,47
730,47
731,47
732,47
733,47
734,47
735,47
736,47
737,47
738,47
739,47
740,48
741,48
742,48
743,48
744,48
745,48
746,48
747,48
748,48
749,48
750,48
751,48
752,48
753,48
754,48
755,48
756,48
757,48
758,48
759,48
760,48
761,48
762,48
763,48
764,48
765,48
766,48
767,48
768,48
769,48
770,48
771,48
772,48
773,48
774,48
775,48
776,48
777,48
778,48
779,48
780,48
781,48
782,48
783,48
784,48
785,48
786,49
787,49
788,49
789,49
790,49
791,49
792,49
793,49
794,49
795,49
796,49
797,49
798,49
799,49
800,49
801,49
802,49
803,49
804,49
805,49
806,49
807,49
808,49
809,49
810,49
811,49
812,49
813,49
814,49
815,49
816,49
817,49
818,49
819,49
820,49
821,49
822,49
823,50
824,50
825,50
826,50
827,50
828,50
829,50
830,50
831,50
832,50
833,50
834,50
835,50
836,50
837,50
838,50
839,50
840,50
841,50
842,50
843,50
844,50
845,50
846,50
847,50
848,50
849,50
850,50
851,50
852,50
853,50
854,50
855,50
856,50
857,50
858,50
859,50
860,50
861,50
862,50
863,50
864,50
865,50
866,51
867,51
868,51
869,51
870,51
871,51
872,51
873,51
874,51
875,51
876,51
877,51
878,51
879,51
880,51
881,51
882,51
883,51
884,51
885,51
886,51
887,51
888,51
889,51
890,51
891,51
892,51
893,51
894,51
895,51
896,51
897,51
898,51
899,51
900,51
901,51
902,51
903,51
904,51
905,52
906,52
907,52
908,52
909,52
910,52
911,52
912,52
913,52
914,52
915,52
916,52
917,52
918,52
919,52
920,52
921,52
922,52
923,52
924,52
925,52
926,52
927,52
928,52
929,52
930,52
931,52
932,52
933,52
934,52
935,52
936,52
937,52
938,52
939,52
940,52
941,52
942,52
943,52
944,52
945,52
946,52
947,52
948,52
949,52
950,52
951,52
952,52
953,52
954,52
955,52
956,52
957,52
958,52
959,52
960,52
961,52
962,52
963,52
964,52
965,52
966,52
967,52
968,52
969,52
970,52
971,52
972,52
973,52
974,52
975,52
976,52
977,52
978,52
979,52
980,52
981,52
982,52
983,52
984,52
985,52
986,52
987,52
988,52
989,52
990,52
991,52
992,52
993,52
994,52
995,52
996,52
997,52
998,52
999,52
1000,53
1001,53
1002,53
1003,53
1004,53
1005,53
1006,53
1007,53
1008,53
1009,53
1010,53
1011,53
1012,53
1013,53
1014,53
1015,53
1016,53
1017,53
1018,53
1019,53
1020,53
1021,53
1022,53
1023,53
1024,53
1025,53
1026,53
1027,53
1028,53
1029,53
1030,53
1031,53
1032,53
1033,53
1034,53
1035,53
1036,53
1037,53
1038,53
1039,53
1040,53
1041,53
1042,53
1043,53
1044,53
1045,53
1046,53
1047,53
1048,53
1049,53
1050,53
1051,54
1052,54
1053,54
1054,54
1055,54
1056,54
1057,54
1058,54
1059,54
1060,54
1061,54
1062,54
1063,54
1064,54
1065,54
1066,54
1067,54
1068,54
1069,54
1070,54
1071,54
1072,54
1073,54
1074,54
1075,54
1076,54
1077,54
1078,54
1079,54
1080,54
1081,54
1082,54
1083,54
1084,54
1085,54
1086,54
1087,54
1088,54
1089,54
1090,54
1091,54
1092,54
1093,54
1094,54
1095,54
1096,54
1097,54
1098,54
1099,54
1100,54
1101,55
1102,55
1103,55
1104,55
1105,55
1106,55
1107,55
1108,55
1109,55
1110,55
1111,55
1112,55
1113,55
1114,55
1115,55
1116,55
1117,56
1118,56
1119,56
1120,56
1121,56
1122,56
1123,56
1124,56
1125,56
1126,56
1127,56
1128,56
1129,56
1130,56
1131,56
1132,56
1133,56
1134,56
1135,56
1136,56
1137,56
1138,56
1139,56
1140,56
1141,56
1142,56
1143,56
1144,56
1145,56
1146,56
1147,56
1148,56
1149,56
1150,56
1151,56
1152,56
1153,56
1154,56
1155,56
1156,56
1157,56
1158,56
1159,56
1160,56
1161,56
1162,56
1163,57
1164,57
1165,57
1166,57
1167,57
1168,57
1169,57
1170,57
1171,57
1172,57
1173,57
1174,57
1175,57
1176,57
1177,57
1178,57
1179,58
1180,58
1181,58
1182,58
1183,58
1184,58
1185,58
1186,59
1187,59
1188,59
1189,59
1190,59
1191,59
1192,59
1193,59
1194,59
1195,59
1196,59
1197,59
1198,59
1199,59
1200,59
1201,59
1202,59
1203,59
1204,59
1205,59
1206,59
1207,59
1208,59
1209,59
1210,59
1211,59
1212,59
1213,59
1214,59
1215,59
1216,59
1217,59
1218,59
1219,60
1220,60
1221,60
1222,60
1223,61
1224,61
1225,61
1226,61
1227,61
1228,61
1229,61
1230,61
1231,61
1232,61
1233,61
1234,61
1235,62
1236,62
1237,62
1238,62
1239,62
1240,62
1241,62
1242,62
1243,62
1244,62
1245,62
1246,62
1247,62
1248,62
1249,62
1250,62
1251,63
1252,63
1253,63
1254,63
1255,64
1256,64
1257,64
1258,64
1259,64
1260,64
1261,64
1262,65
1263,65
1264,65
1265,65
1266,65
1267,65
1268,65
1269,65
1270,65
1271,65
1272,65
1273,66
1274,66
1275,66
1276,66
1277,66
1278,66
1279,66
1280,66
1281,67
1282,68
1283,68
1284,68
1285,68
1286,68
1287,68
1288,68
1289,69
1290,69
1291,69
1292,69
1293,69
1294,69
1295,69
1296,69
1297,69
1298,69
1299,69
1300,69
1301,69
1302,69
1303,69
1304,69
1305,69
1306,69
1307,69
1308,69
1309,69
1310,69
1311,69
1312,70
1313,70
1314,71
1315,71
1316,71
1317,71
1318,72
1319,72
1320,72
1321,72
1322,72
1323,72
1324,72
1325,72
1326,72
1327,72
1328,72
1329,72
1330,72
1331,72
1332,72
1333,72
1334,72
1335,72
1336,72
1337,72
1338,72
1339,73
1340,73
1341,73
1342,73
1343,74
1344,74
1345,74
1346,74
1347,74
1348,74
1349,74
1350,74
1351,74
1352,74
1353,74
1354,74
1355,74
1356,74
1357,74
1358,74
1359,74
1360,74
1361,74
1362,74
1363,74
1364,74
1365,74
1366,74
1367,74
1368,74
1369,74
1370,74
1371,74
1372,74
1373,74
1374,74
1375,74
1376,74
1377,74
1378,74
1379,74
1380,74
1381,74
1382,74
1383,74
1384,74
1385,74
1386,74
1387,74
1388,74
1389,74
1390,74
1391,74
1392,74
1393,74
1394,74
1395,74
1396,74
1397,74
1398,74
1399,74
1400,74
1401,74
1402,74
1403,74
1404,74
1405,74
1406,74
1407,75
1408,75
1409,75
1410,75
1411,75
1412,75
1413,75
1414,75
1415,75
1416,75
1417,75
1418,75
1419,75
1420,75
1421,75
1422,75
1423,75
1424,75
1425,75
1426,75
1427,75
1428,75
1429,75
1430,75
1431,75
1432,75
1433,75
1434,75
1435,75
1436,75
1437,75
1438,75
1439,75
1440,75
1441,75
1442,75
1443,75
1444,75
1445,76
1446,76
1447,76
1448,76
1449,76
1450,76
1451,76
1452,76
1453,76
1454,76
1455,76
1456,76
1457,76
1458,76
1459,76
1460,76
1461,76
1462,76
1463,76
1464,76
1465,76
1466,76
1467,76
1468,77
1469,77
1470,77
1471,77
1472,77
1473,77
1474,77
1475,77
1476,77
1477,77
1478,77
1479,77
1480,77
1481,78
1482,78
1483,78
1484,78
1485,79
1486,79
1487,79
1488,79
1489,79
1490,79
1491,79
1492,79
1493,80
1494,80
1495,80
1496,80
1497,80
1498,80
1499,80
1500,80
1501,80
1502,80
1503,80
1504,80
1505,80
1506,80
1507,80
1508,80
1509,80
1510,80
1511,80
1512,80
1513,80
1514,80
1515,80
1516,80
1517,80
1518,80
1519,80
1520,80
1521,80
1522,80
1523,80
1524,80
1525,80
1526,80
1527,80
1528,80
1529,80
1530,80
1531,80
1532,80
1533,80
1534,80
1535,80
1536,80
1537,80
1538,80
1539,80
1540,80
1541,81
1542,81
1543,81
1544,81
1545,81
1546,81
1547,81
1548,81
1549,81
1550,81
1551,81
1552,81
1553,81
1554,81
1555,81
1556,81
1557,81
1558,81
1559,81
1560,81
1561,81
1562,81
1563,81
1564,81
1565,81
1566,81
1567,81
1568,81
1569,81
1570,81
1571,81
1572,81
1573,81
1574,81
1575,81
1576,81
1577,81
1578,81
1579,81
1580,81
1581,81
1582,81
1583,81
1584,81
1585,81
1586,81
1587,81
1588,81
1589,81
1590,81
1591,81
1592,81
1593,81
1594,81
1595,81
1596,81
1597,81
1598,81
1599,81
1600,81
1601,81
1602,81
1603,81
1604,81
1605,81
1606,81
1607,81
1608,81
1609,81
1610,81
1611,81
1612,81
1613,81
1614,81
1615,81
1616,81
1617,81
1618,81
1619,81
1620,81
1621,81
1622,81
1623,81
1624,81
1625,81
1626,81
1627,81
1628,81
1629,81
1630,81
1631,81
1632,81
1633,81
1634,81
1635,81
1636,82
1637,82
1638,82
1639,82
1640,82
1641,83
1642,83
1643,83
1644,83
1645,83
1646,83
1647,83
1648,84
1649,84
1650,84
1651,84
1652,85
1653,85
1654,85
1655,85
1656,85
1657,85
1658,86
1659,86
1660,86
1661,86
1662,86
1663,86
1664,86
1665,86
1666,86
1667,86
1668,86
1669,86
1670,86
1671,86
1672,86
1673,87
1674,87
1675,87
1676,87
1677,87
1678,87
1679,87
1680,87
1681,87
1682,87
1683,87
1684,87
1685,87
1686,87
1687,87
1688,87
1689,87
1690,88
1691,88
1692,88
1693,89
1694,89
1695,90
1696,90
1697,91
1698,91
1699,91
1700,91
1701,91
1702,92
1703,92
1704,92
1705,92
1706,92
1707,92
1708,92
1709,92
1710,92
1711,92
1712,92
1713,92
1714,92
1715,92
1716,92
1717,92
1718,92
1719,92
1720,93
1721,94
1722,94
1723,94
1724,94
1725,94
1726,94
1727,94
1728,94
1729,94
1730,94
1731,94
1732,94
1733,94
1734,94
1735,94
1736,94
1737,94
1738,94
1739,94
1740,94
1741,94
1742,94
1743,95
1744,95
1745,96
1746,96
1747,96
1748,96
1749,96
1750,96
1751,96
1752,96
1753,96
1754,96
1755,96
1756,97
1757,97
1758,97
1759,97
1760,97
1761,97
1762,97
1763,97
1764,97
1765,97
1766,97
1767,97
1768,97
1769,97
1770,97
1771,97
1772,97
1773,97
1774,97
1775,97
1776,97
1777,97
1778,97
1779,97
1780,97
1781,97
1782,97
1783,97
1784,98
1785,98
1786,98
1787,98
1788,98
1789,98
1790,98
1791,98
1792,98
1793,98
1794,98
1795,99
1796,99
1797,99
1798,99
1799,99
1800,100
1801,100
1802,100
1803,100
1804,100
1805,100
1806,100
1807,100
1808,100
1809,101
1810,101
1811,102
1812,102
1813,102
1814,102
1815,103
1816,103
1817,103
1818,103
1819,103
1820,103
1821,103
1822,103
1823,103
1824,103
1825,103
1826,103
1827,104
1828,104
1829,104
1830,104
1831,104
1832,104
1833,104
1834,104
1835,106
1836,106
1837,106
1838,106
1839,106
1840,106
1841,106
1842,106
1843,106
1844,107
1845,107
1846,107
1847,107
1848,107
1849,107
1850,107
1851,107
1852,107
1853,107
1854,107
1855,107
1856,107
1857,107
1858,107
1859,107
1860,107
1861,107
1862,107
1863,107
1864,107
1865,107
1866,107
1867,107
1868,107
1869,107
1870,107
1871,107
1872,107
1873,107
1874,107
1875,107
1876,107
1877,107
1878,107
1879,107
1880,107
1881,107
1882,107
1883,107
1884,107
1885,107
1886,107
1887,107
1888,107
1889,107
1890,107
1891,107
1892,107
1893,107
1894,107
1895,107
1896,107
1897,107
1898,107
1899,107
1900,107
1901,107
1902,107
1903,107
1904,107
1905,107
1906,107
1907,107
1908,107
1909,107
1910,107
1911,107
1912,107
1913,107
1914,107
1915,107
1916,107
1917,107
1918,107
1919,107
1920,107
1921,107
1922,107
1923,107
1924,107
1925,107
1926,107
1927,107
1928,107
1929,107
1930,107
1931,107
1932,107
1933,107
1934,107
1935,107
1936,108
1937,108
1938,108
1939,108
1940,108
1941,109
1942,109
1943,109
1944,109
1945,109
1946,109
1947,109
1948,109
1949,109
1950,109
1951,109
1952,109
1953,109
1954,109
1955,109
1956,110
1957,110
1958,110
1959,110
1960,110
1961,110
1962,110
1963,110
1964,110
1965,110
1966,110
1967,110
1968,110
1969,110
1970,110
1971,110
1972,110
1973,110
1974,110
1975,110
1976,110
1977,110
1978,110
1979,110
1980,110
1981,110
1982,110
1983,110
1984,110
1985,110
1986,111
1987,111
1988,111
1989,111
1990,111
1991,111
1992,111
1993,111
1994,111
1995,111
1996,111
1997,111
1998,111
1999,111
2000,111
