"tick","total"
0,0
1,0
2,0
3,0
4,0
5,0
6,0
7,0
8,0
9,1
10,1
11,1
12,1
13,1
14,1
15,2
16,3
17,3
18,3
19,3
20,3
21,3
22,4
23,4
24,6
25,6
26,6
27,6
28,6
29,6
30,6
31,6
32,7
33,8
34,8
35,8
36,8
37,8
38,8
39,8
40,8
41,8
42,8
43,8
44,8
45,8
46,8
47,8
48,8
49,8
50,8
51,8
52,8
53,8
54,8
55,8
56,8
57,8
58,8
59,8
60,8
61,8
62,8
63,8
64,8
65,9
66,9
67,9
68,9
69,9
70,9
71,9
72,9
73,10
74,10
75,10
76,10
77,10
78,10
79,10
80,10
81,10
82,10
83,10
84,10
85,10
86,10
87,10
88,10
89,10
90,10
91,10
92,10
93,10
94,10
95,10
96,10
97,10
98,10
99,10
100,10
101,10
102,10
103,10
104,10
105,10
106,10
107,10
108,11
109,11
110,11
111,11
112,11
113,11
114,12
115,12
116,12
117,12
118,12
119,12
120,12
121,12
122,12
123,12
124,12
125,12
126,12
127,13
128,13
129,13
130,13
131,13
132,13
133,13
134,13
135,13
136,13
137,13
138,13
139,13
140,13
141,13
142,13
143,13
144,13
145,13
146,14
147,15
148,15
149,15
150,15
151,15
152,15
153,15
154,16
155,16
156,17
157,17
158,17
159,17
160,17
161,17
162,17
163,17
164,18
165,18
166,18
167,18
168,18
169,18
170,18
171,18
172,18
173,18
174,18
175,18
176,18
177,19
178,19
179,19
180,19
181,19
182,19
183,19
184,19
185,19
186,19
187,19
188,19
189,19
190,19
191,19
192,19
193,19
194,19
195,19
196,20
197,20
198,20
199,20
200,20
201,20
202,20
203,20
204,20
205,20
206,20
207,20
208,20
209,20
210,21
211,21
212,22
213,22
214,22
215,22
216,22
217,22
218,22
219,22
220,22
221,22
222,22
223,22
224,22
225,22
226,22
227,23
228,23
229,23
230,23
231,23
232,23
233,23
234,23
235,23
236,24
237,24
238,24
239,24
240,24
241,24
242,24
243,24
244,24
245,24
246,24
247,24
248,24
249,25
250,25
251,25
252,25
253,25
254,25
255,25
256,25
257,25
258,25
259,25
260,25
261,25
262,25
263,25
264,25
265,25
266,25
267,25
268,25
269,25
270,25
271,25
272,25
273,25
274,25
275,25
276,25
277,25
278,26
279,26
280,26
281,26
282,26
283,26
284,26
285,26
286,26
287,26
288,26
289,26
290,26
291,26
292,26
293,27
294,27
295,27
296,27
297,27
298,27
299,27
300,27
301,27
302,27
303,27
304,27
305,28
306,28
307,28
308,28
309,28
310,28
311,29
312,29
313,29
314,29
315,29
316,29
317,29
318,29
319,29
320,29
321,29
322,29
323,29
324,29
325,29
326,29
327,29
328,29
329,30
330,30
331,30
332,30
333,30
334,30
335,30
336,31
337,31
338,31
339,31
340,31
341,31
342,32
343,32
344,32
345,32
346,32
347,33
348,33
349,33
350,33
351,33
352,33
353,33
354,33
355,33
356,33
357,33
358,33
359,33
360,33
361,33
362,33
363,33
364,33
365,34
366,34
367,34
368,34
369,34
370,34
371,34
372,34
373,34
374,35
375,35
376,35
377,35
378,35
379,35
380,36
381,36
382,37
383,37
384,37
385,37
386,37
387,37
388,37
389,37
390,37
391,37
392,37
393,37
394,37
395,37
396,37
397,37
398,37
399,37
400,37
401,37
402,37
403,37
404,37
405,37
406,37
407,37
408,37
409,38
410,38
411,38
412,38
413,38
414,38
415,38
416,38
417,38
418,38
419,38
420,39
421,39
422,39
423,39
424,40
425,40
426,40
427,41
428,41
429,41
430,41
431,42
432,42
433,42
434,42
435,42
436,42
437,42
438,42
439,42
440,42
441,42
442,42
443,42
444,42
445,42
446,43
447,43
448,43
449,43
450,44
451,44
452,44
453,44
454,44
455,44
456,44
457,44
458,44
459,44
460,44
461,44
462,44
463,44
464,44
465,44
466,44
467,45
468,45
469,45
470,45
471,45
472,45
473,45
474,45
475,45
476,45
477,45
478,45
479,45
480,45
481,45
482,45
483,45
484,47
485,47
486,47
487,47
488,47
489,47
490,47
491,47
492,47
493,47
494,47
495,47
496,47
497,47
498,47
499,47
500,47
501,47
502,47
503,47
504,47
505,47
506,47
507,47
508,47
509,47
510,48
511,48
512,48
513,49
514,49
515,49
516,49
517,49
518,50
519,50
520,50
521,50
522,51
523,51
524,51
525,51
526,51
527,52
528,52
529,52
530,53
531,53
532,53
533,53
534,53
535,53
536,53
537,53
538,53
539,53
540,53
541,53
542,53
543,53
544,53
545,53
546,53
547,53
548,54
549,54
550,54
551,54
552,54
553,54
554,54
555,54
556,54
557,54
558,54
559,54
560,54
561,54
562,54
563,54
564,55
565,55
566,55
567,55
568,55
569,55
570,55
571,55
572,55
573,55
574,55
575,55
576,55
577,55
578,55
579,55
580,55
581,55
582,55
583,55
584,55
585,55
586,55
587,55
588,55
589,55
590,55
591,55
592,55
593,55
594,55
595,55
596,55
597,55
598,55
599,55
600,55
601,55
602,55
603,55
604,55
605,55
606,56
607,56
608,56
609,56
610,56
611,56
612,56
613,57
614,57
615,57
616,57
617,57
618,58
619,58
620,58
621,58
622,58
623,58
624,58
625,58
626,58
627,58
628,59
629,59
630,59
631,59
632,59
633,59
634,59
635,59
636,59
637,59
638,59
639,60
640,60
641,60
642,60
643,61
644,62
645,62
646,62
647,62
648,62
649,62
650,62
651,62
652,62
653,62
654,62
655,62
656,63
657,63
658,63
659,63
660,63
661,63
662,63
663,64
664,64
665,64
666,64
667,64
668,64
669,65
670,65
671,65
672,65
673,65
674,65
675,65
676,65
677,65
678,65
679,65
680,65
681,65
682,66
683,66
684,66
685,66
686,66
687,66
688,66
689,66
690,66
691,66
692,66
693,66
694,66
695,66
696,66
697,66
698,66
699,66
700,66
701,67
702,67
703,67
704,68
705,68
706,68
707,68
708,68
709,68
710,68
711,68
712,68
713,68
714,68
715,68
716,68
717,68
718,68
719,68
720,68
721,68
722,68
723,68
724,68
725,68
726,68
727,68
728,68
729,68
730,68
731,68
732,68
733,68
734,69
735,69
736,69
737,69
738,69
739,69
740,69
741,69
742,69
743,69
744,69
745,70
746,70
747,70
748,70
749,70
750,70
751,70
752,71
753,71
754,71
755,71
756,71
757,72
758,72
759,72
760,72
761,72
762,72
763,72
764,72
765,72
766,72
767,72
768,72
769,72
770,72
771,72
772,72
773,72
774,72
775,72
776,72
777,72
778,72
779,73
780,73
781,73
782,73
783,73
784,74
785,74
786,74
787,74
788,74
789,74
790,74
791,74
792,74
793,74
794,74
795,74
796,74
797,74
798,74
799,75
800,75
801,75
802,75
803,76
804,76
805,76
806,77
807,77
808,77
809,77
810,77
811,77
812,77
813,77
814,77
815,77
816,77
817,77
818,77
819,77
820,77
821,77
822,77
823,77
824,77
825,77
826,77
827,77
828,77
829,77
830,77
831,77
832,77
833,77
834,77
835,77
836,77
837,77
838,77
839,77
840,77
841,77
842,77
843,77
844,77
845,77
846,77
847,77
848,77
849,77
850,77
851,78
852,78
853,78
854,78
855,78
856,78
857,79
858,79
859,79
860,79
861,79
862,79
863,79
864,79
865,79
866,79
867,79
868,79
869,79
870,79
871,79
872,79
873,79
874,79
875,79
876,79
877,79
878,79
879,79
880,79
881,79
882,79
883,79
884,79
885,79
886,79
887,79
888,79
889,79
890,79
891,79
892,79
893,79
894,79
895,79
896,79
897,79
898,79
899,79
900,79
901,79
902,79
903,79
904,79
905,79
906,79
907,79
908,80
909,80
910,80
911,80
912,80
913,80
914,80
915,80
916,80
917,80
918,80
919,80
920,80
921,80
922,80
923,80
924,80
925,80
926,80
927,80
928,80
929,80
930,80
931,80
932,80
933,80
934,80
935,80
936,80
937,80
938,80
939,80
940,80
941,80
942,80
943,80
944,80
945,80
946,80
947,81
948,81
949,81
950,81
951,81
952,81
953,81
954,81
955,81
956,81
957,81
958,81
959,81
960,81
961,82
962,82
963,82
964,82
965,82
966,82
967,82
968,83
969,83
970,83
971,83
972,83
973,83
974,83
975,83
976,83
977,83
978,83
979,83
980,83
981,83
982,83
983,83
984,83
985,83
986,83
987,83
988,83
989,83
990,83
991,83
992,83
993,83
994,83
995,83
996,83
997,83
998,83
999,83
1000,83
1001,83
1002,83
1003,83
1004,83
1005,83
1006,83
1007,83
1008,83
1009,83
1010,83
1011,83
1012,83
1013,83
1014,83
1015,83
1016,83
1017,83
1018,83
1019,83
1020,83
1021,83
1022,83
1023,83
1024,83
1025,83
1026,84
1027,84
1028,84
1029,84
1030,84
1031,84
1032,84
1033,84
1034,84
1035,84
1036,84
1037,84
1038,84
1039,84
1040,84
1041,84
1042,84
1043,84
1044,84
1045,84
1046,85
1047,85
1048,86
1049,86
1050,86
1051,86
1052,86
1053,86
1054,86
1055,86
1056,86
1057,87
1058,87
1059,87
1060,87
1061,87
1062,87
1063,87
1064,87
1065,87
1066,87
1067,87
1068,87
1069,87
1070,87
1071,87
1072,87
1073,87
1074,88
1075,88
1076,88
1077,88
1078,88
1079,89
1080,89
1081,89
1082,89
1083,89
1084,89
1085,89
1086,89
1087,89
1088,89
1089,89
1090,90
1091,90
1092,91
1093,91
1094,91
1095,92
1096,92
1097,92
1098,92
1099,92
1100,92
1101,93
1102,93
1103,93
1104,93
1105,93
1106,93
1107,93
1108,93
1109,93
1110,93
1111,93
1112,93
1113,93
1114,93
1115,93
1116,93
1117,93
1118,93
1119,93
1120,93
1121,93
1122,93
1123,93
1124,95
1125,95
1126,95
1127,96
1128,96
1129,97
1130,97
1131,98
1132,98
1133,98
1134,98
1135,98
1136,98
1137,98
1138,98
1139,98
1140,98
1141,98
1142,98
1143,98
1144,98
1145,98
1146,98
1147,98
1148,98
1149,99
1150,99
1151,99
1152,99
1153,99
1154,99
1155,99
1156,99
1157,99
1158,99
1159,100
1160,100
1161,100
1162,100
1163,100
1164,100
1165,100
1166,100
1167,100
1168,100
1169,100
1170,100
1171,100
1172,100
1173,100
1174,100
1175,100
1176,100
1177,100
1178,100
1179,100
1180,100
1181,100
1182,100
1183,100
1184,100
1185,100
1186,101
1187,101
1188,101
1189,101
1190,101
1191,101
1192,101
1193,101
1194,101
1195,101
1196,101
1197,101
1198,101
1199,101
1200,101
1201,101
1202,101
1203,101
1204,102
1205,102
1206,102
1207,102
1208,102
1209,102
1210,102
1211,102
1212,102
1213,102
1214,102
1215,102
1216,103
1217,103
1218,103
1219,103
1220,103
1221,103
1222,103
1223,103
1224,103
1225,103
1226,103
1227,103
1228,103
1229,103
1230,103
1231,103
1232,104
1233,105
1234,105
1235,105
1236,105
1237,105
1238,105
1239,105
1240,105
1241,105
1242,105
1243,105
1244,105
1245,105
1246,105
1247,105
1248,105
1249,105
1250,105
1251,105
1252,105
1253,106
1254,106
1255,106
1256,106
1257,106
1258,107
1259,107
1260,107
1261,107
1262,107
1263,107
1264,107
1265,107
1266,107
1267,107
1268,107
1269,107
1270,107
1271,107
1272,107
1273,107
1274,107
1275,107
1276,107
1277,107
1278,107
1279,107
1280,107
1281,107
1282,107
1283,107
1284,107
1285,107
1286,107
1287,107
1288,107
1289,107
1290,107
1291,107
1292,108
1293,108
1294,108
1295,108
1296,108
1297,108
1298,108
1299,108
1300,108
1301,108
1302,108
1303,108
1304,108
1305,108
1306,108
1307,108
1308,108
1309,108
1310,108
1311,108
1312,108
1313,108
1314,108
1315,108
1316,108
1317,108
1318,108
1319,108
1320,108
1321,108
1322,108
1323,108
1324,108
1325,108
1326,108
1327,108
1328,108
1329,108
1330,108
1331,108
1332,108
1333,108
1334,108
1335,108
1336,108
1337,108
1338,108
1339,108
1340,109
1341,109
1342,109
1343,109
1344,109
1345,109
1346,109
1347,110
1348,110
1349,110
1350,110
1351,110
1352,110
1353,110
1354,110
1355,110
1356,110
1357,110
1358,110
1359,110
1360,110
1361,110
1362,110
1363,110
1364,110
1365,110
1366,110
1367,110
1368,110
1369,110
1370,110
1371,110
1372,110
1373,110
1374,110
1375,110
1376,110
1377,111
1378,112
1379,112
1380,112
1381,112
1382,112
1383,112
1384,112
1385,112
1386,112
1387,112
1388,112
1389,112
1390,112
1391,112
1392,112
1393,112
1394,112
1395,112
1396,112
1397,112
1398,112
1399,112
1400,112
1401,112
1402,112
1403,113
1404,113
1405,113
1406,113
1407,113
1408,113
1409,113
1410,114
1411,114
1412,114
1413,114
1414,114
1415,114
1416,114
1417,115
1418,116
1419,116
1420,116
1421,116
1422,116
1423,116
1424,116
1425,117
1426,117
1427,117
1428,117
1429,117
1430,117
1431,117
1432,117
1433,117
1434,117
1435,117
1436,117
1437,117
1438,117
1439,117
1440,117
1441,117
1442,117
1443,117
1444,117
1445,117
1446,117
1447,117
1448,117
1449,117
1450,117
1451,117
1452,117
1453,118
1454,118
1455,118
1456,118
1457,118
1458,118
1459,118
1460,118
1461,118
1462,119
1463,119
1464,119
1465,119
1466,119
1467,119
1468,119
1469,119
1470,119
1471,119
1472,119
1473,119
1474,120
1475,120
1476,121
1477,121
1478,121
1479,121
1480,121
1481,121
1482,121
1483,121
1484,121
1485,121
1486,121
1487,121
1488,121
1489,121
1490,121
1491,121
1492,121
1493,121
1494,121
1495,121
1496,121
1497,121
1498,121
1499,122
1500,122
1501,122
1502,122
1503,122
1504,122
1505,122
1506,123
1507,124
1508,124
1509,124
1510,124
1511,124
1512,124
1513,124
1514,124
1515,124
1516,124
1517,124
1518,124
1519,124
1520,124
1521,124
1522,124
1523,124
1524,124
1525,124
1526,124
1527,124
1528,124
1529,125
1530,125
1531,125
1532,125
1533,125
1534,125
1535,125
1536,125
1537,125
1538,125
1539,125
1540,125
1541,126
1542,126
1543,126
1544,126
1545,126
1546,126
1547,126
1548,126
1549,126
1550,126
1551,126
1552,126
1553,126
1554,126
1555,126
1556,126
1557,126
1558,126
1559,127
1560,127
1561,127
1562,127
1563,127
1564,127
1565,127
1566,127
1567,127
1568,127
1569,127
1570,127
1571,127
1572,128
1573,128
1574,128
1575,128
1576,128
1577,128
1578,128
1579,128
1580,129
1581,129
1582,129
1583,129
1584,129
1585,129
1586,129
1587,129
1588,129
1589,129
1590,129
1591,129
1592,129
1593,129
1594,129
1595,129
1596,130
1597,130
1598,130
1599,130
1600,130
1601,130
1602,130
1603,130
1604,130
1605,130
1606,130
1607,130
1608,130
1609,130
1610,131
1611,131
1612,131
1613,131
1614,131
1615,131
1616,131
1617,131
1618,131
1619,131
1620,131
1621,131
1622,131
1623,131
1624,131
1625,131
1626,131
1627,131
1628,131
1629,131
1630,131
1631,131
1632,131
1633,131
1634,131
1635,131
1636,131
1637,131
1638,131
1639,131
1640,131
1641,131
1642,132
1643,132
1644,132
1645,132
1646,132
1647,132
1648,132
1649,132
1650,132
1651,133
1652,133
1653,133
1654,133
1655,133
1656,133
1657,133
1658,133
1659,133
1660,133
1661,133
1662,133
1663,133
1664,133
1665,133
1666,133
1667,133
1668,133
1669,133
1670,133
1671,134
1672,134
1673,134
1674,134
1675,134
1676,134
1677,134
1678,134
1679,134
1680,135
1681,135
1682,135
1683,135
1684,136
1685,136
1686,136
1687,136
1688,136
1689,136
1690,136
1691,136
1692,136
1693,136
1694,136
1695,136
1696,136
1697,136
1698,137
1699,137
1700,137
1701,137
1702,137
1703,137
1704,137
1705,137
1706,137
1707,137
1708,137
1709,137
1710,137
1711,137
1712,137
1713,137
1714,137
1715,137
1716,137
1717,137
1718,137
1719,137
1720,137
1721,137
1722,138
1723,138
1724,138
1725,138
1726,138
1727,138
1728,138
1729,138
1730,138
1731,138
1732,138
1733,138
1734,138
1735,138
1736,138
1737,138
1738,138
1739,139
1740,139
1741,139
1742,139
1743,139
1744,139
1745,139
1746,139
1747,139
1748,139
1749,140
1750,140
1751,140
1752,140
1753,140
1754,140
1755,140
1756,140
1757,140
1758,140
1759,140
1760,140
1761,140
1762,140
1763,140
1764,140
1765,140
1766,140
1767,140
1768,140
1769,140
1770,140
1771,140
1772,140
1773,140
1774,140
1775,140
1776,140
1777,140
1778,140
1779,140
1780,140
1781,140
1782,140
1783,140
1784,140
1785,140
1786,140
1787,140
1788,140
1789,140
1790,140
1791,140
1792,140
1793,140
1794,140
1795,140
1796,140
1797,140
1798,140
1799,140
1800,140
1801,140
1802,141
1803,142
1804,142
1805,142
1806,142
1807,142
1808,143
1809,143
1810,143
1811,143
1812,144
1813,144
1814,144
1815,144
1816,144
1817,144
1818,144
1819,144
1820,144
1821,144
1822,144
1823,144
1824,144
1825,144
1826,144
1827,144
1828,144
1829,144
1830,144
1831,144
1832,144
1833,144
1834,144
1835,144
1836,145
1837,145
1838,145
1839,145
1840,145
1841,145
1842,145
1843,145
1844,145
1845,145
1846,145
1847,145
1848,145
1849,145
1850,145
1851,145
1852,145
1853,145
1854,146
1855,146
1856,147
1857,147
1858,147
1859,147
1860,147
1861,147
1862,147
1863,147
1864,147
1865,147
1866,147
1867,147
1868,147
1869,147
1870,147
1871,147
1872,147
1873,147
1874,147
1875,147
1876,147
1877,147
1878,147
1879,147
1880,147
1881,147
1882,147
1883,147
1884,147
1885,147
1886,147
1887,147
1888,147
1889,147
1890,147
1891,147
1892,147
1893,147
1894,147
1895,147
1896,147
1897,147
1898,147
1899,147
1900,147
1901,147
1902,147
1903,147
1904,147
1905,147
1906,147
1907,147
1908,147
1909,147
1910,147
1911,147
1912,147
1913,147
1914,148
1915,148
1916,148
1917,148
1918,148
1919,148
1920,148
1921,148
1922,148
1923,148
1924,148
1925,148
1926,148
1927,148
1928,148
1929,148
1930,148
1931,148
1932,148
1933,148
1934,148
1935,148
1936,148
1937,148
1938,148
1939,148
1940,148
1941,148
1942,148
1943,148
1944,148
1945,148
1946,148
1947,148
1948,148
1949,148
1950,148
1951,148
1952,148
1953,148
1954,148
1955,148
1956,148
1957,148
1958,148
1959,148
1960,148
1961,148
1962,148
1963,148
1964,148
1965,148
1966,148
1967,148
1968,148
1969,148
1970,148
1971,149
1972,149
1973,149
1974,150
1975,151
1976,151
1977,151
1978,151
1979,151
1980,151
1981,151
1982,151
1983,151
1984,151
1985,151
1986,151
1987,151
1988,151
1989,151
1990,151
1991,151
1992,151
1993,151
1994,151
1995,151
1996,151
1997,151
1998,151
1999,151
2000,151
