"tick","total"
0,0
1,0
2,0
3,0
4,0
5,0
6,0
7,0
8,0
9,0
10,0
11,0
12,0
13,0
14,0
15,0
16,0
17,0
18,0
19,0
20,0
21,0
22,0
23,0
24,0
25,0
26,0
27,0
28,0
29,0
30,0
31,0
32,0
33,0
34,0
35,0
36,0
37,0
38,0
39,0
40,0
41,0
42,0
43,0
44,0
45,0
46,0
47,0
48,0
49,0
50,0
51,0
52,0
53,0
54,0
55,0
56,0
57,0
58,0
59,0
60,0
61,0
62,0
63,0
64,0
65,0
66,0
67,0
68,0
69,0
70,0
71,0
72,0
73,0
74,0
75,0
76,0
77,0
78,0
79,0
80,0
81,0
82,0
83,0
84,0
85,0
86,0
87,0
88,0
89,0
90,0
91,0
92,0
93,0
94,0
95,0
96,0
97,0
98,0
99,0
100,0
101,0
102,0
103,0
104,0
105,0
106,0
107,0
108,0
109,0
110,0
111,0
112,0
113,0
114,0
115,0
116,0
117,0
118,0
119,0
120,0
121,0
122,0
123,0
124,0
125,0
126,0
127,0
128,0
129,0
130,0
131,0
132,0
133,0
134,0
135,0
136,0
137,0
138,0
139,0
140,0
141,0
142,0
143,0
144,0
145,0
146,0
147,0
148,0
149,0
150,0
151,0
152,0
153,0
154,0
155,0
156,0
157,0
158,0
159,0
160,0
161,0
162,0
163,0
164,0
165,0
166,0
167,0
168,0
169,0
170,0
171,0
172,0
173,0
174,0
175,0
176,0
177,0
178,0
179,0
180,0
181,0
182,0
183,0
184,0
185,0
186,0
187,0
188,0
189,0
190,0
191,0
192,0
193,0
194,0
195,0
196,0
197,0
198,0
199,0
200,0
201,0
202,0
203,0
204,0
205,0
206,0
207,0
208,0
209,0
210,0
211,0
212,0
213,0
214,0
215,0
216,0
217,0
218,0
219,0
220,0
221,1
222,1
223,1
224,1
225,1
226,1
227,1
228,2
229,2
230,2
231,3
232,3
233,3
234,3
235,3
236,3
237,3
238,3
239,3
240,3
241,3
242,3
243,3
244,3
245,3
246,3
247,3
248,3
249,3
250,3
251,3
252,3
253,4
254,4
255,4
256,4
257,4
258,4
259,4
260,4
261,4
262,4
263,4
264,5
265,5
266,6
267,7
268,7
269,7
270,7
271,7
272,8
273,8
274,9
275,10
276,10
277,11
278,11
279,11
280,11
281,11
282,11
283,11
284,11
285,12
286,12
287,12
288,12
289,12
290,12
291,12
292,13
293,13
294,14
295,14
296,15
297,15
298,15
299,15
300,15
301,15
302,15
303,15
304,15
305,15
306,15
307,15
308,15
309,15
310,15
311,15
312,15
313,16
314,16
315,16
316,16
317,16
318,16
319,17
320,17
321,17
322,17
323,17
324,17
325,17
326,17
327,17
328,17
329,17
330,17
331,17
332,17
333,17
334,17
335,17
336,17
337,17
338,17
339,17
340,17
341,17
342,17
343,18
344,18
345,18
346,18
347,18
348,18
349,18
350,18
351,18
352,18
353,18
354,18
355,18
356,19
357,19
358,19
359,19
360,19
361,19
362,19
363,19
364,19
365,19
366,19
367,20
368,21
369,21
370,21
371,21
372,21
373,21
374,21
375,22
376,22
377,22
378,22
379,24
380,24
381,24
382,24
383,24
384,24
385,25
386,25
387,25
388,25
389,25
390,25
391,25
392,25
393,25
394,25
395,25
396,25
397,25
398,25
399,25
400,25
401,25
402,25
403,25
404,25
405,25
406,25
407,25
408,25
409,25
410,25
411,25
412,25
413,25
414,25
415,25
416,25
417,25
418,25
419,25
420,25
421,26
422,26
423,26
424,26
425,26
426,26
427,26
428,26
429,26
430,26
431,26
432,26
433,26
434,26
435,26
436,26
437,26
438,26
439,26
440,26
441,26
442,26
443,26
444,26
445,26
446,26
447,27
448,27
449,27
450,27
451,27
452,27
453,27
454,27
455,27
456,27
457,27
458,27
459,27
460,27
461,27
462,27
463,27
464,27
465,27
466,28
467,28
468,28
469,28
470,28
471,28
472,28
473,28
474,28
475,28
476,28
477,28
478,28
479,28
480,28
481,28
482,28
483,28
484,28
485,28
486,28
487,28
488,28
489,29
490,29
491,29
492,29
493,29
494,29
495,29
496,29
497,29
498,29
499,30
500,30
501,30
502,30
503,30
504,30
505,30
506,30
507,30
508,30
509,30
510,30
511,30
512,30
513,30
514,30
515,30
516,30
517,30
518,30
519,30
520,30
521,30
522,30
523,30
524,30
525,30
526,30
527,30
528,30
529,30
530,30
531,30
532,30
533,30
534,30
535,30
536,30
537,30
538,30
539,30
540,30
541,30
542,30
543,30
544,30
545,30
546,30
547,30
548,30
549,30
550,30
551,30
552,30
553,30
554,30
555,30
556,30
557,30
558,30
559,30
560,30
561,30
562,30
563,30
564,30
565,30
566,30
567,30
568,30
569,30
570,30
571,30
572,30
573,30
574,30
575,30
576,30
577,30
578,30
579,30
580,30
581,30
582,30
583,30
584,30
585,30
586,30
587,30
588,30
589,30
590,30
591,30
592,30
593,30
594,30
595,30
596,30
597,30
598,30
599,30
600,30
601,30
602,30
603,30
604,30
605,31
606,31
607,31
608,31
609,31
610,31
611,32
612,32
613,32
614,32
615,32
616,32
617,32
618,32
619,32
620,32
621,32
622,32
623,32
624,32
625,33
626,33
627,33
628,33
629,34
630,34
631,34
632,34
633,34
634,34
635,34
636,34
637,34
638,34
639,34
640,34
641,34
642,34
643,34
644,34
645,34
646,34
647,34
648,34
649,35
650,35
651,35
652,35
653,35
654,36
655,36
656,36
657,36
658,36
659,36
660,36
661,36
662,37
663,37
664,37
665,37
666,38
667,38
668,38
669,38
670,38
671,38
672,38
673,38
674,38
675,38
676,38
677,38
678,38
679,38
680,38
681,38
682,38
683,39
684,39
685,39
686,39
687,39
688,39
689,39
690,39
691,39
692,39
693,39
694,39
695,39
696,39
697,39
698,39
699,39
700,39
701,39
702,39
703,40
704,40
705,40
706,40
707,40
708,40
709,40
710,40
711,40
712,40
713,40
714,40
715,40
716,40
717,40
718,40
719,40
720,40
721,40
722,40
723,40
724,40
725,40
726,41
727,41
728,41
729,41
730,41
731,41
732,41
733,41
734,41
735,41
736,41
737,41
738,41
739,41
740,41
741,42
742,42
743,42
744,42
745,42
746,42
747,42
748,42
749,43
750,43
751,43
752,43
753,43
754,43
755,43
756,43
757,43
758,43
759,43
760,43
761,43
762,43
763,43
764,43
765,43
766,43
767,43
768,43
769,43
770,43
771,43
772,43
773,43
774,43
775,44
776,44
777,44
778,44
779,44
780,44
781,44
782,44
783,44
784,44
785,44
786,44
787,44
788,44
789,44
790,44
791,44
792,44
793,44
794,44
795,44
796,44
797,45
798,45
799,46
800,46
801,46
802,46
803,46
804,46
805,46
806,46
807,47
808,48
809,49
810,49
811,49
812,49
813,49
814,49
815,49
816,49
817,49
818,49
819,49
820,49
821,50
822,50
823,50
824,50
825,50
826,50
827,50
828,50
829,50
830,50
831,50
832,50
833,50
834,50
835,50
836,50
837,50
838,50
839,50
840,50
841,50
842,50
843,50
844,50
845,50
846,51
847,51
848,52
849,52
850,52
851,52
852,52
853,53
854,53
855,54
856,54
857,54
858,54
859,54
860,55
861,55
862,55
863,55
864,55
865,55
866,55
867,56
868,56
869,56
870,56
871,56
872,56
873,56
874,56
875,56
876,56
877,56
878,56
879,56
880,57
881,57
882,57
883,57
884,57
885,57
886,57
887,57
888,57
889,57
890,57
891,57
892,57
893,57
894,57
895,57
896,57
897,57
898,57
899,57
900,57
901,57
902,57
903,57
904,58
905,58
906,58
907,58
908,58
909,58
910,58
911,58
912,58
913,58
914,58
915,58
916,58
917,58
918,58
919,58
920,58
921,58
922,58
923,58
924,58
925,58
926,59
927,59
928,60
929,60
930,60
931,60
932,60
933,60
934,60
935,60
936,60
937,60
938,60
939,60
940,60
941,60
942,60
943,60
944,60
945,60
946,60
947,60
948,60
949,60
950,60
951,60
952,60
953,60
954,60
955,60
956,60
957,60
958,60
959,60
960,60
961,60
962,60
963,60
964,60
965,60
966,60
967,60
968,60
969,60
970,60
971,60
972,60
973,60
974,60
975,60
976,60
977,60
978,60
979,60
980,60
981,60
982,60
983,60
984,60
985,60
986,61
987,61
988,61
989,61
990,61
991,61
992,61
993,61
994,61
995,61
996,61
997,61
998,61
999,61
1000,61
1001,61
1002,61
1003,61
1004,61
1005,61
1006,61
1007,61
1008,61
1009,61
1010,61
1011,61
1012,61
1013,61
1014,61
1015,61
1016,61
1017,61
1018,61
1019,61
1020,61
1021,61
1022,61
1023,61
1024,61
1025,61
1026,61
1027,61
1028,61
1029,61
1030,62
1031,62
1032,62
1033,62
1034,62
1035,62
1036,62
1037,62
1038,62
1039,62
1040,62
1041,62
1042,62
1043,62
1044,62
1045,62
1046,62
1047,62
1048,62
1049,62
1050,62
1051,62
1052,62
1053,62
1054,62
1055,62
1056,62
1057,62
1058,62
1059,62
1060,62
1061,62
1062,62
1063,62
1064,62
1065,62
1066,62
1067,62
1068,62
1069,62
1070,62
1071,62
1072,62
1073,62
1074,62
1075,62
1076,62
1077,62
1078,62
1079,62
1080,62
1081,62
1082,62
1083,62
1084,62
1085,62
1086,62
1087,62
1088,62
1089,62
1090,62
1091,62
1092,62
1093,62
1094,62
1095,62
1096,62
1097,62
1098,62
1099,62
1100,62
1101,62
1102,62
1103,62
1104,62
1105,62
1106,62
1107,62
1108,62
1109,62
1110,62
1111,62
1112,62
1113,62
1114,62
1115,62
1116,62
1117,62
1118,62
1119,62
1120,62
1121,62
1122,62
1123,62
1124,62
1125,62
1126,62
1127,62
1128,62
1129,62
1130,62
1131,62
1132,62
1133,62
1134,62
1135,62
1136,62
1137,62
1138,63
1139,63
1140,63
1141,63
1142,63
1143,63
1144,63
1145,63
1146,63
1147,63
1148,63
1149,63
1150,63
1151,63
1152,63
1153,63
1154,63
1155,63
1156,63
1157,63
1158,63
1159,63
1160,63
1161,63
1162,63
1163,63
1164,63
1165,63
1166,63
1167,63
1168,63
1169,63
1170,63
1171,63
1172,63
1173,63
1174,63
1175,63
1176,63
1177,63
1178,64
1179,64
1180,64
1181,64
1182,64
1183,64
1184,64
1185,64
1186,64
1187,64
1188,64
1189,64
1190,64
1191,64
1192,64
1193,64
1194,64
1195,64
1196,64
1197,64
1198,64
1199,64
1200,64
1201,64
1202,64
1203,64
1204,64
1205,65
1206,65
1207,65
1208,65
1209,65
1210,65
1211,65
1212,65
1213,65
1214,65
1215,65
1216,65
1217,65
1218,65
1219,65
1220,66
1221,66
1222,66
1223,66
1224,66
1225,66
1226,66
1227,66
1228,66
1229,66
1230,66
1231,66
1232,66
1233,66
1234,66
1235,66
1236,66
1237,66
1238,66
1239,66
1240,66
1241,66
1242,66
1243,66
1244,66
1245,66
1246,66
1247,66
1248,66
1249,66
1250,66
1251,66
1252,66
1253,66
1254,66
1255,66
1256,66
1257,66
1258,66
1259,66
1260,66
1261,67
1262,67
1263,69
1264,69
1265,69
1266,69
1267,70
1268,70
1269,70
1270,70
1271,70
1272,70
1273,70
1274,70
1275,70
1276,70
1277,70
1278,70
1279,70
1280,70
1281,70
1282,70
1283,70
1284,70
1285,70
1286,70
1287,70
1288,70
1289,70
1290,70
1291,70
1292,70
1293,70
1294,70
1295,70
1296,70
1297,70
1298,70
1299,70
1300,70
1301,70
1302,70
1303,70
1304,70
1305,70
1306,70
1307,71
1308,71
1309,71
1310,71
1311,71
1312,71
1313,71
1314,71
1315,71
1316,71
1317,71
1318,72
1319,72
1320,72
1321,72
1322,72
1323,72
1324,72
1325,72
1326,73
1327,73
1328,73
1329,73
1330,73
1331,73
1332,73
1333,73
1334,73
1335,73
1336,73
1337,73
1338,73
1339,73
1340,73
1341,73
1342,73
1343,73
1344,73
1345,73
1346,73
1347,73
1348,73
1349,73
1350,73
1351,73
1352,73
1353,73
1354,73
1355,73
1356,73
1357,73
1358,73
1359,73
1360,73
1361,73
1362,73
1363,73
1364,73
1365,73
1366,73
1367,73
1368,74
1369,74
1370,74
1371,74
1372,74
1373,74
1374,74
1375,74
1376,74
1377,74
1378,74
1379,74
1380,74
1381,74
1382,74
1383,74
1384,74
1385,74
1386,74
1387,74
1388,74
1389,74
1390,74
1391,74
1392,74
1393,74
1394,74
1395,74
1396,75
1397,76
1398,76
1399,76
1400,76
1401,76
1402,76
1403,76
1404,76
1405,77
1406,77
1407,77
1408,77
1409,77
1410,78
1411,78
1412,78
1413,79
1414,79
1415,79
1416,79
1417,79
1418,79
1419,79
1420,79
1421,79
1422,79
1423,79
1424,79
1425,79
1426,79
1427,79
1428,79
1429,79
1430,80
1431,80
1432,80
1433,80
1434,80
1435,80
1436,80
1437,80
1438,80
1439,80
1440,80
1441,80
1442,80
1443,80
1444,80
1445,80
1446,80
1447,80
1448,81
1449,81
1450,81
1451,81
1452,81
1453,81
1454,81
1455,82
1456,82
1457,82
1458,82
1459,82
1460,83
1461,83
1462,83
1463,83
1464,83
1465,83
1466,83
1467,83
1468,83
1469,84
1470,84
1471,84
1472,84
1473,84
1474,84
1475,84
1476,85
1477,85
1478,85
1479,85
1480,86
1481,86
1482,86
1483,86
1484,86
1485,86
1486,86
1487,86
1488,86
1489,86
1490,86
1491,86
1492,86
1493,86
1494,86
1495,86
1496,86
1497,86
1498,86
1499,86
1500,86
1501,86
1502,86
1503,86
1504,86
1505,86
1506,86
1507,86
1508,86
1509,86
1510,86
1511,86
1512,87
1513,87
1514,87
1515,87
1516,87
1517,87
1518,87
1519,87
1520,87
1521,87
1522,87
1523,87
1524,87
1525,87
1526,87
1527,87
1528,87
1529,87
1530,87
1531,87
1532,87
1533,87
1534,87
1535,87
1536,87
1537,87
1538,87
1539,87
1540,87
1541,87
1542,87
1543,87
1544,87
1545,87
1546,87
1547,87
1548,88
1549,88
1550,88
1551,88
1552,88
1553,88
1554,88
1555,88
1556,88
1557,88
1558,88
1559,88
1560,88
1561,88
1562,88
1563,88
1564,88
1565,88
1566,88
1567,88
1568,88
1569,88
1570,88
1571,88
1572,88
1573,88
1574,88
1575,88
1576,88
1577,88
1578,88
1579,88
1580,88
1581,88
1582,88
1583,88
1584,88
1585,88
1586,88
1587,88
1588,88
1589,88
1590,88
1591,88
1592,88
1593,88
1594,88
1595,88
1596,88
1597,88
1598,88
1599,88
1600,88
1601,88
1602,88
1603,88
1604,88
1605,88
1606,88
1607,88
1608,88
1609,88
1610,88
1611,88
1612,88
1613,88
1614,88
1615,88
1616,88
1617,88
1618,88
1619,88
1620,88
1621,88
1622,88
1623,88
1624,88
1625,88
1626,88
1627,88
1628,88
1629,88
1630,88
1631,88
1632,88
1633,88
1634,88
1635,88
1636,88
1637,88
1638,88
1639,88
1640,88
1641,88
1642,88
1643,88
1644,88
1645,88
1646,88
1647,88
1648,88
1649,88
1650,88
1651,88
1652,88
1653,88
1654,88
1655,89
1656,89
1657,89
1658,89
1659,89
1660,89
1661,89
1662,89
1663,89
1664,89
1665,89
1666,89
1667,90
1668,90
1669,90
1670,90
1671,90
1672,90
1673,90
1674,90
1675,90
1676,91
1677,91
1678,91
1679,91
1680,91
1681,91
1682,91
1683,91
1684,91
1685,91
1686,91
1687,91
1688,91
1689,91
1690,91
1691,91
1692,91
1693,91
1694,91
1695,91
1696,91
1697,91
1698,91
1699,91
1700,91
1701,91
1702,91
1703,92
1704,92
1705,92
1706,92
1707,92
1708,92
1709,92
1710,93
1711,93
1712,93
1713,93
1714,93
1715,93
1716,93
1717,93
1718,93
1719,93
1720,93
1721,93
1722,93
1723,93
1724,93
1725,93
1726,93
1727,94
1728,94
1729,94
1730,94
1731,94
1732,94
1733,94
1734,95
1735,95
1736,95
1737,95
1738,95
1739,95
1740,95
1741,95
1742,95
1743,95
1744,95
1745,95
1746,95
1747,95
1748,95
1749,95
1750,95
1751,95
1752,95
1753,95
1754,95
1755,95
1756,95
1757,95
1758,95
1759,95
1760,95
1761,95
1762,95
1763,95
1764,95
1765,96
1766,96
1767,96
1768,96
1769,96
1770,96
1771,96
1772,96
1773,96
1774,97
1775,97
1776,98
1777,98
1778,98
1779,98
1780,98
1781,98
1782,98
1783,98
1784,98
1785,99
1786,99
1787,99
1788,99
1789,99
1790,99
1791,100
1792,100
1793,100
1794,100
1795,100
1796,100
1797,100
1798,100
1799,100
1800,100
1801,100
1802,100
1803,100
1804,100
1805,100
1806,100
1807,100
1808,100
1809,100
1810,100
1811,100
1812,100
1813,100
1814,100
1815,100
1816,100
1817,100
1818,100
1819,100
1820,100
1821,100
1822,100
1823,100
1824,100
1825,100
1826,100
1827,100
1828,100
1829,100
1830,100
1831,100
1832,101
1833,102
1834,102
1835,102
1836,102
1837,102
1838,102
1839,102
1840,102
1841,102
1842,102
1843,103
1844,103
1845,104
1846,104
1847,104
1848,104
1849,105
1850,105
1851,105
1852,105
1853,105
1854,105
1855,105
1856,105
1857,105
1858,105
1859,105
1860,105
1861,105
1862,105
1863,106
1864,106
1865,106
1866,106
1867,106
1868,106
1869,106
1870,106
1871,106
1872,106
1873,106
1874,106
1875,106
1876,107
1877,107
1878,107
1879,107
1880,107
1881,107
1882,107
1883,107
1884,107
1885,107
1886,107
1887,108
1888,108
1889,108
1890,108
1891,108
1892,108
1893,108
1894,108
1895,108
1896,108
1897,108
1898,108
1899,108
1900,108
1901,108
1902,108
1903,108
1904,108
1905,109
1906,109
1907,109
1908,109
1909,109
1910,109
1911,109
1912,109
1913,109
1914,109
1915,109
1916,109
1917,109
1918,109
1919,109
1920,109
1921,109
1922,109
1923,109
1924,109
1925,109
1926,109
1927,109
1928,109
1929,109
1930,109
1931,109
1932,109
1933,109
1934,110
1935,111
1936,111
1937,111
1938,111
1939,111
1940,111
1941,111
1942,111
1943,111
1944,111
1945,111
1946,111
1947,111
1948,111
1949,111
1950,111
1951,111
1952,111
1953,111
1954,111
1955,111
1956,111
1957,111
1958,111
1959,111
1960,111
1961,111
1962,111
1963,111
1964,111
1965,111
1966,111
1967,111
1968,111
1969,111
1970,111
1971,111
1972,111
1973,111
1974,111
1975,111
1976,112
1977,112
1978,112
1979,112
1980,112
1981,112
1982,112
1983,112
1984,112
1985,112
1986,112
1987,112
1988,112
1989,112
1990,112
1991,112
1992,112
1993,112
1994,112
1995,112
1996,112
1997,112
1998,112
1999,112
2000,112
