"tick","susceptible","exposed","infectious","recovered"
0,99,1,0,0
1,99,1,0,0
2,99,1,0,0
3,99,1,0,0
4,99,1,0,0
5,99,1,0,0
6,99,1,0,0
7,99,1,0,0
8,99,1,0,0
9,99,1,0,0
10,99,1,0,0
11,99,1,0,0
12,99,1,0,0
13,99,1,0,0
14,99,1,0,0
15,99,1,0,0
16,99,1,0,0
17,99,1,0,0
18,99,1,0,0
19,99,1,0,0
20,99,1,0,0
21,99,1,0,0
22,99,1,0,0
23,99,1,0,0
24,99,1,0,0
25,99,1,0,0
26,99,1,0,0
27,99,1,0,0
28,99,1,0,0
29,99,1,0,0
30,99,1,0,0
31,99,1,0,0
32,99,1,0,0
33,99,1,0,0
34,99,1,0,0
35,99,1,0,0
36,99,1,0,0
37,99,1,0,0
38,99,1,0,0
39,99,1,0,0
40,99,1,0,0
41,99,1,0,0
42,99,1,0,0
43,99,1,0,0
44,99,1,0,0
45,99,1,0,0
46,99,1,0,0
47,99,1,0,0
48,99,1,0,0
49,99,1,0,0
50,99,1,0,0
51,99,1,0,0
52,99,1,0,0
53,99,1,0,0
54,99,1,0,0
55,99,1,0,0
56,99,1,0,0
57,99,1,0,0
58,99,1,0,0
59,99,1,0,0
60,99,1,0,0
61,99,1,0,0
62,99,1,0,0
63,99,1,0,0
64,99,1,0,0
65,99,1,0,0
66,99,1,0,0
67,99,1,0,0
68,99,1,0,0
69,99,1,0,0
70,99,1,0,0
71,99,1,0,0
72,99,1,0,0
73,99,1,0,0
74,99,1,0,0
75,99,1,0,0
76,99,1,0,0
77,99,1,0,0
78,99,1,0,0
79,99,1,0,0
80,99,1,0,0
81,99,1,0,0
82,99,1,0,0
83,99,1,0,0
84,99,1,0,0
85,99,1,0,0
86,99,1,0,0
87,99,1,0,0
88,99,1,0,0
89,99,1,0,0
90,99,1,0,0
91,99,1,0,0
92,99,1,0,0
93,99,1,0,0
94,99,1,0,0
95,99,1,0,0
96,99,1,0,0
97,99,1,0,0
98,99,1,0,0
99,99,1,0,0
100,99,1,0,0
101,99,1,0,0
102,99,1,0,0
103,99,1,0,0
104,99,1,0,0
105,99,1,0,0
106,99,1,0,0
107,99,1,0,0
108,99,1,0,0
109,99,1,0,0
110,99,1,0,0
111,99,1,0,0
112,99,1,0,0
113,99,1,0,0
114,99,1,0,0
115,99,1,0,0
116,99,1,0,0
117,99,1,0,0
118,99,1,0,0
119,99,1,0,0
120,99,1,0,0
121,99,1,0,0
122,99,1,0,0
123,99,1,0,0
124,99,1,0,0
125,99,1,0,0
126,99,1,0,0
127,99,1,0,0
128,99,1,0,0
129,99,1,0,0
130,99,1,0,0
131,99,1,0,0
132,99,1,0,0
133,99,1,0,0
134,99,1,0,0
135,99,1,0,0
136,99,1,0,0
137,99,1,0,0
138,99,1,0,0
139,99,1,0,0
140,99,1,0,0
141,99,1,0,0
142,99,1,0,0
143,99,1,0,0
144,99,1,0,0
145,99,1,0,0
146,99,1,0,0
147,99,1,0,0
148,99,1,0,0
149,99,1,0,0
150,99,1,0,0
151,99,1,0,0
152,99,1,0,0
153,99,1,0,0
154,99,1,0,0
155,99,1,0,0
156,99,1,0,0
157,99,1,0,0
158,99,1,0,0
159,99,1,0,0
160,99,1,0,0
161,99,1,0,0
162,99,1,0,0
163,99,1,0,0
164,99,1,0,0
165,99,1,0,0
166,99,1,0,0
167,99,1,0,0
168,99,1,0,0
169,99,1,0,0
170,99,1,0,0
171,99,1,0,0
172,99,1,0,0
173,99,1,0,0
174,99,1,0,0
175,99,1,0,0
176,99,1,0,0
177,99,1,0,0
178,99,1,0,0
179,99,1,0,0
180,99,1,0,0
181,99,1,0,0
182,99,1,0,0
183,99,1,0,0
184,99,1,0,0
185,99,1,0,0
186,99,1,0,0
187,99,1,0,0
188,99,1,0,0
189,99,1,0,0
190,99,1,0,0
191,99,1,0,0
192,99,1,0,0
193,99,1,0,0
194,99,1,0,0
195,99,1,0,0
196,99,1,0,0
197,99,1,0,0
198,99,1,0,0
199,99,1,0,0
200,99,1,0,0
201,99,0,1,0
202,99,0,1,0
203,99,0,1,0
204,98,1,1,0
205,98,1,1,0
206,98,1,1,0
207,98,1,1,0
208,98,1,1,0
209,98,1,1,0
210,98,1,1,0
211,97,2,1,0
212,97,2,1,0
213,97,2,1,0
214,97,2,1,0
215,96,3,1,0
216,96,3,1,0
217,96,3,1,0
218,96,3,1,0
219,96,3,1,0
220,96,3,1,0
221,96,3,1,0
222,96,3,1,0
223,96,3,1,0
224,96,3,1,0
225,96,3,1,0
226,96,3,1,0
227,96,3,1,0
228,96,3,1,0
229,96,3,1,0
230,96,3,1,0
231,96,3,1,0
232,96,3,1,0
233,96,3,1,0
234,96,3,1,0
235,96,3,1,0
236,96,3,1,0
237,96,3,1,0
238,96,3,1,0
239,96,3,1,0
240,96,3,1,0
241,96,3,1,0
242,96,3,1,0
243,96,3,1,0
244,96,3,1,0
245,96,3,1,0
246,96,3,1,0
247,96,3,1,0
248,96,3,1,0
249,96,3,1,0
250,96,3,1,0
251,96,3,1,0
252,96,3,1,0
253,96,3,1,0
254,96,3,1,0
255,96,3,1,0
256,96,3,1,0
257,96,3,1,0
258,96,3,1,0
259,96,3,1,0
260,96,3,1,0
261,96,3,1,0
262,96,3,1,0
263,96,3,1,0
264,96,3,1,0
265,96,3,1,0
266,96,3,1,0
267,96,3,1,0
268,96,3,1,0
269,96,3,1,0
270,96,3,1,0
271,96,3,1,0
272,96,3,1,0
273,96,3,1,0
274,96,3,1,0
275,96,3,1,0
276,96,3,1,0
277,96,3,1,0
278,96,3,1,0
279,96,3,1,0
280,96,3,1,0
281,96,3,1,0
282,96,3,1,0
283,96,3,1,0
284,96,3,1,0
285,96,3,1,0
286,96,3,1,0
287,96,3,1,0
288,96,3,1,0
289,96,3,1,0
290,96,3,1,0
291,96,3,1,0
292,96,3,1,0
293,96,3,1,0
294,96,3,1,0
295,96,3,1,0
296,96,3,1,0
297,95,4,1,0
298,95,4,1,0
299,95,4,1,0
300,95,4,1,0
301,95,4,1,0
302,95,4,1,0
303,95,4,1,0
304,95,4,1,0
305,95,4,1,0
306,95,4,1,0
307,95,4,1,0
308,94,5,1,0
309,94,5,1,0
310,94,5,1,0
311,94,5,1,0
312,94,5,1,0
313,94,5,1,0
314,94,5,1,0
315,94,5,1,0
316,94,5,1,0
317,94,5,1,0
318,94,5,1,0
319,94,5,1,0
320,94,5,1,0
321,94,5,1,0
322,94,5,1,0
323,94,5,1,0
324,94,5,1,0
325,94,5,1,0
326,94,5,1,0
327,94,5,1,0
328,94,5,1,0
329,94,5,1,0
330,94,5,1,0
331,94,5,1,0
332,94,5,1,0
333,94,5,1,0
334,94,5,1,0
335,94,5,1,0
336,94,5,1,0
337,94,5,1,0
338,94,5,1,0
339,94,5,1,0
340,94,5,1,0
341,94,5,1,0
342,94,5,1,0
343,94,5,1,0
344,94,5,1,0
345,94,5,1,0
346,94,5,1,0
347,94,5,1,0
348,94,5,1,0
349,94,5,1,0
350,94,5,1,0
351,94,5,1,0
352,94,5,1,0
353,94,5,1,0
354,94,5,1,0
355,94,5,1,0
356,94,5,1,0
357,94,5,1,0
358,94,5,1,0
359,94,5,1,0
360,94,5,1,0
361,94,5,1,0
362,94,5,1,0
363,94,5,1,0
364,94,5,1,0
365,94,5,1,0
366,94,5,1,0
367,94,5,1,0
368,94,5,1,0
369,94,5,1,0
370,94,5,1,0
371,94,5,1,0
372,94,5,1,0
373,94,5,1,0
374,94,5,1,0
375,94,5,1,0
376,94,5,1,0
377,94,5,1,0
378,93,6,1,0
379,93,6,1,0
380,93,6,1,0
381,93,6,1,0
382,93,6,1,0
383,93,6,1,0
384,93,6,1,0
385,93,6,1,0
386,93,6,1,0
387,93,6,1,0
388,93,6,1,0
389,93,6,1,0
390,93,6,1,0
391,93,6,1,0
392,93,6,1,0
393,93,6,1,0
394,93,6,1,0
395,93,6,1,0
396,93,6,1,0
397,93,6,1,0
398,93,6,1,0
399,93,6,1,0
400,93,6,1,0
401,93,6,1,0
402,93,6,0,1
403,93,6,0,1
404,93,6,0,1
405,93,5,1,1
406,93,5,1,1
407,93,5,1,1
408,93,5,1,1
409,93,5,1,1
410,93,5,1,1
411,93,5,1,1
412,93,4,2,1
413,93,4,2,1
414,93,4,2,1
415,93,4,2,1
416,91,5,3,1
417,91,5,3,1
418,91,5,3,1
419,91,5,3,1
420,91,5,3,1
421,91,5,3,1
422,91,5,3,1
423,91,5,3,1
424,91,5,3,1
425,90,6,3,1
426,90,6,3,1
427,90,6,3,1
428,90,6,3,1
429,90,6,3,1
430,89,7,3,1
431,89,7,3,1
432,89,7,3,1
433,89,7,3,1
434,88,8,3,1
435,88,8,3,1
436,88,8,3,1
437,88,8,3,1
438,88,8,3,1
439,88,8,3,1
440,88,8,3,1
441,88,8,3,1
442,88,8,3,1
443,88,8,3,1
444,88,8,3,1
445,88,8,3,1
446,88,8,3,1
447,88,8,3,1
448,88,8,3,1
449,88,8,3,1
450,88,8,3,1
451,88,8,3,1
452,88,8,3,1
453,88,8,3,1
454,88,8,3,1
455,88,8,3,1
456,88,8,3,1
457,88,8,3,1
458,88,8,3,1
459,88,8,3,1
460,88,8,3,1
461,88,8,3,1
462,88,8,3,1
463,88,8,3,1
464,88,8,3,1
465,87,9,3,1
466,87,9,3,1
467,87,9,3,1
468,87,9,3,1
469,87,9,3,1
470,87,9,3,1
471,87,9,3,1
472,87,9,3,1
473,86,10,3,1
474,86,10,3,1
475,86,10,3,1
476,85,11,3,1
477,85,11,3,1
478,84,12,3,1
479,84,12,3,1
480,84,12,3,1
481,83,13,3,1
482,83,13,3,1
483,83,13,3,1
484,83,13,3,1
485,83,13,3,1
486,83,13,3,1
487,83,13,3,1
488,83,13,3,1
489,83,13,3,1
490,83,13,3,1
491,83,13,3,1
492,83,13,3,1
493,83,13,3,1
494,83,13,3,1
495,83,13,3,1
496,83,13,3,1
497,83,13,3,1
498,83,12,4,1
499,82,13,4,1
500,81,14,4,1
501,81,14,4,1
502,80,15,4,1
503,80,15,4,1
504,80,15,4,1
505,80,15,4,1
506,80,15,4,1
507,79,16,4,1
508,79,16,4,1
509,79,15,5,1
510,79,15,5,1
511,79,15,5,1
512,78,16,5,1
513,77,17,5,1
514,77,17,5,1
515,76,18,5,1
516,76,18,5,1
517,76,18,5,1
518,76,18,5,1
519,76,18,5,1
520,75,19,5,1
521,75,19,5,1
522,75,19,5,1
523,75,19,5,1
524,75,19,5,1
525,75,19,5,1
526,75,19,5,1
527,75,19,5,1
528,75,19,5,1
529,75,19,5,1
530,75,19,5,1
531,75,19,5,1
532,75,19,5,1
533,75,19,5,1
534,75,19,5,1
535,74,20,5,1
536,74,20,5,1
537,74,20,5,1
538,74,20,5,1
539,74,20,5,1
540,74,20,5,1
541,74,20,5,1
542,74,20,5,1
543,74,20,5,1
544,73,21,5,1
545,73,21,5,1
546,72,22,5,1
547,72,22,5,1
548,71,23,5,1
549,71,23,5,1
550,71,23,5,1
551,71,23,5,1
552,71,23,5,1
553,71,23,5,1
554,71,23,5,1
555,71,23,5,1
556,71,23,5,1
557,71,23,5,1
558,71,23,5,1
559,71,23,5,1
560,71,23,5,1
561,71,23,5,1
562,71,23,5,1
563,71,23,5,1
564,71,23,5,1
565,71,23,5,1
566,71,23,5,1
567,71,23,5,1
568,71,23,5,1
569,71,23,5,1
570,71,23,5,1
571,71,23,5,1
572,71,23,5,1
573,71,23,5,1
574,71,23,5,1
575,71,23,5,1
576,70,24,5,1
577,70,24,5,1
578,70,24,5,1
579,70,23,6,1
580,70,23,6,1
581,70,23,6,1
582,70,23,6,1
583,70,23,6,1
584,70,23,6,1
585,70,23,6,1
586,70,23,6,1
587,70,23,6,1
588,70,23,6,1
589,70,23,6,1
590,70,23,6,1
591,70,23,6,1
592,70,23,6,1
593,70,23,6,1
594,70,23,6,1
595,70,23,6,1
596,70,23,6,1
597,70,23,6,1
598,70,23,6,1
599,70,23,6,1
600,70,23,6,1
601,70,23,6,1
602,70,23,6,1
603,70,23,6,1
604,70,23,6,1
605,70,23,6,1
606,70,23,5,2
607,70,23,5,2
608,70,23,5,2
609,70,23,5,2
610,70,23,5,2
611,70,23,5,2
612,70,23,5,2
613,70,23,4,3
614,70,23,4,3
615,70,23,4,3
616,70,23,4,3
617,70,21,5,4
618,70,21,5,4
619,70,21,5,4
620,70,21,5,4
621,70,21,5,4
622,70,21,5,4
623,70,21,5,4
624,70,21,5,4
625,70,21,5,4
626,70,20,6,4
627,70,20,6,4
628,70,20,6,4
629,70,20,6,4
630,70,20,6,4
631,70,19,7,4
632,69,20,7,4
633,69,20,7,4
634,69,20,7,4
635,69,19,8,4
636,69,19,8,4
637,68,20,8,4
638,68,20,8,4
639,68,20,8,4
640,67,21,8,4
641,67,21,8,4
642,67,21,8,4
643,67,21,8,4
644,67,21,8,4
645,67,21,8,4
646,67,21,8,4
647,67,21,8,4
648,67,21,8,4
649,67,21,8,4
650,67,21,8,4
651,67,21,8,4
652,67,21,8,4
653,66,22,8,4
654,66,22,8,4
655,66,22,8,4
656,66,22,8,4
657,66,22,8,4
658,65,23,8,4
659,65,23,8,4
660,65,23,8,4
661,65,23,8,4
662,65,23,8,4
663,65,23,8,4
664,65,23,8,4
665,65,23,8,4
666,64,23,9,4
667,64,23,9,4
668,64,23,9,4
669,64,23,9,4
670,64,23,9,4
671,64,23,9,4
672,64,23,9,4
673,64,23,9,4
674,64,22,10,4
675,64,22,10,4
676,64,22,10,4
677,64,21,11,4
678,64,21,11,4
679,64,20,12,4
680,64,20,12,4
681,63,21,12,4
682,63,20,13,4
683,63,20,13,4
684,62,21,13,4
685,62,21,13,4
686,62,21,13,4
687,62,21,13,4
688,61,22,13,4
689,58,25,13,4
690,58,25,13,4
691,58,25,13,4
692,58,25,13,4
693,58,25,13,4
694,58,25,13,4
695,58,25,13,4
696,58,25,13,4
697,58,25,13,4
698,58,25,13,4
699,58,25,12,5
700,58,24,13,5
701,56,25,14,5
702,56,25,14,5
703,56,24,15,5
704,56,24,15,5
705,55,25,15,5
706,55,25,15,5
707,55,25,15,5
708,55,24,16,5
709,55,24,16,5
710,54,25,15,6
711,54,25,15,6
712,54,25,15,6
713,54,24,16,6
714,54,23,17,6
715,54,23,17,6
716,54,22,18,6
717,53,23,18,6
718,53,23,18,6
719,53,23,18,6
720,53,23,18,6
721,52,23,19,6
722,52,23,19,6
723,52,23,19,6
724,51,24,19,6
725,51,24,19,6
726,51,24,19,6
727,51,24,19,6
728,51,24,19,6
729,51,24,19,6
730,51,24,19,6
731,51,24,19,6
732,51,24,19,6
733,50,25,19,6
734,50,25,19,6
735,50,25,19,6
736,50,24,20,6
737,50,24,20,6
738,49,25,20,6
739,49,25,20,6
740,49,25,20,6
741,49,25,20,6
742,49,25,20,6
743,49,25,20,6
744,49,25,20,6
745,49,24,21,6
746,49,24,21,6
747,49,23,22,6
748,49,23,22,6
749,49,22,23,6
750,49,22,23,6
751,49,22,23,6
752,49,22,23,6
753,48,23,23,6
754,47,24,23,6
755,47,24,23,6
756,47,24,23,6
757,47,24,23,6
758,47,24,23,6
759,47,24,23,6
760,47,24,23,6
761,47,24,23,6
762,47,24,23,6
763,47,24,23,6
764,47,24,23,6
765,47,24,23,6
766,47,24,23,6
767,47,24,23,6
768,47,24,23,6
769,47,24,23,6
770,47,24,23,6
771,47,24,23,6
772,47,24,23,6
773,47,24,23,6
774,47,24,23,6
775,47,24,23,6
776,47,24,23,6
777,47,23,24,6
778,47,23,24,6
779,47,23,24,6
780,47,23,23,7
781,47,23,23,7
782,47,23,23,7
783,47,23,23,7
784,47,23,23,7
785,46,24,23,7
786,46,24,23,7
787,46,24,23,7
788,45,25,23,7
789,45,25,23,7
790,45,25,23,7
791,44,26,23,7
792,44,26,23,7
793,44,26,23,7
794,43,27,23,7
795,42,28,23,7
796,41,29,23,7
797,41,29,23,7
798,41,29,23,7
799,41,29,23,7
800,41,29,23,7
801,41,29,23,7
802,40,30,23,7
803,40,30,23,7
804,40,30,23,7
805,40,30,23,7
806,39,31,23,7
807,39,31,23,7
808,38,32,23,7
809,38,32,23,7
810,38,32,23,7
811,38,32,23,7
812,38,32,23,7
813,37,33,23,7
814,37,33,23,7
815,37,33,23,7
816,37,33,23,7
817,37,33,23,7
818,36,34,21,9
819,36,34,21,9
820,36,34,21,9
821,36,34,21,9
822,35,35,21,9
823,35,35,21,9
824,35,35,21,9
825,35,35,21,9
826,35,35,21,9
827,35,35,20,10
828,35,35,20,10
829,34,36,20,10
830,34,36,20,10
831,34,36,20,10
832,34,36,19,11
833,34,35,20,11
834,34,35,20,11
835,34,35,20,11
836,32,37,19,12
837,32,37,19,12
838,32,36,20,12
839,32,36,20,12
840,32,36,20,12
841,32,35,21,12
842,32,35,21,12
843,32,35,21,12
844,32,35,21,12
845,31,36,21,12
846,31,36,21,12
847,31,36,21,12
848,30,37,21,12
849,30,37,21,12
850,29,38,21,12
851,29,38,21,12
852,29,38,21,12
853,29,38,21,12
854,29,37,22,12
855,29,37,22,12
856,29,37,22,12
857,29,37,22,12
858,29,37,22,12
859,29,36,23,12
860,28,37,23,12
861,28,37,23,12
862,28,37,23,12
863,28,37,23,12
864,28,37,23,12
865,28,37,23,12
866,28,37,23,12
867,28,36,23,13
868,28,36,23,13
869,28,36,23,13
870,28,36,23,13
871,28,36,23,13
872,28,36,23,13
873,28,36,23,13
874,28,36,23,13
875,28,36,22,14
876,28,36,22,14
877,27,37,22,14
878,27,37,21,15
879,27,37,21,15
880,27,37,20,16
881,27,37,20,16
882,27,36,21,16
883,27,36,20,17
884,27,36,20,17
885,27,35,21,17
886,27,35,21,17
887,27,35,21,17
888,27,35,21,17
889,27,34,22,17
890,27,31,25,17
891,27,31,25,17
892,27,31,25,17
893,26,32,25,17
894,26,32,25,17
895,26,32,25,17
896,26,32,25,17
897,26,32,25,17
898,26,32,25,17
899,26,32,25,17
900,26,32,25,17
901,26,32,24,18
902,26,30,25,19
903,26,30,25,19
904,26,30,24,20
905,26,30,24,20
906,26,29,25,20
907,26,29,25,20
908,26,29,25,20
909,26,29,24,21
910,25,30,24,21
911,24,30,25,21
912,24,30,25,21
913,23,31,25,21
914,23,31,24,22
915,23,31,23,23
916,23,31,23,23
917,23,31,22,24
918,23,30,23,24
919,23,30,23,24
920,23,30,23,24
921,23,30,23,24
922,23,29,23,25
923,23,29,23,25
924,23,29,23,25
925,23,28,24,25
926,23,28,24,25
927,23,28,24,25
928,23,28,24,25
929,22,29,24,25
930,22,29,24,25
931,22,29,24,25
932,22,29,24,25
933,22,29,24,25
934,21,29,25,25
935,21,29,25,25
936,21,29,25,25
937,21,29,24,26
938,21,29,24,26
939,21,28,25,26
940,21,28,25,26
941,21,28,25,26
942,21,28,25,26
943,21,28,25,26
944,21,28,25,26
945,20,29,25,26
946,20,29,24,27
947,20,29,24,27
948,20,29,23,28
949,20,29,23,28
950,20,29,22,29
951,20,29,22,29
952,20,29,22,29
953,20,29,22,29
954,20,28,23,29
955,20,27,24,29
956,20,27,24,29
957,20,27,24,29
958,20,27,24,29
959,20,27,24,29
960,20,27,24,29
961,20,27,24,29
962,20,27,24,29
963,20,27,24,29
964,20,27,24,29
965,20,27,24,29
966,20,27,24,29
967,20,27,24,29
968,20,27,24,29
969,20,27,24,29
970,20,27,24,29
971,20,27,24,29
972,20,27,24,29
973,20,27,24,29
974,20,27,24,29
975,20,27,24,29
976,20,27,24,29
977,20,27,24,29
978,20,27,23,30
979,20,27,23,30
980,20,27,23,30
981,20,27,23,30
982,20,27,23,30
983,20,27,23,30
984,20,27,23,30
985,20,27,23,30
986,20,26,24,30
987,20,26,24,30
988,20,26,24,30
989,20,25,25,30
990,20,25,25,30
991,20,25,25,30
992,20,24,26,30
993,20,24,26,30
994,20,24,26,30
995,20,23,27,30
996,20,22,28,30
997,19,22,29,30
998,18,23,29,30
999,18,23,29,30
1000,18,23,29,30
1001,18,23,29,30
1002,17,24,29,30
1003,17,23,30,30
1004,17,23,30,30
1005,17,23,30,30
1006,16,24,30,30
1007,16,23,31,30
1008,16,23,31,30
1009,16,22,32,30
1010,16,22,32,30
1011,16,22,32,30
1012,16,22,32,30
1013,16,22,32,30
1014,16,21,33,30
1015,16,21,33,30
1016,16,21,33,30
1017,16,21,33,30
1018,16,21,33,30
1019,16,20,34,30
1020,16,20,34,30
1021,16,20,34,30
1022,16,20,34,30
1023,16,19,35,30
1024,16,19,35,30
1025,16,19,35,30
1026,16,19,35,30
1027,16,19,35,30
1028,16,19,35,30
1029,16,19,35,30
1030,16,18,36,30
1031,16,18,36,30
1032,16,18,36,30
1033,16,18,36,30
1034,16,18,35,31
1035,15,19,35,31
1036,15,19,35,31
1037,14,18,37,31
1038,14,18,37,31
1039,14,18,36,32
1040,14,18,36,32
1041,14,18,36,32
1042,14,18,35,33
1043,14,18,35,33
1044,14,18,35,33
1045,14,18,35,33
1046,14,17,36,33
1047,14,17,36,33
1048,13,18,36,33
1049,13,17,37,33
1050,12,18,37,33
1051,12,17,38,33
1052,12,17,38,33
1053,12,17,38,33
1054,12,17,38,33
1055,12,17,37,34
1056,12,17,37,34
1057,12,17,37,34
1058,12,17,37,34
1059,12,17,37,34
1060,12,17,36,35
1061,12,16,37,35
1062,12,16,37,35
1063,12,16,37,35
1064,12,16,37,35
1065,12,16,37,35
1066,12,16,37,35
1067,12,16,37,35
1068,12,16,36,36
1069,12,16,36,36
1070,12,16,36,36
1071,11,17,36,36
1072,11,17,36,36
1073,11,17,36,36
1074,11,17,36,36
1075,11,17,36,36
1076,11,17,36,36
1077,11,17,36,36
1078,11,16,37,36
1079,11,16,37,36
1080,11,16,37,36
1081,11,16,37,36
1082,11,16,37,36
1083,11,16,36,37
1084,11,16,36,37
1085,11,16,36,37
1086,11,16,35,38
1087,11,16,35,38
1088,11,16,35,38
1089,11,16,35,38
1090,11,16,34,39
1091,11,16,31,42
1092,11,16,31,42
1093,11,16,31,42
1094,11,15,32,42
1095,11,15,32,42
1096,11,15,32,42
1097,11,15,32,42
1098,11,15,32,42
1099,11,15,32,42
1100,10,16,32,42
1101,10,16,32,42
1102,10,16,32,42
1103,10,16,30,44
1104,10,16,30,44
1105,10,16,30,44
1106,10,16,30,44
1107,10,16,29,45
1108,9,17,29,45
1109,9,17,29,45
1110,9,17,29,45
1111,8,17,30,45
1112,8,16,30,46
1113,8,16,30,46
1114,8,15,31,46
1115,8,15,31,46
1116,7,16,31,46
1117,7,16,31,46
1118,7,16,31,46
1119,7,16,30,47
1120,7,16,30,47
1121,7,16,30,47
1122,7,16,30,47
1123,7,16,29,48
1124,7,16,29,48
1125,7,16,29,48
1126,7,16,28,49
1127,7,16,28,49
1128,7,16,28,49
1129,7,16,28,49
1130,7,15,29,49
1131,7,15,29,49
1132,7,15,29,49
1133,7,15,29,49
1134,7,15,29,49
1135,7,14,29,50
1136,7,14,29,50
1137,7,14,29,50
1138,7,14,29,50
1139,7,14,29,50
1140,7,14,28,51
1141,7,14,28,51
1142,7,14,28,51
1143,7,14,28,51
1144,7,14,28,51
1145,6,15,28,51
1146,6,14,29,51
1147,6,14,29,51
1148,6,14,29,51
1149,6,14,29,51
1150,6,14,29,51
1151,6,14,29,51
1152,6,14,29,51
1153,5,15,29,51
1154,5,15,29,51
1155,5,15,28,52
1156,5,15,27,53
1157,5,15,27,53
1158,5,15,27,53
1159,5,15,27,53
1160,4,16,27,53
1161,4,16,27,53
1162,4,16,27,53
1163,4,16,27,53
1164,4,16,27,53
1165,4,16,27,53
1166,4,16,27,53
1167,4,16,27,53
1168,4,16,27,53
1169,4,16,27,53
1170,4,16,27,53
1171,4,16,27,53
1172,4,16,27,53
1173,4,16,27,53
1174,4,16,27,53
1175,4,16,27,53
1176,4,16,27,53
1177,4,16,27,53
1178,3,17,27,53
1179,3,17,27,53
1180,3,17,27,53
1181,3,17,27,53
1182,3,17,27,53
1183,3,17,27,53
1184,3,17,27,53
1185,3,17,27,53
1186,3,17,27,53
1187,3,17,26,54
1188,3,17,26,54
1189,3,17,26,54
1190,3,17,25,55
1191,3,17,25,55
1192,3,17,25,55
1193,3,17,24,56
1194,3,17,24,56
1195,3,17,24,56
1196,3,17,23,57
1197,3,17,22,58
1198,3,16,22,59
1199,3,15,23,59
1200,3,15,23,59
1201,3,15,23,59
1202,3,15,23,59
1203,3,14,24,59
1204,3,14,23,60
1205,3,14,23,60
1206,3,14,23,60
1207,3,13,24,60
1208,3,13,23,61
1209,3,13,23,61
1210,3,13,22,62
1211,3,13,22,62
1212,3,13,22,62
1213,3,13,22,62
1214,3,13,22,62
1215,3,13,21,63
1216,3,13,21,63
1217,3,13,21,63
1218,3,13,21,63
1219,3,13,21,63
1220,3,13,20,64
1221,3,13,20,64
1222,3,13,20,64
1223,3,13,20,64
1224,3,13,19,65
1225,3,13,19,65
1226,3,13,19,65
1227,3,13,19,65
1228,3,13,19,65
1229,3,13,19,65
1230,3,13,19,65
1231,3,13,18,66
1232,3,13,18,66
1233,3,13,18,66
1234,3,13,18,66
1235,3,13,18,66
1236,3,12,19,66
1237,3,12,19,66
1238,3,11,18,68
1239,3,11,18,68
1240,3,11,18,68
1241,3,11,18,68
1242,3,11,18,68
1243,3,11,18,68
1244,3,11,18,68
1245,3,11,18,68
1246,3,11,18,68
1247,3,11,17,69
1248,3,11,17,69
1249,3,10,18,69
1250,3,10,17,70
1251,3,9,18,70
1252,3,9,17,71
1253,3,9,17,71
1254,3,9,17,71
1255,3,9,17,71
1256,3,9,17,71
1257,3,9,17,71
1258,3,9,17,71
1259,3,9,17,71
1260,3,9,17,71
1261,3,9,17,71
1262,3,9,16,72
1263,3,9,16,72
1264,3,9,16,72
1265,3,9,16,72
1266,3,9,16,72
1267,3,9,16,72
1268,3,9,16,72
1269,3,9,16,72
1270,3,9,16,72
1271,3,9,16,72
1272,3,8,17,72
1273,3,8,17,72
1274,3,8,17,72
1275,3,8,17,72
1276,3,8,17,72
1277,3,8,17,72
1278,3,8,17,72
1279,3,8,16,73
1280,3,8,16,73
1281,3,8,16,73
1282,3,8,16,73
1283,3,8,16,73
1284,3,8,16,73
1285,3,8,16,73
1286,3,8,16,73
1287,3,8,16,73
1288,3,8,16,73
1289,3,8,16,73
1290,3,8,16,73
1291,3,8,16,73
1292,3,8,16,73
1293,3,8,16,73
1294,3,8,16,73
1295,3,8,15,74
1296,3,8,15,74
1297,3,8,15,74
1298,3,8,15,74
1299,3,8,15,74
1300,3,8,15,74
1301,3,7,16,74
1302,3,7,16,74
1303,3,7,16,74
1304,3,7,16,74
1305,3,7,16,74
1306,3,7,16,74
1307,3,7,16,74
1308,3,7,16,74
1309,3,6,17,74
1310,3,6,17,74
1311,3,6,17,74
1312,3,5,17,75
1313,3,5,16,76
1314,3,5,16,76
1315,3,5,15,77
1316,3,5,15,77
1317,3,4,16,77
1318,3,4,16,77
1319,3,4,16,77
1320,3,4,16,77
1321,3,4,16,77
1322,3,4,16,77
1323,3,4,16,77
1324,3,4,16,77
1325,3,4,16,77
1326,3,4,16,77
1327,3,4,16,77
1328,3,4,16,77
1329,3,4,16,77
1330,3,4,16,77
1331,3,4,15,78
1332,3,4,15,78
1333,3,4,15,78
1334,3,4,15,78
1335,3,4,15,78
1336,3,4,14,79
1337,3,4,14,79
1338,3,4,14,79
1339,3,4,14,79
1340,3,4,14,79
1341,3,4,14,79
1342,3,4,14,79
1343,3,4,14,79
1344,3,4,14,79
1345,3,4,14,79
1346,3,3,15,79
1347,3,3,14,80
1348,3,3,14,80
1349,3,3,14,80
1350,3,3,14,80
1351,3,3,14,80
1352,3,3,14,80
1353,3,3,14,80
1354,3,2,15,80
1355,3,2,15,80
1356,3,2,15,80
1357,3,2,15,80
1358,3,2,15,80
1359,3,2,15,80
1360,3,2,15,80
1361,3,1,16,80
1362,3,1,16,80
1363,3,1,16,80
1364,3,1,16,80
1365,3,1,16,80
1366,3,1,16,80
1367,3,1,16,80
1368,3,1,16,80
1369,3,1,16,80
1370,3,1,16,80
1371,3,1,16,80
1372,3,1,16,80
1373,3,1,16,80
1374,3,1,16,80
1375,3,1,16,80
1376,3,1,16,80
1377,3,1,16,80
1378,3,1,16,80
1379,3,0,17,80
1380,3,0,17,80
1381,3,0,17,80
1382,3,0,17,80
1383,3,0,17,80
1384,3,0,17,80
1385,3,0,17,80
1386,3,0,17,80
1387,3,0,17,80
1388,3,0,17,80
1389,3,0,17,80
1390,3,0,17,80
1391,3,0,17,80
1392,3,0,17,80
1393,3,0,17,80
1394,3,0,17,80
1395,3,0,17,80
1396,3,0,17,80
1397,3,0,17,80
1398,3,0,17,80
1399,3,0,16,81
1400,3,0,15,82
1401,3,0,15,82
1402,3,0,15,82
1403,3,0,15,82
1404,3,0,14,83
1405,3,0,14,83
1406,3,0,14,83
1407,3,0,14,83
1408,3,0,13,84
1409,3,0,13,84
1410,3,0,13,84
1411,3,0,13,84
1412,3,0,13,84
1413,3,0,13,84
1414,3,0,13,84
1415,3,0,13,84
1416,3,0,13,84
1417,3,0,13,84
1418,3,0,13,84
1419,3,0,13,84
1420,3,0,13,84
1421,3,0,13,84
1422,3,0,13,84
1423,3,0,13,84
1424,3,0,13,84
1425,3,0,13,84
1426,3,0,13,84
1427,3,0,13,84
1428,3,0,13,84
1429,3,0,13,84
1430,3,0,13,84
1431,3,0,13,84
1432,3,0,13,84
1433,3,0,13,84
1434,3,0,13,84
1435,3,0,13,84
1436,3,0,13,84
1437,3,0,12,85
1438,3,0,12,85
1439,3,0,11,86
1440,3,0,11,86
1441,3,0,11,86
1442,3,0,11,86
1443,3,0,11,86
1444,3,0,11,86
1445,3,0,11,86
1446,3,0,11,86
1447,3,0,11,86
1448,3,0,11,86
1449,3,0,11,86
1450,3,0,10,87
1451,3,0,10,87
1452,3,0,9,88
1453,3,0,9,88
1454,3,0,9,88
1455,3,0,9,88
1456,3,0,9,88
1457,3,0,9,88
1458,3,0,9,88
1459,3,0,9,88
1460,3,0,9,88
1461,3,0,9,88
1462,3,0,9,88
1463,3,0,9,88
1464,3,0,9,88
1465,3,0,9,88
1466,3,0,9,88
1467,3,0,9,88
1468,3,0,9,88
1469,3,0,9,88
1470,3,0,9,88
1471,3,0,9,88
1472,3,0,9,88
1473,3,0,8,89
1474,3,0,8,89
1475,3,0,8,89
1476,3,0,8,89
1477,3,0,8,89
1478,3,0,8,89
1479,3,0,8,89
1480,3,0,8,89
1481,3,0,8,89
1482,3,0,8,89
1483,3,0,8,89
1484,3,0,8,89
1485,3,0,8,89
1486,3,0,8,89
1487,3,0,8,89
1488,3,0,8,89
1489,3,0,8,89
1490,3,0,8,89
1491,3,0,8,89
1492,3,0,8,89
1493,3,0,8,89
1494,3,0,8,89
1495,3,0,8,89
1496,3,0,8,89
1497,3,0,8,89
1498,3,0,8,89
1499,3,0,8,89
1500,3,0,8,89
1501,3,0,8,89
1502,3,0,7,90
1503,3,0,7,90
1504,3,0,7,90
1505,3,0,7,90
1506,3,0,7,90
1507,3,0,7,90
1508,3,0,7,90
1509,3,0,7,90
1510,3,0,6,91
1511,3,0,6,91
1512,3,0,6,91
1513,3,0,5,92
1514,3,0,5,92
1515,3,0,5,92
1516,3,0,5,92
1517,3,0,5,92
1518,3,0,4,93
1519,3,0,4,93
1520,3,0,4,93
1521,3,0,4,93
1522,3,0,4,93
1523,3,0,4,93
1524,3,0,4,93
1525,3,0,4,93
1526,3,0,4,93
1527,3,0,4,93
1528,3,0,4,93
1529,3,0,4,93
1530,3,0,4,93
1531,3,0,4,93
1532,3,0,4,93
1533,3,0,4,93
1534,3,0,4,93
1535,3,0,4,93
1536,3,0,4,93
1537,3,0,4,93
1538,3,0,4,93
1539,3,0,4,93
1540,3,0,4,93
1541,3,0,4,93
1542,3,0,4,93
1543,3,0,4,93
1544,3,0,4,93
1545,3,0,4,93
1546,3,0,4,93
1547,3,0,3,94
1548,3,0,3,94
1549,3,0,3,94
1550,3,0,3,94
1551,3,0,3,94
1552,3,0,3,94
1553,3,0,3,94
1554,3,0,3,94
1555,3,0,2,95
1556,3,0,2,95
1557,3,0,2,95
1558,3,0,2,95
1559,3,0,2,95
1560,3,0,2,95
1561,3,0,2,95
1562,3,0,1,96
1563,3,0,1,96
1564,3,0,1,96
1565,3,0,1,96
1566,3,0,1,96
1567,3,0,1,96
1568,3,0,1,96
1569,3,0,1,96
1570,3,0,1,96
1571,3,0,1,96
1572,3,0,1,96
1573,3,0,1,96
1574,3,0,1,96
1575,3,0,1,96
1576,3,0,1,96
1577,3,0,1,96
1578,3,0,1,96
1579,3,0,1,96
1580,3,0,0,97
1581,3,0,0,97
1582,3,0,0,97
1583,3,0,0,97
1584,3,0,0,97
1585,3,0,0,97
1586,3,0,0,97
1587,3,0,0,97
1588,3,0,0,97
1589,3,0,0,97
1590,3,0,0,97
1591,3,0,0,97
1592,3,0,0,97
1593,3,0,0,97
1594,3,0,0,97
1595,3,0,0,97
1596,3,0,0,97
1597,3,0,0,97
1598,3,0,0,97
1599,3,0,0,97
1600,3,0,0,97
1601,3,0,0,97
1602,3,0,0,97
1603,3,0,0,97
1604,3,0,0,97
1605,3,0,0,97
1606,3,0,0,97
1607,3,0,0,97
1608,3,0,0,97
1609,3,0,0,97
1610,3,0,0,97
1611,3,0,0,97
1612,3,0,0,97
1613,3,0,0,97
1614,3,0,0,97
1615,3,0,0,97
1616,3,0,0,97
1617,3,0,0,97
1618,3,0,0,97
1619,3,0,0,97
1620,3,0,0,97
1621,3,0,0,97
1622,3,0,0,97
1623,3,0,0,97
1624,3,0,0,97
1625,3,0,0,97
1626,3,0,0,97
1627,3,0,0,97
1628,3,0,0,97
1629,3,0,0,97
1630,3,0,0,97
1631,3,0,0,97
1632,3,0,0,97
1633,3,0,0,97
1634,3,0,0,97
1635,3,0,0,97
1636,3,0,0,97
1637,3,0,0,97
1638,3,0,0,97
1639,3,0,0,97
1640,3,0,0,97
1641,3,0,0,97
1642,3,0,0,97
1643,3,0,0,97
1644,3,0,0,97
1645,3,0,0,97
1646,3,0,0,97
1647,3,0,0,97
1648,3,0,0,97
1649,3,0,0,97
1650,3,0,0,97
1651,3,0,0,97
1652,3,0,0,97
1653,3,0,0,97
1654,3,0,0,97
1655,3,0,0,97
1656,3,0,0,97
1657,3,0,0,97
1658,3,0,0,97
1659,3,0,0,97
1660,3,0,0,97
1661,3,0,0,97
1662,3,0,0,97
1663,3,0,0,97
1664,3,0,0,97
1665,3,0,0,97
1666,3,0,0,97
1667,3,0,0,97
1668,3,0,0,97
1669,3,0,0,97
1670,3,0,0,97
1671,3,0,0,97
1672,3,0,0,97
1673,3,0,0,97
1674,3,0,0,97
1675,3,0,0,97
1676,3,0,0,97
1677,3,0,0,97
1678,3,0,0,97
1679,3,0,0,97
1680,3,0,0,97
1681,3,0,0,97
1682,3,0,0,97
1683,3,0,0,97
1684,3,0,0,97
1685,3,0,0,97
1686,3,0,0,97
1687,3,0,0,97
1688,3,0,0,97
1689,3,0,0,97
1690,3,0,0,97
1691,3,0,0,97
1692,3,0,0,97
1693,3,0,0,97
1694,3,0,0,97
1695,3,0,0,97
1696,3,0,0,97
1697,3,0,0,97
1698,3,0,0,97
1699,3,0,0,97
1700,3,0,0,97
1701,3,0,0,97
1702,3,0,0,97
1703,3,0,0,97
1704,3,0,0,97
1705,3,0,0,97
1706,3,0,0,97
1707,3,0,0,97
1708,3,0,0,97
1709,3,0,0,97
1710,3,0,0,97
1711,3,0,0,97
1712,3,0,0,97
1713,3,0,0,97
1714,3,0,0,97
1715,3,0,0,97
1716,3,0,0,97
1717,3,0,0,97
1718,3,0,0,97
1719,3,0,0,97
1720,3,0,0,97
1721,3,0,0,97
1722,3,0,0,97
1723,3,0,0,97
1724,3,0,0,97
1725,3,0,0,97
1726,3,0,0,97
1727,3,0,0,97
1728,3,0,0,97
1729,3,0,0,97
1730,3,0,0,97
1731,3,0,0,97
1732,3,0,0,97
1733,3,0,0,97
1734,3,0,0,97
1735,3,0,0,97
1736,3,0,0,97
1737,3,0,0,97
1738,3,0,0,97
1739,3,0,0,97
1740,3,0,0,97
1741,3,0,0,97
1742,3,0,0,97
1743,3,0,0,97
1744,3,0,0,97
1745,3,0,0,97
1746,3,0,0,97
1747,3,0,0,97
1748,3,0,0,97
1749,3,0,0,97
1750,3,0,0,97
1751,3,0,0,97
1752,3,0,0,97
1753,3,0,0,97
1754,3,0,0,97
1755,3,0,0,97
1756,3,0,0,97
1757,3,0,0,97
1758,3,0,0,97
1759,3,0,0,97
1760,3,0,0,97
1761,3,0,0,97
1762,3,0,0,97
1763,3,0,0,97
1764,3,0,0,97
1765,3,0,0,97
1766,3,0,0,97
1767,3,0,0,97
1768,3,0,0,97
1769,3,0,0,97
1770,3,0,0,97
1771,3,0,0,97
1772,3,0,0,97
1773,3,0,0,97
1774,3,0,0,97
1775,3,0,0,97
1776,3,0,0,97
1777,3,0,0,97
1778,3,0,0,97
1779,3,0,0,97
1780,3,0,0,97
1781,3,0,0,97
1782,3,0,0,97
1783,3,0,0,97
1784,3,0,0,97
1785,3,0,0,97
1786,3,0,0,97
1787,3,0,0,97
1788,3,0,0,97
1789,3,0,0,97
1790,3,0,0,97
1791,3,0,0,97
1792,3,0,0,97
1793,3,0,0,97
1794,3,0,0,97
1795,3,0,0,97
1796,3,0,0,97
1797,3,0,0,97
1798,3,0,0,97
1799,3,0,0,97
1800,3,0,0,97
1801,3,0,0,97
1802,3,0,0,97
1803,3,0,0,97
1804,3,0,0,97
1805,3,0,0,97
1806,3,0,0,97
1807,3,0,0,97
1808,3,0,0,97
1809,3,0,0,97
1810,3,0,0,97
1811,3,0,0,97
1812,3,0,0,97
1813,3,0,0,97
1814,3,0,0,97
1815,3,0,0,97
1816,3,0,0,97
1817,3,0,0,97
1818,3,0,0,97
1819,3,0,0,97
1820,3,0,0,97
1821,3,0,0,97
1822,3,0,0,97
1823,3,0,0,97
1824,3,0,0,97
1825,3,0,0,97
1826,3,0,0,97
1827,3,0,0,97
1828,3,0,0,97
1829,3,0,0,97
1830,3,0,0,97
1831,3,0,0,97
1832,3,0,0,97
1833,3,0,0,97
1834,3,0,0,97
1835,3,0,0,97
1836,3,0,0,97
1837,3,0,0,97
1838,3,0,0,97
1839,3,0,0,97
1840,3,0,0,97
1841,3,0,0,97
1842,3,0,0,97
1843,3,0,0,97
1844,3,0,0,97
1845,3,0,0,97
1846,3,0,0,97
1847,3,0,0,97
1848,3,0,0,97
1849,3,0,0,97
1850,3,0,0,97
1851,3,0,0,97
1852,3,0,0,97
1853,3,0,0,97
1854,3,0,0,97
1855,3,0,0,97
1856,3,0,0,97
1857,3,0,0,97
1858,3,0,0,97
1859,3,0,0,97
1860,3,0,0,97
1861,3,0,0,97
1862,3,0,0,97
1863,3,0,0,97
1864,3,0,0,97
1865,3,0,0,97
1866,3,0,0,97
1867,3,0,0,97
1868,3,0,0,97
1869,3,0,0,97
1870,3,0,0,97
1871,3,0,0,97
1872,3,0,0,97
1873,3,0,0,97
1874,3,0,0,97
1875,3,0,0,97
1876,3,0,0,97
1877,3,0,0,97
1878,3,0,0,97
1879,3,0,0,97
1880,3,0,0,97
1881,3,0,0,97
1882,3,0,0,97
1883,3,0,0,97
1884,3,0,0,97
1885,3,0,0,97
1886,3,0,0,97
1887,3,0,0,97
1888,3,0,0,97
1889,3,0,0,97
1890,3,0,0,97
1891,3,0,0,97
1892,3,0,0,97
1893,3,0,0,97
1894,3,0,0,97
1895,3,0,0,97
1896,3,0,0,97
1897,3,0,0,97
1898,3,0,0,97
1899,3,0,0,97
1900,3,0,0,97
1901,3,0,0,97
1902,3,0,0,97
1903,3,0,0,97
1904,3,0,0,97
1905,3,0,0,97
1906,3,0,0,97
1907,3,0,0,97
1908,3,0,0,97
1909,3,0,0,97
1910,3,0,0,97
1911,3,0,0,97
1912,3,0,0,97
1913,3,0,0,97
1914,3,0,0,97
1915,3,0,0,97
1916,3,0,0,97
1917,3,0,0,97
1918,3,0,0,97
1919,3,0,0,97
1920,3,0,0,97
1921,3,0,0,97
1922,3,0,0,97
1923,3,0,0,97
1924,3,0,0,97
1925,3,0,0,97
1926,3,0,0,97
1927,3,0,0,97
1928,3,0,0,97
1929,3,0,0,97
1930,3,0,0,97
1931,3,0,0,97
1932,3,0,0,97
1933,3,0,0,97
1934,3,0,0,97
1935,3,0,0,97
1936,3,0,0,97
1937,3,0,0,97
1938,3,0,0,97
1939,3,0,0,97
1940,3,0,0,97
1941,3,0,0,97
1942,3,0,0,97
1943,3,0,0,97
1944,3,0,0,97
1945,3,0,0,97
1946,3,0,0,97
1947,3,0,0,97
1948,3,0,0,97
1949,3,0,0,97
1950,3,0,0,97
1951,3,0,0,97
1952,3,0,0,97
1953,3,0,0,97
1954,3,0,0,97
1955,3,0,0,97
1956,3,0,0,97
1957,3,0,0,97
1958,3,0,0,97
1959,3,0,0,97
1960,3,0,0,97
1961,3,0,0,97
1962,3,0,0,97
1963,3,0,0,97
1964,3,0,0,97
1965,3,0,0,97
1966,3,0,0,97
1967,3,0,0,97
1968,3,0,0,97
1969,3,0,0,97
1970,3,0,0,97
1971,3,0,0,97
1972,3,0,0,97
1973,3,0,0,97
1974,3,0,0,97
1975,3,0,0,97
1976,3,0,0,97
1977,3,0,0,97
1978,3,0,0,97
1979,3,0,0,97
1980,3,0,0,97
1981,3,0,0,97
1982,3,0,0,97
1983,3,0,0,97
1984,3,0,0,97
1985,3,0,0,97
1986,3,0,0,97
1987,3,0,0,97
1988,3,0,0,97
1989,3,0,0,97
1990,3,0,0,97
1991,3,0,0,97
1992,3,0,0,97
1993,3,0,0,97
1994,3,0,0,97
1995,3,0,0,97
1996,3,0,0,97
1997,3,0,0,97
1998,3,0,0,97
1999,3,0,0,97
2000,3,0,0,97
