"tick","total"
0,0
1,0
2,0
3,0
4,0
5,1
6,1
7,1
8,1
9,1
10,1
11,2
12,2
13,2
14,2
15,2
16,2
17,2
18,2
19,2
20,2
21,2
22,2
23,2
24,2
25,2
26,2
27,2
28,3
29,3
30,3
31,3
32,5
33,6
34,6
35,6
36,6
37,6
38,6
39,6
40,7
41,7
42,7
43,7
44,7
45,7
46,7
47,7
48,7
49,7
50,7
51,7
52,7
53,7
54,7
55,7
56,7
57,7
58,7
59,7
60,7
61,7
62,7
63,7
64,7
65,7
66,7
67,7
68,7
69,7
70,7
71,7
72,8
73,8
74,8
75,8
76,8
77,8
78,8
79,8
80,8
81,9
82,9
83,9
84,9
85,9
86,9
87,9
88,9
89,9
90,9
91,9
92,9
93,9
94,9
95,9
96,9
97,9
98,9
99,9
100,9
101,9
102,9
103,9
104,9
105,9
106,9
107,9
108,9
109,9
110,9
111,9
112,9
113,9
114,9
115,9
116,10
117,10
118,10
119,11
120,11
121,11
122,12
123,12
124,12
125,12
126,12
127,12
128,12
129,12
130,12
131,12
132,12
133,12
134,12
135,13
136,13
137,13
138,13
139,14
140,14
141,14
142,14
143,14
144,14
145,14
146,14
147,14
148,14
149,14
150,14
151,14
152,14
153,14
154,14
155,14
156,14
157,14
158,14
159,14
160,14
161,14
162,14
163,14
164,14
165,14
166,15
167,15
168,15
169,15
170,15
171,16
172,16
173,16
174,16
175,16
176,17
177,17
178,19
179,19
180,19
181,19
182,19
183,20
184,20
185,20
186,20
187,20
188,20
189,20
190,20
191,20
192,20
193,20
194,20
195,20
196,20
197,20
198,20
199,21
200,21
201,21
202,21
203,21
204,21
205,22
206,22
207,22
208,22
209,22
210,22
211,22
212,22
213,22
214,22
215,22
216,22
217,23
218,24
219,24
220,24
221,24
222,24
223,24
224,24
225,24
226,24
227,24
228,24
229,24
230,24
231,24
232,25
233,25
234,25
235,25
236,25
237,25
238,25
239,25
240,25
241,25
242,25
243,25
244,25
245,25
246,25
247,25
248,25
249,25
250,25
251,26
252,26
253,26
254,26
255,26
256,26
257,26
258,26
259,26
260,26
261,26
262,26
263,26
264,26
265,26
266,26
267,26
268,26
269,27
270,27
271,27
272,27
273,28
274,28
275,28
276,28
277,28
278,28
279,29
280,29
281,29
282,29
283,29
284,29
285,29
286,29
287,29
288,29
289,29
290,29
291,29
292,29
293,29
294,29
295,29
296,30
297,30
298,30
299,30
300,30
301,30
302,30
303,30
304,30
305,30
306,30
307,30
308,30
309,30
310,30
311,30
312,30
313,30
314,30
315,30
316,30
317,30
318,30
319,30
320,30
321,30
322,30
323,30
324,30
325,30
326,30
327,30
328,30
329,31
330,32
331,32
332,32
333,32
334,32
335,32
336,32
337,32
338,33
339,33
340,33
341,33
342,33
343,33
344,33
345,33
346,33
347,33
348,33
349,33
350,33
351,33
352,33
353,33
354,33
355,33
356,33
357,33
358,33
359,33
360,33
361,33
362,34
363,34
364,34
365,34
366,34
367,34
368,34
369,34
370,34
371,34
372,34
373,34
374,34
375,34
376,34
377,34
378,34
379,34
380,34
381,34
382,34
383,34
384,34
385,34
386,34
387,34
388,34
389,34
390,34
391,35
392,35
393,36
394,36
395,36
396,36
397,36
398,36
399,36
400,36
401,36
402,37
403,37
404,37
405,37
406,37
407,38
408,38
409,38
410,38
411,38
412,38
413,38
414,38
415,39
416,39
417,40
418,40
419,40
420,40
421,40
422,41
423,41
424,41
425,41
426,41
427,41
428,41
429,41
430,41
431,42
432,42
433,42
434,42
435,42
436,42
437,42
438,42
439,42
440,42
441,42
442,42
443,42
444,42
445,42
446,42
447,42
448,42
449,42
450,43
451,43
452,44
453,44
454,44
455,44
456,44
457,44
458,44
459,44
460,44
461,44
462,44
463,44
464,45
465,45
466,45
467,45
468,45
469,45
470,45
471,45
472,46
473,46
474,46
475,46
476,46
477,46
478,46
479,47
480,47
481,47
482,47
483,47
484,47
485,47
486,47
487,47
488,47
489,47
490,48
491,48
492,48
493,48
494,48
495,48
496,48
497,48
498,48
499,48
500,48
501,48
502,48
503,48
504,49
505,49
506,49
507,49
508,49
509,49
510,49
511,49
512,49
513,49
514,49
515,49
516,49
517,49
518,49
519,49
520,49
521,50
522,50
523,50
524,50
525,50
526,50
527,50
528,50
529,50
530,50
531,50
532,50
533,50
534,50
535,50
536,50
537,51
538,51
539,51
540,51
541,51
542,51
543,51
544,51
545,52
546,52
547,52
548,52
549,52
550,52
551,52
552,52
553,52
554,52
555,52
556,52
557,52
558,52
559,52
560,52
561,52
562,52
563,52
564,52
565,52
566,52
567,52
568,52
569,53
570,53
571,53
572,54
573,54
574,54
575,54
576,54
577,54
578,54
579,54
580,54
581,54
582,54
583,55
584,55
585,55
586,55
587,55
588,55
589,56
590,56
591,56
592,56
593,56
594,56
595,56
596,57
597,57
598,57
599,57
600,57
601,57
602,57
603,57
604,57
605,57
606,57
607,57
608,57
609,57
610,57
611,57
612,57
613,57
614,57
615,58
616,58
617,58
618,58
619,58
620,58
621,58
622,58
623,58
624,58
625,58
626,58
627,58
628,58
629,58
630,58
631,58
632,58
633,58
634,58
635,58
636,58
637,58
638,58
639,58
640,58
641,58
642,58
643,58
644,58
645,58
646,58
647,58
648,58
649,59
650,59
651,59
652,59
653,59
654,59
655,59
656,59
657,59
658,59
659,59
660,59
661,59
662,59
663,59
664,59
665,59
666,59
667,59
668,59
669,59
670,59
671,59
672,59
673,59
674,59
675,60
676,60
677,60
678,60
679,60
680,60
681,60
682,60
683,63
684,63
685,63
686,63
687,63
688,63
689,63
690,63
691,63
692,63
693,63
694,63
695,63
696,63
697,63
698,64
699,64
700,64
701,64
702,64
703,64
704,64
705,64
706,64
707,64
708,64
709,64
710,64
711,64
712,64
713,65
714,65
715,66
716,66
717,66
718,66
719,66
720,67
721,67
722,67
723,67
724,67
725,67
726,67
727,67
728,68
729,68
730,68
731,68
732,68
733,68
734,68
735,68
736,68
737,68
738,68
739,68
740,68
741,68
742,68
743,68
744,68
745,68
746,68
747,68
748,69
749,69
750,69
751,69
752,69
753,69
754,69
755,69
756,69
757,69
758,69
759,69
760,69
761,69
762,69
763,69
764,69
765,69
766,69
767,69
768,69
769,69
770,69
771,70
772,70
773,70
774,70
775,70
776,70
777,70
778,70
779,71
780,71
781,71
782,71
783,71
784,71
785,71
786,71
787,71
788,72
789,72
790,73
791,73
792,73
793,73
794,74
795,74
796,74
797,74
798,74
799,74
800,74
801,74
802,74
803,74
804,74
805,74
806,74
807,74
808,75
809,75
810,75
811,75
812,75
813,76
814,76
815,76
816,76
817,76
818,76
819,77
820,78
821,78
822,78
823,78
824,78
825,78
826,78
827,78
828,78
829,78
830,78
831,78
832,78
833,78
834,78
835,78
836,78
837,78
838,78
839,78
840,78
841,78
842,79
843,79
844,79
845,79
846,79
847,79
848,80
849,80
850,81
851,81
852,81
853,81
854,81
855,81
856,81
857,81
858,81
859,81
860,81
861,81
862,81
863,81
864,81
865,81
866,81
867,81
868,81
869,81
870,81
871,81
872,81
873,81
874,81
875,81
876,81
877,81
878,81
879,81
880,81
881,82
882,82
883,82
884,82
885,82
886,83
887,83
888,83
889,83
890,83
891,83
892,83
893,83
894,83
895,83
896,83
897,83
898,83
899,83
900,83
901,83
902,83
903,83
904,83
905,83
906,83
907,83
908,83
909,83
910,83
911,83
912,83
913,83
914,83
915,83
916,83
917,83
918,83
919,83
920,83
921,83
922,83
923,83
924,83
925,83
926,83
927,83
928,83
929,83
930,83
931,83
932,83
933,83
934,83
935,83
936,84
937,84
938,84
939,84
940,84
941,84
942,84
943,84
944,84
945,84
946,84
947,84
948,84
949,84
950,84
951,84
952,85
953,85
954,85
955,86
956,86
957,86
958,86
959,86
960,86
961,86
962,86
963,86
964,86
965,86
966,86
967,86
968,86
969,86
970,86
971,86
972,87
973,87
974,87
975,87
976,87
977,87
978,87
979,87
980,87
981,87
982,87
983,87
984,87
985,87
986,87
987,87
988,87
989,87
990,87
991,87
992,87
993,87
994,87
995,87
996,87
997,87
998,87
999,87
1000,88
1001,88
1002,88
1003,88
1004,88
1005,88
1006,88
1007,88
1008,88
1009,88
1010,88
1011,88
1012,88
1013,88
1014,88
1015,88
1016,88
1017,88
1018,88
1019,88
1020,88
1021,88
1022,88
1023,88
1024,88
1025,89
1026,89
1027,89
1028,90
1029,91
1030,91
1031,91
1032,91
1033,91
1034,91
1035,91
1036,91
1037,91
1038,91
1039,91
1040,91
1041,91
1042,91
1043,91
1044,91
1045,91
1046,91
1047,91
1048,91
1049,91
1050,91
1051,91
1052,91
1053,91
1054,91
1055,91
1056,91
1057,92
1058,92
1059,92
1060,92
1061,92
1062,92
1063,92
1064,92
1065,92
1066,92
1067,92
1068,92
1069,93
1070,93
1071,93
1072,93
1073,93
1074,93
1075,93
1076,93
1077,93
1078,93
1079,93
1080,93
1081,94
1082,94
1083,94
1084,94
1085,94
1086,94
1087,95
1088,95
1089,95
1090,95
1091,95
1092,95
1093,95
1094,95
1095,95
1096,95
1097,96
1098,96
1099,97
1100,97
1101,97
1102,97
1103,97
1104,97
1105,97
1106,97
1107,97
1108,97
1109,97
1110,97
1111,97
1112,97
1113,97
1114,97
1115,97
1116,97
1117,97
1118,97
1119,97
1120,97
1121,97
1122,97
1123,97
1124,97
1125,97
1126,97
1127,97
1128,97
1129,97
1130,97
1131,97
1132,97
1133,97
1134,97
1135,97
1136,97
1137,97
1138,97
1139,97
1140,97
1141,97
1142,97
1143,97
1144,97
1145,97
1146,97
1147,97
1148,97
1149,97
1150,97
1151,97
1152,97
1153,97
1154,97
1155,97
1156,97
1157,97
1158,97
1159,97
1160,97
1161,97
1162,97
1163,97
1164,98
1165,98
1166,98
1167,98
1168,98
1169,98
1170,98
1171,98
1172,98
1173,98
1174,98
1175,98
1176,98
1177,98
1178,98
1179,98
1180,98
1181,98
1182,98
1183,98
1184,98
1185,98
1186,98
1187,99
1188,99
1189,99
1190,99
1191,99
1192,100
1193,100
1194,100
1195,101
1196,101
1197,101
1198,101
1199,101
1200,101
1201,101
1202,101
1203,101
1204,101
1205,101
1206,101
1207,101
1208,101
1209,101
1210,101
1211,101
1212,101
1213,101
1214,101
1215,101
1216,101
1217,102
1218,102
1219,102
1220,102
1221,102
1222,102
1223,102
1224,102
1225,102
1226,102
1227,102
1228,102
1229,102
1230,102
1231,102
1232,102
1233,102
1234,102
1235,102
1236,102
1237,102
1238,103
1239,103
1240,103
1241,103
1242,103
1243,103
1244,103
1245,103
1246,103
1247,103
1248,103
1249,103
1250,103
1251,103
1252,103
1253,103
1254,103
1255,104
1256,104
1257,104
1258,104
1259,104
1260,105
1261,105
1262,105
1263,105
1264,105
1265,105
1266,105
1267,105
1268,105
1269,105
1270,105
1271,105
1272,105
1273,105
1274,105
1275,105
1276,105
1277,105
1278,105
1279,105
1280,105
1281,105
1282,105
1283,105
1284,105
1285,105
1286,105
1287,105
1288,105
1289,105
1290,105
1291,105
1292,105
1293,106
1294,106
1295,106
1296,106
1297,106
1298,106
1299,106
1300,106
1301,106
1302,106
1303,106
1304,106
1305,106
1306,106
1307,106
1308,106
1309,106
1310,107
1311,107
1312,107
1313,107
1314,107
1315,107
1316,107
1317,107
1318,107
1319,107
1320,107
1321,107
1322,107
1323,107
1324,107
1325,107
1326,108
1327,108
1328,108
1329,108
1330,108
1331,108
1332,108
1333,108
1334,109
1335,109
1336,109
1337,109
1338,109
1339,109
1340,109
1341,109
1342,109
1343,109
1344,109
1345,109
1346,109
1347,109
1348,109
1349,109
1350,109
1351,109
1352,109
1353,109
1354,109
1355,109
1356,109
1357,109
1358,109
1359,109
1360,109
1361,109
1362,109
1363,109
1364,109
1365,109
1366,109
1367,110
1368,110
1369,110
1370,110
1371,110
1372,110
1373,110
1374,110
1375,110
1376,111
1377,112
1378,112
1379,112
1380,112
1381,112
1382,112
1383,112
1384,112
1385,112
1386,112
1387,112
1388,112
1389,112
1390,112
1391,112
1392,112
1393,112
1394,112
1395,112
1396,112
1397,112
1398,113
1399,113
1400,113
1401,113
1402,113
1403,113
1404,113
1405,114
1406,114
1407,114
1408,114
1409,114
1410,114
1411,114
1412,114
1413,114
1414,114
1415,114
1416,114
1417,114
1418,114
1419,114
1420,114
1421,114
1422,114
1423,114
1424,114
1425,114
1426,114
1427,114
1428,114
1429,114
1430,114
1431,114
1432,114
1433,114
1434,114
1435,114
1436,114
1437,114
1438,114
1439,114
1440,114
1441,114
1442,114
1443,114
1444,114
1445,114
1446,114
1447,114
1448,114
1449,114
1450,114
1451,114
1452,115
1453,116
1454,117
1455,117
1456,117
1457,117
1458,117
1459,117
1460,117
1461,117
1462,117
1463,117
1464,117
1465,117
1466,117
1467,117
1468,117
1469,117
1470,117
1471,117
1472,117
1473,117
1474,117
1475,117
1476,117
1477,117
1478,117
1479,117
1480,117
1481,117
1482,117
1483,118
1484,118
1485,118
1486,118
1487,118
1488,118
1489,118
1490,118
1491,118
1492,118
1493,118
1494,118
1495,118
1496,118
1497,118
1498,118
1499,118
1500,118
1501,118
1502,118
1503,118
1504,118
1505,118
1506,118
1507,118
1508,118
1509,118
1510,118
1511,118
1512,118
1513,118
1514,118
1515,118
1516,118
1517,118
1518,118
1519,118
1520,118
1521,118
1522,118
1523,118
1524,118
1525,118
1526,118
1527,119
1528,119
1529,119
1530,119
1531,119
1532,119
1533,119
1534,119
1535,119
1536,119
1537,119
1538,119
1539,119
1540,119
1541,119
1542,119
1543,119
1544,119
1545,119
1546,119
1547,119
1548,119
1549,119
1550,119
1551,119
1552,119
1553,119
1554,119
1555,119
1556,119
1557,119
1558,119
1559,119
1560,119
1561,119
1562,119
1563,119
1564,119
1565,119
1566,119
1567,119
1568,119
1569,119
1570,120
1571,120
1572,120
1573,121
1574,121
1575,121
1576,121
1577,121
1578,121
1579,121
1580,121
1581,121
1582,121
1583,121
1584,121
1585,121
1586,121
1587,121
1588,121
1589,121
1590,121
1591,121
1592,121
1593,121
1594,121
1595,121
1596,121
1597,121
1598,121
1599,121
1600,121
1601,121
1602,121
1603,121
1604,121
1605,121
1606,121
1607,121
1608,121
1609,121
1610,121
1611,122
1612,122
1613,122
1614,122
1615,122
1616,122
1617,122
1618,122
1619,123
1620,123
1621,123
1622,123
1623,123
1624,123
1625,123
1626,123
1627,123
1628,123
1629,123
1630,123
1631,123
1632,123
1633,123
1634,123
1635,123
1636,123
1637,123
1638,123
1639,123
1640,123
1641,124
1642,124
1643,124
1644,124
1645,124
1646,124
1647,124
1648,124
1649,124
1650,124
1651,124
1652,124
1653,124
1654,124
1655,124
1656,124
1657,124
1658,124
1659,124
1660,124
1661,125
1662,125
1663,125
1664,125
1665,125
1666,125
1667,125
1668,125
1669,125
1670,125
1671,125
1672,125
1673,125
1674,125
1675,125
1676,125
1677,125
1678,125
1679,125
1680,125
1681,125
1682,125
1683,125
1684,125
1685,126
1686,126
1687,126
1688,127
1689,127
1690,127
1691,127
1692,127
1693,127
1694,127
1695,127
1696,127
1697,127
1698,127
1699,127
1700,127
1701,127
1702,128
1703,128
1704,128
1705,128
1706,128
1707,128
1708,128
1709,128
1710,129
1711,129
1712,129
1713,129
1714,129
1715,129
1716,129
1717,129
1718,129
1719,129
1720,129
1721,129
1722,129
1723,129
1724,129
1725,129
1726,129
1727,129
1728,129
1729,129
1730,129
1731,129
1732,129
1733,129
1734,129
1735,129
1736,129
1737,129
1738,129
1739,129
1740,129
1741,129
1742,129
1743,129
1744,129
1745,129
1746,129
1747,129
1748,129
1749,129
1750,129
1751,129
1752,129
1753,129
1754,129
1755,129
1756,129
1757,129
1758,129
1759,129
1760,129
1761,129
1762,129
1763,129
1764,129
1765,129
1766,129
1767,130
1768,132
1769,132
1770,132
1771,132
1772,132
1773,132
1774,132
1775,132
1776,132
1777,132
1778,132
1779,133
1780,133
1781,133
1782,133
1783,133
1784,133
1785,133
1786,133
1787,133
1788,133
1789,133
1790,133
1791,133
1792,133
1793,133
1794,133
1795,133
1796,133
1797,133
1798,133
1799,133
1800,133
1801,133
1802,133
1803,133
1804,133
1805,133
1806,133
1807,133
1808,133
1809,133
1810,133
1811,133
1812,133
1813,133
1814,133
1815,133
1816,133
1817,133
1818,133
1819,133
1820,133
1821,133
1822,133
1823,133
1824,133
1825,133
1826,134
1827,134
1828,134
1829,135
1830,135
1831,135
1832,135
1833,135
1834,135
1835,135
1836,135
1837,135
1838,135
1839,135
1840,135
1841,135
1842,135
1843,135
1844,135
1845,135
1846,135
1847,135
1848,135
1849,135
1850,135
1851,135
1852,135
1853,135
1854,135
1855,135
1856,135
1857,135
1858,135
1859,135
1860,135
1861,135
1862,136
1863,136
1864,136
1865,136
1866,136
1867,136
1868,136
1869,136
1870,136
1871,136
1872,136
1873,136
1874,136
1875,136
1876,136
1877,136
1878,136
1879,136
1880,136
1881,137
1882,137
1883,137
1884,137
1885,137
1886,137
1887,137
1888,137
1889,137
1890,137
1891,137
1892,137
1893,137
1894,137
1895,137
1896,137
1897,137
1898,137
1899,137
1900,137
1901,137
1902,137
1903,137
1904,137
1905,137
1906,137
1907,137
1908,137
1909,137
1910,137
1911,137
1912,137
1913,137
1914,137
1915,137
1916,137
1917,137
1918,137
1919,137
1920,137
1921,137
1922,137
1923,137
1924,137
1925,137
1926,137
1927,137
1928,137
1929,137
1930,137
1931,137
1932,137
1933,137
1934,137
1935,137
1936,137
1937,137
1938,137
1939,137
1940,137
1941,137
1942,137
1943,137
1944,137
1945,137
1946,137
1947,137
1948,137
1949,137
1950,137
1951,137
1952,137
1953,137
1954,137
1955,137
1956,137
1957,138
1958,138
1959,138
1960,138
1961,138
1962,138
1963,138
1964,138
1965,138
1966,138
1967,138
1968,138
1969,138
1970,138
1971,138
1972,138
1973,138
1974,138
1975,140
1976,141
1977,141
1978,141
1979,141
1980,141
1981,141
1982,141
1983,141
1984,141
1985,142
1986,142
1987,142
1988,143
1989,143
1990,143
1991,143
1992,143
1993,143
1994,143
1995,143
1996,143
1997,143
1998,143
1999,143
2000,143
