"tick","total"
0,0
1,0
2,0
3,0
4,0
5,0
6,0
7,0
8,0
9,0
10,0
11,0
12,0
13,0
14,0
15,0
16,0
17,0
18,0
19,0
20,0
21,0
22,0
23,0
24,0
25,0
26,0
27,0
28,0
29,0
30,0
31,0
32,0
33,0
34,0
35,0
36,0
37,0
38,0
39,0
40,0
41,0
42,0
43,0
44,0
45,0
46,0
47,0
48,0
49,0
50,0
51,0
52,0
53,0
54,0
55,0
56,0
57,0
58,0
59,0
60,0
61,0
62,0
63,0
64,0
65,0
66,0
67,0
68,0
69,0
70,0
71,0
72,0
73,0
74,0
75,0
76,0
77,0
78,0
79,0
80,0
81,0
82,0
83,0
84,0
85,0
86,0
87,0
88,0
89,0
90,0
91,0
92,0
93,0
94,0
95,0
96,0
97,0
98,0
99,0
100,0
101,0
102,0
103,0
104,0
105,0
106,0
107,0
108,0
109,0
110,0
111,0
112,0
113,0
114,0
115,0
116,0
117,0
118,0
119,0
120,0
121,0
122,0
123,0
124,0
125,0
126,0
127,0
128,0
129,0
130,0
131,0
132,0
133,0
134,0
135,0
136,0
137,0
138,0
139,0
140,0
141,0
142,0
143,0
144,0
145,0
146,0
147,0
148,0
149,0
150,0
151,0
152,0
153,0
154,0
155,0
156,0
157,0
158,0
159,0
160,0
161,0
162,0
163,0
164,0
165,0
166,0
167,0
168,0
169,0
170,0
171,0
172,0
173,0
174,0
175,0
176,0
177,0
178,0
179,0
180,0
181,0
182,0
183,0
184,0
185,0
186,0
187,0
188,0
189,0
190,0
191,0
192,0
193,0
194,0
195,0
196,0
197,0
198,0
199,0
200,0
201,0
202,0
203,0
204,1
205,1
206,1
207,1
208,1
209,1
210,1
211,1
212,1
213,1
214,1
215,1
216,1
217,1
218,1
219,1
220,1
221,1
222,1
223,1
224,1
225,1
226,1
227,1
228,1
229,1
230,1
231,1
232,1
233,1
234,1
235,1
236,1
237,1
238,1
239,1
240,1
241,2
242,2
243,2
244,2
245,2
246,3
247,3
248,3
249,3
250,3
251,4
252,4
253,4
254,4
255,4
256,4
257,4
258,5
259,5
260,5
261,5
262,5
263,5
264,5
265,6
266,7
267,7
268,7
269,7
270,7
271,7
272,7
273,8
274,8
275,8
276,9
277,9
278,9
279,9
280,9
281,9
282,9
283,9
284,9
285,9
286,9
287,9
288,9
289,9
290,9
291,9
292,9
293,9
294,9
295,9
296,9
297,9
298,9
299,11
300,11
301,11
302,11
303,12
304,12
305,12
306,12
307,12
308,12
309,12
310,12
311,12
312,12
313,12
314,12
315,12
316,12
317,12
318,12
319,12
320,12
321,12
322,12
323,12
324,12
325,12
326,12
327,12
328,12
329,13
330,14
331,16
332,17
333,17
334,17
335,17
336,17
337,17
338,17
339,17
340,17
341,17
342,17
343,17
344,17
345,17
346,17
347,18
348,18
349,18
350,18
351,19
352,20
353,20
354,20
355,20
356,20
357,20
358,20
359,20
360,20
361,20
362,20
363,20
364,20
365,20
366,20
367,20
368,20
369,20
370,21
371,21
372,21
373,22
374,22
375,22
376,22
377,22
378,22
379,22
380,22
381,22
382,22
383,22
384,22
385,22
386,22
387,22
388,22
389,22
390,22
391,22
392,22
393,23
394,23
395,23
396,23
397,23
398,24
399,24
400,24
401,24
402,24
403,24
404,24
405,24
406,24
407,24
408,24
409,24
410,24
411,24
412,24
413,25
414,25
415,25
416,25
417,25
418,25
419,25
420,25
421,25
422,25
423,25
424,25
425,25
426,25
427,25
428,25
429,25
430,25
431,25
432,25
433,25
434,26
435,26
436,26
437,26
438,26
439,26
440,26
441,26
442,26
443,27
444,27
445,27
446,27
447,27
448,27
449,27
450,27
451,27
452,27
453,27
454,27
455,27
456,27
457,27
458,27
459,27
460,27
461,27
462,27
463,27
464,29
465,29
466,29
467,29
468,29
469,29
470,29
471,29
472,29
473,29
474,29
475,30
476,30
477,30
478,30
479,30
480,30
481,30
482,30
483,30
484,30
485,30
486,30
487,30
488,30
489,30
490,30
491,30
492,30
493,30
494,30
495,30
496,30
497,30
498,30
499,30
500,30
501,30
502,30
503,30
504,30
505,30
506,30
507,30
508,30
509,30
510,30
511,30
512,30
513,30
514,30
515,30
516,30
517,30
518,30
519,30
520,30
521,30
522,30
523,30
524,30
525,30
526,30
527,30
528,30
529,30
530,30
531,30
532,30
533,30
534,30
535,30
536,30
537,30
538,30
539,30
540,30
541,30
542,30
543,30
544,30
545,30
546,30
547,30
548,30
549,30
550,30
551,30
552,30
553,30
554,30
555,30
556,30
557,30
558,30
559,30
560,30
561,30
562,30
563,30
564,30
565,30
566,30
567,30
568,30
569,30
570,30
571,30
572,30
573,30
574,30
575,30
576,31
577,31
578,31
579,31
580,31
581,31
582,31
583,31
584,31
585,31
586,31
587,31
588,31
589,31
590,31
591,31
592,31
593,31
594,31
595,31
596,31
597,31
598,31
599,31
600,31
601,31
602,31
603,31
604,31
605,31
606,31
607,31
608,31
609,31
610,31
611,31
612,31
613,31
614,31
615,32
616,32
617,32
618,32
619,32
620,32
621,32
622,32
623,32
624,34
625,34
626,34
627,34
628,34
629,34
630,34
631,34
632,34
633,34
634,34
635,34
636,34
637,34
638,35
639,35
640,35
641,35
642,35
643,35
644,35
645,35
646,35
647,35
648,35
649,35
650,35
651,35
652,35
653,35
654,35
655,35
656,35
657,35
658,36
659,36
660,36
661,36
662,36
663,36
664,36
665,36
666,36
667,36
668,36
669,36
670,36
671,36
672,36
673,36
674,36
675,36
676,36
677,36
678,36
679,36
680,36
681,36
682,36
683,37
684,37
685,38
686,38
687,38
688,38
689,38
690,38
691,38
692,39
693,39
694,39
695,40
696,40
697,40
698,41
699,41
700,41
701,41
702,41
703,43
704,43
705,43
706,43
707,43
708,43
709,44
710,44
711,44
712,44
713,44
714,44
715,44
716,44
717,44
718,44
719,44
720,44
721,44
722,45
723,45
724,45
725,45
726,45
727,45
728,46
729,46
730,46
731,46
732,47
733,47
734,47
735,47
736,47
737,48
738,48
739,48
740,48
741,48
742,48
743,48
744,48
745,48
746,48
747,48
748,48
749,48
750,49
751,49
752,50
753,50
754,50
755,50
756,50
757,50
758,50
759,50
760,50
761,50
762,50
763,50
764,50
765,50
766,50
767,50
768,50
769,50
770,50
771,50
772,50
773,50
774,51
775,51
776,51
777,51
778,51
779,52
780,52
781,52
782,52
783,52
784,52
785,52
786,52
787,54
788,54
789,54
790,54
791,55
792,55
793,55
794,55
795,55
796,55
797,55
798,55
799,55
800,55
801,55
802,55
803,55
804,55
805,55
806,55
807,55
808,55
809,55
810,55
811,55
812,55
813,56
814,56
815,56
816,56
817,56
818,56
819,56
820,56
821,56
822,56
823,56
824,56
825,57
826,57
827,57
828,57
829,57
830,57
831,57
832,57
833,57
834,57
835,57
836,57
837,57
838,57
839,57
840,57
841,57
842,57
843,57
844,57
845,57
846,57
847,57
848,57
849,57
850,57
851,57
852,57
853,57
854,57
855,57
856,57
857,57
858,57
859,57
860,57
861,57
862,57
863,57
864,57
865,57
866,57
867,57
868,57
869,57
870,57
871,57
872,57
873,57
874,57
875,57
876,57
877,57
878,57
879,57
880,57
881,57
882,57
883,57
884,57
885,57
886,57
887,57
888,57
889,57
890,57
891,57
892,57
893,57
894,57
895,57
896,57
897,57
898,57
899,57
900,57
901,57
902,57
903,57
904,57
905,57
906,57
907,57
908,57
909,57
910,57
911,57
912,57
913,57
914,57
915,57
916,57
917,57
918,57
919,57
920,57
921,57
922,57
923,57
924,57
925,57
926,57
927,57
928,57
929,57
930,57
931,57
932,57
933,57
934,57
935,57
936,57
937,57
938,57
939,57
940,57
941,57
942,57
943,57
944,57
945,57
946,57
947,57
948,57
949,57
950,57
951,57
952,57
953,57
954,57
955,57
956,57
957,57
958,57
959,57
960,57
961,58
962,58
963,58
964,58
965,58
966,58
967,58
968,58
969,58
970,58
971,58
972,58
973,58
974,58
975,58
976,58
977,58
978,58
979,58
980,58
981,58
982,58
983,58
984,58
985,58
986,58
987,58
988,58
989,58
990,58
991,58
992,58
993,58
994,58
995,58
996,58
997,58
998,58
999,58
1000,58
1001,58
1002,58
1003,58
1004,58
1005,58
1006,58
1007,58
1008,58
1009,58
1010,58
1011,58
1012,58
1013,58
1014,58
1015,58
1016,58
1017,58
1018,58
1019,58
1020,58
1021,58
1022,58
1023,58
1024,58
1025,58
1026,58
1027,58
1028,59
1029,59
1030,59
1031,59
1032,59
1033,59
1034,59
1035,59
1036,60
1037,60
1038,60
1039,60
1040,60
1041,60
1042,60
1043,60
1044,60
1045,60
1046,60
1047,60
1048,60
1049,60
1050,60
1051,60
1052,60
1053,60
1054,60
1055,60
1056,60
1057,60
1058,60
1059,60
1060,60
1061,60
1062,60
1063,60
1064,60
1065,60
1066,60
1067,60
1068,60
1069,60
1070,60
1071,60
1072,60
1073,60
1074,60
1075,60
1076,60
1077,60
1078,60
1079,60
1080,61
1081,62
1082,63
1083,64
1084,65
1085,66
1086,67
1087,68
1088,68
1089,68
1090,68
1091,68
1092,68
1093,68
1094,68
1095,68
1096,68
1097,68
1098,68
1099,68
1100,68
1101,68
1102,68
1103,68
1104,68
1105,68
1106,68
1107,68
1108,68
1109,68
1110,68
1111,68
1112,68
1113,68
1114,68
1115,68
1116,68
1117,68
1118,68
1119,68
1120,68
1121,68
1122,68
1123,68
1124,68
1125,68
1126,68
1127,68
1128,68
1129,68
1130,68
1131,68
1132,68
1133,68
1134,68
1135,68
1136,68
1137,68
1138,68
1139,68
1140,68
1141,68
1142,68
1143,68
1144,68
1145,68
1146,68
1147,68
1148,68
1149,68
1150,68
1151,68
1152,68
1153,68
1154,68
1155,68
1156,68
1157,68
1158,68
1159,68
1160,69
1161,69
1162,69
1163,70
1164,70
1165,70
1166,70
1167,70
1168,70
1169,70
1170,70
1171,70
1172,70
1173,70
1174,70
1175,70
1176,70
1177,70
1178,71
1179,71
1180,71
1181,71
1182,71
1183,72
1184,72
1185,72
1186,72
1187,72
1188,72
1189,72
1190,72
1191,72
1192,72
1193,72
1194,72
1195,72
1196,72
1197,73
1198,73
1199,73
1200,73
1201,73
1202,73
1203,73
1204,73
1205,73
1206,73
1207,73
1208,73
1209,73
1210,73
1211,73
1212,73
1213,73
1214,73
1215,73
1216,73
1217,73
1218,73
1219,73
1220,73
1221,73
1222,73
1223,73
1224,74
1225,74
1226,74
1227,74
1228,74
1229,74
1230,74
1231,74
1232,74
1233,74
1234,74
1235,74
1236,74
1237,74
1238,74
1239,74
1240,74
1241,74
1242,74
1243,74
1244,74
1245,74
1246,74
1247,74
1248,74
1249,74
1250,74
1251,74
1252,74
1253,74
1254,74
1255,74
1256,74
1257,74
1258,74
1259,74
1260,74
1261,74
1262,74
1263,74
1264,74
1265,74
1266,74
1267,74
1268,74
1269,74
1270,74
1271,74
1272,74
1273,74
1274,75
1275,75
1276,75
1277,75
1278,75
1279,75
1280,75
1281,75
1282,75
1283,75
1284,75
1285,75
1286,75
1287,75
1288,75
1289,75
1290,75
1291,75
1292,75
1293,75
1294,75
1295,75
1296,75
1297,75
1298,75
1299,75
1300,75
1301,75
1302,75
1303,75
1304,75
1305,75
1306,75
1307,75
1308,75
1309,75
1310,75
1311,75
1312,75
1313,75
1314,75
1315,75
1316,75
1317,75
1318,75
1319,75
1320,75
1321,75
1322,76
1323,76
1324,76
1325,76
1326,76
1327,76
1328,77
1329,77
1330,77
1331,77
1332,77
1333,77
1334,77
1335,77
1336,77
1337,77
1338,77
1339,77
1340,77
1341,77
1342,77
1343,77
1344,77
1345,77
1346,77
1347,77
1348,77
1349,77
1350,77
1351,77
1352,77
1353,77
1354,77
1355,77
1356,77
1357,77
1358,77
1359,77
1360,77
1361,77
1362,77
1363,77
1364,77
1365,77
1366,77
1367,77
1368,77
1369,77
1370,77
1371,77
1372,77
1373,77
1374,77
1375,77
1376,77
1377,77
1378,77
1379,77
1380,77
1381,77
1382,77
1383,77
1384,77
1385,77
1386,77
1387,77
1388,77
1389,77
1390,77
1391,77
1392,77
1393,77
1394,77
1395,78
1396,79
1397,79
1398,79
1399,79
1400,79
1401,79
1402,79
1403,79
1404,79
1405,79
1406,79
1407,79
1408,79
1409,79
1410,79
1411,79
1412,80
1413,80
1414,80
1415,80
1416,80
1417,80
1418,80
1419,80
1420,80
1421,80
1422,80
1423,80
1424,80
1425,80
1426,80
1427,80
1428,80
1429,80
1430,80
1431,80
1432,80
1433,80
1434,80
1435,80
1436,80
1437,80
1438,80
1439,80
1440,80
1441,80
1442,80
1443,80
1444,80
1445,80
1446,80
1447,80
1448,80
1449,80
1450,80
1451,80
1452,80
1453,80
1454,80
1455,80
1456,80
1457,81
1458,81
1459,81
1460,81
1461,81
1462,81
1463,82
1464,82
1465,82
1466,82
1467,82
1468,82
1469,82
1470,82
1471,82
1472,82
1473,82
1474,82
1475,82
1476,83
1477,83
1478,84
1479,84
1480,84
1481,84
1482,84
1483,84
1484,84
1485,84
1486,84
1487,84
1488,84
1489,84
1490,84
1491,84
1492,84
1493,84
1494,84
1495,84
1496,84
1497,84
1498,85
1499,86
1500,86
1501,86
1502,86
1503,86
1504,86
1505,86
1506,86
1507,86
1508,86
1509,86
1510,86
1511,86
1512,86
1513,87
1514,87
1515,87
1516,87
1517,87
1518,87
1519,87
1520,87
1521,88
1522,88
1523,88
1524,88
1525,88
1526,89
1527,89
1528,89
1529,89
1530,89
1531,89
1532,89
1533,89
1534,89
1535,89
1536,90
1537,91
1538,91
1539,91
1540,91
1541,91
1542,91
1543,91
1544,91
1545,91
1546,91
1547,91
1548,91
1549,91
1550,91
1551,91
1552,91
1553,91
1554,91
1555,91
1556,91
1557,91
1558,91
1559,91
1560,91
1561,91
1562,91
1563,91
1564,91
1565,91
1566,91
1567,91
1568,91
1569,91
1570,91
1571,91
1572,91
1573,91
1574,91
1575,91
1576,91
1577,91
1578,91
1579,91
1580,92
1581,92
1582,92
1583,92
1584,92
1585,92
1586,92
1587,92
1588,92
1589,92
1590,92
1591,92
1592,92
1593,92
1594,92
1595,92
1596,92
1597,92
1598,92
1599,92
1600,92
1601,92
1602,92
1603,92
1604,92
1605,92
1606,92
1607,92
1608,93
1609,94
1610,94
1611,95
1612,95
1613,95
1614,95
1615,96
1616,96
1617,96
1618,96
1619,96
1620,96
1621,96
1622,96
1623,96
1624,96
1625,96
1626,96
1627,96
1628,96
1629,96
1630,96
1631,96
1632,96
1633,96
1634,96
1635,96
1636,96
1637,96
1638,96
1639,96
1640,96
1641,96
1642,96
1643,96
1644,96
1645,96
1646,96
1647,96
1648,97
1649,97
1650,97
1651,97
1652,97
1653,97
1654,97
1655,97
1656,97
1657,97
1658,97
1659,97
1660,97
1661,97
1662,97
1663,97
1664,97
1665,97
1666,98
1667,98
1668,98
1669,98
1670,98
1671,98
1672,98
1673,98
1674,98
1675,98
1676,98
1677,98
1678,98
1679,98
1680,98
1681,98
1682,98
1683,98
1684,98
1685,98
1686,98
1687,98
1688,98
1689,98
1690,98
1691,98
1692,98
1693,98
1694,98
1695,98
1696,98
1697,98
1698,98
1699,98
1700,98
1701,98
1702,98
1703,98
1704,98
1705,98
1706,98
1707,98
1708,99
1709,99
1710,99
1711,99
1712,99
1713,99
1714,99
1715,99
1716,99
1717,99
1718,99
1719,99
1720,99
1721,99
1722,99
1723,99
1724,99
1725,99
1726,99
1727,99
1728,99
1729,99
1730,99
1731,99
1732,99
1733,99
1734,99
1735,99
1736,100
1737,100
1738,101
1739,101
1740,101
1741,101
1742,101
1743,101
1744,101
1745,101
1746,101
1747,102
1748,102
1749,102
1750,102
1751,102
1752,102
1753,102
1754,102
1755,102
1756,102
1757,102
1758,102
1759,102
1760,102
1761,102
1762,102
1763,102
1764,102
1765,102
1766,102
1767,102
1768,102
1769,102
1770,102
1771,102
1772,102
1773,102
1774,102
1775,102
1776,102
1777,102
1778,102
1779,102
1780,102
1781,102
1782,102
1783,102
1784,102
1785,102
1786,102
1787,102
1788,102
1789,102
1790,102
1791,103
1792,103
1793,103
1794,103
1795,103
1796,103
1797,103
1798,103
1799,103
1800,103
1801,103
1802,103
1803,103
1804,103
1805,103
1806,103
1807,103
1808,103
1809,103
1810,103
1811,103
1812,103
1813,103
1814,103
1815,103
1816,103
1817,103
1818,103
1819,103
1820,103
1821,103
1822,103
1823,103
1824,103
1825,103
1826,103
1827,103
1828,103
1829,104
1830,104
1831,104
1832,104
1833,104
1834,104
1835,104
1836,104
1837,104
1838,104
1839,104
1840,104
1841,104
1842,104
1843,104
1844,104
1845,104
1846,104
1847,104
1848,104
1849,104
1850,104
1851,104
1852,104
1853,104
1854,104
1855,104
1856,104
1857,104
1858,104
1859,104
1860,104
1861,104
1862,104
1863,104
1864,104
1865,104
1866,104
1867,104
1868,104
1869,104
1870,104
1871,104
1872,104
1873,104
1874,104
1875,104
1876,104
1877,104
1878,104
1879,104
1880,104
1881,104
1882,104
1883,104
1884,104
1885,104
1886,104
1887,104
1888,104
1889,104
1890,104
1891,104
1892,104
1893,104
1894,104
1895,104
1896,104
1897,104
1898,104
1899,104
1900,104
1901,105
1902,105
1903,105
1904,105
1905,105
1906,105
1907,107
1908,107
1909,107
1910,107
1911,107
1912,107
1913,107
1914,107
1915,107
1916,107
1917,107
1918,107
1919,107
1920,108
1921,108
1922,108
1923,109
1924,109
1925,109
1926,109
1927,109
1928,109
1929,109
1930,109
1931,109
1932,109
1933,109
1934,109
1935,109
1936,109
1937,109
1938,109
1939,109
1940,109
1941,109
1942,109
1943,109
1944,109
1945,109
1946,109
1947,109
1948,110
1949,110
1950,110
1951,110
1952,110
1953,110
1954,110
1955,110
1956,110
1957,110
1958,110
1959,110
1960,110
1961,110
1962,110
1963,110
1964,110
1965,110
1966,110
1967,110
1968,110
1969,110
1970,110
1971,110
1972,110
1973,110
1974,110
1975,110
1976,110
1977,110
1978,110
1979,110
1980,110
1981,110
1982,110
1983,110
1984,110
1985,110
1986,110
1987,110
1988,110
1989,110
1990,110
1991,110
1992,110
1993,110
1994,110
1995,110
1996,110
1997,110
1998,110
1999,110
2000,110
