"tick","total"
0,0
1,0
2,0
3,0
4,0
5,0
6,0
7,0
8,0
9,0
10,0
11,0
12,0
13,0
14,0
15,0
16,0
17,0
18,0
19,0
20,0
21,0
22,0
23,0
24,0
25,0
26,0
27,0
28,0
29,0
30,0
31,0
32,0
33,0
34,0
35,0
36,0
37,0
38,0
39,0
40,0
41,0
42,0
43,0
44,0
45,0
46,0
47,0
48,0
49,0
50,0
51,0
52,0
53,0
54,0
55,0
56,0
57,0
58,0
59,0
60,0
61,0
62,0
63,0
64,0
65,0
66,0
67,0
68,0
69,0
70,0
71,0
72,0
73,0
74,0
75,0
76,0
77,0
78,0
79,0
80,0
81,0
82,0
83,0
84,0
85,0
86,0
87,0
88,0
89,0
90,0
91,0
92,0
93,0
94,0
95,0
96,0
97,0
98,0
99,0
100,0
101,0
102,0
103,0
104,0
105,0
106,0
107,0
108,0
109,0
110,0
111,0
112,0
113,0
114,0
115,0
116,0
117,0
118,0
119,0
120,0
121,0
122,0
123,0
124,0
125,0
126,0
127,0
128,0
129,0
130,0
131,0
132,0
133,0
134,0
135,0
136,0
137,0
138,0
139,0
140,0
141,0
142,0
143,0
144,0
145,0
146,0
147,0
148,0
149,0
150,0
151,0
152,0
153,0
154,0
155,0
156,0
157,0
158,0
159,0
160,0
161,0
162,0
163,0
164,0
165,0
166,0
167,0
168,0
169,0
170,0
171,0
172,0
173,0
174,0
175,0
176,0
177,0
178,0
179,0
180,0
181,0
182,0
183,0
184,0
185,0
186,0
187,0
188,0
189,0
190,0
191,0
192,0
193,0
194,0
195,0
196,0
197,0
198,0
199,0
200,0
201,0
202,0
203,0
204,0
205,0
206,0
207,0
208,0
209,0
210,0
211,0
212,0
213,0
214,0
215,0
216,0
217,0
218,0
219,0
220,0
221,0
222,0
223,0
224,0
225,0
226,0
227,0
228,0
229,0
230,0
231,0
232,0
233,0
234,0
235,0
236,0
237,0
238,0
239,0
240,1
241,1
242,1
243,1
244,1
245,1
246,1
247,1
248,1
249,1
250,1
251,1
252,2
253,3
254,3
255,3
256,3
257,3
258,3
259,4
260,4
261,4
262,4
263,4
264,4
265,4
266,4
267,4
268,4
269,4
270,4
271,4
272,4
273,4
274,4
275,4
276,4
277,4
278,4
279,4
280,4
281,4
282,4
283,4
284,4
285,4
286,4
287,4
288,4
289,4
290,4
291,4
292,4
293,4
294,4
295,4
296,4
297,4
298,4
299,5
300,5
301,5
302,5
303,5
304,5
305,5
306,5
307,5
308,5
309,5
310,5
311,6
312,7
313,7
314,7
315,7
316,7
317,7
318,7
319,8
320,8
321,8
322,8
323,8
324,8
325,8
326,8
327,8
328,8
329,8
330,9
331,10
332,10
333,10
334,10
335,10
336,10
337,10
338,10
339,10
340,10
341,10
342,10
343,10
344,10
345,10
346,10
347,10
348,10
349,10
350,10
351,10
352,10
353,10
354,10
355,10
356,10
357,10
358,10
359,10
360,10
361,10
362,10
363,10
364,10
365,10
366,10
367,10
368,10
369,10
370,10
371,10
372,11
373,12
374,12
375,12
376,12
377,12
378,12
379,12
380,12
381,12
382,12
383,12
384,13
385,13
386,13
387,13
388,13
389,13
390,13
391,14
392,14
393,14
394,14
395,14
396,14
397,14
398,14
399,14
400,14
401,14
402,14
403,14
404,14
405,14
406,14
407,15
408,16
409,16
410,16
411,16
412,16
413,16
414,16
415,16
416,16
417,16
418,16
419,17
420,17
421,18
422,19
423,19
424,19
425,19
426,19
427,19
428,20
429,21
430,21
431,21
432,21
433,21
434,22
435,22
436,23
437,23
438,23
439,23
440,23
441,23
442,23
443,23
444,25
445,25
446,25
447,25
448,26
449,26
450,26
451,26
452,26
453,26
454,26
455,26
456,26
457,26
458,26
459,27
460,27
461,27
462,27
463,27
464,27
465,27
466,27
467,27
468,27
469,27
470,27
471,27
472,27
473,27
474,27
475,27
476,28
477,28
478,28
479,29
480,29
481,29
482,29
483,29
484,29
485,29
486,29
487,29
488,29
489,29
490,30
491,30
492,30
493,30
494,30
495,30
496,30
497,30
498,31
499,31
500,31
501,31
502,31
503,31
504,31
505,31
506,31
507,31
508,31
509,31
510,31
511,31
512,31
513,31
514,31
515,31
516,31
517,31
518,31
519,31
520,31
521,31
522,31
523,31
524,31
525,31
526,31
527,31
528,31
529,31
530,31
531,31
532,31
533,31
534,31
535,31
536,31
537,31
538,31
539,31
540,31
541,31
542,31
543,31
544,31
545,31
546,31
547,31
548,31
549,31
550,31
551,31
552,31
553,31
554,31
555,31
556,31
557,31
558,31
559,31
560,31
561,31
562,31
563,31
564,31
565,31
566,31
567,31
568,31
569,31
570,31
571,31
572,31
573,31
574,31
575,31
576,31
577,31
578,31
579,31
580,31
581,31
582,31
583,31
584,31
585,31
586,31
587,31
588,31
589,31
590,31
591,31
592,31
593,31
594,31
595,31
596,31
597,31
598,31
599,31
600,32
601,32
602,32
603,32
604,32
605,32
606,32
607,32
608,32
609,32
610,32
611,32
612,32
613,32
614,32
615,32
616,32
617,32
618,32
619,32
620,32
621,32
622,32
623,32
624,32
625,32
626,32
627,32
628,32
629,32
630,32
631,32
632,32
633,32
634,32
635,32
636,32
637,32
638,32
639,32
640,32
641,32
642,32
643,32
644,32
645,32
646,32
647,32
648,32
649,32
650,32
651,32
652,32
653,32
654,32
655,32
656,32
657,32
658,32
659,32
660,32
661,32
662,32
663,32
664,32
665,32
666,32
667,32
668,32
669,33
670,33
671,33
672,33
673,33
674,33
675,33
676,33
677,33
678,33
679,33
680,33
681,34
682,34
683,34
684,34
685,36
686,37
687,37
688,37
689,37
690,37
691,37
692,37
693,37
694,37
695,37
696,37
697,38
698,39
699,39
700,39
701,39
702,39
703,39
704,39
705,39
706,39
707,39
708,39
709,39
710,39
711,39
712,39
713,39
714,39
715,40
716,40
717,40
718,40
719,40
720,40
721,40
722,40
723,40
724,40
725,40
726,41
727,41
728,41
729,41
730,41
731,41
732,41
733,41
734,41
735,42
736,42
737,42
738,42
739,42
740,42
741,42
742,42
743,42
744,42
745,42
746,42
747,42
748,43
749,43
750,43
751,43
752,43
753,43
754,43
755,43
756,43
757,43
758,43
759,43
760,43
761,43
762,44
763,44
764,44
765,44
766,44
767,44
768,44
769,44
770,44
771,44
772,44
773,44
774,44
775,44
776,44
777,44
778,44
779,44
780,44
781,44
782,44
783,44
784,44
785,44
786,44
787,44
788,44
789,44
790,44
791,44
792,44
793,44
794,44
795,44
796,44
797,44
798,44
799,45
800,45
801,45
802,45
803,45
804,45
805,45
806,45
807,45
808,45
809,45
810,45
811,45
812,45
813,45
814,45
815,45
816,45
817,45
818,45
819,45
820,45
821,45
822,46
823,46
824,46
825,47
826,47
827,47
828,47
829,47
830,47
831,47
832,47
833,47
834,47
835,47
836,47
837,47
838,47
839,47
840,47
841,47
842,47
843,47
844,47
845,48
846,48
847,48
848,48
849,48
850,49
851,49
852,49
853,49
854,49
855,49
856,49
857,49
858,49
859,49
860,49
861,49
862,49
863,49
864,49
865,49
866,49
867,49
868,49
869,49
870,49
871,49
872,49
873,49
874,50
875,50
876,50
877,50
878,50
879,50
880,50
881,50
882,50
883,50
884,50
885,50
886,50
887,50
888,50
889,50
890,50
891,50
892,50
893,50
894,50
895,50
896,50
897,50
898,50
899,50
900,50
901,50
902,50
903,50
904,50
905,50
906,50
907,50
908,50
909,50
910,50
911,50
912,50
913,50
914,50
915,50
916,51
917,51
918,51
919,51
920,51
921,51
922,51
923,51
924,51
925,51
926,51
927,51
928,51
929,51
930,51
931,51
932,51
933,51
934,51
935,51
936,51
937,51
938,51
939,51
940,51
941,52
942,52
943,52
944,52
945,52
946,52
947,52
948,52
949,52
950,52
951,52
952,52
953,52
954,52
955,52
956,52
957,53
958,54
959,54
960,54
961,54
962,54
963,54
964,54
965,54
966,54
967,54
968,55
969,55
970,55
971,56
972,56
973,56
974,56
975,56
976,56
977,56
978,56
979,56
980,56
981,56
982,56
983,56
984,56
985,56
986,57
987,57
988,57
989,57
990,57
991,58
992,58
993,58
994,58
995,58
996,58
997,58
998,58
999,58
1000,58
1001,58
1002,58
1003,58
1004,58
1005,58
1006,58
1007,58
1008,58
1009,58
1010,58
1011,58
1012,58
1013,58
1014,58
1015,58
1016,58
1017,58
1018,58
1019,58
1020,58
1021,58
1022,58
1023,58
1024,58
1025,58
1026,58
1027,58
1028,58
1029,58
1030,58
1031,58
1032,58
1033,58
1034,58
1035,58
1036,58
1037,58
1038,58
1039,58
1040,58
1041,58
1042,58
1043,58
1044,58
1045,58
1046,58
1047,58
1048,58
1049,58
1050,58
1051,58
1052,58
1053,58
1054,58
1055,59
1056,59
1057,59
1058,59
1059,59
1060,59
1061,59
1062,59
1063,59
1064,59
1065,59
1066,59
1067,59
1068,59
1069,59
1070,59
1071,59
1072,59
1073,59
1074,59
1075,59
1076,59
1077,59
1078,59
1079,59
1080,59
1081,59
1082,59
1083,59
1084,59
1085,59
1086,59
1087,59
1088,59
1089,59
1090,60
1091,60
1092,60
1093,60
1094,60
1095,60
1096,60
1097,60
1098,60
1099,60
1100,60
1101,60
1102,60
1103,60
1104,60
1105,60
1106,61
1107,61
1108,61
1109,61
1110,61
1111,61
1112,61
1113,61
1114,61
1115,61
1116,61
1117,61
1118,61
1119,61
1120,61
1121,61
1122,61
1123,61
1124,61
1125,61
1126,61
1127,61
1128,61
1129,61
1130,61
1131,61
1132,61
1133,61
1134,61
1135,61
1136,61
1137,61
1138,61
1139,61
1140,61
1141,61
1142,61
1143,61
1144,61
1145,61
1146,61
1147,61
1148,61
1149,61
1150,61
1151,61
1152,61
1153,61
1154,61
1155,61
1156,61
1157,61
1158,61
1159,61
1160,61
1161,61
1162,61
1163,61
1164,61
1165,61
1166,61
1167,61
1168,61
1169,61
1170,61
1171,61
1172,61
1173,61
1174,61
1175,61
1176,61
1177,61
1178,61
1179,61
1180,61
1181,61
1182,61
1183,61
1184,61
1185,61
1186,61
1187,61
1188,61
1189,61
1190,61
1191,61
1192,61
1193,61
1194,61
1195,61
1196,61
1197,61
1198,61
1199,61
1200,61
1201,61
1202,61
1203,61
1204,61
1205,61
1206,61
1207,61
1208,61
1209,61
1210,61
1211,61
1212,61
1213,61
1214,61
1215,61
1216,61
1217,61
1218,61
1219,61
1220,61
1221,61
1222,61
1223,62
1224,62
1225,62
1226,62
1227,62
1228,62
1229,62
1230,62
1231,62
1232,62
1233,62
1234,62
1235,62
1236,62
1237,62
1238,62
1239,62
1240,62
1241,62
1242,62
1243,62
1244,62
1245,62
1246,62
1247,62
1248,62
1249,62
1250,62
1251,62
1252,63
1253,63
1254,63
1255,63
1256,63
1257,63
1258,63
1259,63
1260,63
1261,63
1262,63
1263,63
1264,63
1265,63
1266,63
1267,63
1268,63
1269,63
1270,63
1271,63
1272,63
1273,63
1274,63
1275,63
1276,63
1277,63
1278,63
1279,63
1280,63
1281,63
1282,63
1283,63
1284,63
1285,63
1286,63
1287,63
1288,63
1289,63
1290,63
1291,63
1292,63
1293,63
1294,63
1295,63
1296,63
1297,63
1298,63
1299,63
1300,63
1301,63
1302,63
1303,63
1304,63
1305,63
1306,63
1307,63
1308,63
1309,63
1310,63
1311,63
1312,63
1313,63
1314,63
1315,63
1316,64
1317,64
1318,64
1319,64
1320,64
1321,64
1322,64
1323,64
1324,64
1325,64
1326,64
1327,64
1328,64
1329,64
1330,65
1331,65
1332,65
1333,65
1334,65
1335,65
1336,65
1337,65
1338,65
1339,66
1340,66
1341,66
1342,66
1343,66
1344,66
1345,66
1346,67
1347,67
1348,67
1349,67
1350,67
1351,67
1352,68
1353,68
1354,68
1355,68
1356,68
1357,68
1358,68
1359,68
1360,68
1361,68
1362,68
1363,68
1364,68
1365,68
1366,68
1367,68
1368,68
1369,68
1370,68
1371,68
1372,68
1373,68
1374,68
1375,68
1376,68
1377,68
1378,68
1379,68
1380,68
1381,68
1382,68
1383,68
1384,68
1385,68
1386,68
1387,68
1388,68
1389,68
1390,68
1391,68
1392,68
1393,68
1394,68
1395,68
1396,68
1397,68
1398,69
1399,69
1400,69
1401,69
1402,69
1403,69
1404,69
1405,70
1406,70
1407,70
1408,70
1409,70
1410,70
1411,70
1412,70
1413,70
1414,70
1415,70
1416,70
1417,70
1418,70
1419,70
1420,70
1421,70
1422,70
1423,70
1424,70
1425,70
1426,70
1427,70
1428,70
1429,70
1430,70
1431,70
1432,70
1433,70
1434,70
1435,70
1436,70
1437,70
1438,70
1439,70
1440,70
1441,70
1442,70
1443,71
1444,71
1445,71
1446,71
1447,71
1448,71
1449,71
1450,71
1451,71
1452,71
1453,71
1454,71
1455,71
1456,71
1457,71
1458,71
1459,71
1460,71
1461,71
1462,71
1463,71
1464,71
1465,71
1466,71
1467,71
1468,71
1469,71
1470,71
1471,71
1472,71
1473,71
1474,71
1475,71
1476,72
1477,72
1478,72
1479,72
1480,72
1481,72
1482,72
1483,72
1484,72
1485,72
1486,72
1487,72
1488,72
1489,72
1490,72
1491,72
1492,72
1493,72
1494,72
1495,72
1496,72
1497,72
1498,72
1499,72
1500,72
1501,72
1502,72
1503,72
1504,72
1505,72
1506,72
1507,72
1508,72
1509,72
1510,72
1511,72
1512,72
1513,72
1514,72
1515,72
1516,72
1517,72
1518,73
1519,73
1520,73
1521,73
1522,73
1523,73
1524,73
1525,73
1526,73
1527,73
1528,73
1529,73
1530,73
1531,73
1532,73
1533,73
1534,73
1535,73
1536,73
1537,73
1538,73
1539,73
1540,73
1541,73
1542,73
1543,73
1544,73
1545,73
1546,73
1547,73
1548,73
1549,73
1550,73
1551,73
1552,73
1553,73
1554,73
1555,73
1556,73
1557,73
1558,73
1559,73
1560,73
1561,73
1562,73
1563,73
1564,73
1565,73
1566,73
1567,73
1568,73
1569,73
1570,73
1571,73
1572,73
1573,73
1574,73
1575,73
1576,73
1577,73
1578,73
1579,73
1580,73
1581,73
1582,74
1583,74
1584,74
1585,74
1586,74
1587,74
1588,74
1589,74
1590,74
1591,74
1592,74
1593,74
1594,74
1595,74
1596,74
1597,74
1598,74
1599,74
1600,74
1601,74
1602,76
1603,76
1604,76
1605,76
1606,76
1607,76
1608,76
1609,76
1610,76
1611,76
1612,77
1613,77
1614,77
1615,77
1616,77
1617,77
1618,77
1619,77
1620,77
1621,77
1622,77
1623,77
1624,77
1625,77
1626,77
1627,77
1628,77
1629,77
1630,77
1631,77
1632,77
1633,77
1634,77
1635,77
1636,77
1637,77
1638,77
1639,77
1640,77
1641,77
1642,77
1643,77
1644,77
1645,77
1646,77
1647,77
1648,77
1649,77
1650,77
1651,78
1652,78
1653,78
1654,78
1655,78
1656,78
1657,78
1658,78
1659,78
1660,78
1661,78
1662,78
1663,78
1664,78
1665,79
1666,79
1667,79
1668,79
1669,79
1670,79
1671,79
1672,79
1673,79
1674,79
1675,79
1676,79
1677,79
1678,79
1679,79
1680,79
1681,80
1682,80
1683,80
1684,80
1685,80
1686,80
1687,81
1688,81
1689,81
1690,81
1691,81
1692,81
1693,81
1694,81
1695,81
1696,81
1697,82
1698,82
1699,82
1700,82
1701,82
1702,82
1703,82
1704,82
1705,82
1706,82
1707,82
1708,82
1709,82
1710,82
1711,82
1712,82
1713,82
1714,82
1715,82
1716,82
1717,83
1718,83
1719,83
1720,83
1721,83
1722,83
1723,83
1724,83
1725,83
1726,83
1727,83
1728,83
1729,83
1730,83
1731,83
1732,83
1733,83
1734,83
1735,83
1736,83
1737,83
1738,83
1739,84
1740,84
1741,84
1742,84
1743,84
1744,84
1745,84
1746,84
1747,84
1748,84
1749,84
1750,84
1751,84
1752,84
1753,84
1754,84
1755,84
1756,84
1757,84
1758,84
1759,84
1760,84
1761,84
1762,84
1763,84
1764,84
1765,84
1766,84
1767,84
1768,84
1769,84
1770,84
1771,84
1772,84
1773,84
1774,84
1775,84
1776,84
1777,84
1778,84
1779,84
1780,84
1781,85
1782,85
1783,85
1784,85
1785,85
1786,85
1787,85
1788,85
1789,85
1790,85
1791,85
1792,85
1793,86
1794,86
1795,86
1796,86
1797,86
1798,86
1799,86
1800,86
1801,86
1802,87
1803,87
1804,87
1805,87
1806,87
1807,88
1808,88
1809,88
1810,88
1811,88
1812,88
1813,88
1814,88
1815,88
1816,88
1817,88
1818,88
1819,88
1820,88
1821,88
1822,88
1823,88
1824,88
1825,88
1826,88
1827,88
1828,88
1829,88
1830,88
1831,89
1832,89
1833,89
1834,89
1835,89
1836,89
1837,89
1838,89
1839,89
1840,89
1841,89
1842,89
1843,90
1844,90
1845,90
1846,90
1847,90
1848,90
1849,90
1850,90
1851,90
1852,90
1853,90
1854,90
1855,90
1856,91
1857,91
1858,91
1859,91
1860,91
1861,91
1862,91
1863,91
1864,91
1865,91
1866,91
1867,91
1868,92
1869,92
1870,92
1871,92
1872,92
1873,92
1874,92
1875,92
1876,92
1877,92
1878,92
1879,92
1880,92
1881,92
1882,92
1883,92
1884,92
1885,92
1886,92
1887,92
1888,92
1889,92
1890,92
1891,92
1892,92
1893,92
1894,92
1895,92
1896,92
1897,93
1898,93
1899,93
1900,93
1901,93
1902,93
1903,93
1904,93
1905,93
1906,93
1907,93
1908,93
1909,93
1910,94
1911,94
1912,94
1913,94
1914,94
1915,94
1916,94
1917,94
1918,94
1919,94
1920,94
1921,94
1922,94
1923,94
1924,94
1925,94
1926,94
1927,94
1928,94
1929,94
1930,94
1931,94
1932,94
1933,94
1934,94
1935,94
1936,94
1937,94
1938,94
1939,94
1940,94
1941,94
1942,94
1943,94
1944,94
1945,94
1946,95
1947,95
1948,95
1949,95
1950,95
1951,95
1952,95
1953,95
1954,95
1955,95
1956,95
1957,95
1958,96
1959,96
1960,96
1961,96
1962,96
1963,96
1964,96
1965,96
1966,96
1967,96
1968,96
1969,96
1970,96
1971,96
1972,96
1973,96
1974,96
1975,96
1976,96
1977,96
1978,96
1979,96
1980,96
1981,96
1982,96
1983,96
1984,96
1985,96
1986,96
1987,96
1988,96
1989,96
1990,96
1991,97
1992,98
1993,98
1994,98
1995,98
1996,98
1997,98
1998,98
1999,98
2000,98
