"tick","susceptible","exposed","infectious","recovered"
0,99,1,0,0
1,99,1,0,0
2,99,1,0,0
3,99,1,0,0
4,99,1,0,0
5,99,1,0,0
6,99,1,0,0
7,99,1,0,0
8,99,1,0,0
9,99,1,0,0
10,99,1,0,0
11,99,1,0,0
12,99,1,0,0
13,99,1,0,0
14,99,1,0,0
15,99,1,0,0
16,99,1,0,0
17,99,1,0,0
18,99,1,0,0
19,99,1,0,0
20,99,1,0,0
21,99,1,0,0
22,99,1,0,0
23,99,1,0,0
24,99,1,0,0
25,99,1,0,0
26,99,1,0,0
27,99,1,0,0
28,99,1,0,0
29,99,1,0,0
30,99,1,0,0
31,99,1,0,0
32,99,1,0,0
33,99,1,0,0
34,99,1,0,0
35,99,1,0,0
36,99,1,0,0
37,99,1,0,0
38,99,1,0,0
39,99,1,0,0
40,99,1,0,0
41,99,1,0,0
42,99,1,0,0
43,99,1,0,0
44,99,1,0,0
45,99,1,0,0
46,99,1,0,0
47,99,1,0,0
48,99,1,0,0
49,99,1,0,0
50,99,1,0,0
51,99,1,0,0
52,99,1,0,0
53,99,1,0,0
54,99,1,0,0
55,99,1,0,0
56,99,1,0,0
57,99,1,0,0
58,99,1,0,0
59,99,1,0,0
60,99,1,0,0
61,99,1,0,0
62,99,1,0,0
63,99,1,0,0
64,99,1,0,0
65,99,1,0,0
66,99,1,0,0
67,99,1,0,0
68,99,1,0,0
69,99,1,0,0
70,99,1,0,0
71,99,1,0,0
72,99,1,0,0
73,99,1,0,0
74,99,1,0,0
75,99,1,0,0
76,99,1,0,0
77,99,1,0,0
78,99,1,0,0
79,99,1,0,0
80,99,1,0,0
81,99,1,0,0
82,99,1,0,0
83,99,1,0,0
84,99,1,0,0
85,99,1,0,0
86,99,1,0,0
87,99,1,0,0
88,99,1,0,0
89,99,1,0,0
90,99,1,0,0
91,99,1,0,0
92,99,1,0,0
93,99,1,0,0
94,99,1,0,0
95,99,1,0,0
96,99,1,0,0
97,99,1,0,0
98,99,1,0,0
99,99,1,0,0
100,99,1,0,0
101,99,1,0,0
102,99,1,0,0
103,99,1,0,0
104,99,1,0,0
105,99,1,0,0
106,99,1,0,0
107,99,1,0,0
108,99,1,0,0
109,99,1,0,0
110,99,1,0,0
111,99,1,0,0
112,99,1,0,0
113,99,1,0,0
114,99,1,0,0
115,99,1,0,0
116,99,1,0,0
117,99,1,0,0
118,99,1,0,0
119,99,1,0,0
120,99,1,0,0
121,99,1,0,0
122,99,1,0,0
123,99,1,0,0
124,99,1,0,0
125,99,1,0,0
126,99,1,0,0
127,99,1,0,0
128,99,1,0,0
129,99,1,0,0
130,99,1,0,0
131,99,1,0,0
132,99,1,0,0
133,99,1,0,0
134,99,1,0,0
135,99,1,0,0
136,99,1,0,0
137,99,1,0,0
138,99,1,0,0
139,99,1,0,0
140,99,1,0,0
141,99,1,0,0
142,99,1,0,0
143,99,1,0,0
144,99,1,0,0
145,99,1,0,0
146,99,1,0,0
147,99,1,0,0
148,99,1,0,0
149,99,1,0,0
150,99,1,0,0
151,99,1,0,0
152,99,1,0,0
153,99,1,0,0
154,99,1,0,0
155,99,1,0,0
156,99,1,0,0
157,99,1,0,0
158,99,1,0,0
159,99,1,0,0
160,99,1,0,0
161,99,1,0,0
162,99,1,0,0
163,99,1,0,0
164,99,1,0,0
165,99,1,0,0
166,99,1,0,0
167,99,1,0,0
168,99,1,0,0
169,99,1,0,0
170,99,1,0,0
171,99,1,0,0
172,99,1,0,0
173,99,1,0,0
174,99,1,0,0
175,99,1,0,0
176,99,1,0,0
177,99,1,0,0
178,99,1,0,0
179,99,1,0,0
180,99,1,0,0
181,99,1,0,0
182,99,1,0,0
183,99,1,0,0
184,99,1,0,0
185,99,1,0,0
186,99,1,0,0
187,99,1,0,0
188,99,1,0,0
189,99,1,0,0
190,99,1,0,0
191,99,1,0,0
192,99,1,0,0
193,99,1,0,0
194,99,1,0,0
195,99,1,0,0
196,99,1,0,0
197,99,1,0,0
198,99,1,0,0
199,99,1,0,0
200,99,1,0,0
201,99,0,1,0
202,98,1,1,0
203,98,1,1,0
204,98,1,1,0
205,98,1,1,0
206,98,1,1,0
207,98,1,1,0
208,98,1,1,0
209,98,1,1,0
210,98,1,1,0
211,98,1,1,0
212,98,1,1,0
213,98,1,1,0
214,98,1,1,0
215,98,1,1,0
216,98,1,1,0
217,97,2,1,0
218,97,2,1,0
219,97,2,1,0
220,97,2,1,0
221,97,2,1,0
222,97,2,1,0
223,97,2,1,0
224,97,2,1,0
225,97,2,1,0
226,97,2,1,0
227,97,2,1,0
228,97,2,1,0
229,97,2,1,0
230,97,2,1,0
231,97,2,1,0
232,97,2,1,0
233,97,2,1,0
234,97,2,1,0
235,97,2,1,0
236,97,2,1,0
237,97,2,1,0
238,97,2,1,0
239,97,2,1,0
240,97,2,1,0
241,97,2,1,0
242,97,2,1,0
243,97,2,1,0
244,97,2,1,0
245,97,2,1,0
246,97,2,1,0
247,97,2,1,0
248,97,2,1,0
249,97,2,1,0
250,97,2,1,0
251,97,2,1,0
252,97,2,1,0
253,97,2,1,0
254,97,2,1,0
255,97,2,1,0
256,97,2,1,0
257,97,2,1,0
258,97,2,1,0
259,97,2,1,0
260,97,2,1,0
261,97,2,1,0
262,97,2,1,0
263,97,2,1,0
264,97,2,1,0
265,97,2,1,0
266,97,2,1,0
267,97,2,1,0
268,97,2,1,0
269,97,2,1,0
270,97,2,1,0
271,97,2,1,0
272,97,2,1,0
273,97,2,1,0
274,97,2,1,0
275,97,2,1,0
276,97,2,1,0
277,97,2,1,0
278,97,2,1,0
279,97,2,1,0
280,97,2,1,0
281,97,2,1,0
282,97,2,1,0
283,97,2,1,0
284,97,2,1,0
285,97,2,1,0
286,97,2,1,0
287,97,2,1,0
288,97,2,1,0
289,97,2,1,0
290,97,2,1,0
291,97,2,1,0
292,97,2,1,0
293,97,2,1,0
294,96,3,1,0
295,96,3,1,0
296,96,3,1,0
297,96,3,1,0
298,96,3,1,0
299,96,3,1,0
300,96,3,1,0
301,96,3,1,0
302,96,3,1,0
303,96,3,1,0
304,96,3,1,0
305,96,3,1,0
306,96,3,1,0
307,96,3,1,0
308,96,3,1,0
309,96,3,1,0
310,96,3,1,0
311,96,3,1,0
312,96,3,1,0
313,96,3,1,0
314,96,3,1,0
315,96,3,1,0
316,96,3,1,0
317,96,3,1,0
318,96,3,1,0
319,96,3,1,0
320,96,3,1,0
321,96,3,1,0
322,96,3,1,0
323,96,3,1,0
324,96,3,1,0
325,96,3,1,0
326,96,3,1,0
327,96,3,1,0
328,96,3,1,0
329,96,3,1,0
330,96,3,1,0
331,96,3,1,0
332,96,3,1,0
333,96,3,1,0
334,96,3,1,0
335,96,3,1,0
336,96,3,1,0
337,96,3,1,0
338,95,4,1,0
339,95,4,1,0
340,95,4,1,0
341,95,4,1,0
342,95,4,1,0
343,95,4,1,0
344,95,4,1,0
345,95,4,1,0
346,95,4,1,0
347,95,4,1,0
348,95,4,1,0
349,95,4,1,0
350,95,4,1,0
351,95,4,1,0
352,95,4,1,0
353,95,4,1,0
354,95,4,1,0
355,95,4,1,0
356,95,4,1,0
357,95,4,1,0
358,95,4,1,0
359,95,4,1,0
360,95,4,1,0
361,95,4,1,0
362,95,4,1,0
363,94,5,1,0
364,94,5,1,0
365,94,5,1,0
366,94,5,1,0
367,94,5,1,0
368,94,5,1,0
369,94,5,1,0
370,94,5,1,0
371,94,5,1,0
372,94,5,1,0
373,94,5,1,0
374,94,5,1,0
375,94,5,1,0
376,94,5,1,0
377,94,5,1,0
378,94,5,1,0
379,94,5,1,0
380,94,5,1,0
381,94,5,1,0
382,94,5,1,0
383,94,5,1,0
384,94,5,1,0
385,94,5,1,0
386,94,5,1,0
387,94,5,1,0
388,94,5,1,0
389,94,5,1,0
390,94,5,1,0
391,94,5,1,0
392,94,5,1,0
393,93,6,1,0
394,93,6,1,0
395,93,6,1,0
396,93,6,1,0
397,93,6,1,0
398,93,6,1,0
399,93,6,1,0
400,93,6,1,0
401,92,7,1,0
402,92,7,0,1
403,91,7,1,1
404,89,9,1,1
405,89,9,1,1
406,89,9,1,1
407,89,9,1,1
408,89,9,1,1
409,89,9,1,1
410,89,9,1,1
411,88,10,1,1
412,88,10,1,1
413,88,10,1,1
414,87,11,1,1
415,87,11,1,1
416,87,11,1,1
417,86,12,1,1
418,85,12,2,1
419,83,14,2,1
420,81,16,2,1
421,80,17,2,1
422,79,18,2,1
423,78,19,2,1
424,78,19,2,1
425,78,19,2,1
426,78,19,2,1
427,78,19,2,1
428,78,19,2,1
429,78,19,2,1
430,78,19,2,1
431,78,19,2,1
432,78,19,2,1
433,78,19,2,1
434,78,19,2,1
435,78,19,2,1
436,78,19,2,1
437,77,20,2,1
438,77,20,2,1
439,77,20,2,1
440,77,20,2,1
441,77,20,2,1
442,77,20,2,1
443,77,20,2,1
444,77,20,2,1
445,77,20,2,1
446,76,21,2,1
447,76,21,2,1
448,76,21,2,1
449,76,21,2,1
450,75,22,2,1
451,75,22,2,1
452,75,22,2,1
453,75,22,2,1
454,75,22,2,1
455,75,22,2,1
456,75,22,2,1
457,75,22,2,1
458,75,22,2,1
459,75,22,2,1
460,75,22,2,1
461,75,22,2,1
462,75,22,2,1
463,75,22,2,1
464,74,23,2,1
465,74,23,2,1
466,74,23,2,1
467,74,23,2,1
468,74,23,2,1
469,74,23,2,1
470,74,23,2,1
471,74,23,2,1
472,74,23,2,1
473,74,23,2,1
474,74,23,2,1
475,74,23,2,1
476,74,23,2,1
477,74,23,2,1
478,74,23,2,1
479,74,23,2,1
480,74,23,2,1
481,74,23,2,1
482,74,23,2,1
483,74,23,2,1
484,74,23,2,1
485,74,23,2,1
486,74,23,2,1
487,74,23,2,1
488,74,23,2,1
489,74,23,2,1
490,74,23,2,1
491,74,23,2,1
492,74,23,2,1
493,73,24,2,1
494,73,24,2,1
495,73,23,3,1
496,73,23,3,1
497,73,23,3,1
498,73,23,3,1
499,73,23,3,1
500,72,24,3,1
501,72,24,3,1
502,71,25,3,1
503,71,25,3,1
504,71,25,3,1
505,71,25,3,1
506,71,25,3,1
507,71,25,3,1
508,71,25,3,1
509,71,25,3,1
510,71,25,3,1
511,71,25,3,1
512,71,25,3,1
513,71,25,3,1
514,71,25,3,1
515,71,25,3,1
516,71,25,3,1
517,71,25,3,1
518,71,25,3,1
519,71,25,3,1
520,71,25,3,1
521,71,25,3,1
522,71,25,3,1
523,71,25,3,1
524,71,25,3,1
525,71,25,3,1
526,71,25,3,1
527,71,25,3,1
528,71,25,3,1
529,70,26,3,1
530,70,26,3,1
531,70,26,3,1
532,70,26,3,1
533,70,26,3,1
534,70,26,3,1
535,70,26,3,1
536,70,26,3,1
537,70,26,3,1
538,70,26,3,1
539,70,25,4,1
540,70,25,4,1
541,70,25,4,1
542,70,25,4,1
543,70,25,4,1
544,70,25,4,1
545,70,25,4,1
546,70,25,4,1
547,70,25,4,1
548,70,25,4,1
549,70,25,4,1
550,70,25,4,1
551,70,25,4,1
552,70,25,4,1
553,70,25,4,1
554,70,25,4,1
555,70,25,4,1
556,70,25,4,1
557,70,25,4,1
558,70,25,4,1
559,70,25,4,1
560,69,26,4,1
561,69,26,4,1
562,69,26,4,1
563,69,26,4,1
564,69,25,5,1
565,69,25,5,1
566,69,25,5,1
567,69,25,5,1
568,69,25,5,1
569,69,25,5,1
570,69,25,5,1
571,69,25,5,1
572,68,26,5,1
573,68,26,5,1
574,67,27,5,1
575,67,27,5,1
576,67,27,5,1
577,67,27,5,1
578,67,27,5,1
579,67,27,5,1
580,67,27,5,1
581,67,27,5,1
582,67,27,5,1
583,67,27,5,1
584,67,27,5,1
585,67,27,5,1
586,67,27,5,1
587,67,27,5,1
588,67,27,5,1
589,67,27,5,1
590,67,27,5,1
591,67,27,5,1
592,67,27,5,1
593,67,27,5,1
594,67,26,6,1
595,67,26,6,1
596,67,26,6,1
597,66,27,6,1
598,66,27,6,1
599,66,27,6,1
600,66,27,6,1
601,66,27,6,1
602,66,26,7,1
603,66,26,7,1
604,65,26,7,2
605,64,25,9,2
606,64,25,9,2
607,64,25,9,2
608,64,25,9,2
609,63,26,9,2
610,62,27,9,2
611,62,27,9,2
612,62,26,10,2
613,62,26,10,2
614,62,26,10,2
615,62,25,11,2
616,62,25,11,2
617,62,25,11,2
618,60,26,12,2
619,60,25,12,3
620,59,24,14,3
621,59,22,16,3
622,55,25,17,3
623,52,27,18,3
624,52,26,19,3
625,51,27,19,3
626,50,28,19,3
627,50,28,19,3
628,50,28,19,3
629,50,28,19,3
630,49,29,19,3
631,49,29,19,3
632,48,30,19,3
633,48,30,19,3
634,48,30,19,3
635,46,32,19,3
636,46,32,19,3
637,45,33,19,3
638,44,33,20,3
639,44,33,20,3
640,44,33,20,3
641,42,35,20,3
642,42,35,20,3
643,42,35,20,3
644,42,35,20,3
645,42,35,20,3
646,42,35,20,3
647,42,34,21,3
648,42,34,21,3
649,40,36,21,3
650,40,36,21,3
651,40,35,22,3
652,40,35,22,3
653,39,36,22,3
654,39,36,22,3
655,37,38,22,3
656,36,39,22,3
657,35,40,22,3
658,35,40,22,3
659,34,41,22,3
660,34,41,22,3
661,34,41,22,3
662,34,41,22,3
663,33,42,22,3
664,32,43,22,3
665,32,42,23,3
666,32,42,23,3
667,32,42,23,3
668,32,42,23,3
669,31,43,23,3
670,31,43,23,3
671,31,43,23,3
672,31,43,23,3
673,31,43,23,3
674,31,43,23,3
675,31,43,23,3
676,30,44,23,3
677,29,45,23,3
678,29,45,23,3
679,29,45,23,3
680,28,46,23,3
681,28,46,23,3
682,28,46,23,3
683,28,46,23,3
684,27,47,23,3
685,26,48,23,3
686,26,48,23,3
687,25,49,23,3
688,24,50,23,3
689,24,50,23,3
690,24,50,23,3
691,24,50,23,3
692,23,51,23,3
693,22,52,23,3
694,21,52,24,3
695,20,53,24,3
696,20,53,23,4
697,20,53,23,4
698,20,53,23,4
699,20,53,23,4
700,20,53,23,4
701,20,52,24,4
702,19,53,24,4
703,19,52,25,4
704,17,54,25,4
705,17,54,25,4
706,17,54,25,4
707,17,54,25,4
708,17,54,25,4
709,16,55,25,4
710,16,55,25,4
711,16,55,25,4
712,16,55,25,4
713,16,55,25,4
714,16,55,25,4
715,15,56,25,4
716,14,57,25,4
717,14,57,25,4
718,14,57,25,4
719,14,57,25,4
720,14,57,25,4
721,13,58,25,4
722,13,58,25,4
723,12,59,25,4
724,11,60,25,4
725,11,60,25,4
726,11,60,25,4
727,11,60,25,4
728,11,60,25,4
729,11,60,25,4
730,11,59,26,4
731,11,59,26,4
732,11,59,26,4
733,11,59,26,4
734,10,60,26,4
735,10,60,26,4
736,10,60,26,4
737,10,60,26,4
738,10,60,26,4
739,10,60,26,4
740,10,60,25,5
741,10,60,25,5
742,10,60,25,5
743,10,60,25,5
744,10,60,25,5
745,9,61,25,5
746,9,61,25,5
747,9,61,25,5
748,9,61,25,5
749,9,61,25,5
750,9,61,25,5
751,9,61,25,5
752,8,62,25,5
753,8,62,25,5
754,8,62,25,5
755,8,62,25,5
756,8,62,25,5
757,8,62,25,5
758,8,62,25,5
759,7,63,25,5
760,7,63,25,5
761,7,62,26,5
762,7,62,26,5
763,6,63,26,5
764,6,63,26,5
765,6,63,25,6
766,6,63,25,6
767,6,63,25,6
768,6,63,25,6
769,6,63,25,6
770,6,63,25,6
771,6,63,25,6
772,6,63,25,6
773,6,62,26,6
774,6,62,26,6
775,6,61,27,6
776,6,61,27,6
777,6,61,27,6
778,6,61,27,6
779,6,61,27,6
780,6,61,27,6
781,6,61,27,6
782,6,61,27,6
783,6,61,27,6
784,6,61,27,6
785,6,61,27,6
786,6,61,27,6
787,6,61,27,6
788,6,61,27,6
789,6,61,27,6
790,6,61,27,6
791,6,61,27,6
792,6,61,27,6
793,6,61,27,6
794,6,61,27,6
795,6,61,26,7
796,6,61,26,7
797,6,61,26,7
798,6,60,27,7
799,6,60,27,7
800,6,60,27,7
801,6,60,27,7
802,6,60,27,7
803,6,60,26,8
804,6,60,26,8
805,5,60,26,9
806,4,60,25,11
807,4,60,25,11
808,4,60,25,11
809,4,60,25,11
810,4,59,26,11
811,4,58,27,11
812,4,58,27,11
813,4,58,26,12
814,4,58,26,12
815,4,58,26,12
816,4,58,25,13
817,4,58,25,13
818,4,58,25,13
819,4,56,26,14
820,4,56,25,15
821,4,55,24,17
822,4,55,22,19
823,4,51,25,20
824,4,48,27,21
825,4,48,26,22
826,4,47,27,22
827,4,46,28,22
828,4,46,28,22
829,4,46,28,22
830,4,46,28,22
831,4,45,29,22
832,4,45,29,22
833,4,44,30,22
834,4,44,30,22
835,4,44,30,22
836,4,42,32,22
837,4,42,32,22
838,3,42,33,22
839,3,41,33,23
840,3,41,33,23
841,3,41,33,23
842,3,39,35,23
843,3,39,35,23
844,3,39,35,23
845,3,39,35,23
846,3,39,35,23
847,3,39,35,23
848,3,39,34,24
849,3,39,34,24
850,3,37,36,24
851,3,37,36,24
852,3,37,35,25
853,3,37,35,25
854,3,36,36,25
855,3,36,36,25
856,3,34,38,25
857,3,33,39,25
858,3,32,40,25
859,3,32,40,25
860,3,31,41,25
861,3,31,41,25
862,3,31,41,25
863,3,31,41,25
864,3,30,42,25
865,3,29,43,25
866,3,29,42,26
867,3,29,42,26
868,3,29,42,26
869,3,29,42,26
870,3,28,43,26
871,3,28,43,26
872,3,28,43,26
873,3,28,43,26
874,3,28,43,26
875,3,28,43,26
876,3,28,43,26
877,3,27,44,26
878,3,26,45,26
879,3,26,45,26
880,3,26,45,26
881,3,25,46,26
882,3,25,46,26
883,3,25,46,26
884,3,25,46,26
885,3,24,47,26
886,3,23,48,26
887,3,23,48,26
888,2,23,49,26
889,2,22,50,26
890,2,22,50,26
891,2,22,50,26
892,2,22,50,26
893,2,21,51,26
894,2,20,52,26
895,2,19,52,27
896,2,18,53,27
897,2,18,53,27
898,2,18,53,27
899,2,18,53,27
900,2,18,53,27
901,2,18,53,27
902,2,18,52,28
903,2,17,53,28
904,2,17,52,29
905,2,15,54,29
906,2,15,54,29
907,2,15,54,29
908,2,15,54,29
909,2,15,54,29
910,2,14,55,29
911,2,14,55,29
912,1,15,55,29
913,1,15,55,29
914,1,15,55,29
915,1,15,55,29
916,1,14,56,29
917,1,13,57,29
918,1,13,57,29
919,1,13,57,29
920,1,13,57,29
921,1,13,57,29
922,1,12,58,29
923,1,12,58,29
924,1,11,59,29
925,1,10,60,29
926,1,10,60,29
927,1,10,60,29
928,1,10,60,29
929,0,11,60,29
930,0,11,60,29
931,0,11,59,30
932,0,11,59,30
933,0,11,59,30
934,0,11,59,30
935,0,10,60,30
936,0,10,60,30
937,0,10,60,30
938,0,10,60,30
939,0,10,60,30
940,0,10,60,30
941,0,10,60,30
942,0,10,60,30
943,0,10,60,30
944,0,10,60,30
945,0,10,60,30
946,0,9,61,30
947,0,9,61,30
948,0,9,61,30
949,0,9,61,30
950,0,9,61,30
951,0,9,61,30
952,0,9,61,30
953,0,8,62,30
954,0,8,62,30
955,0,8,62,30
956,0,8,62,30
957,0,8,62,30
958,0,8,62,30
959,0,8,62,30
960,0,7,63,30
961,0,7,63,30
962,0,7,62,31
963,0,7,62,31
964,0,6,63,31
965,0,6,63,31
966,0,6,63,31
967,0,6,63,31
968,0,6,63,31
969,0,6,63,31
970,0,6,63,31
971,0,6,63,31
972,0,6,63,31
973,0,6,63,31
974,0,6,62,32
975,0,6,62,32
976,0,6,61,33
977,0,6,61,33
978,0,6,61,33
979,0,6,61,33
980,0,6,61,33
981,0,6,61,33
982,0,6,61,33
983,0,6,61,33
984,0,6,61,33
985,0,6,61,33
986,0,6,61,33
987,0,6,61,33
988,0,6,61,33
989,0,6,61,33
990,0,6,61,33
991,0,6,61,33
992,0,6,61,33
993,0,6,61,33
994,0,6,61,33
995,0,6,61,33
996,0,6,61,33
997,0,6,61,33
998,0,6,61,33
999,0,6,60,34
1000,0,6,60,34
1001,0,6,60,34
1002,0,6,60,34
1003,0,6,60,34
1004,0,6,60,34
1005,0,6,60,34
1006,0,5,60,35
1007,0,4,60,36
1008,0,4,60,36
1009,0,4,60,36
1010,0,4,60,36
1011,0,4,59,37
1012,0,4,58,38
1013,0,4,58,38
1014,0,4,58,38
1015,0,4,58,38
1016,0,4,58,38
1017,0,4,58,38
1018,0,4,58,38
1019,0,4,58,38
1020,0,4,56,40
1021,0,4,56,40
1022,0,4,55,41
1023,0,4,55,41
1024,0,4,51,45
1025,0,4,48,48
1026,0,4,48,48
1027,0,4,47,49
1028,0,4,46,50
1029,0,4,46,50
1030,0,4,46,50
1031,0,4,46,50
1032,0,4,45,51
1033,0,4,45,51
1034,0,4,44,52
1035,0,4,44,52
1036,0,4,44,52
1037,0,4,42,54
1038,0,4,42,54
1039,0,3,42,55
1040,0,3,41,56
1041,0,3,41,56
1042,0,3,41,56
1043,0,3,39,58
1044,0,3,39,58
1045,0,3,39,58
1046,0,3,39,58
1047,0,3,39,58
1048,0,3,39,58
1049,0,3,39,58
1050,0,3,39,58
1051,0,3,37,60
1052,0,3,37,60
1053,0,3,37,60
1054,0,3,37,60
1055,0,3,36,61
1056,0,3,36,61
1057,0,3,34,63
1058,0,3,33,64
1059,0,3,32,65
1060,0,3,32,65
1061,0,3,31,66
1062,0,3,31,66
1063,0,3,31,66
1064,0,3,31,66
1065,0,3,30,67
1066,0,3,29,68
1067,0,3,29,68
1068,0,3,29,68
1069,0,3,29,68
1070,0,3,29,68
1071,0,3,28,69
1072,0,3,28,69
1073,0,3,28,69
1074,0,3,28,69
1075,0,3,28,69
1076,0,3,28,69
1077,0,3,28,69
1078,0,3,27,70
1079,0,3,26,71
1080,0,3,26,71
1081,0,3,26,71
1082,0,3,25,72
1083,0,3,25,72
1084,0,3,25,72
1085,0,3,25,72
1086,0,3,24,73
1087,0,3,23,74
1088,0,3,23,74
1089,0,2,23,75
1090,0,2,22,76
1091,0,2,22,76
1092,0,2,22,76
1093,0,2,22,76
1094,0,2,21,77
1095,0,2,20,78
1096,0,2,19,79
1097,0,2,18,80
1098,0,2,18,80
1099,0,2,18,80
1100,0,2,18,80
1101,0,2,18,80
1102,0,2,18,80
1103,0,2,18,80
1104,0,2,17,81
1105,0,2,17,81
1106,0,2,15,83
1107,0,2,15,83
1108,0,2,15,83
1109,0,2,15,83
1110,0,2,15,83
1111,0,2,14,84
1112,0,2,14,84
1113,0,1,15,84
1114,0,1,15,84
1115,0,1,15,84
1116,0,1,15,84
1117,0,1,14,85
1118,0,1,13,86
1119,0,1,13,86
1120,0,1,13,86
1121,0,1,13,86
1122,0,1,13,86
1123,0,1,12,87
1124,0,1,12,87
1125,0,1,11,88
1126,0,1,10,89
1127,0,1,10,89
1128,0,1,10,89
1129,0,1,10,89
1130,0,0,11,89
1131,0,0,11,89
1132,0,0,11,89
1133,0,0,11,89
1134,0,0,11,89
1135,0,0,11,89
1136,0,0,10,90
1137,0,0,10,90
1138,0,0,10,90
1139,0,0,10,90
1140,0,0,10,90
1141,0,0,10,90
1142,0,0,10,90
1143,0,0,10,90
1144,0,0,10,90
1145,0,0,10,90
1146,0,0,10,90
1147,0,0,9,91
1148,0,0,9,91
1149,0,0,9,91
1150,0,0,9,91
1151,0,0,9,91
1152,0,0,9,91
1153,0,0,9,91
1154,0,0,8,92
1155,0,0,8,92
1156,0,0,8,92
1157,0,0,8,92
1158,0,0,8,92
1159,0,0,8,92
1160,0,0,8,92
1161,0,0,7,93
1162,0,0,7,93
1163,0,0,7,93
1164,0,0,7,93
1165,0,0,6,94
1166,0,0,6,94
1167,0,0,6,94
1168,0,0,6,94
1169,0,0,6,94
1170,0,0,6,94
1171,0,0,6,94
1172,0,0,6,94
1173,0,0,6,94
1174,0,0,6,94
1175,0,0,6,94
1176,0,0,6,94
1177,0,0,6,94
1178,0,0,6,94
1179,0,0,6,94
1180,0,0,6,94
1181,0,0,6,94
1182,0,0,6,94
1183,0,0,6,94
1184,0,0,6,94
1185,0,0,6,94
1186,0,0,6,94
1187,0,0,6,94
1188,0,0,6,94
1189,0,0,6,94
1190,0,0,6,94
1191,0,0,6,94
1192,0,0,6,94
1193,0,0,6,94
1194,0,0,6,94
1195,0,0,6,94
1196,0,0,6,94
1197,0,0,6,94
1198,0,0,6,94
1199,0,0,6,94
1200,0,0,6,94
1201,0,0,6,94
1202,0,0,6,94
1203,0,0,6,94
1204,0,0,6,94
1205,0,0,6,94
1206,0,0,6,94
1207,0,0,5,95
1208,0,0,4,96
1209,0,0,4,96
1210,0,0,4,96
1211,0,0,4,96
1212,0,0,4,96
1213,0,0,4,96
1214,0,0,4,96
1215,0,0,4,96
1216,0,0,4,96
1217,0,0,4,96
1218,0,0,4,96
1219,0,0,4,96
1220,0,0,4,96
1221,0,0,4,96
1222,0,0,4,96
1223,0,0,4,96
1224,0,0,4,96
1225,0,0,4,96
1226,0,0,4,96
1227,0,0,4,96
1228,0,0,4,96
1229,0,0,4,96
1230,0,0,4,96
1231,0,0,4,96
1232,0,0,4,96
1233,0,0,4,96
1234,0,0,4,96
1235,0,0,4,96
1236,0,0,4,96
1237,0,0,4,96
1238,0,0,4,96
1239,0,0,4,96
1240,0,0,3,97
1241,0,0,3,97
1242,0,0,3,97
1243,0,0,3,97
1244,0,0,3,97
1245,0,0,3,97
1246,0,0,3,97
1247,0,0,3,97
1248,0,0,3,97
1249,0,0,3,97
1250,0,0,3,97
1251,0,0,3,97
1252,0,0,3,97
1253,0,0,3,97
1254,0,0,3,97
1255,0,0,3,97
1256,0,0,3,97
1257,0,0,3,97
1258,0,0,3,97
1259,0,0,3,97
1260,0,0,3,97
1261,0,0,3,97
1262,0,0,3,97
1263,0,0,3,97
1264,0,0,3,97
1265,0,0,3,97
1266,0,0,3,97
1267,0,0,3,97
1268,0,0,3,97
1269,0,0,3,97
1270,0,0,3,97
1271,0,0,3,97
1272,0,0,3,97
1273,0,0,3,97
1274,0,0,3,97
1275,0,0,3,97
1276,0,0,3,97
1277,0,0,3,97
1278,0,0,3,97
1279,0,0,3,97
1280,0,0,3,97
1281,0,0,3,97
1282,0,0,3,97
1283,0,0,3,97
1284,0,0,3,97
1285,0,0,3,97
1286,0,0,3,97
1287,0,0,3,97
1288,0,0,3,97
1289,0,0,3,97
1290,0,0,2,98
1291,0,0,2,98
1292,0,0,2,98
1293,0,0,2,98
1294,0,0,2,98
1295,0,0,2,98
1296,0,0,2,98
1297,0,0,2,98
1298,0,0,2,98
1299,0,0,2,98
1300,0,0,2,98
1301,0,0,2,98
1302,0,0,2,98
1303,0,0,2,98
1304,0,0,2,98
1305,0,0,2,98
1306,0,0,2,98
1307,0,0,2,98
1308,0,0,2,98
1309,0,0,2,98
1310,0,0,2,98
1311,0,0,2,98
1312,0,0,2,98
1313,0,0,2,98
1314,0,0,1,99
1315,0,0,1,99
1316,0,0,1,99
1317,0,0,1,99
1318,0,0,1,99
1319,0,0,1,99
1320,0,0,1,99
1321,0,0,1,99
1322,0,0,1,99
1323,0,0,1,99
1324,0,0,1,99
1325,0,0,1,99
1326,0,0,1,99
1327,0,0,1,99
1328,0,0,1,99
1329,0,0,1,99
1330,0,0,1,99
1331,0,0,0,100
1332,0,0,0,100
1333,0,0,0,100
1334,0,0,0,100
1335,0,0,0,100
1336,0,0,0,100
1337,0,0,0,100
1338,0,0,0,100
1339,0,0,0,100
1340,0,0,0,100
1341,0,0,0,100
1342,0,0,0,100
1343,0,0,0,100
1344,0,0,0,100
1345,0,0,0,100
1346,0,0,0,100
1347,0,0,0,100
1348,0,0,0,100
1349,0,0,0,100
1350,0,0,0,100
1351,0,0,0,100
1352,0,0,0,100
1353,0,0,0,100
1354,0,0,0,100
1355,0,0,0,100
1356,0,0,0,100
1357,0,0,0,100
1358,0,0,0,100
1359,0,0,0,100
1360,0,0,0,100
1361,0,0,0,100
1362,0,0,0,100
1363,0,0,0,100
1364,0,0,0,100
1365,0,0,0,100
1366,0,0,0,100
1367,0,0,0,100
1368,0,0,0,100
1369,0,0,0,100
1370,0,0,0,100
1371,0,0,0,100
1372,0,0,0,100
1373,0,0,0,100
1374,0,0,0,100
1375,0,0,0,100
1376,0,0,0,100
1377,0,0,0,100
1378,0,0,0,100
1379,0,0,0,100
1380,0,0,0,100
1381,0,0,0,100
1382,0,0,0,100
1383,0,0,0,100
1384,0,0,0,100
1385,0,0,0,100
1386,0,0,0,100
1387,0,0,0,100
1388,0,0,0,100
1389,0,0,0,100
1390,0,0,0,100
1391,0,0,0,100
1392,0,0,0,100
1393,0,0,0,100
1394,0,0,0,100
1395,0,0,0,100
1396,0,0,0,100
1397,0,0,0,100
1398,0,0,0,100
1399,0,0,0,100
1400,0,0,0,100
1401,0,0,0,100
1402,0,0,0,100
1403,0,0,0,100
1404,0,0,0,100
1405,0,0,0,100
1406,0,0,0,100
1407,0,0,0,100
1408,0,0,0,100
1409,0,0,0,100
1410,0,0,0,100
1411,0,0,0,100
1412,0,0,0,100
1413,0,0,0,100
1414,0,0,0,100
1415,0,0,0,100
1416,0,0,0,100
1417,0,0,0,100
1418,0,0,0,100
1419,0,0,0,100
1420,0,0,0,100
1421,0,0,0,100
1422,0,0,0,100
1423,0,0,0,100
1424,0,0,0,100
1425,0,0,0,100
1426,0,0,0,100
1427,0,0,0,100
1428,0,0,0,100
1429,0,0,0,100
1430,0,0,0,100
1431,0,0,0,100
1432,0,0,0,100
1433,0,0,0,100
1434,0,0,0,100
1435,0,0,0,100
1436,0,0,0,100
1437,0,0,0,100
1438,0,0,0,100
1439,0,0,0,100
1440,0,0,0,100
1441,0,0,0,100
1442,0,0,0,100
1443,0,0,0,100
1444,0,0,0,100
1445,0,0,0,100
1446,0,0,0,100
1447,0,0,0,100
1448,0,0,0,100
1449,0,0,0,100
1450,0,0,0,100
1451,0,0,0,100
1452,0,0,0,100
1453,0,0,0,100
1454,0,0,0,100
1455,0,0,0,100
1456,0,0,0,100
1457,0,0,0,100
1458,0,0,0,100
1459,0,0,0,100
1460,0,0,0,100
1461,0,0,0,100
1462,0,0,0,100
1463,0,0,0,100
1464,0,0,0,100
1465,0,0,0,100
1466,0,0,0,100
1467,0,0,0,100
1468,0,0,0,100
1469,0,0,0,100
1470,0,0,0,100
1471,0,0,0,100
1472,0,0,0,100
1473,0,0,0,100
1474,0,0,0,100
1475,0,0,0,100
1476,0,0,0,100
1477,0,0,0,100
1478,0,0,0,100
1479,0,0,0,100
1480,0,0,0,100
1481,0,0,0,100
1482,0,0,0,100
1483,0,0,0,100
1484,0,0,0,100
1485,0,0,0,100
1486,0,0,0,100
1487,0,0,0,100
1488,0,0,0,100
1489,0,0,0,100
1490,0,0,0,100
1491,0,0,0,100
1492,0,0,0,100
1493,0,0,0,100
1494,0,0,0,100
1495,0,0,0,100
1496,0,0,0,100
1497,0,0,0,100
1498,0,0,0,100
1499,0,0,0,100
1500,0,0,0,100
1501,0,0,0,100
1502,0,0,0,100
1503,0,0,0,100
1504,0,0,0,100
1505,0,0,0,100
1506,0,0,0,100
1507,0,0,0,100
1508,0,0,0,100
1509,0,0,0,100
1510,0,0,0,100
1511,0,0,0,100
1512,0,0,0,100
1513,0,0,0,100
1514,0,0,0,100
1515,0,0,0,100
1516,0,0,0,100
1517,0,0,0,100
1518,0,0,0,100
1519,0,0,0,100
1520,0,0,0,100
1521,0,0,0,100
1522,0,0,0,100
1523,0,0,0,100
1524,0,0,0,100
1525,0,0,0,100
1526,0,0,0,100
1527,0,0,0,100
1528,0,0,0,100
1529,0,0,0,100
1530,0,0,0,100
1531,0,0,0,100
1532,0,0,0,100
1533,0,0,0,100
1534,0,0,0,100
1535,0,0,0,100
1536,0,0,0,100
1537,0,0,0,100
1538,0,0,0,100
1539,0,0,0,100
1540,0,0,0,100
1541,0,0,0,100
1542,0,0,0,100
1543,0,0,0,100
1544,0,0,0,100
1545,0,0,0,100
1546,0,0,0,100
1547,0,0,0,100
1548,0,0,0,100
1549,0,0,0,100
1550,0,0,0,100
1551,0,0,0,100
1552,0,0,0,100
1553,0,0,0,100
1554,0,0,0,100
1555,0,0,0,100
1556,0,0,0,100
1557,0,0,0,100
1558,0,0,0,100
1559,0,0,0,100
1560,0,0,0,100
1561,0,0,0,100
1562,0,0,0,100
1563,0,0,0,100
1564,0,0,0,100
1565,0,0,0,100
1566,0,0,0,100
1567,0,0,0,100
1568,0,0,0,100
1569,0,0,0,100
1570,0,0,0,100
1571,0,0,0,100
1572,0,0,0,100
1573,0,0,0,100
1574,0,0,0,100
1575,0,0,0,100
1576,0,0,0,100
1577,0,0,0,100
1578,0,0,0,100
1579,0,0,0,100
1580,0,0,0,100
1581,0,0,0,100
1582,0,0,0,100
1583,0,0,0,100
1584,0,0,0,100
1585,0,0,0,100
1586,0,0,0,100
1587,0,0,0,100
1588,0,0,0,100
1589,0,0,0,100
1590,0,0,0,100
1591,0,0,0,100
1592,0,0,0,100
1593,0,0,0,100
1594,0,0,0,100
1595,0,0,0,100
1596,0,0,0,100
1597,0,0,0,100
1598,0,0,0,100
1599,0,0,0,100
1600,0,0,0,100
1601,0,0,0,100
1602,0,0,0,100
1603,0,0,0,100
1604,0,0,0,100
1605,0,0,0,100
1606,0,0,0,100
1607,0,0,0,100
1608,0,0,0,100
1609,0,0,0,100
1610,0,0,0,100
1611,0,0,0,100
1612,0,0,0,100
1613,0,0,0,100
1614,0,0,0,100
1615,0,0,0,100
1616,0,0,0,100
1617,0,0,0,100
1618,0,0,0,100
1619,0,0,0,100
1620,0,0,0,100
1621,0,0,0,100
1622,0,0,0,100
1623,0,0,0,100
1624,0,0,0,100
1625,0,0,0,100
1626,0,0,0,100
1627,0,0,0,100
1628,0,0,0,100
1629,0,0,0,100
1630,0,0,0,100
1631,0,0,0,100
1632,0,0,0,100
1633,0,0,0,100
1634,0,0,0,100
1635,0,0,0,100
1636,0,0,0,100
1637,0,0,0,100
1638,0,0,0,100
1639,0,0,0,100
1640,0,0,0,100
1641,0,0,0,100
1642,0,0,0,100
1643,0,0,0,100
1644,0,0,0,100
1645,0,0,0,100
1646,0,0,0,100
1647,0,0,0,100
1648,0,0,0,100
1649,0,0,0,100
1650,0,0,0,100
1651,0,0,0,100
1652,0,0,0,100
1653,0,0,0,100
1654,0,0,0,100
1655,0,0,0,100
1656,0,0,0,100
1657,0,0,0,100
1658,0,0,0,100
1659,0,0,0,100
1660,0,0,0,100
1661,0,0,0,100
1662,0,0,0,100
1663,0,0,0,100
1664,0,0,0,100
1665,0,0,0,100
1666,0,0,0,100
1667,0,0,0,100
1668,0,0,0,100
1669,0,0,0,100
1670,0,0,0,100
1671,0,0,0,100
1672,0,0,0,100
1673,0,0,0,100
1674,0,0,0,100
1675,0,0,0,100
1676,0,0,0,100
1677,0,0,0,100
1678,0,0,0,100
1679,0,0,0,100
1680,0,0,0,100
1681,0,0,0,100
1682,0,0,0,100
1683,0,0,0,100
1684,0,0,0,100
1685,0,0,0,100
1686,0,0,0,100
1687,0,0,0,100
1688,0,0,0,100
1689,0,0,0,100
1690,0,0,0,100
1691,0,0,0,100
1692,0,0,0,100
1693,0,0,0,100
1694,0,0,0,100
1695,0,0,0,100
1696,0,0,0,100
1697,0,0,0,100
1698,0,0,0,100
1699,0,0,0,100
1700,0,0,0,100
1701,0,0,0,100
1702,0,0,0,100
1703,0,0,0,100
1704,0,0,0,100
1705,0,0,0,100
1706,0,0,0,100
1707,0,0,0,100
1708,0,0,0,100
1709,0,0,0,100
1710,0,0,0,100
1711,0,0,0,100
1712,0,0,0,100
1713,0,0,0,100
1714,0,0,0,100
1715,0,0,0,100
1716,0,0,0,100
1717,0,0,0,100
1718,0,0,0,100
1719,0,0,0,100
1720,0,0,0,100
1721,0,0,0,100
1722,0,0,0,100
1723,0,0,0,100
1724,0,0,0,100
1725,0,0,0,100
1726,0,0,0,100
1727,0,0,0,100
1728,0,0,0,100
1729,0,0,0,100
1730,0,0,0,100
1731,0,0,0,100
1732,0,0,0,100
1733,0,0,0,100
1734,0,0,0,100
1735,0,0,0,100
1736,0,0,0,100
1737,0,0,0,100
1738,0,0,0,100
1739,0,0,0,100
1740,0,0,0,100
1741,0,0,0,100
1742,0,0,0,100
1743,0,0,0,100
1744,0,0,0,100
1745,0,0,0,100
1746,0,0,0,100
1747,0,0,0,100
1748,0,0,0,100
1749,0,0,0,100
1750,0,0,0,100
1751,0,0,0,100
1752,0,0,0,100
1753,0,0,0,100
1754,0,0,0,100
1755,0,0,0,100
1756,0,0,0,100
1757,0,0,0,100
1758,0,0,0,100
1759,0,0,0,100
1760,0,0,0,100
1761,0,0,0,100
1762,0,0,0,100
1763,0,0,0,100
1764,0,0,0,100
1765,0,0,0,100
1766,0,0,0,100
1767,0,0,0,100
1768,0,0,0,100
1769,0,0,0,100
1770,0,0,0,100
1771,0,0,0,100
1772,0,0,0,100
1773,0,0,0,100
1774,0,0,0,100
1775,0,0,0,100
1776,0,0,0,100
1777,0,0,0,100
1778,0,0,0,100
1779,0,0,0,100
1780,0,0,0,100
1781,0,0,0,100
1782,0,0,0,100
1783,0,0,0,100
1784,0,0,0,100
1785,0,0,0,100
1786,0,0,0,100
1787,0,0,0,100
1788,0,0,0,100
1789,0,0,0,100
1790,0,0,0,100
1791,0,0,0,100
1792,0,0,0,100
1793,0,0,0,100
1794,0,0,0,100
1795,0,0,0,100
1796,0,0,0,100
1797,0,0,0,100
1798,0,0,0,100
1799,0,0,0,100
1800,0,0,0,100
1801,0,0,0,100
1802,0,0,0,100
1803,0,0,0,100
1804,0,0,0,100
1805,0,0,0,100
1806,0,0,0,100
1807,0,0,0,100
1808,0,0,0,100
1809,0,0,0,100
1810,0,0,0,100
1811,0,0,0,100
1812,0,0,0,100
1813,0,0,0,100
1814,0,0,0,100
1815,0,0,0,100
1816,0,0,0,100
1817,0,0,0,100
1818,0,0,0,100
1819,0,0,0,100
1820,0,0,0,100
1821,0,0,0,100
1822,0,0,0,100
1823,0,0,0,100
1824,0,0,0,100
1825,0,0,0,100
1826,0,0,0,100
1827,0,0,0,100
1828,0,0,0,100
1829,0,0,0,100
1830,0,0,0,100
1831,0,0,0,100
1832,0,0,0,100
1833,0,0,0,100
1834,0,0,0,100
1835,0,0,0,100
1836,0,0,0,100
1837,0,0,0,100
1838,0,0,0,100
1839,0,0,0,100
1840,0,0,0,100
1841,0,0,0,100
1842,0,0,0,100
1843,0,0,0,100
1844,0,0,0,100
1845,0,0,0,100
1846,0,0,0,100
1847,0,0,0,100
1848,0,0,0,100
1849,0,0,0,100
1850,0,0,0,100
1851,0,0,0,100
1852,0,0,0,100
1853,0,0,0,100
1854,0,0,0,100
1855,0,0,0,100
1856,0,0,0,100
1857,0,0,0,100
1858,0,0,0,100
1859,0,0,0,100
1860,0,0,0,100
1861,0,0,0,100
1862,0,0,0,100
1863,0,0,0,100
1864,0,0,0,100
1865,0,0,0,100
1866,0,0,0,100
1867,0,0,0,100
1868,0,0,0,100
1869,0,0,0,100
1870,0,0,0,100
1871,0,0,0,100
1872,0,0,0,100
1873,0,0,0,100
1874,0,0,0,100
1875,0,0,0,100
1876,0,0,0,100
1877,0,0,0,100
1878,0,0,0,100
1879,0,0,0,100
1880,0,0,0,100
1881,0,0,0,100
1882,0,0,0,100
1883,0,0,0,100
1884,0,0,0,100
1885,0,0,0,100
1886,0,0,0,100
1887,0,0,0,100
1888,0,0,0,100
1889,0,0,0,100
1890,0,0,0,100
1891,0,0,0,100
1892,0,0,0,100
1893,0,0,0,100
1894,0,0,0,100
1895,0,0,0,100
1896,0,0,0,100
1897,0,0,0,100
1898,0,0,0,100
1899,0,0,0,100
1900,0,0,0,100
1901,0,0,0,100
1902,0,0,0,100
1903,0,0,0,100
1904,0,0,0,100
1905,0,0,0,100
1906,0,0,0,100
1907,0,0,0,100
1908,0,0,0,100
1909,0,0,0,100
1910,0,0,0,100
1911,0,0,0,100
1912,0,0,0,100
1913,0,0,0,100
1914,0,0,0,100
1915,0,0,0,100
1916,0,0,0,100
1917,0,0,0,100
1918,0,0,0,100
1919,0,0,0,100
1920,0,0,0,100
1921,0,0,0,100
1922,0,0,0,100
1923,0,0,0,100
1924,0,0,0,100
1925,0,0,0,100
1926,0,0,0,100
1927,0,0,0,100
1928,0,0,0,100
1929,0,0,0,100
1930,0,0,0,100
1931,0,0,0,100
1932,0,0,0,100
1933,0,0,0,100
1934,0,0,0,100
1935,0,0,0,100
1936,0,0,0,100
1937,0,0,0,100
1938,0,0,0,100
1939,0,0,0,100
1940,0,0,0,100
1941,0,0,0,100
1942,0,0,0,100
1943,0,0,0,100
1944,0,0,0,100
1945,0,0,0,100
1946,0,0,0,100
1947,0,0,0,100
1948,0,0,0,100
1949,0,0,0,100
1950,0,0,0,100
1951,0,0,0,100
1952,0,0,0,100
1953,0,0,0,100
1954,0,0,0,100
1955,0,0,0,100
1956,0,0,0,100
1957,0,0,0,100
1958,0,0,0,100
1959,0,0,0,100
1960,0,0,0,100
1961,0,0,0,100
1962,0,0,0,100
1963,0,0,0,100
1964,0,0,0,100
1965,0,0,0,100
1966,0,0,0,100
1967,0,0,0,100
1968,0,0,0,100
1969,0,0,0,100
1970,0,0,0,100
1971,0,0,0,100
1972,0,0,0,100
1973,0,0,0,100
1974,0,0,0,100
1975,0,0,0,100
1976,0,0,0,100
1977,0,0,0,100
1978,0,0,0,100
1979,0,0,0,100
1980,0,0,0,100
1981,0,0,0,100
1982,0,0,0,100
1983,0,0,0,100
1984,0,0,0,100
1985,0,0,0,100
1986,0,0,0,100
1987,0,0,0,100
1988,0,0,0,100
1989,0,0,0,100
1990,0,0,0,100
1991,0,0,0,100
1992,0,0,0,100
1993,0,0,0,100
1994,0,0,0,100
1995,0,0,0,100
1996,0,0,0,100
1997,0,0,0,100
1998,0,0,0,100
1999,0,0,0,100
2000,0,0,0,100
