"tick","susceptible","exposed","infectious","recovered"
0,99,1,0,0
1,99,1,0,0
2,99,1,0,0
3,99,1,0,0
4,99,1,0,0
5,99,1,0,0
6,99,1,0,0
7,99,1,0,0
8,99,1,0,0
9,99,1,0,0
10,99,1,0,0
11,99,1,0,0
12,99,1,0,0
13,99,1,0,0
14,99,1,0,0
15,99,1,0,0
16,99,1,0,0
17,99,1,0,0
18,99,1,0,0
19,99,1,0,0
20,99,1,0,0
21,99,1,0,0
22,99,1,0,0
23,99,1,0,0
24,99,1,0,0
25,99,1,0,0
26,99,1,0,0
27,99,1,0,0
28,99,1,0,0
29,99,1,0,0
30,99,1,0,0
31,99,1,0,0
32,99,1,0,0
33,99,1,0,0
34,99,1,0,0
35,99,1,0,0
36,99,1,0,0
37,99,1,0,0
38,99,1,0,0
39,99,1,0,0
40,99,1,0,0
41,99,1,0,0
42,99,1,0,0
43,99,1,0,0
44,99,1,0,0
45,99,1,0,0
46,99,1,0,0
47,99,1,0,0
48,99,1,0,0
49,99,1,0,0
50,99,1,0,0
51,99,1,0,0
52,99,1,0,0
53,99,1,0,0
54,99,1,0,0
55,99,1,0,0
56,99,1,0,0
57,99,1,0,0
58,99,1,0,0
59,99,1,0,0
60,99,1,0,0
61,99,1,0,0
62,99,1,0,0
63,99,1,0,0
64,99,1,0,0
65,99,1,0,0
66,99,1,0,0
67,99,1,0,0
68,99,1,0,0
69,99,1,0,0
70,99,1,0,0
71,99,1,0,0
72,99,1,0,0
73,99,1,0,0
74,99,1,0,0
75,99,1,0,0
76,99,1,0,0
77,99,1,0,0
78,99,1,0,0
79,99,1,0,0
80,99,1,0,0
81,99,1,0,0
82,99,1,0,0
83,99,1,0,0
84,99,1,0,0
85,99,1,0,0
86,99,1,0,0
87,99,1,0,0
88,99,1,0,0
89,99,1,0,0
90,99,1,0,0
91,99,1,0,0
92,99,1,0,0
93,99,1,0,0
94,99,1,0,0
95,99,1,0,0
96,99,1,0,0
97,99,1,0,0
98,99,1,0,0
99,99,1,0,0
100,99,1,0,0
101,99,1,0,0
102,99,1,0,0
103,99,1,0,0
104,99,1,0,0
105,99,1,0,0
106,99,1,0,0
107,99,1,0,0
108,99,1,0,0
109,99,1,0,0
110,99,1,0,0
111,99,1,0,0
112,99,1,0,0
113,99,1,0,0
114,99,1,0,0
115,99,1,0,0
116,99,1,0,0
117,99,1,0,0
118,99,1,0,0
119,99,1,0,0
120,99,1,0,0
121,99,1,0,0
122,99,1,0,0
123,99,1,0,0
124,99,1,0,0
125,99,1,0,0
126,99,1,0,0
127,99,1,0,0
128,99,1,0,0
129,99,1,0,0
130,99,1,0,0
131,99,1,0,0
132,99,1,0,0
133,99,1,0,0
134,99,1,0,0
135,99,1,0,0
136,99,1,0,0
137,99,1,0,0
138,99,1,0,0
139,99,1,0,0
140,99,1,0,0
141,99,1,0,0
142,99,1,0,0
143,99,1,0,0
144,99,1,0,0
145,99,1,0,0
146,99,1,0,0
147,99,1,0,0
148,99,1,0,0
149,99,1,0,0
150,99,1,0,0
151,99,1,0,0
152,99,1,0,0
153,99,1,0,0
154,99,1,0,0
155,99,1,0,0
156,99,1,0,0
157,99,1,0,0
158,99,1,0,0
159,99,1,0,0
160,99,1,0,0
161,99,1,0,0
162,99,1,0,0
163,99,1,0,0
164,99,1,0,0
165,99,1,0,0
166,99,1,0,0
167,99,1,0,0
168,99,1,0,0
169,99,1,0,0
170,99,1,0,0
171,99,1,0,0
172,99,1,0,0
173,99,1,0,0
174,99,1,0,0
175,99,1,0,0
176,99,1,0,0
177,99,1,0,0
178,99,1,0,0
179,99,1,0,0
180,99,1,0,0
181,99,1,0,0
182,99,1,0,0
183,99,1,0,0
184,99,1,0,0
185,99,1,0,0
186,99,1,0,0
187,99,1,0,0
188,99,1,0,0
189,99,1,0,0
190,99,1,0,0
191,99,1,0,0
192,99,1,0,0
193,99,1,0,0
194,99,1,0,0
195,99,1,0,0
196,99,1,0,0
197,99,1,0,0
198,99,1,0,0
199,99,1,0,0
200,99,1,0,0
201,99,0,1,0
202,99,0,1,0
203,99,0,1,0
204,99,0,1,0
205,99,0,1,0
206,99,0,1,0
207,99,0,1,0
208,99,0,1,0
209,99,0,1,0
210,99,0,1,0
211,99,0,1,0
212,99,0,1,0
213,99,0,1,0
214,98,1,1,0
215,98,1,1,0
216,98,1,1,0
217,98,1,1,0
218,98,1,1,0
219,98,1,1,0
220,98,1,1,0
221,98,1,1,0
222,98,1,1,0
223,98,1,1,0
224,98,1,1,0
225,98,1,1,0
226,98,1,1,0
227,98,1,1,0
228,98,1,1,0
229,98,1,1,0
230,98,1,1,0
231,98,1,1,0
232,98,1,1,0
233,98,1,1,0
234,98,1,1,0
235,98,1,1,0
236,98,1,1,0
237,98,1,1,0
238,98,1,1,0
239,98,1,1,0
240,98,1,1,0
241,98,1,1,0
242,98,1,1,0
243,98,1,1,0
244,98,1,1,0
245,98,1,1,0
246,98,1,1,0
247,98,1,1,0
248,98,1,1,0
249,98,1,1,0
250,98,1,1,0
251,98,1,1,0
252,98,1,1,0
253,98,1,1,0
254,98,1,1,0
255,98,1,1,0
256,98,1,1,0
257,98,1,1,0
258,98,1,1,0
259,98,1,1,0
260,98,1,1,0
261,98,1,1,0
262,98,1,1,0
263,98,1,1,0
264,98,1,1,0
265,98,1,1,0
266,98,1,1,0
267,98,1,1,0
268,98,1,1,0
269,98,1,1,0
270,98,1,1,0
271,98,1,1,0
272,98,1,1,0
273,98,1,1,0
274,98,1,1,0
275,98,1,1,0
276,98,1,1,0
277,98,1,1,0
278,98,1,1,0
279,98,1,1,0
280,98,1,1,0
281,98,1,1,0
282,98,1,1,0
283,98,1,1,0
284,98,1,1,0
285,98,1,1,0
286,98,1,1,0
287,98,1,1,0
288,98,1,1,0
289,98,1,1,0
290,98,1,1,0
291,98,1,1,0
292,98,1,1,0
293,98,1,1,0
294,98,1,1,0
295,98,1,1,0
296,98,1,1,0
297,98,1,1,0
298,98,1,1,0
299,98,1,1,0
300,98,1,1,0
301,98,1,1,0
302,98,1,1,0
303,98,1,1,0
304,98,1,1,0
305,98,1,1,0
306,98,1,1,0
307,98,1,1,0
308,98,1,1,0
309,98,1,1,0
310,97,2,1,0
311,97,2,1,0
312,97,2,1,0
313,97,2,1,0
314,97,2,1,0
315,97,2,1,0
316,97,2,1,0
317,97,2,1,0
318,97,2,1,0
319,97,2,1,0
320,97,2,1,0
321,97,2,1,0
322,97,2,1,0
323,97,2,1,0
324,97,2,1,0
325,97,2,1,0
326,97,2,1,0
327,97,2,1,0
328,97,2,1,0
329,97,2,1,0
330,97,2,1,0
331,97,2,1,0
332,97,2,1,0
333,97,2,1,0
334,97,2,1,0
335,97,2,1,0
336,97,2,1,0
337,97,2,1,0
338,97,2,1,0
339,97,2,1,0
340,97,2,1,0
341,97,2,1,0
342,97,2,1,0
343,97,2,1,0
344,97,2,1,0
345,97,2,1,0
346,97,2,1,0
347,97,2,1,0
348,97,2,1,0
349,97,2,1,0
350,97,2,1,0
351,97,2,1,0
352,97,2,1,0
353,97,2,1,0
354,97,2,1,0
355,97,2,1,0
356,97,2,1,0
357,97,2,1,0
358,97,2,1,0
359,97,2,1,0
360,97,2,1,0
361,97,2,1,0
362,97,2,1,0
363,97,2,1,0
364,97,2,1,0
365,97,2,1,0
366,97,2,1,0
367,97,2,1,0
368,97,2,1,0
369,97,2,1,0
370,97,2,1,0
371,97,2,1,0
372,97,2,1,0
373,97,2,1,0
374,97,2,1,0
375,97,2,1,0
376,97,2,1,0
377,97,2,1,0
378,97,2,1,0
379,97,2,1,0
380,97,2,1,0
381,97,2,1,0
382,97,2,1,0
383,97,2,1,0
384,97,2,1,0
385,97,2,1,0
386,97,2,1,0
387,97,2,1,0
388,97,2,1,0
389,97,2,1,0
390,97,2,1,0
391,97,2,1,0
392,97,2,1,0
393,97,2,1,0
394,97,2,1,0
395,97,2,1,0
396,97,2,1,0
397,97,2,1,0
398,97,2,1,0
399,97,2,1,0
400,97,2,1,0
401,97,2,1,0
402,97,2,0,1
403,97,2,0,1
404,97,2,0,1
405,97,2,0,1
406,97,2,0,1
407,97,2,0,1
408,97,2,0,1
409,97,2,0,1
410,97,2,0,1
411,97,2,0,1
412,97,2,0,1
413,97,2,0,1
414,97,2,0,1
415,97,1,1,1
416,97,1,1,1
417,97,1,1,1
418,97,1,1,1
419,97,1,1,1
420,97,1,1,1
421,97,1,1,1
422,97,1,1,1
423,97,1,1,1
424,97,1,1,1
425,97,1,1,1
426,97,1,1,1
427,97,1,1,1
428,97,1,1,1
429,97,1,1,1
430,97,1,1,1
431,97,1,1,1
432,97,1,1,1
433,97,1,1,1
434,97,1,1,1
435,97,1,1,1
436,97,1,1,1
437,97,1,1,1
438,97,1,1,1
439,97,1,1,1
440,97,1,1,1
441,97,1,1,1
442,97,1,1,1
443,97,1,1,1
444,97,1,1,1
445,97,1,1,1
446,97,1,1,1
447,97,1,1,1
448,97,1,1,1
449,97,1,1,1
450,97,1,1,1
451,97,1,1,1
452,97,1,1,1
453,97,1,1,1
454,97,1,1,1
455,97,1,1,1
456,97,1,1,1
457,97,1,1,1
458,97,1,1,1
459,97,1,1,1
460,97,1,1,1
461,97,1,1,1
462,97,1,1,1
463,97,1,1,1
464,97,1,1,1
465,97,1,1,1
466,97,1,1,1
467,97,1,1,1
468,97,1,1,1
469,97,1,1,1
470,97,1,1,1
471,97,1,1,1
472,97,1,1,1
473,97,1,1,1
474,97,1,1,1
475,97,1,1,1
476,97,1,1,1
477,97,1,1,1
478,97,1,1,1
479,97,1,1,1
480,97,1,1,1
481,97,1,1,1
482,97,1,1,1
483,97,1,1,1
484,97,1,1,1
485,97,1,1,1
486,97,1,1,1
487,97,1,1,1
488,97,1,1,1
489,97,1,1,1
490,97,1,1,1
491,97,1,1,1
492,97,1,1,1
493,97,1,1,1
494,97,1,1,1
495,97,1,1,1
496,97,1,1,1
497,97,1,1,1
498,97,1,1,1
499,97,1,1,1
500,97,1,1,1
501,97,1,1,1
502,97,1,1,1
503,97,1,1,1
504,97,1,1,1
505,97,1,1,1
506,97,1,1,1
507,97,1,1,1
508,97,1,1,1
509,97,1,1,1
510,97,1,1,1
511,97,0,2,1
512,97,0,2,1
513,97,0,2,1
514,97,0,2,1
515,97,0,2,1
516,97,0,2,1
517,97,0,2,1
518,97,0,2,1
519,97,0,2,1
520,97,0,2,1
521,97,0,2,1
522,97,0,2,1
523,97,0,2,1
524,97,0,2,1
525,97,0,2,1
526,97,0,2,1
527,97,0,2,1
528,97,0,2,1
529,97,0,2,1
530,97,0,2,1
531,97,0,2,1
532,97,0,2,1
533,97,0,2,1
534,97,0,2,1
535,97,0,2,1
536,97,0,2,1
537,97,0,2,1
538,97,0,2,1
539,97,0,2,1
540,97,0,2,1
541,97,0,2,1
542,97,0,2,1
543,97,0,2,1
544,97,0,2,1
545,97,0,2,1
546,97,0,2,1
547,97,0,2,1
548,97,0,2,1
549,97,0,2,1
550,97,0,2,1
551,97,0,2,1
552,97,0,2,1
553,97,0,2,1
554,97,0,2,1
555,97,0,2,1
556,97,0,2,1
557,97,0,2,1
558,97,0,2,1
559,96,1,2,1
560,96,1,2,1
561,96,1,2,1
562,96,1,2,1
563,96,1,2,1
564,96,1,2,1
565,96,1,2,1
566,96,1,2,1
567,96,1,2,1
568,96,1,2,1
569,96,1,2,1
570,96,1,2,1
571,96,1,2,1
572,96,1,2,1
573,96,1,2,1
574,96,1,2,1
575,96,1,2,1
576,96,1,2,1
577,96,1,2,1
578,96,1,2,1
579,96,1,2,1
580,96,1,2,1
581,96,1,2,1
582,96,1,2,1
583,96,1,2,1
584,96,1,2,1
585,96,1,2,1
586,96,1,2,1
587,96,1,2,1
588,96,1,2,1
589,96,1,2,1
590,96,1,2,1
591,96,1,2,1
592,96,1,2,1
593,96,1,2,1
594,96,1,2,1
595,96,1,2,1
596,96,1,2,1
597,96,1,2,1
598,96,1,2,1
599,96,1,2,1
600,96,1,2,1
601,96,1,2,1
602,96,1,2,1
603,96,1,2,1
604,96,1,2,1
605,96,1,2,1
606,96,1,2,1
607,96,1,2,1
608,96,1,2,1
609,96,1,2,1
610,96,1,2,1
611,96,1,2,1
612,96,1,2,1
613,96,1,2,1
614,96,1,2,1
615,96,1,2,1
616,96,1,1,2
617,96,1,1,2
618,96,1,1,2
619,96,1,1,2
620,96,1,1,2
621,96,1,1,2
622,96,1,1,2
623,96,1,1,2
624,96,1,1,2
625,96,1,1,2
626,96,1,1,2
627,96,1,1,2
628,96,1,1,2
629,96,1,1,2
630,96,1,1,2
631,96,1,1,2
632,96,1,1,2
633,96,1,1,2
634,96,1,1,2
635,96,1,1,2
636,96,1,1,2
637,96,1,1,2
638,96,1,1,2
639,96,1,1,2
640,96,1,1,2
641,96,1,1,2
642,96,1,1,2
643,96,1,1,2
644,96,1,1,2
645,96,1,1,2
646,96,1,1,2
647,96,1,1,2
648,96,1,1,2
649,96,1,1,2
650,96,1,1,2
651,96,1,1,2
652,96,1,1,2
653,96,1,1,2
654,96,1,1,2
655,96,1,1,2
656,96,1,1,2
657,96,1,1,2
658,96,1,1,2
659,96,1,1,2
660,96,1,1,2
661,96,1,1,2
662,96,1,1,2
663,96,1,1,2
664,96,1,1,2
665,96,1,1,2
666,96,1,1,2
667,96,1,1,2
668,96,1,1,2
669,96,1,1,2
670,96,1,1,2
671,96,1,1,2
672,96,1,1,2
673,96,1,1,2
674,96,1,1,2
675,96,1,1,2
676,96,1,1,2
677,96,1,1,2
678,96,1,1,2
679,96,1,1,2
680,96,1,1,2
681,96,1,1,2
682,96,1,1,2
683,96,1,1,2
684,96,1,1,2
685,96,1,1,2
686,96,1,1,2
687,96,1,1,2
688,96,1,1,2
689,96,1,1,2
690,96,1,1,2
691,96,1,1,2
692,96,1,1,2
693,96,1,1,2
694,96,1,1,2
695,96,1,1,2
696,96,1,1,2
697,96,1,1,2
698,96,1,1,2
699,96,1,1,2
700,96,1,1,2
701,96,1,1,2
702,96,1,1,2
703,96,1,1,2
704,96,1,1,2
705,96,1,1,2
706,96,1,1,2
707,96,1,1,2
708,96,1,1,2
709,96,1,1,2
710,96,1,1,2
711,96,1,1,2
712,96,1,0,3
713,96,1,0,3
714,96,1,0,3
715,96,1,0,3
716,96,1,0,3
717,96,1,0,3
718,96,1,0,3
719,96,1,0,3
720,96,1,0,3
721,96,1,0,3
722,96,1,0,3
723,96,1,0,3
724,96,1,0,3
725,96,1,0,3
726,96,1,0,3
727,96,1,0,3
728,96,1,0,3
729,96,1,0,3
730,96,1,0,3
731,96,1,0,3
732,96,1,0,3
733,96,1,0,3
734,96,1,0,3
735,96,1,0,3
736,96,1,0,3
737,96,1,0,3
738,96,1,0,3
739,96,1,0,3
740,96,1,0,3
741,96,1,0,3
742,96,1,0,3
743,96,1,0,3
744,96,1,0,3
745,96,1,0,3
746,96,1,0,3
747,96,1,0,3
748,96,1,0,3
749,96,1,0,3
750,96,1,0,3
751,96,1,0,3
752,96,1,0,3
753,96,1,0,3
754,96,1,0,3
755,96,1,0,3
756,96,1,0,3
757,96,1,0,3
758,96,1,0,3
759,96,1,0,3
760,96,0,1,3
761,96,0,1,3
762,96,0,1,3
763,96,0,1,3
764,96,0,1,3
765,96,0,1,3
766,96,0,1,3
767,96,0,1,3
768,96,0,1,3
769,96,0,1,3
770,96,0,1,3
771,96,0,1,3
772,96,0,1,3
773,96,0,1,3
774,96,0,1,3
775,96,0,1,3
776,96,0,1,3
777,96,0,1,3
778,96,0,1,3
779,96,0,1,3
780,96,0,1,3
781,96,0,1,3
782,96,0,1,3
783,96,0,1,3
784,96,0,1,3
785,96,0,1,3
786,96,0,1,3
787,96,0,1,3
788,95,1,1,3
789,95,1,1,3
790,95,1,1,3
791,95,1,1,3
792,95,1,1,3
793,95,1,1,3
794,95,1,1,3
795,95,1,1,3
796,95,1,1,3
797,95,1,1,3
798,95,1,1,3
799,95,1,1,3
800,95,1,1,3
801,94,2,1,3
802,94,2,1,3
803,94,2,1,3
804,94,2,1,3
805,94,2,1,3
806,94,2,1,3
807,94,2,1,3
808,94,2,1,3
809,94,2,1,3
810,94,2,1,3
811,94,2,1,3
812,94,2,1,3
813,94,2,1,3
814,94,2,1,3
815,94,2,1,3
816,94,2,1,3
817,94,2,1,3
818,94,2,1,3
819,94,2,1,3
820,94,2,1,3
821,94,2,1,3
822,94,2,1,3
823,94,2,1,3
824,94,2,1,3
825,94,2,1,3
826,94,2,1,3
827,94,2,1,3
828,94,2,1,3
829,94,2,1,3
830,94,2,1,3
831,94,2,1,3
832,94,2,1,3
833,94,2,1,3
834,94,2,1,3
835,94,2,1,3
836,94,2,1,3
837,94,2,1,3
838,94,2,1,3
839,94,2,1,3
840,94,2,1,3
841,94,2,1,3
842,94,2,1,3
843,94,2,1,3
844,94,2,1,3
845,94,2,1,3
846,94,2,1,3
847,94,2,1,3
848,94,2,1,3
849,94,2,1,3
850,94,2,1,3
851,94,2,1,3
852,94,2,1,3
853,94,2,1,3
854,94,2,1,3
855,94,2,1,3
856,94,2,1,3
857,94,2,1,3
858,94,2,1,3
859,94,2,1,3
860,94,2,1,3
861,94,2,1,3
862,94,2,1,3
863,94,2,1,3
864,94,2,1,3
865,94,2,1,3
866,94,2,1,3
867,94,2,1,3
868,94,2,1,3
869,94,2,1,3
870,94,2,1,3
871,94,2,1,3
872,94,2,1,3
873,94,2,1,3
874,94,2,1,3
875,94,2,1,3
876,94,2,1,3
877,94,2,1,3
878,94,2,1,3
879,94,2,1,3
880,94,2,1,3
881,94,2,1,3
882,94,2,1,3
883,94,2,1,3
884,94,2,1,3
885,94,2,1,3
886,94,2,1,3
887,94,2,1,3
888,94,2,1,3
889,94,2,1,3
890,94,2,1,3
891,94,2,1,3
892,94,2,1,3
893,94,2,1,3
894,94,2,1,3
895,94,2,1,3
896,94,2,1,3
897,94,2,1,3
898,94,2,1,3
899,94,2,1,3
900,94,2,1,3
901,94,2,1,3
902,94,2,1,3
903,94,2,1,3
904,93,3,1,3
905,93,3,1,3
906,93,3,1,3
907,93,3,1,3
908,93,3,1,3
909,93,3,1,3
910,93,3,1,3
911,93,3,1,3
912,93,3,1,3
913,93,3,1,3
914,93,3,1,3
915,93,3,1,3
916,93,3,1,3
917,93,3,1,3
918,93,3,1,3
919,93,3,1,3
920,93,3,1,3
921,93,3,1,3
922,93,3,1,3
923,93,3,1,3
924,93,3,1,3
925,93,3,1,3
926,93,3,1,3
927,92,4,1,3
928,92,4,1,3
929,92,4,1,3
930,92,4,1,3
931,92,4,1,3
932,92,4,1,3
933,92,4,1,3
934,92,4,1,3
935,92,4,1,3
936,92,4,1,3
937,92,4,1,3
938,92,4,1,3
939,92,4,1,3
940,92,4,1,3
941,92,4,1,3
942,92,4,1,3
943,92,4,1,3
944,92,4,1,3
945,92,4,1,3
946,92,4,1,3
947,92,4,1,3
948,92,4,1,3
949,92,4,1,3
950,92,4,1,3
951,92,4,1,3
952,92,4,1,3
953,92,4,1,3
954,92,4,1,3
955,92,4,1,3
956,92,4,1,3
957,92,4,1,3
958,92,4,1,3
959,92,4,1,3
960,92,4,1,3
961,92,4,0,4
962,92,4,0,4
963,92,4,0,4
964,92,4,0,4
965,92,4,0,4
966,92,4,0,4
967,92,4,0,4
968,92,4,0,4
969,92,4,0,4
970,92,4,0,4
971,92,4,0,4
972,92,4,0,4
973,92,4,0,4
974,92,4,0,4
975,92,4,0,4
976,92,4,0,4
977,92,4,0,4
978,92,4,0,4
979,92,4,0,4
980,92,4,0,4
981,92,4,0,4
982,92,4,0,4
983,92,4,0,4
984,92,4,0,4
985,92,4,0,4
986,92,4,0,4
987,92,4,0,4
988,92,4,0,4
989,92,3,1,4
990,92,3,1,4
991,92,3,1,4
992,92,3,1,4
993,92,3,1,4
994,92,3,1,4
995,92,3,1,4
996,92,3,1,4
997,92,3,1,4
998,92,3,1,4
999,92,3,1,4
1000,92,3,1,4
1001,92,3,1,4
1002,92,2,2,4
1003,92,2,2,4
1004,92,2,2,4
1005,92,2,2,4
1006,92,2,2,4
1007,92,2,2,4
1008,92,2,2,4
1009,92,2,2,4
1010,92,2,2,4
1011,92,2,2,4
1012,92,2,2,4
1013,92,2,2,4
1014,92,2,2,4
1015,92,2,2,4
1016,92,2,2,4
1017,92,2,2,4
1018,92,2,2,4
1019,92,2,2,4
1020,92,2,2,4
1021,92,2,2,4
1022,92,2,2,4
1023,92,2,2,4
1024,92,2,2,4
1025,92,2,2,4
1026,92,2,2,4
1027,92,2,2,4
1028,92,2,2,4
1029,92,2,2,4
1030,92,2,2,4
1031,92,2,2,4
1032,92,2,2,4
1033,92,2,2,4
1034,92,2,2,4
1035,92,2,2,4
1036,92,2,2,4
1037,92,2,2,4
1038,92,2,2,4
1039,92,2,2,4
1040,92,2,2,4
1041,92,2,2,4
1042,92,2,2,4
1043,92,2,2,4
1044,92,2,2,4
1045,92,2,2,4
1046,92,2,2,4
1047,92,2,2,4
1048,92,2,2,4
1049,92,2,2,4
1050,92,2,2,4
1051,91,3,2,4
1052,91,3,2,4
1053,91,3,2,4
1054,91,3,2,4
1055,91,3,2,4
1056,91,3,2,4
1057,91,3,2,4
1058,91,3,2,4
1059,91,3,2,4
1060,91,3,2,4
1061,91,3,2,4
1062,91,3,2,4
1063,91,3,2,4
1064,91,3,2,4
1065,91,3,2,4
1066,91,3,2,4
1067,91,3,2,4
1068,91,3,2,4
1069,91,3,2,4
1070,91,3,2,4
1071,91,3,2,4
1072,91,3,2,4
1073,91,3,2,4
1074,91,3,2,4
1075,91,3,2,4
1076,91,3,2,4
1077,91,3,2,4
1078,91,3,2,4
1079,91,3,2,4
1080,91,3,2,4
1081,91,3,2,4
1082,91,3,2,4
1083,91,3,2,4
1084,91,3,2,4
1085,91,3,2,4
1086,91,3,2,4
1087,91,3,2,4
1088,91,3,2,4
1089,91,3,2,4
1090,91,3,2,4
1091,91,3,2,4
1092,91,3,2,4
1093,91,3,2,4
1094,91,3,2,4
1095,91,3,2,4
1096,91,3,2,4
1097,91,3,2,4
1098,91,3,2,4
1099,91,3,2,4
1100,91,3,2,4
1101,91,3,2,4
1102,91,3,2,4
1103,91,3,2,4
1104,91,3,2,4
1105,91,2,3,4
1106,91,2,3,4
1107,91,2,3,4
1108,91,2,3,4
1109,91,2,3,4
1110,91,2,3,4
1111,91,2,3,4
1112,91,2,3,4
1113,91,2,3,4
1114,91,2,3,4
1115,91,2,3,4
1116,91,2,3,4
1117,91,2,3,4
1118,91,2,3,4
1119,91,2,3,4
1120,91,2,3,4
1121,91,2,3,4
1122,91,2,3,4
1123,91,2,3,4
1124,91,2,3,4
1125,91,2,3,4
1126,91,2,3,4
1127,91,2,3,4
1128,91,1,4,4
1129,91,1,4,4
1130,90,2,4,4
1131,90,2,4,4
1132,90,2,4,4
1133,90,2,4,4
1134,90,2,4,4
1135,90,2,4,4
1136,90,2,4,4
1137,90,2,4,4
1138,90,2,4,4
1139,90,2,4,4
1140,90,2,4,4
1141,90,2,4,4
1142,90,2,4,4
1143,90,2,4,4
1144,90,2,4,4
1145,90,2,4,4
1146,90,2,4,4
1147,90,2,4,4
1148,90,2,4,4
1149,90,2,4,4
1150,90,2,4,4
1151,90,2,4,4
1152,90,2,4,4
1153,90,2,4,4
1154,90,2,4,4
1155,90,2,4,4
1156,90,2,4,4
1157,90,2,4,4
1158,90,2,4,4
1159,90,2,4,4
1160,90,2,4,4
1161,90,2,4,4
1162,90,2,4,4
1163,90,2,4,4
1164,90,2,4,4
1165,90,2,4,4
1166,90,2,4,4
1167,90,2,4,4
1168,90,2,4,4
1169,90,2,4,4
1170,89,3,4,4
1171,89,3,4,4
1172,89,3,4,4
1173,89,3,4,4
1174,89,3,4,4
1175,89,3,4,4
1176,89,3,4,4
1177,89,3,4,4
1178,89,3,4,4
1179,89,3,4,4
1180,89,3,4,4
1181,89,3,4,4
1182,89,3,4,4
1183,89,3,4,4
1184,89,3,4,4
1185,89,3,4,4
1186,89,3,4,4
1187,89,3,4,4
1188,89,3,4,4
1189,89,3,4,4
1190,89,3,3,5
1191,89,3,3,5
1192,89,3,3,5
1193,89,3,3,5
1194,89,3,3,5
1195,88,4,3,5
1196,88,4,3,5
1197,88,4,3,5
1198,88,4,3,5
1199,88,4,3,5
1200,88,4,3,5
1201,88,4,3,5
1202,88,4,3,5
1203,88,4,2,6
1204,88,4,2,6
1205,88,4,2,6
1206,88,4,2,6
1207,88,4,2,6
1208,88,4,2,6
1209,88,4,2,6
1210,88,4,2,6
1211,88,4,2,6
1212,88,4,2,6
1213,88,4,2,6
1214,88,4,2,6
1215,88,4,2,6
1216,88,4,2,6
1217,88,4,2,6
1218,88,4,2,6
1219,88,4,2,6
1220,88,4,2,6
1221,88,4,2,6
1222,88,4,2,6
1223,88,4,2,6
1224,88,4,2,6
1225,88,4,2,6
1226,88,4,2,6
1227,88,4,2,6
1228,88,4,2,6
1229,88,4,2,6
1230,88,4,2,6
1231,88,4,2,6
1232,88,4,2,6
1233,88,4,2,6
1234,88,4,2,6
1235,88,4,2,6
1236,88,4,2,6
1237,88,4,2,6
1238,88,4,2,6
1239,88,4,2,6
1240,88,4,2,6
1241,88,4,2,6
1242,88,4,2,6
1243,88,4,2,6
1244,88,4,2,6
1245,88,4,2,6
1246,88,4,2,6
1247,88,4,2,6
1248,88,4,2,6
1249,88,4,2,6
1250,88,4,2,6
1251,88,4,2,6
1252,88,3,3,6
1253,88,3,3,6
1254,88,3,3,6
1255,88,3,3,6
1256,88,3,3,6
1257,88,3,3,6
1258,88,3,3,6
1259,88,3,3,6
1260,88,3,3,6
1261,88,3,3,6
1262,88,3,3,6
1263,88,3,3,6
1264,88,3,3,6
1265,88,3,3,6
1266,88,3,3,6
1267,88,3,3,6
1268,88,3,3,6
1269,88,3,3,6
1270,88,3,3,6
1271,88,3,3,6
1272,88,3,3,6
1273,88,3,3,6
1274,87,4,3,6
1275,87,4,3,6
1276,87,4,3,6
1277,87,4,3,6
1278,87,4,3,6
1279,87,4,3,6
1280,86,5,3,6
1281,86,5,3,6
1282,86,5,3,6
1283,86,5,3,6
1284,86,5,3,6
1285,86,5,3,6
1286,86,5,3,6
1287,86,5,3,6
1288,86,5,3,6
1289,86,5,3,6
1290,86,5,3,6
1291,86,5,3,6
1292,86,5,3,6
1293,86,5,3,6
1294,86,5,3,6
1295,86,5,3,6
1296,86,5,3,6
1297,86,5,3,6
1298,86,5,3,6
1299,85,6,3,6
1300,85,6,3,6
1301,85,6,3,6
1302,85,6,3,6
1303,85,6,3,6
1304,85,6,3,6
1305,85,6,3,6
1306,85,6,2,7
1307,85,6,2,7
1308,85,6,2,7
1309,85,6,2,7
1310,85,6,2,7
1311,85,6,2,7
1312,85,6,2,7
1313,85,6,2,7
1314,85,6,2,7
1315,85,6,2,7
1316,85,6,2,7
1317,85,6,2,7
1318,85,6,2,7
1319,85,6,2,7
1320,85,6,2,7
1321,85,6,2,7
1322,85,6,2,7
1323,85,6,2,7
1324,85,6,2,7
1325,85,6,2,7
1326,85,6,2,7
1327,85,6,2,7
1328,85,6,2,7
1329,85,6,1,8
1330,85,6,1,8
1331,85,5,2,8
1332,85,5,2,8
1333,85,5,2,8
1334,85,5,2,8
1335,85,5,2,8
1336,85,5,2,8
1337,85,5,2,8
1338,85,5,2,8
1339,85,5,2,8
1340,85,5,2,8
1341,85,5,2,8
1342,85,5,2,8
1343,85,5,2,8
1344,85,5,2,8
1345,85,5,2,8
1346,85,5,2,8
1347,85,5,2,8
1348,85,5,2,8
1349,85,5,2,8
1350,85,5,2,8
1351,85,5,2,8
1352,85,5,2,8
1353,85,5,2,8
1354,85,5,2,8
1355,85,5,2,8
1356,85,5,2,8
1357,85,5,2,8
1358,85,5,2,8
1359,85,5,2,8
1360,85,5,2,8
1361,85,5,2,8
1362,85,5,2,8
1363,85,5,2,8
1364,85,5,2,8
1365,85,5,2,8
1366,85,5,2,8
1367,85,5,2,8
1368,85,5,2,8
1369,85,5,2,8
1370,85,5,2,8
1371,85,4,3,8
1372,85,4,3,8
1373,85,4,3,8
1374,85,4,3,8
1375,85,4,3,8
1376,85,4,3,8
1377,85,4,3,8
1378,85,4,3,8
1379,85,4,3,8
1380,85,4,3,8
1381,85,4,3,8
1382,85,4,3,8
1383,85,4,3,8
1384,85,4,3,8
1385,85,4,3,8
1386,85,4,3,8
1387,85,4,3,8
1388,85,4,3,8
1389,85,4,3,8
1390,85,4,3,8
1391,85,4,3,8
1392,85,4,3,8
1393,84,5,3,8
1394,83,6,3,8
1395,83,6,3,8
1396,83,5,4,8
1397,83,5,4,8
1398,83,5,4,8
1399,83,5,4,8
1400,83,5,4,8
1401,83,5,4,8
1402,83,5,4,8
1403,83,5,4,8
1404,83,5,4,8
1405,83,5,4,8
1406,83,5,4,8
1407,83,5,4,8
1408,83,5,4,8
1409,83,5,4,8
1410,83,5,4,8
1411,83,5,4,8
1412,83,5,4,8
1413,83,5,4,8
1414,83,5,4,8
1415,83,5,4,8
1416,83,5,4,8
1417,83,5,4,8
1418,83,5,4,8
1419,83,5,4,8
1420,83,5,4,8
1421,83,5,4,8
1422,83,5,4,8
1423,83,5,4,8
1424,83,5,4,8
1425,83,5,4,8
1426,83,5,4,8
1427,83,5,4,8
1428,83,5,4,8
1429,83,5,4,8
1430,83,5,4,8
1431,83,5,4,8
1432,83,5,4,8
1433,83,5,4,8
1434,83,5,4,8
1435,83,5,4,8
1436,83,5,4,8
1437,83,5,4,8
1438,83,5,4,8
1439,83,5,4,8
1440,83,5,4,8
1441,83,5,4,8
1442,83,5,4,8
1443,82,6,4,8
1444,82,6,4,8
1445,82,6,4,8
1446,82,6,4,8
1447,82,6,4,8
1448,82,6,4,8
1449,82,6,4,8
1450,82,6,4,8
1451,82,6,4,8
1452,82,6,4,8
1453,82,6,3,9
1454,82,6,3,9
1455,82,6,3,9
1456,82,6,3,9
1457,82,6,3,9
1458,82,6,3,9
1459,82,6,3,9
1460,82,6,3,9
1461,82,6,3,9
1462,82,6,3,9
1463,82,6,3,9
1464,82,6,3,9
1465,82,6,3,9
1466,82,6,3,9
1467,82,6,3,9
1468,82,6,3,9
1469,82,6,3,9
1470,82,6,3,9
1471,82,6,3,9
1472,82,6,3,9
1473,82,6,3,9
1474,82,6,3,9
1475,82,5,4,9
1476,82,5,4,9
1477,82,5,4,9
1478,82,5,4,9
1479,82,5,4,9
1480,81,6,4,9
1481,81,5,5,9
1482,81,5,5,9
1483,81,5,5,9
1484,81,5,5,9
1485,81,5,5,9
1486,81,5,5,9
1487,81,5,5,9
1488,81,5,5,9
1489,81,5,5,9
1490,81,5,5,9
1491,81,5,5,9
1492,81,5,5,9
1493,81,5,5,9
1494,81,5,5,9
1495,81,5,5,9
1496,81,5,5,9
1497,81,5,5,9
1498,81,5,5,9
1499,81,5,5,9
1500,81,4,6,9
1501,81,4,6,9
1502,81,4,6,9
1503,81,4,6,9
1504,81,4,6,9
1505,81,4,6,9
1506,81,4,6,9
1507,81,4,6,9
1508,81,4,6,9
1509,81,4,6,9
1510,81,4,6,9
1511,81,4,6,9
1512,81,4,6,9
1513,81,4,6,9
1514,81,4,6,9
1515,81,4,6,9
1516,81,4,6,9
1517,81,4,6,9
1518,81,4,6,9
1519,80,5,6,9
1520,80,5,6,9
1521,80,5,6,9
1522,80,5,6,9
1523,80,5,6,9
1524,80,5,6,9
1525,80,5,6,9
1526,80,5,6,9
1527,80,5,6,9
1528,80,5,6,9
1529,80,5,6,9
1530,80,5,6,9
1531,80,5,6,9
1532,80,5,5,10
1533,80,5,5,10
1534,80,5,5,10
1535,80,5,5,10
1536,80,5,5,10
1537,80,5,5,10
1538,80,5,5,10
1539,80,5,5,10
1540,80,5,5,10
1541,80,5,5,10
1542,80,5,5,10
1543,80,5,5,10
1544,80,5,5,10
1545,80,5,5,10
1546,80,5,5,10
1547,80,5,5,10
1548,79,6,5,10
1549,79,6,5,10
1550,79,6,5,10
1551,79,6,5,10
1552,79,6,5,10
1553,79,6,5,10
1554,79,6,5,10
1555,79,6,5,10
1556,79,6,5,10
1557,79,6,5,10
1558,79,6,5,10
1559,79,6,5,10
1560,79,6,5,10
1561,79,6,5,10
1562,79,6,5,10
1563,79,6,5,10
1564,79,6,5,10
1565,79,6,5,10
1566,79,6,5,10
1567,79,6,5,10
1568,79,6,5,10
1569,79,6,5,10
1570,79,6,5,10
1571,79,6,5,10
1572,79,6,4,11
1573,79,6,4,11
1574,79,6,4,11
1575,79,6,4,11
1576,79,6,4,11
1577,79,6,4,11
1578,79,6,4,11
1579,79,6,4,11
1580,79,6,4,11
1581,79,6,4,11
1582,79,6,4,11
1583,79,6,4,11
1584,79,6,4,11
1585,79,6,4,11
1586,79,6,4,11
1587,79,6,4,11
1588,79,6,4,11
1589,79,6,4,11
1590,79,6,4,11
1591,79,6,4,11
1592,79,6,4,11
1593,79,6,4,11
1594,79,5,5,11
1595,79,4,6,11
1596,79,4,6,11
1597,79,4,5,12
1598,79,4,5,12
1599,79,4,5,12
1600,79,4,5,12
1601,79,4,5,12
1602,79,4,5,12
1603,79,4,5,12
1604,79,4,5,12
1605,79,4,5,12
1606,79,4,5,12
1607,79,4,5,12
1608,79,4,5,12
1609,79,4,5,12
1610,79,4,5,12
1611,79,4,5,12
1612,79,4,5,12
1613,79,4,5,12
1614,79,4,5,12
1615,79,4,5,12
1616,79,4,5,12
1617,79,4,5,12
1618,79,4,5,12
1619,79,4,5,12
1620,79,4,5,12
1621,79,4,5,12
1622,78,5,5,12
1623,78,5,5,12
1624,78,5,5,12
1625,78,5,5,12
1626,77,6,5,12
1627,76,7,5,12
1628,76,7,5,12
1629,76,7,5,12
1630,76,7,5,12
1631,75,8,5,12
1632,73,10,5,12
1633,72,11,5,12
1634,72,11,5,12
1635,72,11,5,12
1636,72,11,5,12
1637,72,11,5,12
1638,72,11,5,12
1639,72,11,5,12
1640,72,11,5,12
1641,72,11,5,12
1642,71,12,5,12
1643,71,12,5,12
1644,71,11,6,12
1645,71,11,6,12
1646,71,11,6,12
1647,71,11,6,12
1648,71,11,6,12
1649,70,12,6,12
1650,70,12,6,12
1651,70,12,6,12
1652,70,12,6,12
1653,70,12,6,12
1654,70,12,6,12
1655,70,12,6,12
1656,70,12,6,12
1657,70,12,6,12
1658,70,12,6,12
1659,70,12,6,12
1660,70,12,6,12
1661,70,12,6,12
1662,70,12,6,12
1663,70,12,6,12
1664,70,12,6,12
1665,70,12,6,12
1666,70,12,6,12
1667,70,12,6,12
1668,70,12,6,12
1669,70,12,6,12
1670,70,12,6,12
1671,70,12,6,12
1672,70,12,6,12
1673,70,12,6,12
1674,70,12,6,12
1675,70,12,6,12
1676,70,12,5,13
1677,70,12,5,13
1678,70,12,5,13
1679,70,12,5,13
1680,70,12,5,13
1681,70,11,6,13
1682,70,11,5,14
1683,70,11,5,14
1684,70,11,5,14
1685,70,11,5,14
1686,70,11,5,14
1687,70,11,5,14
1688,70,11,5,14
1689,70,11,5,14
1690,70,11,5,14
1691,70,11,5,14
1692,70,11,5,14
1693,70,11,5,14
1694,70,11,5,14
1695,70,11,5,14
1696,70,11,5,14
1697,70,11,5,14
1698,70,11,5,14
1699,70,11,5,14
1700,70,11,5,14
1701,70,11,4,15
1702,69,12,4,15
1703,69,12,4,15
1704,69,12,4,15
1705,69,12,4,15
1706,69,12,4,15
1707,69,12,4,15
1708,69,12,4,15
1709,69,12,4,15
1710,69,12,4,15
1711,69,12,4,15
1712,69,12,4,15
1713,69,12,4,15
1714,69,12,4,15
1715,69,12,4,15
1716,69,12,4,15
1717,69,12,4,15
1718,69,12,4,15
1719,69,12,4,15
1720,69,11,5,15
1721,68,12,5,15
1722,68,12,5,15
1723,68,12,5,15
1724,68,12,5,15
1725,68,12,5,15
1726,68,12,5,15
1727,68,12,5,15
1728,68,12,5,15
1729,68,12,5,15
1730,68,12,5,15
1731,68,12,5,15
1732,68,12,5,15
1733,68,12,5,15
1734,68,12,5,15
1735,68,12,5,15
1736,68,12,5,15
1737,68,12,5,15
1738,68,12,5,15
1739,68,12,5,15
1740,66,14,5,15
1741,66,14,5,15
1742,66,14,5,15
1743,66,14,5,15
1744,66,14,5,15
1745,66,14,5,15
1746,65,15,5,15
1747,65,15,5,15
1748,65,15,5,15
1749,65,14,6,15
1750,64,15,6,15
1751,64,15,6,15
1752,64,15,6,15
1753,64,15,6,15
1754,64,15,6,15
1755,64,15,6,15
1756,63,16,6,15
1757,63,16,6,15
1758,63,16,6,15
1759,63,16,6,15
1760,63,16,6,15
1761,63,16,6,15
1762,63,16,6,15
1763,63,16,6,15
1764,63,16,6,15
1765,63,16,6,15
1766,63,16,6,15
1767,63,16,6,15
1768,63,16,6,15
1769,63,16,6,15
1770,63,16,6,15
1771,63,16,6,15
1772,63,16,6,15
1773,63,16,6,15
1774,63,16,6,15
1775,63,16,6,15
1776,63,16,6,15
1777,63,16,6,15
1778,63,16,6,15
1779,63,16,6,15
1780,63,16,6,15
1781,63,16,6,15
1782,63,16,6,15
1783,62,17,6,15
1784,61,18,6,15
1785,61,18,6,15
1786,60,19,6,15
1787,60,19,6,15
1788,60,19,6,15
1789,60,19,6,15
1790,59,20,6,15
1791,59,20,6,15
1792,59,20,6,15
1793,59,20,6,15
1794,59,20,6,15
1795,59,20,5,16
1796,59,20,4,17
1797,59,20,4,17
1798,59,20,4,17
1799,59,20,4,17
1800,59,20,4,17
1801,59,20,4,17
1802,59,20,4,17
1803,59,20,4,17
1804,58,21,4,17
1805,58,21,4,17
1806,58,21,4,17
1807,58,21,4,17
1808,58,21,4,17
1809,58,21,4,17
1810,58,21,4,17
1811,58,21,4,17
1812,58,21,4,17
1813,58,21,4,17
1814,58,21,4,17
1815,58,21,4,17
1816,57,22,4,17
1817,57,22,4,17
1818,57,22,4,17
1819,57,22,4,17
1820,57,22,4,17
1821,57,22,4,17
1822,57,22,4,17
1823,57,21,5,17
1824,57,21,5,17
1825,57,21,5,17
1826,57,21,5,17
1827,57,20,6,17
1828,57,19,7,17
1829,57,19,7,17
1830,57,19,7,17
1831,57,19,7,17
1832,57,18,8,17
1833,57,16,10,17
1834,57,15,11,17
1835,56,16,11,17
1836,56,16,11,17
1837,56,16,11,17
1838,56,16,11,17
1839,56,16,11,17
1840,56,16,11,17
1841,56,16,11,17
1842,56,16,11,17
1843,54,17,12,17
1844,53,18,12,17
1845,53,18,11,18
1846,53,18,11,18
1847,53,18,11,18
1848,53,18,11,18
1849,53,18,11,18
1850,53,17,12,18
1851,53,17,12,18
1852,53,17,12,18
1853,53,17,12,18
1854,53,17,12,18
1855,53,17,12,18
1856,52,18,12,18
1857,52,18,12,18
1858,52,18,12,18
1859,52,18,12,18
1860,52,18,12,18
1861,52,18,12,18
1862,51,19,12,18
1863,51,19,12,18
1864,51,19,12,18
1865,51,19,12,18
1866,51,19,12,18
1867,51,19,12,18
1868,51,19,12,18
1869,51,19,12,18
1870,51,19,12,18
1871,51,19,12,18
1872,51,19,12,18
1873,51,19,12,18
1874,51,19,12,18
1875,51,19,12,18
1876,51,19,12,18
1877,51,19,12,18
1878,51,19,12,18
1879,50,20,12,18
1880,50,20,12,18
1881,50,20,12,18
1882,50,20,11,19
1883,50,20,11,19
1884,50,20,11,19
1885,50,20,11,19
1886,50,20,11,19
1887,50,20,11,19
1888,50,20,11,19
1889,50,20,11,19
1890,50,20,11,19
1891,49,21,11,19
1892,49,21,11,19
1893,49,21,11,19
1894,49,21,11,19
1895,49,21,11,19
1896,49,21,11,19
1897,48,22,11,19
1898,48,22,11,19
1899,48,22,11,19
1900,48,22,11,19
1901,47,23,11,19
1902,47,23,11,19
1903,47,22,12,19
1904,47,22,12,19
1905,47,22,12,19
1906,47,22,12,19
1907,47,22,12,19
1908,47,22,12,19
1909,47,22,12,19
1910,47,22,12,19
1911,47,22,12,19
1912,47,22,12,19
1913,45,24,12,19
1914,45,24,12,19
1915,45,24,12,19
1916,45,24,12,19
1917,45,24,12,19
1918,43,26,12,19
1919,43,26,12,19
1920,43,26,12,19
1921,43,26,11,20
1922,43,25,12,20
1923,43,25,12,20
1924,43,25,12,20
1925,43,25,12,20
1926,43,25,12,20
1927,43,25,12,20
1928,43,25,12,20
1929,42,26,12,20
1930,42,26,12,20
1931,42,26,12,20
1932,42,26,12,20
1933,42,26,12,20
1934,42,26,12,20
1935,40,28,12,20
1936,40,28,12,20
1937,40,28,12,20
1938,40,28,12,20
1939,39,29,12,20
1940,39,29,12,20
1941,39,27,14,20
1942,39,27,14,20
1943,39,27,14,20
1944,38,28,14,20
1945,38,28,14,20
1946,38,28,14,20
1947,38,27,15,20
1948,38,27,15,20
1949,38,27,15,20
1950,38,27,14,21
1951,38,26,15,21
1952,38,26,15,21
1953,38,26,15,21
1954,38,26,15,21
1955,38,26,15,21
1956,37,27,15,21
1957,37,26,16,21
1958,37,26,16,21
1959,37,26,16,21
1960,37,26,16,21
1961,37,26,16,21
1962,37,26,16,21
1963,37,26,16,21
1964,37,26,16,21
1965,37,26,16,21
1966,37,26,16,21
1967,37,26,16,21
1968,37,26,16,21
1969,37,26,16,21
1970,37,26,16,21
1971,37,26,16,21
1972,36,27,16,21
1973,36,27,16,21
1974,36,27,16,21
1975,36,27,16,21
1976,36,27,16,21
1977,36,27,16,21
1978,36,27,16,21
1979,36,27,16,21
1980,36,27,16,21
1981,36,27,16,21
1982,36,27,16,21
1983,36,27,16,21
1984,36,26,17,21
1985,36,25,18,21
1986,36,25,18,21
1987,35,25,19,21
1988,35,25,19,21
1989,35,25,19,21
1990,35,25,19,21
1991,35,24,20,21
1992,35,24,20,21
1993,35,24,20,21
1994,35,24,20,21
1995,35,24,20,21
1996,35,24,20,21
1997,35,24,20,21
1998,35,24,20,21
1999,35,24,20,21
2000,35,24,20,21
