"tick","total"
0,0
1,0
2,0
3,0
4,0
5,0
6,0
7,0
8,0
9,0
10,0
11,0
12,0
13,0
14,0
15,0
16,0
17,0
18,0
19,0
20,0
21,0
22,0
23,0
24,0
25,0
26,0
27,0
28,0
29,0
30,0
31,0
32,0
33,0
34,0
35,0
36,0
37,0
38,0
39,0
40,0
41,0
42,0
43,0
44,0
45,0
46,0
47,0
48,0
49,0
50,0
51,0
52,0
53,0
54,0
55,0
56,0
57,0
58,0
59,0
60,0
61,0
62,0
63,0
64,0
65,0
66,0
67,0
68,0
69,0
70,0
71,0
72,0
73,0
74,0
75,0
76,0
77,0
78,0
79,0
80,0
81,0
82,0
83,0
84,0
85,0
86,0
87,0
88,0
89,0
90,0
91,0
92,0
93,0
94,0
95,0
96,0
97,0
98,0
99,0
100,0
101,0
102,0
103,0
104,0
105,0
106,0
107,0
108,0
109,0
110,0
111,0
112,0
113,0
114,0
115,0
116,0
117,0
118,0
119,0
120,0
121,0
122,0
123,0
124,0
125,0
126,0
127,0
128,0
129,0
130,0
131,0
132,0
133,0
134,0
135,0
136,0
137,0
138,0
139,0
140,0
141,0
142,0
143,0
144,0
145,0
146,0
147,0
148,0
149,0
150,0
151,0
152,0
153,0
154,0
155,0
156,0
157,0
158,0
159,0
160,0
161,0
162,0
163,0
164,0
165,0
166,0
167,0
168,0
169,0
170,0
171,0
172,0
173,0
174,0
175,0
176,0
177,0
178,0
179,0
180,0
181,0
182,0
183,0
184,0
185,0
186,0
187,0
188,0
189,0
190,0
191,0
192,0
193,0
194,0
195,0
196,0
197,0
198,0
199,0
200,0
201,0
202,0
203,0
204,0
205,0
206,0
207,0
208,0
209,0
210,0
211,0
212,0
213,0
214,0
215,0
216,0
217,0
218,0
219,0
220,0
221,0
222,0
223,0
224,0
225,0
226,0
227,0
228,0
229,0
230,0
231,0
232,0
233,0
234,0
235,0
236,0
237,0
238,1
239,1
240,1
241,2
242,2
243,2
244,2
245,2
246,2
247,2
248,2
249,3
250,3
251,3
252,3
253,3
254,3
255,3
256,3
257,3
258,3
259,3
260,3
261,3
262,3
263,4
264,4
265,4
266,4
267,4
268,5
269,5
270,5
271,5
272,5
273,5
274,5
275,5
276,6
277,6
278,6
279,7
280,7
281,7
282,7
283,7
284,7
285,8
286,8
287,8
288,8
289,8
290,9
291,9
292,10
293,10
294,10
295,10
296,10
297,10
298,10
299,10
300,10
301,11
302,11
303,12
304,12
305,12
306,12
307,12
308,12
309,12
310,12
311,12
312,12
313,13
314,13
315,13
316,14
317,14
318,14
319,14
320,14
321,14
322,14
323,14
324,14
325,14
326,14
327,14
328,14
329,14
330,14
331,15
332,15
333,15
334,15
335,15
336,15
337,15
338,15
339,15
340,15
341,15
342,16
343,16
344,16
345,16
346,16
347,16
348,16
349,16
350,16
351,16
352,16
353,17
354,17
355,17
356,17
357,17
358,17
359,17
360,17
361,18
362,18
363,18
364,19
365,19
366,19
367,19
368,19
369,19
370,19
371,19
372,19
373,19
374,19
375,19
376,19
377,19
378,19
379,19
380,19
381,19
382,20
383,21
384,22
385,22
386,23
387,24
388,24
389,24
390,24
391,24
392,24
393,24
394,24
395,24
396,24
397,24
398,24
399,24
400,24
401,24
402,24
403,24
404,24
405,25
406,25
407,25
408,25
409,25
410,25
411,25
412,25
413,25
414,25
415,25
416,25
417,25
418,25
419,25
420,25
421,25
422,25
423,25
424,25
425,25
426,25
427,25
428,25
429,25
430,25
431,25
432,25
433,25
434,25
435,25
436,25
437,25
438,25
439,25
440,25
441,25
442,25
443,26
444,26
445,26
446,26
447,26
448,26
449,26
450,26
451,26
452,26
453,26
454,26
455,26
456,26
457,26
458,26
459,27
460,27
461,27
462,27
463,29
464,29
465,29
466,29
467,29
468,29
469,29
470,29
471,29
472,29
473,29
474,30
475,30
476,30
477,30
478,30
479,30
480,30
481,30
482,30
483,30
484,30
485,30
486,30
487,30
488,30
489,30
490,30
491,30
492,30
493,30
494,30
495,30
496,30
497,30
498,30
499,30
500,30
501,30
502,30
503,30
504,30
505,30
506,30
507,30
508,30
509,30
510,30
511,30
512,30
513,30
514,30
515,30
516,30
517,30
518,30
519,30
520,30
521,30
522,30
523,30
524,30
525,30
526,30
527,30
528,30
529,30
530,30
531,30
532,30
533,30
534,30
535,30
536,30
537,30
538,30
539,30
540,30
541,30
542,30
543,30
544,30
545,30
546,30
547,30
548,30
549,30
550,30
551,30
552,30
553,30
554,30
555,30
556,30
557,30
558,30
559,30
560,30
561,30
562,30
563,30
564,30
565,30
566,30
567,30
568,30
569,30
570,30
571,30
572,30
573,30
574,30
575,30
576,30
577,30
578,30
579,30
580,30
581,30
582,30
583,30
584,30
585,30
586,30
587,30
588,30
589,30
590,30
591,30
592,30
593,30
594,30
595,30
596,30
597,30
598,30
599,30
600,30
601,30
602,30
603,30
604,30
605,30
606,30
607,30
608,30
609,30
610,30
611,30
612,30
613,30
614,30
615,30
616,30
617,30
618,30
619,30
620,30
621,30
622,30
623,30
624,30
625,30
626,30
627,30
628,30
629,30
630,30
631,30
632,31
633,31
634,31
635,31
636,32
637,32
638,32
639,32
640,32
641,32
642,32
643,32
644,32
645,32
646,32
647,32
648,32
649,32
650,33
651,33
652,33
653,33
654,33
655,33
656,33
657,33
658,33
659,33
660,34
661,36
662,36
663,36
664,36
665,36
666,37
667,37
668,37
669,37
670,37
671,38
672,38
673,38
674,38
675,38
676,38
677,38
678,38
679,38
680,38
681,38
682,38
683,38
684,38
685,38
686,39
687,39
688,39
689,39
690,39
691,39
692,39
693,39
694,39
695,39
696,39
697,39
698,39
699,39
700,39
701,39
702,39
703,39
704,39
705,39
706,39
707,39
708,40
709,40
710,40
711,40
712,40
713,40
714,41
715,41
716,41
717,41
718,41
719,41
720,41
721,41
722,41
723,41
724,41
725,41
726,42
727,42
728,42
729,42
730,42
731,42
732,42
733,42
734,42
735,42
736,42
737,43
738,43
739,43
740,43
741,43
742,43
743,43
744,43
745,44
746,44
747,44
748,44
749,44
750,44
751,44
752,44
753,44
754,44
755,44
756,45
757,45
758,45
759,45
760,46
761,46
762,46
763,46
764,46
765,46
766,46
767,46
768,46
769,46
770,46
771,46
772,46
773,46
774,47
775,47
776,47
777,47
778,47
779,47
780,47
781,47
782,47
783,47
784,47
785,47
786,47
787,47
788,47
789,47
790,47
791,47
792,47
793,47
794,47
795,47
796,47
797,47
798,47
799,47
800,47
801,47
802,47
803,47
804,47
805,47
806,47
807,47
808,47
809,47
810,47
811,47
812,47
813,47
814,47
815,47
816,47
817,47
818,47
819,47
820,47
821,47
822,47
823,47
824,47
825,47
826,47
827,47
828,47
829,47
830,47
831,47
832,47
833,47
834,47
835,47
836,47
837,47
838,47
839,47
840,47
841,47
842,47
843,47
844,47
845,47
846,48
847,48
848,48
849,48
850,48
851,48
852,48
853,48
854,48
855,48
856,48
857,48
858,48
859,48
860,49
861,49
862,49
863,49
864,49
865,49
866,49
867,49
868,49
869,49
870,49
871,49
872,49
873,49
874,49
875,49
876,49
877,49
878,49
879,49
880,50
881,50
882,50
883,50
884,50
885,50
886,50
887,50
888,50
889,50
890,50
891,50
892,50
893,50
894,50
895,50
896,50
897,50
898,50
899,50
900,50
901,50
902,50
903,50
904,50
905,51
906,51
907,51
908,52
909,52
910,52
911,52
912,52
913,52
914,52
915,52
916,52
917,52
918,52
919,52
920,52
921,52
922,52
923,52
924,52
925,52
926,52
927,52
928,52
929,53
930,53
931,53
932,53
933,53
934,53
935,53
936,53
937,53
938,53
939,53
940,53
941,53
942,53
943,53
944,53
945,53
946,53
947,53
948,53
949,53
950,53
951,53
952,53
953,53
954,53
955,53
956,53
957,53
958,53
959,53
960,53
961,53
962,53
963,53
964,53
965,53
966,53
967,54
968,54
969,54
970,54
971,54
972,54
973,54
974,54
975,54
976,54
977,54
978,54
979,54
980,54
981,54
982,54
983,54
984,54
985,54
986,54
987,54
988,54
989,54
990,54
991,54
992,55
993,55
994,55
995,55
996,55
997,55
998,55
999,55
1000,55
1001,55
1002,55
1003,55
1004,56
1005,56
1006,56
1007,56
1008,56
1009,56
1010,56
1011,56
1012,56
1013,56
1014,56
1015,56
1016,56
1017,56
1018,57
1019,57
1020,57
1021,57
1022,57
1023,57
1024,57
1025,57
1026,57
1027,57
1028,57
1029,57
1030,57
1031,57
1032,57
1033,57
1034,57
1035,57
1036,57
1037,57
1038,57
1039,57
1040,57
1041,57
1042,57
1043,57
1044,57
1045,57
1046,57
1047,57
1048,57
1049,57
1050,57
1051,57
1052,57
1053,57
1054,57
1055,58
1056,58
1057,58
1058,58
1059,58
1060,58
1061,58
1062,58
1063,58
1064,58
1065,58
1066,58
1067,59
1068,59
1069,59
1070,60
1071,60
1072,60
1073,60
1074,60
1075,61
1076,61
1077,61
1078,61
1079,61
1080,61
1081,61
1082,61
1083,61
1084,61
1085,61
1086,61
1087,61
1088,62
1089,62
1090,62
1091,62
1092,62
1093,62
1094,62
1095,62
1096,62
1097,62
1098,62
1099,62
1100,62
1101,62
1102,62
1103,62
1104,62
1105,63
1106,63
1107,63
1108,64
1109,64
1110,64
1111,64
1112,64
1113,64
1114,64
1115,64
1116,64
1117,64
1118,64
1119,64
1120,64
1121,64
1122,65
1123,65
1124,65
1125,65
1126,65
1127,65
1128,65
1129,65
1130,65
1131,66
1132,66
1133,66
1134,66
1135,66
1136,66
1137,66
1138,66
1139,66
1140,66
1141,67
1142,67
1143,67
1144,67
1145,67
1146,67
1147,67
1148,67
1149,67
1150,67
1151,67
1152,67
1153,67
1154,67
1155,67
1156,67
1157,67
1158,67
1159,67
1160,67
1161,67
1162,67
1163,67
1164,67
1165,67
1166,67
1167,67
1168,68
1169,68
1170,68
1171,68
1172,68
1173,68
1174,68
1175,68
1176,68
1177,68
1178,68
1179,68
1180,68
1181,68
1182,68
1183,68
1184,68
1185,68
1186,68
1187,68
1188,68
1189,68
1190,68
1191,68
1192,68
1193,68
1194,68
1195,68
1196,68
1197,68
1198,68
1199,68
1200,68
1201,68
1202,68
1203,68
1204,68
1205,69
1206,69
1207,69
1208,69
1209,69
1210,69
1211,69
1212,69
1213,69
1214,69
1215,69
1216,69
1217,69
1218,69
1219,69
1220,69
1221,69
1222,69
1223,70
1224,70
1225,70
1226,70
1227,70
1228,70
1229,70
1230,70
1231,70
1232,70
1233,70
1234,70
1235,70
1236,70
1237,70
1238,70
1239,70
1240,70
1241,70
1242,70
1243,70
1244,70
1245,70
1246,70
1247,70
1248,70
1249,70
1250,70
1251,70
1252,70
1253,70
1254,70
1255,70
1256,70
1257,70
1258,71
1259,71
1260,71
1261,71
1262,71
1263,71
1264,71
1265,71
1266,71
1267,71
1268,71
1269,71
1270,71
1271,71
1272,71
1273,71
1274,71
1275,71
1276,71
1277,71
1278,71
1279,71
1280,71
1281,71
1282,71
1283,71
1284,71
1285,71
1286,71
1287,71
1288,71
1289,71
1290,71
1291,72
1292,72
1293,72
1294,72
1295,73
1296,73
1297,74
1298,74
1299,74
1300,74
1301,74
1302,74
1303,74
1304,74
1305,74
1306,74
1307,74
1308,74
1309,74
1310,74
1311,74
1312,74
1313,74
1314,74
1315,74
1316,74
1317,74
1318,74
1319,74
1320,74
1321,74
1322,75
1323,75
1324,75
1325,75
1326,75
1327,75
1328,75
1329,75
1330,75
1331,75
1332,75
1333,75
1334,76
1335,76
1336,76
1337,76
1338,76
1339,76
1340,76
1341,76
1342,76
1343,76
1344,76
1345,76
1346,76
1347,76
1348,76
1349,76
1350,76
1351,76
1352,76
1353,76
1354,76
1355,77
1356,78
1357,78
1358,78
1359,78
1360,78
1361,78
1362,78
1363,78
1364,78
1365,78
1366,78
1367,78
1368,78
1369,78
1370,78
1371,78
1372,78
1373,78
1374,78
1375,78
1376,78
1377,78
1378,78
1379,78
1380,78
1381,78
1382,78
1383,78
1384,78
1385,78
1386,78
1387,78
1388,78
1389,78
1390,78
1391,78
1392,78
1393,78
1394,78
1395,78
1396,78
1397,78
1398,78
1399,79
1400,79
1401,79
1402,79
1403,79
1404,79
1405,79
1406,79
1407,79
1408,79
1409,79
1410,79
1411,79
1412,79
1413,79
1414,79
1415,79
1416,79
1417,79
1418,79
1419,79
1420,79
1421,79
1422,80
1423,80
1424,80
1425,80
1426,80
1427,80
1428,80
1429,80
1430,80
1431,80
1432,80
1433,80
1434,80
1435,80
1436,80
1437,80
1438,80
1439,80
1440,80
1441,80
1442,80
1443,80
1444,80
1445,80
1446,80
1447,80
1448,80
1449,80
1450,80
1451,80
1452,80
1453,80
1454,80
1455,80
1456,80
1457,80
1458,80
1459,80
1460,80
1461,80
1462,80
1463,80
1464,80
1465,80
1466,80
1467,80
1468,80
1469,80
1470,80
1471,80
1472,80
1473,80
1474,80
1475,80
1476,80
1477,80
1478,80
1479,80
1480,80
1481,80
1482,80
1483,80
1484,80
1485,80
1486,80
1487,80
1488,80
1489,80
1490,80
1491,80
1492,80
1493,80
1494,80
1495,80
1496,80
1497,80
1498,80
1499,80
1500,80
1501,80
1502,80
1503,80
1504,80
1505,81
1506,81
1507,81
1508,81
1509,81
1510,81
1511,81
1512,81
1513,81
1514,81
1515,81
1516,81
1517,81
1518,81
1519,81
1520,81
1521,81
1522,81
1523,81
1524,81
1525,81
1526,81
1527,81
1528,81
1529,81
1530,81
1531,81
1532,82
1533,82
1534,82
1535,82
1536,82
1537,82
1538,82
1539,82
1540,82
1541,82
1542,82
1543,82
1544,82
1545,82
1546,82
1547,82
1548,82
1549,83
1550,83
1551,83
1552,83
1553,83
1554,83
1555,83
1556,83
1557,83
1558,83
1559,83
1560,83
1561,83
1562,83
1563,83
1564,83
1565,83
1566,83
1567,83
1568,83
1569,83
1570,83
1571,83
1572,83
1573,83
1574,83
1575,83
1576,83
1577,83
1578,83
1579,83
1580,83
1581,83
1582,83
1583,84
1584,84
1585,84
1586,84
1587,84
1588,84
1589,84
1590,84
1591,84
1592,84
1593,84
1594,84
1595,84
1596,84
1597,84
1598,84
1599,84
1600,85
1601,85
1602,85
1603,85
1604,85
1605,85
1606,85
1607,85
1608,85
1609,85
1610,85
1611,85
1612,85
1613,85
1614,86
1615,87
1616,87
1617,87
1618,87
1619,87
1620,87
1621,87
1622,87
1623,87
1624,87
1625,87
1626,87
1627,87
1628,87
1629,87
1630,87
1631,87
1632,87
1633,87
1634,87
1635,87
1636,87
1637,87
1638,87
1639,88
1640,88
1641,88
1642,88
1643,89
1644,89
1645,89
1646,89
1647,89
1648,89
1649,89
1650,89
1651,89
1652,90
1653,90
1654,90
1655,90
1656,90
1657,90
1658,90
1659,90
1660,90
1661,90
1662,90
1663,90
1664,90
1665,90
1666,90
1667,90
1668,90
1669,90
1670,90
1671,90
1672,90
1673,90
1674,90
1675,90
1676,90
1677,90
1678,90
1679,90
1680,90
1681,90
1682,90
1683,90
1684,90
1685,90
1686,90
1687,90
1688,90
1689,90
1690,90
1691,90
1692,90
1693,90
1694,90
1695,90
1696,90
1697,90
1698,90
1699,90
1700,90
1701,90
1702,90
1703,91
1704,91
1705,91
1706,91
1707,91
1708,92
1709,92
1710,92
1711,92
1712,92
1713,92
1714,92
1715,92
1716,92
1717,92
1718,92
1719,92
1720,92
1721,92
1722,92
1723,92
1724,92
1725,92
1726,92
1727,92
1728,92
1729,92
1730,92
1731,92
1732,92
1733,92
1734,92
1735,92
1736,92
1737,92
1738,92
1739,93
1740,93
1741,94
1742,94
1743,94
1744,94
1745,94
1746,94
1747,94
1748,94
1749,94
1750,94
1751,94
1752,94
1753,94
1754,94
1755,94
1756,94
1757,94
1758,94
1759,94
1760,94
1761,94
1762,94
1763,94
1764,94
1765,94
1766,94
1767,94
1768,94
1769,94
1770,94
1771,94
1772,94
1773,94
1774,94
1775,94
1776,94
1777,94
1778,94
1779,94
1780,94
1781,94
1782,94
1783,94
1784,94
1785,94
1786,94
1787,94
1788,94
1789,94
1790,94
1791,94
1792,94
1793,94
1794,94
1795,94
1796,94
1797,94
1798,94
1799,94
1800,94
1801,94
1802,94
1803,94
1804,94
1805,94
1806,94
1807,94
1808,94
1809,94
1810,95
1811,96
1812,96
1813,96
1814,96
1815,96
1816,96
1817,97
1818,97
1819,98
1820,98
1821,98
1822,98
1823,98
1824,98
1825,98
1826,98
1827,98
1828,98
1829,98
1830,98
1831,98
1832,98
1833,98
1834,98
1835,98
1836,99
1837,99
1838,99
1839,99
1840,99
1841,99
1842,99
1843,99
1844,99
1845,99
1846,99
1847,99
1848,99
1849,99
1850,99
1851,99
1852,99
1853,99
1854,99
1855,100
1856,100
1857,100
1858,100
1859,100
1860,100
1861,100
1862,100
1863,100
1864,100
1865,100
1866,100
1867,100
1868,100
1869,100
1870,100
1871,100
1872,100
1873,100
1874,100
1875,100
1876,100
1877,100
1878,100
1879,100
1880,100
1881,100
1882,100
1883,100
1884,100
1885,100
1886,100
1887,100
1888,100
1889,100
1890,100
1891,100
1892,100
1893,100
1894,100
1895,100
1896,100
1897,100
1898,100
1899,100
1900,100
1901,100
1902,100
1903,100
1904,100
1905,100
1906,100
1907,100
1908,100
1909,100
1910,100
1911,100
1912,100
1913,100
1914,100
1915,100
1916,100
1917,100
1918,100
1919,100
1920,100
1921,100
1922,101
1923,101
1924,101
1925,101
1926,101
1927,101
1928,101
1929,101
1930,101
1931,101
1932,101
1933,101
1934,101
1935,101
1936,101
1937,101
1938,101
1939,101
1940,102
1941,102
1942,102
1943,103
1944,104
1945,104
1946,105
1947,105
1948,105
1949,105
1950,105
1951,105
1952,105
1953,105
1954,105
1955,105
1956,105
1957,105
1958,105
1959,105
1960,105
1961,105
1962,105
1963,105
1964,105
1965,106
1966,106
1967,106
1968,106
1969,106
1970,106
1971,106
1972,106
1973,106
1974,107
1975,107
1976,107
1977,107
1978,107
1979,107
1980,107
1981,107
1982,107
1983,107
1984,107
1985,107
1986,107
1987,107
1988,107
1989,107
1990,107
1991,107
1992,107
1993,107
1994,107
1995,107
1996,107
1997,107
1998,107
1999,107
2000,107
