"tick","total"
0,0
1,0
2,0
3,0
4,0
5,0
6,0
7,0
8,0
9,0
10,0
11,0
12,0
13,0
14,0
15,0
16,0
17,0
18,0
19,0
20,0
21,0
22,0
23,0
24,0
25,0
26,0
27,0
28,0
29,0
30,0
31,0
32,0
33,0
34,0
35,0
36,0
37,0
38,0
39,0
40,0
41,0
42,0
43,0
44,0
45,0
46,0
47,0
48,0
49,0
50,0
51,0
52,0
53,0
54,0
55,0
56,0
57,0
58,0
59,0
60,0
61,0
62,0
63,0
64,0
65,0
66,0
67,0
68,0
69,0
70,0
71,0
72,0
73,0
74,0
75,0
76,0
77,0
78,0
79,0
80,0
81,0
82,0
83,0
84,0
85,0
86,0
87,0
88,0
89,0
90,0
91,0
92,0
93,0
94,0
95,0
96,0
97,0
98,0
99,0
100,0
101,0
102,0
103,0
104,0
105,0
106,0
107,0
108,0
109,0
110,0
111,0
112,0
113,0
114,0
115,0
116,0
117,0
118,0
119,0
120,0
121,0
122,0
123,0
124,0
125,0
126,0
127,0
128,0
129,0
130,0
131,0
132,0
133,0
134,0
135,0
136,0
137,0
138,0
139,0
140,0
141,0
142,0
143,0
144,0
145,0
146,0
147,0
148,0
149,0
150,0
151,0
152,0
153,0
154,0
155,0
156,0
157,0
158,0
159,0
160,0
161,0
162,0
163,0
164,0
165,0
166,0
167,0
168,0
169,0
170,0
171,0
172,0
173,0
174,0
175,0
176,0
177,0
178,0
179,0
180,0
181,0
182,0
183,0
184,0
185,0
186,0
187,0
188,0
189,0
190,0
191,0
192,0
193,0
194,0
195,0
196,0
197,0
198,0
199,0
200,0
201,0
202,0
203,0
204,0
205,0
206,0
207,0
208,0
209,0
210,0
211,0
212,0
213,0
214,0
215,0
216,0
217,0
218,0
219,0
220,1
221,1
222,1
223,1
224,1
225,2
226,2
227,2
228,2
229,2
230,2
231,2
232,3
233,3
234,3
235,3
236,3
237,3
238,3
239,3
240,3
241,3
242,3
243,3
244,3
245,4
246,4
247,4
248,4
249,4
250,4
251,4
252,4
253,4
254,4
255,4
256,4
257,4
258,4
259,4
260,4
261,4
262,4
263,4
264,4
265,4
266,4
267,4
268,4
269,4
270,6
271,6
272,6
273,6
274,6
275,7
276,8
277,8
278,8
279,8
280,8
281,8
282,8
283,8
284,8
285,8
286,8
287,8
288,10
289,11
290,11
291,11
292,11
293,11
294,11
295,11
296,11
297,11
298,11
299,11
300,12
301,12
302,12
303,12
304,13
305,13
306,13
307,14
308,15
309,15
310,15
311,15
312,15
313,15
314,15
315,16
316,16
317,16
318,16
319,16
320,16
321,16
322,16
323,17
324,17
325,18
326,18
327,19
328,19
329,19
330,19
331,19
332,19
333,19
334,19
335,20
336,21
337,21
338,21
339,21
340,21
341,21
342,21
343,21
344,21
345,21
346,21
347,21
348,21
349,21
350,21
351,21
352,21
353,21
354,21
355,21
356,21
357,21
358,21
359,21
360,21
361,21
362,21
363,21
364,21
365,21
366,22
367,22
368,22
369,22
370,22
371,22
372,22
373,22
374,22
375,22
376,22
377,22
378,22
379,22
380,22
381,22
382,22
383,22
384,22
385,22
386,22
387,23
388,23
389,23
390,23
391,23
392,23
393,23
394,24
395,24
396,24
397,24
398,24
399,24
400,24
401,25
402,25
403,25
404,25
405,25
406,25
407,25
408,25
409,25
410,25
411,25
412,25
413,25
414,25
415,25
416,25
417,25
418,25
419,25
420,25
421,25
422,25
423,25
424,25
425,26
426,26
427,26
428,26
429,26
430,26
431,26
432,26
433,26
434,26
435,27
436,27
437,27
438,27
439,27
440,27
441,27
442,28
443,28
444,28
445,28
446,28
447,28
448,28
449,28
450,29
451,29
452,29
453,29
454,29
455,29
456,29
457,29
458,29
459,29
460,29
461,29
462,29
463,29
464,29
465,29
466,29
467,29
468,29
469,29
470,29
471,29
472,29
473,29
474,29
475,29
476,29
477,29
478,29
479,29
480,29
481,30
482,30
483,30
484,30
485,30
486,30
487,30
488,30
489,30
490,30
491,30
492,30
493,30
494,30
495,30
496,30
497,30
498,30
499,30
500,30
501,30
502,30
503,30
504,30
505,30
506,30
507,30
508,30
509,30
510,30
511,30
512,30
513,30
514,30
515,30
516,30
517,30
518,30
519,30
520,30
521,30
522,30
523,30
524,30
525,30
526,30
527,30
528,30
529,30
530,30
531,30
532,30
533,30
534,30
535,30
536,30
537,30
538,30
539,30
540,30
541,30
542,30
543,30
544,30
545,30
546,30
547,30
548,30
549,30
550,30
551,30
552,30
553,30
554,30
555,30
556,30
557,30
558,30
559,30
560,30
561,30
562,30
563,30
564,30
565,30
566,30
567,30
568,30
569,30
570,30
571,30
572,30
573,30
574,30
575,30
576,30
577,30
578,30
579,30
580,30
581,30
582,30
583,30
584,30
585,30
586,30
587,30
588,31
589,31
590,31
591,31
592,31
593,31
594,31
595,31
596,31
597,31
598,31
599,31
600,31
601,31
602,31
603,31
604,31
605,31
606,31
607,31
608,31
609,31
610,32
611,32
612,32
613,32
614,32
615,32
616,33
617,33
618,33
619,33
620,35
621,35
622,35
623,36
624,36
625,36
626,36
627,36
628,36
629,36
630,36
631,36
632,36
633,37
634,37
635,37
636,37
637,37
638,37
639,37
640,37
641,37
642,37
643,37
644,37
645,37
646,37
647,37
648,37
649,37
650,37
651,37
652,37
653,37
654,37
655,37
656,37
657,37
658,37
659,37
660,37
661,37
662,37
663,37
664,37
665,37
666,37
667,37
668,37
669,37
670,37
671,37
672,37
673,37
674,37
675,37
676,37
677,37
678,37
679,37
680,37
681,37
682,37
683,37
684,37
685,37
686,37
687,37
688,37
689,37
690,38
691,38
692,38
693,38
694,39
695,39
696,39
697,39
698,39
699,39
700,39
701,39
702,39
703,39
704,39
705,39
706,39
707,39
708,39
709,39
710,39
711,39
712,40
713,40
714,41
715,41
716,41
717,42
718,42
719,42
720,42
721,42
722,42
723,42
724,42
725,42
726,42
727,42
728,42
729,42
730,42
731,42
732,42
733,42
734,42
735,42
736,42
737,42
738,42
739,42
740,42
741,42
742,42
743,42
744,42
745,42
746,42
747,42
748,42
749,42
750,42
751,42
752,43
753,43
754,43
755,44
756,44
757,44
758,44
759,44
760,44
761,45
762,45
763,45
764,45
765,45
766,45
767,45
768,45
769,45
770,45
771,45
772,45
773,45
774,45
775,45
776,45
777,46
778,46
779,46
780,46
781,46
782,46
783,46
784,46
785,47
786,47
787,47
788,47
789,47
790,47
791,47
792,47
793,47
794,47
795,47
796,47
797,47
798,47
799,47
800,47
801,47
802,47
803,47
804,47
805,47
806,47
807,47
808,48
809,48
810,48
811,48
812,48
813,48
814,48
815,48
816,48
817,48
818,48
819,48
820,48
821,48
822,48
823,48
824,48
825,48
826,48
827,48
828,48
829,48
830,48
831,48
832,48
833,48
834,48
835,48
836,48
837,48
838,48
839,48
840,48
841,48
842,48
843,48
844,48
845,48
846,48
847,48
848,48
849,48
850,48
851,48
852,48
853,48
854,48
855,48
856,48
857,48
858,48
859,48
860,48
861,48
862,48
863,48
864,49
865,49
866,49
867,49
868,50
869,50
870,50
871,50
872,50
873,50
874,50
875,50
876,50
877,50
878,51
879,51
880,51
881,51
882,51
883,51
884,51
885,51
886,51
887,51
888,51
889,51
890,51
891,51
892,51
893,51
894,51
895,51
896,51
897,51
898,51
899,51
900,51
901,51
902,51
903,51
904,51
905,51
906,51
907,51
908,51
909,51
910,51
911,51
912,51
913,51
914,51
915,51
916,51
917,51
918,51
919,51
920,51
921,51
922,51
923,51
924,51
925,51
926,51
927,51
928,51
929,51
930,51
931,51
932,51
933,51
934,51
935,51
936,51
937,51
938,51
939,51
940,51
941,51
942,51
943,51
944,51
945,51
946,51
947,51
948,51
949,51
950,51
951,52
952,52
953,52
954,52
955,53
956,53
957,53
958,53
959,53
960,53
961,53
962,53
963,53
964,53
965,53
966,53
967,53
968,53
969,53
970,53
971,53
972,53
973,53
974,53
975,53
976,53
977,53
978,53
979,53
980,53
981,53
982,53
983,53
984,53
985,53
986,53
987,53
988,53
989,53
990,53
991,53
992,53
993,53
994,53
995,53
996,53
997,53
998,53
999,53
1000,53
1001,53
1002,53
1003,53
1004,53
1005,53
1006,53
1007,53
1008,53
1009,53
1010,53
1011,53
1012,53
1013,53
1014,53
1015,53
1016,53
1017,53
1018,53
1019,53
1020,53
1021,53
1022,53
1023,53
1024,53
1025,53
1026,53
1027,53
1028,53
1029,53
1030,53
1031,53
1032,53
1033,53
1034,53
1035,53
1036,53
1037,53
1038,53
1039,53
1040,53
1041,53
1042,53
1043,53
1044,53
1045,53
1046,53
1047,53
1048,53
1049,53
1050,53
1051,53
1052,53
1053,53
1054,53
1055,53
1056,53
1057,54
1058,54
1059,54
1060,54
1061,54
1062,54
1063,54
1064,54
1065,54
1066,54
1067,54
1068,54
1069,54
1070,54
1071,54
1072,54
1073,54
1074,54
1075,54
1076,54
1077,54
1078,54
1079,54
1080,54
1081,54
1082,54
1083,54
1084,54
1085,54
1086,54
1087,54
1088,54
1089,54
1090,54
1091,54
1092,54
1093,54
1094,54
1095,54
1096,54
1097,54
1098,54
1099,54
1100,54
1101,54
1102,54
1103,54
1104,54
1105,54
1106,54
1107,54
1108,54
1109,55
1110,55
1111,55
1112,55
1113,55
1114,56
1115,57
1116,58
1117,59
1118,60
1119,61
1120,62
1121,63
1122,64
1123,64
1124,64
1125,64
1126,64
1127,64
1128,64
1129,65
1130,65
1131,65
1132,65
1133,65
1134,65
1135,65
1136,65
1137,65
1138,65
1139,65
1140,65
1141,65
1142,65
1143,65
1144,65
1145,65
1146,65
1147,65
1148,65
1149,65
1150,65
1151,65
1152,65
1153,65
1154,65
1155,65
1156,65
1157,65
1158,65
1159,65
1160,65
1161,65
1162,65
1163,65
1164,65
1165,66
1166,66
1167,66
1168,66
1169,66
1170,66
1171,66
1172,66
1173,66
1174,66
1175,66
1176,66
1177,66
1178,66
1179,66
1180,66
1181,66
1182,66
1183,66
1184,66
1185,66
1186,66
1187,66
1188,66
1189,67
1190,67
1191,67
1192,67
1193,67
1194,67
1195,67
1196,67
1197,67
1198,67
1199,67
1200,67
1201,67
1202,67
1203,67
1204,67
1205,67
1206,67
1207,67
1208,67
1209,67
1210,67
1211,67
1212,67
1213,67
1214,67
1215,67
1216,67
1217,67
1218,68
1219,68
1220,68
1221,69
1222,69
1223,69
1224,69
1225,69
1226,69
1227,69
1228,69
1229,69
1230,69
1231,69
1232,69
1233,69
1234,69
1235,69
1236,69
1237,69
1238,69
1239,69
1240,69
1241,69
1242,69
1243,69
1244,69
1245,70
1246,70
1247,70
1248,70
1249,70
1250,70
1251,71
1252,71
1253,71
1254,71
1255,71
1256,71
1257,71
1258,71
1259,71
1260,72
1261,72
1262,72
1263,72
1264,72
1265,72
1266,72
1267,72
1268,72
1269,72
1270,72
1271,72
1272,72
1273,72
1274,72
1275,72
1276,72
1277,72
1278,72
1279,72
1280,72
1281,72
1282,72
1283,72
1284,72
1285,72
1286,72
1287,72
1288,72
1289,72
1290,73
1291,73
1292,73
1293,73
1294,73
1295,73
1296,73
1297,73
1298,73
1299,73
1300,73
1301,73
1302,73
1303,73
1304,73
1305,73
1306,73
1307,73
1308,73
1309,74
1310,74
1311,74
1312,74
1313,74
1314,74
1315,75
1316,75
1317,76
1318,76
1319,76
1320,76
1321,76
1322,76
1323,76
1324,76
1325,76
1326,76
1327,76
1328,76
1329,76
1330,76
1331,76
1332,76
1333,77
1334,77
1335,77
1336,77
1337,77
1338,77
1339,77
1340,77
1341,77
1342,77
1343,77
1344,77
1345,77
1346,77
1347,77
1348,78
1349,78
1350,78
1351,78
1352,78
1353,78
1354,78
1355,78
1356,78
1357,78
1358,78
1359,78
1360,78
1361,78
1362,78
1363,79
1364,79
1365,79
1366,79
1367,79
1368,79
1369,79
1370,79
1371,79
1372,79
1373,79
1374,79
1375,79
1376,79
1377,79
1378,79
1379,79
1380,79
1381,79
1382,79
1383,79
1384,79
1385,79
1386,79
1387,79
1388,79
1389,79
1390,79
1391,79
1392,79
1393,80
1394,80
1395,80
1396,80
1397,80
1398,80
1399,80
1400,80
1401,80
1402,80
1403,80
1404,80
1405,80
1406,80
1407,80
1408,80
1409,80
1410,80
1411,80
1412,80
1413,80
1414,80
1415,80
1416,80
1417,80
1418,80
1419,80
1420,80
1421,80
1422,80
1423,80
1424,80
1425,80
1426,80
1427,80
1428,80
1429,80
1430,80
1431,80
1432,80
1433,80
1434,80
1435,80
1436,80
1437,80
1438,80
1439,80
1440,80
1441,80
1442,80
1443,80
1444,80
1445,80
1446,80
1447,80
1448,80
1449,80
1450,80
1451,80
1452,80
1453,80
1454,80
1455,80
1456,80
1457,80
1458,80
1459,80
1460,80
1461,80
1462,80
1463,80
1464,80
1465,80
1466,80
1467,80
1468,80
1469,80
1470,80
1471,80
1472,80
1473,80
1474,80
1475,80
1476,80
1477,80
1478,80
1479,80
1480,80
1481,80
1482,80
1483,80
1484,80
1485,80
1486,80
1487,80
1488,80
1489,80
1490,80
1491,80
1492,80
1493,80
1494,80
1495,80
1496,80
1497,80
1498,80
1499,80
1500,80
1501,80
1502,80
1503,80
1504,80
1505,80
1506,80
1507,80
1508,80
1509,80
1510,80
1511,80
1512,80
1513,80
1514,80
1515,80
1516,80
1517,80
1518,80
1519,80
1520,80
1521,80
1522,80
1523,80
1524,80
1525,80
1526,80
1527,80
1528,80
1529,80
1530,80
1531,80
1532,80
1533,80
1534,80
1535,80
1536,80
1537,80
1538,80
1539,80
1540,80
1541,80
1542,80
1543,80
1544,80
1545,80
1546,80
1547,80
1548,80
1549,80
1550,81
1551,81
1552,81
1553,81
1554,81
1555,81
1556,81
1557,81
1558,81
1559,81
1560,81
1561,81
1562,81
1563,81
1564,81
1565,81
1566,81
1567,81
1568,81
1569,81
1570,81
1571,81
1572,81
1573,81
1574,81
1575,81
1576,81
1577,81
1578,82
1579,82
1580,82
1581,82
1582,82
1583,82
1584,82
1585,82
1586,82
1587,82
1588,82
1589,82
1590,82
1591,82
1592,82
1593,82
1594,83
1595,83
1596,83
1597,83
1598,83
1599,83
1600,83
1601,83
1602,83
1603,83
1604,83
1605,83
1606,83
1607,83
1608,83
1609,84
1610,85
1611,85
1612,85
1613,85
1614,85
1615,85
1616,85
1617,86
1618,86
1619,87
1620,87
1621,87
1622,87
1623,87
1624,87
1625,87
1626,87
1627,87
1628,87
1629,87
1630,87
1631,87
1632,87
1633,87
1634,87
1635,87
1636,87
1637,87
1638,87
1639,87
1640,87
1641,87
1642,87
1643,87
1644,87
1645,87
1646,88
1647,88
1648,88
1649,88
1650,89
1651,89
1652,89
1653,89
1654,89
1655,89
1656,89
1657,89
1658,89
1659,89
1660,89
1661,89
1662,89
1663,89
1664,89
1665,89
1666,89
1667,89
1668,89
1669,89
1670,89
1671,89
1672,89
1673,89
1674,89
1675,89
1676,89
1677,89
1678,89
1679,89
1680,89
1681,89
1682,89
1683,90
1684,91
1685,91
1686,91
1687,91
1688,91
1689,91
1690,93
1691,93
1692,93
1693,93
1694,93
1695,93
1696,93
1697,93
1698,93
1699,93
1700,93
1701,93
1702,93
1703,93
1704,93
1705,93
1706,94
1707,94
1708,94
1709,94
1710,94
1711,94
1712,94
1713,94
1714,94
1715,94
1716,94
1717,94
1718,94
1719,94
1720,95
1721,95
1722,95
1723,95
1724,95
1725,96
1726,97
1727,97
1728,97
1729,97
1730,97
1731,97
1732,97
1733,97
1734,97
1735,97
1736,97
1737,97
1738,97
1739,97
1740,97
1741,97
1742,97
1743,97
1744,97
1745,97
1746,97
1747,97
1748,97
1749,97
1750,97
1751,97
1752,97
1753,97
1754,98
1755,98
1756,99
1757,99
1758,99
1759,99
1760,99
1761,99
1762,99
1763,99
1764,99
1765,99
1766,99
1767,99
1768,99
1769,99
1770,99
1771,99
1772,99
1773,100
1774,100
1775,100
1776,100
1777,100
1778,100
1779,100
1780,100
1781,100
1782,100
1783,100
1784,100
1785,100
1786,100
1787,101
1788,101
1789,101
1790,101
1791,102
1792,102
1793,102
1794,102
1795,102
1796,102
1797,102
1798,102
1799,102
1800,102
1801,102
1802,102
1803,102
1804,102
1805,102
1806,102
1807,102
1808,102
1809,102
1810,102
1811,102
1812,102
1813,102
1814,102
1815,102
1816,102
1817,102
1818,102
1819,102
1820,102
1821,102
1822,102
1823,102
1824,102
1825,102
1826,102
1827,102
1828,102
1829,102
1830,102
1831,102
1832,102
1833,102
1834,102
1835,102
1836,102
1837,102
1838,102
1839,102
1840,102
1841,102
1842,103
1843,103
1844,103
1845,103
1846,103
1847,103
1848,103
1849,103
1850,103
1851,103
1852,103
1853,103
1854,103
1855,103
1856,103
1857,103
1858,103
1859,103
1860,103
1861,103
1862,103
1863,103
1864,103
1865,103
1866,103
1867,103
1868,103
1869,103
1870,103
1871,103
1872,103
1873,103
1874,103
1875,103
1876,103
1877,103
1878,103
1879,103
1880,103
1881,103
1882,103
1883,103
1884,104
1885,104
1886,104
1887,104
1888,104
1889,104
1890,104
1891,104
1892,104
1893,104
1894,104
1895,104
1896,105
1897,105
1898,106
1899,106
1900,106
1901,107
1902,108
1903,108
1904,108
1905,109
1906,109
1907,109
1908,109
1909,109
1910,109
1911,109
1912,109
1913,109
1914,109
1915,109
1916,109
1917,109
1918,109
1919,109
1920,109
1921,110
1922,110
1923,110
1924,110
1925,110
1926,110
1927,110
1928,110
1929,110
1930,110
1931,110
1932,110
1933,110
1934,111
1935,111
1936,111
1937,111
1938,111
1939,111
1940,111
1941,111
1942,111
1943,111
1944,111
1945,111
1946,111
1947,111
1948,111
1949,111
1950,111
1951,111
1952,111
1953,111
1954,111
1955,111
1956,111
1957,111
1958,111
1959,111
1960,111
1961,111
1962,111
1963,111
1964,111
1965,111
1966,111
1967,111
1968,111
1969,111
1970,111
1971,111
1972,113
1973,113
1974,113
1975,113
1976,113
1977,113
1978,113
1979,113
1980,113
1981,113
1982,113
1983,113
1984,113
1985,113
1986,113
1987,113
1988,113
1989,113
1990,113
1991,113
1992,113
1993,113
1994,113
1995,113
1996,113
1997,113
1998,114
1999,114
2000,114
