"tick","total"
0,0
1,1
2,1
3,1
4,1
5,1
6,1
7,1
8,1
9,1
10,1
11,1
12,1
13,1
14,1
15,1
16,1
17,1
18,1
19,1
20,1
21,1
22,1
23,1
24,1
25,1
26,1
27,1
28,1
29,1
30,1
31,1
32,1
33,1
34,1
35,1
36,1
37,1
38,1
39,1
40,1
41,1
42,1
43,1
44,1
45,1
46,1
47,1
48,1
49,1
50,1
51,1
52,1
53,1
54,1
55,1
56,1
57,1
58,1
59,1
60,1
61,1
62,1
63,1
64,1
65,1
66,1
67,1
68,1
69,1
70,1
71,1
72,1
73,1
74,1
75,1
76,1
77,1
78,1
79,1
80,1
81,1
82,1
83,1
84,1
85,1
86,1
87,1
88,1
89,1
90,1
91,1
92,1
93,1
94,1
95,1
96,1
97,1
98,1
99,1
100,1
101,1
102,1
103,1
104,1
105,1
106,1
107,1
108,1
109,1
110,1
111,1
112,1
113,1
114,1
115,1
116,1
117,1
118,1
119,1
120,1
121,1
122,1
123,1
124,1
125,1
126,1
127,1
128,1
129,1
130,1
131,1
132,1
133,1
134,1
135,1
136,1
137,1
138,1
139,1
140,1
141,1
142,1
143,1
144,1
145,1
146,1
147,1
148,1
149,1
150,1
151,1
152,1
153,1
154,1
155,1
156,1
157,1
158,1
159,1
160,1
161,1
162,1
163,1
164,1
165,1
166,1
167,1
168,1
169,1
170,1
171,1
172,1
173,1
174,1
175,1
176,1
177,1
178,1
179,1
180,1
181,1
182,1
183,1
184,1
185,1
186,1
187,1
188,1
189,1
190,1
191,1
192,1
193,1
194,1
195,1
196,2
197,2
198,2
199,2
200,2
201,2
202,2
203,2
204,2
205,2
206,2
207,2
208,2
209,2
210,2
211,2
212,3
213,3
214,3
215,3
216,3
217,3
218,3
219,3
220,3
221,3
222,3
223,3
224,3
225,3
226,4
227,4
228,4
229,4
230,4
231,4
232,4
233,4
234,4
235,4
236,4
237,4
238,4
239,4
240,4
241,4
242,4
243,4
244,4
245,4
246,4
247,4
248,4
249,4
250,4
251,4
252,5
253,5
254,5
255,5
256,5
257,5
258,6
259,6
260,7
261,7
262,7
263,7
264,7
265,7
266,7
267,7
268,8
269,8
270,8
271,8
272,8
273,10
274,10
275,10
276,10
277,10
278,10
279,10
280,10
281,10
282,10
283,10
284,10
285,10
286,10
287,10
288,10
289,10
290,10
291,10
292,10
293,10
294,10
295,10
296,10
297,10
298,10
299,10
300,11
301,11
302,11
303,11
304,11
305,12
306,13
307,14
308,16
309,16
310,16
311,16
312,16
313,16
314,17
315,17
316,17
317,17
318,17
319,17
320,17
321,17
322,17
323,17
324,17
325,17
326,17
327,17
328,17
329,17
330,17
331,17
332,17
333,17
334,17
335,17
336,17
337,18
338,18
339,18
340,18
341,18
342,18
343,18
344,18
345,18
346,18
347,18
348,18
349,18
350,18
351,18
352,18
353,18
354,18
355,18
356,18
357,18
358,19
359,19
360,20
361,20
362,20
363,20
364,20
365,20
366,20
367,21
368,21
369,21
370,21
371,21
372,21
373,22
374,22
375,22
376,22
377,22
378,24
379,24
380,24
381,24
382,24
383,26
384,26
385,26
386,26
387,26
388,26
389,26
390,26
391,26
392,26
393,26
394,26
395,26
396,26
397,26
398,26
399,26
400,26
401,26
402,26
403,26
404,26
405,26
406,26
407,26
408,26
409,26
410,27
411,27
412,27
413,27
414,27
415,27
416,27
417,27
418,27
419,27
420,27
421,27
422,27
423,27
424,27
425,27
426,27
427,27
428,27
429,27
430,27
431,27
432,28
433,28
434,28
435,28
436,28
437,28
438,28
439,29
440,29
441,29
442,29
443,29
444,29
445,29
446,29
447,29
448,29
449,30
450,30
451,30
452,30
453,30
454,30
455,30
456,30
457,30
458,30
459,30
460,30
461,30
462,30
463,30
464,30
465,30
466,30
467,30
468,30
469,30
470,30
471,30
472,30
473,30
474,30
475,30
476,30
477,30
478,30
479,30
480,30
481,30
482,30
483,30
484,30
485,30
486,30
487,30
488,30
489,30
490,30
491,30
492,30
493,30
494,30
495,30
496,30
497,30
498,30
499,30
500,30
501,30
502,30
503,30
504,30
505,30
506,30
507,30
508,30
509,30
510,30
511,31
512,31
513,31
514,31
515,31
516,31
517,31
518,31
519,31
520,31
521,31
522,31
523,31
524,31
525,31
526,31
527,31
528,31
529,31
530,31
531,31
532,31
533,31
534,31
535,31
536,31
537,31
538,31
539,31
540,31
541,31
542,31
543,31
544,31
545,31
546,31
547,31
548,31
549,31
550,31
551,31
552,31
553,31
554,31
555,31
556,31
557,31
558,31
559,31
560,32
561,32
562,32
563,32
564,32
565,32
566,32
567,32
568,32
569,32
570,32
571,32
572,32
573,32
574,32
575,32
576,32
577,32
578,33
579,33
580,33
581,34
582,34
583,34
584,34
585,34
586,34
587,34
588,34
589,34
590,34
591,34
592,34
593,34
594,34
595,34
596,34
597,34
598,35
599,35
600,35
601,35
602,35
603,35
604,35
605,35
606,35
607,35
608,35
609,35
610,35
611,35
612,35
613,35
614,35
615,35
616,35
617,35
618,35
619,35
620,35
621,35
622,35
623,35
624,35
625,36
626,36
627,36
628,36
629,36
630,36
631,36
632,36
633,36
634,36
635,36
636,36
637,36
638,36
639,36
640,36
641,36
642,36
643,36
644,36
645,36
646,36
647,36
648,36
649,36
650,36
651,36
652,36
653,36
654,36
655,37
656,37
657,38
658,38
659,38
660,38
661,38
662,38
663,38
664,39
665,39
666,39
667,39
668,39
669,39
670,39
671,39
672,39
673,39
674,39
675,39
676,39
677,39
678,39
679,39
680,39
681,39
682,39
683,39
684,39
685,39
686,39
687,39
688,39
689,39
690,39
691,39
692,39
693,39
694,39
695,39
696,39
697,39
698,40
699,41
700,41
701,41
702,41
703,41
704,41
705,41
706,41
707,41
708,41
709,42
710,42
711,42
712,42
713,42
714,42
715,42
716,42
717,42
718,42
719,42
720,42
721,42
722,42
723,42
724,42
725,42
726,42
727,42
728,42
729,42
730,42
731,42
732,42
733,42
734,42
735,42
736,42
737,42
738,42
739,42
740,42
741,42
742,42
743,42
744,42
745,42
746,42
747,42
748,42
749,42
750,42
751,42
752,42
753,42
754,42
755,42
756,42
757,42
758,42
759,42
760,42
761,42
762,42
763,42
764,42
765,42
766,42
767,42
768,42
769,42
770,42
771,42
772,42
773,42
774,42
775,42
776,42
777,42
778,42
779,42
780,43
781,43
782,43
783,43
784,44
785,44
786,44
787,44
788,44
789,44
790,44
791,44
792,44
793,44
794,44
795,44
796,44
797,44
798,44
799,44
800,44
801,44
802,44
803,45
804,45
805,45
806,45
807,45
808,46
809,46
810,46
811,46
812,46
813,46
814,46
815,46
816,46
817,46
818,46
819,46
820,47
821,47
822,47
823,47
824,47
825,47
826,47
827,47
828,47
829,47
830,47
831,48
832,48
833,48
834,48
835,48
836,48
837,48
838,48
839,48
840,48
841,48
842,48
843,48
844,48
845,48
846,48
847,48
848,48
849,48
850,48
851,48
852,49
853,49
854,49
855,49
856,49
857,49
858,50
859,50
860,50
861,50
862,50
863,50
864,50
865,51
866,52
867,52
868,53
869,53
870,53
871,53
872,53
873,53
874,53
875,53
876,54
877,54
878,54
879,54
880,54
881,54
882,54
883,55
884,55
885,55
886,55
887,55
888,55
889,55
890,55
891,55
892,55
893,55
894,55
895,55
896,55
897,55
898,55
899,55
900,55
901,55
902,55
903,55
904,55
905,55
906,55
907,55
908,55
909,55
910,55
911,55
912,55
913,55
914,55
915,55
916,55
917,55
918,55
919,55
920,55
921,55
922,55
923,55
924,56
925,56
926,56
927,56
928,56
929,56
930,56
931,56
932,56
933,56
934,56
935,56
936,57
937,57
938,58
939,59
940,59
941,59
942,59
943,59
944,59
945,59
946,59
947,59
948,59
949,59
950,59
951,59
952,59
953,59
954,59
955,59
956,59
957,59
958,59
959,59
960,60
961,60
962,60
963,60
964,60
965,60
966,60
967,60
968,60
969,60
970,60
971,60
972,60
973,60
974,60
975,60
976,60
977,60
978,61
979,61
980,62
981,62
982,62
983,62
984,62
985,62
986,62
987,62
988,62
989,62
990,62
991,62
992,62
993,62
994,62
995,62
996,62
997,62
998,62
999,62
1000,62
1001,62
1002,62
1003,62
1004,62
1005,62
1006,62
1007,62
1008,64
1009,64
1010,64
1011,64
1012,64
1013,64
1014,64
1015,64
1016,64
1017,64
1018,64
1019,64
1020,65
1021,65
1022,65
1023,65
1024,65
1025,66
1026,66
1027,66
1028,66
1029,67
1030,67
1031,67
1032,67
1033,67
1034,67
1035,67
1036,67
1037,68
1038,68
1039,68
1040,70
1041,70
1042,70
1043,71
1044,71
1045,71
1046,72
1047,72
1048,72
1049,72
1050,72
1051,72
1052,72
1053,72
1054,72
1055,72
1056,72
1057,72
1058,73
1059,73
1060,73
1061,73
1062,73
1063,73
1064,73
1065,73
1066,73
1067,73
1068,73
1069,73
1070,73
1071,73
1072,73
1073,73
1074,73
1075,73
1076,73
1077,73
1078,73
1079,73
1080,73
1081,73
1082,73
1083,73
1084,74
1085,74
1086,75
1087,75
1088,75
1089,75
1090,75
1091,75
1092,75
1093,77
1094,77
1095,77
1096,77
1097,77
1098,77
1099,77
1100,77
1101,77
1102,77
1103,77
1104,77
1105,77
1106,77
1107,77
1108,77
1109,77
1110,77
1111,77
1112,77
1113,77
1114,77
1115,77
1116,77
1117,77
1118,77
1119,77
1120,77
1121,77
1122,77
1123,77
1124,77
1125,77
1126,77
1127,77
1128,77
1129,77
1130,77
1131,77
1132,77
1133,77
1134,77
1135,77
1136,77
1137,77
1138,77
1139,77
1140,77
1141,77
1142,77
1143,77
1144,77
1145,77
1146,77
1147,77
1148,77
1149,77
1150,77
1151,77
1152,77
1153,77
1154,78
1155,78
1156,78
1157,78
1158,78
1159,78
1160,78
1161,78
1162,78
1163,78
1164,78
1165,78
1166,78
1167,78
1168,78
1169,78
1170,78
1171,78
1172,78
1173,78
1174,78
1175,78
1176,78
1177,78
1178,78
1179,78
1180,79
1181,79
1182,79
1183,79
1184,79
1185,79
1186,79
1187,79
1188,79
1189,79
1190,79
1191,79
1192,79
1193,79
1194,79
1195,79
1196,79
1197,79
1198,79
1199,79
1200,79
1201,79
1202,79
1203,79
1204,79
1205,79
1206,79
1207,79
1208,79
1209,79
1210,79
1211,79
1212,79
1213,79
1214,79
1215,79
1216,79
1217,79
1218,79
1219,79
1220,79
1221,79
1222,79
1223,79
1224,79
1225,79
1226,79
1227,79
1228,79
1229,79
1230,79
1231,79
1232,79
1233,79
1234,79
1235,79
1236,79
1237,79
1238,79
1239,79
1240,79
1241,80
1242,80
1243,80
1244,80
1245,80
1246,80
1247,80
1248,80
1249,80
1250,80
1251,80
1252,80
1253,80
1254,80
1255,80
1256,80
1257,80
1258,80
1259,80
1260,80
1261,80
1262,80
1263,80
1264,80
1265,80
1266,80
1267,80
1268,80
1269,80
1270,80
1271,80
1272,80
1273,80
1274,80
1275,80
1276,80
1277,80
1278,80
1279,80
1280,80
1281,80
1282,80
1283,80
1284,80
1285,80
1286,80
1287,80
1288,80
1289,80
1290,80
1291,80
1292,80
1293,80
1294,80
1295,80
1296,80
1297,80
1298,80
1299,80
1300,80
1301,80
1302,80
1303,80
1304,80
1305,80
1306,80
1307,80
1308,80
1309,80
1310,80
1311,80
1312,80
1313,80
1314,80
1315,80
1316,80
1317,80
1318,80
1319,80
1320,80
1321,80
1322,80
1323,80
1324,81
1325,81
1326,81
1327,82
1328,82
1329,82
1330,82
1331,82
1332,82
1333,82
1334,82
1335,82
1336,82
1337,82
1338,82
1339,82
1340,82
1341,82
1342,82
1343,82
1344,82
1345,82
1346,82
1347,82
1348,82
1349,82
1350,82
1351,82
1352,82
1353,82
1354,82
1355,82
1356,82
1357,82
1358,82
1359,82
1360,82
1361,82
1362,82
1363,82
1364,82
1365,82
1366,82
1367,82
1368,82
1369,82
1370,82
1371,82
1372,82
1373,82
1374,82
1375,82
1376,82
1377,82
1378,82
1379,82
1380,82
1381,82
1382,82
1383,82
1384,82
1385,82
1386,82
1387,82
1388,82
1389,82
1390,82
1391,82
1392,82
1393,82
1394,82
1395,82
1396,82
1397,82
1398,82
1399,82
1400,82
1401,82
1402,82
1403,82
1404,82
1405,82
1406,82
1407,82
1408,82
1409,82
1410,82
1411,82
1412,82
1413,82
1414,82
1415,82
1416,82
1417,82
1418,82
1419,82
1420,82
1421,82
1422,82
1423,82
1424,82
1425,82
1426,82
1427,82
1428,82
1429,82
1430,82
1431,82
1432,82
1433,82
1434,82
1435,82
1436,82
1437,82
1438,82
1439,82
1440,82
1441,82
1442,82
1443,82
1444,83
1445,83
1446,83
1447,83
1448,83
1449,83
1450,83
1451,83
1452,83
1453,83
1454,84
1455,84
1456,84
1457,84
1458,84
1459,84
1460,84
1461,84
1462,84
1463,84
1464,84
1465,84
1466,84
1467,85
1468,85
1469,85
1470,85
1471,85
1472,85
1473,85
1474,85
1475,85
1476,85
1477,85
1478,85
1479,85
1480,85
1481,87
1482,88
1483,88
1484,89
1485,89
1486,89
1487,89
1488,90
1489,90
1490,90
1491,90
1492,90
1493,90
1494,90
1495,90
1496,90
1497,90
1498,90
1499,90
1500,90
1501,90
1502,90
1503,90
1504,90
1505,90
1506,90
1507,90
1508,90
1509,90
1510,90
1511,90
1512,90
1513,90
1514,90
1515,90
1516,90
1517,90
1518,90
1519,90
1520,90
1521,90
1522,90
1523,90
1524,90
1525,90
1526,90
1527,90
1528,90
1529,90
1530,90
1531,90
1532,90
1533,90
1534,90
1535,90
1536,90
1537,90
1538,91
1539,91
1540,91
1541,91
1542,91
1543,91
1544,91
1545,91
1546,91
1547,91
1548,91
1549,91
1550,91
1551,91
1552,91
1553,91
1554,91
1555,91
1556,91
1557,91
1558,91
1559,91
1560,91
1561,91
1562,91
1563,92
1564,92
1565,92
1566,92
1567,92
1568,92
1569,93
1570,93
1571,93
1572,93
1573,93
1574,93
1575,93
1576,93
1577,93
1578,93
1579,93
1580,93
1581,93
1582,93
1583,93
1584,94
1585,94
1586,94
1587,94
1588,94
1589,95
1590,95
1591,95
1592,96
1593,96
1594,96
1595,96
1596,96
1597,96
1598,96
1599,96
1600,96
1601,97
1602,97
1603,97
1604,97
1605,97
1606,97
1607,98
1608,98
1609,98
1610,98
1611,98
1612,98
1613,98
1614,98
1615,98
1616,98
1617,98
1618,98
1619,98
1620,98
1621,98
1622,98
1623,98
1624,98
1625,98
1626,98
1627,98
1628,98
1629,98
1630,98
1631,98
1632,98
1633,98
1634,98
1635,98
1636,98
1637,98
1638,98
1639,98
1640,98
1641,98
1642,98
1643,98
1644,98
1645,98
1646,98
1647,98
1648,98
1649,98
1650,98
1651,99
1652,99
1653,99
1654,99
1655,99
1656,99
1657,99
1658,100
1659,100
1660,100
1661,100
1662,100
1663,100
1664,100
1665,100
1666,100
1667,100
1668,100
1669,100
1670,100
1671,100
1672,101
1673,101
1674,101
1675,101
1676,101
1677,101
1678,101
1679,101
1680,101
1681,101
1682,102
1683,102
1684,102
1685,102
1686,102
1687,102
1688,102
1689,102
1690,102
1691,102
1692,102
1693,102
1694,102
1695,102
1696,102
1697,102
1698,102
1699,102
1700,102
1701,103
1702,103
1703,103
1704,103
1705,103
1706,103
1707,103
1708,103
1709,103
1710,103
1711,103
1712,103
1713,103
1714,103
1715,103
1716,103
1717,103
1718,103
1719,103
1720,103
1721,103
1722,103
1723,103
1724,103
1725,103
1726,103
1727,103
1728,103
1729,103
1730,103
1731,103
1732,103
1733,103
1734,103
1735,103
1736,103
1737,103
1738,103
1739,103
1740,103
1741,103
1742,103
1743,103
1744,103
1745,103
1746,103
1747,103
1748,103
1749,103
1750,103
1751,103
1752,103
1753,103
1754,103
1755,103
1756,103
1757,103
1758,103
1759,103
1760,104
1761,105
1762,105
1763,105
1764,105
1765,105
1766,105
1767,105
1768,105
1769,105
1770,105
1771,105
1772,105
1773,105
1774,105
1775,105
1776,105
1777,105
1778,105
1779,105
1780,106
1781,106
1782,106
1783,106
1784,106
1785,106
1786,106
1787,106
1788,106
1789,106
1790,106
1791,107
1792,107
1793,107
1794,107
1795,107
1796,107
1797,107
1798,107
1799,107
1800,107
1801,107
1802,108
1803,108
1804,108
1805,108
1806,108
1807,108
1808,108
1809,108
1810,108
1811,108
1812,108
1813,108
1814,108
1815,108
1816,108
1817,108
1818,108
1819,108
1820,108
1821,108
1822,108
1823,108
1824,108
1825,108
1826,108
1827,108
1828,108
1829,108
1830,108
1831,108
1832,108
1833,108
1834,108
1835,108
1836,109
1837,110
1838,110
1839,110
1840,110
1841,110
1842,110
1843,110
1844,110
1845,110
1846,110
1847,110
1848,110
1849,110
1850,110
1851,110
1852,110
1853,110
1854,110
1855,111
1856,111
1857,111
1858,111
1859,111
1860,111
1861,111
1862,112
1863,113
1864,113
1865,113
1866,113
1867,113
1868,113
1869,113
1870,113
1871,113
1872,113
1873,113
1874,113
1875,113
1876,113
1877,113
1878,113
1879,113
1880,113
1881,113
1882,113
1883,113
1884,113
1885,113
1886,113
1887,113
1888,113
1889,113
1890,113
1891,113
1892,113
1893,113
1894,113
1895,113
1896,113
1897,113
1898,113
1899,113
1900,113
1901,113
1902,113
1903,113
1904,113
1905,113
1906,113
1907,113
1908,113
1909,113
1910,113
1911,113
1912,113
1913,113
1914,113
1915,113
1916,113
1917,113
1918,113
1919,113
1920,113
1921,113
1922,113
1923,113
1924,113
1925,113
1926,113
1927,113
1928,113
1929,113
1930,113
1931,113
1932,113
1933,113
1934,113
1935,113
1936,113
1937,113
1938,113
1939,113
1940,113
1941,113
1942,113
1943,113
1944,113
1945,113
1946,113
1947,113
1948,113
1949,113
1950,113
1951,113
1952,113
1953,113
1954,113
1955,113
1956,113
1957,113
1958,113
1959,113
1960,113
1961,113
1962,113
1963,113
1964,113
1965,113
1966,113
1967,113
1968,113
1969,113
1970,114
1971,114
1972,114
1973,114
1974,114
1975,114
1976,114
1977,114
1978,114
1979,114
1980,114
1981,114
1982,114
1983,114
1984,114
1985,114
1986,114
1987,114
1988,114
1989,114
1990,114
1991,114
1992,114
1993,114
1994,114
1995,114
1996,114
1997,114
1998,114
1999,114
2000,114
