"tick","total"
0,0
1,0
2,0
3,0
4,0
5,0
6,0
7,0
8,0
9,0
10,0
11,0
12,0
13,0
14,0
15,0
16,0
17,0
18,0
19,0
20,0
21,0
22,0
23,0
24,0
25,0
26,0
27,0
28,0
29,0
30,0
31,0
32,0
33,0
34,0
35,0
36,0
37,0
38,0
39,0
40,0
41,0
42,0
43,0
44,0
45,0
46,0
47,0
48,0
49,0
50,0
51,0
52,0
53,0
54,0
55,0
56,0
57,0
58,0
59,0
60,0
61,0
62,0
63,0
64,0
65,0
66,0
67,0
68,0
69,0
70,0
71,0
72,0
73,0
74,0
75,0
76,0
77,0
78,0
79,0
80,0
81,0
82,0
83,0
84,0
85,0
86,0
87,0
88,0
89,0
90,0
91,0
92,0
93,0
94,0
95,0
96,0
97,0
98,0
99,0
100,0
101,0
102,0
103,0
104,0
105,0
106,0
107,0
108,0
109,0
110,0
111,0
112,0
113,0
114,0
115,0
116,0
117,0
118,0
119,0
120,0
121,0
122,0
123,0
124,0
125,0
126,0
127,0
128,0
129,0
130,0
131,0
132,0
133,0
134,0
135,0
136,0
137,0
138,0
139,0
140,0
141,0
142,0
143,0
144,0
145,0
146,0
147,0
148,0
149,0
150,0
151,0
152,0
153,0
154,0
155,0
156,0
157,0
158,0
159,0
160,0
161,0
162,0
163,0
164,0
165,0
166,0
167,0
168,0
169,0
170,0
171,0
172,0
173,0
174,0
175,0
176,0
177,0
178,0
179,0
180,0
181,0
182,0
183,0
184,0
185,0
186,0
187,0
188,0
189,0
190,0
191,0
192,0
193,0
194,0
195,0
196,0
197,0
198,0
199,0
200,0
201,0
202,0
203,0
204,0
205,0
206,0
207,0
208,0
209,0
210,0
211,0
212,0
213,0
214,0
215,0
216,0
217,0
218,0
219,0
220,0
221,0
222,0
223,0
224,0
225,0
226,0
227,0
228,0
229,0
230,0
231,0
232,0
233,0
234,1
235,1
236,1
237,1
238,1
239,1
240,2
241,2
242,2
243,3
244,3
245,3
246,3
247,3
248,3
249,3
250,3
251,4
252,4
253,4
254,4
255,4
256,4
257,4
258,4
259,4
260,4
261,4
262,4
263,4
264,4
265,4
266,4
267,4
268,5
269,5
270,5
271,5
272,5
273,5
274,6
275,7
276,7
277,7
278,7
279,7
280,7
281,7
282,7
283,7
284,8
285,8
286,8
287,8
288,8
289,8
290,9
291,9
292,9
293,9
294,11
295,11
296,11
297,11
298,11
299,11
300,11
301,11
302,12
303,12
304,12
305,12
306,12
307,12
308,12
309,12
310,12
311,12
312,12
313,12
314,12
315,12
316,12
317,12
318,12
319,12
320,12
321,12
322,12
323,12
324,12
325,12
326,12
327,12
328,12
329,12
330,13
331,13
332,14
333,14
334,14
335,15
336,15
337,15
338,16
339,16
340,16
341,16
342,16
343,16
344,16
345,16
346,16
347,16
348,16
349,16
350,16
351,16
352,16
353,16
354,16
355,16
356,16
357,16
358,16
359,16
360,16
361,16
362,17
363,17
364,17
365,18
366,18
367,19
368,19
369,19
370,19
371,19
372,19
373,19
374,20
375,20
376,20
377,20
378,20
379,20
380,21
381,21
382,21
383,21
384,21
385,21
386,21
387,21
388,22
389,22
390,23
391,23
392,23
393,23
394,23
395,23
396,23
397,23
398,23
399,24
400,24
401,24
402,24
403,24
404,24
405,24
406,24
407,24
408,24
409,24
410,24
411,24
412,24
413,24
414,24
415,24
416,24
417,24
418,24
419,24
420,24
421,24
422,24
423,24
424,24
425,24
426,24
427,24
428,25
429,25
430,25
431,25
432,25
433,25
434,25
435,26
436,26
437,26
438,26
439,26
440,26
441,26
442,26
443,26
444,26
445,26
446,26
447,26
448,26
449,26
450,26
451,26
452,26
453,26
454,26
455,26
456,26
457,26
458,26
459,26
460,26
461,26
462,26
463,26
464,26
465,26
466,26
467,26
468,26
469,26
470,26
471,26
472,26
473,26
474,26
475,26
476,26
477,26
478,26
479,26
480,26
481,26
482,26
483,26
484,26
485,26
486,26
487,26
488,26
489,26
490,26
491,26
492,26
493,26
494,26
495,26
496,26
497,26
498,26
499,26
500,26
501,26
502,26
503,26
504,26
505,26
506,26
507,26
508,26
509,26
510,26
511,26
512,26
513,26
514,26
515,26
516,26
517,26
518,26
519,26
520,26
521,26
522,26
523,26
524,26
525,26
526,26
527,26
528,26
529,26
530,26
531,26
532,26
533,26
534,26
535,26
536,26
537,26
538,26
539,26
540,26
541,26
542,26
543,26
544,26
545,26
546,26
547,26
548,26
549,26
550,26
551,26
552,26
553,26
554,26
555,26
556,26
557,27
558,27
559,27
560,27
561,27
562,27
563,27
564,27
565,27
566,27
567,27
568,27
569,27
570,27
571,27
572,27
573,27
574,27
575,27
576,28
577,28
578,28
579,28
580,28
581,28
582,28
583,28
584,28
585,28
586,28
587,28
588,28
589,28
590,28
591,28
592,28
593,28
594,28
595,28
596,28
597,28
598,28
599,28
600,28
601,28
602,28
603,28
604,28
605,28
606,28
607,28
608,28
609,28
610,28
611,28
612,28
613,28
614,29
615,29
616,29
617,29
618,29
619,29
620,29
621,29
622,29
623,29
624,29
625,29
626,29
627,29
628,29
629,29
630,29
631,29
632,29
633,29
634,29
635,29
636,29
637,29
638,29
639,29
640,29
641,29
642,29
643,29
644,29
645,30
646,30
647,30
648,30
649,30
650,30
651,30
652,30
653,30
654,30
655,30
656,30
657,30
658,30
659,30
660,30
661,30
662,30
663,30
664,30
665,30
666,30
667,30
668,30
669,30
670,30
671,30
672,30
673,30
674,30
675,31
676,31
677,31
678,31
679,31
680,31
681,31
682,31
683,31
684,31
685,32
686,32
687,32
688,32
689,32
690,32
691,32
692,32
693,32
694,32
695,32
696,32
697,32
698,32
699,32
700,32
701,32
702,32
703,32
704,32
705,32
706,32
707,32
708,32
709,32
710,32
711,32
712,32
713,32
714,32
715,32
716,32
717,32
718,32
719,32
720,32
721,32
722,32
723,32
724,32
725,32
726,32
727,32
728,32
729,32
730,32
731,33
732,33
733,33
734,33
735,33
736,33
737,33
738,33
739,33
740,33
741,33
742,33
743,33
744,33
745,33
746,33
747,33
748,33
749,33
750,33
751,33
752,33
753,33
754,33
755,33
756,33
757,33
758,33
759,33
760,33
761,33
762,33
763,33
764,33
765,33
766,33
767,34
768,34
769,34
770,34
771,34
772,34
773,34
774,34
775,34
776,34
777,34
778,34
779,34
780,34
781,34
782,34
783,34
784,34
785,34
786,34
787,34
788,35
789,35
790,35
791,35
792,35
793,35
794,35
795,35
796,35
797,35
798,35
799,35
800,35
801,35
802,35
803,36
804,36
805,36
806,36
807,36
808,36
809,36
810,36
811,36
812,36
813,36
814,36
815,36
816,36
817,36
818,36
819,36
820,36
821,36
822,36
823,37
824,37
825,37
826,37
827,37
828,37
829,37
830,37
831,37
832,37
833,37
834,37
835,37
836,37
837,37
838,37
839,37
840,37
841,37
842,37
843,37
844,37
845,37
846,37
847,37
848,37
849,38
850,38
851,38
852,38
853,38
854,38
855,38
856,38
857,38
858,38
859,38
860,38
861,38
862,38
863,39
864,39
865,39
866,40
867,40
868,40
869,40
870,40
871,40
872,40
873,40
874,40
875,40
876,41
877,41
878,41
879,41
880,41
881,41
882,41
883,41
884,41
885,41
886,41
887,41
888,41
889,41
890,42
891,42
892,42
893,42
894,42
895,42
896,42
897,42
898,42
899,42
900,43
901,43
902,43
903,43
904,43
905,43
906,43
907,43
908,43
909,43
910,43
911,43
912,43
913,44
914,44
915,44
916,44
917,44
918,44
919,44
920,44
921,44
922,44
923,44
924,44
925,44
926,44
927,44
928,44
929,44
930,44
931,44
932,44
933,44
934,44
935,44
936,44
937,44
938,44
939,44
940,44
941,44
942,44
943,44
944,44
945,45
946,45
947,45
948,45
949,45
950,45
951,45
952,45
953,45
954,45
955,45
956,45
957,45
958,45
959,45
960,45
961,45
962,45
963,45
964,45
965,45
966,45
967,45
968,45
969,45
970,45
971,45
972,45
973,45
974,45
975,45
976,45
977,45
978,45
979,45
980,45
981,45
982,45
983,45
984,45
985,45
986,45
987,45
988,45
989,45
990,45
991,45
992,45
993,45
994,45
995,45
996,45
997,45
998,45
999,45
1000,45
1001,45
1002,45
1003,45
1004,45
1005,45
1006,45
1007,45
1008,45
1009,45
1010,45
1011,45
1012,45
1013,45
1014,45
1015,45
1016,46
1017,46
1018,46
1019,46
1020,46
1021,46
1022,46
1023,46
1024,46
1025,46
1026,46
1027,46
1028,46
1029,46
1030,46
1031,46
1032,46
1033,46
1034,46
1035,46
1036,46
1037,46
1038,46
1039,46
1040,46
1041,46
1042,46
1043,46
1044,46
1045,46
1046,46
1047,46
1048,46
1049,46
1050,46
1051,46
1052,46
1053,47
1054,47
1055,47
1056,47
1057,47
1058,47
1059,47
1060,48
1061,48
1062,48
1063,48
1064,48
1065,48
1066,48
1067,48
1068,48
1069,48
1070,48
1071,48
1072,48
1073,48
1074,48
1075,48
1076,48
1077,48
1078,48
1079,48
1080,48
1081,48
1082,48
1083,48
1084,48
1085,48
1086,48
1087,48
1088,48
1089,48
1090,48
1091,48
1092,48
1093,48
1094,48
1095,48
1096,48
1097,48
1098,48
1099,48
1100,48
1101,48
1102,48
1103,48
1104,48
1105,49
1106,49
1107,50
1108,50
1109,50
1110,50
1111,50
1112,50
1113,50
1114,50
1115,50
1116,50
1117,50
1118,50
1119,50
1120,50
1121,50
1122,50
1123,50
1124,50
1125,50
1126,50
1127,50
1128,50
1129,50
1130,50
1131,50
1132,50
1133,50
1134,50
1135,50
1136,50
1137,50
1138,50
1139,50
1140,50
1141,50
1142,50
1143,50
1144,50
1145,50
1146,50
1147,50
1148,50
1149,50
1150,50
1151,50
1152,50
1153,50
1154,50
1155,50
1156,50
1157,50
1158,50
1159,50
1160,50
1161,50
1162,50
1163,50
1164,50
1165,50
1166,50
1167,50
1168,50
1169,50
1170,50
1171,50
1172,50
1173,50
1174,50
1175,50
1176,50
1177,50
1178,50
1179,50
1180,50
1181,50
1182,50
1183,50
1184,50
1185,50
1186,50
1187,50
1188,50
1189,50
1190,50
1191,50
1192,50
1193,50
1194,50
1195,50
1196,50
1197,50
1198,50
1199,50
1200,50
1201,50
1202,50
1203,50
1204,50
1205,50
1206,50
1207,50
1208,50
1209,50
1210,51
1211,51
1212,51
1213,51
1214,51
1215,51
1216,51
1217,51
1218,51
1219,51
1220,51
1221,51
1222,51
1223,51
1224,51
1225,51
1226,51
1227,51
1228,51
1229,51
1230,51
1231,51
1232,51
1233,51
1234,52
1235,52
1236,52
1237,52
1238,52
1239,52
1240,52
1241,52
1242,52
1243,53
1244,53
1245,53
1246,53
1247,53
1248,53
1249,53
1250,53
1251,53
1252,53
1253,53
1254,53
1255,53
1256,53
1257,53
1258,53
1259,53
1260,53
1261,53
1262,53
1263,53
1264,53
1265,54
1266,55
1267,56
1268,57
1269,58
1270,59
1271,60
1272,61
1273,61
1274,61
1275,61
1276,61
1277,61
1278,61
1279,61
1280,61
1281,61
1282,61
1283,61
1284,61
1285,61
1286,61
1287,61
1288,61
1289,61
1290,61
1291,61
1292,61
1293,61
1294,61
1295,61
1296,61
1297,61
1298,61
1299,61
1300,61
1301,61
1302,61
1303,61
1304,61
1305,61
1306,61
1307,61
1308,61
1309,62
1310,62
1311,62
1312,62
1313,62
1314,62
1315,62
1316,62
1317,62
1318,62
1319,62
1320,62
1321,62
1322,62
1323,62
1324,62
1325,62
1326,62
1327,62
1328,62
1329,62
1330,62
1331,62
1332,62
1333,62
1334,62
1335,62
1336,62
1337,62
1338,62
1339,62
1340,62
1341,62
1342,62
1343,62
1344,62
1345,63
1346,63
1347,63
1348,63
1349,63
1350,63
1351,63
1352,63
1353,63
1354,63
1355,63
1356,63
1357,64
1358,64
1359,64
1360,64
1361,64
1362,64
1363,64
1364,64
1365,64
1366,64
1367,64
1368,64
1369,64
1370,64
1371,64
1372,64
1373,64
1374,64
1375,64
1376,64
1377,64
1378,64
1379,64
1380,64
1381,64
1382,64
1383,64
1384,64
1385,64
1386,64
1387,66
1388,66
1389,66
1390,66
1391,66
1392,66
1393,66
1394,66
1395,66
1396,66
1397,66
1398,66
1399,66
1400,66
1401,66
1402,66
1403,66
1404,66
1405,66
1406,66
1407,66
1408,66
1409,66
1410,66
1411,66
1412,66
1413,66
1414,66
1415,66
1416,66
1417,67
1418,67
1419,67
1420,67
1421,67
1422,67
1423,67
1424,67
1425,67
1426,67
1427,67
1428,67
1429,67
1430,67
1431,67
1432,67
1433,67
1434,67
1435,67
1436,67
1437,67
1438,67
1439,67
1440,67
1441,69
1442,69
1443,70
1444,70
1445,70
1446,70
1447,70
1448,70
1449,70
1450,70
1451,70
1452,70
1453,70
1454,70
1455,70
1456,70
1457,70
1458,70
1459,70
1460,70
1461,70
1462,70
1463,70
1464,70
1465,70
1466,70
1467,70
1468,70
1469,70
1470,70
1471,70
1472,70
1473,71
1474,71
1475,71
1476,71
1477,71
1478,71
1479,71
1480,71
1481,71
1482,71
1483,71
1484,72
1485,72
1486,72
1487,72
1488,72
1489,72
1490,72
1491,72
1492,72
1493,72
1494,72
1495,72
1496,72
1497,73
1498,73
1499,73
1500,73
1501,73
1502,73
1503,73
1504,73
1505,73
1506,73
1507,73
1508,73
1509,73
1510,73
1511,73
1512,73
1513,73
1514,73
1515,73
1516,73
1517,73
1518,73
1519,74
1520,74
1521,74
1522,74
1523,74
1524,74
1525,74
1526,74
1527,75
1528,75
1529,75
1530,75
1531,75
1532,75
1533,75
1534,75
1535,76
1536,76
1537,76
1538,76
1539,76
1540,76
1541,76
1542,76
1543,76
1544,76
1545,76
1546,76
1547,76
1548,76
1549,76
1550,76
1551,76
1552,76
1553,76
1554,77
1555,77
1556,78
1557,79
1558,79
1559,79
1560,80
1561,81
1562,81
1563,81
1564,81
1565,81
1566,81
1567,81
1568,81
1569,82
1570,82
1571,82
1572,82
1573,82
1574,82
1575,82
1576,82
1577,82
1578,82
1579,82
1580,82
1581,82
1582,82
1583,82
1584,83
1585,83
1586,83
1587,83
1588,83
1589,83
1590,83
1591,83
1592,83
1593,83
1594,83
1595,83
1596,84
1597,84
1598,84
1599,84
1600,84
1601,84
1602,84
1603,84
1604,84
1605,84
1606,84
1607,84
1608,84
1609,84
1610,84
1611,84
1612,84
1613,84
1614,85
1615,85
1616,85
1617,85
1618,85
1619,85
1620,85
1621,85
1622,85
1623,85
1624,85
1625,85
1626,85
1627,85
1628,85
1629,85
1630,85
1631,85
1632,85
1633,86
1634,86
1635,86
1636,86
1637,86
1638,86
1639,86
1640,86
1641,86
1642,86
1643,86
1644,86
1645,86
1646,86
1647,86
1648,86
1649,86
1650,86
1651,86
1652,86
1653,86
1654,87
1655,87
1656,87
1657,87
1658,87
1659,87
1660,87
1661,88
1662,88
1663,88
1664,88
1665,88
1666,88
1667,88
1668,88
1669,88
1670,88
1671,88
1672,88
1673,88
1674,88
1675,88
1676,88
1677,88
1678,88
1679,88
1680,88
1681,88
1682,88
1683,88
1684,89
1685,89
1686,89
1687,89
1688,89
1689,89
1690,89
1691,89
1692,89
1693,89
1694,89
1695,89
1696,89
1697,89
1698,89
1699,89
1700,89
1701,90
1702,90
1703,90
1704,90
1705,90
1706,90
1707,90
1708,90
1709,90
1710,90
1711,90
1712,90
1713,90
1714,90
1715,90
1716,90
1717,90
1718,90
1719,90
1720,90
1721,90
1722,90
1723,90
1724,90
1725,90
1726,90
1727,90
1728,90
1729,90
1730,90
1731,90
1732,90
1733,90
1734,90
1735,90
1736,90
1737,90
1738,90
1739,90
1740,90
1741,90
1742,90
1743,90
1744,90
1745,90
1746,90
1747,90
1748,90
1749,90
1750,91
1751,91
1752,91
1753,91
1754,91
1755,91
1756,91
1757,91
1758,91
1759,91
1760,91
1761,91
1762,91
1763,91
1764,91
1765,91
1766,91
1767,91
1768,91
1769,91
1770,91
1771,91
1772,91
1773,92
1774,92
1775,93
1776,93
1777,93
1778,93
1779,94
1780,94
1781,94
1782,94
1783,94
1784,94
1785,94
1786,94
1787,94
1788,94
1789,94
1790,94
1791,94
1792,94
1793,94
1794,94
1795,94
1796,94
1797,94
1798,94
1799,94
1800,94
1801,94
1802,94
1803,94
1804,94
1805,95
1806,95
1807,95
1808,95
1809,95
1810,95
1811,95
1812,95
1813,95
1814,95
1815,95
1816,95
1817,95
1818,95
1819,95
1820,95
1821,95
1822,95
1823,95
1824,95
1825,95
1826,95
1827,95
1828,95
1829,95
1830,95
1831,95
1832,95
1833,95
1834,95
1835,95
1836,95
1837,95
1838,95
1839,95
1840,95
1841,95
1842,95
1843,95
1844,95
1845,95
1846,95
1847,95
1848,95
1849,95
1850,95
1851,95
1852,95
1853,95
1854,95
1855,95
1856,95
1857,95
1858,96
1859,96
1860,96
1861,96
1862,96
1863,96
1864,96
1865,96
1866,96
1867,96
1868,96
1869,96
1870,96
1871,96
1872,96
1873,96
1874,96
1875,96
1876,96
1877,96
1878,96
1879,96
1880,96
1881,96
1882,96
1883,96
1884,96
1885,96
1886,97
1887,97
1888,97
1889,97
1890,97
1891,97
1892,97
1893,97
1894,97
1895,97
1896,97
1897,98
1898,98
1899,98
1900,99
1901,99
1902,99
1903,99
1904,99
1905,99
1906,99
1907,99
1908,99
1909,99
1910,99
1911,99
1912,99
1913,99
1914,99
1915,99
1916,99
1917,99
1918,99
1919,99
1920,99
1921,99
1922,99
1923,99
1924,99
1925,99
1926,99
1927,99
1928,99
1929,99
1930,99
1931,99
1932,99
1933,99
1934,99
1935,99
1936,99
1937,99
1938,99
1939,99
1940,99
1941,99
1942,100
1943,101
1944,102
1945,103
1946,103
1947,103
1948,103
1949,103
1950,103
1951,103
1952,104
1953,104
1954,104
1955,104
1956,104
1957,104
1958,104
1959,104
1960,104
1961,104
1962,104
1963,104
1964,104
1965,104
1966,104
1967,104
1968,104
1969,104
1970,104
1971,104
1972,104
1973,104
1974,104
1975,104
1976,104
1977,104
1978,104
1979,104
1980,104
1981,104
1982,104
1983,104
1984,104
1985,104
1986,104
1987,104
1988,104
1989,104
1990,104
1991,104
1992,104
1993,104
1994,104
1995,104
1996,104
1997,104
1998,104
1999,104
2000,104
