"tick","total"
0,0
1,0
2,0
3,0
4,0
5,0
6,0
7,0
8,0
9,0
10,0
11,0
12,0
13,0
14,0
15,0
16,0
17,0
18,0
19,0
20,0
21,0
22,0
23,0
24,0
25,0
26,0
27,0
28,0
29,0
30,0
31,0
32,0
33,0
34,0
35,0
36,0
37,0
38,0
39,0
40,0
41,0
42,0
43,0
44,0
45,0
46,0
47,0
48,0
49,0
50,0
51,0
52,0
53,0
54,0
55,0
56,0
57,0
58,0
59,0
60,0
61,0
62,0
63,0
64,0
65,0
66,0
67,0
68,0
69,0
70,0
71,0
72,0
73,0
74,0
75,0
76,0
77,0
78,0
79,0
80,0
81,0
82,0
83,0
84,0
85,0
86,0
87,0
88,0
89,0
90,0
91,0
92,0
93,0
94,0
95,0
96,0
97,0
98,0
99,0
100,0
101,0
102,0
103,0
104,0
105,0
106,0
107,0
108,0
109,0
110,0
111,0
112,0
113,0
114,0
115,0
116,0
117,0
118,0
119,0
120,0
121,0
122,1
123,2
124,2
125,2
126,3
127,3
128,3
129,3
130,3
131,3
132,4
133,4
134,4
135,5
136,7
137,7
138,7
139,7
140,7
141,7
142,7
143,7
144,7
145,7
146,7
147,7
148,7
149,7
150,7
151,7
152,8
153,8
154,8
155,8
156,8
157,8
158,8
159,8
160,8
161,8
162,8
163,9
164,9
165,9
166,9
167,9
168,9
169,9
170,9
171,9
172,10
173,10
174,10
175,11
176,11
177,13
178,13
179,13
180,13
181,13
182,14
183,15
184,15
185,15
186,15
187,15
188,15
189,15
190,15
191,15
192,15
193,15
194,16
195,16
196,17
197,17
198,17
199,17
200,17
201,17
202,17
203,17
204,17
205,17
206,17
207,17
208,17
209,17
210,17
211,17
212,17
213,17
214,17
215,17
216,17
217,18
218,18
219,18
220,18
221,18
222,18
223,18
224,18
225,18
226,18
227,18
228,18
229,18
230,18
231,19
232,19
233,19
234,19
235,19
236,19
237,19
238,19
239,19
240,20
241,20
242,20
243,20
244,21
245,21
246,21
247,21
248,21
249,21
250,22
251,22
252,22
253,22
254,22
255,22
256,22
257,22
258,22
259,22
260,22
261,22
262,22
263,22
264,22
265,22
266,22
267,22
268,22
269,22
270,22
271,22
272,22
273,23
274,24
275,24
276,24
277,24
278,24
279,24
280,24
281,24
282,25
283,25
284,25
285,25
286,25
287,25
288,25
289,25
290,25
291,25
292,25
293,25
294,25
295,25
296,25
297,25
298,25
299,25
300,25
301,25
302,26
303,26
304,26
305,26
306,26
307,26
308,26
309,26
310,26
311,26
312,26
313,26
314,26
315,26
316,26
317,26
318,26
319,26
320,26
321,26
322,26
323,26
324,26
325,26
326,26
327,26
328,26
329,26
330,26
331,26
332,26
333,26
334,26
335,26
336,27
337,27
338,27
339,27
340,27
341,27
342,27
343,27
344,27
345,27
346,27
347,27
348,27
349,27
350,27
351,27
352,27
353,27
354,27
355,27
356,27
357,27
358,27
359,27
360,27
361,27
362,27
363,27
364,27
365,28
366,28
367,28
368,28
369,28
370,28
371,28
372,28
373,28
374,28
375,28
376,28
377,28
378,28
379,28
380,28
381,28
382,28
383,28
384,28
385,28
386,28
387,28
388,28
389,28
390,28
391,28
392,28
393,28
394,28
395,28
396,28
397,28
398,28
399,28
400,28
401,28
402,28
403,29
404,29
405,29
406,29
407,29
408,29
409,30
410,30
411,30
412,30
413,30
414,31
415,31
416,31
417,31
418,31
419,31
420,31
421,31
422,31
423,31
424,31
425,31
426,31
427,31
428,31
429,31
430,31
431,31
432,31
433,31
434,31
435,31
436,31
437,31
438,31
439,31
440,31
441,31
442,31
443,31
444,31
445,31
446,31
447,31
448,31
449,32
450,33
451,33
452,33
453,33
454,33
455,33
456,33
457,33
458,33
459,33
460,33
461,33
462,33
463,33
464,33
465,33
466,33
467,33
468,33
469,34
470,34
471,34
472,34
473,34
474,35
475,35
476,35
477,35
478,35
479,36
480,36
481,36
482,36
483,36
484,36
485,36
486,36
487,36
488,36
489,36
490,36
491,36
492,36
493,36
494,36
495,36
496,36
497,36
498,36
499,36
500,36
501,36
502,36
503,36
504,37
505,37
506,37
507,37
508,37
509,37
510,37
511,37
512,37
513,37
514,37
515,37
516,37
517,37
518,38
519,38
520,38
521,38
522,38
523,38
524,38
525,39
526,39
527,39
528,39
529,39
530,39
531,39
532,39
533,39
534,39
535,39
536,39
537,39
538,39
539,39
540,39
541,39
542,39
543,39
544,39
545,39
546,39
547,39
548,39
549,39
550,40
551,40
552,40
553,40
554,40
555,40
556,40
557,40
558,40
559,40
560,40
561,40
562,40
563,40
564,41
565,41
566,41
567,42
568,42
569,42
570,42
571,42
572,42
573,42
574,42
575,42
576,42
577,42
578,42
579,42
580,42
581,42
582,42
583,42
584,43
585,44
586,44
587,44
588,44
589,44
590,44
591,45
592,45
593,45
594,45
595,45
596,45
597,45
598,45
599,45
600,45
601,45
602,46
603,46
604,46
605,46
606,46
607,46
608,46
609,46
610,46
611,46
612,46
613,46
614,46
615,46
616,46
617,46
618,46
619,46
620,46
621,46
622,46
623,46
624,46
625,46
626,47
627,47
628,47
629,47
630,48
631,48
632,48
633,48
634,48
635,48
636,48
637,48
638,48
639,49
640,49
641,49
642,49
643,49
644,49
645,49
646,49
647,49
648,49
649,49
650,49
651,49
652,49
653,49
654,50
655,51
656,51
657,51
658,51
659,51
660,51
661,51
662,51
663,51
664,51
665,51
666,51
667,51
668,51
669,51
670,51
671,51
672,51
673,51
674,51
675,51
676,51
677,51
678,51
679,51
680,51
681,51
682,51
683,51
684,52
685,52
686,52
687,52
688,52
689,52
690,52
691,53
692,53
693,53
694,53
695,53
696,53
697,53
698,54
699,54
700,54
701,54
702,54
703,54
704,54
705,54
706,55
707,55
708,55
709,55
710,55
711,55
712,55
713,55
714,55
715,55
716,55
717,55
718,55
719,55
720,55
721,56
722,56
723,56
724,56
725,56
726,56
727,56
728,56
729,56
730,56
731,56
732,56
733,56
734,57
735,57
736,57
737,57
738,57
739,57
740,57
741,57
742,57
743,57
744,57
745,57
746,57
747,57
748,57
749,57
750,57
751,57
752,57
753,57
754,57
755,57
756,57
757,57
758,57
759,57
760,57
761,57
762,58
763,58
764,58
765,58
766,58
767,58
768,59
769,59
770,59
771,59
772,59
773,59
774,59
775,59
776,59
777,59
778,60
779,60
780,60
781,60
782,60
783,60
784,60
785,60
786,60
787,60
788,60
789,60
790,60
791,61
792,61
793,61
794,61
795,61
796,61
797,61
798,61
799,61
800,61
801,61
802,61
803,61
804,61
805,61
806,61
807,61
808,61
809,61
810,61
811,61
812,61
813,61
814,61
815,61
816,61
817,62
818,62
819,62
820,62
821,62
822,62
823,62
824,62
825,62
826,62
827,62
828,62
829,62
830,62
831,64
832,64
833,64
834,64
835,64
836,64
837,64
838,64
839,64
840,64
841,64
842,65
843,65
844,65
845,65
846,66
847,66
848,66
849,66
850,66
851,66
852,66
853,66
854,66
855,66
856,66
857,66
858,66
859,66
860,66
861,66
862,66
863,66
864,66
865,66
866,66
867,66
868,66
869,66
870,66
871,66
872,66
873,66
874,66
875,66
876,66
877,66
878,66
879,66
880,66
881,66
882,66
883,66
884,66
885,66
886,66
887,66
888,66
889,66
890,66
891,66
892,66
893,66
894,66
895,66
896,66
897,66
898,66
899,66
900,66
901,66
902,66
903,66
904,66
905,66
906,66
907,66
908,66
909,66
910,67
911,67
912,67
913,67
914,67
915,67
916,67
917,67
918,67
919,67
920,67
921,67
922,67
923,67
924,67
925,67
926,67
927,67
928,67
929,67
930,67
931,67
932,67
933,68
934,68
935,68
936,68
937,68
938,68
939,68
940,69
941,69
942,69
943,70
944,70
945,70
946,70
947,70
948,70
949,70
950,70
951,70
952,70
953,70
954,70
955,70
956,70
957,70
958,70
959,70
960,70
961,70
962,70
963,70
964,70
965,70
966,70
967,70
968,70
969,70
970,70
971,70
972,70
973,70
974,70
975,70
976,70
977,70
978,70
979,70
980,70
981,72
982,72
983,72
984,72
985,72
986,72
987,72
988,72
989,72
990,72
991,72
992,72
993,72
994,72
995,72
996,72
997,72
998,72
999,72
1000,73
1001,73
1002,73
1003,73
1004,74
1005,74
1006,74
1007,74
1008,74
1009,74
1010,74
1011,74
1012,74
1013,74
1014,74
1015,74
1016,74
1017,74
1018,74
1019,74
1020,74
1021,75
1022,75
1023,75
1024,75
1025,75
1026,75
1027,76
1028,76
1029,76
1030,76
1031,76
1032,76
1033,76
1034,76
1035,76
1036,76
1037,76
1038,76
1039,76
1040,76
1041,76
1042,76
1043,76
1044,76
1045,76
1046,76
1047,77
1048,78
1049,78
1050,78
1051,79
1052,79
1053,79
1054,79
1055,79
1056,79
1057,79
1058,79
1059,79
1060,79
1061,79
1062,79
1063,79
1064,79
1065,79
1066,79
1067,79
1068,79
1069,79
1070,79
1071,79
1072,79
1073,79
1074,80
1075,80
1076,80
1077,80
1078,80
1079,80
1080,80
1081,80
1082,80
1083,80
1084,80
1085,81
1086,81
1087,81
1088,81
1089,81
1090,81
1091,81
1092,82
1093,82
1094,82
1095,82
1096,82
1097,82
1098,82
1099,82
1100,82
1101,82
1102,82
1103,82
1104,82
1105,82
1106,82
1107,82
1108,82
1109,82
1110,82
1111,82
1112,82
1113,82
1114,82
1115,82
1116,82
1117,82
1118,82
1119,82
1120,82
1121,82
1122,82
1123,82
1124,82
1125,82
1126,82
1127,82
1128,82
1129,82
1130,82
1131,82
1132,82
1133,82
1134,82
1135,82
1136,82
1137,82
1138,82
1139,82
1140,82
1141,82
1142,82
1143,82
1144,82
1145,82
1146,82
1147,82
1148,83
1149,83
1150,84
1151,84
1152,84
1153,84
1154,84
1155,84
1156,84
1157,84
1158,84
1159,84
1160,84
1161,84
1162,84
1163,84
1164,84
1165,84
1166,84
1167,84
1168,84
1169,84
1170,84
1171,84
1172,84
1173,84
1174,84
1175,84
1176,84
1177,84
1178,84
1179,84
1180,84
1181,84
1182,84
1183,84
1184,84
1185,84
1186,84
1187,84
1188,84
1189,84
1190,84
1191,84
1192,84
1193,84
1194,84
1195,84
1196,84
1197,84
1198,84
1199,84
1200,84
1201,84
1202,84
1203,84
1204,84
1205,84
1206,84
1207,84
1208,84
1209,84
1210,84
1211,84
1212,84
1213,84
1214,84
1215,84
1216,84
1217,84
1218,84
1219,84
1220,84
1221,85
1222,85
1223,85
1224,85
1225,85
1226,85
1227,85
1228,85
1229,85
1230,85
1231,85
1232,85
1233,85
1234,85
1235,85
1236,85
1237,85
1238,85
1239,86
1240,86
1241,86
1242,86
1243,86
1244,86
1245,86
1246,86
1247,86
1248,86
1249,86
1250,86
1251,86
1252,86
1253,86
1254,86
1255,86
1256,86
1257,86
1258,86
1259,86
1260,86
1261,86
1262,87
1263,87
1264,87
1265,87
1266,87
1267,87
1268,87
1269,87
1270,87
1271,87
1272,87
1273,87
1274,87
1275,87
1276,87
1277,87
1278,87
1279,87
1280,87
1281,87
1282,88
1283,88
1284,88
1285,88
1286,88
1287,88
1288,88
1289,89
1290,90
1291,90
1292,90
1293,90
1294,90
1295,91
1296,91
1297,91
1298,91
1299,91
1300,91
1301,91
1302,91
1303,91
1304,91
1305,91
1306,91
1307,91
1308,91
1309,91
1310,91
1311,92
1312,92
1313,92
1314,92
1315,92
1316,92
1317,92
1318,92
1319,92
1320,92
1321,92
1322,93
1323,93
1324,94
1325,94
1326,94
1327,95
1328,96
1329,96
1330,96
1331,96
1332,96
1333,96
1334,96
1335,96
1336,96
1337,96
1338,96
1339,96
1340,96
1341,96
1342,96
1343,96
1344,96
1345,96
1346,96
1347,96
1348,96
1349,96
1350,96
1351,96
1352,97
1353,97
1354,97
1355,97
1356,97
1357,97
1358,97
1359,97
1360,97
1361,97
1362,97
1363,97
1364,97
1365,97
1366,97
1367,97
1368,97
1369,97
1370,97
1371,97
1372,97
1373,97
1374,97
1375,97
1376,97
1377,98
1378,98
1379,98
1380,98
1381,98
1382,98
1383,98
1384,98
1385,98
1386,98
1387,98
1388,98
1389,98
1390,98
1391,98
1392,99
1393,99
1394,99
1395,99
1396,99
1397,99
1398,99
1399,99
1400,100
1401,100
1402,100
1403,100
1404,100
1405,100
1406,100
1407,100
1408,100
1409,100
1410,100
1411,100
1412,100
1413,100
1414,100
1415,101
1416,101
1417,101
1418,101
1419,101
1420,101
1421,101
1422,101
1423,101
1424,101
1425,101
1426,101
1427,101
1428,101
1429,101
1430,101
1431,101
1432,102
1433,102
1434,102
1435,103
1436,103
1437,103
1438,103
1439,103
1440,103
1441,103
1442,103
1443,103
1444,103
1445,104
1446,104
1447,104
1448,104
1449,104
1450,104
1451,104
1452,104
1453,104
1454,104
1455,104
1456,104
1457,104
1458,104
1459,104
1460,104
1461,104
1462,104
1463,104
1464,104
1465,104
1466,104
1467,104
1468,105
1469,105
1470,105
1471,105
1472,105
1473,105
1474,105
1475,105
1476,105
1477,105
1478,105
1479,105
1480,105
1481,105
1482,105
1483,105
1484,105
1485,105
1486,105
1487,105
1488,105
1489,105
1490,105
1491,105
1492,105
1493,105
1494,105
1495,105
1496,105
1497,105
1498,105
1499,105
1500,105
1501,105
1502,105
1503,105
1504,105
1505,105
1506,105
1507,105
1508,105
1509,105
1510,105
1511,105
1512,106
1513,106
1514,106
1515,106
1516,106
1517,106
1518,106
1519,106
1520,106
1521,106
1522,106
1523,106
1524,106
1525,108
1526,108
1527,108
1528,108
1529,108
1530,108
1531,108
1532,108
1533,108
1534,108
1535,108
1536,109
1537,109
1538,111
1539,111
1540,111
1541,111
1542,112
1543,112
1544,112
1545,112
1546,112
1547,112
1548,112
1549,112
1550,112
1551,112
1552,112
1553,112
1554,112
1555,112
1556,112
1557,112
1558,112
1559,112
1560,112
1561,112
1562,112
1563,112
1564,112
1565,113
1566,113
1567,113
1568,113
1569,113
1570,113
1571,113
1572,113
1573,113
1574,113
1575,113
1576,113
1577,113
1578,113
1579,113
1580,113
1581,113
1582,113
1583,113
1584,113
1585,113
1586,113
1587,113
1588,113
1589,113
1590,113
1591,113
1592,113
1593,113
1594,113
1595,113
1596,113
1597,113
1598,113
1599,113
1600,113
1601,113
1602,113
1603,113
1604,113
1605,113
1606,113
1607,113
1608,113
1609,113
1610,113
1611,113
1612,113
1613,114
1614,114
1615,114
1616,114
1617,114
1618,114
1619,115
1620,115
1621,115
1622,115
1623,115
1624,115
1625,115
1626,115
1627,115
1628,115
1629,115
1630,115
1631,115
1632,115
1633,115
1634,115
1635,115
1636,115
1637,115
1638,115
1639,115
1640,115
1641,115
1642,115
1643,115
1644,115
1645,115
1646,116
1647,116
1648,116
1649,116
1650,116
1651,116
1652,116
1653,116
1654,116
1655,116
1656,116
1657,116
1658,116
1659,116
1660,116
1661,116
1662,116
1663,116
1664,116
1665,116
1666,116
1667,116
1668,116
1669,116
1670,116
1671,116
1672,116
1673,116
1674,116
1675,116
1676,116
1677,116
1678,116
1679,116
1680,116
1681,116
1682,116
1683,116
1684,116
1685,116
1686,116
1687,116
1688,116
1689,116
1690,116
1691,116
1692,116
1693,116
1694,116
1695,116
1696,116
1697,116
1698,116
1699,116
1700,116
1701,116
1702,116
1703,116
1704,116
1705,116
1706,116
1707,116
1708,116
1709,116
1710,116
1711,116
1712,116
1713,116
1714,116
1715,116
1716,116
1717,116
1718,116
1719,117
1720,117
1721,117
1722,118
1723,118
1724,118
1725,118
1726,118
1727,118
1728,118
1729,118
1730,118
1731,118
1732,118
1733,118
1734,118
1735,118
1736,118
1737,118
1738,118
1739,118
1740,118
1741,118
1742,118
1743,118
1744,118
1745,118
1746,118
1747,118
1748,118
1749,118
1750,118
1751,119
1752,120
1753,120
1754,120
1755,120
1756,120
1757,120
1758,120
1759,120
1760,120
1761,120
1762,120
1763,120
1764,120
1765,120
1766,120
1767,120
1768,120
1769,120
1770,120
1771,120
1772,120
1773,120
1774,120
1775,120
1776,120
1777,120
1778,120
1779,120
1780,120
1781,121
1782,121
1783,121
1784,122
1785,123
1786,123
1787,123
1788,123
1789,123
1790,123
1791,123
1792,123
1793,123
1794,123
1795,123
1796,123
1797,123
1798,123
1799,123
1800,123
1801,123
1802,123
1803,123
1804,123
1805,123
1806,123
1807,123
1808,123
1809,123
1810,123
1811,123
1812,123
1813,123
1814,123
1815,123
1816,123
1817,123
1818,123
1819,123
1820,123
1821,123
1822,123
1823,123
1824,123
1825,123
1826,123
1827,123
1828,123
1829,123
1830,123
1831,123
1832,123
1833,123
1834,123
1835,124
1836,124
1837,124
1838,124
1839,124
1840,124
1841,124
1842,124
1843,124
1844,124
1845,124
1846,124
1847,124
1848,124
1849,124
1850,124
1851,124
1852,124
1853,124
1854,124
1855,124
1856,124
1857,124
1858,124
1859,124
1860,124
1861,124
1862,124
1863,124
1864,124
1865,124
1866,124
1867,124
1868,124
1869,124
1870,124
1871,124
1872,124
1873,124
1874,124
1875,124
1876,124
1877,124
1878,124
1879,124
1880,124
1881,124
1882,124
1883,124
1884,124
1885,124
1886,124
1887,124
1888,124
1889,124
1890,124
1891,124
1892,124
1893,125
1894,125
1895,125
1896,125
1897,125
1898,125
1899,125
1900,125
1901,125
1902,125
1903,125
1904,125
1905,125
1906,125
1907,126
1908,126
1909,126
1910,126
1911,126
1912,126
1913,126
1914,126
1915,126
1916,126
1917,127
1918,127
1919,127
1920,127
1921,127
1922,127
1923,127
1924,127
1925,127
1926,127
1927,127
1928,128
1929,128
1930,128
1931,128
1932,128
1933,128
1934,128
1935,128
1936,128
1937,128
1938,128
1939,128
1940,129
1941,129
1942,129
1943,129
1944,129
1945,129
1946,129
1947,129
1948,129
1949,129
1950,129
1951,129
1952,129
1953,129
1954,129
1955,130
1956,130
1957,130
1958,130
1959,130
1960,130
1961,130
1962,130
1963,130
1964,130
1965,130
1966,130
1967,130
1968,130
1969,130
1970,130
1971,130
1972,130
1973,130
1974,130
1975,130
1976,130
1977,130
1978,130
1979,130
1980,130
1981,130
1982,130
1983,130
1984,130
1985,130
1986,130
1987,130
1988,130
1989,130
1990,130
1991,130
1992,130
1993,130
1994,130
1995,131
1996,131
1997,131
1998,131
1999,131
2000,131
